{
    "Article": "（原标题：美国公务员进入“高薪时代”3万人比州长挣得多）美国政府监督机构“公开账目组织”发布的报告显示，2016财年联邦政府领取六位数薪水的雇员约有40.7万人，占比约20%。对比2010财年，薪酬不低于20万美元的人数增加165%。美国收入最高的州长是宾夕法尼亚州州长沃尔夫，年薪达到19.08万美元，有3万普通联邦政府雇员收入超过沃尔夫。本文来源：新华国际作者：陈丹责任编辑：李杭_BJS4645",
    "URL": "http://news.163.com/18/0103/20/D78K0UCO0001899N.html",
    "KeyWords": "美国,州长,公务员,联邦",
    "PublishTime": "01/03/201820:23:49",
    "Title": "美国公务员进入\"高薪时代\" 3万雇员比州长挣得多_网易新闻",
    "Comment": {
        "Content": "码头工人的工资可真的不低。 美国州长不如我村村长 哈哈，有水平 美帝的工资结构挺合理的，而且美金购买力强，一个基层工人基本养活一家子没问题，在🐔这反过来，工厂打工的那样子都清楚，再配上这拉稀的皿币，穷是正常的 长官可以是临时工，一般雇员不可能是临时工，他们是受法律保护的职场人士 美国的收入肯定是和劳动成正比的。不管是脑力劳动或是体力劳动，那种不劳动工资还高的畸形想象是没有的 中国的县长的工资说出来让人流泪，那年领导们晒工资晒的流水线上的工人都不好意思领工资了。真是为人民服务。 美国工资高的不是白领和公务员，而是一线技术工人，如建筑工人，工资不低，关键是一天干不了几个小时活。靠北方的修公路的工人，每年4月份开始工作，10月底下雪后就停工了。 其实，美国清洁工的工资也有这么多，可能还要高一点。 牛逼 这1百多万rmb年薪比中实油，中殿，中怡东等懂事长还高啊，难怪这么廉洁 公务员在美国还真是临时工，待遇一般而已。 那是加班加的，平时的没那么多！ 尼玛20美刀一年，过得日子仅仅比富人差一截而已 码头工人的工资可真的不低。 美国州长不如我村村长 哈哈，有水平 美帝的工资结构挺合理的，而且美金购买力强，一个基层工人基本养活一家子没问题，在🐔这反过来，工厂打工的那样子都清楚，再配上这拉稀的皿币，穷是正常的 牛逼 美国的收入肯定是和劳动成正比的。不管是脑力劳动或是体力劳动，那种不劳动工资还高的畸形想象是没有的 中国的县长的工资说出来让人流泪，那年领导们晒工资晒的流水线上的工人都不好意思领工资了。真是为人民服务。 美国工资高的不是白领和公务员，而是一线技术工人，如建筑工人，工资不低，关键是一天干不了几个小时活。靠北方的修公路的工人，每年4月份开始工作，10月底下雪后就停工了。 其实，美国清洁工的工资也有这么多，可能还要高一点。 长官可以是临时工，一般雇员不可能是临时工，他们是受法律保护的职场人士 这1百多万rmb年薪比中实油，中殿，中怡东等懂事长还高啊，难怪这么廉洁 公务员在美国还真是临时工，待遇一般而已。 ",
        "Link": "http://comment.news.163.com/news2_bbs/D78K0UCO0001899N.html",
        "Total": 427,
        "Reply": 13
    },
    "Source": "Netease"
}