{
    "Article": "网易体育12月30日报道：在五大联赛中，巴萨是唯一三线不败的球队，而且在联赛中已经领先皇马14分。但如今的巴萨，也有一个巨大的隐患，那就是相对较高的平均年龄。《马卡报》指出，巴萨整体马上要“三十而立”了。在进入2018年后，巴萨平均年龄将为29.4岁。在巴萨主力阵容中，绝大部分球员都算是大龄甚至高龄球员了。特尔施特根和罗贝托26岁，乌姆蒂蒂25岁，这是巴萨主力阵容里少有的中生代球员。阿尔巴29岁，布斯克茨、拉基蒂奇和保利尼奥即将30岁，梅西、苏亚雷斯和皮克都是31岁，伊涅斯塔明年就要34岁了。在巴萨主力阵容中，7名球员年龄30+。巴萨高层早已意识到了这一问题，近几年引援基本都选择了潜力新秀。但问题在于，巴萨引援眼光实在不太好。在中生代球员中，如今只有乌姆蒂蒂跻身首发阵容，戈麦斯甚至在诺坎普被嘘过。在2018年中，皇马平均年龄也将达到29.2岁。不过在皇马首发阵容里，只有纳瓦斯、拉莫斯、马塞洛、莫德里奇、C罗和本泽马六人年龄30+。其中纳瓦斯、本泽马下赛季基本确定无缘首发阵容，C罗有可能离队，特奥和塞巴略斯则已经被定义为马塞洛和魔笛的替身。在英超一路连胜的曼城，平均年龄为27.6岁，首发里只有奥塔门迪、费尔南迪尼奥、席尔瓦和阿奎罗明年将会30+，瓜迪奥拉在完成换血的同时也提升了球队战斗力。巴黎平均年龄26.5岁，主力中只有阿尔维斯、蒂亚戈-席尔瓦和卡瓦尼年龄30+。拜仁平均年龄27.1岁，首发中乌尔赖希、拉菲尼亚、胡梅尔斯、比达尔和莱万将要30+。尤文平均年龄33岁，首发中布冯、利希施泰纳、基耶利尼、马图伊迪、赫迪拉、夸德拉多和伊瓜因将集体30+，老龄化比巴萨更严重。本文来源：网易体育作者：张琳责任编辑：姚成浩_NS4810",
    "PublishTime": "12/30/201710:10:27",
    "URL": "http://sports.163.com/17/1230/10/D6T7AUA800058781.html",
    "Comment": {
        "Content": "有哪些足球论坛 只要梅西还在巅峰，年龄什么的都不是事儿！ 总比你黄越位靠裁判偷的冠军强 巴萨青训青黄不接，梅西的老去退役等于巴萨的时代过去，曾经接班的内马尔远走巴黎。看看皇马的啊森和瓦拉内巴萨有谁 本内特，你爹我把尼玛长蛆的尸块剁成肉酱，眼珠绞成汤拌饭拍你家祖坟上 赛程才过半，就盛世？别奶 傻逼畜生！ 年龄什么都是细节。再大岁数只要打皇马不还是最低消费么... 本内特尼女良走得并不安详，听说火化时你女良嚎了一个小时才完事。运它⚱️的车发生了漂移，⚱️撒到了化粪池里。好不容易下葬，不到一年坟头被平了，改成了迪厅 零几年看球，一晃也十几年了？我的天，都老了，确实没几年了 拜仁大多都是当打之年，除了罗里2老。 我就想知道下赛季C罗离队去哪?本泽马打不了首发又换谁？ 巴萨U12刚刚打败瓦伦拿了冠军，也不见网易报道，就只会挑事儿，然而还有人中招。 不要在网易跟黄畜争，全网易黄畜数量不算多，主要还是受教育水平和素质问题，去论坛看看完全不一样。网易还有很多圈养的黄畜，再加上散养的，跟他们怎么讲道理？ 我霉永远18岁巴萨永远盛世一个国王杯也是盛世 U21在欧洲很厉害的，相当于很快出徒的样子，有三五个人可以在一线队中替补了 比起米兰当年的120岁后防线还有差距。 加油巴萨！！！ 头七没过，哪来的勇气 从头开始呗！我罗那种能花钱买，梅西那种你得碰的上，看运气了。 老罗没把皇马技术提高，倒是把平均年龄都拉高了 刚死了全家的黄畜咬的好疼哦，来继续咬，赶紧咬完去给你惨死的表子妈奔丧，继续咬 巴萨再老虐虐马戏团还是绰绰有余的 感觉U12还早着呢，就算能按照理想中的轨迹成长，要接班那也得好几年后的事情。 巴萨是百年豪门气质高贵像什么斯坦福桥惨案逆转大巴黎干爹队G14闹独立套球衣皮看穿哈大嘴布教授倒贴法暴力鸟倒脚队怂恿罢训叛徒内马尔不默哀踩人头拉影球场喷水红点套餐三场五点得点最多被点最少红牌最少对手红牌最多围裁判打滚高素质球迷反力学翻转普拉蒂尼草皮绊倒点球角球没开点球没听见哨红牌门将吹哨咬人假摔点球羞辱门将队友受伤对手停攻抢球打反击客场更衣室成猪窝等都是子虚乌有百度都查不到梅西是真正的球王阳光励志正能量像什么拖鞋发布会四十秒红牌激素助长上帝之手藏门将身后等开球肘击门牙散步不防守领袖气质高薪报答俱乐部踢看台球迷窜广告牌杀机偷税子罪父偿开基金会骗善款一己之力进决赛青梅冰清安东内拉怒退国家队推裁判骂娘等等更是子虚乌有听说都没听说过萨迷梅吹们是一个高素质有教养的群体从来不人身攻击污言秽语晒父母口器官讽地域比手机不同意见会据理反驳用铁的事实证明自己的理念身为皇马C罗的球迷真的羡慕嫉妒好气好气小编您看这样说行吗求您不要派火星网友带走我的帖子了我发不出去的帖子都能出一本书了 和皇马强阿扎尔，凯恩之类的高手，不要又出现登贝莱这种回扣门时间了（1500万拖到了1亿五）3场1个助攻~暴力鸟断断续续6个进球助攻，防守数据也不错~登贝莱只打出了2500万身家~希望强西甲英超顶级的~ 总比你黄越位靠裁判偷的冠军强 令人唏嘘啊 赛程才过半，就盛世？别奶 这好解决、签两个刚刚出生的婴儿，平均年龄不就下去了嘛[不屑] 胡楠煞笔秀下限 本内特尼女良走得并不安详，听说火化时你女良嚎了一个小时才完事。运它⚱️的车发生了漂移，⚱️撒到了化粪池里。好不容易下葬，不到一年坟头被平了，改成了迪厅 拜仁大多都是当打之年，除了罗里2老。 零几年看球，一晃也十几年了？我的天，都老了，确实没几年了 我就想知道下赛季C罗离队去哪?本泽马打不了首发又换谁？ l论四大皆空，还是你黄比较擅长 毛冠军没有也是盛世，真tm会吹。 老罗没把皇马技术提高，倒是把平均年龄都拉高了 我霉永远18岁巴萨永远盛世一个国王杯也是盛世 加油巴萨！！！ 只要梅西还在巅峰，年龄什么的都不是事儿！ 巴萨U12刚刚打败瓦伦拿了冠军，也不见网易报道，就只会挑事儿，然而还有人中招。 王朝都是被时间打败的，比如AC米兰以巴雷西为首的后防线，大多都在36岁了 张琳已经开始运作C罗转会了 不要在网易跟黄畜争，全网易黄畜数量不算多，主要还是受教育水平和素质问题，去论坛看看完全不一样。网易还有很多圈养的黄畜，再加上散养的，跟他们怎么讲道理？ 盛世之下有隐忧 这个标题有水平！迅雷不及掩耳盗铃之势 有哪些足球论坛 打败巴萨的只是时间而已！巴萨永远是世上最好的球队！ 从头开始呗！我罗那种能花钱买，梅西那种你得碰的上，看运气了。 巴萨青训青黄不接，梅西的老去退役等于巴萨的时代过去，曾经接班的内马尔远走巴黎。看看皇马的啊森和瓦拉内巴萨有谁 本内特，你爹我把尼玛长蛆的尸块剁成肉酱，眼珠绞成汤拌饭拍你家祖坟上 马🐴拉多纳虽然才165，但他有1986世界杯🏅🏆，1990世界杯银牌。2个美洲杯冠军。是世界⚽️👑。梅西三个亚军，还不是球王！14年世界杯决赛，进球被吹，心态崩了，被格策绝杀！美洲杯决赛踢飞冠军。现在阿根廷很弱，有些球队，虽然有所谓的球王，凝聚力差。所以取得不了好成绩！ 而立之年好. 年龄什么都是细节。再大岁数只要打皇马不还是最低消费么... 马🐴拉多纳虽然才165，但他有1986世界杯🏅🏆，1990世界杯银牌。2个美洲杯冠军。是世界⚽️👑。梅西三个亚军，还不是球王！14年世界杯决赛，进球被吹，心态崩了，被格策绝杀！美洲杯决赛踢飞冠军。现在阿根廷很弱，有些球队，虽然有所谓的球王，凝聚力差。所以取得不了好成绩！ 法国🇫🇷输给了担架！ 头七没过，哪来的勇气 可惜人家是u12 有意思？ 你自己看看你自己的名字和你的发言，你所谓的受教育水平和素质问题就体现在这？别给巴萨抹黑了 比起米兰当年的120岁后防线还有差距。 愿明年你也能这么吹你黄 梅西是巴萨刮刮卡特等大奖，这种哪那么容易碰上 一个国王杯确实是盛世 拉玛西亚新出了一个很厉害的13岁 🇰🇷在世界杯连灭🇮🇹🇪🇸🇮🇩🇬🇷🇵🇹，五大欧洲劲旅及🇹🇬！日本赢的全是弱旅(🇷🇺🇹🇳🇩🇰🇨🇲)！ 看了几场皇马的比赛，个人感觉阿森西奥真不怎么样，突破不行，又独，一味的远射，也就是西超杯进了巴萨两个世界波之后，立马被吹成未来金球奖的候选人 对对对，要不怎么需要展示三次呢 傻逼畜生！ 刚死了全家的黄畜咬的好疼哦，来继续咬，赶紧咬完去给你惨死的表子妈奔丧，继续咬 巴萨再老虐虐马戏团还是绰绰有余的 看顶尖各队的平均年龄，大巴黎离登顶欧冠不远了。 ",
        "Link": "http://comment.sports.163.com/sports2_bbs/D6T7AUA800058781.html",
        "Total": 1146,
        "Reply": 51
    },
    "Source": "Netease",
    "Title": "巴萨盛世之下也有隐忧 平均年龄马上三十而立了_网易体育",
    "KeyWords": "巴萨,皇马,纳瓦斯"
}