{
    "Title": "梅西全家暖洋洋过圣诞 皇马喉舌:他就是食人魔!_网易体育",
    "URL": "http://sports.163.com/17/1225/13/D6GOFKC000058781.html",
    "Source": "Netease",
    "Comment": {
        "Total": 8448,
        "Reply": 192,
        "Content": "说梅西不被看好的，得是多么傻逼，梅西25岁就四个金球了 能说出这话真是过分了，素质低下！ 迷你罗看到梅西全家照之后眼含热泪说:“有真妈好。” 梅西梅西梅西 圣诞老人是普拉蒂尼吗？😏 迷你罗看到梅西全家照之后眼含热泪说:“有妈真好。” 体能师跟普拉蒂尼怎么不陪孩子一起过圣诞节啊 皇马球迷骂梅西家人时，可没见你们出来主持正义！[鄙视][鄙视][鄙视] 未成名？梅西13.14岁就已经被炒得天下皆知了，16还是17岁打西甲打了几场就已经号称巴萨未来国王了！你是说要从6.7岁就开始关注梅西？你TM是球探啊？ 梅西和库里以前都是不被看好的，不看好的👋👋👋 智利民族英雄🇨🇱⚽️👑 傻逼，只关注成名后的梅西吧？ 足坛历史第一人圣诞快乐！ 圣诞老人是体能师吗？[窃笑][窃笑][窃笑] 我能理解一楼你这个孤儿 估计今年的国外的皇马球迷过圣诞跟他们家里人办丧事一样难受 皇马球迷骂梅西家人时，可没见你们出来主持正义！ 我罗说：我没爸，孩子也不能有爸！不对，那就没妈吧 梅西还没踢职业联赛的时候，阿根廷青年队专门为他踢了一场比赛，就是为了避免梅西加入西班牙国家队。这么说就清楚了梅西青年时代多么出色。 梅西正在创造和打破无数个记录,不知道将来谁会打破这些数据 梅西什么时候不被看好？ 这应该是强行不被看好吧！ 过分了 库里的确不被看好，但是梅西不一样，梅西从少年队就被看做未来的球王 皇马球迷骂梅西家人时，可没见你们出来主持正义！[鄙视][鄙视][鄙视][鄙视] 我是巴萨球迷，我觉得一楼是傻逼 c罗:亡父魔 哈哈哈哈 总结2017笑话，罗球玉自吹自擂历史最佳排第一。 黃🐶：我特麼連臉都不要了，還要名字干媽！ 梅西还没踢上西甲就已经炒得天下皆知了，踢了几场就已经被人称为巴萨未来国王了！ 梅西从前不看好？药吃多了吧 迷你罗看到梅西全家照之后眼含热泪说:“有妈和有爷爷真好。” 梅西从来都是天才17岁就能登场西甲。你说不被看好？从小就一直被看好。谁跟你说梅西以前不被看好。 🐕有个共同的特点，喜欢躲在角落里，并且发言还要隐姓埋名！把被我抓住，直接打死吗？[窃笑][窃笑][窃笑][喷水][狗][狗] 梅西只虐菜 一年进91球（不含友谊赛）历史第一，巴萨队史第一射手（同时也是欧洲历史第一）！ c罗全家福巴沟辱骂c罗家人，梅西全家福巴沟也在辱骂c罗家人，👍👍👍 自己打不过，黄GOU们只有到处抱大腿了。 12岁就是天下了，被纸巾合同带走来到拉玛西亚，全世界都惊呼的马拉多纳的继承人，17岁就登场诺坎普，你竟然说这种人不是天才？ 多么无耻的人才拿家人说事，也不怕遭了报应。 23楼都是伪球迷 现在进60都世界第一，当年91怎么进的 德国赢了智力 那时候，记得他打世青赛很喜欢过人，禁区里都要过掉几个人再射门。教练和某些解说还批评他过于粘球。同时认为他的能力远超同年龄的小球员。 足坛历史第一人圣诞快乐！ 果然下小学生多作怪 舔你老目最方便，蝈蝈 梅西是老爵爷心中的痛 被批评为世少赛和世青赛上不需要队友的那个独来独往小孩，梅西。其实巴萨帮他把身体缺陷解决，以后就打造出超高敏捷高力量的完全体梅西，无敌了。 梅西和库里以前都是不被看好的，不看好的👋👋👋 梅西一出道就定义为天才了…那时候的突破简直无人能当… 只是以前身体有病 智利民族英雄🇨🇱⚽️👑 库里是谁？梅西自小就金童了，17岁时就很多人认为将会成为世界第一人了，17/18岁已经比那些25+的当红巨星要强太多了，只不过当时力量经验还未到最强时。 哈哈，我罗自带黑点，初笙而已，就该骂[窃笑] 梅西还没踢职业联赛的时候，阿根廷青年队专门为他踢了一场比赛，就是为了避免梅西加入西班牙国家队。这么说就清楚了梅西青年时代多么出色。 C罗是，一开始觉得是巨星胚，没想到到达这个高度 去看看那年的世青赛世少赛就知道了梅西什么表现。。 世青赛上，梅西就把过人当吃饭一样简单，好像得了个最佳新人。20岁以后越踢越厉害，技术已到了超一流境界。带球如人球合一的形态。 总结2017笑话，罗球玉自吹自擂历史最佳排第一。 从梅西参加世青赛的时候就觉得这个小个子非同一般，没想到十几年过去了，越来越牛叉，没有下滑的迹象 一直觉得篮球狗的智商有问题 不是滥交，是他不想而已，和女方有签协议的，给一笔不菲的钱，不许透露孩子的任何信息，也就是封口费，不要老婆，怕被分财产 尼玛和一个黑人弄了个私生子无名无份的他又不是没有女朋友还不是滥交 擦太扎心了孩子是无辜的 那时的防守对当红的大小罗们问题不大，但却被一个叫梅西的小孩整条防线搞乱，经常一个人过一支队都不是问题，皇马车仔等对梅西的犯规是最多的，不犯规根本没办法碰到梅西带着的球。 梅西从前不看好？药吃多了吧 那届比赛很精彩，梅西的世界杯。他上场就是不停的过人，不停的进攻跑动。。 巴沟占领了新闻评论区，呵呵，一眼望去全是🐶 一年进91球（不含友谊赛）历史第一，巴萨队史第一射手（同时也是欧洲历史第一）！ 未成名？梅西13.14岁就已经被炒得天下皆知了，16还是17岁打西甲打了几场就已经号称巴萨未来国王了！你是说要从6.7岁就开始关注梅西？你TM是球探啊？ 梅西从来都是天才17岁就能登场西甲。你说不被看好？从小就一直被看好。谁跟你说梅西以前不被看好。 记得05年17岁刚踢西甲的梅西接小罗的传球打进第一球，那时开始关注梅西，当时新闻已经吹巴萨未来之星开始开创时代了，可见当时未踢西甲前梅西就已经被看好了。 06年未满十九岁就替补上场面对塞黑进球，一直关注至今。无论专业人员还是媒体都冠以天才，同时代另外被冠以天才就是鲁尼。 你妈咪床上的那个是 傻B，你罗难道赢了智利。 圣诞老人是普拉蒂尼吗？😏 迷你罗看到梅西全家照之后眼含热泪说:“有妈真好。” 再往前点，因为有病确实不被看好。。引进还要治病。。 我是巴萨球迷，但真烦那些没人性的狗东西满嘴喷粪，那些不是巴萨球迷，那些人是垃圾，是人渣 多么无耻的人才拿家人说事，也不怕遭了报应。 别拿库里和梅西比 巴萨为了得到10岁的梅西<br>愿意全额支付他的巨额治病费用<br>刚出道就被马拉多纳钦点为接班人<br>这也叫不被看好？ 圣诞老人是体能师吗？[窃笑][窃笑][窃笑] 年少成名，还没进入巴萨一线队的时候就被阿根廷当成民族希望了。<br>历史上也有很多年少成名的天赋型选手，但大部分都陨落了。老天开眼，偏偏是让最有天赋的那一个脱颖而出 梅西一直被看好呀。 话是重了点但是c罗滥交导致自己儿子妈妈都没有也确实是黑点 和那些小学生讲根本没用，04年估计这些人都还没出生。如果参照现在的年轻球星，估计姆巴佩吧，反而c罗真的没想到有这样的成就，甚至0506那两年我还觉得成水货了，结果却爆发。梅西的成长符合大家的心理预期 体能师跟普拉蒂尼怎么不陪孩子一起过圣诞节啊 皇马喉舌报一不小心也成了梅吹！ 一坨💩上最佳！ 18岁拿到世青赛冠军和金球奖，就被看做天才球员、未来的巨星。05年荷兰世青赛经典啊，银球奖是米克尔，中国队也大放异彩，陈涛、国王董、赵一脚、飞机郜。 👍 梅西从小就是超级天才 温馨 迷你罗看到梅西全家照之后眼含热泪说:“有妈和有爷爷真好。” 梅西在01年世青赛的时候就已经很出名了，他是标准的从小就成名一直在巅峰被关注的球员 想舔安东妹子 不吃个苹果？不科学啊 马卡报犯罪了。 应该讲有人质疑的 c罗全家福巴沟辱骂c罗家人，梅西全家福巴沟也在辱骂c罗家人，👍👍👍 滚尼玛吧足坛历史第一人？三亚市长？真不要碧莲 12岁就是天下了，被纸巾合同带走来到拉玛西亚，全世界都惊呼的马拉多纳的继承人，17岁就登场诺坎普，你竟然说这种人不是天才？ 其实他想说的是他是屎上最佳！ 23楼都是伪球迷 现在进60都世界第一，当年91怎么进的 保利尼奥本来就比C罗厉害 喷子世界的 智利民族英雄🇨🇱⚽️👑 保利尼奥本来就比C罗厉害 你个脑残 是食人魔玩偶?变身持续十分钟?冷却时间十分钟 谁说梅西刚出道不被看好，哪时的梅西被誉为足球的希望 梅西和库里以前都是不被看好的，不看好的👋👋👋 球王，不是看你的秀发有多漂亮，也不是看你的身材，也不是看你长得高能有多高，就算你比姚明高，又能如何，但你别忘了，这是足球，和你身材没关系，你是用脚踢球还是用身材踢球？还是说你长得高就可以踢球，用你的男士清扬秀发踢球？别跟我说史上第一是靠身材和秀发当的，球王，你怎么说就一个比别人厉害一点普通的射手而已，你的能力当然不及梅西，梅西能射门能过人能跑位能传球能1v5能.....当这些条件满足后，在我看来这才是真正的球王 巴沟儿子跪下吃屎 足坛历史第一人圣诞快乐！ c罗:亡父魔 智利民族英雄🇨🇱⚽️👑 年末战中超…凯恩来吧 有点过了，祸不及其子！ 我大祭司原来就是圣诞老人啊，怪不得神通广大 nba选秀乐透区指的是1-14位新秀。 能说出这话真是过分了，素质低下！ 东北的 总结2017笑话，罗球玉自吹自擂历史最佳排第一。 法国🇫🇷输给了担架！ 梅西从来都是天才17岁就能登场西甲。你说不被看好？从小就一直被看好。谁跟你说梅西以前不被看好。 两个狗真能叫唤 你把煤老板放在皇马！估计现在皇马还是打不过！所以说一个优秀的团队才能让你的才华展露无遗！ 史上最好的可以吗？ 干嘛要喷C罗呢 🐕有个共同的特点，喜欢躲在角落里，并且发言还要隐姓埋名！把被我抓住，直接打死吗？[窃笑][窃笑][窃笑][喷水][狗][狗] 如果梅西现在没续约，老佛爷绝对不会放过。 这傻逼是从来不看球，你理他作甚 二楼说人家素质低下，难道剥夺孩子的母爱是天经地义的？？？？ 虽然一楼说的过分，但是那孩子确实也挺可怜的。 保利尼奥本来就比C罗厉害 没素质的黑子，黑黑球场上的别带家人 历史上第一算不上当今差不多。 我罗说：我没爸，孩子也不能有爸！不对，那就没妈吧 保利尼奥本来就比C罗厉害 是的。07-08赛季巴萨联赛才排第四，欧冠都从资格赛打起。 MerryChristmas🎄🎄🎄 迷你罗看到梅西全家照之后眼含热泪说:“有真妈好。” 保利尼奥本来就比C罗厉害 这样过节真他妈的爽啊！ 库里能和梅西比？？？？ 迷你罗看到梅西全家照之后眼含热泪说:“有妈真好。” 儿子跪下吃屎，用你妈的名字呀 皇马球迷骂梅西家人时，可没见你们出来主持正义！[鄙视][鄙视][鄙视] 大儿子和妈妈像，小儿子和爸爸像 你说这话脸疼不，梅西一路光环。 法国🇫🇷输给了担架！ 一看到安东内拉就想起她的献逼记 梅西一上场就带去了魔性，不用说大家就明白该怎么走位 梅西说第二，没人敢说第一。库里真的是大器晚成，以后也会是历史三分榜第一人，超越雷阿伦 梅西正在创造和打破无数个记录,不知道将来谁会打破这些数据 就是啊，好过份哦[挨揍] 自己打不过，黄GOU们只有到处抱大腿了。 这应该是强行不被看好吧！ 啥都不说了，当年那个帽子戏法3比3逼平皇马的时候就知道此人不凡的了。。 库里也是天才只不过是因为伤病而被低估，但是当年选秀也还是第七顺位。不受伤的话有机会进乐透区。 一楼说得一点儿都不好笑，丢了巴萨球迷和梅西球迷的脸。 过分了 智利民族英雄🇨🇱⚽️👑 从来不品论梅西C罗的，以前还觉得两人各有千秋，这次看了比赛，真心感觉梅西真的比C罗厉害有灵性。 哪个？自称的还是公认的？ 保利尼奥本来就比C罗厉害 跟个狗费什么劲 迷你罗看到梅西全家照之后眼含热泪说:“有妈和有爷爷真好。” 法国🇫🇷输给了担架！ 博扬之前，巴萨所有青年梯队的记录都是梅西的好像… 确实不好 多么无耻的人才拿家人说事，也不怕遭了报应。 这。。。。。。 保利尼奥本来就比C罗厉害 那赛季巴萨也很尴尬啊，领先10几分，被皇马反超，同积分胜负关系输给皇马。07-08更是被皇马全面压制，梅西真正崛起是瓜迪奥拉来了。。 保利尼奥本来就比C罗厉害 智利民族英雄🇨🇱⚽️👑 法国🇫🇷输给了担架！ 我们何必学他们？ 足坛历史第一人圣诞快乐！ 谁说梅西刚出道不被看好，哪时的梅西被誉为足球的希望 梅西和库里以前都是不被看好的，不看好的👋👋👋 保利尼奥本来就比C罗厉害 不被看好会被从阿根廷接到西班牙治病？ 一开始有人和我说：蒂亚戈是体能师的儿子。<br>我不信，因为梅西怎么可能会给别人养儿子呢？<br>后来又有人和我说马特奥也是体能师的儿子。<br>我不信，一个奸夫怎么可能屡次得手呢。<br>到最后有人和我说，梅西是豪尔赫的儿子。<br>我信了，因为豪尔赫愿意为了梅西蹲监狱。👍 14年世界杯决赛、单刀踢偏。美洲杯决赛点球射飞。各种保送对手夺冠，输球了怪队友，退国家队。梅西球技是好，但是真没有王者之风，没有领袖气质，一到关键时刻就掉链子。百年一遇的金牌小卧底。2次美洲杯都输给智利，最后点球还踢飞。居然说梅西有速度，笑死人了。靠打激素的渣渣也说天赋？宇宙第一的梅毒能传能突能组织带着英超射手王、意甲射手王和西甲助攻王居然0球0助，给智利淘汰两次！ 保利尼奥本来就比C罗厉害 看你的名字就觉得替你悲哀，是球迷就专心评球，你只适合搬砖。 估计今年的国外的皇马球迷过圣诞跟他们家里人办丧事一样难受 能说出这话真是过分了，素质低下！ 天天拿人身高说事就是正常？ 库里的确不被看好，但是梅西不一样，梅西从少年队就被看做未来的球王 梅西年少成名好吧 保利尼奥本来就比C罗厉害 哈哈哈哈 梅西从来都是天才17岁就能登场西甲。你说不被看好？从小就一直被看好。谁跟你说梅西以前不被看好。 我觉的一点不过分，小小罗的妈妈一不是离婚走了不愿意接受他了，二不是过世了，没有妈妈完全不是因为c罗造成的，也许人家压根就没有什么感觉，都是按照媒体报道猜测的，真实是什么样谁也不知道 梅西什么时候不被看好？ 谁给的权利让你们过圣诞的？ 🐕有个共同的特点，喜欢躲在角落里，并且发言还要隐姓埋名！把被我抓住，直接打死吗？[窃笑][窃笑][窃笑][喷水][狗][狗] 梅西只虐菜 保利尼奥本来就比C罗厉害 不及家人真恶心你压根就不是球迷 智利民族英雄🇨🇱⚽️👑 所以皇马的狗恨他，真正的皇马球迷只会和真正的巴萨球迷互相尊重！鼓掌！[微笑][微笑][微笑] 梅西世青赛时候就被看好成世界第一人了好不好 06-07赛季在诺坎普对阵皇马独进三球力挽狂澜扳平比分，避免了被皇马双杀的尴尬结局。 迷你罗看到梅西全家照之后眼含热泪说:“有妈真好。” 只差一个地球杯了 多么无耻的人才拿家人说事，也不怕遭了报应。 越强黑的人越多。澳门直营BC看我名字哦 库里算球王吗？装逼 皇马球迷骂梅西家人时，可没见你们出来主持正义！ 梅西刚出道甚至还没进入一线队的时候，就是巴萨的绝对的希望之星了。。。。 库里放到以前就是二流水平，只能说NBA水平下降了 各种数据对于大神来说已经无所谓了 迷你罗的妈妈，拿着C罗给的钱逍遥快活！又不是去世了。 皇马球迷骂梅西家人时，可没见你们出来主持正义！[鄙视][鄙视][鄙视][鄙视] 我是巴萨球迷，我觉得一楼是傻逼 过分了 拿家人说事的，是喷子中最没素质的，没有之一 05年世青赛金球，甘伯杯踢尤文图斯，中场休息的时候卡佩罗就去问里杰卡尔德要租借 黃🐶：我特麼連臉都不要了，還要名字干媽！ 黄杂诅咒蒂亚戈夭折的时候没怕过报应吗？不过，一楼咱们最好别和畜生学！ messi—kingoffootball 保利尼奥本来就比C罗厉害 梅西梅西梅西 迷你罗看到梅西全家照之后眼含热泪说:“有妈和有爷爷真好。” …梅西从小就被各个梯队教练认为是不世之材，狂刷各个年龄段进球纪录…17岁时小罗就认为他是未来天王… 爷爷在爸爸要坐牢时可以顶罪，确实挺好的 真得感谢巴萨，不然梅西的身体状况真的不被看好 我能理解一楼你这个孤儿 天赐梅西与我巴萨！ 别浪费，炖了，楼下要来拾点柴 拉莫斯不也喝酒呢 智利民族英雄🇨🇱⚽️👑 保利尼奥本来就比C罗厉害 迷你罗看到梅西全家照之后眼含热泪说:“有妈真好。” 保利尼奥本来就比C罗厉害 智利民族英雄🇨🇱⚽️👑 ",
        "Link": "http://comment.sports.163.com/sports2_bbs/D6GOFKC000058781.html"
    },
    "Article": "网易体育12月25日报道：在11月时，梅西带着家人去了芬兰，他去拜访了圣诞老人的家乡。在昨晚平安夜，梅西又带着家人和圣诞老人合影。在圣诞老人小木屋中，梅西、安东内拉和两个儿子成了圣诞老人、圣诞老奶奶的座上客。照片上的六个人，全都带着圣诞帽子。圣诞老人坐在正中央，梅西大儿子蒂亚戈和二儿子马特奥坐在他两条大腿上。安东内拉，则坐在了圣诞老奶奶腿上。梅西站在圣诞老人背后，远处的墙壁上挂着一件专属于圣诞老人的巴萨25号球衣。梅西正在欢度圣诞假期，而国家德比中的3比0，则是梅西献给巴萨球迷们最好的节日礼物。皇马喉舌《马卡报》坦言，对于皇马而言，梅西简直就是个食人魔！《马卡报》列举了梅西在国家德比中的一系列数据，来佐证这一观点。梅西在伯纳乌赢了10场球，而在诺坎普举行的国家德比中，梅西只赢了7场球。梅西在伯纳乌打进了15球，在诺坎普国家德比中则打进了10球。每次到皇马地盘上，梅西似乎总能天神下凡。《马卡报》还罗列了梅西另外一些数据，以显示他的伟大。梅西本赛季联赛中打进15球，他是史上第一位连续10个赛季西甲至少打进15球的球员。梅西在联赛中17次攻破皇马球门，这一数据排名历史第一。梅西为巴萨送出200次助攻，这一次甚至是在右脚没球鞋的状况下完成助攻的。梅西在2017年打进54球，只有打进53球的凯恩有可能在年度末战中超越梅西。本文来源：网易体育作者：张琳责任编辑：朱楷正_NS4807",
    "PublishTime": "12/25/201713:59:58",
    "KeyWords": "梅西,食人魔,圣诞,皇马"
}