{
    "Title": "座机被极端组织命中 埃及国防部长内政部长险丧生_网易新闻",
    "URL": "http://news.163.com/17/1225/19/D6HATIOT000187V9.html",
    "Source": "Netease",
    "Comment": {
        "Total": 29,
        "Reply": 9,
        "Content": "直升机发生爆炸，一名军官当场死亡，两位部长都没有在事件中受伤。这直升机是怎么炸的？ UH-60黑鹰直升机是由美国西科斯基飞行器公司在上世纪七十年代为美国陆军设计生产的四旋翼、双发动机、中型通用直升机。UH-60以其至今4500多架的生产量成为世界上生产数量最多的直升机之一，更证明了其设计的优异性。 有什么大惊小怪的，埃及总统都被打死过。两个部长座驾被炸，人还无恙，小事一桩。 伊斯兰国袭击清真寺？为什么？ 直升机发生爆炸，一名军官当场死亡，两位部长都没有在事件中受伤。这直升机是怎么炸的？ 不科学 部长肯定不在现场么 有什么大惊小怪的，埃及总统都被打死过。两个部长座驾被炸，人还无恙，小事一桩。 9M113Konkurs-EM号反坦克导弹由俄罗斯图拉仪器设计制造局研制，1994年10月首次亮相，用于取代有线制导的第二代AT-5“竞赛”式反坦克导弹。它既能打击坦克也能打击慢速低空的直升机。因为成本较高，目前只装备于特定单位及部队。 我TM以为是我家里的座机，很多年没用了。 ",
        "Link": "http://comment.news.163.com/news2_bbs/D6HATIOT000187V9.html"
    },
    "Article": "（原标题：座机被极端组织命中，埃及国防部长内政部长险些丧生）据埃及媒体报道，当地时间12月19日，极端组织伊斯兰国(ISIS)使用9M113Konkurs-EM反坦克导弹攻击了正在西奈半岛阿里什空军基地视察的埃及内政部长西德基·苏卜希和国防部长贾法尔所乘坐的UH-60\"黑鹰\"直升机。直升机发生爆炸，一名军官当场死亡，两位部长都没有在事件中受伤。据报道，被极端组织的导弹击中后，直升机发生爆炸，一名军官当场死亡，两位部长都没有在事件中受伤。在所乘坐的直升机被击毁后，两位部长不得不乘坐埃及军队的米-17直升机离开阿里什空军基地。埃及媒体报道原文截图今年以来，埃及安全形势严峻。4月9日，埃及北部城市坦塔和亚历山大遭恐怖袭击，埃及总统塞西随即宣布全国进入为期3个月的紧急状态。埃及政府随后于7月和10月两次延长紧急状态。11月24日，埃及北西奈省一座清真寺遭恐怖袭击，造成至少305人死亡、128人受伤。袭击发生后，埃及安全部队在西奈半岛和其他地区对恐怖分子及其藏匿处实施打击。11月25日在埃及北西奈省比尔阿比德拍摄的遭恐怖袭击的清真寺(图新华社)上月(11月)21日，伊朗总统鲁哈尼向全国发表电视直播讲话时宣布，极端组织“伊斯兰国”(ISIS)已经被剿灭。虽然目前“伊斯兰国”的有形力量已经被击溃，但是其影响并没有被彻底消灭。伊斯兰国在埃及西奈半岛的据点，也成为了该地区恐怖袭击频发的主要原因。本文来源：环球时报-环球网。更多精彩，请登录环球网http://www.huanqiu.com责任编辑：李杭_BJS4645",
    "PublishTime": "12/25/201719:10:00",
    "KeyWords": "国防部长,埃及,恐怖袭击"
}