{
    "Source": "Netease",
    "KeyWords": "菲律宾,杜特尔特,火灾,达沃市",
    "URL": "http://news.163.com/17/1224/05/D6DA7ASD0001875O.html",
    "PublishTime": "12/24/201705:53:03",
    "Comment": {
        "Content": "小李啊，怎么不把消息压下去 天干物燥 保佑安然无恙 外国火新闻也这么多呀🤗️ 天干物燥 得益特朗普减税政策，美多家公司开始为员工规模加薪 。。 竟然超过了二十个人 外国火新闻也这么多呀🤗️ 过圣诞节啦!天上有大声音呼唤牧羊人，主诞生啦，在那马槽里!天上有光柱引导牧羊人至马槽! 小李啊，怎么不把消息压下去 保佑安然无恙 希望无人员伤亡。 可怜 ",
        "Total": 35,
        "Link": "http://comment.news.163.com/news_guoji2_bbs/D6DA7ASD0001875O.html",
        "Reply": 10
    },
    "Article": "（原标题：菲律宾一商场火灾已超过13小时至少35人失踪）据《菲律宾星报》报道，菲律宾南部重镇达沃市的一所商场在23日上午传出火警，截至当晚11时，火势仍未扑灭，火灾已经超过13个小时。达沃市政府称，火灾造成至少35人失踪。被困在商场内的人多数都是在里面的呼叫中心工作的员工。发生火灾的商场叫做新城市商业中心商场(newcitycommercialcentremall,NCCCmall)。它所在的达沃市也是菲律宾总统杜特尔特的家乡。23日，达沃市不仅要面对台风“天秤”带来的洪涝灾害，又同时面临火警。杜特尔特总统在23日晚接见了部分受害者的亲属。本文来源：央视作者：黄铮铮责任编辑：姬雪莹_NN6784",
    "Title": "菲律宾一商场火灾已超过13小时 至少35人失踪_网易新闻"
}