{
    "Article": "（原标题：特朗普就美国航空安全创纪录一事邀功引发争议）【环球网综合报道】据英国路透社1月3日报道，1月2日，美国总统唐纳德?特朗普把2017年商业航空安全创纪录这一成就归功于自己，但这很快引发美国国内评论人士的批评。他们认为，这一成就反映的其实是特朗普上任之前的美国政策趋势。1月2日，特朗普在推特上写道：“自上任以来，我一直对商业航空非常严格。好消息来了：刚刚有报道指出，2017年商业航空死亡人数为零，是有史以来最好、最安全的一年。”据报道，今年三月美国曾推出限制措施要求9家中东航班上乘客不得携带笔记本电脑，目的是为了防止潜在的爆炸风险。之后在今年7月，美国宣布已经实施了新的安全要求，并随之取消这些限制措施。此前一天有两家安全机构报告称，2017年，全球范围内未发生客机伤亡事故，这是有史以来最安全的一年。现任和前任航空安全官员均表示，特朗普与去年的商业客机安全记录无关。多年来，客机安全不断得以改善，事实上，自2009年以来，美国客机就未发生过伤亡事故。“航空安全网络”会长哈罗?兰特(HarroRanter)在一封电子邮件中写道:“直接将全球安全水平与美国近期的政策变化联系起来是不可能的。”他说:“美国一直以来所做的努力帮助我们达到了今天的水平，但政策改变需要数年才能达到效果，而且必须与航空业的其他努力相结合。”路透社报道说，特朗普喜欢把一些进展归功于自己的政府，而事实却并非如此，故而常引发相关人士的批评。(实习编译：范松梅审稿：谭利娅)本文来源：环球时报-环球网。更多精彩，请登录环球网http://www.huanqiu.com责任编辑：姚文广_NN1682",
    "URL": "http://war.163.com/18/0103/10/D77H8HN3000181KN.html",
    "KeyWords": "特朗普,美国,航空,巴基斯坦",
    "PublishTime": "01/03/201810:16:15",
    "Title": "特朗普就美国航空安全创纪录一事邀功引发争议_网易军事",
    "Comment": {
        "Content": "新闻在说商业航班…… 圣诞节前有一架飞机在佛罗里达坠毁，5人遇难。 这🐶还匿名了 楼上撒比懂不懂英文？就失败过两次?首先他起步是他做房地产的老爹给的钱，就像王思聪一样，其次多达十多个他成立的公司破产，包括去年当上了总统都给30多现在破产了的川普大学学生每人赔了一百多万美金。2009年伊万卡在电视采访中说，有次我和爸爸经过纽约第五大道见到一个流浪汉，他对我说，女儿你知道吗？这个人还比我多800万美金，因为那时候他负债超过了资产800万。盲目崇拜的撒比令人作呕 你搞笑吧他棕榈湾度假酒店还有赌场苏格兰的烂尾高尔夫球场失败多的去了真正投资很成功也就是纽约房地产赶上了那波好时光川普粉怎么跟川普一样都不要脸 圣诞节前有一架飞机在佛罗里达坠毁，5人遇难。这个大礼包讨厌。 假如川普连干三届，那美国富得油能流淌到把整个地球包着 一楼就一屌丝还以为自己是什么东西，说一个“个个比他牛逼无数倍的人”组合起来的团体短视，他以为他自己是什么东西 打狗匠那条狗 认认真真办事的老人！ 川普是个逐利的商人，他的政府注定是短视的，他更注重短期利益和所谓立竿见影的效果，忽视战略性的和责任性…，满足那些选他的redneck的意淫。 因为美国是属于全体美国国民的。 美国在各方面都变得越来越好 摔得时候我刚好穿越过来了，建议把我遣送回去 登机口放些火腿肠和绿皮经，上飞机前必须吃一口撕一页，这样基本可保平安 说的是商业航班，私人飞机，军用飞机，农用飞机，教练机，观光机不在此列 只要是功劳哪川普肯定要抢，如果是苦劳川普肯定跑得比兔子快。 2017年有很多人骂你是猪狗不理如，2018毁好点吗 为什么美国媒体可以调侃特朗普，美国人民可以讽刺特朗普？ 笑死你爹我了，川普从大学没毕业就开始投资，就失败过两次，（一次买橄榄球队，一次赌城）你告诉我他目光短浅？评判一个人首先要了解一个人。 就喜欢老特的做事风格，给个赞👍加油💪 已阅，邀请函你发吧 不行，得让我和你一块去，督察一下看看是不是真穿过来的。 这🐶还匿名了 你搞笑吧他棕榈湾度假酒店还有赌场苏格兰的烂尾高尔夫球场失败多的去了真正投资很成功也就是纽约房地产赶上了那波好时光川普粉怎么跟川普一样都不要脸 象白痴。 川普是个逐利的商人，他的政府注定是短视的，他更注重短期利益和所谓立竿见影的效果，忽视战略性的和责任性…，满足那些选他的redneck的意淫。 争议啥？功劳肯定是领导的 我们也可以啊 我想邀请他来做主。 说的是商业航班，私人飞机，军用飞机，农用飞机，教练机，观光机不在此列 为什么美国媒体可以调侃特朗普，美国人民可以讽刺特朗普？ 失败过两次？你眼瞎啊？7次破产记录，川普大学，川普牛排，川普杂志，川普大西洋赌场，川普航空公司等等哪个不是投资失败？ 新闻在说商业航班…… 还用抢吗？都是大杂的 假如川普连干三届，那美国富得油能流淌到把整个地球包着 领导不都这样吗，还特别会捞钱，官越大贪污得越多是吧？ 可能是私人飞机 就是这样，出了问题肯定会说是民主党搞的，这撒比完全是一个小孩子的思维 以后不知道怎么样，反正减税，加息弄的我们村长挺闹心的 摔得时候我刚好穿越过来了，建议把我遣送回去 人家是揽功，不是邀功，文盲 一楼就一屌丝还以为自己是什么东西，说一个“个个比他牛逼无数倍的人”组合起来的团体短视，他以为他自己是什么东西 我们也可以调侃特朗普 故事:川普领域谁挂帅了？<br>假把式，自欺欺人 还有大江 真TM好笑，很多跟他毫无关系的事情他都要邀功。其实我也可以这样干的。中国经济增长7%完全是我的功劳，你们这些网易喷子快来祝贺我，在这里点赞 圣诞节前有一架飞机在佛罗里达坠毁，5人遇难。这个大礼包讨厌。 打狗匠那条狗 笑死你爹我了，川普从大学没毕业就开始投资，就失败过两次，（一次买橄榄球队，一次赌城）你告诉我他目光短浅？评判一个人首先要了解一个人。 文章写了商业航空，5个人的应该是私人小飞机 乘客不得携带笔记本电脑，目的是为了防止潜在的爆炸风险——真特么的委婉~ 商业航空，商业航空，商业航空 和这新闻有什么关系？ 故事:那假把式，还竖母指<br>笑死人 川普在左派和建制派重重包围和围追堵截下依旧取得傲人的成就 别人哪里邀功了？ 你儿子是个好学生，不怪他。对了，建议晚上7点你们家电视别打开，对你儿子智商发育有好处。 在美国做底层的吧 2017年有很多人骂你是猪狗不理如，2018毁好点吗 圣诞节前有一架飞机在佛罗里达坠毁，5人遇难。 人家不是说了，这个零伤亡是指商用大型客机，不包括小型观光飞机，实际这一全年零伤亡记录应该主要归功于波音和空客。 登机口放些火腿肠和绿皮经，上飞机前必须吃一口撕一页，这样基本可保平安 商业航空，不是军用 楼上撒比懂不懂英文？就失败过两次?首先他起步是他做房地产的老爹给的钱，就像王思聪一样，其次多达十多个他成立的公司破产，包括去年当上了总统都给30多现在破产了的川普大学学生每人赔了一百多万美金。2009年伊万卡在电视采访中说，有次我和爸爸经过纽约第五大道见到一个流浪汉，他对我说，女儿你知道吗？这个人还比我多800万美金，因为那时候他负债超过了资产800万。盲目崇拜的撒比令人作呕 因为美国是属于全体美国国民的。 美国在各方面都变得越来越好 自驾的不算 发现网易有几千个舔美日的间谍一直在评论军事，那些人是有工资的，获赞量高的基本是美日狗搞得，只有它们有这时间，除了那些不能让这些美日狗说话的贴子，哪里都有它们。 十大成就哈哈哈 老特就是有一套 没有假如，干的在牛B为了避免独裁，宪法规定最多任两届，每届四年，所以你的假如不成立 只要是功劳哪川普肯定要抢，如果是苦劳川普肯定跑得比兔子快。 认认真真办事的老人！ ",
        "Link": "http://comment.war.163.com/news_junshi_bbs/D77H8HN3000181KN.html",
        "Total": 604,
        "Reply": 54
    },
    "Source": "Netease"
}