{
    "URL": "http://tech.163.com/17/1227/10/D6LH6T4F00097U7S.html",
    "Comment": {
        "Total": 1928,
        "Reply": 200,
        "Link": "http://comment.tech.163.com/tech_bbs/D6LH6T4F00097U7S.html",
        "Content": "没毛病 6666666666 华为倒是越来越好了[狗] 升级系统啊 哈哈哈 病了还要治病？直接死了投胎从来啊 掏大粪成名系列 你这什么逻辑？ 骗子看到水果要烂了赶紧圏钱 手机坏了要维修？靠，用个一年就换的玩意，还要维修？用个手机要维修的，只能说你当初买的价格超出了你实际承受能力。 十几年前有个修诺基亚的，昨天我去看他了，嗯，草长的真高 曾经诺基亚也有一个庞大无比的生态圈 大家好！我开的街边皮鞋美容摊也准备上市了。 利润来源单一，技术落后，这样的公司也能上市？ 嗯，房子脏了也不用重新装修，直接再买 年收5亿，毛利达到80%的业务，去上市的可能有几个<br>1）毛利高，运营成本也高，净利低于20%<br>2）预见业绩在未来几年会下滑<br>3）公司大股东不喜欢闷着发大财 看图苹果质量一年不如一年 小米销量比水果大，修小米的没上市，修水果的上市了 所以我用的是小米,便宜,坏了不用考虑维修,小件修大件还修个p呀,修一个可以换一台新机了 修手机的上市了 这算下游产业链，如果你再把上游产业链也算上，你会发现全球有无数无数的公司依附在苹果产业链上生存，这是一个庞大之极的生态圈。 一楼是不是家里人生病就直接弄死，反正中国人多直接到街上认一个就行，早晚得死去医院多麻烦。 得看修一下多少吧 换个电池，换个屏幕有那么难么，淘些原厂件来自己拆拆换换，半小时搞定 难道一楼就是车上烟灰缸满了要换车的那位土豪？ 兄弟们别说了一楼只是想装下逼让他装别理他 看谁还说小米质量差养活了第三方维修站 房子坏了还要修，直接买新房子啊 哈哈一楼说他用一个摔一个 大家好！我深圳怡红院集团也准备上市了。欢迎大家来日。 大家好，我开的下水道修理铺子马上也要上市了，欢迎大家踊跃认购！ 大家好，我掏粪的也准备上市了，欢迎大家踊跃认购 厉害了 手机属于更新换代很快的低值电子产品，除非意外，保修期内很少坏的，保修期后坏了，修理费很贵，修就不如换了，如果一台手机用了一、两年后坏了，舍不得买新的宁愿去修，那只能说明你买的手机价格不适合你的收入水平，比如月入3、4千的买个6000多的苹果，坏了当然舍不得换。车和手机不一样，属于高值耐用消费品，坏了当然要修，7，8年后坏了，可能就不修买新的了。 车坏了还要修？直接换辆车嘛土豪 曾经我一大学校友靠空余时间校外摆摊贴膜三年挣了二十多万！ 意思是苹果坏了就要扔扔不起就说明钱不够买新的。 一楼就等着你这么夸他。。 新买用不到一个月把屏摔碎了，你修是不修？ 无耻的iOS系统[鄙视] 一楼小时候发烧他妈就没去治直接换了个猪脑子！ 掏粪的？ 现在的东西太容易坏了，小学时候家里的砖头电视机到现在还能用，前年买的智能电视，现在经常无限重启，哎 一楼生病了还要看医生？直接死了算球，赶紧投胎说不定还能当上王健林的孙子呢😂 如果手机不坏怎么办？ 如果都像你动手能力这么强，蓝绿大厂不早就倒了？ 我操，拽了 广东惠州的百邦，服务态度和效率，让你怀疑进错门了😁同感的点个赞👍🏻 升级系统啊 妈的，暴力行业国家应该管管，还能让他上市玩呢？ 路过 只要PPT做得好 事实证明，就算苹果死了这些所谓的产业链也死不了，段时间就会恢复 吹牛逼而已，这样的公司上市得死，你看看小米就明白了，还是安稳的赚钱就行了，泡沫经济不易玩 我表哥修手机的，只换手机屏幕，不到三年赚了一百多万，一个三平米的小店，带着一个不发工资的小徒弟 。。 有道理 车坏了还要修？直接换辆车嘛土豪 能够转型成功就行，单一模式一旦渠道增多就是行业了 我一部手机碎屏直接换 又想骗我去学修手机 可惜泰泽不给力啊 利润大 我不是土豪，我买手机从来不超过2000块，超过保修期坏了就换，从不修，不坏的话也是1年半就换，电子产品追求最贵的最新款，是最不划算的 学徒，没工资，包吃住就不错了 地球还有灾难，快搬去外星吧～土豪 都离不开微软[狗] 你敢说不是软文? 利润来源单一，技术落后，这样的公司也能上市？ 傻逼逻辑 修苹果手机的上市了，需要多少坏手机啊！ 小米销量比水果大，修小米的没上市，修水果的上市了 房子坏了还要修，直接买新房子啊 这算下游产业链，如果你再把上游产业链也算上，你会发现全球有无数无数的公司依附在苹果产业链上生存，这是一个庞大之极的生态圈。 这说明有多少买苹果的瓜皮， 手机维修就是暴利 说个话跟个智障一样，小学生？ 手机坏了要维修？靠，用个一年就换的玩意，还要维修？用个手机要维修的，只能说你当初买的价格超出了你实际承受能力。 过去啦 好机智 一楼坏了不用修，直接去火葬场！省事省心一个字爽！ 这些 除非有新的系统，不然不可能终结苹果 厉害了 不发工资？ 这个不同的，我强调的是手机换代很快，过了保修期的手机基本没有修的价值，又落伍，维修费又高，不如买新的，如果舍不得换，只能说明你当初买的手机太贵了。 好公司，有钱途，胜过大多软件股 因为一堆垃圾何必要修呢？ 修手机的上市了 反正这类公司后台不一般就是了 这么大的后市场？ 讲道理对于老百姓来说车房这些是大件了，手机只是小东西而已，根本不能混为一谈。 去你妈的百华悦邦。老子的4S，2013年在银川被偷，淘宝买了ICCID查询服务，两星期后查到在上海某商场的百华悦邦办理换机。查到电话后打过去，一天打了七十多个电话没人接！下午六点多接通，告诉我手机已经被换走了！要求提供换机人电话，不予提供！声称这种事情见的多了，报警也没用！网上查了一下，还有上海本地媒体曝光过，就是一家和贼联手的销赃窝点。这种垃圾企业，祝早日倒闭！ 无耻的iOS系统[鄙视] 你懂的 有的人一年要摔坏几次手机屏幕，要是爆一次屏幕就换手机。一般人还真承受不了 手机还真的坏了直接换没啥的。。。。。除非你的手机真的很贵 手机属于更新换代很快的低值电子产品，除非意外，保修期内很少坏的，保修期后坏了，修理费很贵，修就不如换了，如果一台手机用了一、两年后坏了，舍不得买新的宁愿去修，那只能说明你买的手机价格不适合你的收入水平，比如月入3、4千的买个6000多的苹果，坏了当然舍不得换。车和手机不一样，属于高值耐用消费品，坏了当然要修，7，8年后坏了，可能就不修买新的了。 如果手机不坏怎么办？ 曾经诺基亚也有一个庞大无比的生态圈 腊鸡百邦… 夏天夏天悄悄过去留下纪梵希<br>压心底压心底还有阿玛尼<br>晚风吹过温暖我心底我又想起你<br>宝格丽宝格丽怎能忘记<br>不能忘记你把你写在微博里<br>不能忘记你我的阿斯顿马丁<br>浪漫的夏季还有施华洛世奇<br>给我一辆粉红的法拉利 没毛病 大家好！我东莞怡红院集团也准备上市了。欢迎大家来日。 华为倒是越来越好了[狗] 升级系统啊 哪里有这样的店子？我要换电池，电池不行了 6666666666 病了还要治病？直接死了投胎从来啊 用了三年我都修了😂 APPLE倒闭了咋办？ 大家都听你的那维修店更赚钱，本来只是换个外屏一百多块的事，听你的自己换把内屏拆坏修一下要七八百！ 苹果这样搞是作死 “一个毛利率高达80%左右的暴利业务！”那维修收费太贵了嘛 用车来比不合适吧，应该用电视 手机坏了要维修？靠，用个一年就换的玩意，还要维修？用个手机要维修的，只能说你当初买的价格超出了你实际承受能力。 跟帖 卖钢化膜和手机壳的都赚飞了 没有原装的除非你真能弄到拆机屏！ 大家好！我开的街边皮鞋美容摊也准备上市了。 又想片我去修手机 不应该是修小米的吗 嗯，房子脏了也不用重新装修，直接再买 厉害！ 看图苹果质量一年不如一年 你这什么逻辑？ 车坏了还要修？直接换辆车嘛土豪 这算下游产业链，如果你再把上游产业链也算上，你会发现全球有无数无数的公司依附在苹果产业链上生存，这是一个庞大之极的生态圈。 ne 换个电池，换个屏幕有那么难么，淘些原厂件来自己拆拆换换，半小时搞定 难道一楼就是车上烟灰缸满了要换车的那位土豪？ 小而美啊. 中国就是奇葩老想上市，一上市就呵呵了，被架空了。 那些大公司盈利多，说明价格太高，公司盈利一年比一年高，物价一年比一年更高！ 果你再把上游产业链也算上，你会发现全球有无 看谁还说小米质量差养活了第三方维修站 呵呵 厉害 辣鸡百邦，服务也很垃圾！安卓现在不比Apple差，差的是国内的生态 兄弟时代变了 大家好！我深圳怡红院集团也准备上市了。欢迎大家来日。 大家好，我开的下水道修理铺子马上也要上市了，欢迎大家踊跃认购！ 原来苹果质量那么差? 厉害了 妹特湿跟果八之间，没有选择妹特湿 曾经我一大学校友靠空余时间校外摆摊贴膜三年挣了二十多万！ 一楼的家人生病了怎么办、？靠！还治！直接换一个啊 你就是去修手机的人 意思是苹果坏了就要扔扔不起就说明钱不够买新的。 这样的公司也能上市啊 新买用不到一个月把屏摔碎了，你修是不修？ 震惊！看了这个才知道我院的副院长xxx副教授为什么长期在校门口摆摊贴膜!比工资高,省的精疲力竭搞科研。再随便混混工资补贴家用,高，实在是高！ mo 一楼小时候发烧他妈就没去治直接换了个猪脑子！ 掏粪的？ 一楼是客厅地板沾点水就换房的土豪，就是任性，哈哈 一楼的老婆被人干过了一次也要换，必须要处的 那不是插一下换一个人！插第二下都不是处了。 如果手机不坏怎么办？ 你莫非就是掏粪男孩？？？？？？ 商圈住宅周边无数的手机维修小店，带动着房租，最后都汇入了地产市场 升级系统啊 深圳一个做冲压件的厂，就给苹果供那些冲压件小铁片，还不是它独家供应，都赚的盆满钵满的。 作者不要碧莲，靠这种文章来黑苹果，你珠子真的非常缺歪汇了 从不修 呵呵 一楼是不是家里人生病就直接弄死，反正中国人多直接到街上认一个就行，早晚得死去医院多麻烦。 yyyyg 修个屁，坏了劳资直接买新的 一楼有钱直接换了 [狗] 跟随型研发战略 [被黑][被黑] 骗子看到水果要烂了赶紧圏钱 真是晦气！早上起床听收音机提到苹果碎屏维修的报道，我的手机立马就摔碎了！其实是因为优衣库的裤袋设计根本装不稳东西的，我已经投诉优衣库了 年收5亿，毛利达到80%的业务，去上市的可能有几个<br>1）毛利高，运营成本也高，净利低于20%<br>2）预见业绩在未来几年会下滑<br>3）公司大股东不喜欢闷着发大财 十几年前有个修诺基亚的，昨天我去看他了，嗯，草长的真高 新买用不到一个月把屏摔碎了，你修是不修？ [喷水][喷水][喷水] 曾经诺基亚也有一个庞大无比的生态圈 跟你一样用小灵通？ 百邦出了名的黑以赚钱为主要目的做售后<br>之前一台手机忘了啥问题有时行有时不行。还要收你99元检测费 换个电池，换个屏幕有那么难么，淘些原厂件来自己拆拆换换，半小时搞定 几把坏了还要修？直接换就可以了 前半年或者前一年钢化膜贴好，手机壳带好，一年后再取也没关系，那时候屏幕都已经很便宜了。2-300一块，苹果的稍贵些，便宜的手机的屏幕就更便宜了，摔碎了网上买块换好就可以了。当然，也不是每个男的都会去弄这些，女孩子就更加一窍不通总之，有钱直接换手机[窃笑] 魅族屏幕总成80块一套，动三个螺丝就解决了， 车坏了还要修？直接换辆车嘛土豪 不修、直接摔的机换新机 这算下游产业链，如果你再把上游产业链也算上，你会发现全球有无数无数的公司依附在苹果产业链上生存，这是一个庞大之极的生态圈。 天天捧在手上吃饭拉屎都拿手上，能不坏吗 掏大粪成名系列 已经是最新版本系统怎么破 得看修一下多少吧 oled屏自己换外屏难度很大的 大家好，我开的下水道修理铺子马上也要上市了，欢迎大家踊跃认购！ 兄弟们别说了一楼只是想装下逼让他装别理他 又想骗我去修手机，上次囤的钢化膜还没贴完呢！ 手机坏了要维修？靠，用个一年就换的玩意，还要维修？用个手机要维修的，只能说你当初买的价格超出了你实际承受能力。 问题是买来第二天就摔坏了，你要维修不？ 现在知道苹果为什么卖这么贵了吧！ 装成这样 屏幕摔，都自修。 不是修小米的赚钱吗，怎么修苹果的也赚 iphonex换屏399元？哪里拿的货源？ 修手机的基本坑蒙拐骗 新买的手机屏幕摔裂了肯定是换屏啦，当然像你这样的土豪都是直接换个新的 淘宝买屏回来，自己换呗 [被黑][被黑][被黑] 人家有干爹，你比不了的 毕竟苹果手机贵，像我这种用魅族的摔坏屏幕换屏幕还不如再买台新款。 一楼生病了还要看医生？直接死了算球，赶紧投胎说不定还能当上王健林的孙子呢😂 如果手机不坏怎么办？ 这个要看个人动手能力的曾经我有个朋友跟你一样想法自己动手换外屏最后他内外屏一起在维修点换的.... 以前用魅族，把触屏摔坏了，店里要180.自己买屏幕总成换上，60块搞定 二楼威武 保内维修是百分百利润好不，保内维修不需要成本，配件都是由公司出的。每单反多少维修费而已，不过没那么好，也认识不少售后维修的，死的一片一片的 一个6的手机膜可以卖好多年 傻子才买苹果 升级系统啊 全世界都看得到的东西跟他粘上关系都是牛逼 哈哈哈 售后利润太大了 最近网上换电池的笑得合不拢嘴 广告费到位了 作为一个下下游的产业，而且还是单一收入上市的风险太大，苹果说把你收走就收走，这企业上市风险太大应该没人投资吧 我发现日本产的东西真的耐用，国产小问题是真的多。 就卖手机壳那帮人就不得了啦，所以没人想看见苹果扑街！ 这个梗不是小米的吗？😄 你是在说刹车还是气囊还是神户钢 就像血管一样都是连这的 手机坏了要维修？靠，用个一年就换的玩意，还要维修？用个手机要维修的，只能说你当初买的价格超出了你实际承受能力。 有道理 你可以拼拼凑凑组装个iphoneXX自己用，但是请不要忘记，专业的事请交给专业的人去做 标题有点看不懂 好玩的都在这我不喜欢玩的，你呢我不喜欢玩的，你呢我不喜欢玩的，你呢我不喜欢玩的，你呢我不喜欢玩的，你呢我不喜欢玩的，你呢我不喜欢玩的，你呢我不喜欢玩的，你呢关注“22点tv” 曾经诺基亚也有一个庞大无比的生态圈 纯垃圾企业 苹果不倒，就有🉐️嗨 我也都是自己换的 我的天啊，这是汤姆斯·陈独秀先生吗？我已经用蒂花之秀洗手液洗了手了，可以摸摸你的奖杯吗 如果都像你动手能力这么强，蓝绿大厂不早就倒了？ 换句话说，苹果本身的维修费并不贵，只是中国人自己爱宰中国人了 这算下游产业链，如果你再把上游产业链也算上，你会发现全球有无数无数的公司依附在苹果产业链上生存，这是一个庞大之极的生态圈。 中国人不宰中国人还是中国人吗 刚这家公司安徽的点刚出事被苹果内部调查了<br><br>警察抓了40多个相关人员 @zealer 换个电池，换个屏幕有那么难么，淘些原厂件来自己拆拆换换，半小时搞定 说得好 所以我用的是小米,便宜,坏了不用考虑维修,小件修大件还修个p呀,修一个可以换一台新机了 厉害 。。 可以 哥，不是所有人动手能力都那么强的 当年诺基亚被苹果份额高 二楼没有发现一楼手机不止一年了吗 如果用户不升级系统怎办？ 你一年一个iphone啊？有钱人 我艹。深圳没做成的北京做成了。 百邦服务极其辣鸡售后去那你就等着看脸子受气吧 一楼就等着你这么夸他。。 新买用不到一个月把屏摔碎了，你修是不修？ 如果手机不坏怎么办？ 圈钱！！ "
    },
    "Article": "（原标题：有人靠维修iPhone做成年入5亿大生意而且要上市了）“才充满的电半小时掉一半”“不小心屏幕摔成了裂纹款”“功能键怎么按也按不动”......这些带给大家困扰的手机故障，在手机功能变强，屏幕更大，使用时间加长的情况下，出现的概率也越来越大了。北京百华悦邦(----,诊股)科技股份有限公司（以下简称百华悦邦），深深了解人们这一痛点，靠着长达8年抱苹果公司“大腿”，做手机售后维修服务，稳稳做到年入5亿的业绩；近日它IPO正式获证监会审核通过，拟在深圳证券交易所上市。除此之外，每经小编还发现，它背后竟藏着一个毛利率高达80%左右的暴利业务！百华悦邦通过IPO11月15日，证监会发行审核会议公布，百华悦邦（831008）IPO获通过，拟在深圳证券交易所上市。每经小编查阅百华悦邦招呼说明书看到，该公司本次发行股票的数量不超过1，357.72万股，共募集资金约3.09亿元。募集后资金除了用于补充流动资金，还将用于投入其他三个发展公司主营业务的项目。而百华悦邦的主营业务就是手机维修，抱的大腿是“财大气粗“的苹果公司，也就是说该公司主要是对iPhone进行维修服务。每经小编登陆百华悦邦官网，在其官网简介处看到：“修APPle设备，Apple授权售后服务商，高品质维修平台，Apple原厂配件......”等几个关键词，首页轮播广告处用大字写着“iPhone手机屏幕保障计划：原厂换屏，iPhoneX399元，iPhone其他型号299元”、“6s换电池”、以及“当日iPhone屏幕维修”等宣传语。可见，苹果对于百华悦邦来说就如同衣食父母。▲图片来源：百华悦邦官网截图据招股书显示，截至2017年6月30日，百华悦邦的连锁门店数已达到139家，其中直营店125家，合作店14家，分布全国22个省级地区、90多个城市，是苹果公司在中国最大的授权售后服务商。百华悦邦与与苹果公司的合作已长达8年，这种看似稳定的合作也会引起投资者的担忧，而百华悦邦更是十分清楚这一点，在其招股书的风险提示里，就说到其关于“主要收入来源于苹果手机维修业务”的风险。苹果究竟一年能带给百华悦邦多少收入？答案是惊人的5亿。据招股书显示，2014年、2015年、2016年及2017年1-6月，百华悦邦从苹果公司实现的保内维修服务收入与保外维修服务收入合计分别为2.686亿元、4.549亿元、4.953亿元及2.605亿元，占公司营业收入的比重分别为67.56%、73.25%、76.44%及74.05%。▲图片来源：每经小编根据招股说明书整理抱苹果“大腿”，毛利率高达80%除开苹果，百华悦邦还与三星、华为等手机生产厂商有合作关系。百华悦邦的主营业务有手机维修、商品销售、增值服务、电子商务等。其中手机维修业务又分为保内维修业务和保外维修业务。一位在苹果技术支持部门的工作人员告诉每经小编，保内维修是在一年保修期之内，是免费维修的，但是需要技术部门检测，根据具体的检测为准，一般损坏是免费的。超过时间（保外维修）需要一定的费用。值得注意的是，百华悦邦保内维修业务在2014年、2015年、2016年及2017年1-6月的毛利率分别高达77%、80.87%、83.42%及82.29%。根据2017年1-6月的毛利率来看，假如你维修成本为1000元，百华悦邦就要赚820元左右。为什么保内维修业务毛利率这么高？每经小编采访了苹果售后服务人员，她称“消费者在保内维修免费，其实是苹果付钱给了授权维修商的。”也就是说，百华悦邦的保内维修收入，大部分是来自于苹果公司支付的费用。百华悦邦在其招股说明书中明确表示，公司保内维修业务收入主要来源于苹果公司，如果未来苹果手机的保内维修劳务费价格下降或者保内维修成本提高，均将导致发行人保内维修毛利率出现下滑。在手机厂商的授权下，公司向符合保内维修条件的手机用户提供免费保修服务，并根据授权服务合同的约定向手机厂商收取保内维修劳务费。此外，发行人为手机用户在手机返厂维修期间提供苹果手机备用机出借服务，同时向苹果公司收取服务费。而根据其招股说明书显示，自2014年至今，保内维修业务单均价格连年有升，2017年1-6月，苹果的维修单均价为111.92元一单，而单均成本价格为19.43元。对此，每经小编就相关问题询问了一位百华悦邦工作人员，该工作人员表示会将问题记录在案，之后会有相关人员对此进行解答。截至发稿，并未收到百华悦邦的回电。手机维修业务市场颇大实际上，百华悦邦今年的财务数据，就是苹果带来影响的一个缩影。2017年1-6月，百华悦邦的营业收入为3.51亿元，同比上涨7.88%；归属于母公司股东的净利润为2095.09万元，同比下降8.25%。这跟今年苹果手机销量下降不无关联。据苹果发布的2017年一季报显示，苹果大中华区营收同比下滑12%；二季报显示，苹果大中华区营收同比下滑14%。不仅如此，从近日来苹果在“电池问题”上下的功夫来看，它并不想大家去维修手机，而是彻底的换掉！12月20日苹果发布声明，称为了防止旧机型因电池老化而发生故障，苹果限制了旧机型的性能。同时，据台湾《经济日报》的消息，由于iPhoneX销售不及预期，苹果公司下调了明年的销售预估，从原来单季的5000万台下降到3000万台，减幅超过预期。百华悦邦受制于客户单一，但整个维修市场却在蓬勃发展。根据《2016年通信运营业统计公报》显示，2016年全国移动电话用户净增5054万户，总数达13.2亿户，移动电话用户普及率达96.2%。2008-2016年，我国移动电话用户数从6.41亿户增长到13.2亿户，增幅达105.93%，移动电话用户普及率由48.5%增长到96.2%，增幅达98.35%。而据中国通信工业协会移动电话售后服务委员会发布的信息，8%-10%的手机会在购机一年内发生故障。用户对手机的依赖程度越来越高，手机已成为人们生活中不可或缺的必需品。根据赛迪顾问的2008年至2014年中国手机售后服务市场的统计数据以及2015年至2018年预计我国智能手机保有量的增长率计算，2018年我国手机售后服务行业的市场规模将达到282.7亿元。本文来源：每日经济新闻责任编辑：白鑫_NT4464",
    "KeyWords": "iphone,维修,手机,苹果",
    "Source": "Netease",
    "Title": "有人靠维修iPhone做成年入5亿大生意 而且要上市了_网易科技",
    "PublishTime": "12/27/201710:29:05"
}