{
    "Comment": {
        "Content": "错，这种人通常没有什么钱。不仅心里穷，而且经济肯定不会太好 啧啧啧，好大的一台车什么年代了 也不会太破，一般是暴发户，买了个BBA 人家冒着生命危险在路边打扫还城市一个整洁环境，干着最脏收入又低的活，真的没理由难为环卫工人，车主内心的肮脏已经是清洁不了没救了！ 我这里有大礼包，买15天送15年，错过再等15年，赶紧来抢购 挺好，15天可能晦气去不干净，建议拘留所友情再送他15天 这种人渣就该回炉重造 其实老大爷不应该起来 估计这人是住别墅的土豪吧，楼上没有拉屎放屁 这种一看就是平日蛮横惯了，以为全世界都围着他转 七旬还在扫马路，还被垃圾打耳光，这个国家真好！ 再剃剃头发，周身清爽 垃圾车停在垃圾前面，没毛病啊！ 如果要让这人长长教训的话就是讹他个上万的 现在很多人，一面对弱者，那脾气都比平时大n倍！面对强者，跟条狗一样！ 逼崽子，最好新年第一天就撞车撞死你 一般这种觉得自己有车就很牛的人，车都不值钱。 再换身衣服，卫生健康 确实，还有哈佛 他还真不怕老人直接躺地上？ 垃圾车停到这个人渣面前没毛病，因为这个车主本身就是垃圾 我最鄙视这三种人：<br>一，欺凌弱势群体的人。<br>二，打老婆孩子的人。<br>三，坑蒙拐骗，借钱不还的人。 应该判几年，在牢里就沒有晦气了。. 以后开压路机的看见这种人渣也觉得晦气，要压过去去晦气 为富不仁的东西 忧伤 通常这种人买的是十万出头的国产品牌，甚至有的不到十万的。例如开BYD的司机就挺牛的。 这群人长得尖嘴猴腮，叽叽喳喳的像野狗 狗屁车主，你走到哪里都让别人晦气！ 我觉得环卫工没有停错位置，车主确实是个辣鸡 嗯，晦气，有本事你吗的一辈子不要倒垃圾 真正为人民服务的人却得不到人民的尊重 就没人想着问问这位七旬还要工作的环卫工，你幸福吗？ 砸烂他的车 这种工作者一般不会干这种事的，所以他才不怕 抓住将它扔进垃圾桶里 新年新套餐。充值15天，可提取精神病院包食宿去晦氣兩周鉅惠活動。。 对这种装逼犯必须拘留！新年第一天打人，还有理？？？ 再破破菊花，大便顺畅 七旬了还得做环卫工国家来养老 去派出所蹲几天，去去晦气！好主意。 建议看守所在无偿赠送他30天 别让它去派出所居留，让它去干上一个月清洁工。这样效果会更好些…… 啧啧啧，好大的一台车什么年代了 就没人想着问问这位七旬还要工作的环卫工，你幸福吗？ 你妈生你的时候还有血那，晦气不？你咋不打你妈，对了还有给你妈干出血的爹。 我这里有大礼包，买15天送15年，错过再等15年，赶紧来抢购 挺好，15天可能晦气去不干净，建议拘留所友情再送他15天 这种人渣就该回炉重造 其实老大爷不应该起来 这种一看就是平日蛮横惯了，以为全世界都围着他转 七旬还在扫马路，还被垃圾打耳光，这个国家真好！ 再剃剃头发，周身清爽 定位,环卫车一般不需要装这东西. 应该人道毁灭，这种人明显基因突变已经不人类了 现在很多人，一面对弱者，那脾气都比平时大n倍！面对强者，跟条狗一样！ 请尊重我们的环卫工！ 湖北有些渣滓也是醉了 哇这么牛逼哄哄怕不是开火箭出门的 然后在派出所洗干净了 最基层劳动者得不到尊重，体制内的人尤甚。 他还真不怕老人直接躺地上？ 凭本事借的 有道理 垃圾车停到这个人渣面前没毛病，因为这个车主本身就是垃圾 为富不仁的东西 忧伤 去里面多待几天好好去去晦气 现在人戾气怎么这么重， 我觉得环卫工没有停错位置，车主确实是个辣鸡 一般这种觉得自己有车就很牛的人，车都不值钱。 2018年第一天直接送了他15天公休 新年新套餐。充值15天，可提取精神病院包食宿去晦氣兩周鉅惠活動。。 惹官司当然晦气了 再换身衣服，卫生健康 建议看守所在无偿赠送他30天 晦气？本来没有，这么一打，好嘛，来了。看来，这晦气要来，你挡都挡不住啊🤔。命里注定，你就从了吧。 刘备借荆州。。。 底层只要不和，它们就睡的安稳！参考伊朗 去派出所蹲几天，去去晦气！好主意。 再破破菊花，大便顺畅 也不会太破，一般是暴发户，买了个BBA 如果要让这人长长教训的话就是讹他个上万的 越是在小区里按喇叭按得响的，一般都是垃圾车！ 有钱就了不起啊，这种人应该受到法律的制裁，让他知道什么是法律 确实，还有哈佛 以后开压路机的看见这种人渣也觉得晦气，要压过去去晦气 应该判几年，在牢里就沒有晦气了。. 垃圾人 我最鄙视这三种人：<br>一，欺凌弱势群体的人。<br>二，打老婆孩子的人。<br>三，坑蒙拐骗，借钱不还的人。 那个老人是你家的祖宗。你这个畜生连你祖宗也打。祝你开车开到悬崖下去 这种工作者一般不会干这种事的，所以他才不怕 这么没素质我还以为是我们东北呢 你错了，未必有钱，王思聪有钱，也没这么张扬跋扈啊 对这种装逼犯必须拘留！新年第一天打人，还有理？？？ 靠车给自己赚面子啊，爱面子，说不定平时还喜欢吹牛。前几天，我看到一辆垃圾转运车，车牌号是浙ABJ360.也没见这几个公司抗议啊 这个环卫工人该打，明明这么大一块垃圾，你为什么不放进垃圾车？ 如果是警车你还敢打人吗？ 嗯嗯！哪天上天或入地了永远都不会有晦气！ 我见过的以鄙鸭滴居多，，，，，， 错，这种人通常没有什么钱。不仅心里穷，而且经济肯定不会太好 人家冒着生命危险在路边打扫还城市一个整洁环境，干着最脏收入又低的活，真的没理由难为环卫工人，车主内心的肮脏已经是清洁不了没救了！ 咋不一冲动杀人呢？ 把他的车拆了，去去晦气 逼崽子，最好新年第一天就撞车撞死你 估计这人是住别墅的土豪吧，楼上没有拉屎放屁 这群人长得尖嘴猴腮，叽叽喳喳的像野狗 有钱，有权，在中国就有绿灯。 欺软怕硬的狗东西 垃圾车停在垃圾前面，没毛病啊！ 呵呵。这回不晦气了 这车主就是个垃圾，还有这摆明故意伤人，应严惩 以后环卫不收他垃圾，找个人看他家，只要他家人丢垃圾就把垃圾丢回他家门口。 老人往地上一躺，你就宝马变奥拓 一般这种觉得自己有车就很牛的人，车都不值钱。 怕什么人，就杀死什么人。 他还真不怕老人直接躺地上？ 狗屁车主，你走到哪里都让别人晦气！ 嗯，晦气，有本事你吗的一辈子不要倒垃圾 真正为人民服务的人却得不到人民的尊重 砸烂他的车 一时冲动要有代价的 抓住将它扔进垃圾桶里 愚民教育下的标准产物 七旬了还得做环卫工国家来养老 去派出所蹲几天，去去晦气！好主意。 也是醉了，文化人啊， ",
        "Link": "http://comment.news.163.com/news_shehui7_bbs/D77NCNIJ0001875P.html",
        "Reply": 83,
        "Total": 1038
    },
    "KeyWords": "环卫工,垃圾车,板车,警察",
    "PublishTime": "01/03/201812:03:27",
    "Title": "车主当街殴打7旬环卫工:垃圾车挡我车前面\"晦气\"_网易新闻",
    "Source": "Netease",
    "Article": "（原标题：车主当街殴打七旬环卫工：垃圾车挡我车前面，晦气！）#endText.video-infoa{text-decoration:none;color:#000;}#endText.video-infoa:hover{color:#d34747;}#endText.video-listli{overflow:hidden;float:left;list-style:none;width:132px;height:118px;position:relative;margin:8px3px0px0px;}#entText.video-lista,#endText.video-lista:visited{text-decoration:none;color:#fff;}#endText.video-list.overlay{text-align:left;padding:0px6px;background-color:#313131;font-size:12px;width:120px;position:absolute;bottom:0px;left:0px;height:26px;line-height:26px;overflow:hidden;color:#fff;}#endText.video-list.on{border-bottom:8pxsolid#c4282b;}#endText.video-list.play{width:20px;height:20px;background:url(http://img1.cache.netease.com/video/img14/zhuzhan/play.png);position:absolute;right:12px;top:62px;opacity:0.7;color:#fff;filter:alpha(opacity=70);_background:none;_filter:progid:DXImageTransform.Microsoft.AlphaImageLoader(src=\"http://img1.cache.netease.com/video/img14/zhuzhan/play.png\");}#endText.video-lista:hover.play{opacity:1;filter:alpha(opacity=100);_filter:progid:DXImageTransform.Microsoft.AlphaImageLoader(src=\"http://img1.cache.netease.com/video/img14/zhuzhan/play.png\");}if(/(iPhone|iPad|iPod|Android|NETEASEBOBO|blackberry|bbd+)/ig.test(navigator.userAgent)||/safari|chrome|firefox/i.test(navigator.userAgent)&&navigator.plugins&&!navigator.plugins[\"ShockwaveFlash\"]){varstr1='<videocontrols=\"controls\"preload=\"auto\"width=\"100%\"poster=\"http://vimg3.ws.126.net/image/snapshot/2018/1/A/N/VD69TG0AN.jpg\"style=\"max-height:100%\">';varstr2='<sourcetype=\"video/mp4\"src=\"http://flv.bn.netease.com/videolib3/1801/03/XeshW1947/SD/XeshW1947-mobile.mp4\">您的浏览器暂时无法播放此视频.</video>';document.getElementById(\"FPlayer1404863609673\").parentNode.innerHTML=str1+str2;}车主当街殴打七旬环卫工（来源：网友）window.NTES&&function(d){varf=function(c){varb=c.getAttribute(\"flashvars\"),a=c.getAttribute(\"repovideourl\").replace(\".flv\",\"-mobile.mp4\");h=d(c.parentNode.parentNode.parentNode),g='<embedsrc=\"http://v.163.com/swf/video/NetEaseFlvPlayerV3.swf\"flashvars=\"'+b+'\"allowfullscreen=\"true\"allowscriptaccess=\"always\"quality=\"high\"wmode=\"opaque\"width=\"100%\"height=\"100%\"type=\"application/x-shockwave-flash\"/>';if(/(iPhone|iPad|iPod|Android|NETEASEBOBO|blackberry|bbd+)/ig.test(navigator.userAgent)){g='<videocontrols=\"controls\"preload=\"auto\"width=\"100%\"height=\"100%\"><sourcetype=\"video/mp4\"src=\"'+a+'\">您的浏览器暂时无法播放此视频.</video>';}h.$(\".video\")[0].innerHTML=g;},e=function(b){vara=d(b.parentNode.parentNode.parentNode);a.$(\"li\").removeCss(\"on\"),b.addCss(\"on\"),a.$(\".video-title\")[0].innerHTML=\"string\"==typeofb.textContent?b.textContent:b.innerText,a.$(\".video-title\")[0].setAttribute(\"href\",b.getAttribute(\"url\")),a.$(\".video-from\")[0].innerHTML=\"（来源：\"+b.getAttribute(\"source\")+\"）\",f(b);};window.continuePlay=function(){vara,b=d(d(\".video-list.on\")[0].nextSibling);3==b.nodeType&&(b=d(b.nextSibling));if(b&&d(\".video-innerinput\")[0].checked){e(b);}},function(){vara={init:function(){if(d(\".video-listli\")[0]){d(d(\".video-listli\")[0]).addCss(\"on\"),this.eventBind();}},eventBind:function(){d(\".video-listli\").addEvent(\"click\",function(b){e(d(this)),b.preventDefault();});}};a.init();}();}(NTES);1月1日，湖北大冶金牛镇七旬环卫工老吴因为装垃圾的板车“没停对位置”，被一名车主一耳光扇倒在地，嘴里还骂骂咧咧，引起路人指责，一些热心群众围住车主并报警。面对警察的询问，车主表示，新年第一天，一个扫马路的就把一辆垃圾车挡在自己小车前面，自己觉得十分晦气，一时冲动就打了人。本文来源：荆楚网-楚天都市报责任编辑：乔敬_NN6607",
    "URL": "http://news.163.com/18/0103/12/D77NCNIJ0001875P.html"
}