{
    "PublishTime": "12/27/201709:28:00",
    "Source": "Netease",
    "Comment": {
        "Link": "http://comment.news.163.com/news2_bbs/D6LEBUB7000187V9.html",
        "Total": 14,
        "Reply": 3,
        "Content": "大部分是好吃懒做的嘿人 嘿x氯=👽 嘿x氯=👽 大部分是好吃懒做的嘿人 嘿x氯=👽 嘿x氯=👽 "
    },
    "Article": "（原标题：3艘利比亚移民船地中海遇险获救255名难民幸免于难）【环球网报道】据法国“24小时”新闻台12月26日报道，意大利海岸警卫队当日称，当地时间25日至26日夜间，3艘来自利比亚的移民船在地中海遇险获救，共计255名难民幸免于难。西班牙非政府组织“海上难民救援队”(ProactivaOpenArms)和欧洲反偷渡组织实施了救援，并将这些难民转移至另一非政府组织“地中海求救”(SOSMéditerranée)的船只上，获救者随后将被送往意大利西西里岛的波佐利港。根据报道，这些移民大多来自巴基斯坦、孟加拉国和非洲西部。“地中海求救”组织副主席苏菲?博表示，“身处利比亚和地中海的难民正处于危难之中，正值严冬，当务之急是拯救那些仍在逃难的人，并将他们送往能够获得保护的地方”。意大利《共和报》称，考虑到恶略的天气条件，利比亚的“蛇头”降低了偷渡船票的价格，同时试图招揽更多的难民上船。本文来源：环球时报-环球网。更多精彩，请登录环球网http://www.huanqiu.com作者：王战涛责任编辑：王征_NN7526",
    "Title": "3艘利比亚移民船地中海遇险 255名难民获救_网易新闻",
    "URL": "http://news.163.com/17/1227/09/D6LEBUB7000187V9.html",
    "KeyWords": "地中海,利比亚,难民,意大利"
}