{
    "Source": "Netease",
    "PublishTime": "12/26/201713:38:37",
    "KeyWords": "自杀,逼婚,女友",
    "Title": "男子逼婚未果起争执 捅杀女友和劝架人后上吊自杀_网易新闻",
    "Comment": {
        "Link": "http://comment.news.163.com/news_shehui7_bbs/D6J9L87L0001875P.html",
        "Total": 1763,
        "Content": "能动手决不BB。 [被黑]认识十几天就逼婚这个男人脑子有问题吧 劝架有风险 劝架的没有一个好东西。 这种变态怪不得是单身，谁能和他过得下去 算。这种人最阴了 这也算人？ 老倒子真心没有文化， 看这人的鼻子就是刻薄相，跟他交往没好处。 再逼逼削了你！ 到了冬天，兽性大发，没有被文明开化的荒蛮之地！ 没有两把刷子，劝架有风险，一定要谨慎！ 你瞅啥 伪满人携带的犯罪基因太多了，黄泛区流民后代 清理劣民是项艰巨工程 女方已经有过一次失败的婚姻了，再次结婚当然得慎重考虑，才认识十几天就逼婚，还动手殴打对方，能和你结婚就有鬼了 几百年前这种人的祖先在李自成张献忠二賊的民乱帮助南下毁灭了华夏文化 能动手的事情别吵吵。 面相不是善类 人渣 二楼你这脑子真是白长了 当事人都死了，这个故事是怎么知道的？ 东北人可怕 杀女人杀弱者，就是碰到关东军就溜了！ 极端分子的眼神！ 我们家邻居就是被吉林的一个女的骗了，说是结婚，没领证，见面要彩礼就同居了。没过几天来个男的说是她哥，两个人在院子里说话给人的感觉就不像兄妹，结果没几天两个就跑了。骗婚的太多。不知道这个是不是。 就几天时间，应该来不及吧？多少能花点儿，还是人品问题多点儿 离光脚的穷人远些。身无长物，烂命一条什么都敢做的。 是劝架，还是帮忙打架？ 珍惜生命，远离人渣！ 渣渣男耶[被黑][被黑][被黑] 这算不算老实人？ 那旮瘩银，没毛病 多瞅一下都能杀人，这种认识十几天就拒婚的行为属于深仇大恨了 上什么吊，放下来，捅几轮 两人都已经有过一次失败的婚姻，不汲取教训，还想来第二次，纯粹脑子坏了，早就说过中国式的婚姻就是个笑话，婚前婚后及离婚后，都充满了危险，哪一步处理不当，都可能是杀身之祸 妈的才认识十几天就逼婚，碰到傻逼真是倒霉连命都送了 离婚单身的无论男女最好不要去找！ 估计你是传教士的后代 吉林的逃犯就是多 也就这出息了……真会霍霍人 这是脑残，别侮辱老实人 现在知道为什么中国人不喜欢劝架了吧！ 这就是垃圾人的一种 是不是以談戀愛名義把男方錢騙完了就分手呢？不然我覺得不會下毒手！ 你的脑子让狗叼走了 没出息的！ 劝架的没有一个好东西。 算。这种人最阴了 女方已经有过一次失败的婚姻了，再次结婚当然得慎重考虑，才认识十几天就逼婚，还动手殴打对方，能和你结婚就有鬼了 安徽，呵呵， 再逼逼削了你！ 到了冬天，兽性大发，没有被文明开化的荒蛮之地！ 没有两把刷子，劝架有风险，一定要谨慎！ 杀女人杀弱者，就是碰到关东军就溜了！ 那旮瘩银，没毛病 东北人就是牛逼 佩服佩服 劝架的这真是死神的召唤啊…… 另一则美的新闻：17岁男子恋爱受阻被激怒枪杀女友父母后吞枪自尽 这人面相看上去就不像好人 只是纳闷，为什么协查通告的身份证号要打码? 劝架的，是一方叫来的，跟另一方不是很熟，一般是拉偏架，跟叫来助拳没什么两样，劝架要想起作用，要不跟双方都不熟，站在客观角度劝架，如居委会，要不跟双方都很熟，是双方的共同朋友，能跟双方都能沟通， 几百年前这种人的祖先在李自成张献忠二賊的民乱帮助南下毁灭了华夏文化 珍惜生命，远离人渣！ 打电话报警就行了 是不是以談戀愛名義把男方錢騙完了就分手呢？不然我覺得不會下毒手！ 你瞅啥 这就是我绝不多管闲事的原因 劝架的倒血霉了！ 干得漂亮 我也有这个疑问，逼婚都能调查出来，还有第四个人在场？ 东北人可怕 清理劣民是项艰巨工程 文中没讲劝架的在该事件中是个什么角色，正常情况下是邻居一类的，或者介绍人，可以随叫随到，难说是个什么关系 人渣 就几天时间，应该来不及吧？多少能花点儿，还是人品问题多点儿 离光脚的穷人远些。身无长物，烂命一条什么都敢做的。 是劝架，还是帮忙打架？ 人渣 渣渣男耶[被黑][被黑][被黑] 这算不算老实人？ 干的好，自己得不到就毁掉 多瞅一下都能杀人，这种认识十几天就拒婚的行为属于深仇大恨了 面相不是善类 两人都已经有过一次失败的婚姻，不汲取教训，还想来第二次，纯粹脑子坏了，早就说过中国式的婚姻就是个笑话，婚前婚后及离婚后，都充满了危险，哪一步处理不当，都可能是杀身之祸 妈的才认识十几天就逼婚，碰到傻逼真是倒霉连命都送了 二楼你这脑子真是白长了 真。穷屌 离婚单身的无论男女最好不要去找！ [微笑] 现在劝架都有风险了 当事人都死了，这个故事是怎么知道的？ 极端分子的眼神！ 另一则美的新闻：17岁男子恋爱受阻被激怒枪杀女友父母后吞枪自尽 吉林的逃犯就是多 我们家邻居就是被吉林的一个女的骗了，说是结婚，没领证，见面要彩礼就同居了。没过几天来个男的说是她哥，两个人在院子里说话给人的感觉就不像兄妹，结果没几天两个就跑了。骗婚的太多。不知道这个是不是。 这是脑残，别侮辱老实人 另一则美的新闻：17岁男子恋爱受阻被激怒枪杀女友父母后吞枪自尽 现在知道为什么中国人不喜欢劝架了吧！ 这就是垃圾人的一种 又是那里的人 这个傻吊以为自个是西门庆啊？ 能动手决不BB。 [被黑]认识十几天就逼婚这个男人脑子有问题吧 送你四个字。引火烧身 劝架有风险 老铁省的真是极端啊 何必呢 这种变态怪不得是单身，谁能和他过得下去 这也算人？ 老倒子真心没有文化， 看这人的鼻子就是刻薄相，跟他交往没好处。 疯了 能动嘴千万别动手，动嘴渴死都不会有事，动手就麻烦。 能理解吗？！这种事以后会越来越多……等着瞧吧 当今只能靠演技吃饭的社会，已经找不到真人真事真感情了。鸡人自作表演，什么事都可能发生。 伪满人携带的犯罪基因太多了，黄泛区流民后代 至于吗 九台真乱，今年发生好几起杀人案了 估计你是传教士的后代 能动手的事情别吵吵。 上什么吊，放下来，捅几轮 也就这出息了……真会霍霍人 现在知道为什么中国人不喜欢劝架了吧！ 流星月亮地球太阳系有发动机么？没有!他们却高速在宇宙中运行!为什么？因为他们的运行轨道本身就是太空高速时空隧道!他们的运行路线一半为去路一半为来路，周而复始地运行着!地球自转公转着，本就没有东西南北上下左右等方位!谁定的？我们的天父啊!目的只有一个，告诉人类我们天父的星座方位!所以九曲桥的方向始终对着东北方!在宇宙一切物质中，永远是子体围绕母体运动，这是恒定的!所以地球自转并围绕太阳公转!因地球是自转公转的，所以根据地球的东西南北是找不到星外文明的星座方位的!只有找到太阳的上下前后东西南北才能准确地给天父星座方位定位!我们天父星座方位在太阳系东北上方第九颗恒星那里!那里以双伴恒星为中心带动周围108颗恒星运动着! ",
        "Reply": 80
    },
    "Article": "（原标题：长春一男子逼婚未果发生争执，捅杀女友和劝架人后上吊自杀）吉林长春九台区男子杨庆富因感情纠纷用刀捅死女友和劝架人。12月26日上午，长春市公安局九台分局办案民警魏警官告诉澎湃新闻，经过警方调查，嫌疑人杨庆富因为向女友逼婚，女方不同意，双方发生争执，杨庆富将女友和劝架人用刀杀死，然后在其家附近的田地上吊自杀。长春市公安局九台分局警方协查通报网友提供给澎湃新闻的一段事发现场视频显示，有两人躺在地上，其中一人身旁有疑似血迹，一名警方工作人员正在勘查现场。长春市公安局九台分局12月23日发布的协查通报显示，23日18时许，九台区工农街管内发生一起重大杀人案件，案发后犯罪嫌疑人逃离现场。经工作，杨庆富具有重大作案嫌疑。26日上午，九台公安分局办案民警魏警官告诉澎湃新闻，嫌疑人杨庆富和女友高某均属离婚单身，两人谈了十几天朋友后，杨庆富要求高某和其结婚，高某不同意，双方发生争执。杨庆富出手殴打高某后，高某邀请张某过来劝架，结果两人均被杨庆富用刀捅死。九台公安分局通过连续14小时工作，12月24日7时30分，最终排查发现犯罪嫌疑人杨庆富在其家附近苇子沟街道梨树村3社田地的树上，上吊自杀死亡。目前警方正在对杨庆富自杀现场进行勘查。本文来源：澎湃新闻责任编辑：姬雪莹_NN6784",
    "URL": "http://news.163.com/17/1226/13/D6J9L87L0001875P.html"
}