{
    "Title": "多次被指内容违规 快手称审核是全行业最严格的_网易科技",
    "URL": "http://tech.163.com/17/1226/08/D6IOUG7E00097U7R.html",
    "Source": "Netease",
    "Comment": {
        "Total": 250,
        "Reply": 32,
        "Content": "还可以吧，一个违规视频几分钟就被封。骂快手的看看自己手机里面有没有快手app 严格吗？最垃圾的就去快手了骗钱的手段你想都想不到！ 表示从来没用过，没有下载过的赞我 大东北的王牌支柱 快手，一个专业的脑残统计平台！ 爱我大声喊出来 作为辽宁丹东人，真的没法认同东北内地那令人作呕的黑土地文化 老铁省人捧起来的傻逼玩意 讲个笑话！快手审核全行业最严 12岁“尬舞”网红被强奸，是怎么回事？ 成功的地方在于成功的把脑残傻逼几乎集中在一个平台上这他们做到了 我去这话都说的出…… “内容是平台管理，行为是。。。快播老总王欣 我压根就搜都没搜过快手，傻逼老铁666。听着就噁心！ 有一句话是这么讲的：快去你个马勒戈壁的吧 垃圾快手，现在的热门都是胸啊腿的，洗茄子洗黄瓜的，妈的，果断卸载了 不好意思我下载过。真的傻逼 想想和马云说话一个口气！ 我是段友的不玩某手 有审核？ 东北的GDP 严格吗？最垃圾的就去快手了骗钱的手段你想都想不到！ 还真没有看到过露点的 表示从来没用过，没有下载过的赞我 就这么不要脸？就这么不要脸！ 12岁“尬舞”网红被强奸，是怎么回事？ 还可以吧，一个违规视频几分钟就被封。骂快手的看看自己手机里面有没有快手app 不要碧莲 最大的贡献是把脑残们集中起来了，我只要不用快手，那其他地方的脑残就少多了，谢谢 我压根就搜都没搜过快手，傻逼老铁666。听着就噁心！ 讲真，除了大东北特产外，还是有很多真正有才艺的。看到喜欢的游戏主播，有才艺的主播关注后，闲暇时间看看他们的更新也不错的。关键是那些年纪不大死作的，是真恶心，看到就减少此类作品。 爱我大声喊出来 红毛女徒弟被彝族徒弟强奸了 大东北的王牌支柱 快手，一个专业的脑残统计平台！ 黑人问号? 作为辽宁丹东人，真的没法认同东北内地那令人作呕的黑土地文化 老铁省人捧起来的傻逼玩意 我初中也觉得快手傻逼 所以腾讯有眼光，微信靠约炮带来大量玩家，快手也是低俗视频然后带来玩家，再整改，支付宝当初想靠擦边色情的带来玩家，结果被人搞了，唉 讲个笑话！快手审核全行业最严 现在都玩抖音，谁用快手 成功的地方在于成功的把脑残傻逼几乎集中在一个平台上这他们做到了 “内容是平台管理，行为是。。。快播老总王欣 快手的大部分用户来自二线以下城市，最高学历低于高中。。。 我去这话都说的出…… 无聊透顶 ",
        "Link": "http://comment.tech.163.com/tech_bbs/D6IOUG7E00097U7R.html"
    },
    "Article": "（原标题：多次被指内容违规快手合伙人称审核是全行业最严格的|新京报财讯）新京报快讯(记者杨砺)短视频平台“快手”在今年年底迎来多事之秋。从11月的14岁女孩怀孕视频，到12月的12岁“尬舞”网红被强奸，再到“极限咏宁”坠楼事件，无不使舆论的矛头指向用户数量不断增长的快手。“快手尽到了力所能及的管理责任，”对于外界的指责，快手合伙人曾光明12月25日在媒体沟通会上称，快手不会通过收入鼓励用户上传低俗内容，并已建立1000人以上审核团队，结合智能识别技术，能实现对所有新上传视频实现先审后发，并屏蔽所有肉眼可识别的违法违规内容。对于新形式、打擦边球的违规内容，平台将通过人工识别，并不断完善规则。“快手的审核是全行业最严格、最到位的，”曾光明称，“希望大家先了解快手再批评。”“内容是平台管理，行为是公安管理”对于“极限咏宁”坠楼事件，曾光明称，快手在7至9月已经对其影响力进行，非原有粉丝不能查看其内容，在视频下方进行了警示告诫，并在9月对其实施了限号处理，“快手做到了力所能及的管理责任。”快手在主流媒体的报道中常与“低俗”、“土”等关键词绑定。平台上吃灯泡、一秒喝一瓶白酒、点燃缠在身上的鞭炮等内容常遭到诟病。有声音认为，快手是在利低俗速内容的的流量变现。对此，曾光明称，快手的大部分用户来自二线以下城市，最高学历低于高中，“他们拍的东西在都市精英里眼里看起来很LOW，但是他们并不在精英的判断框架里。”他表示，快手会对违反法律、有害健康等违反规则的内容进行处理，但仍会尊重用户，“内容是平台管理，行为是公安管理。”“快手的审核全行业是最严格最到位的”快手备受关注的背后，是其飞速的增长速度。曾光明透露，快手目前日活跃用户1.2亿，短视频日上传量达1000万。极光数据显示，2017年第三季度快手以达19.8%的渗透率，超过第二名15.2%。巨大的内容流和用户群对起审核能力提出了要求。对此，曾光明称，快手目前已经建立了1000人以上审核团队，结合智能识别技术，能实现对所有新上传视频先审后发，并屏蔽所有肉眼可识别的违法违规内容。对于“闪露”、“方言”等新形式、打擦边球的违规内容，平台将通过人工识别，并不断完善规则。本文来源：新京报责任编辑：王凤枝_NT2541",
    "PublishTime": "12/26/201708:46:34",
    "KeyWords": "短视频,快手,内容,全行业"
}