{
    "Source": "Netease",
    "KeyWords": "特朗普,税改,美国总统,政府",
    "Title": "特朗普年底成就多：签署税改与政府短期拨款议案_网易新闻",
    "PublishTime": "12/25/201709:55:00",
    "URL": "http://news.163.com/17/1225/10/D6GAVU0600018AOQ.html",
    "Article": "（原标题：特朗普年底成就多：签署税改与政府短期拨款议案）中新网12月25日电据外媒报道，美国总统特朗普年底取得不少成就，他一方面签署了规模达1.5万亿(兆)美元的税改议案，敲定了他任职第一年的最大立法胜利。此外，他还批准了一项防止政府可能停摆的短期拨款议案。资料图：美国总统特朗普。中新社记者刁海洋摄报道称，这两项立法代表特朗普1月份就职以来在国会取得的最重大成就，也预示他在圣诞假期之后从佛罗里达返回时将会面临什么。据悉，这项税改是1980年代以来最大规模的税收改革，将企业税率从35%降至21%，并暂时减轻了大多数人的税收负担。特朗普称赞了几家在法案通过后宣布员工奖金的公司，提到了AT&T(T.N)、波音(BA.N)、富国银行(WellsFargo)(WFC.N)、康卡斯特(Comcast)(CMCSA.O)和SinclairBroadcastGroup(SBGI.O)。“企业会对此(税改)欣喜若狂，”特朗普表示。此外，政府拨款法案把拨款延长到1月19日，基本保持目前的规模。该法案没有解决关于移民、医疗保健和军费的更广泛争议。对于是否大幅重组联邦福利计划以跟进美国税法改革，共和党人也存在分歧。本文来源：中国新闻网责任编辑：邵小波_NN2479",
    "Comment": {
        "Content": "赞一个 1998,2008，都是世界经济危机的爆点，<br>2018，注定不会平凡 赞一个 商人治国！ 赞一个 希望再接着干十年，二十年。这么几年，就可以把美国搞得成孤家寡人，相信在干几年，就能够干跨美国。川普，你才是最大的卧底，成功的卧底。 减税大国走两步 川普总统威武！ 那里都有穷人，那里都有富人。所以不要羡慕别人，因为你有钱，到那都欢迎，你要是没有钱在那生活都一样。 商人治国！ 川普的新闻快成头条了，成就一词不是外国人来评价的吧。 就是！就跟在日本跟别人说说这个国家不干净~用着美国的电话跟别人说这个电话很糟糕一样！ 不看广告看疗效 商人和政客的区别～～ 那里都有穷人，那里都有富人。所以不要羡慕别人，因为你有钱，到那都欢迎，你要是没有钱在那生活都一样。 减税法就是谁缴税越多，减税也就越多，你不缴税当然也不用减税了，有问题吗？ 任你天天黑美帝蒸蒸日上 那里都有穷人，那里都有富人。所以不要羡慕别人，因为你有钱，到那都欢迎，你要是没有钱在那生活都一样。 忽悠穷人借款给富人发红包。 这老头挺靠谱 赞一个 1998,2008，都是世界经济危机的爆点，<br>2018，注定不会平凡 赞一个 商人治国！ 赞一个 希望再接着干十年，二十年。这么几年，就可以把美国搞得成孤家寡人，相信在干几年，就能够干跨美国。川普，你才是最大的卧底，成功的卧底。 减税大国走两步 川普总统威武！ 那里都有穷人，那里都有富人。所以不要羡慕别人，因为你有钱，到那都欢迎，你要是没有钱在那生活都一样。 商人治国！ 川普的新闻快成头条了，成就一词不是外国人来评价的吧。 就是！就跟在日本跟别人说说这个国家不干净~用着美国的电话跟别人说这个电话很糟糕一样！ 不看广告看疗效 商人和政客的区别～～ 那里都有穷人，那里都有富人。所以不要羡慕别人，因为你有钱，到那都欢迎，你要是没有钱在那生活都一样。 减税法就是谁缴税越多，减税也就越多，你不缴税当然也不用减税了，有问题吗？ 任你天天黑美帝蒸蒸日上 那里都有穷人，那里都有富人。所以不要羡慕别人，因为你有钱，到那都欢迎，你要是没有钱在那生活都一样。 忽悠穷人借款给富人发红包。 这老头挺靠谱 ",
        "Reply": 20,
        "Link": "http://comment.news.163.com/news2_bbs/D6GAVU0600018AOQ.html",
        "Total": 325
    }
}