{
    "Title": "华裔学生被哈佛录取获500美元奖学金 录取率仅14%_网易新闻",
    "URL": "http://news.163.com/17/1226/09/D6IROG3S00018AOQ.html",
    "Source": "Netease",
    "Comment": {
        "Total": 0,
        "Reply": 0,
        "Content": "",
        "Link": "http://comment.news.163.com/news2_bbs/D6IROG3S00018AOQ.html"
    },
    "Article": "（原标题：17岁华裔学生被哈佛录取侨社称赞像在家乡中状元）中新网12月26日电据美国侨报网报道，哈佛大学2022届新生提前录取近日发榜，纽约17岁的华裔学生朱华龙(MichaelZhu)凭借着出色的成绩被哈佛录取。美国香港总商会周末举行庆功宴，向朱华龙颁发奖杯和奖学金，表彰他为华人争光。美国香港总商会向朱华龙颁发奖状和奖学金。(美国《侨报》记者崔国萁摄)今年共有6630名学生申请哈佛大学的提前录取项目，仅有964人被录取。来自长岛布伦特伍德高中(BrentwoodHS)的华裔学生朱华龙成为佼佼者而名列榜单，被哈佛大学提前录取。消息传来，不仅令他的父母、兄长及亲友们高兴万分，也令社区为之激动和自豪。为此，美国香港总商会于周末专门举行庆功宴，祝贺朱华龙同学被世界知名学府录取。来自香港总商会的会员以及侨界人士30多人出席庆功晚宴，会长陈善庄向朱华龙同学颁发奖杯，表彰他为华人争光，也希望藉此能铭记人生这一重要时刻。陈善庄还代表该会向朱华龙送上500美元奖学金，鼓励他继续努力，未来在哈佛大学再创佳绩。陈善庄说，朱华龙被哈佛录取，这在中国家乡相当于中了状元。平日他的父母朱立业和明明不仅工作忙，也为社区忙碌，但在繁忙中不忘努力教育下一代，培养出如此出色的儿子，令人骄傲。出席庆功宴的州参议员韩文顿也向朱华龙表示祝贺，并说哈佛大学是全美排名第一的学府，朱华龙被录取不仅实现了“美国梦”，也为别的新移民孩子和家庭树立了榜样。他还夸赞朱华龙不仅是社区之星，华人之星，也是国际之星。朱华龙的父亲朱立业为社区活跃人士。对于在家中排行老三的小儿被哈佛大学录取，他表示非常高兴，并说儿子通过努力被录取，说明哈佛不是不可及的，而儿子在这次录取中获得了108的高分，也说明儿子用自己的出色证明了他够标准。从小一手将三个儿子带大并和孩子们有着亲密关系的母亲更是兴奋，说起儿子的优秀滔滔不绝。她说，小儿从小学三年级开始到现在每门功课都是A，不仅如此他还喜欢音乐、唱歌、打棒球，且小儿从小性格刚正并有负责感。当初报考大学时，小儿认为其报考哥大有90%的把握，报考哈佛只有50%的把握。但她鼓励他一定要报考哈佛，因为不去试，机会则全部失去。在接受各界祝贺时，朱华龙表示，他被哈佛录取的消息传到学校时，校长、老师们都非常高兴，平时高中的老师们做了大量的工作帮助他，也为教育他们付出辛苦，所以他感谢学校的老师们，也感谢父母的付出和教导。对于自己未来的学业，他说自己未来想进入哈佛大学的法学院学习，想当一名出色的律师，用法律的力量和法律的正义，去帮助更多有需要的人。本文来源：中国新闻网责任编辑：韩佳鹏_NN9841",
    "PublishTime": "12/26/201709:23:00",
    "KeyWords": "哈佛,华侨,哈佛大学,奖学金"
}