{
    "Source": "Netease",
    "PublishTime": "12/26/201716:38:33",
    "KeyWords": "棉衣,行李,危险物品",
    "Title": "男子棉衣里藏万响鞭炮乘火车 被查获后他这么说_网易新闻",
    "Comment": {
        "Link": "http://comment.news.163.com/news2_bbs/D6JMFJME000187VG.html",
        "Total": 261,
        "Content": "物理有个词叫做自燃 有看成火化车站的么？ 曾经我在加油站加油，有个人和加油站起了矛盾，然后拿出打火机说了一句:信不信老子把你加油站点了。然后以危害公共安全罪被判了3年。。。。。。。。。。。，当时啊，吓的老子赶紧抽枝烟，压压惊。 绑起来塞裤裆里点火🔥！ 拿公众的安全当儿戏，应该把这串鞭炮缠他身上，再把火给他点上 一定要严查，如果这家伙带着这么多鞭炮去嘉兴游船怎么办，严查。 包的紧，接触不到火啊 何不放水里泡<br>奇葩的老哥[大笑] “我把鞭炮包得很紧，应该没有关系。”能说出这样的话的人有多蠢 这样无知的人和事，在时下的社会时时刻刻都在发生！ 中国各类安全事故频发，监管部门作为不够是一个方面，民众自己普遍对安全毫不在乎也是很重要的一方面，比如许多人系安全带并不是为了自己行车安全，而不过是怕被抓住了扣分罚款而已，比如你告诉货车司机出发前一定要好好检查一下刹车，他会朴实地一笑：“没事，这车情况俺最熟悉，有啥事保管一脚刹住！”，比如你告诉粉尘场所的工人一定要把老板发的呼吸器戴上免得得矽肺，他会爽朗地一笑：“啥子西肺东肺的，我这身体结实着呢，用不着戴那玩意，怪麻烦！俺们下苦力的晚上喝瓶啤酒，抽根老烟，吐几口痰啥子都清爽了！”，你告诉做生意的一定要做好防火措施，他会不屑地告诉你：“俺们做个小本生意，哪那么多事，从我祖上开这个店传到我这，也没矢过火呀，别折腾俺们小老百姓！”…… [狗][狗]新制度，那船好像不能坐了 这与往飞机发动机里投币何异？ 物理有个词叫做自燃 有看成火化车站的么？ 这样无知的人和事，在时下的社会时时刻刻都在发生！ 对符合环保v 牛人 中国各类安全事故频发，监管部门作为不够是一个方面，民众自己普遍对安全毫不在乎也是很重要的一方面，比如许多人系安全带并不是为了自己行车安全，而不过是怕被抓住了扣分罚款而已，比如你告诉货车司机出发前一定要好好检查一下刹车，他会朴实地一笑：“没事，这车情况俺最熟悉，有啥事保管一脚刹住！”，比如你告诉粉尘场所的工人一定要把老板发的呼吸器戴上免得得矽肺，他会爽朗地一笑：“啥子西肺东肺的，我这身体结实着呢，用不着戴那玩意，怪麻烦！俺们下苦力的晚上喝瓶啤酒，抽根老烟，吐几口痰啥子都清爽了！”，你告诉做生意的一定要做好防火措施，他会不屑地告诉你：“俺们做个小本生意，哪那么多事，从我祖上开这个店传到我这，也没矢过火呀，别折腾俺们小老百姓！”…… 胡编说着玩的吧？怎么可能！ 是你太单纯？还是安检太傻？ 属于危害公共安全 他是来给大家拜个早年！ 褲襠里能藏手雷。。。 你是几年呀？😄 绑起来塞裤裆里点火🔥！ “我把鞭炮包得很紧，应该没有关系。”能说出这样的话的人有多蠢 典型的无知加法盲。哥呀，你抱个定时炸弹，坐在一群人中间哪！下回可别这么整了，眼看来到年了，大家都平平安安回家比啥都强！ 这是试试看你们安检是不是吃干饭的 中国各类安全事故频发，监管部门作为不够是一个方面，民众自己普遍对安全毫不在乎也是很重要的一方面，比如许多人系安全带并不是为了自己行车安全，而不过是怕被抓住了扣分罚款而已，比如你告诉货车司机出发前一定要好好检查一下刹车，他会朴实地一笑：“没事，这车情况俺最熟悉，有啥事保管一脚刹住！”，比如你告诉粉尘场所的工人一定要把老板发的呼吸器戴上免得得矽肺，他会爽朗地一笑：“啥子西肺东肺的，我这身体结实着呢，用不着戴那玩意，怪麻烦！俺们下苦力的晚上喝瓶啤酒，抽根老烟，吐几口痰啥子都清爽了！”，你告诉做生意的一定要做好防火措施，他会不屑地告诉你：“俺们做个小本生意，哪那么多事，从我祖上开这个店传到我这，也没矢过火呀，别折腾俺们小老百姓！”…… 严厉批评不及一拳头，马的上千人性命因这蠢驴差点走进死亡列车 这与往飞机发动机里投币何异？ 中国各类安全事故频发，监管部门作为不够是一个方面，民众自己普遍对安全毫不在乎也是很重要的一方面，比如许多人系安全带并不是为了自己行车安全，而不过是怕被抓住了扣分罚款而已，比如你告诉货车司机出发前一定要好好检查一下刹车，他会朴实地一笑：“没事，这车情况俺最熟悉，有啥事保管一脚刹住！”，比如你告诉粉尘场所的工人一定要把老板发的呼吸器戴上免得得矽肺，他会爽朗地一笑：“啥子西肺东肺的，我这身体结实着呢，用不着戴那玩意，怪麻烦！俺们下苦力的晚上喝瓶啤酒，抽根老烟，吐几口痰啥子都清爽了！”，你告诉做生意的一定要做好防火措施，他会不屑地告诉你：“俺们做个小本生意，哪那么多事，从我祖上开这个店传到我这，也没矢过火呀，别折腾俺们小老百姓！”…… 什么几把思想，鞭炮哪里买不到？还从外省带来家 曾经我在加油站加油，有个人和加油站起了矛盾，然后拿出打火机说了一句:信不信老子把你加油站点了。然后以危害公共安全罪被判了3年。。。。。。。。。。。，当时啊，吓的老子赶紧抽枝烟，压压惊。 咋还有这样的傻逼啊 拿公众的安全当儿戏，应该把这串鞭炮缠他身上，再把火给他点上 浸水处理，然后说，你可以携带了！农民工:方 包的紧，接触不到火啊 一定要严查，如果这家伙带着这么多鞭炮去嘉兴游船怎么办，严查。 中国各类安全事故频发，监管部门作为不够是一个方面，民众自己普遍对安全毫不在乎也是很重要的一方面，比如许多人系安全带并不是为了自己行车安全，而不过是怕被抓住了扣分罚款而已，比如你告诉货车司机出发前一定要好好检查一下刹车，他会朴实地一笑：“没事，这车情况俺最熟悉，有啥事保管一脚刹住！”，比如你告诉粉尘场所的工人一定要把老板发的呼吸器戴上免得得矽肺，他会爽朗地一笑：“啥子西肺东肺的，我这身体结实着呢，用不着戴那玩意，怪麻烦！俺们下苦力的晚上喝瓶啤酒，抽根老烟，吐几口痰啥子都清爽了！”，你告诉做生意的一定要做好防火措施，他会不屑地告诉你：“俺们做个小本生意，哪那么多事，从我祖上开这个店传到我这，也没矢过火呀，别折腾俺们小老百姓！”…… 何不放水里泡<br>奇葩的老哥[大笑] 你放水里泡一分钟，再拿回去放。 无语 处罚太轻了！ [狗][狗]新制度，那船好像不能坐了 。。。 中国各类安全事故频发，监管部门作为不够是一个方面，民众自己普遍对安全毫不在乎也是很重要的一方面，比如许多人系安全带并不是为了自己行车安全，而不过是怕被抓住了扣分罚款而已，比如你告诉货车司机出发前一定要好好检查一下刹车，他会朴实地一笑：“没事，这车情况俺最熟悉，有啥事保管一脚刹住！”，比如你告诉粉尘场所的工人一定要把老板发的呼吸器戴上免得得矽肺，他会爽朗地一笑：“啥子西肺东肺的，我这身体结实着呢，用不着戴那玩意，怪麻烦！俺们下苦力的晚上喝瓶啤酒，抽根老烟，吐几口痰啥子都清爽了！”，你告诉做生意的一定要做好防火措施，他会不屑地告诉你：“俺们做个小本生意，哪那么多事，从我祖上开这个店传到我这，也没矢过火呀，别折腾俺们小老百姓！”…… 90年代，危化爆炸品上火车，导致了好多起燃烧爆炸事故，死伤惨重。 ",
        "Reply": 36
    },
    "Article": "（原标题：安化男子棉衣里夹带鞭炮进站被查获时竟说“没关系”）红网时刻12月26日讯12月25日，一名男子在湖南安化火车站进站时，被安检人员从其携带的棉衣里查获藏匿的14000响鞭炮。夹带鞭炮的男子竟然极不情愿地说：“我把鞭炮包得很紧，应该没有关系。”这名男子姓梁，湖南安化人。梁某此次是与家里人相约准备去长沙过元旦节的，之前听说长沙城里购买鞭炮受限，于是就从家里购买了14000响鞭炮，准备带往长沙，一家人在节日中燃放鞭炮图个喜庆。为了在旅途中顺利过关，梁某将鞭炮藏在一件携带的棉衣里，进行包扎后放进行李包中，认为这样就可以“安全无事”了。当天，梁某与家人在安化火车站进站口接受安检时，安检员发现梁某的行李包中有可疑物品。当安检员要求对包内物品进行细致查验时，梁某始终拽着自己的行李包不放。为了确保安全，车站值勤民警将梁某带回派出所进行开包检查，结果查获了其行李包中用棉衣裹好的14000的鞭炮。此时，梁某还极不情愿，说“我把鞭炮包得很紧，应该没有关系。”民警对其进行了严厉的批评教育，说明乘车携带爆炸物品的危害，使梁某承认了自己的错误，民警才对其放行，并将查获的鞭炮做了浸水安全处理。元旦、春节即将来临，乘车回家过节和走亲访友的旅客将逐渐增多。在此铁路警方提示：为了您的平安出行，希望广大旅客严格遵守铁路安全规定，严禁携带易燃易爆危险物品进站乘车，更不能将易燃易爆危险物品藏匿或夹带在行李中，因为一旦发生燃烧爆炸，将会带来不可挽回的人身伤亡悲剧。本文来源：红网作者：刘亚平邵轶琳责任编辑：李杭_BJS4645",
    "URL": "http://news.163.com/17/1226/17/D6JMFJME000187VG.html"
}