{
    "Comment": {
        "Link": "http://comment.news.163.com/news2_bbs/D6L8K6KV000187VE.html",
        "Reply": 4396,
        "Content": "当然是选择原谅她啊 法官怎么能把这种人渣不枪毙还留着祸害别人！ 一般监狱有期的服刑犯没几个会主动惹死刑犯吧？ 杀了妻子还能缓刑？？？这法官收了多少好处费啊？？？？ 既然这么想死，就成全他吧 我已磨刀！先砍哪里好呢！ 你还别说，男人之间吹牛那是正常，听风就是雨，我老公朋友还说过我以前怎么样怎么样，其实我都没做过，晕，他也是听人家说的，还不知道传得多难听呢 有证据一般也不会说吧谁没事儿掺合别人两口子的事儿特别是男人嚼着舌根 楼上多读书～一般这种案子多判无期的多 对得起你爹花那么多钱搞关系吗？ 他老公？卧槽，你们搞基的都搞出三角恋了，好腻害啊！ 2楼应该就是被告人口中的“朋友” 大屠杀真应该好好喷一喷，为什么几百人能杀几十万人，没有人反抗？反思了些什么？纪念些什么？吸取怎样的教训？看他们好意思拍的电影，我从内心愤怒，愤怒的不是敌人，而是那些被屠杀的人：真他妈活该该死！ 这个人从小到大这种性格没被打死真是奇迹 呵呵，确实被枪指过，够胆来啊！ 有染就能杀人？我就不信这货婚后没和别的女人勾搭暧昧上床过？ 男人与男人之间说这种话99%是真的<br>男人不像女人，看不到真凭实据不会乱说 要想生活过得去，头上就得有点绿！ 缓刑浪费粮食 完了完了，我和我情人的事情，他老公应该也知道了，他会不会来砍我啊。 杀人者不偿命，留在给他机会再害人吗？是不是法官都收了香火钱？才没判死刑？南京不是一般的黑！ 不知道当着他的面说他的妻子与人有染的那位朋友还好么？ 楼上那些听风就是雨的，污蔑受害人和别人有染，证据呢？还没有证据谁会乱说，还男人说的都是真的，尼玛说得男人一个个都高大上一样。文中这个男人杀人都做出来了，垃圾一个，他的朋友啥样也能窥见一般了，还怕不会嚼舌根。嘴贱的男人多了去了！ 竟然真在牢里，没保外就医？😂 这才叫不死不休。坚信自己人的能量大，不会判死！才会如此肆无忌惮 胡子 都拖四年了走个法律程序这么慢？ 没有证据谁会乱说 一心求死 15楼，快，大声说出你的故事… 速度吧养着也是浪费纳税人的钱 有背景的他不敢惹，没背景的，别人惹不起，你以为个个都是马加爵？中国如果没禁枪，这种人会是第一批死的人 就看他在监狱里还五次伤人就看他有多狂妄自大 缓刑?缓你mlgb啊 这种人渣就该立即枪毙！！！不杀不足以平民愤！！ 关键是他到底有没有朋友跟他说过，还是他自己编出个朋友来说妻子不轨。 这算情节很恶劣了吧，是不是本身有暴力倾向？ 有个屁染啊，他三番两次挑矛盾打老婆，才几个月时候能有什么染，老婆要和他离婚几次了，最后杀老婆时候也就结婚一年时间，一年里被他打的伤痛不止的老婆还能出去跟人有染？ 富二代特权加特色 楼上多读书～一般这种看谁家有钱 这下金陵该正名了吧！ 法律很重要，但法律不是人类行为的上限，而是下限。法律强行禁止抢劫，杀人，偷盗这种最底限的行为方式。<br>小进一步是教育，教育也很重要，教育不是一定要你打高分，而是告诉你不能打低分。教育会让你认识很多事情，学会克制欲望，知道好与不好。<br>再上一层的是道德，道德很重要，它是无意识的自我审判，它是约束自己行为的丈量工具。它决定了品格的下限，它是基于受过教育与培养未来人格魅力的必要因素。<br>可以再好一点是信仰，它是决定人类上限的无限可能。信仰让人学会敬畏，让人懂得寄托，让人有底线，有想象的不断进步。<br><br>用法律的下限当作上限，用教育的林荫学会贪婪，用道德的高点审判别人，用无知代替信仰的毫无底线。大概是人类早已不再进化的原因。<br><br>理想，奋斗。这只是被创造出来的伪名词，它不该被推广和歌颂，最多它只算中性词。<br><br>我大概惊讶的，不是扭曲的观点，理所当然的市井，南辕北辙的造梦。<br><br>我更多惊讶的是你们懒得思考却盲人摸象的慨叹。不想读书，却不羞于为人师的指点江山。被打怂了，却说是看透一切的清新脱俗。<br><br>三观就是三观，平平仄仄平。 你兄弟会这样诬陷你老婆吗？ 都已经死缓了还三天两头惹是生非，可见在外面时有多横！这样的人哪有改？回炉再造才行！ 拖这么久 你也别狗叫了，自己敢不敢反抗心里还没点比数？别跟我扯别的，你没试过枪口对着你凭什么说人家懦弱。也许你直接尿裤子也说不定呢。 呵呵，南京法官…… 有些人就是没有证据就喜欢乱说，唯恐天下不乱。 感谢本文作者。图三扬子晚报上我看到：江苏限速60公里以下超速百分之五十不罚款，高速匝道一律不测速。寥寥几句话，可真是天籁之音呐。我之前是不敢确定的，每次下高速进入通江大道那条匝道上限速四十，我一直以为这是那个脑残设计的，现在释然了。 家庭原因杀人就可以不死吗？ 男人与男人之间说这种话99%是真的<br>男人不像女人，看不到真凭实据不会乱说 少在这里误导人。美国手枪、狙击枪没限制，半自动步枪要改成不能连射才可以向民众出售。 你还别说，男人之间吹牛那是正常，听风就是雨，我老公朋友还说过我以前怎么样怎么样，其实我都没做过，晕，他也是听人家说的，还不知道传得多难听呢 这个暴力犯不适合继续活下去了 不能好好打羽毛球吗 枪毙 严肃处理 肆无忌惮，法律就是为他家开的 这个人从小到大这种性格没被打死真是奇迹 死缓这个刑罚就不能取消吗，该判死刑就执行，或者判无期徒刑。 人渣留下何用 估计是爸妈害的 没有证据谁会乱说 不立即执死刑已系错，终于纠正 主题富二代 拖这么久 不知道当着他的面说他的妻子与人有染的那位朋友还好么？ 希望有追踪报道。这样作死的人应该满足他 这孩子的家教绝对缺失 可以 想下去找老婆。 风情万种纯正香艳小护士来：(tzroom点cn（点换.）去往天津的飞机上头等舱啪啪啪 风光66 半自动步枪本来就不能连射。 如果中国不禁枪这Y的早就活不过十五 当年谁谁审的！ 可以看x片 第一次就应该执行死刑。现在执行还来得及吧。 为什么宁愿这么浪费粮食也不捐给山区的娃娃 本身杀妻判死缓就说明法院审理就不公平，里边肯定有猫腻…大家懂得…[骷髅] 南京的法院及其法棺绝对有问题，强烈要求调查！！因为这Y的明显是找死，为什么就不干脆让其如愿！？ 南京法官，独步全国。 放屁，男的三八起来根本没女的什么事 有背景的他不敢惹，没背景的，别人惹不起，你以为个个都是马加爵？中国如果没禁枪，这种人会是第一批死的人 看面相都不像好人 老子立贴，绝对不会判立即执行 我老公一群也是听别人说我这不好那不好，关键是说我的那个人只跟我见过一两次，我到现在还不知道他长什么样……真是恶心…… 在牢里欺负人了吧 只求一死 南京 这种人渣就该立即枪毙！！！不杀不足以平民愤！！ 死不悔改。 想删号重练。 风情万种纯正香艳小护士来：(tzroom点cn（点换.）去往天津的飞机上头等舱内 父母钱到位了，可这么作，法官想减刑也没法减啊，赶紧判死刑吧！法官如果还不判他死刑，小心他出来后杀你全家。 早教你判他死刑，偏不判，还搞个缓刑。现在还在里面生事端。是屎就是会臭的。 用刀杀了他，活着浪费粮食，枪毙浪费子弹 它以为家里势力大，坐几年牢弄个保外就医就出来了…[车珠子] 不错可以看 呵呵哒 死刑缓刑两年执行，这两年内无故意犯罪会变成无期，现在好了，有故意犯罪，还不止一次，按照法律来说应该是可以向最高院申请核准执行死刑了，不知道最后会怎么样，坐等看戏。。。。 长期监压此类犯人是对监狱资源的浪费！ 杀人居然可以不偿命？南京法官真行...... 微博看到受害人未打码照，脸被刀子剐烂，好恶心啊！如此恶毒的垃圾，送它下十八层地狱！ 还有电视可以看 或字用的很好 流星月亮地球太阳系有发动机么？没有!他们却高速在宇宙中运行!为什么？因为他们的运行轨道本身就是太空高速时空隧道!他们的运行路线一半为去路一半为来路，周而复始地运行着!地球自转公转着，本就没有东西南北上下左右等方位!谁定的？我们的天父啊!目的只有一个，告诉人类我们天父的星座方位!所以九曲桥的方向始终对着东北方!在宇宙一切物质中，永远是子体围绕母体运动，这是恒定的!所以地球自转并围绕太阳公转!因地球是自转公转的，所以根据地球的东西南北是找不到星外文明的星座方位的!只有找到太阳的上下前后东西南北才能准确地给天父星座方位定位!我们天父星座方位在太阳系东北上方第九颗恒星那里!那里以双伴恒星为中心带动周围108颗恒星运动着! 社会渣子一律处死！ 吉星鹏马加爵周立波马蓉奸夫宋哲张靓颖老公都是金牛座的无耻之徒人渣！ 这个人从小到大这种性格没被打死真是奇迹 可怕啊 把那个女孩脸都砍的稀巴烂还缓刑了真厉害 直接毙了 很担心南京法院的判罚…… 哎拿出去喂狗狗嫌脏 有背景的他不敢惹，没背景的，别人惹不起，你以为个个都是马加爵？中国如果没禁枪，这种人会是第一批死的人 不是，可能觉得活下去人生也废了，故意找事求死 作死 沒人查他爸媽？ 这才叫不死不休。坚信自己人的能量大，不会判死！才会如此肆无忌惮 想当一个狱霸牢头，结果没那背景靠山！ 本身就该早死了 有钱了不起啊？<br>对[窃笑] 监狱里看电视喝牛奶，这生活不错 当时就应该毙掉 死缓期还能伤人？ 这人要成为建国以来第一个被执行死刑的死缓犯了 这种人都可以死缓？ 天要收这个孽畜 杀人偿命为什么不判死立即执行！？ 既然上赶着去死，那就成全他好了 呵呵 毙了他！ 有个性，生死看淡，不服就干，活得真潇洒 有背景的他不敢惹，没背景的，别人惹不起，你以为个个都是马加爵？中国如果没禁枪，这种人会是第一批死的人 坐牢还他妈喝牛奶？！ 应该这样 因為是南京法官判的！ 这是求死啊，估计是不想活了，心态已经崩了！ 感谢王珏 执行死刑刻不容缓 人渣！ 慎杀少杀是不对的！我们需要的是：慎罚、少罚、不罚！路上的监控整天紧盯着我的口袋！ 依舊是南京！呵呵 最后开个神经病证明反而屁事没有 这笔还没死？ 号子里还有牛奶喝？还是富二代的特权？ 真奇怪，司法机关情愿被有钱人强奸！ 家里有钱，又是宝贝儿子，从小惯出来的为己独尊，稍一不顺就会发泄！杀妻时的疯狂与残忍与一般义愤激情杀人有别，本就应该立即执行死刑！不会是他爹娘有钱让他又苟活、祸害想改造好的人。[报警] 嘬的 特色，该杀的不杀，不该杀的都迅速杀了 杀！留有何用？ 怎么判的缓刑的 自已作的死自已受 杀人死缓？再伤五次人才杀…这人姓什么、 殺。😡😡🗡 搞不懂杀人偿命天经地义，为什么要设立个缓刑 钱_%宝*s网s挂比了咋没新闻 你光想活，别人不怕死。 参观过，警示教育。里面有小超市，卖些零食，毛巾肥皂之类的日用品。但不是无限量供应，每个人有配额。而且只有表现好，分高的才能买火腿肠，八宝粥之类的。牛奶两个月可以买一箱。八宝粥很奇特是那种塑料碗装的，平时见的都是罐装的。 怎么父母没钱了？ 赶紧死刑，人渣。 这孩子家长怎么培养出来一个这样的家伙 这回是神仙都救不了。除非有精神病，要不然基本上是几个月后见马克思了 这种冲动的性格，如果被人利用，必死无疑 这种人渣留他何用？ 枪杀🔫 如果沒钱早枪毙了吧？ 杀的贪官呢？ 用鞭炮送他上路 自作孽，不可活 方便面，火腿肠，鸡蛋，八宝粥都有，可以买，限量。而且分够才能买。 早点枪毙是不是就没有以后那么多事情了呢？ 这人渣死有余辜不值得可惜 看到南京法院我就明白了 直接毙了吧 受到法律的制裁 2楼出来多久了😄 对于这样的人渣还要慎杀，tamapi老婆被强奸，警官不作为，自己拿刀砍了坏蛋就要立即执行死刑？<br>真尼玛个批！ 求死罢了 我觉得应该等他六七十岁放出来，这个死刑更可怕。 早该死 一直放不下老婆偷人 请缓刑出来负责 死刑！ 这样的畜生必须立即枪毙，人渣必须清除！ 为啥还缓刑呢？当时就应该立刻毙了他！ 监狱里被打的人也是人。你在大街上莫名其妙打骨折一人再泼热水烫伤一个人，肯定是犯罪被判决的。那死缓罪犯在监狱里做出这件事，肯定要执行死刑 好纠结 你想活，但不一定能活成。 该枪毙 这摆明了求死了，50岁出来确实很难熬 弄个精神病证明，第二天就可以出来了 这叫死有余辜 诈骗的也该死！ 在监狱都能这样，放出社会将无法估量，留有何用？！砰——砰——砰，让他父母有山拜...... 像这么凶残的人，就应该判死刑？立即执行。 看你一口一个屌丝的，自己不是屌丝有时间在这里打一大段文字嘴炮？ 这种人没什么脑子，容易被人利用，杀妻是真，死缓监狱还打人，要不就是被利用了，要不就是脑子有问题！ 南京法官，看你的了，你可以的 是个好斗分子 大屠杀真应该好好喷一喷，为什么几百人能杀几十万人，没有人反抗？反思了些什么？纪念些什么？吸取怎样的教训？看他们好意思拍的电影，我从内心愤怒，愤怒的不是敌人，而是那些被屠杀的人：真他妈活该该死！ 这是自己想死了 南京法官罪孽深重啊！ 让我们这群单身的人怎么看！ 明显是性格偏激，被你说成坚信自己人能量大，能量大能被判死缓？能量大在监狱里打人了摆不平还闹到被起诉？<br>傻逼喷狗别一点到晚在网上酸别人有钱有势的，晚上的泡面钱准备好了没？晚上打飞机的纸准备好了没？ 呵呵，煞笔玩意，现在婚姻恋爱内杀人案件就是判不了死刑，很多很多地方都能看到这条表述。文中这位判的死缓只能说是判的平均水平不轻不重<br>反正在你们这群渣滓看来射慧就是对不起你们，没办法，这种思想注定了一辈子屌丝 没有证据谁会乱说 呵呵，确实被枪指过，够胆来啊！ 罪该死刑，执行死刑是为了维护法律的庄严，而不是为了平息民愤，两码事 我作鬼也不会放过你 不杀留着过年吗 到了苦窑里面没人罩了！还延续在外面的作风。肥皂什么的不肯捡那肯定要吃亏，又不服气，就跟人打起来了！ 这种人家教太有问题，偏偏不少美女就是喜欢。唉，没辙。 不知道当着他的面说他的妻子与人有染的那位朋友还好么？ 安徽妹子还是挺好上的，特别是老公出去打工，老婆在家带娃的。 28楼，请带上被子，生活用品，到达深圳任意一家拘留所报道。 弄死吧，这种人渣活着还有什么意思？ 这才叫不死不休。坚信自己人的能量大，不会判死！才会如此肆无忌惮 在南京结果不好说 这特么还不死，留着过年呢？ 四年了啊，真快。 如果不枪毙，出来继续杀人 难说哦，思维正常的有几个人会去犯罪 这种人渣请立即执行死刑，对社会危害太大。 现在总有理由送他上路了。 枪毙富二代，国库资金就会多一点，枪毙个屁民，空气污染会好点 这次南京法院可能又搞错了，这家伙真的有精神病。 建议枪杀🔫 死缓受欺负 我弟弟信上帝.他认为他的存在就是在帮助上帝拯救人类.每次打完电话他都会说愿上帝保佑你,各种为我祈祷.他很乐意与我谈论信上帝的好处.并全身心投入工作和关爱家人,只因他觉得主耶稣是他学习的榜样--我不认为他们的信仰会造成交流障碍.即使我认真问他:上帝是否存在?而他总会回答:若爱存在,上帝就存在.因为上帝就是创造爱的源头上帝永远住在爱里，上帝爱世界上所有人包括想悔改的罪人想要信耶稣的可以到本地教堂买一本圣经看看每个地方都有教堂的信耶稣此生平安来世得永生有所信仰就会有所敬畏，有所敬畏就会知何事可为与何事不可为，知道了什么事可为什么事不可为，就不会干出背理天意人伦的逆天大错，遵从了天意人伦的法则就会一生安宁幸福这就是大道之法则，也就是爱的法则，神之道！ 有背景的他不敢惹，没背景的，别人惹不起，你以为个个都是马加爵？中国如果没禁枪，这种人会是第一批死的人 死刑犯不投牢的，只在看守所呆着，最高法院死刑复核无异议就拉出去枪毙！监狱里没有死刑犯 如此暴躏之人跟他谈恋爱结婚都没发现吗？绝对不会隐藏的那么好的 这种人渣，就该判死型， 早该死！ 没有狱警，就没有这个新闻。 这种人渣就该立即枪毙！！！不杀不足以平民愤！！ 这个人从小到大这种性格没被打死真是奇迹 这种SB活着干啥？别人说啥就信了！ 老子前列腺液都要笑出来了，嘴炮狗。你是被水枪指过吧。哈哈 这种傻逼死一万次都不过分 证明狱警都看不下去了，都想他死 人会活七八十年，不必要为了二十来岁的事情害自己一辈子 有钱有势，有恃(shì)无恐。 你也别狗叫了，自己敢不敢反抗心里还没点比数？别跟我扯别的，你没试过枪口对着你凭什么说人家懦弱。也许你直接尿裤子也说不定呢。 或将？ 一般监狱有期的服刑犯没几个会主动惹死刑犯吧？ 对付你这种人，就一个办法，杀死你。 “慎杀，少杀”？是的，没有充分的证据是应该这样！可有许多明显的杀人犯光天花日之下众目睽瞪之中杀人还能实行这一方向，如果这样只会使更多的无辜生命葬送。难道他们的命不值，犯人命值？ 一般监狱有期的服刑犯没几个会主动惹死刑犯吧？ 行了，不杀不足以平民愤了 有精神类疾病，不用死缓了 不死出来也是个祸害 这个人要么是该死！要么是真有精神病！ 横惯了，到哪不嚣张跋扈一下就不自在，这下完了等着尿裤子上刑场吧。 这个人从小到大这种性格没被打死真是奇迹 正确 这种人确属无法改造，坚决处死！ 这个人早就该枪毙 估计他是不想坐牢，想死的心态 这种恶人不死不休 直接枪毙吧 这种性格也是没救了 真的拎不清嘛，缓刑期间还搞事情？ 这是监狱风云看多了，进去手段凶狠可以做到闻风丧胆！玩过头了 这应该是他自己决心不想活了！ 自己把自己作死了，怪不得别人 这才叫不死不休。坚信自己人的能量大，不会判死！才会如此肆无忌惮 那些说国内杀一个必定死刑的傻逼们出来看看 一看就是个楞种 直接抢打了就行了 不要被西方左右我们的法律，国情不同，执法的应该想想，不要盲从。 无期徒刑，纯粹放屁。央视一“砖家”说的！形势主意害死………… 这下神仙都救不了！真是不作死就不会死。 直接突突了…… 呵呵， 家庭纠纷导致故意杀人就不用判死刑吗？ 这个多嘴的朋友还在么…… 有背景的他不敢惹，没背景的，别人惹不起，你以为个个都是马加爵？中国如果没禁枪，这种人会是第一批死的人 死者出轨是不是属实，如果不是，那个造谣者就是间接杀人凶手！ 死缓二年內没再犯故意罪，就减为无期了。还能再执行死刑？ 请注意：应当执行死刑! 我以前就跟死刑犯打把他气的没办法 这种人渣就该立即枪毙！！！不杀不足以平民愤！！ 1：手里有遥控器。2：躺床上的时候用牛奶泼人，睡觉的时候有牛奶喝。<br>现在重型犯待遇这么好吗？ 丧心病狂 没刀？把刀也禁了吧。 富二代，自己花钱买的吧 (^o^)/(^o^)/(^o^)/ 👍👍👍👍👍👍👍 骄奢跋扈习惯了……到了监狱还想当老大 第一次就不该给机会 这种人枪毙了算了，浪费纳税人的钱 这货在马加爵面前，就是毛毛 富二代杀人判死缓，富豪杀人怎么判？法律平等吗？ 杀了吧，浪费国家粮食 ",
        "Total": 67908
    },
    "Article": "（原标题：南京“西堤国际杀妻案”罪犯死缓期数次伤人，或将被执行死刑）很多人可能对吉星鹏这个名字还有印象。是的，他就是4年前震惊南京的“西堤国际杀妻案”的罪犯。紫牛新闻记者独家获悉，被判死刑缓期两年执行的他，如今有极大可能性被撤销缓刑，改为死刑立即执行。原因是，他在坐牢期间五次暴力伤害其他犯人，致两人轻伤，第一次致人轻伤发生在缓刑考验期之内，而就在司法机关对此次致人轻伤的行为进行司法调查期间，他再次伤害其他犯人，又致人轻伤。对此，南京中院认为吉星鹏实属“不堪改造”，并于今年11月下旬以破坏监管秩序罪判处吉星鹏有期徒刑三年。目前，吉星鹏已经上诉，该判决尚未生效。一旦判决生效，将报最高人民法院核准，撤销缓刑，对吉星鹏执行死刑。案情回顾听信传闻丧心病狂砍杀妻子2012年5月8日，被告人吉星鹏与被害人馨馨（化名，女，殁年22岁）登记结婚。婚后3个月，吉星鹏怀疑馨馨与他人有染，两人产生矛盾，并数次争执。2013年4月24日晚，与朋友聚会饮酒时，吉星鹏听朋友讲述馨馨与他人有染之传闻。次日早晨6时许，吉星鹏酒后回到家中，与馨馨就朋友所述之事发生争执。争执中，吉星鹏持菜刀、水果刀对馨馨头部、胸背部、四肢等部位砍击和捅刺数十下，致馨馨当场死亡。吉星鹏行凶期间，其父拨打110电话报警，后公安民警在其住处将其抓获。当年，吉星鹏案件的相关报道。该案发生后，引起社会极大关注。2014年4月18日，吉星鹏被判构成故意杀人罪。南京中院认为，吉星鹏的罪行极其严重，论罪当处死刑。但鉴于该案系婚姻家庭纠纷引起，结合具体案情，可不予立即执行。最终，南京中院判处吉星鹏死刑，缓期两年执行，剥夺政治权利终身，同时判决对其限制减刑。2014年8月30日，江苏省高院裁定核准上述刑事判决。2014年9月15日上述二审裁定送达被告人吉星鹏，2014年9月25日，吉星鹏被解押至某监狱服刑。吉星鹏在接受庭审限制减刑得到50岁左右才能出狱所谓“限制减刑”，是2011年由全国人大常委会通过的刑法修正案（八）中新增的内容，具体内容置于刑法第五十条第二款。根据该条款，限制减刑的适用主体有三类：一是被判处死缓的累犯；二是因故意杀人、强奸、抢劫、绑架、放火、爆炸、投放危险物质被判处死缓的犯罪分子；三是实施有组织的暴力犯罪被判处死缓的犯罪分子。具体执行时，死缓犯缓刑执行期满后依法减为无期徒刑的，不能少于二十五年，缓期执行期满后依法减为二十五年有期徒刑的，不能少于二十年。这个规定说明，限制减刑的罪犯仍可减刑，但要保证最低的服刑期限。据此，被判处死缓限制减刑的，算上缓期执行的两年，在判决生效后至少要服刑二十二年，而且，与没有限制减刑的刑事案件不同，适用限制减刑的刑事案件，判决生效前羁押的时间是不能折抵刑期的。生于1989年8月的吉星鹏，无论在监狱里怎么努力表现，最早也要到2036年将近50岁时才能出狱。当然，罪犯能被减刑的前提是，在死缓的两年考验期内不得故意犯罪；否则，将报请最高人民法院核准，立即执行死刑。2014年4月，扬子晚报曾刊登了吉星鹏的案件。法院判决系基于“慎杀少杀”之精神吉星鹏故意杀人罪案件判决后，江苏三法律师事务所杨冬律师在接受记者采访时表示，减刑是一个动态的罪责刑相适应的过程，是根据服刑人员在服刑过程中的表现，确定其人身危险性的降低，相应地予以缩短刑罚的执行时间。但是，对于服刑人员人身危险性是否降低的认定，是一个很主观的范畴，法官的自由裁量权将对结果产生很大影响，所以，为了对这种自由裁量权作出一定限制，防止一些带有极大人身危险性的、不应该被过早放到社会上的人员被过早地放到社会上，才制定了这样一条“红线”。“以前曾有过类似案例，一些犯下恶性案件的服刑人员刚被放出来几天，就又犯下极其严重的罪行，限制减刑条款的制定，正是为了防止这样的情况发生。”杨冬说。而对于死缓并限制减刑的结果，被害人馨馨的家人并不能接受，他们认为，吉星鹏的行为如此恶劣，就应该被判处死刑立即执行。但是，我国通过长期司法实践的经验总结，越来越强调对人权的保护和生命的尊重，慎杀少杀已经成为死刑适用中的主流观点，尤其是婚姻家庭恋爱等纠纷引发的杀人案件，更是如此。所以，感情的归感情，法律的归法律，虽然被害人家属情绪激动可以理解，但司法裁判却有着自己的标准，并不以任何个人的意志为转移，馨馨家人的愿望最终未能实现。缓刑考验期内四次打人并致人轻伤出人意料的是，法律给了吉星鹏一线生的机会，他却丝毫不珍惜。在服刑刚刚一年出头的时候，他又开始作奸犯科了。法院判决书载明，2015年4月28日晚，吉星鹏与同监室服刑人员马某因电视音量问题产生口角，被他人劝开。当日21时许，吉星鹏将一杯刚冲好的牛奶泼向正在床上看书的马某面部，挥拳对马某的头面部进行击打，并将马某从床上拖拽至地面继续殴打，后吉星鹏被其他同监室人员拉开，被处禁闭15天并扣基础分19分。马某对办案机关表示，“吉星鹏性格孤僻，容不下他人意见，容易走极端，做任何事情为了达到目的不计后果。”同监室的施某也作证说，当时他看到吉星鹏在马某床头旁怒气冲冲地说“妈的，你声音还能小一点呀，”马某拿遥控器调小声音，并说“嫌声大，我就调小一点可以，但你不能妈的妈的骂人。”此后直到2016年5月，吉星鹏又三次采取暴力手段殴打其他犯人。2016年2月2日，吉星鹏因洗澡放水一事带头殴打服刑人员肖某某，致肖某某软组织挫伤，被扣基础分1.5分。2016年5月11日，吉星鹏在同监室服刑人员集中就餐时，因坐在餐桌对面的余某某移动餐盘至其手旁边而心生不满，当即将餐桌掀翻，并用脚猛踹余某某腹部，致余某某跌坐到床铺上。“吉星鹏这个人不讲理，霸道。”余某某这样评价他对吉星鹏的印象。2016年5月12日晚间，吉星鹏在监区洗漱间内，因不满旁边的服刑人员高某某将水溅到他衣服上，用拳头和膝盖击打高某某头面部数下，致高某某左侧鼻骨粉碎性骨折，构成轻伤二级，鼻背部创口构成轻微伤。司法调查期间再次打人致人轻伤如果说前三次打人后果还没那么严重，那么2016年5月12日这次打人，情况就不同了，因为被打的高某某的伤情构成轻伤二级。而更严重的是，按照省高院核准的死缓裁定的日期起算，此事发生时，吉星鹏尚在死刑缓期两年执行的考验期内。如上文所说，在死缓的两年考验期内故意犯罪的，将报请最高人民法院核准，立即执行死刑。为慎重起见，2016年6月28日，办案机关对吉星鹏进行了精神状态鉴定，鉴定结果是吉星鹏无精神病，作案时具有完全刑事责任能力。随后，针对吉星鹏的司法程序立即启动，其被以破坏监管秩序罪立案调查。2016年12月29日，南京市人民检察院指控被告人吉星鹏犯破坏监管秩序罪，向南京中院提起公诉。而令人瞠目结舌的是，就在南京检方提起公诉期间，2017年6月9日，吉星鹏竟然又搞出事情来了。当天，因吉星鹏连续三次未经允许擅自离开管控区域打开水，负责管控岗的犯人丁某对吉星鹏进行了劝阻和警告。当天11点多，吉星鹏在监狱十二监区开水间保温桶内舀了四勺热水，径直向蹲在食品储藏间门口的罪犯丁某连水带盆泼去，并冲上前对丁某拳打脚踢，后被周围罪犯拉开并控制。经监狱医院诊断，丁某头颈部、上下肢一些部位被开水烫伤Ⅰ度-浅Ⅱ度。办案机关于2017年6月23日在某监狱内参照监控录像记录的情况，进行侦查实验，实验结果为，吉星鹏用于伤害丁某所用的热水水温约为78.5摄氏度，水量约5400毫升。经南京市人民检察院司法鉴定中心鉴定，丁某的损伤程度属轻伤二级。犯人赵某某作证时称，此次事件后，大家都有一种不安全感。“吉星鹏的想法和其他人不太一样，比较偏激，一点事情不如意就会作，难以沟通。”因此次开水泼人事件，2017年9月13日，南京检方又追加了一份起诉决定书，对被告人吉星鹏犯破坏监管秩序罪进行追诉。监狱部门认为其行为“多年罕见”法庭上，某监狱出具的《关于罪犯吉星鹏入监服刑改造情况说明及处理意见》等证明，某监狱认为罪犯吉星鹏作为一名被判处死缓限制减刑罪犯，在死缓考验期间，不能做到认罪悔罪，遵守监规，无视监狱和民警教育，4次采取暴力手段殴打其他罪犯，并致一名罪犯轻伤，其行为实为该监狱多年来所罕见，情节严重，影响恶劣，且在案件侦查过程中，避实就虚，不如实全面交代破坏监管秩序的行为，态度恶劣，建议依法予以严惩。公诉机关则认为，被告人吉星鹏在服刑改造期间，多次殴打其他被监管人，犯罪事实清楚，证据确实、充分，且情节严重，应当以破坏监管秩序罪追究其刑事责任。被告人吉星鹏在死刑缓期执行考验期内又故意犯罪，应按刑法有关条款规定进行处罚。被告人吉星鹏对起诉书指控的犯罪事实辩称，殴打马某、高某某、丁某是对的，其没有殴打肖某某、余某某；殴打马某等人时，其已经被关过禁闭等，不应当再起诉指控。法院认为，根据《中华人民共和国监狱法》第五十八条的规定，吉星鹏殴打其他罪犯，某监狱依法有权对其进行禁闭约束。而吉星鹏多次殴打其他被监管人员，致人轻伤，检方指控其行为构成刑事犯罪，不属于重复处罚。吉星鹏的辩护人提出，指控吉星鹏殴打肖某某、余某某证据不充分；吉星鹏殴打丁某是事出有因。法院审查后，对上述意见均不予采纳。判决一旦生效将报请最高院执行死刑吉星鹏的辩护人还认为，吉星鹏的行为不属于情节恶劣。但法院认为，被告人吉星鹏曾因持菜刀、水果刀砍切、刺戳他人数十刀，致人死亡，属罪行极其严重，论罪本应被判处死刑，鉴于其是婚姻家庭纠纷所引发，法院对其以故意杀人罪判处死刑，缓期二年执行，剥夺政治权利终身，限制减刑。然而，吉星鹏在执行死刑，缓期二年执行考验期间内，四次暴力殴打其他服刑人员，且致一名服刑人员轻伤，在其因涉嫌犯破坏监管秩序罪被检察机关起诉至法院后，仍不思悔改，又故意烫伤并殴打一名服刑人员，致他人轻伤，足以说明其抗拒改造且不堪改造的情形，显属情节恶劣。最终，南京中院认为，被告人吉星鹏在判处死刑缓期二年执行期间，四次殴打其他被监管人，致一人轻伤，其行为已构成破坏监管秩序罪，且系情节恶劣。被告人吉星鹏在被判处死刑，缓期二年执行考验期外，又再次故意伤害其他被监管人，致一人轻伤，应一并处罚。南京市人民检察院指控被告人吉星鹏犯破坏监管秩序罪的事实清楚，证据确实、充分，指控的罪名成立。依照《中华人民共和国刑法》第三百一十五条第四款的规定，判决被告人吉星鹏犯破坏监管秩序罪，判处有期徒刑三年。判决生效后，经最高人民法院核准，对被告人吉星鹏应当执行死刑。链接：普通缓刑案件与死缓的区别一、适用前提不同。缓刑的适用以犯罪分子被判处拘役、3年以下有期徒刑为前提；死缓的适用，以犯罪分子被判处死刑为条件。二、执法方法不同。被宣告缓刑的犯罪分子不予关押，而是由公安机关考察，所在单位或基层组织予以配合；而宣告死刑的罪犯必须予以关押，并实行劳动改造。三、考验期限不同。缓刑的考验期必须依所判刑种和刑期而确定。所判刑种和刑期的差别决定了其具有不同的法定考验期；死刑缓期执行的期限则是固定的，法定期限为2年。四、法律后果不同。缓刑的法律后果，依犯罪分子在考验期内是否发生法定情形而分别为：原判的刑罚不再执行，或者撤销缓刑，把前罪与后罪所判处的刑罚按照数罪并罚的原则处理，或收监执行原判刑罚；死刑缓期执行的后果为：在缓刑期限届满时，根据犯罪人的表现，或予以减刑，或执行死刑，在缓刑执行期间也可因犯罪人违反法定条件而执行死刑。本文来源：澎湃新闻责任编辑：何雨芳_NN5632",
    "PublishTime": "12/27/201707:49:00",
    "URL": "http://news.163.com/17/1227/07/D6L8K6KV000187VE.html",
    "Title": "南京杀妻富二代死缓期间数次伤人 或将被执行死刑_网易新闻",
    "KeyWords": "死刑,罪犯,服刑,缓刑",
    "Source": "Netease"
}