{
    "Article": "（原标题：蔡英文上任后新增324个官职被批砍再多年金也不够挥霍）中国台湾网12月28日讯据台湾《中时电子报》报道，岛内政党轮替以来，官派职务总计将增加324项职缺。对此，亚洲警察学会秘书长叶毓兰直言，“砍再多退休军公教的年金，也不够你们这样的挥霍”。据报道，蔡英文上任以来，已经或修订中的官派职务，总计将增加324项职缺。已增加的50个位子包括外事官员放宽员额限制至15%(5个位子)、三级首长(25个位子)、“不当党产处理委员”(13个位子)、“促进转型正义委员会”(7个位子)。提案修订中的官派职务将新增274个位子，包括“农田水利会”(15位)、乡镇市长(198位)、“直辖市区长”机要任用(61位)。对此，叶毓兰直言，砍再多退休军公教的年金，也不够民进党当局这样的挥霍，更别提民进党上任之后，各种明修栈道、暗渡陈仓，浪费公款的勾当。她说“让老先生、老太太们在终点之前，开始对自己的人生忧虑彷徨，含怨以终，这就是民进党执政最傲人的政绩，对台湾最大的贡献？”本文来源：中国台湾网责任编辑：张宪超_NN9310",
    "URL": "http://news.163.com/17/1229/07/D6QB31CQ0001875N.html",
    "Source": "Netease",
    "KeyWords": "蔡英文,民进党,官职,台湾,官员变动",
    "Comment": {
        "Reply": 7,
        "Link": "http://comment.news.163.com/news_guonei8_bbs/D6QB31CQ0001875N.html",
        "Total": 120,
        "Content": "纵观历史，女人当政就是灾难。 她浪费她那边的钱，咱们应该开心呀。 为啥我感觉蔡是自己人啊，咱们的卧底啊。卧槽，这才几年时间，顶的上阿扁数十年的努力啊。你看看现在。湾湾人看大陆都眼红了。绝对卧底，自己人 为何多数台胞选蔡英文？专家教授哑巴了 敢台独，直接搞掉那破娘们 纵观历史，女人当政就是灾难。 为何多数台胞选蔡英文？专家教授哑巴了 为啥我感觉蔡是自己人啊，咱们的卧底啊。卧槽，这才几年时间，顶的上阿扁数十年的努力啊。你看看现在。湾湾人看大陆都眼红了。绝对卧底，自己人 😊 她浪费她那边的钱，咱们应该开心呀。 厉害了！ 敢台独，直接搞掉那破娘们 "
    },
    "Title": "蔡英文新增324个官职 被批:砍再多年金也不够挥霍_网易新闻",
    "PublishTime": "12/29/201707:18:19"
}