{
    "Source": "Netease",
    "KeyWords": "蒸汽,飞机,热电厂,事故",
    "URL": "http://news.163.com/17/1225/05/D6FRTLD0000187VI.html",
    "PublishTime": "12/25/201705:40:40",
    "Comment": {
        "Content": "放射源探伤 要什么真相，就是平时管道巡查中没发现隐患，小病拖成了绝症。 唉，太危险了，电老虎 SA106是很普通的碳钢管啊。可以用P91，不过国产质量堪忧 3楼的兄弟说的没错 热电厂建在村中 虽然我不是电厂的，但定期探伤应该是定期检修内容之一吧（估的，不对勿喷），如果是合格的2厘米壁厚的无缝钢管，根本不会这样。是焊接管冒充的吧。 这种蒸汽你是看不见的。。家里烧开水看见的白雾已经是液化的小水滴了。。 质量问题，偷工减料、以次充好是中国制造的标志。 这恐怖的温度，与其说是烧伤，不如说是蒸熟的 对进口管子反倾销，结果国内管子觉得自己随便卖，根本不管质量，估计是什么地方小厂的东西 水在正常大气压下，最高一百摄氏度，但水蒸气就不一样了。 你脑残啊，哪个电厂蒸汽管道敢用焊接钢管？？？ 三楼是没接触过压力行业，不管是铁管还是不锈钢管，只要承压的管道，必须经过超声波和水压探伤复检，没人敢用焊接管代替无缝管的。<br>出事原因没有详细报道，不外乎几种情况，焊接处出问题，连接阀出问题，气阀出问题，管道出问题，但管道出问题的几率最小。 那房间温度从常温到一两百度需要多久？几秒钟么？ 唉:-( 管道隐患，运行人员检查不出来的，得靠良好的设计、优质的供货质量以及精心及时的维护 脱水就不知道啥意思了,蒸汽总归还是汽化的水,蒸汽要一定时间冷却才能形成看得见的像雾一样的小水珠,压力太大,速度太快,等你看到形成雾的小水珠时,确实已来不及了,蒸汽在你身上已得到冷却,带来的强大热力已被你吸收了. 看来，各行各业都有道道啊。。。<br>一个人想全部了解各行各业的道道那不可能。<br>就跟现在的电磁炉和一些插座导线以及电器都用不合格的铜包铝一样。<br>最可恨的是我一朋友的摩托车导线也是铜包铝的。<br>然后线断了，他打开一看，导线内部变成了灰，，，一碰就像面粉一样散开了。。。<br>这是监管不严呢，还是监管不严呢？？？ 蒸汽温度有700到800度，看这员工的水平也够糟糕，百万千瓦机组的主蒸汽也没这么高的温度 70公斤每平方厘米的压力，人都能直接切割开 一个项目假如能省1个亿但会死人，死人是1年死10个1个人赔偿1百万才1千万，还能赚9千万。那一定会上马，反正人口只是个数字。 据我所知高温蒸汽超过100度以上就已经脱水了，看不见但摸得着，这样的脱水蒸汽管道的钢材和架设要求及其严谨，震动，泄露和穿越工作区都有严格的限制，本人从事工业生产设备管理工作20多年，在日常生产过程中企业对利益的追求高于一切，对你提出的技术和安全方案几乎置若罔闻，可一旦出了严重事故在法律上该岗位管理人员却要承担责任，这是国家职能部门对企业管理法制上的不完善和不作为！ 河南许昌的那个网友是那个设计院的，这么叼？超临界给水居然敢用无缝钢管？一看就是在这里瞎咧咧，你这个水平连现场施工的农民工都不如，还设计院的呢！锅规上写的清清楚楚，超过1.6MPa的就不能用有缝钢管，超临界给水都22.7MPa了，超过1.6Mpa都10几倍了，还用有缝钢管？ 高危行业，应该高薪，现在是明星娱乐投机倒把空手套白狼的混的风生水起。 不按规矩（科学的原理道理程序）办事就危险。而恐惧来源于无知。 虽然我不是电厂的，但也知道探伤是检查焊缝质量的，不可能也没必要定期探伤，另外焊接管和无缝管一眼就看出来了，怎么可能冒充 记得去年有一次更厉害，直接冲到控制室，电脑都熔化了。女的都化成油了。 爆管，巡查不出来的，只能说造假太多了，用焊接钢管代替无缝钢管，反正保温棉一包就看不出来了，热力管道探伤也不做，太麻烦，现在随便花5000块钱就能拿到探伤报告，行业潜规则 如果事施工偷工减料，不按规程办事，那就当死得其所吧。 我以前在宁波热电厂工作每天在一个类似集装箱的房子里整天睡觉玩手机无聊的要死 你和三楼就是傻逼 哎同样是干电厂运行的希望广大同行一生平安 明显你是个门外汉！热电为专业建设单位按设计单位的设计施工！完工后经安检局设计和运行单位验收合格！再试运行合格后交付给运营单位！手续可谓严格和繁多！如果出事，伤的是操作工而非建设者！比如造桥后，以后桥垮塌了，伤的是过桥人一样！ 一场重大事故，为什么我们媒体报道出来总感觉不是味？ 专业人士！你的意思这些蒸汽泄漏的时候不是我们想的那样滋滋冒白雾，根本看不到，等你察觉到温度的时候就已经来不及跑了？ 人祸，前些年当阳出了次差不多的，伤亡比这还大。 全身烧伤95%以上，这样真的救不回来了，这是事实，因为身体皮肤都没有了，也没有什么地方的皮肤来移植，这样排汗没办法，也没办法阻挡外面的细菌等等，所以悬了 2厘米壁厚的无缝钢管！在没爆裂前你能巡查出故障？门外汉！这是钢管厂的钢管有问题！ 一年到头数不胜数的人为安全事故，能跟美国的枪支暴力事件与恐怖袭击事件的伤亡人数，做一个对比吗？ 希望生者平平安安，并彻查事故真相！ 高压蒸汽十几公斤的压力，这男的救活了也是一世受罪。<br>95的伤！ 第一次发评论，因为经历过电厂爆管，知道有多恐怖，愿逝者安息，愿伤者少些痛苦，愿从业者平安。 必须不是啊，虽然无色，但喷出来外围马上液化，就是白色的雾气了，不过看得见看不见都没什么用，主蒸汽管道，上百公斤压力，机房都能给你瞬间变蒸笼，跑个毛 确实，生不如死。 不这样搞,GDP怎么上来,经济怎么能实现跳跃式发展?不是有句话说得好么,我们现在是经济发展得太快,灵魂跟不上,良心都跑丢了. 傻B，偷工减料管一线员工什么事 2017是安全频发的一年，好在不是核电站 唉，太危险了，电老虎 车辆经常造成交通事故，都取缔吧 你装！ 材料上的文章太多了，用正价购买来的劣质货，中间若有猫腻，那些管道，阀门质量可想而知。 出了事故祭出“痛定思痛、举一反三” SA106是很普通的碳钢管啊。可以用P91，不过国产质量堪忧 既然这么危险为毛不做管中套管双保险,这不锈钢管子很贵么? 电厂里没有脱水蒸汽这个说法，一般都叫过热蒸汽，而且也不存在脱水情况，只能是在高压情况下，蒸汽热值很高，内部水分极少，所以很多时候也叫干蒸汽，不过在汽轮机做功后还是会冷凝成水。这个电厂从外观看也就是75吨到100吨左右的锅炉，蒸汽温度一般设计值也就是440到500之间，压力在4Mpa左右,新闻里那个检修工的数据有可能不准，当然，也不排除我孤陋寡闻。 炸的好，大领导说过多灾兴邦 要什么真相，就是平时管道巡查中没发现隐患，小病拖成了绝症。 最中肯的一条评论 这不是废话吗，比如交通事故百分之90以上都是因为违规驾驶，为什么不提高违规成本，不就是为了发展汽车吗 这恐怖的温度，与其说是烧伤，不如说是蒸熟的 文章结尾结的很操蛋~~~ 你脑残啊，哪个电厂蒸汽管道敢用焊接钢管？？？ 阿弥陀佛 不是你孤陋寡闻，新闻里的参数就是乱写的。现在火电机组最大的1000MW超超临界电站锅炉的主蒸汽温度最高也就700℃，压力23MPa，也就是230公斤每平方厘米。这个热电厂一看就是小热电厂，不可能有这么高参数的蒸汽，你说的75t~100t这种锅炉主汽温度确实最高就450℃，压力3.82Mpa。 管道都有保温层，你怎么看扒开？ 水在正常大气压下，最高一百摄氏度，但水蒸气就不一样了。 热电是不是火电 第一次发评论，因为经历过电厂爆管，知道有多恐怖，愿逝者安息，愿伤者少些痛苦，愿从业者平安。 供热兼发电的火电厂 三楼是没接触过压力行业，不管是铁管还是不锈钢管，只要承压的管道，必须经过超声波和水压探伤复检，没人敢用焊接管代替无缝管的。<br>出事原因没有详细报道，不外乎几种情况，焊接处出问题，连接阀出问题，气阀出问题，管道出问题，但管道出问题的几率最小。 那房间温度从常温到一两百度需要多久？几秒钟么？ 唉:-( 还不如直接死了，要我直接死了，活着太疼了 电动车都被取缔了！这不是你所说的吗？ 蒸汽温度有700到800度，看这员工的水平也够糟糕，百万千瓦机组的主蒸汽也没这么高的温度 70公斤每平方厘米的压力，人都能直接切割开 全国的热电厂经常发生事故，为什么不取缔？ 阿弥陀佛 唉，处罚成本太低，所以让j货层出不穷。 我要是题词多灾兴邦不会挨打吧 一个项目假如能省1个亿但会死人，死人是1年死10个1个人赔偿1百万才1千万，还能赚9千万。那一定会上马，反正人口只是个数字。 据我所知高温蒸汽超过100度以上就已经脱水了，看不见但摸得着，这样的脱水蒸汽管道的钢材和架设要求及其严谨，震动，泄露和穿越工作区都有严格的限制，本人从事工业生产设备管理工作20多年，在日常生产过程中企业对利益的追求高于一切，对你提出的技术和安全方案几乎置若罔闻，可一旦出了严重事故在法律上该岗位管理人员却要承担责任，这是国家职能部门对企业管理法制上的不完善和不作为！ 能对外输送热源的就是热电，例如工业用气或者取暖用热，但不一定是火电。火电是指通过燃料燃烧发热来加热介质进行做功的发电厂，一般泛指燃煤发电厂。 河南许昌的那个网友是那个设计院的，这么叼？超临界给水居然敢用无缝钢管？一看就是在这里瞎咧咧，你这个水平连现场施工的农民工都不如，还设计院的呢！锅规上写的清清楚楚，超过1.6MPa的就不能用有缝钢管，超临界给水都22.7MPa了，超过1.6Mpa都10几倍了，还用有缝钢管？ 啥叫脱水蒸汽 好了以后汗毛孔没有了夏天出不了汗只能在空调房呆着 记得去年有一次更厉害，直接冲到控制室，电脑都熔化了。女的都化成油了。 爆管，巡查不出来的，只能说造假太多了，用焊接钢管代替无缝钢管，反正保温棉一包就看不出来了，热力管道探伤也不做，太麻烦，现在随便花5000块钱就能拿到探伤报告，行业潜规则 安全意识。公司内部管理不严。从上到下有不可推卸的责任。 哎同样是干电厂运行的希望广大同行一生平安 人化成油太吓人了 你和三楼就是傻逼 几百万？？等着看有多少吧！！ 只要人活着就有希望，伤者平安！！！ 领导处置有方，好！掌声快响起 严查！！！！！！！！！！！！！！！！！！！！！ 专业人士！你的意思这些蒸汽泄漏的时候不是我们想的那样滋滋冒白雾，根本看不到，等你察觉到温度的时候就已经来不及跑了？ 是气老虎，高温高压蒸汽，比电还厉害 3楼的兄弟说的没错 探伤费用比较高，估计也就焊缝位置拍了片。 全市各地各部门一定要深刻吸取教训，举一反三，全力抓好当前安全生产工作。<br>重点圈起来，要考。 核电的监管力度跟火电完全不在一个量级，这种系统外的热电厂就更不用说了 有时候不是想死就死得了的。阿弥陀佛 这好比开车这么危险，为什么不在前后各做2米的缓冲安全装置并限制时速在60km以下。 希望生者平平安安，并彻查事故真相！ 呵呵，那是合金钢管，以前大多是进口的！ 被蒸汽烫伤好可怕，生不如死啊 高压蒸汽十几公斤的压力，这男的救活了也是一世受罪。<br>95的伤！ 冬至要吃饺子，为什么吃鸡蛋 我直言，锅炉爆炸而已 质检、安检都干哈去了? 不但掉了层皮，还要面对漫长的感染期，也就是要再走一次鬼门关。 热电是指以发热为主发电为辅，火电是指电厂的具体发电模式 这种烧伤的很头疼，赔偿的医疗费是个无底洞，相比遇难者家属则轻松多了，几百万赔偿金，家里老人小孩的生活都至少有保障。。。。。。。 七八百度，可想而知当时的人有多惨。纸的燃烧点只要二三百度哦！ 充满了不就挂了么…… 放射源探伤 安全啊 唉，太危险了，电老虎 外国羡慕我们的安全环境 1.有尖锐的呼啸声<br>2.有蒸汽 不会 没办法，现在招标只认低价。 造假的发源地，伤害到自己人了。 来来来，我们公司中国能建就是专门建电厂的，你拿5000看你搞不搞得定 要什么真相，就是平时管道巡查中没发现隐患，小病拖成了绝症。 我虽然不太懂这东西，但我能感觉到，当事故发生时，应该相当可怕与恐惧，现在想想我还活着，是真好，愿逝者安息，同时也希望政府能给受害者家属一满意的交待 哎同样是干电厂运行的希望广大同行一生平安 知乎上说高温高压蒸汽从小孔出来看不见，人走过去就两截了[被黑]不知道真假 不会追查吗？买管的、卖管的、做管的不会被倒追坐牢吗？？ 质量问题，偷工减料、以次充好是中国制造的标志。 哎同样是干电厂运行的希望广大同行一生平安 理由是风电不稳定。主要是风电建设已经层层扒皮，风电发电那点钱，不如火电扒皮爽。 本次事故涌现出无数可歌可泣的先进事迹，充分体现了我们身处在宇宙核心国优越的幸福感，并引起强烈反响，大家纷纷表示，一定要紧紧团结在（0......），高举.......，.......，.....，目前表彰大会正在进行中........................ 对进口管子反倾销，结果国内管子觉得自己随便卖，根本不管质量，估计是什么地方小厂的东西 一辈子毁了 这个烧伤面积，很难活过来，最终会细菌感染，并发症而死，而且活得比死还难受。 唉:-( 一楼冒充专业，纯傻缺。<br>狗屁脱水。随便根蒸汽管道都超100度。<br>谁家蒸汽管道不保温，有钱没处花？<br>一公斤饱和蒸汽冷凝后（喷出来）就是一公斤水。<br>干空气是温度的不良导体，不被直喷的话，还是有反应时间的，但必须事先培训和演习过逃生路线，否则蒸汽充满后啥也看不见，不知往哪逃生。 脱水就不知道啥意思了,蒸汽总归还是汽化的水,蒸汽要一定时间冷却才能形成看得见的像雾一样的小水珠,压力太大,速度太快,等你看到形成雾的小水珠时,确实已来不及了,蒸汽在你身上已得到冷却,带来的强大热力已被你吸收了. 这种蒸汽你是看不见的。。家里烧开水看见的白雾已经是液化的小水滴了。。 姐我也是热电厂的耶[鄙视][鄙视][鄙视] 哎同样是干电厂运行的希望广大同行一生平安 据我所知高温蒸汽超过100度以上就已经脱水了，看不见但摸得着，这样的脱水蒸汽管道的钢材和架设要求及其严谨，震动，泄露和穿越工作区都有严格的限制，本人从事工业生产设备管理工作20多年，在日常生产过程中企业对利益的追求高于一切，对你提出的技术和安全方案几乎置若罔闻，可一旦出了严重事故在法律上该岗位管理人员却要承担责任，这是国家职能部门对企业管理法制上的不完善和不作为！ 你傻逼吗？有缝管最大耐压才多少？ 少说两句吧，对不可理喻的东西小心为妙！ 威力强大 不按规矩（科学的原理道理程序）办事就危险。而恐惧来源于无知。 现在的事故十有八九都是人祸人人都在敷衍本职工作人害人 记得去年有一次更厉害，直接冲到控制室，电脑都熔化了。女的都化成油了。 爆管，巡查不出来的，只能说造假太多了，用焊接钢管代替无缝钢管，反正保温棉一包就看不出来了，热力管道探伤也不做，太麻烦，现在随便花5000块钱就能拿到探伤报告，行业潜规则 不会说话就闭嘴。没有脑子就多走走多看看。别话一出口就显得自己像个白痴。好好治治你们自己省的传销再出来吧。 安全生产关系你我他，祝平安！ 吓人啊 哎同样是干电厂运行的希望广大同行一生平安 这种高温能引起火么？ 都是责任事故....不是超压,...就是蒸汽管道不合格.... 一场重大事故，为什么我们媒体报道出来总感觉不是味？ 这样比，风电还是相对安全一些 停不下来 专业人士！你的意思这些蒸汽泄漏的时候不是我们想的那样滋滋冒白雾，根本看不到，等你察觉到温度的时候就已经来不及跑了？ 同样是干热电的，累工资还低，关键是危险，之前碰到过蒸汽泄漏，侥幸有事耽误了巡检时间，不然人就没了，想想都后怕 好人平安 哥们，你不懂别乱说。现在四大管道都能设计有缝管的。别乱骂人。 我在供电局烧了13年供暖锅炉。过去每天一身灰，现在电脑控制，只要压力表不报警，可以每天打扑克。冬天祝大家暖暖的洗个热水澡。 安全规程没学习过吗，没有狠抓安全管理耶[狗][狗][狗] 核电要是一次水管爆了，估计就是世界大事了。 知足吧，得亏不是核电厂。 希望生者平平安安，并彻查事故真相！ 这位机修工一看就不专业，什么蒸汽达到700~800度，高温高压的机组也就540℃，压力达到70~80公斤，这个压力下连高压机组都达不到，那蒸汽温度只可能更低。另外，就算蒸汽700~800℃，压力70~80公斤，按管道60~70厘米的直径来算，管壁厚度2厘米强度绝对不够。不信的可按DLT5054-2016《火力发电厂汽水管道设计规范》算算 是管道本身破裂，還是焊接處？或者法蘭連接處？ 高压蒸汽十几公斤的压力，这男的救活了也是一世受罪。<br>95的伤！ 同样运行的苦逼倒班狗，希望一切都好！ 节约用电吧，发电消耗太多资源还祸害地球环境啊！ 十几公斤？？？？一百多公斤吧，十几兆帕压力好吧 怎么办啊 一年到头数不胜数的人为安全事故，能跟美国的枪支暴力事件与恐怖袭击事件的伤亡人数，做一个对比吗？ 这关点检什么事？到底懂不懂？蒸汽管道都包着保温棉，都是定期由生技金属部门统一安排检查，重点是弯头部位。不可能天天检查 唉，太危险了，电老虎 唉，太危险了，电老虎 十一点 浙江物产的，最多赔钱完事。到处减排居然热电厂不停产 热电厂建在村中 这种事故也不一定说是谁的责任，可怜了。企业省成本，忽于检查，但是这种事故能不能日常巡查出来都两说呢 蹦吧蹦蹦，义四密地。 放着风力发电不用 现在的劳资关系，劳方都是混，资方都是压榨，决定了这样的事故会层出不穷。 领导们负起责任来 高温蒸汽威力惊人！可以把钢铁吹出一条大口子来。 一线员工有可能的错就是没有点检到位及时发现危险，当然如果没有巡检制度的话那就是管理责任！！！ 只能健在郊区或者村区，因为供热距离不能唱，减少损耗，毕竟有污染，也不能当市区 对进口管子反倾销，结果国内管子觉得自己随便卖，根本不管质量，估计是什么地方小厂的东西 还电老虎，一个月4-5000块。南方民营发电企业挣的多点也顶多和当地经济条件相适应。几天值班一次，经常加班。电厂干的活要技术，要经验。懂不懂？我们就一发电企业，要权没权，要钱没钱，拜托不懂的别混淆视听。 傻B，偷工减料管一线员工什么事 假设高压管路出了问题，会不会伤人，如何预先防护？高压管区是不是不能停留人员，是不是要设置紧急避难防护通道。 95面积能不能挺住真是未知数 事故往往都是出于麻痹的年关将近大家还是多检查多留心吧 爆管，巡查不出来的，只能说造假太多了，用焊接钢管代替无缝钢管，反正保温棉一包就看不出来了，热力管道探伤也不做，太麻烦，现在随便花5000块钱就能拿到探伤报告，行业潜规则 像这种死伤严重的重大责任事故主管领导直接死刑可以吗？ 最后一段在放屁。 快过年了出这种事情，😓。希望活下来的人们都能顺利渡过危险期。平平安安的过年。 就怕他们私自改装 据我所知高温蒸汽超过100度以上就已经脱水了，看不见但摸得着，这样的脱水蒸汽管道的钢材和架设要求及其严谨，震动，泄露和穿越工作区都有严格的限制，本人从事工业生产设备管理工作20多年，在日常生产过程中企业对利益的追求高于一切，对你提出的技术和安全方案几乎置若罔闻，可一旦出了严重事故在法律上该岗位管理人员却要承担责任，这是国家职能部门对企业管理法制上的不完善和不作为！ 也有可能是传感器出了问题。气压过高没有反映出来。 高压蒸汽十几公斤的压力，这男的救活了也是一世受罪。<br>95的伤！ 那种老电厂和小电厂，危险性都特别高。现在那种百万千瓦单机组的，都是进口设备，一台百万机组只要100多人。老电厂，六七台机组加起来才有100万千瓦，有一两千工人 平安是福 爆管，巡查不出来的，只能说造假太多了，用焊接钢管代替无缝钢管，反正保温棉一包就看不出来了，热力管道探伤也不做，太麻烦，现在随便花5000块钱就能拿到探伤报告，行业潜规则 凄凉 如果事施工偷工减料，不按规程办事，那就当死得其所吧。 我以前在宁波热电厂工作每天在一个类似集装箱的房子里整天睡觉玩手机无聊的要死 广州刚花大价钱表演了好多飞机在起飞 哎同样是干电厂运行的希望广大同行一生平安 会议强调，要针对重点行业领域，强化安全专项整治。要结合前期安全大检查发现的问题，狠抓隐患整改不放松。 明显你是个门外汉！热电为专业建设单位按设计单位的设计施工！完工后经安检局设计和运行单位验收合格！再试运行合格后交付给运营单位！手续可谓严格和繁多！如果出事，伤的是操作工而非建设者！比如造桥后，以后桥垮塌了，伤的是过桥人一样！ 要什么真相，就是平时管道巡查中没发现隐患，小病拖成了绝症。 高危行业，应该高薪，现在是明星娱乐投机倒把空手套白狼的混的风生水起。 希望生者平平安安，并彻查事故真相！ 人祸，前些年当阳出了次差不多的，伤亡比这还大。 全身烧伤95%以上，这样真的救不回来了，这是事实，因为身体皮肤都没有了，也没有什么地方的皮肤来移植，这样排汗没办法，也没办法阻挡外面的细菌等等，所以悬了 楼上说得对。用探伤仪严格定期全面检查，不怕麻烦，即使管道长期运行后疲劳损伤，也能及时发现消除隐患。 2厘米壁厚的无缝钢管！在没爆裂前你能巡查出故障？门外汉！这是钢管厂的钢管有问题！ 不知道该有多疼呀 希望生者平平安安，并彻查事故真相！ 拆了不就没隐患了！拆啊！ 高压蒸汽十几公斤的压力，这男的救活了也是一世受罪。<br>95的伤！ 只能健在郊区或者村区，因为供热距离不能唱，减少损耗，毕竟有污染，也不能当市区 哎同样是干电厂运行的希望广大同行一生平安 确实，生不如死。 安全治于隐患 这样的话可以让出一点 哎同样是干电厂运行的希望广大同行一生平安 同行，预祝新年快乐，来年平平安安，顺顺利利！ 浙江省的雾霾就来自于此！ 是年久失修嘛？ 这种意外安全事故确实有一定概率发生，只能说别碰上那极小的概率 唉，该过年了 安全事故呀 ",
        "Total": 2918,
        "Link": "http://comment.news.163.com/news2_bbs/D6FRTLD0000187VI.html",
        "Reply": 186
    },
    "Article": "（原标题：伤者家属回忆：出事时呼呼的巨响像无数飞机同时起飞事故原因初步查明：1号炉一处支管处爆裂）病房内的情景。钱报记者在采访孙师傅家属。富欣热电厂厂区。守在病房外的家属，左为伤者孙师傅的爱人。22日，冬至。按照当地的习俗，冬至要吃鸡蛋。王清海很在意这一点，特别是对儿子王力丰。王力丰是家里的顶梁柱，上面三个老人，下面一个读小学六年级的女儿。“你再吃一个蛋吧，圆溜溜地，越滚越顺。”这几年，随着年岁增加，王清海对儿子的依赖越来越强，他希望儿子一口气就能吃三个鸡蛋，一方面通过食量印证身体，另一方面农村里讲究“三”这个数字的吉利。大概这顿饭后的第20个小时：23日下午1点50分左右，儿子倒在了富欣热电厂的车间里，全身95%烧伤，伤情严重。和他一同遭受伤害还有8个人，其中5人已经永远离开了这个世界。“能活着就好，活着就还有来年的冬至。”23日夜，在嘉兴武警医院ICU重症监护病房，68岁的王清海弓着胳膊，用手背抹泪。他想知道，儿子还有多大的希望，他想知道这个坐落在村中的热电厂怎么说爆就爆了。探访伤者：“活着就有希望”王清海从来没有记错过儿子王力丰上班和休息的日子，将近20年来一直这样。他是村里的保洁员，早上5点出门中午11点回家。“你看吧，去和朋友打麻将了，难得休息日也不着家。”王清海知道儿子玩麻将的频率不高，但还是对老伴抱怨——“上班那么辛苦，在家里睡觉比什么都好”。没多大会儿工夫，他听到呼呼巨响。“像无数的飞机同时起飞一样。”他知道不远处的热电厂几乎每天都会排放蒸汽，但这一次听到的明显要比往常响得太多。这一次的蒸汽“排放”的确不同，除了声音还有时间——平时基本都是15~20分钟，此次却有40分钟左右才停。之后不久他就接到了朋友的电话，说热电厂出大事了，有人受伤，他40岁的儿子就在其中。王清海不相信：儿子休息啊，不可能出现在车间。他焦急地打听，越来越多线索都证实那个悲剧真的已经发生。下午4点左右赶到嘉兴市区的武警医院，他在抢救室门口看到了满身是血的儿子的同事，身上都是血，血来自儿子的身体……几个消息都不太好：全身95%烧伤，血压一度低至30、50……“儿啊，你可得坚持住，家里刚刚好起来。”老人一脸眼泪。和王力丰相比，孙强要幸运得多，全身50%~60%烧伤，能在别人的帮助下坐起来，还能进行简单的交流。24日早上9点，钱报记者再度前往武警医院，王力丰转院上海的时候，孙强正在换药——几乎所有的亲人都在病房外陪着：妻子女儿、哥嫂、父母，还有一帮玩得来的兄弟。孙强的妻子脸色发青，一晚没有合眼让她的精神更加萎靡，什么话都不想说，只是点头或者摇头。从来都没有经历过这种灾难，她还没有回过神来。“太不幸，又是万幸。”嫂子说了一句，两个女人对望一眼，又同时转头看看病房，“会好起来的，我们都要坚强一点”。大嫂越安慰，妻子的心事似乎越重。哥哥季屏忙前忙后，打电话给每一个他认为可能会提供医疗建议的朋友。“希望能度过这个危险期，活着就有希望。”回忆事故：声音大得就像飞机飞过23日夜11点，富欣热电厂满团漆黑——厂里用厂区自产的电，事故使得工厂停产，电力断了。南北两个通道被拉出两道警戒线，10个特勤值守。这一夜，附近的居民不太适应：太安静了。厂区外百米远的一对吴姓夫妇觉得很不习惯，热电厂每天都会排放蒸汽，突然静下来反而让他们不安。“出事时声音就像飞机起飞一样，声音非常大，看起来像烟一样，工厂全被包了。”他们天天看着工厂，这次他们知道一定是出事了。一位热电厂的机修工说：按理这些管道设备要定期检修，发现隐患会及时排除，爆裂的几率非常小。“这种蒸汽管一般六七十厘米的直径，无缝管，管壁厚度一般2厘米左右。”他说蒸汽温度可以达到700~800度，压力能达到70~80公斤/平方厘米。“这样的蒸汽高温高压，在一个很小的裂隙或者空间冲出来，后果极为严重。”沈师傅也是热电厂的员工，他参与了对同事的救援。“脑袋都震晕了，蒸汽瞬间就掩盖了一切。”当时他在本能出逃的过程中看到了躺在地上的工友。他觉得应当是一根靠墙的管子破了，蒸汽冲到墙面然后再返回来并伤到人。孙强还能简单对话，钱报记者问他哪里难受，他说“喉咙”；让他坚强一点会好起来的，他说“好”；再问他怎么逃出来的，他摇摇头……据孙强的同事和妻子介绍，当时正在锅炉房工作的孙强，距离事故点较远，险情发生时他身边正好有一扇窗，他在别人的帮助下脱身……钱报记者了解到，事故发生后，有4人被送往当地第一医院，4人送往武警医院，1人送往第二医院，这9个人均为蒸汽所伤，其中5人已经离世，2人转院上海，2人在嘉兴医治。初步调查结果公布：支管处爆裂24日上午，记者从嘉兴市南湖区政府新闻办获悉，经南湖区公安、安监、市场监管、消防四个部门组成的事故调查联合小组初步调查，事故系富欣热电主厂房1号炉主蒸汽管道至减温减压站支管处爆裂。事故单位嘉兴市富欣热电有限公司是一家以热、电为经营范围的有限责任公司，由浙江物产环保能源股份有限公司控股。公司产生的热能主要供应南湖区新丰镇、大桥镇的生产型企业。当天上午，嘉兴市委、市政府召开全市安全生产紧急视频会议，通报南湖区“12·23”安全生产事故处置情况，并对抓好岁末年初全市安全生产工作作出部署。会议指出，南湖区“12·23”事故，损失惨重，教训深刻，给全市安全生产工作敲响了警钟。全市各地各部门一定要深刻吸取教训，举一反三，全力抓好当前安全生产工作。会议强调，要针对重点行业领域，强化安全专项整治。要结合前期安全大检查发现的问题，狠抓隐患整改不放松。（注：文中涉及伤者及家属的均为化名）本文来源：浙江在线-钱江晚报责任编辑：赵亚萍_NN9005",
    "Title": "\"浙江热电厂事故\"伤者家属:出事时像无数飞机起飞_网易新闻"
}