{
    "Article": "喜迎2018：国产航母跨年即将出海测试2018年终于到来，万众期待的国产航母也迎来了跨年，据悉将在不久之后出海测试。",
    "Title": "喜迎2018：国产航母跨年即将出海测试_网易新闻",
    "PublishTime": "01/01/201810:08:06",
    "Source": "Netease",
    "Comment": {
        "Content": "没有三十年，电磁搞不出来。 歼20也就f16的水平，航母更是人家美国几十年前的水平，不想打你脸 除电磁弹射和全电推进外，其余都是垃圾！ 下一艏快出来吧，希望是电磁弹射 厉害了，word国👍 今天两条重要新闻歼10测试国产矢量发动机，第二个航母准备海试了。 赞。。 加油 f16连失推和aese都没有，还配和歼20比？航母歼15带5枚重型超音速配有源大预，你洋爹舰载机带个鱼叉都费劲，不想打你脸~ 当初你也是这样短视看歼20、国产航母的。 早日出去溜达溜达扬我国威! 脚手架工人厉害啊！！！ 歼20也就f16的水平，航母更是人家美国几十年前的水平，不想打你脸 除电磁弹射和全电推进外，其余都是垃圾！ 只是真正用上航母没有那么快 新一轮军竞开始了，过几年有的国家将被拖垮 核动力？ 第一艘好比7号战机，改头换面；第二艘好比8号战机，全面大改。再下一艘就没那么快了，因为是和这两艘完全不一样的。但是千万别弄成20号战机那种花架子。 网友都能拍到，间谍早就知道的一清二楚了 赞。。 今天两条重要新闻歼10测试国产矢量发动机，第二个航母准备海试了。 太平洋有足够宽广。马里亚纳有足够深邃。 加油 这艘会叫什么名字呢 没有三十年，电磁搞不出来。 下一艏快出来吧，希望是电磁弹射 厉害了，word国👍 能落飞机了不？✈️ 我想知道是哪个网友？ f16连失推和aese都没有，还配和歼20比？航母歼15带5枚重型超音速配有源大预，你洋爹舰载机带个鱼叉都费劲，不想打你脸~ 早日出去溜达溜达扬我国威! ",
        "Reply": 21,
        "Link": "http://comment.news.163.com/photoview_bbs/PHOT25PNI00014T8.html",
        "Total": 168
    },
    "KeyWords": "国产航母,海试,",
    "URL": "http://war.163.com/photoview/4T8E0001/2287346.html"
}