{
    "Source": "Netease",
    "PublishTime": "12/26/201712:50:52",
    "KeyWords": "途牛,裁员,股价,上市",
    "Title": "途牛称\"裁员400名\"消息失实：人数不超过200名_网易科技",
    "Comment": {
        "Link": "http://comment.tech.163.com/tech_bbs/D6J6TQGG00097U7R.html",
        "Total": 70,
        "Content": "比亚迪称多部门人员调动否认裁员 我知道199名而已 裁员就裁员呗,怕啥啊,有什么不敢承认的呢?天猫的强势回归啊! 2批199 比亚迪称多部门人员调动否认裁员 我知道199名而已 199？ 裁员就裁员呗,怕啥啊,有什么不敢承认的呢?天猫的强势回归啊! 2批199 ",
        "Reply": 5
    },
    "Article": "（原标题：途牛称“裁员400名”消息失实）本报讯（记者赵新培）针对网传国内知名旅游网途牛大举裁员400名的消息，途牛总部昨天正式回应：公司正在进行结构调整，调整过程中涉及正常的员工流动，人数不超过200名，占公司人员比例不超过3%。途牛同时还表示将严格遵循法律，确保员工权益。在这份回应中途牛公司称，近日对研发组织结构进行了调整，集中资源到重点系统、重点项目，为用户提供更优服务，实现“让旅游更简单”。途牛表示，调整过程中涉及正常的员工流动，人数不超过200名，占公司人员比例不超过3%。途牛还表示，在沟通、调整过程中，严格遵循相关法律法规，确保员工权益。途牛同时指出，目前网络传播“裁员400名”等信息来自于匿名网友猜测，为未经核实的失实信息。近年来，途牛在资本市场的表现也不尽如人意。自2014年上市以来，途牛连年亏损。2016年度第二季度，途牛更是巨亏7.7亿元。截至12月21日收盘，据Wind统计，途牛股价每股报7.9美元，较2015年12月21日股价腰斩，大幅下挫达53.28%。值得一提的是，今年11月底，途牛发布了第三季度业绩报告：今年第三季度，净收入为8.061亿元，同比增长53.5%。这是自上市以来，途牛迎来的首个单季度盈利。本文来源：北青网-北京青年报责任编辑：王凤枝_NT2541",
    "URL": "http://tech.163.com/17/1226/12/D6J6TQGG00097U7R.html"
}