{
    "Title": "昔日\"四小天鹅\"之三恐无球可踢 剩下一个还在背锅_网易体育",
    "URL": "http://sports.163.com/17/1226/16/D6JIO7LB00058781.html",
    "KeyWords": "法国,纳斯里,本泽马",
    "PublishTime": "12/26/201716:17:32",
    "Article": "网易体育12月26日报道：根据法国《队报》最新消息，目前陷入财政危机的土超安塔利亚体育俱乐部很可能同法国球员纳斯里以及梅内解约，曾经的法国四小天鹅之二的球员将面临着无球可踢的尴尬处境。值得一提的是，四小天鹅中的其他两位日子也不好过，本-阿尔法如今在巴黎0出场，而最有“出息”的本泽马如今在皇马成为了背锅侠。纳斯里与梅内可能被一起解约2004年，法国U17青年队的前场四人组本泽马、纳斯里、梅内和本-阿尔法，帮助法国国青队首夺U17欧青赛锦标，半决赛3-1击溃葡萄牙，决赛中也把拥有皮克、法布雷加斯等好手的西班牙队拿下，以惊人的全胜佳绩夺冠。四位青年才俊球技出色，并且都出生在1987年，被誉为“法国87四小天鹅”。四颗新星，当时都被媒体大书特书，捧为“亨利接班人”、“新齐达内”、“下一个法国领军人”的光环。四小天鹅曾在国家队并肩作战然而13年过去了，他们四人也都到了而立之年，但是他们职业生涯的发展轨迹并没有朝着球迷们之前所设想的那样发展。纳斯里的场外私生活比赛场上要精彩很多，曼城在将其清洗至土超之后纳斯里也没能逃脱悲催的命运，即将“下岗”。与纳斯里类似的是，梅内的处境也不好受，这位曾经效力于AC米兰的球星本赛季在联赛中只出场7次，只有2次首发。根据《队报》的消息，梅内也即将被球队清洗，而梅内也很有可能转投墨西哥联赛，从此彻底淡出球迷的视野。本-阿尔法的日子也好过不到哪里去，本赛季在巴黎0出场的他已经确定在中心云集的大巴黎没有了自己的位置。根据现阶段各大媒体的消息，本-阿尔法或许在冬窗加盟莱斯特城重返英超，也不知道这位法国天鹅能否在英超涅槃。说完了三位并不如意的“小天鹅”，剩下那位比起他们来说可谓“风光”很多，他是大名鼎鼎的BBC成员之一。然而随着皇马本赛季战绩直线下滑，本泽马也成为了众矢之的。不过在媒体看来，这位法国球星只不过是C罗的背锅侠罢了，西班牙媒体也披露，皇马可有可能在一月将本泽马清洗出队。对此我们也不禁唏嘘造化弄人，这四位曾经的天才球员却在而立之年遇到了同样的窘境。本文来源：网易体育作者：凉茶责任编辑：冯昊天_NSJS2656",
    "Comment": {
        "Content": "中超球队可以买本阿尔法和纳斯里这样控球型的球员 卖了说留不住当家和队长，不卖说砸手里缺心眼，买了说便宜货恋童癖，不买说守财奴最已阵。<br>不干不错，多干多错。当然因为这些年没有重要冠军奖杯，被批评也很正常，所以让董事会去决定吧。球迷有自由选择支持球队的权利 本阿尔法这种喜好一条龙的独逼，没有浩克的身体。几场比赛下来就可能被铲断腿。 球员要走无非和薪水挂钩。当时他在娜娜的地位不差。所以都是管理层弱智 拿了冠军拿了钱对反而自己的职业生涯负面影响更大。 是纳斯里非要走的 纳斯里还是挺强的就是这私生活。。。 本泽猫是清真无疑，纳斯里应该不清真，其他俩不知道 纳斯里在阿森纳最后一个赛季的表现比现在的厄齐尔和桑切斯只会更强，当时温格短时间卖掉那么多人真的是太不应该了，现在想要弄回一批这样的球员的成本，已经是阿森纳承受不起的了，为了点小钱，毁灭了未来 纳斯里情商不行，品行太差 他和阿德巴约差点把文革气死 4小天鹅有梅内呀？我还以为是苦尔库夫 除了梅內，都是！ 那是后话了，至少从荣誉和收入上来看纳斯里离开阿森纳是对的 也是阿森纳没追求所致，你要像那时候曼联切尔西那样有冠军，工资低点也就认了，在阿森纳工资低，还天天谈情怀，这特么谁愿意！ 古尔库夫比他们大一岁 古尔库夫是86的这四人是87的 笨马不背锅能取得这么多荣誉？😂 本阿尔法就在尼斯多好 这四个都清真吗？ 纳斯里太个性，瓜去曼城的时候希望他留队，结果纳斯里不愿意，非要租借出去 李铁，李金羽，张效瑞，隋东亮 中超球队可以买本阿尔法和纳斯里这样控球型的球员 法忠义，范雄心，宋功名，纳清廉...不是英超冠军就是西甲冠军这一点上讲，在阿4那烂上100年都难得到。。。。。。。。。。。。。。。<br>大鸡撸，得世界杯的概率要远远大于得英超的概率，甚至远远大于大鸡撸能够踢欧冠的概率 阿森纳工资低啊，不给涨到英超同级别球员的工资，谁会待在那，冠军拿不到钱挣不到，要让你天天干一样的活，比别人拿工资还少，还不能提拔，你愿意吗？ 呵呵 梅内来中超过全场有悬念？ 当年为了买下梅内，罗马被罚的很惨，买来说是亨利和齐达内结合体，结果只会拼命带球，然后就是浪射 法忠义，范雄心，宋功名，纳清廉 我也是我记得是古尔库夫 隋波 都留下就有冠军。 性格比较乖张 纳斯里就是自己作的，嘴巴比皮克还大 当年纳斯里各种一条龙啊 是纳斯里铁了心要走，别什么事都赖温四爷 法忠义，范雄心，宋功名，纳清廉...不是英超冠军就是西甲冠军<br>这一点上讲，在阿4那烂上100年都难得到。。。。。。。。。。。。。。。 本泽猫是清真无疑，纳斯里应该不清真，其他俩不知道 笨马终于要被身上数千口锅压趴下了 曲胜钦，黄勇，张玉宁，肇俊哲 纳斯里情商不行，品行太差 笨马：老子得罪你网易了？ 他和阿德巴约差点把文革气死 阿森纳就没有冠军的心。要么冠军，要么钱，阿森纳有啥呢？给人练级 已经断几次腿 除了梅內，都是！ 那是后话了，至少从荣誉和收入上来看纳斯里离开阿森纳是对的 本阿尔法这种喜好一条龙的独逼，没有浩克的身体。几场比赛下来就可能被铲断腿。 古尔库夫比他们大一岁 罗马近二十年成绩最差的那几年就是梅内和博洋他们那前后几年 除了梅内兹，其他三人都绿。 本阿尔法就在尼斯多好 纳斯里太个性，瓜去曼城的时候希望他留队，结果纳斯里不愿意，非要租借出去 我咋记得没李铁啊还有八一那个矮个子吧 也是阿森纳没追求所致，你要像那时候曼联切尔西那样有冠军，工资低点也就认了，在阿森纳工资低，还天天谈情怀，这特么谁愿意！ 人品太渣 当时不离开阿森纳现在不至于没有球踢，依然会是一个球队的主力，离开的太早。 纳8天赋在这四人里面最高。 是纳斯里非要走的 实在搞不懂本泽马一直做老二躲在皇马某罗后面真没一点血性一次个人荣誉都没有还能忍联赛射手第一都没有更别提金球金靴要么脑壳有问题要么非正常男人 梅内梅球王，纳私利，本泽喵,问题少年本阿尔法 梅内曾经是我村罗马的一员，印象是有一年欧冠主场对拜仁，梅内横趟拜仁防线 4小天鹅有梅内呀？我还以为是苦尔库夫 范佩西和宋一年走的。 纳斯里和本阿尔法可惜了，天赋爆棚，就是性格缺陷太严重。 我记得11-12赛季初纳斯里转会去曼城只差几天了，对阵利物浦在场上还是很拼，单凭这点就比桑切斯强 是不是被梅西穿裆的那个？ 在罗马还行 纳斯里还是挺强的就是这私生活。。。 我还以为是中国以前的“健力宝四小天鹅”！ 梅内大毒比 古尔库夫是86的这四人是87的 也就笨马拿了几次欧冠，其它的毛都木有一根！ 中年危机啊 作为阿森纳球迷我都得说着跟球员没有太大关系。阿德巴约当时就要8万周薪，结果不给，转眼的时间就卖了，都说阿德巴约怎么伤害阿森纳球迷的心，我说真正被伤害的是阿德巴约才对，他当时明明就不想离队，以他当时的水平，要加点工资续约有错吗？结果，后来他的宣泄，要我说也是爱的深，伤的更深。纳斯里想走吗？没错，你工资6万，另一个地方给12万，你走不走？你给不了12万，加薪到八九万，我相信他就留下了。然而俱乐部却拿他换了2500万转会费，还省了工资。萨尼亚自由离队的时候说他在阿森纳5年，一分钱工资也没加，入队的时候是6万，离队的时候还是6万。这样的工资结构，谁跟你玩？<br>阿森纳就是这个标准，吃大锅饭，这也没有什么错，但是每年适当地给核心员工加点工资总是应该的吧。 这四个都清真吗？ 纳斯里在阿森纳最后一个赛季的表现比现在的厄齐尔和桑切斯只会更强，当时温格短时间卖掉那么多人真的是太不应该了，现在想要弄回一批这样的球员的成本，已经是阿森纳承受不起的了，为了点小钱，毁灭了未来 李铁，李金羽，张效瑞，隋东亮 李铁，李金羽，张效瑞，隋东亮 卖了说留不住当家和队长，不卖说砸手里缺心眼，买了说便宜货恋童癖，不买说守财奴最已阵。<br>不干不错，多干多错。当然因为这些年没有重要冠军奖杯，被批评也很正常，所以让董事会去决定吧。球迷有自由选择支持球队的权利 这四个是回来发展算比较好的第一批不只这4个人有一个队当年国内足坛老大哥比较多年轻球员容易被排挤 本泽马可以的了 四小天鹅不是孙可，于大宝，张稀哲和武磊吗？ 都不踢了谁来背锅。 球员的性格真的很重要，除了本泽马，那三个基本都是又傲又懒 梅内在米兰踢的不是挺好的吗 是纳斯里非要走的 工资给的少才要走 当年高峰，范志毅这样的流氓当道，每个队都有这样的，年轻人混成老队员后也会变成这样，这就是榜样的力量 本阿尔法还是挺妖的 本泽马这么多年的荣誉，现役法国国家队成员能哪个比得上？ 纳斯里太个性，瓜去曼城的时候希望他留队，结果纳斯里不愿意，非要租借出去 小时了了大未必佳 除了锅锋，其他三个性格有严重缺陷 同时87的，比不上巴萨的梅西小法皮克 我还以为是李金羽，李铁，隋东亮，张效瑞呢 看到图第一眼我还以为上面两个光头是纳斯里跟阿尔法 时光流逝 有没有人觉得陈涛和纳斯里有点像 笨马不背锅能取得这么多荣誉？😂 纳斯里在阿森纳最后一个赛季的表现比现在的厄齐尔和桑切斯只会更强，当时温格短时间卖掉那么多人真的是太不应该了，现在想要弄回一批这样的球员的成本，已经是阿森纳承受不起的了，为了点小钱，毁灭了未来 还有老球迷看到四小天鹅就想起来的是健力宝第一批进国家队那几个么李金羽李铁隋东亮张效瑞 本阿尔法本来在尼斯挺好，硬是要去大巴黎 ",
        "Total": 443,
        "Link": "http://comment.sports.163.com/sports2_bbs/D6JIO7LB00058781.html",
        "Reply": 83
    },
    "Source": "Netease"
}