{
    "Article": "网易体育12月30日报道：在冬季转会期，库蒂尼奥是巴萨的头号引援目标。尽管巴萨尚未对利物浦正式提出报价，但这笔交易看来已经基本敲定了。《世界体育报》今天在头版头条上指出，库蒂尼奥已经开始在巴塞罗那找房子了。在《世界体育报》今天封面上，库蒂尼奥身上的球衣一半巴萨一半利物浦。在这家加泰媒体看来，库蒂尼奥已经基本算是半个巴萨人了。该报还指出，库蒂尼奥已经开始在巴塞罗那城找房了，他对于冬季转会信心十足。对于巴塞罗那城，库蒂尼奥并不陌生，他曾经在这里居住过半年。在12/13赛季下半段，库蒂尼奥曾被国米租给西班牙人。19岁的库蒂尼奥，为西班牙人打进了5球。如今，他接近于加盟西班牙人的死敌巴萨。按照《每日体育报》此前的说法，巴萨最多为库蒂尼奥报价1.5亿欧元，这笔钱已经达到了利物浦的心理价位。《世界体育报》则指出，巴萨将会用登贝莱模式引进库蒂尼奥，这一模式核心就在于固定转会费加浮动转会费。浮动转会费数额和条款，将是两队重点谈判的内容。利物浦主帅克洛普，也已经暗示库蒂尼奥有可能冬季转会了。在被问及库蒂尼奥能否留队时，克洛普这样对BBC记者说道：“除了我的婚姻，没有任何事情是永恒不变的。”本文来源：网易体育作者：张琳责任编辑：姚成浩_NS4810",
    "PublishTime": "12/30/201709:36:39",
    "URL": "http://sports.163.com/17/1230/09/D6T5D2PT00058781.html",
    "Comment": {
        "Content": "按照惯例，要想去巴萨，先得强行吹煤老板一波😂 你个傻逼玩玩还皇马球迷？别玷污美凌格了 如果真的1.5亿欧元还分期卖掉库鸟，我祝芬威集团亨利及全体大股东全家跳楼死。 厕所报能让傻迷高潮无数次 单兵作战能力这个星球有能跟梅西比的？没有两个人专门看防梅西根本就防不住梅西，你看过哪个队专门找人看防水罗的，那蛤蟆退一抖一抖就把自己慌晕了，看他过人真的好笑，假动作一晃，防守队员站那看他自己在那一个人搞笑 面对冰冷的事实，作为皇马球迷的我也不得不承认，C罗和库蒂尼奥已经不是一个档次的球员了 你这条屎🐶今天发帖应该能赚到五块钱，加油，水🐶！ 酷鸟：好男不当兵，说啥也得转业😂 范迪克这钱有人出了 世界体育报，厕所真需要 买那个才7500万英镑，这个卖起码1.2亿起，有可能1.5亿。 没脑子报道。。很明显是给利物浦压力。。利物浦开价2亿很公道了。。夏天都拒绝1亿5000万了。。还想着1亿固定准会费+5000万浮动。。巴萨高层真傻了。。买一个后卫就7500万英镑了。。2亿英镑拿走。 库蒂尼奥要到影视学院进修？看好你😏 睁眼说瞎话也是个本事 克洛普专情啊 小裤子，范将军都来投奔我军了，大不了再去招一个门将，你看如何？ 从12年到目前为止，梅西是进球最多的球员，助攻最多的球员，关键传球最多的球员，过人最多的球员，并且是MVP次数最多的球员，这样的球员竟然被说不够C罗全面，真正的全能是集射术、传球、大局观、视野、组织、突破分球、盘带过人、任意球、直塞等等方面这才叫全能，而当今足坛集这些特点于一身的球员只有一个，那就是梅西 库鸟去了会穿几号球衣？11号吗？ 11号登贝莱估计是图兰的7号 笑的手机都丢了，C罗单兵能力。。。除了远射还有其它方式？ 自从挤进中路，远射也没有了.....就剩吃饼 西甲穷鬼，买个人条款那么多，不想好好说事情 不在诺坎普颠球我不信[微笑] 这树我不上，冬天太冷 买个球真的不贵 不会卖的，要卖也两亿不分期付款。 除了我的婚姻[大笑]克洛普忠贞不渝啊，哈哈 连过几人进球应该是单兵作战能力强最直接的体现吧，求你罗连过几人进球视频，梅西的应该数不胜数。 库蒂尼奥打开网易APP后，找出了行李箱开始收拾东西了…… 世界体育报，一天一官宣 网易刚不是还说没戏，吗逼的当易友是傻子吗 是要顶替小白，解放梅西。 2楼是罗黑吧？我罗能单兵作战。。。😂 要前腰干什么呢?顶替梅西吗？<br>要后卫和边后卫。。。。 那就2亿现金呀。学学巴黎。直接给现金。没本事就算。 给利物浦压力？人家直接无视你巴菜！ 一个是能射能传能过人，一个是在禁区等着别人喂饼，你跟我讲单兵作战能力？可笑不？ 买范迪克的钱，得从巴萨身上要回来。 小白老了需要一个有带球突进能力的球员帮梅西分担压力。边后卫还好些，但中卫确实急需补强。到现在依然认为买登贝莱而且是那么高的价格买巴萨挺傻逼的。当时如果巴萨报价马夏尔估计7000万曼联就会放人，那会儿马夏尔在鸟的计划中并不重要，只是赛季开始后马夏尔表现越来越好才站稳脚跟。 单兵作战能力梅西不如C罗…… 明天离给你看 金球奖到底是颁给团队的还是颁给个人的。既然是个人的，那就要看个人能力。谁个人能力最强就颁给谁。单兵作战能力你家梅西有C罗强吗？ 红军努力吧，让离开的球员后悔去 有的，大脚空气球， 你确定7000万曼联会放马夏尔？？你忘了当时巴萨手握2.2亿现金？谁不想宰巴萨，马夏尔起码再翻一番 单兵作战能力你家梅西有C罗强吗？这句话又一次精确、无情、全面地验证了黄狗强大的智商，它妈的还问的这么理直气壮。。。。。。。 阿隆索马斯切拉落苏牙雷死，，，，都表示后悔了。西甲欧冠都没英糙值钱呐 买范迪克的钱，得从巴萨身上要回来。 这记者逼脸都不要了 是啊还得如实的夸一次我罗要不不让进 哈维2.0版即将驾临巴萨。 1.5亿利物浦肯定不能卖 每日体育报，这是第几回打脸了，还记得清吗？ c骆根梅西比单兵作战？[惊讶]笑死 酷鸟：好男不当兵，说啥也得转业😂 世界体育报，厕所真需要 买那个才7500万英镑，这个卖起码1.2亿起，有可能1.5亿。 估计他会踢左边或者左中场 没有正式报价，就基本敲定了！小编你比加泰媒体还能吹！ 多的钱还是要买对位球员 可是你的名字与内容不符。 几年前？那得之前6年前了 世界体育报xx真需要 这样小白就可以多休息这赛季专心欧冠了 C罗没做吃饼员之前单兵作战能力照样被梅西完爆，更别说现在了。。梅西几年前一个人虐爆皇马后防线，换c罗试试😂 442是不得已为之，巴萨还是适合433。梅西还是适合影峰或边锋。梅西踢中场最大的问题是防守还不是不够积极。如果积极，体力又跟不上。 张琳，库蒂尼奥要是没转会成功，你老婆是不是拿出来让易友千人骑万人压？ 利物浦真是爱这个孩子把身价台到1.5 不套球衣了？改卖房子了，地产党？ 梅西用成这样是浪费好不好，你口中成全面了[喷水][喷水][喷水][喷水] 从12年到目前为止，梅西是进球最多的球员，助攻最多的球员，关键传球最多的球员，过人最多的球员，并且是MVP次数最多的球员，这样的球员竟然被说不够C罗全面，真正的全能是集射术、传球、大局观、视野、组织、突破分球、盘带过人、任意球、直塞等等方面这才叫全能，而当今足坛集这些特点于一身的球员只有一个，那就是梅西 库鸟去了会穿几号球衣？11号吗？ 11号登贝莱估计是图兰的7号 渣叔，你不是不卖吗！！！ 笑的手机都丢了，C罗单兵能力。。。除了远射还有其它方式？ 不能同意更多 不够c罗全面。。。这是多不要逼脸的人说的话？ 1.3亿以上，在加一些附加条款。希望巴萨不要错过 巴萨这tm和利物浦什么仇，挖了苏牙又挖库鸟 没有正式报价，就基本敲定了！小编你比加泰媒体还能吹！ 可以解放梅西，梅西还是在锋线威力更大 双娇党嘛，正常正常………😂😂😂 要是按照这个报纸的新闻库蒂尼奥早在今年夏天就加盟了...小编真是能吹这就是个厕所报纸 是要顶替小白，解放梅西。 梅西前场四个位置那个不能踢？而且这赛季442梅西，素雅突前 还有点赚头。 要前腰干什么呢?顶替梅西吗？<br>要后卫和边后卫。。。。 有一个数据永远拿不了第一，射门数。 二楼看球费电。哪怕看过一场球都知道你罗就是个商业足球的包装品而已。 住在巴塞罗那. 一个是能射能传能过人，一个是在禁区等着别人喂饼，你跟我讲单兵作战能力？可笑不？ 按照惯例，要想去巴萨，先得强行吹煤老板一波😂 小白老了需要一个有带球突进能力的球员帮梅西分担压力。边后卫还好些，但中卫确实急需补强。到现在依然认为买登贝莱而且是那么高的价格买巴萨挺傻逼的。当时如果巴萨报价马夏尔估计7000万曼联就会放人，那会儿马夏尔在鸟的计划中并不重要，只是赛季开始后马夏尔表现越来越好才站稳脚跟。 对呀，欢迎姑娘。 库蒂尼奥要到影视学院进修？看好你😏 金球奖到底是颁给团队的还是颁给个人的。既然是个人的，那就要看个人能力。谁个人能力最强就颁给谁。单兵作战能力你家梅西有C罗强吗？ 红军努力吧，让离开的球员后悔去 有的，大脚空气球， 在曼联后期蛮强的，正值当打，来皇马扶正后没几年就不行了 可笑的巴萨球迷，抱着个世报成天意淫傻笑 利物浦再把姆希塔良弄过来 单兵作战能力你家梅西有C罗强吗？这句话又一次精确、无情、全面地验证了黄狗强大的智商，它妈的还问的这么理直气壮。。。。。。。 双前腰[微笑] 按照惯例，要想去巴萨，先得强行吹煤老板一波😂 买那个才7500万英镑，这个卖起码1.2亿起，有可能1.5亿。 巴萨给利物浦捐献了很多钱。 单兵作战能力这个星球有能跟梅西比的？没有两个人专门看防梅西根本就防不住梅西，你看过哪个队专门找人看防水罗的，那蛤蟆退一抖一抖就把自己慌晕了，看他过人真的好笑，假动作一晃，防守队员站那看他自己在那一个人搞笑 面对冰冷的事实，作为皇马球迷的我也不得不承认，C罗和库蒂尼奥已经不是一个档次的球员了 金球奖到底是颁给团队的还是颁给个人的。既然是个人的，那就要看个人能力。谁个人能力最强就颁给谁。单兵作战能力你家梅西有C罗强吗？ 世体单就这一件事能卖一年新闻。真爽 担心渣叔啊，这种说法一般叫做立flag😂 1.2亿是欧元，还是英镑？<br>是确定的数额，还是包括浮动办公费？ 开门，你有快递 曼联时期的C罗还能说单兵作战很厉害，可是现在真不能 从12年到目前为止，梅西是进球最多的球员，助攻最多的球员，关键传球最多的球员，过人最多的球员，并且是MVP次数最多的球员，这样的球员竟然被说不够C罗全面，真正的全能是集射术、传球、大局观、视野、组织、突破分球、盘带过人、任意球、直塞等等方面这才叫全能，而当今足坛集这些特点于一身的球员只有一个，那就是梅西 没脑子报道。。很明显是给利物浦压力。。利物浦开价2亿很公道了。。夏天都拒绝1亿5000万了。。还想着1亿固定准会费+5000万浮动。。巴萨高层真傻了。。买一个后卫就7500万英镑了。。2亿英镑拿走。 分期到不怕，就怕浮动条款<br>如果1.5亿英镑（至少得二个范迪克吧）实价另加浮动条款也可以 我比较看好登贝莱，但是不认同他的身价，7000万顶天了，妈的被敲诈了，没办法内马尔才被强买，必须买一个更年轻更有潜力的球员，巴萨当时都慌了 你煤会跳水拳击举手吗 如果真的1.5亿欧元还分期卖掉库鸟，我祝芬威集团亨利及全体大股东全家跳楼死。 现在不要说库鸟比肩梅西C罗了，英超就有丁丁，阿扎尔，凯恩最多加个萨拉赫~<br>巴萨主管又准备吃回扣啦？（登贝莱2016年1500万到一亿五）场上表现是个水货（3场1助攻）球队表现不佳，暴力鸟上了后攻守平衡了~<br>去和皇马抢阿扎尔，凯恩啊巴萨傻逼主管会吃回扣啦？要就引进丁丁，阿扎尔和凯恩顶尖的，酷鸟不如萨拉赫管用~（真心不觉得酷鸟能和前辈苏牙比）很难找内马尔加班人的~不要吃回扣了~1500万先生上场又是巴萨丢分开始~ ⚽是12年才发明的吗？ 你妈币的说得有点道理。 没毛病 要买就实打实的1.5亿英镑，分期也行，就是别扯啥浮动条款<br>加浮动条款也行，就2亿英镑<br>不买就别比比 从12年到目前为止，梅西是进球最多的球员，助攻最多的球员，关键传球最多的球员，过人最多的球员，并且是MVP次数最多的球员，这样的球员竟然被说不够C罗全面，真正的全能是集射术、传球、大局观、视野、组织、突破分球、盘带过人、任意球、直塞等等方面这才叫全能，而当今足坛集这些特点于一身的球员只有一个，那就是梅西 懂法👍 bang欧 弟弟在 连过几人进球应该是单兵作战能力强最直接的体现吧，求你罗连过几人进球视频，梅西的应该数不胜数。 白队长老了 最后变的反而是他的婚姻 买范迪克的钱，得从巴萨身上要回来。 酷鸟：好男不当兵，说啥也得转业😂 红军今年专门劫老乡[窃笑] 边后卫也够用了吧，阿尔巴，塞梅多，比达尔，迪涅，萝卜头偶尔客串，我觉得再买个中卫和买人顶替小白才是当务之急 其实就等于用前腰换了中卫、后腰、边后卫，对现在的利物浦来说，这样补强更有利于拿分 不会卖的，要卖也两亿不分期付款。 为啥选择12年，因为从这开始统计最多呀。比近几年的话估计就呵呵了 完全用不上，登贝莱一个水货还不够，又来一个攻击线那么脆的~英超只认丁丁，阿扎尔，凯恩~<br>巴萨真尼玛傻逼，要库鸟这种的（和当年前辈苏牙英超超神表现不可比）巴萨和皇马去争阿扎尔和凯恩吧，利物浦萨拉赫都可以考虑的！不要再登贝莱这种水货（巴萨总管又吃回扣了）登贝莱从1500万到一亿五你妈的回扣啊 除了我的婚姻[大笑]克洛普忠贞不渝啊，哈哈 那就1.5+7500 世界体育报，一天一官宣 知道啥叫分期么，这和各种冠军绑定的，比如欧冠，实际上可能拿不了那么多 德克勒，格策，或者阿根廷巴西找几个小妖都不针错 2楼到底是来搞笑的还是来黑我罗的？？ 保利尼奥帮忙看房呢～[大笑] 边后卫够了啊，塞梅多和阿尔巴可以的。就差个中卫 库鸟，梅西，苏牙，登贝莱，都得首发吧，再加四个后卫，中场就俩人。。。。 明天小编:皇马次日报价1.8亿。 要前腰干什么呢?顶替梅西吗？<br>要后卫和边后卫。。。。 你这条屎🐶今天发帖应该能赚到五块钱，加油，水🐶！ 克洛普这回答亮了，哈哈哈哈哈哈 这么狠的奶自己，受得住吗？ 哈哈 我是说利物浦不鸟巴宝，你误会了 给利物浦压力？人家直接无视你巴菜！ 妈的，C罗有单兵能力？谁敢一个人防守梅西，看看，博尔腾马塞洛拉莫斯，都是被过成笑话，C罗的快乐足球还是算了吧 那就2亿现金呀。学学巴黎。直接给现金。没本事就算。 小白老了需要一个有带球突进能力的球员帮梅西分担压力。边后卫还好些，但中卫确实急需补强。到现在依然认为买登贝莱而且是那么高的价格买巴萨挺傻逼的。当时如果巴萨报价马夏尔估计7000万曼联就会放人，那会儿马夏尔在鸟的计划中并不重要，只是赛季开始后马夏尔表现越来越好才站稳脚跟。 哈哈全面能力比不过开始比单兵作战？比单兵c罗也悬，布教授站桩助攻梅老板独闯龙潭 难道以前他们是同一档次球员？？？ 上位成功，不专搞老乡，那搞啥[窃笑][窃笑] 套球衣了？ 全面不应该是指左脚射门、右脚射门、头球、大力抽射和触电式单车吗？[狗] 我罗射门最多！ 你确定7000万曼联会放马夏尔？？你忘了当时巴萨手握2.2亿现金？谁不想宰巴萨，马夏尔起码再翻一番 从12年开始？巴萨不是八年豪门吗？现在变成五年了？？ 凯塔你们忘记了？ 那会后卫是谁，中场是谁。那会住控制，现在主攻击。不行的老哥。msn不是主攻吗。 什么叫有可能，夏天1.5亿不卖，现在卖1.2亿。脑子残疾。并且本赛季踢的还是很好的。2个亿要就要，不要就别叽歪。 厕所报能让傻迷高潮无数次 面对冰冷的事实，作为皇马球迷的我也不得不承认，C罗和库蒂尼奥已经不是一个档次的球员了 渣叔：我不是土豪，只是最近发了笔小财才有钱买范迪克 我觉得这货，到底行不行哦？ 黄🐶需要我们舔舔担架吗 哼！隔壁可是历史最佳~ 酷鸟：好男不当兵，说啥也得转业😂 笑死了陕北乡巴佬说西班牙穷？ 买那个才7500万英镑，这个卖起码1.2亿起，有可能1.5亿。 自从卖了内马尔，巴萨天天当冤大头 除了罗迷不吹外 你就是一坨屎 懂不懂球，买库鸟是接小白的班。 想要用现金砸啊 兄弟，你说再多，黄狗都会选择性无视的 西班牙人也配称为巴萨死敌？皇马都不配好嘛？ 巴萨主管又准备吃回扣啦？（登贝莱2016年1500万到一亿五）场上表现是个水货（3场1助攻）球队表现不佳，暴力鸟上了后攻守平衡了~<br>去和皇马抢阿扎尔，凯恩啊巴萨傻逼主管会吃回扣啦？要就引进丁丁，阿扎尔和凯恩顶尖的，酷鸟不如萨拉赫管用~（真心不觉得酷鸟能和前辈苏牙比）很难找内马尔加班人的~不要吃回扣了~1500万先生上场又是巴萨丢分开始~ 梅西就因为缺前腰才去补的啊不然就小白巴萨中场根本玩不转库鸟来了可以解放梅西回归射手本色 所以提前买范迪克，不然被老乡惦记着钱袋子 从12年到目前为止，梅西是进球最多的球员，助攻最多的球员，关键传球最多的球员，过人最多的球员，并且是MVP次数最多的球员，这样的球员竟然被说不够C罗全面，真正的全能是集射术、传球、大局观、视野、组织、突破分球、盘带过人、任意球、直塞等等方面这才叫全能，而当今足坛集这些特点于一身的球员只有一个，那就是梅西 把麦克的牙还原我就承认 自从挤进中路，远射也没有了.....就剩吃饼 西甲穷鬼，买个人条款那么多，不想好好说事情 买范迪克的钱，得从巴萨身上要回来。 有还是走得，差不多得了，卖人套现补强吧 傻逼媒体，放掉前场买个后卫，套路不对。场上踢球正常也是对位换人。除非要改风格，但渣叔还是主教练啊。 后你妈<br>有塞梅多阿儿巴，居然还在嚷嚷边后卫，你懂？？？？？？？？？？？ 乌姆蒂蒂去利物浦拼欧冠资格吗？ 替换小白 除非工资飞涨，弟弟去争四？？？？？？？？？ 梦三不也是这样的吗？<br>从比利亚佩刀梅西到小白哈维。。。那个有防守能力<br>以功代守罢了 那是英镑，巴萨不可能为了库蒂尼奥付出1.2亿英镑 c罗单兵作战确实最强最全面，精通多种运动，梅西的全面性确实比不过C罗 库鸟单是踢前腰吗？库鸟可踢左边锋和左前卫 放心，巴萨买不起 网易刚不是还说没戏，吗逼的当易友是傻子吗 咋不从我嫖尼玛那天算起，那样我还是日你马最多的人，算不算你爹？ 吧撒大年三十0点整全队暴毙包括那个矮子西和从广州去的那个撒比一块暴毙，肯定灵验的，他们这么坏，一定早报应的。 库鸟，梅西，苏牙，登贝莱，都得首发吧，再加四个后卫，中场就俩人。。。。 说真的，不是看不起马桶，就算报足以打动巴萨的价，也难打动乌母弟弟的心 要前腰干什么呢?顶替梅西吗？<br>要后卫和边后卫。。。。 YY去吧 世界体育报，拉屎真需要。 夏窗我还相信点。。冬窗？呵呵呵 你为什么一定要扯上C罗？他是有很多成就和荣誉。可是真的不配和梅西比，梅西是真正的王，还是公认的。 按照惯例，要想去巴萨，先得强行吹煤老板一波😂 442梅西前锋 明天离给你看 金球奖到底是颁给团队的还是颁给个人的。既然是个人的，那就要看个人能力。谁个人能力最强就颁给谁。单兵作战能力你家梅西有C罗强吗？ 中国人也看球？<br>梦三除了有蛤维调控节奏以外，更有小白前腰穿插，或传或射。为梅西撕开空档<br>库鸟与小白风格基本一致咯，这也是为什么巴萨一根筋的死缠马桶的原因 多余的钱再花5000万激活乌姆蒂蒂的违约金 第一弟弟基本不会答应，第二红军也出不起薪水，现在的薪资估计已经打破，大批队内人员需要加薪。不过冬转挖库鸟也没好处，又不能打欧冠，唯一的可能性就是怕夏天继续涨价。 才7500？那可是后卫阿已经是屎上最贵后卫了 也算是中场吧，顶小白的位置 见好就收吧 你傻啊，这是买来顶替小白的 赞👍 发型、姿势、射门数甩几条街呢 世界体育报……我只看官宣 酷鸟：好男不当兵，说啥也得转业😂 打不了欧冠何必呢夏窗买 买那个才7500万英镑，这个卖起码1.2亿起，有可能1.5亿。 教练这句回答真棒！ 阿斯报也差不多 别说7.5亿，连2亿都不舍得。巴萨花巨额买球星是不如皇马 哈哈哈，没出息小球会的吃相 去你妈的世界体育 世界体育报比洋葱还假。 克洛普专情啊 小裤子，范将军都来投奔我军了，大不了再去招一个门将，你看如何？ 梅西牛逼，梅吹2逼 都是村头公厕纸 走吧走吧，在利物浦也拿不到什么荣誉 范7500，裤应值7.5亿 从12年到目前为止，梅西是进球最多的球员，助攻最多的球员，关键传球最多的球员，过人最多的球员，并且是MVP次数最多的球员，这样的球员竟然被说不够C罗全面，真正的全能是集射术、传球、大局观、视野、组织、突破分球、盘带过人、任意球、直塞等等方面这才叫全能，而当今足坛集这些特点于一身的球员只有一个，那就是梅西 世界体育报跟瞎编没多大区别 你个傻逼玩玩还皇马球迷？别玷污美凌格了 笑的手机都丢了，C罗单兵能力。。。除了远射还有其它方式？ 不在诺坎普颠球我不信[微笑] 怪不得能7500万磅买范迪克呢 参考苏牙，小马哥 老外回答问题很风趣呀[大笑] 2楼为C罗招黑，专戳C罗疼点。 这树我不上，冬天太冷 网易俱乐部马上就买 国米能收到钱不？ 稳，， 除了我的婚姻[大笑]克洛普忠贞不渝啊，哈哈 面对冰冷的事实，作为皇马球迷的我也不得不承认，C罗和库蒂尼奥已经不是一个档次的球员了 除了头球，我不认为梅西有任何弱于C罗的地方 留下可能会是红军下一个传奇，离开绝对会是巴萨的无名过客。慎重啊库鸟！ 借了7500W大耳窿买人，不卖人这笔数难还啊。 库蒂尼奥打开网易APP后，找出了行李箱开始收拾东西了…… 要前腰干什么呢?顶替梅西吗？<br>要后卫和边后卫。。。。 上一篇新闻：利物浦要价2亿不分期，巴萨放弃；这篇：巴萨出价1.5亿，利物浦接受，库蒂尼奥找房。exm？？？ 先不说你这条发了多少了，这是说库鸟的你怎么也过来发？ 哈哈哈，这flag立的…… 其实梅西就会踢个足球而已，有什么了不起的，你们整天吹吹吹的，有什么好吹的？c罗才是真正的天才，天赋一饼。啊不对，是天赋异禀，人家，肌肉发达，力量十足，天生就会跳水，你梅西会吗？人家刚正不阿，举报队友越位，梅西不会吧？人家有拳王好基友教授武功，绿荫场上显身手，梅西能打得过吗？人家会哭鼻子要点球，天生会哭的孩子有奶吃，梅西你哭一个看看？人家天生的浪，号称天下第一第二第三，呃，浪射之王，梅西你浪一个试试，也只能往球网里踢了。o型嘴儿，o型腿儿，o型的屁嘴儿献拳王。任凭你梅西埋头把球踢，我骡昂首显风姿 你可真是个傻逼 7500万英镑是多少欧元 世界体育报和厕纸的区别就在于，厕纸擦屁股还能干净点 这时候都不忘表忠心，渣叔LD很满意 买范迪克的钱，得从巴萨身上要回来。 金球奖到底是颁给团队的还是颁给个人的。既然是个人的，那就要看个人能力。谁个人能力最强就颁给谁。单兵作战能力你家梅西有C罗强吗？ 这些小报都是给俱乐部当前锋的。。第一价格不说就很难。。利物浦起码要2亿。。而且是实实在在的2亿。。不要想着浮动条款的。。巴萨带不走的。。巴萨没有皇马的豪气。 范迪克这钱有人出了 反着说？ 克洛普什么时候暗示了。。哈哈。。花大钱买中后卫。。很明显是为了下个赛季争冠。不会主动放走裤子的。。要走就是2亿现金。。巴萨又出不起。。巴萨不是巴黎。。现在的足球讲的是现金。。巴萨没钱。梅西那么大包袱。。巴萨要完蛋。 其实梅西就会踢个足球而已，有什么了不起的，你们整天吹吹吹的，有什么好吹的？c罗才是真正的天才，天赋一饼。啊不对，是天赋异禀，人家，肌肉发达，力量十足，天生就会跳水，你梅西会吗？人家刚正不阿，举报队友越位，梅西不会吧？人家有拳王好基友教授武功，绿荫场上显身手，梅西能打得过吗？人家会哭鼻子要点球，天生会哭的孩子有奶吃，梅西你哭一个看看？人家天生的浪，号称天下第一第二第三，呃，浪射之王，梅西你浪一个试试，也只能往球网里踢了。o型嘴儿，o型腿儿，o型的屁嘴儿迎拳王。任凭你梅西埋头把球踢，我骡昂首显风姿 ",
        "Link": "http://comment.sports.163.com/sports2_bbs/D6T5D2PT00058781.html",
        "Total": 2092,
        "Reply": 218
    },
    "Source": "Netease",
    "Title": "稳了!库蒂尼奥已在巴塞罗那找房 克洛普暗示转会_网易体育",
    "KeyWords": "库蒂尼奥,巴塞罗那,克洛普"
}