{
    "Article": "网易娱乐1月2日报道日前，贝克汉姆一家人度假，“贝嫂”维多利亚在社交网站上晒出一段小七被爸爸抱在怀中开车的视频，并配文：“某人超爱她爸爸。（Someonelovesherdaddy！）”坐在小贝膝盖上的小七，手把方向盘，开心到笑开花。小贝低头一吻太宠溺了，慈父力爆棚！本文来源：网易娱乐责任编辑：陈恺_NK4686",
    "Title": "老司机带小司机！贝嫂晒小七开车视频_网易娱乐",
    "PublishTime": "01/02/201811:10:46",
    "Source": "Netease",
    "Comment": {
        "Content": "交警叔叔正在赶来的路上 投胎小能手 交警叔叔正在赶来的路上 这要换成在中国得喷的生活不能自理吧[狗] 投胎小能手 这教的好 那车好像景区那种 在中国就办你了这样 没人么,老司机带你们开车 老司机在哪,来带带我 父亲对女儿的爱 小七的婴儿肥有点重了啊 ",
        "Reply": 10,
        "Link": "http://comment.ent.163.com/ent2_bbs/D751VHGQ00038FO9.html",
        "Total": 44
    },
    "KeyWords": "小七,贝嫂,老司机,小贝",
    "URL": "http://ent.163.com/18/0102/11/D751VHGQ00038FO9.html"
}