{
    "Source": "Netease",
    "KeyWords": "犯罪,陪审员,立法",
    "URL": "http://news.163.com/17/1224/08/D6DJ06640001899N.html",
    "PublishTime": "12/24/201708:26:26",
    "Comment": {
        "Content": "有进步 坚决支持公正公办，严惩不正之风 健全法治，真的迫在眉睫。 支持 希望中国的法律越来越完善 有进步 应该的 坚决支持公正公办，严惩不正之风 支持 有进步 健全法治，真的迫在眉睫。 ",
        "Total": 102,
        "Link": "http://comment.news.163.com/news2_bbs/D6DJ06640001899N.html",
        "Reply": 8
    },
    "Article": "（原标题：我国立法拟明确人民陪审员惩戒机制）新华社北京12月23日电此间正在举行的十二届全国人大常委会第三十一次会议审议的人民陪审员法草案，规定了人民陪审员的退出和惩戒机制，明确人民陪审员在陪审活动中徇私舞弊将在辖区范围内被公开通报。草案规定，人民陪审员有如下情形，经所在基层人民法院会同同级司法行政机关查证属实的，应当由基层人民法院院长提请同级人民代表大会常委会免除其人民陪审员职务：本人申请辞去职务的；无正当理由拒绝参加审判活动，影响审判工作正常进行的；因犯罪受刑事处罚、被开除公职的；徇私舞弊，造成错误裁判或者其他严重后果的。草案明确，人民陪审员无正当理由拒绝参加审判活动，或徇私舞弊造成错误裁判或其他严重后果的，可以采取通知所在单位、户籍所在地或者经常居住地的基层组织，在辖区范围内公开通报等措施进行惩戒；构成犯罪的，依法追究刑事责任。本文来源：新华网作者：王琦熊丰责任编辑：李杭_BJS4645",
    "Title": "中国立法拟明确人民陪审员惩戒机制_网易新闻"
}