{
    "Article": "（原标题：印媒宣称解放军携挖掘机进藏南修路印官方忙否认）中印边界军人（印媒资料图）海外网1月3日电印媒称，在洞朗对峙结束4个月之后，中国士兵12月底携修路设备进入藏南地区（印方所谓“阿鲁那恰尔邦”）200米，印度士兵进行了阻拦。而当地官员否认此事，印度军方也不予回应。《印度斯坦时报》3日报道称，上述情况由当地居民表述，印度安全机构相关人士予以了证实。报道还称，中方在冬天进行这一举动“非常罕见”。印度安全机构人士称，中印双方士兵这次没有发生“面对面”的对峙情况，而“中方把修路设备留在了现场”。该不具名人士还称，“中方在该地区的修路活动最近有所增加。”报道称，事情发生在1周至10天之前。当地居民表示，印军人士在祥河东岸比兴（Bising）村庄附近拦下中国士兵，并“没收”修路设备，包括两台挖掘机。虽然印媒热衷于炒作“中国威胁”，却被印度官方果断打脸。据报道，对于此事，当地官员表示“没有接到任何关于中方‘入侵’的报告，军方也没有任何表示。”对于该事件的多种版本说法，印度陆军发言人也没有回应。印军东北军区官员则称，“对于该事件的任何否认或确认，都由军队总部负责。”实际上，印度媒体的报道时常“不靠谱”，细节有误、惨遭本国“打脸”的事件时有发生，有时甚至和官方打起嘴仗。此前，10月5日，有印度媒体报道称中国在洞朗地区扩建公路。次日，印度外交部对此否认：“目前这一地区形势维持现状，任何与此相反的报道都是不准确的。”随后，最早报道这一消息的印度媒体记者维什努·索姆个人推特页面上很快有印度网民来指责他“骗了大家一整天”。他承认报道中提到的中方修路工作确实不是在洞朗对峙地点附近，而是距离对峙地点稍有距离。随后他又发推文称：“我不关心我的报道引起的政治反映！这不是一则政治报道。政客们爱干嘛就干嘛。”关于洞朗地区道路建设问题，中国外交部此前曾回应表示，为了守边需要和改善当地军民生产生活条件，中方长期以来在洞朗地区进行包括道路在内的基础设施建设。我们将综合考虑天气等各方面因素，根据实际情况做好有关建设规划。此外，关于所谓“阿鲁纳恰尔邦”问题，中国外交部曾多次强调，中方从不承认所谓的“阿鲁纳恰尔邦”。中方在中印边界问题上的立场是一贯和明确的。当前，中印双方正在通过谈判协商解决两国边界问题，寻求公平合理和双方都能接受的解决方案。在边界问题解决之前，双方应共同维护边境地区的和平与安宁。本文来源：海外网作者：姜舒译责任编辑：李杭_BJS4645",
    "URL": "http://news.163.com/18/0103/15/D784421J0001899N.html",
    "KeyWords": "印媒,印度,修路",
    "PublishTime": "01/03/201815:45:54",
    "Title": "印媒称解放军携挖掘机进藏南修路 印官方忙否认_网易新闻",
    "Comment": {
        "Content": "打死阿三 藏南是我国固有领土，在我国领土上修路与你阿三何干！ 一定要修到印度洋！ 打死阿三 藏南是我国固有领土，在我国领土上修路与你阿三何干！ 一定要修到印度洋！ ",
        "Link": "http://comment.news.163.com/news2_bbs/D784421J0001899N.html",
        "Total": 357,
        "Reply": 3
    },
    "Source": "Netease"
}