{
    "Comment": {
        "Total": 279,
        "Reply": 9,
        "Link": "http://comment.news.163.com/news2_bbs/D75RA09K0001899N.html",
        "Content": "加入示威人群 也可以学习研讨 咋的了都。 视频看了。 122 千万不要去伊朗了 信息量好大😁 波斯也是110 加强安全防范，远离示威人群 加入示威人群 也可以学习研讨 咋的了都。 视频看了。 122 千万不要去伊朗了 信息量好大😁 波斯也是110 加强安全防范，远离示威人群 "
    },
    "Title": "中国驻伊朗大使馆提醒在伊中国公民:远离示威人群_网易新闻",
    "KeyWords": "伊朗,大使馆,中国",
    "Article": "（原标题：中国驻伊朗大使馆提醒在伊中国公民：提高警惕，远离示威人群）中国驻伊朗大使馆安全提示（本提示有效期至2018年2月2日）近期，伊朗多地发生游行示威活动，并造成人员伤亡。中国驻伊朗大使馆提醒在伊中国公民密切关注当地局势，提高警惕，加强安全防范，远离示威人群，避免前往人群密集场所。如遇紧急情况，请及时报警并联系中国驻伊朗大使馆。伊朗报警电话：110、急救电话：115中国驻伊朗大使馆领事保护与协助电话：0098-9122176035外交部全球领事保护与服务应急呼叫中心电话：0086-10-12308或0086-10-59913991本文来源：中国驻伊朗大使馆责任编辑：黄哲程_B9302",
    "URL": "http://news.163.com/18/0102/18/D75RA09K0001899N.html",
    "PublishTime": "01/02/201818:33:23",
    "Source": "Netease"
}