{
    "Article": "（原标题：湖南新化“12?22”枪杀案嫌犯陈建湘归案46小时缉凶前后）日前，发生在湖南新化的“12·22”枪杀案震惊全国。46小时后，嫌犯陈建湘被擒获。身为人民警察的陈建湘为何残忍地枪杀无辜者？本社记者试图从陈的过往中寻找答案。“陈建湘被抓到了！”12月24日下午5时11分，民主与法制社记者收到从新化发来的一段10秒视频证实了该消息。陈建湘，湖南省新化县公安局警察，12月22日他枪杀两人后潜逃。从案发到陈建湘被擒获，时间仅过去46个小时。这46小时中，公安部、湖南省委、省政府主要领导高度重视，曾分别作出重要批示。湖南省委常委、政法委书记黄关春，湖南省政府党组成员、公安厅长许显辉等分别在湖南省公安厅指挥中心和新化抓捕一线坐镇指挥。身为警察的陈建湘为何杀人？枪从何来？本社记者试图从陈的过往中寻找答案。生日前夜的“疯狂”2017年12月22日下午7时许，湖南新化县城西部4公里左右的原某后勤部队“705基地”附近，一台公安民用车“砰”的一声撞上了一辆大货车。驾驶员猛然打开车门冲了出去，没命地狂奔。一名持枪者从副驾驶位下车疯狂追赶驾驶员，随即，三声枪响刺破了山村的宁静。驾驶员侥幸逃脱，凶手在夜幕掩护下落荒而逃。现场留下的小车中，人们发现了一具男性尸体，身上有枪伤，后经证实，死者为下岗职工段某某。行凶者就是湖南省新化县公安局警察陈建湘。据线源向民主与法制社记者介绍，12月22日上午9时许，陈建湘从新化县公安局一曾姓警官处借走一把值班用的手枪。10点左右，便挟持一位曾经当过协警的熟人给他开车，先是将该县教育局职工邹某（30多岁）约到车上，将其枪杀。据坊间传闻，邹与陈的“梁子”结于10年前。彼时，穿着警察制服的陈建湘在新化县城南门湾处理一起交通事故，交通事故人邹某没给他“面子”。枪杀邹某后，陈建湘继续挟持司机，把邹某的尸体运送至曹家镇百兴村与桑梓镇集星村交界处，要求司机下车拖尸。司机一边拖一边警惕地看着陈，担心陈对自己下手。后来，司机将尸体拖至离公路边仅约20米的小树林里，找了点树枝树叶草草将其掩盖。完成抛尸后，陈建湘用电话联系他的第二个目标，该男子因不在新化，幸免于难。然后，陈联系上了下岗职工段某某（58岁），说有案子要协助调查，段上车后又被射杀。而后，陈建湘挟持司机载着尸体前往第一个抛尸点抛尸，因司机对当地地形不熟悉，辗转几次没有找到而作罢。然后，他要求司机把车开往西河方向，去寻找下一个目标。据知情人介绍，当陈建湘挟持的车辆来到新化县“705”基地地段附近时，司机看到路边停有一台大货车，毫不犹豫地撞了上去……于是出现了本文开头的那一幕。这一天，距离陈建湘46岁生日（12月23日）一步之遥。也许是巧合，在长达46小时的逃亡之后，陈建湘被警方擒获。46小时抓捕12月24日下午5时许，湖南新化县科头乡三板桥村一个小山包打破了千百年的沉寂，突然被舆论瞩目。随着手机短视频的传播，持枪杀害2人的陈建湘被数十名特警和十数条警犬团团围住。满脸血污的他趴在石头上抱头，就擒。现场缴获77式手枪一支、弹夹两个，其中一个有7发子弹，一个剩一发子弹。抓捕行动无人员伤亡。46小时，湖南新化“12·22”枪杀案告破。“其脸上的血污和伤口是其逃亡路上形成的，不排除进行过自残自伤。”前方警察如是分析，从22日中午开始逃亡，陈建湘其实也已极度疲惫。上述线源告诉民主与法制社记者，24日下午三点多钟，科头乡三板桥村一女村民到地里拔萝卜时，发现山上有陌生人在一个废弃的地窖里烤红薯，随后报警。指挥部迅即调集数百警力实施抓捕行动。除了警方，当地广大群众也自发加入到缉捕嫌犯的行动中。陈建湘也自料插翅难逃，当发现民警铁桶般将其包围、喊话后，陈建湘并未做任何形式的顽抗。其按照围捕民警的指令，束手就擒。陈建湘身上除了警官证，还有一台苹果手机。随后，多段抓捕现场视频通过移动互联网传播至全国——显然这是抓捕现场警察所拍摄。从22日下午7时许案发到陈建湘被擒获，这46个小时中，公安部、湖南省委、省政府主要领导高度重视，曾分别作出重要批示。湖南省委常委、政法委书记黄关春，湖南省政府党组成员、公安厅长许显辉等分别在湖南省公安厅指挥中心和新化抓捕一线坐镇指挥。专案指挥部还从长沙、衡阳、邵阳、怀化益阳等地抽调精干特警和新化本地社会力量2000余人参与搜捕。与此同时，湖南省、娄底市、新化县三级公安机关迅速启动重大案件侦办机制，警方还向社会发布悬赏通缉公告，向广大群众征集举报嫌疑人线索，举报线索协助抓获嫌疑人的给予5万元奖励，直接抓获嫌疑人的给予10万元奖励。此前一天（12月23日）下午5点40分，被陈建湘枪杀的第一个受害人邹某的尸体在新化县曹家镇百兴村与桑梓镇集星村交界的杂草中找到。本社记者了解到，24日下午，陈建湘被抓获后，第一时间就被送往新化县人民医院抢救。知情人介绍，陈的右眼部穿透伤，眼球全爆，头部大面积脑水肿，颅底及颅顶因震挫裂，对侧颅骨及上颌骨全碎。因伤情严重，当晚，陈建湘被紧急转往长沙湘雅医院脑外科治疗。记者从接近湘雅医院权威脑外科专家处获悉，陈建湘暂无生命危险。原来，陈建湘在被捕前，对着自己的右太阳穴开了一枪，子弹从右眼爆出，这也是被抓获时右眼紧闭的原因。专家分析，陈应该是在12月23日白天或24日上午开枪自杀的，曾经昏迷过几个小时。被抓捕时他说手枪在自己的右边口袋里，但实际上枪在20多米外的草丛中，说明他的记忆因脑部受伤而出现问题。往事如烟陈建湘究竟是怎样的一个人？本社记者独家掌握到的一些信息，或许能看出其走向末路的端倪。新化县西河镇天马山下的陈家山，这里就是著名的“黄阳山”（民间俗称“王爷山”），民风淳朴，乡民有崇文尚武的传统，是梅山武功的主要发源地。陈建湘出生于这里的横阳村。受环境熏陶，陈也自幼习武，颇有蛮力，同龄人中打架时他总是胜利者。据陈建湘的高中同学介绍，他于1986年初中毕业后考入附近的新化二中，高一在105班，高二时被分配在文科重点班104班。他的同桌回忆，印象中，陈建湘非常讲义气，个子不高，但是不怕事，不怕打架，即便是社会上的“烂豆子”（当地对地痞流氓的称呼）也要让他三分。但1988年暑假结束后，陈建湘忽然转学去了县城的新化三中。多年以后，有同学才破解了陈建湘转学之谜：原来，当时新化二中所在地一个“烂豆子”团伙将二中学生L发展为团伙成员。L入伙之后非常害怕，要求退出，但“头儿”不允许，并威胁如果退出的话必须介绍一个人进来。于是L便把同学陈建湘介绍进去了。陈建湘跟着“烂豆子”团伙搞了几次行动后，非常害怕，在作文中多次写到“我彻底完了”。细心的语文老师马上找他谈话，他说了实情。老师立即将情况报告了学校，并通报了家长。于是，高三那年，陈建湘父母就找关系把他转往新化三中了。1989年的高考，陈建湘名落孙山。他在补习学校复读3年之后，终于考上了湖南省司法学校。据知情人介绍，陈建湘从湖南省司法学校毕业后，便回到家乡公安机关工作。先后在新化县公安局游家派出所、上梅派出所刑侦中队工作过，后来调进了县公安局。“陈建湘是公认的头脑比较聪明，但性格偏执，脾气暴躁的角色。”陈建湘多年前的同事介绍，他生性好赌，打牌不分昼夜，只要他没打过瘾，别人赢了不准走，输了也不准走。如果他向你借钱，你不能拒绝，也不能追讨。当然，他一有钱就会主动还你，“了解到陈建湘这些特点的同事，一般都不会跟他（陈建湘）玩。”据陈建湘的一位同学介绍，十年前陈曾因颅内高压和抑郁症，先后在湘雅二医院和湖南省脑科医院治疗。据知名自媒体人“御史在途”调查得知，陈建湘在脑科医院治病时，因与陪护的妻子发生口角，跑出医院，走上车流滚滚的大街，旁若无人，后面的车辆排成长龙，喇叭声此起彼伏。后来他在马路中间拦住一辆的士要上车，司机不同意，他打开车门按住司机就打……此后，陈建湘长年靠药物控制自己的情绪。据他身边的人介绍，医生曾警告过他，他之所以得抑郁症，与其工作环境和长期熬夜、没有规律的生活有关。尽管他“聪明”，但却不免在牌桌上被人“杀猪”（当地对作假出老千的说法），在输了不少钱后，他曾扬言一定要“血债血偿”。未经证实的消息指证，此次被其列为“枪杀”的对象，不排除与此有关。陈建湘曾经的朋友告诉记者，陈建湘个性比较张扬，说话口气非常大，这点确实不招人喜欢。在同事眼里，陈建湘虽很讲义气，但不太好打交道。他在某派出所工作时，所里曾经发生集体私分滥发的违纪行为，其他同事都退还了违纪所得，但陈建湘拒不退还，并扬言“要看我手中的枪答不答应”。此后事情不了了之。“情怀满满”的朋友圈陈建湘在患脑溢血之后，却并没有在牌桌上收敛多少。其他出格的事也没少做。比如，在前不久举行的一次高中同学聚会上，他居然带着一个20多岁的女孩出席，令在场同学非常惊讶。另外，有熟悉陈建湘的人则认为他“重情义，有文采，有情怀”。本社记者从陈建湘的微信朋友圈里也读到了一些充满情怀和文采的文字。比如，他在2015年9月2日的一条朋友圈这样写道：“今日回到阔别多年的位于张公岭的母校，深感此处是我记忆深处珍藏青春最美最亲最让人眷顾的地方，特别是忆起205室友和在校外食宿的新化老乡那张张稚嫩笑颜，在母校这块芳草地上尽情漫步，留下的串串爽朗笑语，如同风铃在和风轻抚下留下的回音飘响在耳际，犹忘不了农科院留下的偷蔬菜倩（贼）影。”这段文字应该是陈建湘当天回到湖南省司法学校校园里的一番感受。再如，2015年10月14日，陈建湘在转发一条《一曲思乡乐，道出浓浓故乡情》的微信文章后表达了对儿时旧友的追念：“在小城混日子久了，家乡虽仅30里遥，总觉月是家乡明，人是家乡亲，儿提时的好友曾记否？小溪捉鱼虾，月明星稀的田野里堆草人捉迷藏嬉戏，装鬼吓哭邻居家小倩女、村塘戏水打水仗都不言输情景，更有偷摘水果，深夜结伴偷捉田鱼不敢拿回用柴火煨吃的惬意……家乡景也别致，人也醉人：小雨纤纤风细细，万家杨柳青烟里。恋树湿花飞不起。唯有如今愁无际，和春付与东流水。八十光阴尚余几？金龟解尽留无计。寄语村东沽酒坊，留一醉，届时乐事当年泪。”2015年12月13日，陈建湘又在朋友圈里这样“梳理自己的情绪”：“当热闹趋于平淡，暗夜来袭曲终人散时，刚还兴致盎然的我，似一下被无边的黑暗吞噬，这样的迷失记不起缘于何时，湘哥审视一下内心似有惊悟：过久浸淫于虚无，有时会失去对生活敏感的知觉，是否该静待花开取悦自己？我虽已老，但时光不会遗弃乐观豁达，即使偶有挣扎、焦虑也该接受它的造访，而非掩盖伪装。高情致远，善待自己。——致朋友和陌生人。”在2016年3月19日的朋友圈，不难读出他曾经的心志，这也是陈建湘的微信好友能够查看到的最后一条朋友圈信息：“壮志凌云数载求学纵苦三伏三九无悔无怨，众志成城一朝成就再忆全心全力有苦有乐，遥想湘哥当年，转战一二三八（指新化县第一、二、三、八中学），几经锤炼，终是皇天不负，虽入末流，对无所长的我已是厚恩，只叹两鬓已成丝，终究无所成。”至少4名熟悉陈建湘的新、老同事告诉民主与法制社记者：“他就是这样一个矛盾体，令人捉摸不透，难以理解。”违规借枪警察被拘捕民主与法制社记者了解到，据被陈建湘挟持的协警反映，陈在车上跟他说列入其枪杀计划的有20多人。另据有接近警方的人士说，陈建湘为这场复仇应该至少准备了一年，可能他在利用打靶训练的机会偷偷存储子弹。但陈建湘另一名同事向“御史在途”反映，陈建湘长期服药，身体乏力，很少参加射击训练，存储子弹一说没有依据。嫌凶已经抓获，随着警方审讯的深入和工作的进展，陈建湘的杀人动机也会逐渐浮出水面。有观察人士分析，舆论普遍关注的新化县公安局队伍建设及枪支管理存在的问题也必定会有人担责。用当地一位领导的话说，“他（陈建湘）害了无数的人。”他的一位同事在接受“御史在途”采访时说：“新化县公安局正处在革新图强的关键时刻，形象全被他毁了。”此前，违规借枪给陈建湘的警察已被拘捕。目前，陈建湘正在湘雅医院接受治疗。其家人也委托了律师，维护其合法权益。然而，陈建湘给受害者家属带来的精神伤害，给社会造成的负面影响不可估量。陈建湘也必将为自己的行为付出应有的代价。湖南新化警察持枪杀人致2人死亡死者身份公布湖南日报12月23日讯12月22日，新化县发生一起涉枪案件。犯罪嫌疑人陈建湘，男，46岁，新化县公安局民警，持枪致2人死亡。案发后，省市县三级公安机关迅速启动重大案件侦办机制，案件侦办、稳控处置正在有序进行。本文来源：民主与法制时报责任编辑：赵亚萍_NN9005",
    "URL": "http://news.163.com/17/1230/00/D6S7GJJF0001875P.html",
    "Source": "Netease",
    "KeyWords": "抑郁症,杀人,枪杀,警察",
    "Comment": {
        "Reply": 144,
        "Link": "http://comment.news.163.com/news_shehui7_bbs/D6S7GJJF0001875P.html",
        "Total": 9044,
        "Content": "警察因为没给面子杀人？？？<br>偶买噶，小学生都不会这样吧？ 曾患抑郁症，是不是南京法官鉴定出来的？ 近距离对着太阳穴开了一枪都没死？好强的火力。这还是警用手枪吗？仿真枪表示不服。 又是抑郁症，我差点信了。。。 史记、陈氏建湘传<br>-心存阳光<br>陈氏建湘，湘中人，幼贫窭，尝无隔宿之粮。然好学，性聪颖，科场得志，入湘府刑律学堂，苦功律法，师甚佳许。建湘为人，玉树之姿，识之者曰：“不意田舍之家，育此璧人。”又好以功业自许，以为天下不足其驰骋也。当时湘中群生，幼儿女云云。人日三杰，县党魁，县捕头，县国安建湘…<br>然有泼皮挑衅建湘，以伎俩黑君于赌坛，再者公门大佬欺压之…湘不服，厚积薄发，于西元十二月二十二日，携火器以杀泼皮。欲再诛若干屑小之徒。奈何出师不利，壮志未酬，遭众捕快缉捕之，遂潜伏民间，未知所踪也…<br>鸣呼，建湘出师未捷，归野山林也。<br>民日，侠之大者！鸣呼，于西元十二月二十四日于三板桥山林中遭众捕快携警犬而捕之，壮志未酬而身先卒。 我操太阳穴射入右眼爆出还没死，手枪威力这么小吗？ 比小说都精彩 你们信不信，反正我不信 还有多少赌徒在当警察？ 槽点太多，我都懒得喷了<br>你们随意 最终结果：抑郁症加急性精神障碍！最多死缓或者无期。各位都散了吧！ 这么一个抑郁症还有警察同事借枪给他…… 你既然知道美国是搅屎棍，那么你说说美国搅得屎是随，你是屎自己都承认了，可见你们这些人的智商。刚刚吃饱饭的国家，竟然挑逗邻居，和上次一样，替苏俄打头阵，必然和上次一样，头破血流。即便加上苏俄，也不是对手。 长期患抑郁症的警察为什么不换岗？为什么还让他持枪？这才是值得深思的！ 自杀抑郁症，杀别人还是抑郁症，看来要高度重视抑郁症的防治工作了 就是因为是这种人才能当这么多年！ 他在某派出所工作时，所里曾经发生集体私分滥发的违纪行为 编故事 弱弱问一句：谁把这样的畜牲塞进警察队伍的？ 10年前处理交通事故，是交警，邹不给面子。可能是邹动用关系，干扰事故认定结果，甚至训斥辱骂陈。那只知10年后.... 我承认赌博害人，但是这人杀人不是因为赌博 忧郁症？哦，知道啦。 你们作为曾经的伙计、手足，为什么要打他？ 人才 都要退休了还这么冲动，前半辈子当警察啥没见过？哈哈，我信了。 前两天不是说有小矛盾口角后杀人吗？天啊！ 一杀人就说有各种病，不杀人的时候就没事，什么几把逻辑啊！难道战争杀人的时候也是有病的人？ 陈的右眼部穿透伤，眼球全爆，头部大面积脑水肿，颅底及颅顶因震挫裂，对侧颅骨及上颌骨全碎<br><br>这都没死？还提前开枪自杀，昏迷了几小时，还能烤红薯。卧槽，真能编啊！！👍🏻👍🏻👍🏻 看到抑郁症就懂了。 这些不都是之前网友说的谣言么 我认为警察不会賭，看来也是赌博所造成的，认下的全假了。 赌博害死人呀 究竟还多少警察带病坚持工作？抑郁症！ 这就是社会的病态 呵呵呵 必有难言之隐 一早就有这种恶习还留着过年，结果出事了 借枪给他的同事估计死的心都有了！ 作为曾经的新化人，见识了当地公安的太多贪腐路数，我一朋友在浙江监狱服刑，表现不错提前释放，要老家派出所出具接收函，所长借此收了一万元，这笔钱在我们当地不算少了。当然，只要有心，都能发现当地机关不光是公安的一些特点，比如，小办事员都是抽蓝嘴芙蓉王～售价30多，想象下多黑吧。我一朋友告诉我，做一任派出所所长至少进账一百万，富裕乡镇还不止。当地村主任大多数六七层高楼，而作为国家级贫困县的新化老百姓一般建个三层都是勉为其难。 不是禁止赌博吗？知法犯法… 这种人不知道为什么当了这么多年警察 警察因为没给面子杀人？？？<br>偶买噶，小学生都不会这样吧？ 近距离对着太阳穴开了一枪都没死？好强的火力。这还是警用手枪吗？仿真枪表示不服。 在给你爹写墓志铭啊 拿枪干掉不给面子的仅此一家 绝对抑郁 这就是社会的病态 所以出了“胃逆窒死”这种奇葩，，， 忧郁症？哦，知道啦。 爱面子的人到处都是 凄惨 前两天不是说有小矛盾口角后杀人吗？天啊！ 南无阿弥陀佛南无观世音菩萨 这些不都是之前网友说的谣言么 抑郁症，竟然是因为输钱，如果赢钱了，还能抑郁，吗 这个警察一定有抑郁质或者精神病 你既然知道美国是搅屎棍，那么你说说美国搅得屎是随，你是屎自己都承认了，可见你们这些人的智商。刚刚吃饱饭的国家，竟然挑逗邻居，和上次一样，替苏俄打头阵，必然和上次一样，头破血流。即便加上苏俄，也不是对手。 闪烁其词 一般人干不了 这种人不知道为什么当了这么多年警察 水塘江边，今夜估计又多了一个四大班子，提前过年的了。唉！！！ 史记、陈氏建湘传<br>-心存阳光<br>陈氏建湘，湘中人，幼贫窭，尝无隔宿之粮。然好学，性聪颖，科场得志，入湘府刑律学堂，苦功律法，师甚佳许。建湘为人，玉树之姿，识之者曰：“不意田舍之家，育此璧人。”又好以功业自许，以为天下不足其驰骋也。当时湘中群生，幼儿女云云。人日三杰，县党魁，县捕头，县国安建湘…<br>然有泼皮挑衅建湘，以伎俩黑君于赌坛，再者公门大佬欺压之…湘不服，厚积薄发，于西元十二月二十二日，携火器以杀泼皮。欲再诛若干屑小之徒。奈何出师不利，壮志未酬，遭众捕快缉捕之，遂潜伏民间，未知所踪也…<br>鸣呼，建湘出师未捷，归野山林也。<br>民日，侠之大者！鸣呼，于西元十二月二十四日于三板桥山林中遭众捕快携警犬而捕之，壮志未酬而身先卒。 神速 一女村民到地里拔萝卜时，发现山上有陌生人在一个废弃的地窖里烤红薯，---100分 近日报道一警一退兵好赌伤人，原因何在。 能一样吗？就像网警扫黄一样，不看黄网什么能扫黄。 我认为警察不会賭，看来也是赌博所造成的，认下的全假了。 好的 最终结果：抑郁症加急性精神障碍！最多死缓或者无期。各位都散了吧！ 自杀抑郁症，杀别人还是抑郁症，看来要高度重视抑郁症的防治工作了 就是因为是这种人才能当这么多年！ 借枪一事问题严重了 编故事 为何不自杀 人才 没给面子一事，我亲眼见到易友说的 一杀人就说有各种病，不杀人的时候就没事，什么几把逻辑啊！难道战争杀人的时候也是有病的人？ 陈的右眼部穿透伤，眼球全爆，头部大面积脑水肿，颅底及颅顶因震挫裂，对侧颅骨及上颌骨全碎<br><br>这都没死？还提前开枪自杀，昏迷了几小时，还能烤红薯。卧槽，真能编啊！！👍🏻👍🏻👍🏻 看到抑郁症就懂了。 被杀的人肯定装逼过度、牛逼的不行 这么一个抑郁症还有警察同事借枪给他…… 了解 一个正式民警会断送自己的公务员身份杀人？就是想杀人，需要这么明目张胆的持枪杀人，能破案就能想到有什么办法谋杀， 麻辣歌比，毙了这人渣，得病也应该枪毙 抑郁症都他妈能当警察了 这话问的没水准，法律禁止干的事多了，你丫没打过牌，去过ktv，洗浴中心？ 警察都杀人，我的天哪 借枪给他的同事估计死的心都有了！ 作为曾经的新化人，见识了当地公安的太多贪腐路数，我一朋友在浙江监狱服刑，表现不错提前释放，要老家派出所出具接收函，所长借此收了一万元，这笔钱在我们当地不算少了。当然，只要有心，都能发现当地机关不光是公安的一些特点，比如，小办事员都是抽蓝嘴芙蓉王～售价30多，想象下多黑吧。我一朋友告诉我，做一任派出所所长至少进账一百万，富裕乡镇还不止。当地村主任大多数六七层高楼，而作为国家级贫困县的新化老百姓一般建个三层都是勉为其难。 不是禁止赌博吗？知法犯法… 应该是间歇性精神病吧 片面之词不可信 错，至少135度的弯。 赌博害死人呀 比小说都精彩 你们信不信，反正我不信 抑郁是个好东西 确定不是精神分裂症？保命要紧啊 优郁症 警界要严管 他在某派出所工作时，所里曾经发生集体私分滥发的违纪行为 不止是邹，邹只是第一个被杀的。他计划要杀20多个仇人。<br>仇人不少，看来他平常的人际关系不咋样 司机会判刑吗？ 10年前处理交通事故，是交警，邹不给面子。可能是邹动用关系，干扰事故认定结果，甚至训斥辱骂陈。那只知10年后.... 又是抑郁症，我差点信了。。。 你们作为曾经的伙计、手足，为什么要打他？ 笑死人哈哈 已經砰砰兩個人了<br>自己打太陽穴的時候就開始拐90度的彎了<br>這明顯要追究生產產家的責任啊<br>什麼破東西太劣質了 司法学校毕业也就能做个警察了，不过后来脑子坏了。 有蹊跷！ 错，至少135度的弯。 垃圾 什么叫公安民用车？真不懂 不知道什么 敢于冲破枷锁！敢爱敢恨！ 杀人狂…… 私欲没满足，权力没释放，本性自然体现，其实人人都是定时炸弹，时间未知，不作不会死 一早就有这种恶习还留着过年，结果出事了 曾患抑郁症，是不是南京法官鉴定出来的？ 污名化，高 胆大包天 强烈要求公开庭审。 看的累 不是副局吗？呵呵，现在的新闻果然黑白 看完文章没有？ 说到做到 槽点太多，我都懒得喷了<br>你们随意 造谣 我操太阳穴射入右眼爆出还没死，手枪威力这么小吗？ 我承认赌博害人，但是这人杀人不是因为赌博 40多人名单呢？ 鸡汤真的不可靠啊。 带病工作?还得表扬呀 呵呵呵 长期患抑郁症的警察为什么不换岗？为什么还让他持枪？这才是值得深思的！ 这种人不知道为什么当了这么多年警察 杀人被抓了，这下才真的是血债血还 不正常 带病工作的楷模…… 堂堂我新化男儿…火车站一炮120… 可惜 想说什么?最少也要坐穿牢底吧 ,;?jj;?n 真的每人跟帖吗，这个男的有点意思 又是赌 还有多少赌徒在当警察？ 警察牛掰！ 来看看 。。。。。。 这种人是怎么混进公安对伍的，精神病患者，也能当警察👮，也真是无语了。 自杀没死成？ 抑郁症只会杀自己 赌这个东西都是套路而已，有的人不家破人亡是不会戒的。 弱弱问一句：谁把这样的畜牲塞进警察队伍的？ 不敢乱说话走好吧 ？1 仗着自己有精神病证牛逼了 都要退休了还这么冲动，前半辈子当警察啥没见过？哈哈，我信了。 自己朝太阳穴打了一枪竟然没死？？ 必有难言之隐 应该是假的 宇宙的探索是离不开我的话的，只有把围绕地球公转的一切物质包括气体计算在地球体积之内才能找到地球真正的边和角，那是反引力汇聚地，是真正的真空隧道，宇宙高速路，太阳系内的动脉!把围绕太阳公转的一切物质包括气体计算在太阳体积之内才能找到恒星与恒星的边和角，那是恒星与恒星之间的真空高速隧道，找到真空隧道以近光速超光速飞行那不是个事!宇宙飞行器也不能按照飞机的二维结构原理制造，飞机是不能高速自转的，但只有高速自转才能产生真空电磁场，以近光速飞行，未来的宇宙飞行器必须按地球原理制造，八层以上结构，你看地球高速自转着前进，我们人坐在地球上有啥不适感觉吗？ 法克 呵呵…… 好长没看完，知道了 抑郁症？ 究竟还多少警察带病坚持工作？抑郁症！ 坏蛋 已阅！ 人世沉沉浮浮，没有无缘无故的爱恨情仇 呵呵 让评论吗 抑郁了 史记、陈氏建湘传<br>-心存阳光<br>陈氏建湘，湘中人，幼贫窭，尝无隔宿之粮。然好学，性聪颖，科场得志，入湘府刑律学堂，苦功律法，师甚佳许。建湘为人，玉树之姿，识之者曰：“不意田舍之家，育此璧人。”又好以功业自许，以为天下不足其驰骋也。当时湘中群生，幼儿女云云。人日三杰，县党魁，县捕头，县国安建湘…<br>然有泼皮挑衅建湘，以伎俩黑君于赌坛，再者公门大佬欺压之…湘不服，厚积薄发，于西元十二月二十二日，携火器以杀泼皮。欲再诛若干屑小之徒。奈何出师不利，壮志未酬，遭众捕快缉捕之，遂潜伏民间，未知所踪也…<br>鸣呼，建湘出师未捷，归野山林也。<br>民日，侠之大者！鸣呼，于西元十二月二十四日于三板桥山林中遭众捕快携警犬而捕之，壮志未酬而身先卒。 清理门户 ，旅途 让评论吗？ 👀 顶我 有病得治 ........... 烂人 12月22日新闻没说这事啊？ 你们自己才知道发生什么什么 人呢？ 可怜之人必有可恨之处。希望故事不再有重演的时候…… "
    },
    "Title": "湖南持枪杀人警察曾患抑郁症 输钱后扬言血债血偿_网易新闻",
    "PublishTime": "12/30/201700:54:18"
}