{
    "PublishTime": "12/27/201716:43:44",
    "Source": "Netease",
    "Comment": {
        "Link": "http://comment.news.163.com/news2_bbs/D6M6KTMG0001899N.html",
        "Total": 73476,
        "Reply": 3535,
        "Content": "二楼情绪激动 你瞧，这世面，连男人也不安全。[狗][狗] 我要看马云的性器官 淘宝上有自己去淘 应该是要现形了吧！哈哈 这很正常啊，就如同你喜欢美女，一样的道理，你这么想就想通了，没什么高深莫测的 大家是忘了吗，有个醉汉躺在街上，就有个男人上来帮他吹，网上还有视频好象是成都的 合影留念 二楼暴露了… 跟贴被火星网友带走啦~ 6666老婆每天都要爱爱 醉了 求科普，基佬搞基的时候，菊花里没有大便吗？如果有的话，这还基的下去？ 没有，大便是在直肠内只有在有想拉屎的时候才会往菊花移动，而且做前都会洗啊所以并没什么异物 把屁股洗洗干净，这事好办........啥人都有凑热闹的哈哈😄 这曲某是男的还是女的啊[喷水] 这世道可真几把乱 我怎么没有碰到这样的老板，可能是我太矬了吧[大哭] 你不觉得自己恶心吗？尼玛生你的时候生出来一个胎盘，你这个低能儿胎死腹中了，你个断子绝孙的玩意，生儿生女都不得好死！ 醉了干不爽，没知觉，死鱼一样，喜欢用强的[大笑] 同性恋，想想都恶心！ 是啊，5楼说的没错，提前会清洗，会灌肠的 二楼估计菊花瘙痒难耐 现在男的也不安全了 疯狂激情的岁月 同性恋真可怕 哥活半辈子了，今天算学习了！多么纯洁的一根…… 同性恋更看重身材长相。。 我要进这公司😄大家顶我 哈哈哈哈.我有种莫名的感兴趣 这里面基佬真多呀，吓的我一紧一紧的 二楼咋啦？ 这个楼里面，可是让几个人找到大本营了，恭喜你们，互相去口吧 会啊，，我就特别喜欢口，吃那个东西，粗大的最好吃。。当然前提是喜欢那个人。。其实做不做，对我来说倒是其次，我最喜欢的是口！！！不要提到同性，就是插就是干，，其实不是那样，很多时候口口就行了 二楼有点激动啊。楼下说说咋回事 我的很粗大不介意被男的口 青春有梦欲飞翔，此去那知满目伤。<br>小径风寒摧嫩菊，高楼泪湿染新霜。<br>悲闻怨妇身磨镜，忍望淫翁手弄阳。<br>俗世纷繁心已倦，谋生更比读书茫！ 请问一下基佬们，你们会口吗？ 5楼一副老司机的样纸[鄙视][鄙视] 今晚我们老总就想口我，没办法 卧槽，变态真多 那个曲老板我认识，要不要给各位基友介绍一下 看来二楼？ 二楼你怎么了啊？跟大家说说 好变态，楼下还有没有更恶心的 我上大学时被一自称淘宝摄影师的人叫到宾馆拍内裤照卖家看中会给我钱💰谁知道那天下午当着我的面一边拍照还一边抚摸我的弟弟说真大真棒可把我吓死了！后来我才知道碰见基佬了😶😶😶 你瞧，这世面，连男人也不安全。[狗][狗] 女同能接受。。男同完全不能想象[不屑] 这世道，男人都不安全了，以后晚上不敢出去跑步了 因为你是男的啊喜欢女生当然不能接受男同了 66666 我靠！真的是现在学生真的是弱势群体，从幼儿园一直到大学都他妈不安全！ 这世道，唉～ 很多职业学院，都懂的！ 以前怕儿子早恋，现在他被女生追，我挺开心，还主动邀请女生来我们家玩。他喜欢的女生，我直接约女生的家长，我儿子才上小学[挨揍] 最直接简单的办法就是阉了他！变态！ 吓得我菊花一紧 变态的真可怕，男孩子也要防范被性侵了。晕 你瞧，这世面，男人越来越少了。[狗][狗] 《背影》 男人都不放过凉了硫酸泡屌 这个死变态 虎躯一震 留名 柳州柳南金科·星辰，引入“轻奢型宽享生活概念”，108米超宽楼间距，1.1万方阔景中庭，双重入户大堂，定制柳南生活标杆。 我靠，蛋与蛋之间的碰撞。想想就恶心。非要去当搅屎棍 一帮cong货 这个社会已经变了。我他妈永远不能接受 这新闻是真的吗，但凡是有骨气的都不会这样窝囊，并且是七个大男人一起窝囊 这年头……没文化，连段子都看不懂了 g佬不摸菊花吗？ 告赢了又怎样，也没有强奸男子的法律法规 他自己也愿意 楼上的MB留下，叫床厉害吗？ 我要进这公司😄大家顶我 人渣 卧槽，我来错地方了，，我要出去，放我出去 要是女的谁还会不满啊 长知识了，我去！ 把屁股洗洗干净，这事好办........啥人都有凑热闹的哈哈😄 膏鸡裙🐧舅八幺屎污儿溜溜 蛋碰蛋，搅屎棍还真能搅出屎来 罪恶啊 柳州柳南金科·星辰，引入“轻奢型宽享生活概念”，108米超宽楼间距，1.1万方阔景中庭，双重入户大堂，定制柳南生活标杆。 我们来一发？[大笑] 1L是拉？直男反感男同但对女同宽容，直女应该也反感女同吧 我是三围标准的女人。。。 我想找个老公，有需要的联系我[狗][狗] 5楼一副老司机的样纸[鄙视][鄙视] 做为一个男性，我必须跳出来支持他们，毕竟美女资源有限，大家要感谢他们留给我们的机会。说明一点，我是坚决反对女女一起的。 什么码才算是标准……[窃笑] 关键是，这么干了到底违法不违法呢？还是只能道德谴责？ 这曲某是男的还是女的啊[喷水] 我上大学时被一自称淘宝摄影师的人叫到宾馆拍内裤照卖家看中会给我钱💰谁知道那天下午当着我的面一边拍照还一边抚摸我的弟弟说真大真棒可把我吓死了！后来我才知道碰见基佬了😶😶😶 那就说明你是女同嘛 艹草 之前看知乎上有人说做0爽到的话是前列腺高潮会持续半个多小时，灵魂的颤栗，不像男女男的只有最后那一霎那的舒爽，做过零号就不想和女的一起开船啦～顶锅盖逃走 男人也可以被男人害啊！小心了！ 爽！ 你瞧，这世面，男人越来越少了，就没人来个折龙手？？[狗][狗] 是gay，不要紧，关键还耍流氓，一定要阉了这个叫曲绍民的杂碎！ 跟贴被火星网友带走啦~ 之前有篇报道图片都上了，一男的 我要看马云的性器官 搅屎棍 我想知道是男还是女，应该是男人，不然很享受怎么还曝光！ 每次完事后都喜欢用力的再顶两下，想的能让孩子尽可能的少走两步路！ 有次洗澡也是一个四十多岁的老头子摸着我的弟弟说好大，给那些女人亏了。老子那时候才十八岁，现在知道了遇到了基佬 什么乱七八糟的 令人发指 老总是男是女，小编说句话呀 抓住阉了 男人插男人<br>想想都恶心 这曲某是男的还是女的啊[喷水] 口味真重 自然的已平淡，来点超然的。有钱有权就任性。 男的，所以叫曲 [窃笑][窃笑][窃笑]这么神奇 这曲某是男的还是女的啊？ 进去捅个够= 墙都不扶就服你 把校长和叫兽都带来，把它们和这位领导关一起，伟哥管够，灯光，摄影就位。 要是女老板挺好啊可以合作啊 尼玛，小便能不能说出是男还是女？ 来找我啊 之前都报道过了，一男的主管 现在已经把被害人的名字曝光而施暴者就叫“曲某”？？ 还是利诱。。。自愿的 肯定是男的女的谁还BB啊 真心恶心人 泥玛，我正在吃早饭你就让我看这个？ 那四十多岁的老男人是你亲爹吧 居然在我们信阳 爱搞基这套？ 如今连女人都满足不了他们了 你站在原地别动、我去给你砍棵橘子树过来 这要是女老板就不曝光了吧[窃笑] 呵呵。 男的呗， 早就告诉你一定要上学，至少把初中上完。。呃，你会不会问“学”和“完”是男人还是女人。 不是说QJ男的不算QJ吗😂谈什么性侵，法律 卧槽 真他妈恶心 请公布畜牲的信息 支持女女，反对男男 信阳是个好地方 艾滋病就是这么兴盛起来的…… 我上大学时被一自称淘宝摄影师的人叫到宾馆拍内裤照卖家看中会给我钱💰谁知道那天下午当着我的面一边拍照还一边抚摸我的弟弟说真大真棒可把我吓死了！后来我才知道碰见基佬了😶😶😶 京东有正品 你瞧，这世面，连男人也不安全。[狗][狗] 咋了？不好吗？ 淘宝上有自己去淘 聊天截图用的不是女的吗？怎么又说是男的？ 跟贴被火星网友带走啦~ 当时没留下什么证据吗？这样举报有些苍白无力 看的菊花痒痒的 硬邦邦的，拼刺刀啊 哎呀我去 捅菊花会不会肛漏啊。还有痔疮咋办[窃笑][窃笑] 真是人渣 这个老总是男的女的？老半天没看懂 亚马逊有进口的 文章里用的他都是男的？同性恋吗？ 这群搐生往常就是以各种方式散步各种下流风气，但到关键时刻却郑重其事地向世人提出一个深刻的疑问：“道德不断败坏，人心不断堕落，谁之过？”<br>看这群搐生的演技有多高超。 老总是男是女，小编说句话呀 把屁股洗洗干净，这事好办........啥人都有凑热闹的哈哈😄 这个社会，真的需要好好教养了！ 👍 再说一遍！请不要把这些神马大专，中专，艺校，技校，高职，职高....的通通都称为大学生好不好！ 同性恋，想想都恶心！ 感谢这么多勇敢的孩子才让这么多人渣败类暴露出来。太恶心了！顶！勇敢的孩子！你的勇敢让很多后来的孩子免于受害！ 被女领导xxx 体检下面被捅了，真的很不爽，不知道同性的是啥感觉 现在菊花香 大哥，佩服你的IQ，无敌了! 估计小编自己都不知道曲某是男是女，还写个毛 卧槽我怎么觉得像男人哄女人似的还说给买房买车完事就答应了看来还是王磊同学定力好啊宁可辍学也不让肛 搞了半天都是男对男阿，那个张林是未达到买房买车的心愿吧 这楼没救了[惊讶][惊讶][惊讶] 🍆买了我的茄子忘了他！ 女的玩..开始连男的 女的还行，男的的确恶心。两个胡子拉碴蹭来蹭去的，吐.... 我要进这公司😄大家顶我 有痔疮的，不仅紧，每次还有初夜的赶脚。。。。 问一下裤头子，你扳弯过直男吗？ 我擦，我那个渣渣学校毕业的，幸亏没我什么事 封面圖交出來！！ 卧槽，我来错地方了，，我要出去，放我出去 菊花残，满地伤…… 战火纷飞的年代 我要看马云的性器官 看，劣等人种，不学无术，常识也不懂，从大专，到博士，全部是大学生。全称是高等学校的学生，中专，技校，是中等学级，叫中学，小学，是初等学级，叫小学。大学生分为四个学级，或者另一种分法是三个学级，大专生，本科生，研究生，研究生再分三个学级，其实在优秀文化优等人种国家，只分二个学级，硕士生，博士生，有个国家是，无学位研究生，硕士研究生，博士研究生，这个国家以前叫研究生班研究生，美其名叫，宁缺母滥，其实，这也是屠杀人才的另一方面，优秀文化优等人种是，一是一，二是二，是不缺不滥。学术水平到了就是，不到就不是。德国法国高中普及后，高中生三年按时毕业率不超过百分之六十九。有个国家是人人按时毕业。一心意淫，又屠杀人才，说你是，你就是，不是也是，说你不是，你就不是，是也不是。呸 精神有问题的人越来越多了 还什么同性恋合法化，他，。妈，的这是犯罪啊！！！！ 我就进来看看不吱声😁 男的呗， 花生米有什么好看的 滚开死基佬 现在男的也不安全了 真的无法想象两个男人拼刺刀的样子 我评论讽刺骂人，管你开不开心，关我屁事。 合不合你意，基佬表示关我屁事 男人也不安全的时期到了 （多做好事，必有好报）美攻朝中收台战略对冲平衡（加快发展繁重工作替代性智能机器，不用延迟退休）公司上市后业绩异常下降，依法赔偿遏制骗钱（当务之急大小限减持和再融资要挂钩分红或回购，违则重罚，促进长期良好经营，缓解套现压力）尽快开征股指期货的印花税，才能降低杠杆及高频风险，限制其乱影响股市（基金只有盈利才收管理费，真正为投资者服务）连续2天涨跌停就限仓交易，共同受益，利国利民！ 真变态啊 捉到一枚，大家说怎么办 你瞧，这世面，连男人也不安全。[狗][狗] 好刺激！[色色] 那些说恶心的丑逼们，都没人性骚扰你们。嫉妒吧！ 连男人都不安全了，这尼玛 肛就是紧，哈哈 其实，基佬也不是自己愿意的，好好的谁吃饱了没事干去同性。可是他们对异性没感觉啊，这个文土怎么解决？与直男喜欢异性是一样的。 同性恋，想想都恶心！ 淘宝有假货 别看了，找到了得两小时 啊?男孩子 除了我以外全世界的男人都去搞同吧！我支持你们！ 说半天我还是不知道曲某是男是女 裤头哥的纪录惊到我了，不过跟帅的美军互相插的感觉确实好！ 学校不简单啊 同性恋而已，不是变态 那样你会后悔的，会给你干的菊花残满腚伤，虚脱，脱肛，植物人，一万种死法 这才是真男人，干那些柔软的女子算什么男人！ 摄影师的眼睛玻璃装的是放大镜？ 淘宝上有自己去淘 男权社会，有同性倾向的反而混的如鱼得水 这曲某是男的还是女的啊[喷水] 搅屎棍 就不说。 比日本人都变态 变态男老总，性侵多名男大学生，恶心 日死他妈<br>拿刀把他手砍了 视频中的用的是他这个字，明显男的啊 我也尽量把自己掰弯吧，这样进男澡堂就刺激了。还不违法 你们搅基戴套吗 对呀，当年进男澡堂没碰到，听都没听过这种事。 同性恋都该被枪毙 男人没有一个好东西，千刀万剐多不为过 我要进这公司😄大家顶我 好乱 现在最大的问题是检查身体情况 把屁股洗洗干净，这事好办........啥人都有凑热闹的哈哈😄 死刑！ 我要看马云的性器官 搞屁，你母亲 谁能安全呢[不屑][不屑] 恶什么？又没艹你。 吓得我菊花一紧... 青春有梦欲飞翔，此去那知满目伤。<br>小径风寒摧嫩菊，高楼泪湿染新霜。<br>悲闻怨妇身磨镜，忍望淫翁手弄阳。<br>俗世纷繁心已倦，谋生更比读书茫！ 丑的滚开，帅的爱怎么办就怎么办 这些贱人好奇怪，每个都能爬到蛮高的职位，不知道为什么？ 女的 好恐怖的感觉…… 很刺激哦 还好是祸害男的，女的太少，娘炮也不安全了。 会啊，，我就特别喜欢口，吃那个东西，粗大的最好吃。。当然前提是喜欢那个人。。其实做不做，对我来说倒是其次，我最喜欢的是口！！！不要提到同性，就是插就是干，，其实不是那样，很多时候口口就行了 男的！ 疝气吧 哈哈哈哈 我上大学时被一自称淘宝摄影师的人叫到宾馆拍内裤照卖家看中会给我钱💰谁知道那天下午当着我的面一边拍照还一边抚摸我的弟弟说真大真棒可把我吓死了！后来我才知道碰见基佬了😶😶😶 搞屁眼，你母亲 变态 你瞧，这世面，连男人也不安全。[狗][狗] 林子大了什么鸟都有啊 草。禽兽不如 真tmd恶心，堕落！真是什么鸟儿都有！ 这很正常啊，就如同你喜欢美女，一样的道理，你这么想就想通了，没什么高深莫测的 这种人真恶心 呵呵，男的被鸡奸怎么没人说他们是自己行为不检点，犯贱，贪财？<br>想想如果都是些女的出来找工作被老板这样，这群直男癌会怎么喷？？<br><br>呵呵，男的被鸡奸怎么没人说他们是自己行为不检点，犯贱，贪财？<br>想想如果都是些女的出来找工作被老板这样，这群直男癌会怎么喷？？ 徒儿乖 哇，这楼看得我好兴奋呐 这有同性恋 有跪舔你么 文后面用的他，应该是男的吧，是女的估计就不会有这篇文章了，受害者男的都在美滋滋呢，干撸多年终于尝到肉了。 把屁股洗洗干净，这事好办........啥人都有凑热闹的哈哈😄 下次面试前多吃韭菜红薯胡萝卜，防菊花残！两头伤！ 来人，把车门焊死，今天谁也别想下车 鸡奸？好菊花紧 死变态过分，拉信阳让黄牛爆他菊花 再说一遍！请不要把这些神马大专，中专，艺校，技校，高职，职高....的通通都称为大学生好不好！ 同性恋，想想都恶心！ 也不配图，差评 编的，其实很小 我上大学时被一自称淘宝摄影师的人叫到宾馆拍内裤照卖家看中会给我钱💰谁知道那天下午当着我的面一边拍照还一边抚摸我的弟弟说真大真棒可把我吓死了！后来我才知道碰见基佬了😶😶😶 这个家伙男女通吃，被侵害的男生要尽快到医院检查艾滋病毒 这怎么是一群同性恋啊，这是一个什么样的公司 要么说大千世界啦，俺们这里的刑法专门有一条，“不许性侵家畜，家禽”。情节恶劣的，最高可判2年！ 理解，因为爱情 我要进这公司😄大家顶我 我翘 早半个月前，在东莞市寮步镇文化广场的男公厕，晚上10点多，一男的不关门，蹲在便坑上，看到门没关，我尿完了就走，那变态的使劲的啪巴掌。这T 这里面基佬真多呀，吓的我一紧一紧的 牛逼 卧槽，我来错地方了，，我要出去，放我出去 男人，要爱护自己的屁眼。 太丑的不用怕 温饱思淫欲，极寒起盗心。看来中国确实解决了温饱问题，赞! 后来？？？有故事 要升局长了，大家帮帮忙 曝光该事件的同学是想着老总移情别恋了吧！都不是好东西，xx了你两次，真的好意思说出口 希望你看见男的强奸女的的时候想想异性恋恶心不，说话过大脑。都是强奸没什么区别，人恶心而已。 早半个月前，在东莞市寮步镇文化广场的男公厕，晚上10点多，一男的不关门，蹲在便坑上，看到门没关，我尿完了就走，那变态的使劲的啪巴掌。这T 可怜的孩子们 吸香肠里的牛奶。。。 干嘛非要互相敌对，明明可以相亲相爱嘛 真心好恶心 这世道，这疯狂劲…… 玩出“精”彩。。。 畜牲，牛是用来耕地的，，，，你千万别性侵他 看，劣等人种，不学无术，常识也不懂，从大专，到博士，全部是大学生。全称是高等学校的学生，中专，技校，是中等学级，叫中学，小学，是初等学级，叫小学。大学生分为四个学级，或者另一种分法是三个学级，大专生，本科生，研究生，研究生再分三个学级，其实在优秀文化优等人种国家，只分二个学级，硕士生，博士生，有个国家是，无学位研究生，硕士研究生，博士研究生，这个国家以前叫研究生班研究生，美其名叫，宁缺母滥，其实，这也是屠杀人才的另一方面，优秀文化优等人种是，一是一，二是二，是不缺不滥。学术水平到了就是，不到就不是。德国法国高中普及后，高中生三年按时毕业率不超过百分之六十九。有个国家是人人按时毕业。一心意淫，又屠杀人才，说你是，你就是，不是也是，说你不是，你就不是，是也不是。呸 内行。。。。 这曲某是男的还是女的啊[喷水] 呵呵，男的被鸡奸怎么没人说他们是自己行为不检点，犯贱，贪财？<br>想想如果都是些女的出来找工作被老板这样，这群直男癌会怎么喷？？ 得不到好处就曝光 难道就不喜欢女的了吗？都说异性相吸，那同性有啥可相吸的呢 666 搅屎棍 "
    },
    "Article": "（原标题：信阳职业技术学院一男生自曝被学校合作企业老总性侵|深度聚焦）#endText.video-infoa{text-decoration:none;color:#000;}#endText.video-infoa:hover{color:#d34747;}#endText.video-listli{overflow:hidden;float:left;list-style:none;width:132px;height:118px;position:relative;margin:8px3px0px0px;}#entText.video-lista,#endText.video-lista:visited{text-decoration:none;color:#fff;}#endText.video-list.overlay{text-align:left;padding:0px6px;background-color:#313131;font-size:12px;width:120px;position:absolute;bottom:0px;left:0px;height:26px;line-height:26px;overflow:hidden;color:#fff;}#endText.video-list.on{border-bottom:8pxsolid#c4282b;}#endText.video-list.play{width:20px;height:20px;background:url(http://img1.cache.netease.com/video/img14/zhuzhan/play.png);position:absolute;right:12px;top:62px;opacity:0.7;color:#fff;filter:alpha(opacity=70);_background:none;_filter:progid:DXImageTransform.Microsoft.AlphaImageLoader(src=\"http://img1.cache.netease.com/video/img14/zhuzhan/play.png\");}#endText.video-lista:hover.play{opacity:1;filter:alpha(opacity=100);_filter:progid:DXImageTransform.Microsoft.AlphaImageLoader(src=\"http://img1.cache.netease.com/video/img14/zhuzhan/play.png\");}if(/(iPhone|iPad|iPod|Android|NETEASEBOBO|blackberry|bb\\d+)/ig.test(navigator.userAgent)||/safari|chrome|firefox/i.test(navigator.userAgent)&&navigator.plugins&&!navigator.plugins[\"ShockwaveFlash\"]){varstr1='<videocontrols=\"controls\"preload=\"auto\"width=\"100%\"poster=\"http://vimg3.ws.126.net/image/snapshot/2017/12/R/J/VU5LR4JRJ.jpg\"style=\"max-height:100%\">';varstr2='<sourcetype=\"video/mp4\"src=\"http://flv.bn.netease.com/videolib3/1712/26/XCbaR8273/SD/XCbaR8273-mobile.mp4\">您的浏览器暂时无法播放此视频.</video>';document.getElementById(\"FPlayer1404863609673\").parentNode.innerHTML=str1+str2;}多名男大学生曝被联合办学老总猥亵（来源：original）window.NTES&&function(d){varf=function(c){varb=c.getAttribute(\"flashvars\"),a=c.getAttribute(\"repovideourl\").replace(\".flv\",\"-mobile.mp4\");h=d(c.parentNode.parentNode.parentNode),g='<embedsrc=\"http://v.163.com/swf/video/NetEaseFlvPlayerV3.swf\"flashvars=\"'+b+'\"allowfullscreen=\"true\"allowscriptaccess=\"always\"quality=\"high\"wmode=\"opaque\"width=\"100%\"height=\"100%\"type=\"application/x-shockwave-flash\"/>';if(/(iPhone|iPad|iPod|Android|NETEASEBOBO|blackberry|bb\\d+)/ig.test(navigator.userAgent)){g='<videocontrols=\"controls\"preload=\"auto\"width=\"100%\"height=\"100%\"><sourcetype=\"video/mp4\"src=\"'+a+'\">您的浏览器暂时无法播放此视频.</video>';}h.$(\".video\")[0].innerHTML=g;},e=function(b){vara=d(b.parentNode.parentNode.parentNode);a.$(\"li\").removeCss(\"on\"),b.addCss(\"on\"),a.$(\".video-title\")[0].innerHTML=\"string\"==typeofb.textContent?b.textContent:b.innerText,a.$(\".video-title\")[0].setAttribute(\"href\",b.getAttribute(\"url\")),a.$(\".video-from\")[0].innerHTML=\"（来源：\"+b.getAttribute(\"source\")+\"）\",f(b);};window.continuePlay=function(){vara,b=d(d(\".video-list.on\")[0].nextSibling);3==b.nodeType&&(b=d(b.nextSibling));if(b&&d(\".video-innerinput\")[0].checked){e(b);}},function(){vara={init:function(){if(d(\".video-listli\")[0]){d(d(\".video-listli\")[0]).addCss(\"on\"),this.eventBind();}},eventBind:function(){d(\".video-listli\").addEvent(\"click\",function(b){e(d(this)),b.preventDefault();});}};a.init();}();}(NTES);△张林提供的曲某与其微信聊天的截图21岁的张林决定站出来，公开自己被性侵的经历。尽管此举可能给他带来巨大压力和不利影响，他想为自己和其他受害者讨一个公道。12月22日，他在新浪微博发帖称，河南信阳职业技术学院国际海事管理专业的多名学生在实习期间，遭到与学校有合作的深圳涉海集团有限公司总经理曲某的性骚扰和猥亵。12月25日，曲某对媒体回应，举报人是正在跟他和公司进行劳动仲裁的个别离职员工，因为仲裁失利而进行恶意中伤与打击报复。对于曲某的解释，张林觉得站不住脚：“那聊天记录他怎么解释，裸聊视频他怎么解释？”张林承认是在劳动仲裁，但他强调：“并不是为了一两万块钱去曝光的，而是真的因为他性侵了我们这些学生。”除张林之外，涉事学校另有多名学生对深一度表示，曲某曾对他们性骚扰。12月27日，信阳职业技术学院院长余运德表示，学校知道此事后，第一时间请求请公安机关调查，现在公安机关正在调查之中。一学生称两次被性侵张林是2015级河南信阳职业技术学院的学生，在学校“6年一百万的薪资，一边船上工作一边旅游”的宣传诱惑下，进入该校的国际海事管理专业。张林介绍，该专业为企业和学校联合办学模式，学校负责学生的学历教育，企业方负责安排工作。专业为3学年制，第一年在信阳职业技术学院上课，第二年是在大连海事大学参加培训考证，第三年安排就业。刚入学时，张林憧憬着将来当了海员，出国环游世界。2015年11月中旬，与信阳职业技术学院有合作关系的深圳涉海集团有限公司总经理曲某来到学校，以“大学生课外实践”的形式招生。张林当时面临两个选择：去大连考海员证，以后出海当海员，或者去涉海集团，结束实习后留在公司，负责招生。考虑到当海员的机会渺茫，并且培训费很高，家里负担不起，张林最后决定去涉海集团实习。“当时有7个学生，被他叫去说帮他招生，说是课外实践能够提升自己的能力，下去招生的话管吃管住，给我们说的待遇挺好的。（他还说）招到学生多（的话），明年可以免你们学费等等。”从2016年起，张林和其他几位同学在曲某的带领下开始到河南的各个高中帮公司招生。一开始，张林和同学们都觉得曲某挺正常，开公司“很伟大”，自己在公司也准备好好干一番事业，但不到半年，他们就发现曲某“有问题”。2016年7月中旬的某段时间，曲某分别通知张林和其他四人，单独到他在宾馆住的房间里。张林是第四个被叫进去的。进门后，他发现曲某全身赤裸，只穿了一条内裤，曲某要求张林将手机关机，坐在他的腿上。张林称其多次拒绝，曲某对其威逼利诱，并一再强调要彼此“坦诚相待”。曲某让其选择：一、脱光衣服跟曲某坦诚相待，以后在公司可以飞黄腾达；二、离开这里，永不相见。张林对深一度记者说，他最后选择了顺从，因为不顺从的话，“自己将在大二辍学，以后可能连毕业证都没有了。”他最后脱了衣服，曲某与其发生了性交行为。此后，曲某经常给张林“发一些比较暧昧和恶俗的东西”，包括，曲某生殖器的照片和一些同性性交的视频，还会在视频聊天中自慰。“他经常发这些东西，我感到无语，但毕竟他是公司老总，我能怎么说。”张林说自己有苦说不出。张林对深一度记者称，在公司两年期间，他被曲某猥亵（性侵）过2次，另一次是在2016年11月份。当时曲某以“去大连海事大学成人教育基地看我们那批学生的名义”叫他去大连。到了大连后，晚上住宿时，张林要求开标间，但曲某最后开的是一间大床房。“还是各种威逼利诱，还承诺买房子买车。”张林说，当时曲某再次与其发生性交行为。此后张林发现，曲某猥亵或性骚扰的对象还有其他同学，张林招来的学生也遭其猥亵。于是，张林开始搜集证据，准备曝光此事。今年9月，张林从深圳涉海集团有限公司离职，他庆幸终于“脱坑了”。△有相似遭遇的学生微信聊天截图多名学生讲述性骚扰遭遇河南信阳职业技术学院15级的王磊跟张林一样，是2015年11月被曲某招进公司7人中的一员。王磊对深一度表示，他也被曲某性骚扰，曲某经常在微信上给他发一些暧昧露骨的文字或图片。有一次晚上吃饭，曲某喝多了，让王磊送他回酒店，到酒店后，曲某拿出一个小瓶说是“兴奋剂”，让他闻。闻过之后，王磊感到“头晕恶心”，立即用凉水拍了拍头就离开了。但曲某私下里对其他员工吹嘘称，王磊“被他下药睡了”。2017年9月，王磊选择离职。张林告诉深一度，曲某曾试图收买王磊，让王磊帮忙删除张林手中掌握的一些证据。王磊向深一度证实此事：“他（曲某）这边当初说让我回去上班，然后给钱什么的，开出了一些不错的条件，但是有要求让我把张林手机里的那些聊天记录什么的删掉。\"河南信阳职业技术学院的学生李伟和陈明亦向深一度反映，曲某试图对其实施猥亵。李伟是2014级的学生，2015年初入职曲某的公司。李伟告诉深一度，曲某曾以做公司的宣传资料为由，连续3天都将他留到很晚才回家。李伟“心里害怕”，叫上公司的其他员工陪着，“从不敢自己单独去，走的时候也一起走。”据李伟讲述，2016年7月，曲某经常拉着他和另外两个同事去信阳市某酒店的419房间，曲某大谈自己和公司另外一名郭姓男主管的风流韵事。李伟说，419房间是曲某长期住宿的一个房间，同事们都戏称为“一夜情”。陈明的遭遇比李伟更“露骨”。今年5月，陈明所在班的学生去大连考海员证等证件，深夜零点左右，陈明准备坐火车去大连，由于陈明没交14000元的培训费，曲某单独把他叫到教学楼的办公室里。曲某说：“培训费不能缓交，必须要当天交。”陈明没有钱，于是请求“缓几天交”。曲某没有答应陈明，并威胁他：不能去大连考证，只能待在学校。在一番说教后，曲某突然对陈明说：这个钱我可以借给你，我帮你出了，“条件”是必须“坦诚相见”。陈明说，曲某以“穿得多、天气热”的名义让他脱衣服脱鞋，他一下子反应过来，拒绝曲某说：“曲总你说的这些我做不到。”陈明称，后来他去了大连，考到第三个证时，曲某“突然发难”，又开始逼着陈明交培训费，并交代学校的辅导员不让陈明上课，不能住宿舍，无奈之下，陈明只好买票回家。后来陈明退学离校，他解释，原因是“没有（钱）交培训费再加上曲某的压力。”校方：会严肃处理，已联系警方12月26日和27日，深一度记者多次联系曲某，其个人电话及公司电话都无人接听，发送采访短信亦无回应。此前，曲某于12月25日发短信回复“北京时间”的记者：爆料内容，纯属捏造和诽谤，并没有这样的事情发生在他本人身上，而是有人在故意捣乱。曲某称，举报人是正在跟他和公司进行劳动仲裁的个别离职员工，因为仲裁失利而进行恶意中伤与打击报复。对曲某的说法，张林等人表示，双方确实是在劳动仲裁，尚无结果，“因为我们4个集体离职，他欠我们几个的奖金还没有发。”张林强调：“并不是为了一两万块钱去曝光的，而是真的因为他性侵了我们这些学生。”张林就此向深一度提供了曲某与其聊天记录的截图，其中包含性器官照片、自慰照片和“内容露骨”的文字。12月27日，深一度记者联系信阳职业技术学院院长余运德，其短信回复：学校知道此事后，“第一时间请求请公安机关调查，严肃处理！现在公安机关正在调查之中。”（文中涉及学生均为化名）男大学生称被联合办学老总猥亵:发生不可描述的事【多名男大学生曝被联合办学老总猥亵：让脱光了坐他腿上最后发生了不可描述的事情】24日，河南信阳大三男生自曝上学期间，被与学校联合办学的企业总经理曲某猥亵。曲某还威逼学生，如果不配合就不给毕业。学院多名男生自述有与其相似经历。学院相关负责人称将落实情况。本文来源：深一度责任编辑：张海桐_NN9053",
    "Title": "企业老总被指性侵多名男大学生:发性器官和自慰照_网易新闻",
    "URL": "http://news.163.com/17/1227/16/D6M6KTMG0001899N.html",
    "KeyWords": "猥亵,性侵,性骚扰,实习"
}