{
    "Comment": {
        "Total": 80,
        "Reply": 8,
        "Link": "http://comment.news.163.com/news_guoji2_bbs/D75OA5I70001875O.html",
        "Content": "可以贴胸 像男人一样站着撒尿 这个必须点赞，摒弃陋习，文明卫生！！！ 有个性！ 像男人一样站着撒尿 贴脸握手鞠躬抱拳漏吊 可以贴胸 咋不说橄榄球呢？篮球是黑人的 黑人还擅长跑步呢。 白人就是喜欢身体接触，黑人也是，所以白人和黑人都善于打篮球 这个必须点赞，摒弃陋习，文明卫生！！！ 有个性！ "
    },
    "Title": "法国女市长拒行贴面礼：要像男人一样握手打招呼_网易新闻",
    "KeyWords": "法国,男士,市长",
    "Article": "（原标题：法国女市长打破传统拒行贴面礼要像男人一样握手打招呼）贴面礼是法国一项传统礼仪，在法国，朋友伙伴之间见面除了打招呼还要行贴面礼。但是法国奥德省莫里特市市长Picard-Wolff却打破传统，她向她的73名同事发邮件宣布，以后每天早上见面不会再向他们行贴面礼，而要像男士一样以握手的方式来表达问候。法国奥德省莫里特市市长Picard-Wolff据英国《每日邮报》报道，在法国，男士通常只用向关系比较亲密的朋友和家人行贴面礼，其他时候可以通过握手打招呼和表达问候，但是女性行贴脸礼的范围却比男性更广。Picard-Wolff经常因为要向碰到的人行贴面礼而开会迟到，有的时候她不得不用感冒了这样的借口来避免贴面礼。她在给同事的邮件中写道，我已经向太多人行过贴面礼了，我希望我的行为可以让人们认识到，无论在什么职位或者场合下，都可以自由选择表达问候的方式。法国总统马克龙向英国首相特蕾莎.梅行贴面礼“对一个我几乎不认识的人行贴面礼常常让我感到不舒服，这对我来说很不愉快，也让我感到很烦恼。每当有人把脸颊靠向我，我都感觉到很不自在。”Picard-Wolff说，尽管贴面礼是一种传统，在法国已经延续很多年，但是从现在起，我希望像男士一样，以握手取代贴面礼。Picard-Wolff说，在决定发这封邮件前，她和几位官员讨论过这个问题。“这虽然只是一个小事情，其实却关乎着日常生活中的性别平等。”本文来源：红星新闻责任编辑：范姜国一_NN9138",
    "URL": "http://news.163.com/18/0102/17/D75OA5I70001875O.html",
    "PublishTime": "01/02/201817:41:02",
    "Source": "Netease"
}