{
    "URL": "http://tech.163.com/17/1228/07/D6NO72P800097U7R.html",
    "Comment": {
        "Reply": 90,
        "Content": "贫穷，限制了你的想象力。支付宝那个贴纸，其实趁着不注意时候偷偷换一张，付钱就到了人家的账户了。方法很多。别忘了安卓系统无隐私。 这么多骚扰电话、电话诈骗，也没见整治啊 剩下的百分之五呢？不考虑了么？应该尊重每个公民的消费需求.....没有限制的必要。 傻逼你买一件衣服500块钱能买下来啊现在？ 台面上争不过，就玩儿阴的 还是挺应该的，说不好的，估计没看完整就开喷，一天被扫的面额超过500的概率还是挺低的，那你日常开销也够大的，也就平时吃吃饭买买东西会超过500而已，但基本一个星期也就那么一次两次而已，如果10天都被扫500，那么你的日常开销也够厉害得，加上电商那么发达，95%这个数字还是挺正确的 贫穷限制了你的想象力 大会所没几千哪里敢进去 市场统计是单笔500以下95%，为啥要限单日500？？？？现在是银行没钱了？政府债不好办了？ 呵呵→_→ 日限额500，脑子进水了，什么年代了，买个啥不是好几百啊 呵呵，万一你刷卡多输入了个0没有注意呢？？？ 补贴成了不正当收手续费最正当对吧 想象力决定你注定贫穷 那是你管理的问题，不是支付宝的问题。 被扫码才不安全吧，金额是扫码人输的，万一多输个0又没注意呢 能搞死支付宝的也就只有央行了。。。 感觉打压移动支付一样 按规范走，被盗了或者出什么问题央航负责不？ 银行倒是没绕过身份机制，那请问银行卡被盗刷是咋回事？ 也请中央控制物价，不要到吃个早饭需要510的年代 那么多电信诈骗，也没有把三大运营商给废了 现在干什么都是一刀切，他们也就会这个了 想象力决定你注定贫穷 支付宝用这久从来没被盗过，反而觉得银行卡信用卡容易被盗刷，什么都不从自身找原因，确用不正当手断打压支付宝。你们非要把银行整的倒闭才甘心吗？？？？ 请客吃个饭随便就上500了啊 你很聪明 怎么就没有业务规范，没有标准啊，不就这么两家么？还怎么乱了 盗刷银行卡的那些钱也找不回来干脆把银行也关了。银行就是垃圾。服务态度又差 1天限额500元，意味着1月限额15000元，满足绝大多数人需求了，还想怎样？除非你月薪超过15000元，否则别装逼乱喷！ 以安全的名义来限制用户的体验，这是彻彻底底的流氓逻辑！安全问题单独对待，前提是不损害用户体验。我是一个程序员，做服务器端开发工作。具备互联网安全意识。文中所说的安全漏洞，完全是胡扯。哄骗普通民众。支付宝、微信压根就没这些技术上的安全问题。要有也是操作者的大脑有漏洞，容易被骗。受害者的短板绝不是扫码支付。 你可以选择不扫啊， 异想天开 妈卖批，我的商品单价基本都超过500了。搞锤子啊！ 那么多信用卡诈骗也没有把信任卡给废了 怎么感觉不是规范，而是一刀切的做法呢？甚至是打压移动支付 感觉管理就是为了添堵，收钱 基数大没毛病，但是出去吃个饭超个五百也不难吧？？？ 贫穷限制了你的想想力 你他妈的放屁。出去洗个脚，嫖个昌，还要带钱包吗？ 几大银行出的问题也不少，怎么规范一下。 每次被扫都没安全感 你说了算咯 贫穷，限制了你的想象力。支付宝那个贴纸，其实趁着不注意时候偷偷换一张，付钱就到了人家的账户了。方法很多。别忘了安卓系统无隐私。 大会所没几千哪里敢进去 麻烦先搞定信用卡再说，不要整天想着打压这打压那的 呵呵→_→ 妈卖批，我的商品单价基本都超过500了。搞锤子啊！ 你他妈的放屁。出去洗个脚，嫖个昌，还要带钱包吗？ 那是你管理的问题，不是支付宝的问题。 能搞死支付宝的也就只有央行了。。。 你花不了那么多不代表别人花不了。<br>信用卡也很多不安全的事情为啥不见信用卡被禁止？ 想象力决定你注定贫穷 自我统计了下超过500单次的情况也不少 还好没有限制转账一天1000 还是挺应该的，说不好的，估计没看完整就开喷，一天被扫的面额超过500的概率还是挺低的，那你日常开销也够大的，也就平时吃吃饭买买东西会超过500而已，但基本一个星期也就那么一次两次而已，如果10天都被扫500，那么你的日常开销也够厉害得，加上电商那么发达，95%这个数字还是挺正确的 支付宝用这久从来没被盗过，反而觉得银行卡信用卡容易被盗刷，什么都不从自身找原因，确用不正当手断打压支付宝。你们非要把银行整的倒闭才甘心吗？？？？ 愚人节？ 请客吃个饭随便就上500了啊 意思是你扫别人的码限500。。商家扫你生成的二维码不变。。。 1天限额500元，意味着1月限额15000元，满足绝大多数人需求了，还想怎样？除非你月薪超过15000元，否则别装逼乱喷！ 互粉吗 你可以选择不扫啊， 想象力决定你注定贫穷 月薪超过一万五的不大把的人？ 你告诉我你月薪有没有超过15000元？周末消费1千元，你带借记卡不行吗？平时买菜吃饭，1天500元对普通人足够了！ 500一天你告诉我能干嘛？消费集中都在周末，。唱歌什么的八九百，五百有毛用？ 记得跨年那一天晚上跟着我们室友一起开黑，胖子拿了一个4杀，当我们都在大喊五杀的时候，锤石过来送了一个，然后打出新年快乐，然后当对面水晶马上爆的时候，我们投降，打出新年快乐，那是多么美好的回忆，现在，我和室友连手机号都没有了，不知道我的室友能不能看到。 按规范走，被盗了或者出什么问题央航负责不？ 要脸不？好东西都给规范没了，这么牛逼，早干嘛去了？没有发现改来改去之后，老百姓用着很不方便了吗？ 你说了算咯 每次被扫都没安全感 傻逼你买一件衣服500块钱能买下来啊现在？ 一楼穷逼 1楼你活该穷 贫穷限制了你的想象力 限制的只是静态扫码，动态的又没限制。 我做童装的。两件衣服就七八百，这不是影响生意么？ 日限额500，脑子进水了，什么年代了，买个啥不是好几百啊 如果够得上一次消费500以上的这种档次的酒店，人家绝对会配POS机，现在好点的都带扫码了。 补贴成了不正当收手续费最正当对吧 台面上争不过，就玩儿阴的 795年7月26日(ComprehensiveMirrortoAidinGovernment唐51)郭子仪孙女郭氏大明宫。<br>806年八月封遂王。<br>809年十月太子李宁；<br>810年三月彰义军节度大使。<br>811年十二月，太子李宁逝世，最受恩宠的宦官左神策军中尉吐突承璀欲立次子澧王李恽，宪宗也有意立次子，但李恽因为母氏地位卑贱难以在朝廷上得到支持，<br>812年十月立第三子李宥为太子改名恒。<br>813年十月，拥立太子的朝廷官员又上表请求立郭贵妃为后；宪宗拒绝了此番动议。<br>820年正月二十七日宪宗服方士柳泌的丹药暴死，<br>820年2月14日宦官神策军中尉梁守谦及王守澄等人拥立李恒，吐突承璀和李恽被送上了黄泉路。2月20日登基，<br>宰相萧俛、段文昌无远见，认为藩镇已平，应当消兵。被取消兵籍的军士无处可去，又无法从事他业，只好藏于山林。不久河朔三镇复叛，躲藏的军士纷纷归附三镇。<br>824年2月25日。<br>五妃五子三帝三后配享。 永远伟大，光荣，正确.....但愿你的世界永远存在。 互粉吗 咯吐了 贫穷限制了你的想想力 怎么感觉不是规范，而是一刀切的做法呢？甚至是打压移动支付 盗刷银行卡的那些钱也找不回来干脆把银行也关了。银行就是垃圾。服务态度又差 咋滴 怎么不把扫码支付封了？ 可以你插别人，不一定老是别人插你的。。 怎么就没有业务规范，没有标准啊，不就这么两家么？还怎么乱了 我亦无它，，呵呵。。。 限制是被扫你扫饭店的码不就行了输密码的不限制这是个好事情不用喷看清楚新闻 感觉管理就是为了添堵，收钱 你很聪明 限制是被扫你扫饭店的码不就行了输密码的不限制这是个好事情不用喷看清楚新闻楼上语文都不及格吧 1天限额500元，意味着1月限额15000元，满足绝大多数人需求了，还想怎样？除非你月薪超过15000元，否则别装逼乱喷！ 什么都是我说了算，呵呵 没想到穷起来这么可怕。 这么多骚扰电话、电话诈骗，也没见整治啊 剩下的百分之五呢？不考虑了么？应该尊重每个公民的消费需求.....没有限制的必要。 哈哈哈厉害了 吃顿饭都要刷卡或者现金了么 辣鸡云支付我也不用 不得滥用市场地位不正当竞争<br><br>央行还指出当前条码支付业务主要存在的乱象。 市场统计是单笔500以下95%，为啥要限单日500？？？？现在是银行没钱了？政府债不好办了？ 这是在刷存在感。。。 呵呵，万一你刷卡多输入了个0没有注意呢？？？ 感觉打压移动支付一样 6666 被扫码才不安全吧，金额是扫码人输的，万一多输个0又没注意呢 也请中央控制物价，不要到吃个早饭需要510的年代 银行倒是没绕过身份机制，那请问银行卡被盗刷是咋回事？ gi 那么多电信诈骗，也没有把三大运营商给废了 现在干什么都是一刀切，他们也就会这个了 离窗概不负责，谢谢合作! 怎么感觉不是规范，而是一刀切的做法呢？甚至是打压移动支付 愚人节？？？？？ 放狗屁，你能通过我给你的二维码偷到我的钱，这些东西看着干不过改明抢了 说辣么白干嘛？讨厌 好吧 重点在这：银联推出银联版二维码标准、涵盖二维码支付功能的“云闪付”APP。 以安全的名义来限制用户的体验，这是彻彻底底的流氓逻辑！安全问题单独对待，前提是不损害用户体验。我是一个程序员，做服务器端开发工作。具备互联网安全意识。文中所说的安全漏洞，完全是胡扯。哄骗普通民众。支付宝、微信压根就没这些技术上的安全问题。要有也是操作者的大脑有漏洞，容易被骗。受害者的短板绝不是扫码支付。 异想天开 我有一句那什么不知当讲不当讲 那么多信用卡诈骗也没有把信任卡给废了 按规范走，被盗了或者出什么问题央航负责不？ 喷子们除了喷还会什么？这文还算中肯。金融无小事。虽然强制限额手法上有待商榷，但好歹走出合规第一步。真以为你马爸爸是你亲爸啊！豪言壮语什么盗刷赔钱，你看见过赔过谁，谁能符合？还不如人家jcb挂失前24小时通赔来的实际！<br>屁用没的话，还被水军广为传颂！ 我就看看可以跟帖不 几大银行出的问题也不少，怎么规范一下。 是打压你们的移动支付，用老子的银联就可以。堂而皇之的不要脸。 ",
        "Total": 1553,
        "Link": "http://comment.tech.163.com/tech_bbs/D6NO72P800097U7R.html"
    },
    "Title": "央行出手规范条码支付业务，新规4月1日起实施_网易科技",
    "Source": "Netease",
    "KeyWords": "央行,限额,标准,条形码",
    "PublishTime": "12/28/201707:09:59",
    "Article": "（原标题：烧钱、补贴等不当竞争手段致乱象丛生央行出手规范条码支付业务）本报记者王晓北京报道二维码支付已经渗透到生活的方方面面，但二维码支付背后仍存在诸多乱象，用户资金被盗刷、手机扫码中毒等乱象时有发生。12月27日，央行印发《条码支付业务规范（试行）》（下称《规范》），同时配套印发安全技术和受理终端技术两个规范，上述规范自2018年4月1日起实施。通过划定业务范围和技术标准，对当前条码支付领域存在的诸多乱象进行整肃。《规范》明确，提供条码收付款业务或清算等应具备相应业务资质。静态扫码单日限额500元2014年，因为当时未建立有效安全措施、统一的业务规则和消费者权益保护制度，央行要求暂停线下条码支付。但这一方式不仅未曾远离，反而在支付机构的推广下越加普及。条码支付具有支付便捷、应用门槛低的优势，加上更安全支付技术的应用，条码支付的安全标准得到提升，在商超、菜场、餐馆、流动摊点等得到广泛使用。但由于缺乏统一的业务规范和技术标准，在条码生成机制和传输过程中存在风险隐患。央行明确指出，条码支付有一定技术风险。由于条码是图形显示，不法分子可以通过截屏、偷拍等手段盗取支付凭证盗用资金；此外，条码容易携带非法链接或程序代码，不法分子可将木马病毒、钓鱼网站链接制成条码，诱导客户扫描，窃取支付敏感信息。一些不法分子实施“中间人攻击”，绕过身份认证机制，造成用户资金损失。扫码设备安全强度低不具备加密、防拆机等功能，易被不法分子非法改装使用。相比用户主动扫码（主扫）和出示付款码被扫付款（被扫）模式，被扫的安全性相对更高，综合安全和便捷因素，在对静态条码做出一些技术要求之外，央行通过对静态条码限额方式，引导用户更多使用被扫模式，但对于小微商户广泛使用的主扫模式也并未完全限制。央行明确了条码支付小额、便民的定位，对条码支付根据技术安全等级的不同进行交易限额。无论银行还是支付机构，对于动态条码，如果采用包括数字证书或电子签名在内的两类（含）以上有效要素进行验证的话，单日交易限额可以与客户自主约定。而静态条码支付的无论何种交易验证方式，单日均不超过500元。北京网络法学研究会副秘书长赵繇对21世纪经济报道记者表示，市场统计表明，条码支付业务量的95%是单笔500元以下的小额交易，2017年上半年笔均百元左右。这样的限额要求基本满足了用户日常生活中的便捷支付需求。同时，由于当前小微商户的工商注册申请门槛低，部分不法分子滥用商事登记管理与税收改革政策中关于小微商户的优待政策，甚至与小微商户勾结套现大额信用卡资金。为此，《规范》要求同一身份证在同一家机构办理的全部小微商户基于信用卡的条码支付收款限额1000元/天、10000元/月。不得滥用市场地位不正当竞争央行还指出当前条码支付业务主要存在的乱象。一是商户准入门槛降低，部分市场机构利用条码可远程发送、不受专业受理终端限制的特点，在商户拓展过程中未履行“了解你的客户”义务，通过“一证下机”等方式违规发展商户，加剧了套现、二清、外包管理不到位等收单乱象。二是部分机构在开展条码支付业务时，在定价和市场推广策略中采取倾销、交叉补贴等不正当竞争手段，滥用本机构及关联企业的市场优势地位，排除、限制支付服务竞争，导致支付行业无序发展和不公平竞争。央行指出，稳定、可持续的投入和运营是支付业务长远发展的保障，不能为了追求短期的市场份额，采取“烧钱”“补贴”等不当竞争手段。21世纪经济报道记者了解到，当前聚合支付方式较多，一些提供聚合支付的机构变相从事“二清”，但缺少风险防范。此外，一些支付机构特约商户与赌博、色情网站勾结，为其提供支付结算业务。针对这些乱象，央行明确银行、支付机构要对特约商户严格管理，确保所拓展的是依法设立、合法经营的特约商户。银行、支付机构与特约商户合作不得将商户资质审核、受理协议签订、资金结算等核心业务外包。银行、支付机构与外包服务机构系统对接开展业务的，应确保外包服务机构无法获取或者接触支付敏感信息、不得从事或者变相从事特约商户资金结算。21世纪经济报道记者还注意到，《规范》指出，支付机构不得基于条码技术，从事或变相从事证券、保险、信贷、融资、理财、担保、信托、货币兑换、现金存取等业务。此前，西部某银行推出扫码取现业务，一天即被叫停。赵繇对21世纪经济报道记者表示，这是对2015年《非银行支付机构网络支付业务管理办法》要求的延续，支付机构需要专营，这也是为了防止金融风险的外溢，对跨市场、跨业态、跨国界的风险进行防范。本文来源：21世纪经济报道责任编辑：白鑫_NT4464"
}