{
    "Title": "海南将取消12个市县的GDP、固定资产投资考核_网易新闻",
    "URL": "http://news.163.com/17/1225/19/D6H9S6SC0001899N.html",
    "Source": "Netease",
    "Comment": {
        "Total": 1339,
        "Reply": 61,
        "Content": "他们这思维还停留在五六十年代 原来的白日大会战怎么处理？？？ 我觉得很好多维度分层次的考评地方行政人员的政绩 这么多年，海南也只有房地产 海南好样的 就会瞎逼指挥 各项整治关停搞得经济没法看，索性不看了。造假都懒得造了。 海南的海滩美景是大家的，不是某个房子占有的、 调查那个姓于的官责任 开发商指到哪里政府就规划到哪里。官僚地产集团，霓虹国90年代泡沫破灭的元凶。 各级官员唯GDP指标实为病态 应该取消，不取消就会有造假，造假就不能根据真实现状做出决策，没有现实决策就他妈瞎几把搞，能搞好什么？ 当官的见风使舵。 被上头点名批评，这下领导坐不住了，没有实质行动就要掉乌纱帽了。 涸泽而渔，焚林而猎真的好吗？ 这才是科学发展观！十多年来海南生态在悲呜！ 我觉得全国都应该取消 吹牛天下无敌，说出去的话好多做不到，还天天把自己宣传的那么伟大！ 计划经济 现在晚了，环境污染得差不多了，为了目前的利益和政绩把整个海南变成废墟，老百姓没有得到一点好处，开心了！ 20多年前海南爆过一次的 鼓了钱袋，毁了生态！<br><br>鼓了谁的钱包，毁了谁的生态。 因为继续考核gdp会很难看，顺坡下驴，这会席卷全国，等着瞧。 不怕不怕啦！事不过三[不屑][不屑][不屑] 求科普 全岛开发房地产，现在撤销市县的GDP考核，看来是凛冬将至，感谢特朗普 大开发海南会严重破坏生态，保持原来生态环境才是造福子孙。 特朗普特靠谱👍🏻 感谢美联储 金币到手 这也能贴，为了5m无所不用其极，辛苦了 因为到时候没地卖了GDP上不来拖后腿数据不好看啊[微笑] 那么多狗屁调控政策都不如人家一个缩表好使！ 目测下面的官员又要开始动粗了，中小企估计关停 行政计划，短缺经济 绝逼是不敢统计 国家要做国际旅游岛的初衷被当地变成了房地产市场，悲哀！ 虽然是海南人，但想说海南人是没救的，官本位思想太浓，基本深植每个人的骨髓，没有潜力的地方。 哈哈！顶不住了 GDP考核不是一无是处，就是被人用偏了 怎么都知道了！不好骗了啊！红红火火恍恍惚惚 他们这思维还停留在五六十年代 原来的白日大会战怎么处理？？？ 我觉得很好多维度分层次的考评地方行政人员的政绩 大开发海南会严重破坏生态，保持原来生态环境才是造福子孙。 各项整治关停搞得经济没法看，索性不看了。造假都懒得造了。 呵呵 除掉的不都是在搞房产的吗[窃笑] 应该取消，不取消就会有造假，造假就不能根据真实现状做出决策，没有现实决策就他妈瞎几把搞，能搞好什么？ 被上头点名批评，这下领导坐不住了，没有实质行动就要掉乌纱帽了。 怎么不考核飞速发展的房地产啦？比比看谁开发的房子多呀？ 好，支持[窃笑] 海南有什么GDP？ 吹牛天下无敌，说出去的话好多做不到，还天天把自己宣传的那么伟大！ 各省应该效仿 各省应该效仿 就会瞎逼指挥 计划经济 因为继续考核gdp会很难看，顺坡下驴，这会席卷全国，等着瞧。 感谢美联储 楼是做的是投资单位的被投资单位应该是借:固定资产贷:投资(长期股权或债权) 全岛开发房地产，现在撤销市县的GDP考核，看来是凛冬将至，感谢特朗普 国家要做国际旅游岛的初衷被当地变成了房地产市场，悲哀！ 20多年前海南爆过一次的 全岛开发房地产 怎么都知道了！不好骗了啊！红红火火恍恍惚惚 放屁是个极其复杂的生理机制，可以顺其自然的完成，理论上也可以设置一套系统去完成。不自觉产生个屁，又不自觉的放出来，是完全市场，不自觉产生个屁，有意识的放出来，是市场下的计划，有意识的产生屁，无意识的放出来，是计划下的市场，计划多了完不成只能硬把肚子搞坏，完成指标，计划少了闹肚子也得憋着，实在憋不住了也得伪造，不然超标，至于有意识的产生又要有意识的放出来，那实在太牛，实在无法想象 哈哈！顶不住了 开发商指到哪里政府就规划到哪里。官僚地产集团，霓虹国90年代泡沫破灭的元凶。 调查那个姓于的官责任 这么多年，海南也只有房地产 应该GDP加环境考核双指标，中国人均GDP在世界上还是比较落后的，好多民生问题的解决还得靠GDP发展上去。GDP和绿水青山都得要。 虽然是海南人，但想说海南人是没救的，官本位思想太浓，基本深植每个人的骨髓，没有潜力的地方。 砍砍 当官的见风使舵。 涸泽而渔，焚林而猎真的好吗？ 这才是科学发展观！十多年来海南生态在悲呜！ 怎么没道理就是敌对势力 真好 广东那边好多沿海的挖山建楼、填海建楼，还不是没事 鼓了钱袋，毁了生态！<br><br>鼓了谁的钱包，毁了谁的生态。 没有道理的分析 不怕不怕啦！事不过三[不屑][不屑][不屑] 特朗普特靠谱👍🏻 这也能贴，为了5m无所不用其极，辛苦了 因为到时候没地卖了GDP上不来拖后腿数据不好看啊[微笑] 那么多狗屁调控政策都不如人家一个缩表好使！ 行政计划，短缺经济 现在晚了，环境污染得差不多了，为了目前的利益和政绩把整个海南变成废墟，老百姓没有得到一点好处，开心了！ GDP考核不是一无是处，就是被人用偏了 求科普 全岛开发房地产，现在撤销市县的GDP考核，看来是凛冬将至，感谢特朗普 各级官员唯GDP指标实为病态 金币到手 我觉得全国都应该取消 文明社会， 目测下面的官员又要开始动粗了，中小企估计关停 绝逼是不敢统计 海南好样的 海南的海滩美景是大家的，不是某个房子占有的、 文明社会， 赞一个 人民日报发文厉害啊 ",
        "Link": "http://comment.news.163.com/news2_bbs/D6H9S6SC0001899N.html"
    },
    "Article": "（原标题：海南将取消部分市县GDP、固定资产投资考核）根据海南省委、省政府近日印发的新的市县发展综合考核评价办法，海南将取消部分市县GDP、工业、固定资产投资的考核，把生态环境保护同时立为负面扣分和一票否决事项。新考核评价办法将于明年正式实施。新的考核评价办法根据《海南省主体功能区规划》，将全省19个市县（含洋浦、暂不含三沙）划分为5大类，分两个平台进行差别化考核，最大亮点是取消了除海口、三亚、洋浦、儋州、文昌、琼海、澄迈之外的12个市县GDP、工业、固定资产投资的考核，形象地说，就是让“打篮球”和“踢足球”分场比赛。新办法围绕新发展理念和海南省第七次党代会的目标，设计了可量化、可计分的15个一级指标、51个二级指标。同时，突出各地资源禀赋、功能定位和发展特色，对相同的指标，在不同的区域赋予不同分值和权重。比如，15个一级指标中，海口、三亚、洋浦分值最高的是创新发展，中部市县分值最高的是生态环境保护；51个二级指标中，对12个重点产业根据市县的实际情况赋予不同权重，有的突出全域旅游、有的突出热带特色高效农业、有的突出互联网和医疗健康等其他产业。特别是把生态环境保护同时立为负面扣分和一票否决事项。据介绍，此次调整优化考核评价办法立足于海南省情、坚持生态立省，推动高质量发展，建设美好新海南的迫切需要。【新闻多一点】中央环保督察组批海南鼓了钱袋，毁了生态！2006年之后，海南房地产大跃进，优质的海湾被开发商瓜分，众多别墅、楼盘拔地而起。然而，过度的房地产开发给海南的环境带来了巨大的压力，原生态植被破坏严重、海岸侵蚀加剧、生活污水直排等问题凸显。在这当中，一些地方政府和部门出于招商引资，发展经济的目的不仅不严格把关，甚至大开方便之门。第四轮中央环境保护督察组狠批道，海南自然环境好不等于“环保工作做得好，海南本应是生态环境的“优等生”，但“开发”热情屡屡突破生态保护界限，使生态环境有了“难以抚平的伤痕”。中央第四环境保护督察组组长贾治邦说，房地产企业指到哪儿，政府规划跟到哪儿，鼓了钱袋、毁了生态，一些自然保护区、优质自然岸线、生态脆弱山体遭受破坏，成了当地生态环境难以抚平的伤痛。本文来源：人民日报责任编辑：徐萌_NN7485",
    "PublishTime": "12/25/201719:03:56",
    "KeyWords": "海南,环境保护,GDP"
}