{
    "Title": "迪巴拉尤文失宠!众豪门挖角 曼联一妙招占据杆位_网易体育",
    "URL": "http://sports.163.com/17/1226/13/D6JAC14C00058781.html",
    "KeyWords": "迪巴拉,尤文,曼联,红魔",
    "PublishTime": "12/26/201713:51:04",
    "Article": "网易体育12月26日报道：曼联在前段时间邀请了尤文图斯的首席球探里瓦尔塔来到了红魔，而英国媒体称，红魔也通过里瓦尔塔与尤文图斯的球员迪巴拉进行了秘密的接触，目前这位在尤文失去了主力位置的小个子球员很可能会加盟曼联，而最快在明年一月就能完成交易。曼联队内的姆希塔良与马塔是球队的两名进攻型的中场，但是在红魔阵中得不到穆里尼奥的信任。马塔的情况稍好，在前19轮的英超联赛中得到了914分钟的出场时间，而姆希塔良在赛季之初发挥高光，但是随即彻底失去了主力位置。由于两位进攻型中场得不到穆帅的信任，因此鸟叔也渴望买入球员取代两人，而来自尤文的迪巴拉成为了穆帅的目标。迪巴拉是一名前锋，但是他带球能力出色，视野宽广，同时拥有这不俗的爆破能力，在前腰位置的威胁极大。尤文在去年已经与迪巴拉续约，同时为其加薪到700万欧元，而且在新赛季给予了迪巴拉十号球衣。迪巴拉在赛季之初的发挥也十分高光，前6轮意甲联赛打入9个进球，但是在随后迪巴拉的竞技状态却一落千丈。最近几场比赛，迪巴拉失去了主力位置，而在上一场对战罗马的重磅大战中，迪巴拉甚至没有得到一分钟的出场时间。失去主力位置的迪巴拉对于尤文有些不满，因此也动起了离队的打算。迪巴拉不愁下家，巴萨一直将迪巴拉视为重要的引援人选，而皇马求购迪巴拉的消息也不绝于耳。而从目前的形势看，曼联在求购迪巴拉的交易中处于杆位。在不久前，曼联签下了尤文的首席球探里瓦尔塔，因此红魔利用里瓦尔塔的关系与迪巴拉方面进行了秘密的会面，而在进行会面后，穆里尼奥对于签下迪巴拉十分有信心。同时有的英国媒体称，如果一切顺利的话，迪巴拉最快在明年一月就能加盟曼联。本文来源：网易体育作者：塞尔吉责任编辑：姚成浩_NS4810",
    "Comment": {
        "Content": "亿建联也说钱啊，早知道亿建联引援两个就差不多两亿欧了。 你爹更傻逼， 绰号外星人的是罗纳尔少，他绰号小毛驴 鸟粪总是选择性失明，今晨的结果还怎么说？ 1亿拿走呗都没啥进步 技不如人就得拼爹，这道理在哪貌似都能说通<br>但事实上，曼联输的显然不止8000万，而对方赢的也不止曼联。半程看，人钱结合效果瓜帅遥遥领先，曼联只有德赫亚。 不买人又说阵容是前主帅的功劳，买人又说花多了钱（注意曼联的伊布是免签的）。你们就不能正视自己内心那个隐隐约约痛：看来鸟跟瓜真的不是一个档次的教练 迪巴拉去曼联只会越来越走下坡路。穆鸟根本就不是那种善于调教前锋的教练，迪巴拉也不是那种喜欢防守的前锋。迪巴拉本来是有潜力可挖的。想要提高去曼城、皇马、或者巴萨是最合适，这些球队都是位置感很强的球队，但是迪巴拉因为曾经在尤文大胜巴萨后有点自视甚高，梅西本来还是有意提拔这个小老乡，居然对梅西出言不逊。现在来看遇到瓶颈了，以后成就如何很难说，若无梅西出手相助，起码成为巨星可能性极小，也别奢谈以后什么金球奖候选人了，到处晃荡几年后就回阿根廷去了。 天佑傻逼 尤文曼联 那么多巨星都是梅西提拔的？ 傻鸟 你叫一个技术型中场去防守，会有什么心态 哇，迪巴拉去曼联打边后卫？ 库鸟换鸭子，敢不？ 卢卡库伊布边锋马夏尔拉什福德梅西他娘马塔叔叔博格巴还有好几个替补曼联的阵容一点不差。。。我觉得还是战术和心态的问题更多其中心态问题最大！ 曼城傻逼 里瓦尔塔以前好像是名球员 鄙视一楼这种攀-金-联！ 场面被娜娜按着打就算了，还被英冠队按着摩擦[喷水] 就鸟那打法，再多花三五亿都没用！顶多再摆量十亿镑超豪华大巴 真能给曼联招黑。 瞧把你气的......[狗][狗][狗] 迪巴拉不是穆里尼奥喜欢的类型穆里尼奥喜欢的锋线球员是黑又硬的那种 说别的没用。<br>鸟婊无耻鸟粪无知。。。。 反正就是输了瓜就是废物，赢了就是拴狗冠，我们都是真的认为的行了吧，别争了 对，大巴可以创造联赛的进球记录？是你眼瞎还是弱智呢？ 当球员的时候叫里瓦尔多！ 迪巴拉这几年一点进步都没有都快忘了他了 如果曼联也能比曼城那样多花几千万，穆里尼奥拿冠军还不是妥妥的？ 显然曼城赢得是近十年不断的投入，现在到了开花结果的时候了 别打黑鸭主意，曼联又不缺钱花。联赛冠军只有一个，那么多年低迷，现在联赛前四欧冠能进8强，作为曼联球迷我都觉得满足了，现在阵中唯一一个能吸睛的就是德赫亚了，他走了就没意思了 啧啧，急了，急了 不得瑟了 看看本身球队的底子 迪巴拉不会这么快为世界杯留力吧？阿根廷球员不太适合曼联 迪巴拉去曼联估计就废了 小毛驴是奥特减，奥特加的弟弟，奥特曼的哥哥！ 曼联中场还差一个克罗斯级别的发动机，买多少边锋都难 迪巴拉去曼联只会越来越走下坡路。穆鸟根本就不是那种善于调教前锋的教练，迪巴拉也不是那种喜欢防守的前锋。迪巴拉本来是有潜力可挖的。想要提高去曼城、皇马、或者巴萨是最合适，这些球队都是位置感很强的球队，但是迪巴拉因为曾经在尤文大胜巴萨后有点自视甚高，梅西本来还是有意提拔这个小老乡，居然对梅西出言不逊。现在来看遇到瓶颈了，以后成就如何很难说，若无梅西出手相助，起码成为巨星可能性极小，也别奢谈以后什么金球奖候选人了，到处晃荡几年后就回阿根廷去了。 6月10日讯皇马前锋莫拉塔的名字一直被和曼联紧密联系在一起，此前有媒体报道称，莫拉塔已经向皇马高层表达了离队想法，并且点头承认自己愿意加盟曼城。 看样子伊布是真的黑啊？ 德赫亚是很久很久以前留下来的了 这小身板怎么去曼联？ 迪巴拉去曼联只会越来越走下坡路。穆鸟根本就不是那种善于调教前锋的教练，迪巴拉也不是那种喜欢防守的前锋。迪巴拉本来是有潜力可挖的。想要提高去曼城、皇马、或者巴萨是最合适，这些球队都是位置感很强的球队，但是迪巴拉因为曾经在尤文大胜巴萨后有点自视甚高，梅西本来还是有意提拔这个小老乡，居然对梅西出言不逊。现在来看遇到瓶颈了，以后成就如何很难说，若无梅西出手相助，起码成为巨星可能性极小，也别奢谈以后什么金球奖候选人了，到处晃荡几年后就回阿根廷去了。 技不如人就得拼爹，这道理在哪貌似都能说通<br>但事实上，曼联输的显然不止8000万，而对方赢的也不止曼联。半程看，人钱结合效果瓜帅遥遥领先，曼联只有德赫亚。 伊瓜因迪巴拉这状态，阿根廷难道要经历锋无力？ 意甲没落了 库鸟和克罗斯不是一个类型的，库鸟像阿扎尔，但是没阿扎尔的盘带，确切的说像罗老汉，内切射门型的。而克罗斯是纯粹的中场指挥官加一脚远射。 不得瑟了 卢卡库和拉斯福德属于没脑子型球员，有时真的很无语 曼联中场还差一个克罗斯级别的发动机，买多少边锋都难 里瓦尔塔以前好像是名球员 莫拉塔去年在尤文也就是轮换球员，欧冠惊艳了两场儿子，今年皇马纯替补，惊艳的比赛基本没有。这身价居然比中国房价涨得还高。如果有人跟我说难道曼联高层眼光还不如你？那请看马夏尔，卢克肖。。 绰号外星人的是罗纳尔少，他绰号小毛驴 迪巴拉去曼联只会越来越走下坡路。穆鸟根本就不是那种善于调教前锋的教练，迪巴拉也不是那种喜欢防守的前锋。迪巴拉本来是有潜力可挖的。想要提高去曼城、皇马、或者巴萨是最合适，这些球队都是位置感很强的球队，但是迪巴拉因为曾经在尤文大胜巴萨后有点自视甚高，梅西本来还是有意提拔这个小老乡，居然对梅西出言不逊。现在来看遇到瓶颈了，以后成就如何很难说，若无梅西出手相助，起码成为巨星可能性极小，也别奢谈以后什么金球奖候选人了，到处晃荡几年后就回阿根廷去了。 说别的没用。<br>鸟婊无耻鸟粪无知。。。。 对，大巴可以创造联赛的进球记录 如果曼联也能比曼城那样多花几千万，穆里尼奥拿冠军还不是妥妥的？ 当球员的时候叫里瓦尔多！ 鸟粪总是选择性失明，今晨的结果还怎么说？ 是意大利球员，以为玩EA97足球经理是看到过他，如果没记错的话他还不到40 皇马还不出手，本泽马可以退休 还要会禁区防守 鸟粪总是选择性失明，今晨的结果还怎么说？ 曼联尤文米兰英格兰 瓜来曼城那年曼城已经是冠军了，又花那么多钱买人，口口声声第一教练，你把德国队加上梅西，内马尔，格里兹曼，苏亚雷斯。看看能不能拿世界杯 人家穆第一次来英超的时候就夺得英超冠军，第二年更是卫冕了，不知道瓜第一年做了什么？ 你爹更傻逼， 可能性不大，低于1.5E尤文不会放人。还有五年合同足够锁死迪巴拉 1亿拿走呗都没啥进步 说多少遍了，今夏净投入曼联第一 不买人又说阵容是前主帅的功劳，买人又说花多了钱（注意曼联的伊布是免签的）。你们就不能正视自己内心那个隐隐约约痛：看来鸟跟瓜真的不是一个档次的教练 那么多巨星都是梅西提拔的？ 那年不是莱斯特城是冠军吗？ 你叫一个技术型中场去防守，会有什么心态 不是魔力鸟不行红魔中场需要加强前锋急需要补充桑切斯不错。 尤文曼联 对还是防守型前卫 就鸟那打法，再多花三五亿都没用！顶多再摆量十亿镑超豪华大巴 这么说以前穆在切尔西的冠军也是靠钱不靠穆了？ 这标签贴的，狗不理？ 曼联少10个埃辛 曼城傻逼 迪巴拉去曼联估计就废了 皮尔洛去了估计是守门员[大笑][大笑] 从球队的结构体系来看,巴萨应该不会放人吧,如果把这位关键先生放走了,下一位关键先生会是谁呢? 老妇人不傻 迪巴拉不是穆里尼奥喜欢的类型穆里尼奥喜欢的锋线球员是黑又硬的那种 莫拉塔可能再也拿不到欧冠冠了。曼联目前还没有夺得欧冠的实力。看看今年皇马战胜的球队拜仁、马竞、尤文，曼联能确保每个对手都能赢吗？或者看尤文的对手也行巴萨、摩纳哥、皇马。 买迪巴拉打442吧！ 对，大巴可以创造联赛的进球记录？是你眼瞎还是弱智呢？ 恐怖分子😱 一个亿拿走！ 我文从不做亏本买卖信我！ 迪巴拉不会这么快为世界杯留力吧？阿根廷球员不太适合曼联 库鸟换鸭子，敢不？ 小毛驴是奥特减，奥特加的弟弟，奥特曼的哥哥！ 我知道里瓦尔多就是那个绰号外星人的！！ 亿建联也说钱啊，早知道亿建联引援两个就差不多两亿欧了。 能适应英超吗？ 曼联中场太多坑了 AgentPogba该出场了 技不如人就得拼爹，这道理在哪貌似都能说通<br>但事实上，曼联输的显然不止8000万，而对方赢的也不止曼联。半程看，人钱结合效果瓜帅遥遥领先，曼联只有德赫亚。 傻鸟 迪巴拉有点退步了现在是姆巴佩的时代 迪巴拉怎么了，已经快淡出球迷的视线了 我觉得迪巴拉还不错，年轻，能力也不错，好好培养一下可以成为未来多年的主力力。。 曼联中场还差一个克罗斯级别的发动机，买多少边锋都难 克罗斯级别？前几天国家德比克罗斯都开始踢养生足球了 两亿否则免谈 迪巴拉没2亿尤文不会卖 真能给曼联招黑。 瞧把你气的......[狗][狗][狗] 说别的没用。<br>鸟婊无耻鸟粪无知。。。。 不得不说，德华当年和鸟真的是绝配，还有突破犀利的边锋也是鸟喜欢的， 啧啧，急了，急了 库鸟比克罗斯差远了，鸭子换克罗斯还差不多 抬起来再说 我花了1亿多引进他，打全能前锋，无敌的存在 卖曼抬就这价内马尔都2.2谁说小魔仙不值 我靠，小编你应该取代曼联的CEO！留在网易真是大材小用了！同意的点赚，新年肯定发发发！ 迪巴拉这样的天才去曼联摆大巴就废了 迪巴拉怎么了？ 本来巴萨想买，然后这货很狂的说了句与梅西位置冲突……然后就么有然后了。 买来废掉贬值处理了？三德子的钱不是钱啊？ 如果曼联也能比曼城那样多花几千万，穆里尼奥拿冠军还不是妥妥的？ 把姆希塔良换来也不是不行的 小编已经掌控各大球队的转会 哇，迪巴拉去曼联打边后卫？ FM确实强。我这哥们连续垄断了6，7年金秋先生 看看本身球队的底子 曼城傻逼 鄙视一楼这种攀-金-联！ 鄙视三楼这种抱（大腿）--娘（瓜娘炮）--城！ 迪巴拉不是穆里尼奥喜欢的类型穆里尼奥喜欢的锋线球员是黑又硬的那种 反正就是输了瓜就是废物，赢了就是拴狗冠，我们都是真的认为的行了吧，别争了 我说了拴狗冠了？悄悄这些火星网友的玻璃心 迪巴拉这几年一点进步都没有都快忘了他了 这颜值穿曼联7号卖球衣就能回本了，还考虑什么竞技因素 尤文在试验阵型，433，他没位置 啧啧，急了，急了 私下和球员接触属于违规吧？就敢这么正大光明的报道？ 去曼联就毁了 fm201617最强前锋 库鸟换鸭子，敢不？ 真当别人都是傻子 迪巴拉又不傻，谁不知道穆鸟不会用技术型球员 ",
        "Total": 975,
        "Link": "http://comment.sports.163.com/sports2_bbs/D6JAC14C00058781.html",
        "Reply": 108
    },
    "Source": "Netease"
}