{
    "Article": "#endText.video-infoa{text-decoration:none;color:#000;}#endText.video-infoa:hover{color:#d34747;}#endText.video-listli{overflow:hidden;float:left;list-style:none;width:132px;height:118px;position:relative;margin:8px3px0px0px;}#entText.video-lista,#endText.video-lista:visited{text-decoration:none;color:#fff;}#endText.video-list.overlay{text-align:left;padding:0px6px;background-color:#313131;font-size:12px;width:120px;position:absolute;bottom:0px;left:0px;height:26px;line-height:26px;overflow:hidden;color:#fff;}#endText.video-list.on{border-bottom:8pxsolid#c4282b;}#endText.video-list.play{width:20px;height:20px;background:url(http://img1.cache.netease.com/video/img14/zhuzhan/play.png);position:absolute;right:12px;top:62px;opacity:0.7;color:#fff;filter:alpha(opacity=70);_background:none;_filter:progid:DXImageTransform.Microsoft.AlphaImageLoader(src=\"http://img1.cache.netease.com/video/img14/zhuzhan/play.png\");}#endText.video-lista:hover.play{opacity:1;filter:alpha(opacity=100);_filter:progid:DXImageTransform.Microsoft.AlphaImageLoader(src=\"http://img1.cache.netease.com/video/img14/zhuzhan/play.png\");}if(/(iPhone|iPad|iPod|Android|NETEASEBOBO|blackberry|bbd+)/ig.test(navigator.userAgent)||/safari|chrome|firefox/i.test(navigator.userAgent)&&navigator.plugins&&!navigator.plugins[\"ShockwaveFlash\"]){varstr1='<videocontrols=\"controls\"preload=\"auto\"width=\"100%\"poster=\"http://vimg3.ws.126.net/image/snapshot/2017/12/I/P/VU601D6IP.jpg\"style=\"max-height:100%\">';varstr2='<sourcetype=\"video/mp4\"src=\"http://flv.bn.netease.com/videolib3/1712/30/lLpwM0497/SD/lLpwM0497-mobile.mp4\">您的浏览器暂时无法播放此视频.</video>';document.getElementById(\"FPlayer1404863609673\").parentNode.innerHTML=str1+str2;}浙江台州一化工企业失火,\"黑龙\"噬楼（来源：original）window.NTES&&function(d){varf=function(c){varb=c.getAttribute(\"flashvars\"),a=c.getAttribute(\"repovideourl\").replace(\".flv\",\"-mobile.mp4\");h=d(c.parentNode.parentNode.parentNode),g='<embedsrc=\"http://v.163.com/swf/video/NetEaseFlvPlayerV3.swf\"flashvars=\"'+b+'\"allowfullscreen=\"true\"allowscriptaccess=\"always\"quality=\"high\"wmode=\"opaque\"width=\"100%\"height=\"100%\"type=\"application/x-shockwave-flash\"/>';if(/(iPhone|iPad|iPod|Android|NETEASEBOBO|blackberry|bbd+)/ig.test(navigator.userAgent)){g='<videocontrols=\"controls\"preload=\"auto\"width=\"100%\"height=\"100%\"><sourcetype=\"video/mp4\"src=\"'+a+'\">您的浏览器暂时无法播放此视频.</video>';}h.$(\".video\")[0].innerHTML=g;},e=function(b){vara=d(b.parentNode.parentNode.parentNode);a.$(\"li\").removeCss(\"on\"),b.addCss(\"on\"),a.$(\".video-title\")[0].innerHTML=\"string\"==typeofb.textContent?b.textContent:b.innerText,a.$(\".video-title\")[0].setAttribute(\"href\",b.getAttribute(\"url\")),a.$(\".video-from\")[0].innerHTML=\"（来源：\"+b.getAttribute(\"source\")+\"）\",f(b);};window.continuePlay=function(){vara,b=d(d(\".video-list.on\")[0].nextSibling);3==b.nodeType&&(b=d(b.nextSibling));if(b&&d(\".video-innerinput\")[0].checked){e(b);}},function(){vara={init:function(){if(d(\".video-listli\")[0]){d(d(\".video-listli\")[0]).addCss(\"on\"),this.eventBind();}},eventBind:function(){d(\".video-listli\").addEvent(\"click\",function(b){e(d(this)),b.preventDefault();});}};a.init();}();}(NTES);【突发|浙江台州一化工企业失火，“黑龙”噬楼】12月30日，浙江台州一橡胶助剂公司起火，火势凶猛并迅速蔓延。消防迅速赶到救火，现场伤亡不明，起火原因有待调查。本文来源：一手Video责任编辑：邵小波_NN2479",
    "PublishTime": "12/30/201715:55:10",
    "URL": "http://news.163.com/17/1230/15/D6TR253J0001875P.html",
    "Comment": {
        "Content": "15年到现在浙江就要东阳宁波台州台州市长可是刚刚北京挨批回来啊又出事怪不得国家安监局又来浙江 现在消防检查24小时不间断，家里办点小厂都不敢光明正大的生产！ 这提问好没水平呀那北京上海广州在台州上班的人也很多！ 年度汉字“火”？ 台州今年很旺，尤其是玉环… 今年的火灾特别多 天天查，天天烧 台州，火灾，又让我想起了台州2014年1月14日的那场大火，我母亲是那场火灾的亲身经历者、幸存者。这离过年不远了，平平安安的吧…… 天天消防！结果还是到处着火....领导干部睡不着了 好像中了魔咒一样 看这架势很多人可能又没了，哎……这又是要过年的。 特别是浙江 台州从去年天台洗脚店火灾后，死人的火灾太多了。 你的还在，我的查消防之前就被偷了，才骑了几个月 我的电瓶车又要放外面了，这次别再偷我的了 生意不好做骗保吧？ 一路火 希望能有后续调查 杜桥这边反正昨天又来查消防各种买设备隔离呵呵 这么大的火真希望人平安 是不是老板自己点的啊，是在对消防严查无声的抗议啊[微笑][微笑] 天天消防检查🔥还是自顾自地烧 没放假么？ 前几天被安装了巴掌大的所谓智能电表要走2400，娘西匹 在哪 有没有算命先生分析分析 群死群伤。孤独的人，胜利。 年底了为什么那么多人，在烧毁自己的工厂？ 骑共享单车吧 玉环现在消防查的严的很。搞得我们项目都很难进展 化工类，很难灭。 具体地址都不报道了？明白人给说一下 这是台州哪里 但愿人没事 台州今年怎么这么6啊。 小编这个新闻有误，是和橡助一墙之隔的南边那个做电瓶车件的厂[暴怒][暴怒] 哪里的，，路桥吗 这边都没有假放全年无休 台州黄岩区，新前街道。 洗脚店是正月的吧？ 罗汇黄村附近吧 黄岩新前(开发区) 怨气太大？ 你有事 你母亲居然还是亲历者？泉州发展很好，比台州好太多了，为什么跑到台州来？ 台州消防形势严峻啊 15年到现在浙江就要东阳宁波台州台州市长可是刚刚北京挨批回来啊又出事怪不得国家安监局又来浙江 17年事故不断啊！ 浙东橡胶可能不是民企 越查越着火 现在消防检查24小时不间断，家里办点小厂都不敢光明正大的生产！ 这些着起来很难熄灭，一定要小心小心再小心，厂里也一定要买些保险，万一失事了有的赔付，不然损失惨重，多年心血可惜了 黄岩易友不少啊，不会又要查消防吧（🐶） 年度汉字“火”？ 台州今年很旺，尤其是玉环… 天天查，天天烧 台州，火灾，又让我想起了台州2014年1月14日的那场大火，我母亲是那场火灾的亲身经历者、幸存者。这离过年不远了，平平安安的吧…… 希望能有后续调查 今年这是怎么了，这么🔥!快到年底了大家都注意安全! 台州牛逼了 看这架势很多人可能又没了，哎……这又是要过年的。 台州从去年天台洗脚店火灾后，死人的火灾太多了。 我听别人说，房地产乱开发把台州的龙脉给挖断了 你的还在，我的查消防之前就被偷了，才骑了几个月 镇里老油条带人来的.要给面子的 我的电瓶车又要放外面了，这次别再偷我的了 生意不好做骗保吧？ 一路火 天天消防！结果还是到处着火....领导干部睡不着了 杜桥这边反正昨天又来查消防各种买设备隔离呵呵 这么大的火真希望人平安 是不是老板自己点的啊，是在对消防严查无声的抗议啊[微笑][微笑] 水深火热之中 不是浙东橡助，是跟他一墙之隔的做电瓶车件的厂，这个新闻有误 前几天被安装了巴掌大的所谓智能电表要走2400，娘西匹 在哪 有没有算命先生分析分析 年底了为什么那么多人，在烧毁自己的工厂？ 防什么来什么，防火到处着火，防车祸到处车祸 玉环现在消防查的严的很。搞得我们项目都很难进展 去库存 具体地址都不报道了？明白人给说一下 化工类，很难灭。 哎😣 罗汇黄村是在哪里？ 看样子楼已经很老.. 请各位易友注意，网易评论区已有一群长期受境外NGO资金资助的轮子盘据在各大门户网站带节奏。它们特别点是任何新闻都采取攻击、嘲讽、影射或各种阴谋论等形式带节奏走极端。请各位易友注意！ 你被忽悠了，个人承包的。我也碰到还给他们吵一架，没装 劣质的线路管材现在到了集中表现的时候了 哎呀，天天查消防还这样，估计又要加强检查力度了 消息有误，不是这家企业，是隔壁的塑料仓库，小编别弄错了 一把手照样红火升职 希望别烧死人 小编这个新闻有误，是和橡助一墙之隔的南边那个做电瓶车件的厂[暴怒][暴怒] 天和树脂 可以用地图看哟，黄岩区也不大。你要我文字描述我也不好描述 一时眼花，看成某化工企业失明...... 台州黄岩区，新前街道。 洗脚店是正月的吧？ 这提问好没水平呀那北京上海广州在台州上班的人也很多！ 怨气太大？ 你母亲居然还是亲历者？泉州发展很好，比台州好太多了，为什么跑到台州来？ 骑共享单车吧 仓库应该没啥伤亡 天天消防 年初烧到年末 生意不错！ 台州今年很旺，尤其是玉环… 不是橡胶助剂厂，新闻有误 台州今年是红红火火呀！从正月的洗浴中心到2017倒数第二天，发生了多少起火灾？ 好像中了魔咒一样 靠，看样子又伤亡不少，让人怎么过年啊，唉😔 今年台州消防查的最严，可火灾是近几年新闻上看到最多的，真是越查越火的节奏 有人受伤吗 唉，命也，检查多还是没得用 在楼里的肯定逃不掉了 希望，能平安！ 这是台州哪里 黄岩呗，天天查消防，越查越严重 天天消防检查也挡不住火啊， 没放假么？ 特别是浙江 天天消防检查🔥还是自顾自地烧 群死群伤。孤独的人，胜利。 黄岩牟村，旁边 卧槽不会又要整条街关门吧 有没有算命先生分析分析 在黄岩西工业园区。 我们山东也很火 台州烧了一年了 黄岩 上午黄岩，然后椒江，醒来就是朋友圈各种火灾照片 新官上任三把火，今天黄岩和椒江都有火了，还少一场火 快过年了希望没有人员伤亡吧 生产工人基本是1号那天放假这样就不用给三倍工资了 希望调查清楚事情真相，严格执行企业防火安全措施 但愿人没事 黄岩这月都三次了。年底冲业绩？ 台州今年怎么这么6啊。 年底了…… 快过年了！望佛祖保佑🙏 你有事 哪里的，，路桥吗 希望平安，都要过年了...... 台州今年火得很 这边都没有假放全年无休 活过 这是黄岩 黄岩新前(开发区) 星期六放什么假…😂 今年的火灾特别多 这是什么意思？ 为什么没有人查消防！！！！ 新官上任三把火 台州消防形势严峻啊 老板有要完了。 台州这是怎么回事呢，哎 哎年底了小心为上 台州最近这是怎么了？ 够短 这是台州哪里 这火一烧，大气污染得多严重啊 又要消防检查喽 离得不远 又一家企业要破产 黄岩新前(开发区) ",
        "Link": "http://comment.news.163.com/news_shehui7_bbs/D6TR253J0001875P.html",
        "Total": 1192,
        "Reply": 119
    },
    "Source": "Netease",
    "Title": "浙江台州一化工企业失火 “黑龙”噬楼伤亡不明_网易新闻",
    "KeyWords": "台州,浙江,黑龙,化工"
}