{
    "Article": "（原标题：两车高架桥下碰撞护栏插入奥迪驾驶室）华商报讯12月26日下午，宝鸡市陈仓区底店高架桥下发生一起车祸，一辆奥迪车与面包车发生碰撞后，一段护栏斜插入奥迪车驾驶室，驾驶员头部被击中，当场身亡。据了解，12月26日14时09分，宝鸡市公安消防支队铁塔路中队接到指挥中心转警称，底店高架桥下发生一起车祸，有人员被困车内，铁塔路中队立即出动两辆车和12人赶赴现场救援。救援人员在赶赴现场途中进一步了解到，一辆奥迪轿车与一辆金杯面包车发生相撞后，奥迪轿车驾驶员被困车内，目前已无生命迹象。救援人员到场后发现，一段护栏从奥迪车前挡风玻璃斜插进驾驶室，击中了驾驶员头部。消防救援人员利用无齿锯对护栏前段部分进行破拆。14时28分，救援人员协助120将该驾驶员抬出，移交公安部门处理。本文来源：华商网-华商报责任编辑：荀建国_NN7379",
    "Source": "Netease",
    "KeyWords": "奥迪车,驾驶室,护栏",
    "Title": "两车碰撞护栏插入奥迪驾驶室 司机头部被击中身亡_网易新闻",
    "Comment": {
        "Total": 1555,
        "Content": "自觉性有用但是有限。人要守规矩终究还是靠外部监管。 不是一次了，经常插死人。 应该设成网状的…… 就是想进来看看有没有人说护栏有毛病 有些物种，离了猪圈还真心不行 开奥迪的都很快，哈哈 要是日本车就不会喷护栏了 需改不。 护栏是让人、车去碰撞的？？？那江河湖海岂不是都要盖起来啊？ 护栏本身没问题，断裂的护栏才要命。路上很多护栏被撞变形了，都不及时维修 图呢？ 这下有钱没命花了😄 生命脆弱，安全驾驶 车祸猛于虎 本身设计就应该有问题 是啊！月亮一直没有吃过饭，却一直围着地球跑得那么欢！ 流星月亮地球太阳系有发动机么？没有!他们却高速在宇宙中运行!为什么？因为他们的运行轨道本身就是太空高速时空隧道!他们的运行路线一半为去路一半为来路，周而复始地运行着!地球自转公转着，本就没有东西南北上下左右等方位!谁定的？我们的天父啊!目的只有一个，告诉人类我们天父的星座方位!所以九曲桥的方向始终对着东北方!在宇宙一切物质中，永远是子体围绕母体运动，这是恒定的!所以地球自转并围绕太阳公转!因地球是自转公转的，所以根据地球的东西南北是找不到星外文明的星座方位的!只有找到太阳的上下前后东西南北才能准确地给天父星座方位定位!我们天父星座方位在太阳系东北上方第九颗恒星那里!那里以双伴恒星为中心带动周围108颗恒星运动着! 中国的交通护栏质量太差了，简直就是垃圾只能伤人。 开豪车的死了？ 一位不到一年驾龄的司机一夜未归，第二天早上才匆匆到家，妻问何故，男答：昨夜路口遇一黄灯，闪烁不停，一直等到今天早上六点才恢复正常，闯黄灯扣6分，路口倒车扣9分。妻又问：为何不打个电话？丈夫又答：开车打电话扣3分啊。妻又问为何不下车打电话？丈夫又答：下车属于违章停车也要罚款。妻又问：为何不绕路离开？丈夫再答：该路段禁止掉头，开车逆行扣12分啊！妻子又问：让你去接孩子，可孩子怎么回来说在后斗里呆了一夜？男子说：咱家的车是单排，未满14岁不让坐前排。妻子又说：不让闯黄灯你不会右拐上高速？找服务区过夜啊！男子哭了：媳妇啊！我是新手，头一年不让独自上高速！看到该男子冻得直哆嗦，妻问：在车内，何故冻成这样？夫答：下了一夜的大雪，我在外不停擦号牌，遮挡号牌据说扣12分啊！哎，开个车真他妈难！ 年底了，大家注意安全 夺命护栏，设计得很操蛋 与此相比，城市的铝合金护栏戳死好多了，这么明显的设计缺陷，却没有人去改 天天都有人去投胎耶[鄙视][鄙视][鄙视] 说好的德系车安全性高呢？ 你是不合格的喷子还是混入喷子的卧底？面包车没事儿是因为栏杆没有插到它而是插进了奥迪， 谬论，瞎逼逼，明明可以用安全的铁质焊接护栏，非要用组装护栏 护栏。。特别是城市的。那是相对于不守规则的人群的特殊产物。试想大家的守规矩要那东西干嘛。 绳命如此地脆弱也！且行且珍惜吧！…… 确实是护栏设计问题，已经好多起插入驾驶室事故了。 笑。。开个车的确不容易。。。 人家发个帖，你至于嘛 试问哪的大家能守规矩？ 照你说，那还需要法律和执法人员干啥呢？？？ 开车需谨慎，丧命风险大。 汽车发明后经常出车祸死人，汽车就不应该存在 又有谁为这个存在安全隐患的护栏事故负责？？？？？？？？ 护栏是为了降低交通事故，不是为了发生事故后造成二次伤害。 这种护栏设计有问题，上部就不应该设置一条长杆的 奥迪太垃圾，你看面包车怎么没事 你要不是天才，就她妈的是神经病，赶快回院去 浪费纳税人的钱，要纳税人的命，有人管没有，有没有人管 这种护栏设计有问题，上部就不应该设置一条长杆的 我是医生，二三楼请慢慢地让开，我医院护工正在悄悄接近一楼。 与此相比，城市的铝合金护栏戳死好多了，这么明显的设计缺陷，却没有人去改 护栏的唯一目的是为了规范交通秩序！ 天朝的人必须得一个车道一个车道地夹起来见缝就插针这已经是不争的事实 应该找护栏赔钱 不是一次了，经常插死人。 这就叫报应 流星月亮地球太阳系有发动机么？没有!他们却高速在宇宙中运行!为什么？因为他们的运行轨道本身就是太空高速时空隧道!他们的运行路线一半为去路一半为来路，周而复始地运行着!地球自转公转着，本就没有东西南北上下左右等方位!谁定的？我们的天父啊!目的只有一个，告诉人类我们天父的星座方位!所以九曲桥的方向始终对着东北方!在宇宙一切物质中，永远是子体围绕母体运动，这是恒定的!所以地球自转并围绕太阳公转!因地球是自转公转的，所以根据地球的东西南北是找不到星外文明的星座方位的!只有找到太阳的上下前后东西南北才能准确地给天父星座方位定位!我们天父星座方位在太阳系东北上方第九颗恒星那里!那里以双伴恒星为中心带动周围108颗恒星运动着! 天天都有人去投胎耶[鄙视][鄙视][鄙视] 绳命如此地脆弱也！且行且珍惜吧！…… 撞电线杆也会死，撞行道树也会死是不是都设计的操蛋？ 外国也有护栏的 慢的好 有些物种，离了猪圈还真心不行 死神来了 你要不是天才，就她妈的是神经病，赶快回院去 与此相比，城市的铝合金护栏戳死好多了，这么明显的设计缺陷，却没有人去改 又有谁为这个存在安全隐患的护栏事故负责？？？？？？？？ 开车是安全第一。 又有谁为这个存在安全隐患的护栏事故负责？？？？？？？？ 护栏本身没问题，断裂的护栏才要命。路上很多护栏被撞变形了，都不及时维修 这下有钱没命花了😄 车祸猛于虎 本身设计就应该有问题 因为这种护栏问题，本地已经死了好几个。。。杀人的官僚啊 它是非正常人类研究院首席被研究员 是啊！月亮一直没有吃过饭，却一直围着地球跑得那么欢！ 谬论，瞎逼逼，明明可以用安全的铁质焊接护栏，非要用组装护栏 汽车发明后经常出车祸死人，汽车就不应该存在 悲哀啊 年底了，大家注意安全 这怎么撞的... 夺命护栏，设计得很操蛋 我是医生，二三楼请慢慢地让开，我医院护工正在悄悄接近一楼。 天天都有人去投胎耶[鄙视][鄙视][鄙视] 本身设计就应该有问题 2楼，你就这么说你全家么 你是不合格的喷子还是混入喷子的卧底？面包车没事儿是因为栏杆没有插到它而是插进了奥迪， 我感觉他是天才！ 你意思又讽刺国内是吧？哪国法律最完善？为什么完善？还不是缝缝补补的次数多？为什么次数多？法律跟栏杆，其实效果所以一样的！ 悲哀啊 人家发个帖，你至于嘛 又有谁为这个存在安全隐患的护栏事故负责？？？？？？？？ 有个声音在对他呼唤：快逃吧！快逃哟！疯女人要“抢”我几万块！！！ 又有谁为这个存在安全隐患的护栏事故负责？？？？？？？？ 这种护栏设计有问题，上部就不应该设置一条长杆的 呵呵 安装护栏是让你们开车去撞的？ 又有谁为这个存在安全隐患的护栏事故负责？？？？？？？？ 生命脆弱千万珍惜！ 你这反应很中国，出事不是第一时间找事故真正原因，而是马上找背锅的 这种护栏设计有问题，上部就不应该设置一条长杆的 撞电线杆也会死，撞行道树也会死是不是都设计的操蛋？ 奥迪太垃圾，你看面包车怎么没事 本身设计就应该有问题 2楼说的没错 护栏。。特别是城市的。那是相对于不守规则的人群的特殊产物。试想大家的守规矩要那东西干嘛。 生得计划死得随机。 与此相比，城市的铝合金护栏戳死好多了，这么明显的设计缺陷，却没有人去改 你不去撞，不代表别人不会撞你，然后撞到护栏上。这东西不能弄成塑料软橡胶的吗？护栏其实就是个屏蔽车掉头的作用，真撞上去了又挡不住车。 今年我们这又装了不少，还加高了！好处是阻止了行人乱窜马路。 护栏伤人很多次了 一声叹息，不过谁也无法阻止五菱再次获胜。 应该设成网状的…… 一条生命就这样没了？！ 就是想进来看看有没有人说护栏有毛病 [微笑][微笑][微笑] 出门在外一定要注意安全，开车不可以过快啊， 可怕，我是来看评论的 悲剧了。 开奥迪的都很快，哈哈 要是日本车就不会喷护栏了 需改不。 不会的，只要不是控制评论 护栏是让人、车去碰撞的？？？那江河湖海岂不是都要盖起来啊？ 高楼、江湖…死的人更多呢。 图呢？ 人死了钱没花完，女人没操够多悲哀 开那么快干嘛 多少车祸证明护栏是死亡的帮凶起诉护栏吧 要是德国车……唉？是德国车啊…… 怎么了 [微笑][微笑][微笑] 大家没注意到，该文除了天父是重点之外，还提到了东北这个重点！ 可怕 中国的交通护栏质量太差了，简直就是垃圾只能伤人。 开豪车的死了？ 不，是精神病！ 护肤 悲哀啊 这车丢了德系的脸 谢谢你! 流星月亮地球太阳系有发动机么？没有!他们却高速在宇宙中运行!为什么？因为他们的运行轨道本身就是太空高速时空隧道!他们的运行路线一半为去路一半为来路，周而复始地运行着!地球自转公转着，本就没有东西南北上下左右等方位!谁定的？我们的天父啊!目的只有一个，告诉人类我们天父的星座方位!所以九曲桥的方向始终对着东北方!在宇宙一切物质中，永远是子体围绕母体运动，这是恒定的!所以地球自转并围绕太阳公转!因地球是自转公转的，所以根据地球的东西南北是找不到星外文明的星座方位的!只有找到太阳的上下前后东西南北才能准确地给天父星座方位定位!我们天父星座方位在太阳系东北上方第九颗恒星那里!那里以双伴恒星为中心带动周围108颗恒星运动着! 确实是护栏设计问题，已经好多起插入驾驶室事故了。 笑。。开个车的确不容易。。。 怎么喷，喷护栏还是喷车？在线等 与此相比，城市的铝合金护栏戳死好多了，这么明显的设计缺陷，却没有人去改 试问哪的大家能守规矩？ 照你说，那还需要法律和执法人员干啥呢？？？ 开车需谨慎，丧命风险大。 车很耐撞，人撞不起，且慢且珍惜。嘿嘿 你要不是天才，就她妈的是神经病，赶快回院去 护栏是为了降低交通事故，不是为了发生事故后造成二次伤害。 应该找护栏赔钱 护栏怎么成为了讨论重点？不应该是安全驾驶吗？ 中科院么 狭路相逢勇者胜！ 一位不到一年驾龄的司机一夜未归，第二天早上才匆匆到家，妻问何故，男答：昨夜路口遇一黄灯，闪烁不停，一直等到今天早上六点才恢复正常，闯黄灯扣6分，路口倒车扣9分。妻又问：为何不打个电话？丈夫又答：开车打电话扣3分啊。妻又问为何不下车打电话？丈夫又答：下车属于违章停车也要罚款。妻又问：为何不绕路离开？丈夫再答：该路段禁止掉头，开车逆行扣12分啊！妻子又问：让你去接孩子，可孩子怎么回来说在后斗里呆了一夜？男子说：咱家的车是单排，未满14岁不让坐前排。妻子又说：不让闯黄灯你不会右拐上高速？找服务区过夜啊！男子哭了：媳妇啊！我是新手，头一年不让独自上高速！看到该男子冻得直哆嗦，妻问：在车内，何故冻成这样？夫答：下了一夜的大雪，我在外不停擦号牌，遮挡号牌据说扣12分啊！哎，开个车真他妈难！ 护栏。。特别是城市的。那是相对于不守规则的人群的特殊产物。试想大家的守规矩要那东西干嘛。 金币 奥迪质量也不过如此 流星月亮地球太阳系有发动机么？没有!他们却高速在宇宙中运行!为什么？因为他们的运行轨道本身就是太空高速时空隧道!他们的运行路线一半为去路一半为来路，周而复始地运行着!地球自转公转着，本就没有东西南北上下左右等方位!谁定的？我们的天父啊!目的只有一个，告诉人类我们天父的星座方位!所以九曲桥的方向始终对着东北方!在宇宙一切物质中，永远是子体围绕母体运动，这是恒定的!所以地球自转并围绕太阳公转!因地球是自转公转的，所以根据地球的东西南北是找不到星外文明的星座方位的!只有找到太阳的上下前后东西南北才能准确地给天父星座方位定位!我们天父星座方位在太阳系东北上方第九颗恒星那里!那里以双伴恒星为中心带动周围108颗恒星运动着! 说好的德系车安全性高呢？ 护栏的唯一目的是为了规范交通秩序！ 取消护栏 不管你们有没有看得懂，反正我没看懂 悲哀 奥迪连面包车都撞不过？我表示怀疑 死神来了 我们这也发生过同样事情件。 生的计划，死的随机 厉害👍 呵呵 是因为太忙 一本正经的胡说八道[鄙视] 绳命如此地脆弱也！且行且珍惜吧！…… 注意安全 是啊 安全无小事，宁停三分不抢一秒。 劫难 无人驾驶的高科技何时落地市场化？光听说有无人驾驶公交已经开始运行了。 宝鸡 图呢？ 安全第一 你要不是天才，就她妈的是神经病，赶快回院去 开车需谨慎，丧命风险大。 浪费纳税人的钱，要纳税人的命，有人管没有，有没有人管 生命脆弱，安全驾驶 [疑问][疑问][疑问][疑问][疑问] 厉害 怎么没图 最近有什么教派产生吗 我根本看不懂他说什么，尤其后半部分 珍爱生命…小心驾驶！ 都慢点 后来这车去哪了 流星月亮地球太阳系有发动机么？没有!他们却高速在宇宙中运行!为什么？因为他们的运行轨道本身就是太空高速时空隧道!他们的运行路线一半为去路一半为来路，周而复始地运行着!地球自转公转着，本就没有东西南北上下左右等方位!谁定的？我们的天父啊!目的只有一个，告诉人类我们天父的星座方位!所以九曲桥的方向始终对着东北方!在宇宙一切物质中，永远是子体围绕母体运动，这是恒定的!所以地球自转并围绕太阳公转!因地球是自转公转的，所以根据地球的东西南北是找不到星外文明的星座方位的!只有找到太阳的上下前后东西南北才能准确地给天父星座方位定位!我们天父星座方位在太阳系东北上方第九颗恒星那里!那里以双伴恒星为中心带动周围108颗恒星运动着! …… 杀人护栏 生的计划，死的随机。<br>热爱生活，珍惜生命。 ",
        "Reply": 142,
        "Link": "http://comment.news.163.com/news2_bbs/D6N4R71500018AOP.html"
    },
    "PublishTime": "12/28/201701:31:05",
    "URL": "http://news.163.com/17/1228/01/D6N4R71500018AOP.html"
}