{
    "Title": "1-2日京津冀扩散条件转差 部分地区或现重度污染_网易新闻",
    "PublishTime": "12/31/201717:36:00",
    "URL": "http://news.163.com/17/1231/17/D70JHG0C00018AOQ.html",
    "Source": "Netease",
    "KeyWords": "污染,华北,天气",
    "Comment": {
        "Reply": 56,
        "Content": "来了 都限行这么久了，还不行么 新的一天不是蓝天。 不是说煤改气后就好了吗？ 京津冀的雾霾都扩散到哪里去了呢？ 雾霾:怪我咯 赶紧拉闸限电。 前些日环保部刚说京津冀入冬以来空气质量明显好于往年，是大力推进煤改气的主要成果。 以后环保部的雾霾预警看个标题就能知道是不是要刮风或者风停了。就是这么准。 赞一个 这波还没消停呢，又来了！ 新年第一课！！ 健健康康 扩散条件转差<br>外部原因造成的喽 猪狗不如 不是说煤改气后就好了吗？ 赶紧拉闸限电。 反反复复 都怪你天天粉饰太平 悲催 不是说煤改气后就好了吗？ 雾霾又来了 实际上还是今年天气冷北风多，这不又来了 已来不及了，土地破坏了，已不可逆转！ 气不够，又烧煤了。 三天不能做饭， 不是说煤改气后就好了吗？ 要恢复常态的节奏 不是说煤改气后就好了吗？ 谁也没办法。 雾霾:怪我咯 污染指数 😇 😝 又来了～～ 讨厌。 新的一天不是蓝天。 京津冀的雾霾都扩散到哪里去了呢？ 又来了 前些日环保部刚说京津冀入冬以来空气质量明显好于往年，是大力推进煤改气的主要成果。 驭风而行 来了 以后环保部的雾霾预警看个标题就能知道是不是要刮风或者风停了。就是这么准。 好！ 这波还没消停呢，又来了！ 明天下午就可以 限行限电 又来了 扩散条件转差<br>外部原因造成的喽 工作 健健康康 猪狗不如 路过 反反复复 都怪你天天粉饰太平 平安 👿 悲催 老天爷是咋地啦人类下这么大力量管好自己不发生污染天咋还这样，真是地 该来的总会来 赞一个 实际上还是今年天气冷北风多，这不又来了 不好的消息 顽症，病根儿在哪儿？ 气不够，又烧煤了。 呵呵 ...... 不是说煤改气后就好了吗？ 要恢复常态的节奏 又来了 又是雾霾 hh 赶紧拉闸限电。 不是说煤改气后就好了吗？ 都限行这么久了，还不行么 不是说煤改气后就好了吗？ 没事，免疫了 雾霾又来了 赶紧拉闸限电。 赞一个 三天不能做饭， 新年第一课！！ 已来不及了，土地破坏了，已不可逆转！ 不是说煤改气后就好了吗？ 不是说煤改气后就好了吗？ ",
        "Total": 581,
        "Link": "http://comment.news.163.com/news2_bbs/D70JHG0C00018AOQ.html"
    },
    "Article": "（原标题：1-2日京津冀扩散条件转差部分地区或出现重度污染）中新网12月31日电据环境保护部宣传教育司官方微博消息，未来三天，华北中南部和西北局部地区可能出现重度污染。1-2日，京津冀及周边区域扩散条件转差，区域中南部以轻至中度污染为主，部分地区可能出现重度污染。资料图：雾霾中的北京建国门桥地区。中新社记者李慧思摄1-2日，华北北部、东北、华东和华南大部以良至轻度污染为主，西北、西南大部，华东中南部以轻至中度污染为主，西北陕西关中地区、华北中南部以中至重度污染为主。3日，东北和西南以优良为主，局地可能出现轻度污染。华北、华东、西北和华南以良至轻度污染为主，华南局地可能出现中度污染，西北局地可能出现中至重度污染。京津冀及周边区域中至重度污染过程提示：1-2日，扩散条件转差，近地面湿度较大且伴有区域性逆温，区域中南部以轻至中度污染为主，部分地区可能出现重度污染，影响范围包括石家庄、保定、衡水、邯郸、邢台、沧州、济南、德州、聊城、郑州、鹤壁、安阳等，其中2日晚间南部地区污染最重，PM2.5小时浓度峰值可能达到200-250微克/立方米。本文来源：中国新闻网责任编辑：李杭_BJS4645"
}