{
    "Comment": {
        "Link": "http://comment.news.163.com/news_shehui7_bbs/D6LKSUHT0001875P.html",
        "Reply": 521,
        "Content": "很遗憾，没有瞒过你们，哎！ 我每次出差都是自带铺盖在天桥底下睡 凯并斯基只是输出品牌，最多派几个高管过去，管理还是酒店运营方弄的，别抱太大希望！包括什么温德姆，铂尔曼之流…… 没事，冬波老铁习惯炕上喊麦，睡床上不得劲☝️🎤☝️ 我自带集装箱 十分遗憾，住店的旅客都用杯子喝水了 穷逼就是穷逼 十分遗憾，并对爆料此事件的相关媒体表示强烈愤慨。 差不多吧，以前在餐厅屁大的事，老板一路小跑过来就跪下了，吓死我了 牛逼。幸亏我自带洗漱用品。 你喝水杯子，浴巾自带吗？ 外交辞令听着比马桶刷都恶心 那还住个锤子酒店啊 他的意思是，被人发现了很遗憾。遗憾被人发现了 十分遗憾，竟然被你们给发现了！ 嘿，富逼，马桶水好喝吗？[不屑] 记得还有牙刷刷马桶的，只能说，5星都这样，其他酒店还怎么住？ 你遗憾个几把[喷水] 给贪官与其情妇住还是很般配的哦，干净的床反而不合适。普通人也住不起五星级的。 枕头被子别忘记带。通常枕头我都垫在她屁股下面… 谁拍的 吓得我火速卸载了卡巴斯基安装包 还真带了。😏，保温杯，浴巾。 加强预防措施，防止再被偷拍 素质不高是2000块惹的祸吗 体谅？有这借口就能马桶刷刷杯子？ 怪不得我们这的凯宾斯基改成温德姆了 十憾然拒 装水容器都不用，自己买水上去。 我出门一般都是下塌在自家饭店。 这就是我为什么不住豪华酒店的原因！太特么脏，叫我咋住！还是老老实实的去网吧蹭睡吧！ 马桶，帐篷和睡袋，一个不能少 好多酒店都这样了这种现象早就有了希望有关部门好好管管我住酒店洗漱都是用自己的 跟50块钱的旅社没有区别，同意的顶 在墙外，估计赔到你们掉裤子😔 充分说明卫生部门防疫部门都是摆设可以解散了 我做过酒店前台，这么给你们说吧！有时候一位客房大姐需要负责一个楼层的所有房间，具体看各酒店客房大姐人数（通常酒店为节约人工成本，雇员都少）！业绩与打扫的房间数挂钩，如果高峰时段退房的人数较多，同时到店客人较多，房间不够用，我们前台会催促客房大姐放干净房，客人等的急，（为了顾客满意度和评价）我们会不断催促客房打扫房间，一位大姐需要几分钟打扫一个房间，（包括换被套床单，拖地，倒垃圾，放置消费品，处理异味等），你觉得短时间内做得到吗？所以客房大姐为了节约时间或者多打扫房间就会……！还有就是客人到了退房时间，却拖延的，造成开房与退房客人高峰，开票，增加了等待时间，所以大家都体谅吧！ 以人为本 我不会再去住了，十分遗憾！ 日本出这样的事会剖腹自杀以谢罪 呵呵，5星都这样，那么其他可想而知啦！ 这个回复，一副高高在上的姿态，大体意思就是，我一直在提供好的服务，至于发生了这样的事情，我很抱歉，以后我一定严格要求。真的太贱啦，比我大贱哥的名字还贱。 正直与善良是中国最贵的奢侈品 那出外你住哪？ 杯子脏我不怕，他妈的能录到视频我真他妈的害怕了！ 人心通通的坏了 你说的是大实话，知道为啥吗？有法不依，执法不严，违法不究。 管理完全失控了，这个和酒店管理层有很大关系！应该入刑事罪，危害酒店客人人身安全！ 国内酒店大多都是这样的服务，只是你不知道罢了，见怪不怪了，习惯就好，酒店模式世界第一 撒比才去消费，给我钱也不行 强烈谴责，追究责任，罚款处理！！！ 这就是我不去凯宾斯基的原因 这种事太常见了 1K+的门市价哈尔滨哈宾斯基酒店里服务员平均工资多少？ 太恶心了 有人搞 说别人穷逼的百分百是穷逼 和外交部学的？ 穷逼就是穷逼 我也自备，用杯子也要先洗再烫，但是五星酒店的浴巾和床总得直接用吧？这也太恶心了！ 辛亏我住不起五星 这样就完了，说句抱歉反倒不是道歉没诚意。 看监管部门这次怎样处理，真是不杀不足以平民愤 浴巾就不要用了，谁知道别人有无传染病呢？一定要自备毛巾。床上用品都是干的，基本不会有多大的事情的 酒店不破，是人破 老板快手直播喝马桶水，轻松解决舆论风波，还能变网红，挣🚀[微笑] 好恶心(⊙o⊙)啊！保洁员在她家是不是也这样。 住酒店自带瓶装水，没毛病 我情商有没有问题以你的智商也看不透，就你的这素质也就那样了，难怪要匿名。 有人搞 牛逼。幸亏我自带洗漱用品。 我也很遗憾 你遗憾个几把[喷水] 酒店好坏看地方，因为基层招的都是本地人，素质就这样谁也没办法，哈尔滨也就香格里拉强一点 这破酒店 改什么不过是资本游戏，你瞎激动什么 早知道就不进来了，笑死我了，我正在拉屎，本来很漂亮的一根屎，结果一笑给夹断了，哼！讨厌… 吓得我赶紧把凯宾斯基大旅馆退了换成希尔顿大旅😂😂😂😂 再牛逼的酒店也管不了散漫的员工，这样的服务人员比比皆是，越是低技能，没文化的越没有底线 我都是开好房蹲在门口走廊睡的，我嫌房间里脏[微笑] 那个杜蕾斯的，神回复 50块钱的旅社也未必能干得出来，因为这样的旅社规模较小，一般都是家族成员打理，还是比较干净的 三家五星级！一个没落下！快过年了不知道么？ 我住任何一家酒店都是自备洗漱用品，茶杯也是自备的，绝不用店家的，除了床和被褥，以后电热水壶也要考虑自备一个可折叠的…… 现在有几个人还用酒店客房的杯子啊！ 你喝水杯子，浴巾自带吗？ 以后不会再去了…… 怪不得我们这的凯宾斯基改成温德姆了 洗漱用品，毛巾都带自己的，如果带小孩出去垫单床套我都带着。确实累。 我之前认识个厨师，他说对菜有意见的和开劳斯莱斯的都会往菜锅里吐口水。对菜有意见我可以理解，但开豪车的咋解释？现在的一部分“底层劳动人员”因为贫富差距而产生多种扭曲心理。 又不是见了你妈，我鸡动了？ 应该给每位保洁人员配备类似‘执法记录仪’的装备！ 知道为啥这么不在乎么，在东北开大型酒店，都不靠这个挣钱。酒店只是给别人看的，要不你没有事业，怎么解释巨额收入？ 操作者典型的仇富心理。管理者在看操作者工作后是鄙视与窃喜。一群不顾行业发展的小人。我想问国家旅游局，酒店管理部门你在干嘛！！！！ 都特么是老斯基了，怕个鸟？ 跟50块钱的旅社没有区别，同意的顶 打扫卫生的工作人员素质真是跌破底线应该好好培训一下 家庭打理的更不敢住，家庭打理的肯定是床单能不换就不换 是吗？你这穷逼一个月交多少个税？ 华为傻逼 果然有问题 没用刷马桶的刷牙就不错了 没素质，还洋洋得意的在这里说，真是恬不知耻 那里都一样，以前住旅馆，不带厕所晚上直接尿到开水壶了！别人也是那样做！ 我狗东买的折叠水壶200左右，真的是很方便 不都是这样的吗 十分遗憾以后住宾馆自带被单及洗漱用品 他妈的，我现在就在这呢……刚看见 美国人也有内涵了 吓得我火速卸载了卡巴斯基安装包 经常出门，一条自己的毛巾和各种自己的洗漱用品，一个喝水杯子，两瓶矿泉水，一个0.6升的电热水壶，其他的就要仔细检查床品，有任何瑕疵，要求换了再住就行 烫个毛毛，蹲在上面就行了！要不先拉屎后洗澡就行了！！ 又不是什么秘密，也不是第一次曝光了。这下好了，又要多陪酒几次。 记得还有牙刷刷马桶的，只能说，5星都这样，其他酒店还怎么住？ 酒店，我一律都不会用他们水杯，水壶，毛巾！大不了买瓶小矿泉水漱口！ 不可在经济落后地区住高档酒店！等同于住棚户区房子开着宾利轿车！切记 哈尔滨酒店我再也不住了 太可怕了 所以贴身用品还是自己带吧 请把b还给牛，牛还需要性生活。 你以为烧水壶里装过什么？ 唉我都是烧两壶开水把杯子马桶圈淋浴地垫烫烫，顺便水壶也烫了。这个不能细想[窃笑] 牛逼。幸亏我自带洗漱用品。 你喝水杯子，浴巾自带吗？ 你一当地的住酒店干啥？ 十分遗憾，竟然被你们给发现了！ 我以前在城市便捷连锁酒店做前台收银两三年！我所在的深圳罗湖店，卫生要求很严格的，一个主管，一个部长，盯着服务员搞卫生，一根头发丝都要收拾干净，擦马桶水渍和浴室玻璃水渍分别不同颜色的废弃毛巾！各个连锁店的服务员和前台人员都时不时参加内部比赛和举行活动！酒店提供早餐，品种多类，床单被铺都是客人走了就换新的。酒店客房环境是现代追求的简约生活，大家可以考虑这个酒店，价格也不贵！酒店的毛巾不建议用，擦干水渍就好了，不要擦私密部位。因为洗涤公司都会放各种化学洗涤用品的！最好不要裸睡！文中的员工这样做，都是管理不到位啊，或者管理者看到不批评，就等于默许这种行为！员工素质也是有问题的，有责任心的员工是不会那样不注意卫生的！ 小喷们，你以为这种酒店你住得起吗？是，咬咬牙也住得起。 北京一酒店:浴巾当抹布擦完马桶擦茶杯 听说过水壶煮内裤吗？ 牙刷还有拆过的？不都是新的，刷过马桶就看出来了 眼不见心不烦！！！喝瓶装水自己带热水器，就算瓶装水你到罐装的地方去看你也不想喝！！ 不密封的我不用 那个杜蕾斯的，神回复 遗憾你咋不去死 形象是毁了但该住的还是回去的我是一平民百姓住不起估计有钱人也不会去住二三百元的店 其实真心想住不贵的，ota就能降一半，如果打听到他们有哪些协议公司，淘宝定制一个工作证，通过hrs订更便宜。 凯宾斯基酒店心里狠狠的对爆料的媒体骂了一句：麻辣隔壁！你不爆料我啥事都没有！ 怪不得我们这的凯宾斯基改成温德姆了 遗憾？ 回复很完美 [窃笑]卡巴斯基：？？？？？ 住酒店第一件事就是烧开水杯子牙杯马桶圈全部烫一遍 我本来就住不起酒店，十分遗憾 十分遗憾，下次不会了，不会再给你们曝光了…… 还好，我一般都是住丽晶大宾馆！ 凯宾斯基酒店，斯基，原来是鹅杂 还是诸位仁兄看的仔细，是我引用错误，贱男这里受教了！ 说的好像你住过似的 尼玛！最起码停业整顿吧！道歉就可以？？？没有罚款？？？？ 又不是老板干的事，咋道歉？！酒店规章制度都有，员工不遵守也没办法，开除了再招聘一个呗，新招的员工也不敢保证哟… 非常遗憾，罚到你破产 马桶洗抹布？自己洗的时候不恶心吗？ 哈哈哈，中国特色 😂还有脸挂五星级 花高价住个脏店 我的逼可以用吗，帮我吹下 我不会再去住了，十分遗憾！ 这个回复，一副高高在上的姿态，大体意思就是，我一直在提供好的服务，至于发生了这样的事情，我很抱歉，以后我一定严格要求。真的太贱啦，比我大贱哥的名字还贱。 错了遗憾和抱歉有区别的，根本就没道歉 国内随便怎么整只要你关系和疏通到位都毛事没有！不管哪个行当 西安的换成了锦江国际酒店了 垃圾啊，早晚倒闭 我就是哈尔滨的，前天才去这个酒店、看了这视频感觉全身发麻 出门住店就是花钱租一晚“毛坯房”，特别不爱出门，国人进入互坑时代 不用遗憾，反正我也住不起 罚款到其破产位置！ 这符合国情 东北的酒店正常毕竟都是东北人在做事 很遗憾被你们发现了 凯宾斯基，旁边那削面，来三大碗，给她来一小碗，再来一辫子蒜 自己带生活用品吧 这酒店领导压根就没管事的但凡上点心能不知道 这酒店还能住吗？ 东北人都这德行 牛逼。幸亏我自带洗漱用品。 你喝水杯子，浴巾自带吗？ 没有抱歉哦，别人是遗憾 楼上你说的是杜蕾斯吗？ 我在宇宙飞船上看你们装逼[微笑] 劲量不去呗，出去玩自己带毛巾 没素质的服务员就该重罚，太特么垃圾了！ 记得还有牙刷刷马桶的，只能说，5星都这样，其他酒店还怎么住？ 最恶心这种打着官腔一点儿诚意都没有的态度，全文连个“道歉”都没有，也不知道哪来的这份嚣张 千万别用京东，说一套做一套，我是多年京东钻石会员，今年12月初，我的京享值一下子被扣了三万多，到现在也没有解决问题。@刘强东 酒店有一定责任，中国人个人素质要提高 有些便宜的家庭旅馆比这个干净! 下回注意别被录下来 错，50块钱比这好，有一次性纸杯 关键得拿刷把刷这些服务的臭嘴！ 我都是开好房在里面搭帐篷睡 月初去的凯宾斯基，看到这个恶心死了 你让一个人负责一个房间，她保证按要求操作。你给人家不可能完成的任务，人家不乱套才怪！这是素质的问题吗？这是社会制度酒店制度的问题！ 坚决不住 好像我也住不起 五十块钱的可能会好一点，毕竟自己经营会更用心，而且有相关单位管。像这种大酒店，一般的相关单位小喽啰去都不敢去，你管你丢铁饭碗。所以任由酒店瞎搞，出了问题老板搞得定！ 一句十分遗憾就能挽回信任吗 年轻的时候没钱，出门都是学医的丈母娘千叮咛万嘱咐，毛巾、牙刷、牙膏，甚至拖鞋都自己备齐，现在条件好了，出门都是预定的五星级的连锁酒店（其中包括个凯宾斯基），唉:-(想不到还是这般恶心人！咋弄？总不能出门又自备毛巾水杯吧啥的吧。真想爆粗骂人！国外的连锁酒店也这样吗？ 这只是个缩影…… 十分遗憾，被你们发现了！ 只要钥匙能打开房门，管你用什么洗，节假日依然爆满 好恶心 肯定全国到处都这德行 幸好我没点开视频看，凯宾斯基还是我们公司协议酒店，深圳8个8的电话总机都是他们店申请了 还是有区别的，至少住的时候，我们就知道他很脏！ 我日，我还住过凯宾斯基，下次再也不去了 表示十分遗憾是什么意思呢 十分遗憾。再见顺便法克鱿 我不会再去住了，十分遗憾！ 这事官方应该出面重罚罚到他下次再也不敢才行 这个回复，一副高高在上的姿态，大体意思就是，我一直在提供好的服务，至于发生了这样的事情，我很抱歉，以后我一定严格要求。真的太贱啦，比我大贱哥的名字还贱。 正直与善良是中国最贵的奢侈品 这也有人顶？？？？ 五星级招待所 跟50块钱的旅社没有区别，同意的顶 你说的是大实话，知道为啥吗？有法不依，执法不严，违法不究。 幸亏我住隔壁的丽都大酒店 你也住得起，那不是给你准备的 我都是在酒店大堂里打个地铺😁 五星的起码没有针孔摄像头，让你成为91的明星。 .... 我不会再去那个地方了，一点都不遗憾！ 好一个遗憾 哈尔滨版块都不能评论了[鄙视] 别这样说，哪儿都是一样的。 十分遗憾没有隐藏好 东北人都这德行 牛逼。幸亏我自带洗漱用品。 你喝水杯子，浴巾自带吗？ 这都被你们发现了，有点遗憾！ 没毛病 那还住个锤子酒店啊 凯宾斯基，你牛逼，客人都是你孙子 道歉都舍不得？学外国那套遗憾？ 锤子酒店？什么时候出的？我的锤子手机很适合锤子酒店 太直白了 因为缺少信仰，传统文化丢失，上学是应试教育。走到社会只能信仰自己欲望，金钱权力和女人。一旦欲望成了信仰，便会不择手段的去做一些事情。一个国家经济再强大，没有思想上的指导，就不算是强大的国家，最终会走向衰落 记得还有牙刷刷马桶的，只能说，5星都这样，其他酒店还怎么住？ 我擦嘞，我经常一个人在酒店撸，然后用浴巾毛巾擦，万一哪个妹子怀孕了我就万分遗憾了 五星级酒店都这样了，我擦，不敢想象其他的酒店啥情况 太遗憾了。不去了 前面问题原因说对了，体谅说错了，可以体谅大姐，但不能体谅老板的黑心，为了赚钱节约用功成本，还让打扫卫生的大姐背锅！ 😄😄😄😄 我就服了中国了，什么地方都有这样那样的问题，还天天新闻联播，老百姓起码的生活都没保障，无语。 幸好我住酒店都是自带：床、被子、褥子、水杯、毛巾、牙刷 什么时候东北人变成这玩意儿了？ 太恶心了 无语了，他们家日常就用马桶刷刷杯子的。脑残谈体谅！就是人一着急什么事都可以干？ 旅社不会这么干[微笑] 二楼脑子怎么想的？马桶刷刷杯子让体谅？还列那么多理由，这理由多么的牵强，这是道德问题.企业自身问题让顾客体谅，还是那句话，无法用语言表达我的愤怒。 遗憾是啥意思？ 五星级都这样了，其他的不敢想，只能说投胎是个技术活 我见过自带床单，枕巾，浴巾，洗漱用品的。我给他说，你怎么保证餐厅的服务员没在你的饭菜里吐口水？ 怕啥的屎尿也不埋汰都人类自己拉的。有的人还喜欢舔俩眼呢。 正直与善良是中国最贵的奢侈品 橘生淮北为枳 五星酒店必须达到一个要求我才会住：不漏雨！[窃笑] 体谅这个是体谅的事吗有一天你让人逼着吃屎我也会劝你体谅他的 这就是我不住五星级酒店的原因 我自带房车，里面生活用品一应俱全 太他么贱了 加强预防措施，防止再被偷拍 哪里都一样的，管理人员说是分开的，下面工作大姐阿姨工资低，谁还给你分开刷的啊！有一次住酒店准备喝水，放凉开水的杯口居然有一根弯弯曲曲的阴毛，艹，把前台经理叫了过来，问她是怎么回事？是不是你的？保安也跟着进来了，一看笑着跑了！ 东北人垃圾。民意调查，国人憎恶的就是东北人。 我都是开好房间，然后回家睡觉，从不睡酒店 我做过酒店前台，这么给你们说吧！有时候一位客房大姐需要负责一个楼层的所有房间，具体看各酒店客房大姐人数（通常酒店为节约人工成本，雇员都少）！业绩与打扫的房间数挂钩，如果高峰时段退房的人数较多，同时到店客人较多，房间不够用，我们前台会催促客房大姐放干净房，客人等的急，（为了顾客满意度和评价）我们会不断催促客房打扫房间，一位大姐需要几分钟打扫一个房间，（包括换被套床单，拖地，倒垃圾，放置消费品，处理异味等），你觉得短时间内做得到吗？所以客房大姐为了节约时间或者多打扫房间就会……！还有就是客人到了退房时间，却拖延的，造成开房与退房客人高峰，开票，增加了等待时间，所以大家都体谅吧！ 再过了山海关就是山药蛋！ 我不会再去住了，十分遗憾！ 哈尔滨凯宾斯基去年住过。不管哪里的五星酒店，自带毛巾，洗漱包，带床毯子垫在床铺上睡，浴缸从来不用，马桶是蹲在上面使用，不喝热水，喝瓶装纯净水。 这个回复，一副高高在上的姿态，大体意思就是，我一直在提供好的服务，至于发生了这样的事情，我很抱歉，以后我一定严格要求。真的太贱啦，比我大贱哥的名字还贱。 不会再住了，遗憾 杯子脏我不怕，他妈的能录到视频我真他妈的害怕了！ 跟50块钱的旅社没有区别，同意的顶 从来没有去过，永远也不会去那个地方！ 好好的德国🇩🇪品牌啊就特么这么糟蹋了 没事，冬波老铁习惯炕上喊麦，睡床上不得劲☝️🎤☝️ 只是遗憾？不道歉么。 这跟工资也有关系？？原来你们公司是看钱干活的？？佩服！ 别人家一样 整改一段时间而已 遗憾你麻痹 类似情况不是第一次曝光，只能说违法成本太低了。 艹，上个月住过 老老实实带上毛巾牙刷牙膏枕头毯子沐浴露洗发液剃须刀。 所以，出去住宿我们还得用自己的被子浴巾[疑问]，，， 低薪招聘的员工素质一般不高，没有公司荣誉感，没有把工作当作一份事业来做。比如拿三四千那群人，他们工作太多一般就是得过且过。什么样的人拿什么样的工资 虽然我们房费贵，但小费低啊！ 差不多吧，以前在餐厅屁大的事，老板一路小跑过来就跪下了，吓死我了 你这个东北人还未成年？中国已经丰衣足食到了超过看钱干活的地步了？ 牛逼。幸亏我自带洗漱用品。 与蟑螂共眠？ 外交辞令听着比马桶刷都恶心 为啥像小孩子一样把气撒在出头鸟上？用你的屁股想想为啥不去骂zhidu？ 只要不是自己用的或吃的管他妈蛋，国人永远都在相互伤害、以后不管住什么酒店都要自带洗刷用品，床上用品、记住我说的话， 酒店追求利益，精简人员！一个人负责多个房间。酒店责任重大！ 我开了房后，去大堂站一晚上。 这就是外资喜欢做中国生意的原因，虽然我们意识形态管得严，但我们行业标准低啊 虽然我们标准低，但是我们房费贵啊 用钱说话吧，住过的都去索陪! 我彼得罗夫斯基表示不服 给贪官与其情妇住还是很般配的哦，干净的床反而不合适。普通人也住不起五星级的。 我日你妈，马桶刷洗被子，和拿嘴舔马桶有什么区别 主要是职业荣誉感的培训吧，不过工资和员工素质绝对是成正比的 我们投诉无门！我们力量很弱！我们该怎么办！？希望法律能给弱势群体带来更多正能量！<br>新疆石河子市天富供暖公司，暖气不热不解决问题，不通知不提示，反而暴力拆除居家供暖管道，连接头管子一起拿走，不给还！<br>打服务中心电话，接线员态度很差，说不了解情况，并说我没有反应记录，无法解决，让居家户自己去找拆管道的人解决问题，请问，这么大的国企，怎么这样霸道和土匪？请问我们找谁说理去呢！！？谢谢大家支持！请国家也关注我们这些投诉无门的弱势群体！ 去哪里住都得自带贴身用品，什么斯基都不行 自己带被子床单？ 吓得我火速卸载了卡巴斯基安装包 人家根本没有抱歉的意思，人家表示我们很遗憾 其实酒店都差不多 你喝水杯子，浴巾自带吗？ 什么叫遗憾，让你认识反思错误，让你道歉反省，你来个遗憾？遗憾被大家发现问题，下次小心么？ 太脏了，我都睡衣柜 遗憾？？？ 又住不起，不用表态了 跪下舔了没有呢？ 嗯，来吧，互相伤害吧……先富起来的都闪了 我都睡我女朋友身上！！！ 仅仅是十分遗憾,一点歉意也没有？太可恶了 还不罚他个倾家荡产？ 徐志摩说过:她住的城市下雨了，我不敢给她打电话问她有没有带伞，因为如果她说她没带，我会忍不住幻想她湿身的样子打飞机。 人家的意思，很遗憾被曝光了 十分遗憾，被你发现？ 哈哈哈哈哈哈 我现在在东北，东北人的素质让我遗憾。这地方难发展，人素质低，爱装逼，还懒 在墙外，估计赔到你们掉裤子😔 充分说明卫生部门防疫部门都是摆设可以解散了 麻烦这些酒店能不能换些有档次的名字，最近这些年动不动就凯宾斯，纽宾凯，凯宾斯基，纽宾斯 早点倒闭吧 还凯宾斯基 擦完马桶擦茶杯 我不会再去住了，十分遗憾！ 日本出这样的事会剖腹自杀以谢罪 呵呵，5星都这样，那么其他可想而知啦！ 没有职业素养，还有另外一种心态就是，你们住五星级又怎样，有钱又怎样，还不是喝马桶水，再说了我们国家已经进入互害模式，反正都是互相伤害。气数不长了 这个回复，一副高高在上的姿态，大体意思就是，我一直在提供好的服务，至于发生了这样的事情，我很抱歉，以后我一定严格要求。真的太贱啦，比我大贱哥的名字还贱。 就服你 两个有毛关系 ",
        "Total": 6922
    },
    "Article": "#endText.video-infoa{text-decoration:none;color:#000;}#endText.video-infoa:hover{color:#d34747;}#endText.video-listli{overflow:hidden;float:left;list-style:none;width:132px;height:118px;position:relative;margin:8px3px0px0px;}#entText.video-lista,#endText.video-lista:visited{text-decoration:none;color:#fff;}#endText.video-list.overlay{text-align:left;padding:0px6px;background-color:#313131;font-size:12px;width:120px;position:absolute;bottom:0px;left:0px;height:26px;line-height:26px;overflow:hidden;color:#fff;}#endText.video-list.on{border-bottom:8pxsolid#c4282b;}#endText.video-list.play{width:20px;height:20px;background:url(http://img1.cache.netease.com/video/img14/zhuzhan/play.png);position:absolute;right:12px;top:62px;opacity:0.7;color:#fff;filter:alpha(opacity=70);_background:none;_filter:progid:DXImageTransform.Microsoft.AlphaImageLoader(src=\"http://img1.cache.netease.com/video/img14/zhuzhan/play.png\");}#endText.video-lista:hover.play{opacity:1;filter:alpha(opacity=100);_filter:progid:DXImageTransform.Microsoft.AlphaImageLoader(src=\"http://img1.cache.netease.com/video/img14/zhuzhan/play.png\");}if(/(iPhone|iPad|iPod|Android|NETEASEBOBO|blackberry|bbd+)/ig.test(navigator.userAgent)||/safari|chrome|firefox/i.test(navigator.userAgent)&&navigator.plugins&&!navigator.plugins[\"ShockwaveFlash\"]){varstr1='<videocontrols=\"controls\"preload=\"auto\"width=\"100%\"poster=\"http://vimg3.ws.126.net/image/snapshot/2017/12/H/J/VU5LESGHJ.jpg\"style=\"max-height:100%\">';varstr2='<sourcetype=\"video/mp4\"src=\"http://flv.bn.netease.com/videolib3/1712/26/VCcox5475/SD/VCcox5475-mobile.mp4\">您的浏览器暂时无法播放此视频.</video>';document.getElementById(\"FPlayer1404863609673\").parentNode.innerHTML=str1+str2;}暗访知名五星级酒店：马桶刷洗杯子，浴巾蘸马桶水擦地（来源：original）window.NTES&&function(d){varf=function(c){varb=c.getAttribute(\"flashvars\"),a=c.getAttribute(\"repovideourl\").replace(\".flv\",\"-mobile.mp4\");h=d(c.parentNode.parentNode.parentNode),g='<embedsrc=\"http://v.163.com/swf/video/NetEaseFlvPlayerV3.swf\"flashvars=\"'+b+'\"allowfullscreen=\"true\"allowscriptaccess=\"always\"quality=\"high\"wmode=\"opaque\"width=\"100%\"height=\"100%\"type=\"application/x-shockwave-flash\"/>';if(/(iPhone|iPad|iPod|Android|NETEASEBOBO|blackberry|bbd+)/ig.test(navigator.userAgent)){g='<videocontrols=\"controls\"preload=\"auto\"width=\"100%\"height=\"100%\"><sourcetype=\"video/mp4\"src=\"'+a+'\">您的浏览器暂时无法播放此视频.</video>';}h.$(\".video\")[0].innerHTML=g;},e=function(b){vara=d(b.parentNode.parentNode.parentNode);a.$(\"li\").removeCss(\"on\"),b.addCss(\"on\"),a.$(\".video-title\")[0].innerHTML=\"string\"==typeofb.textContent?b.textContent:b.innerText,a.$(\".video-title\")[0].setAttribute(\"href\",b.getAttribute(\"url\")),a.$(\".video-from\")[0].innerHTML=\"（来源：\"+b.getAttribute(\"source\")+\"）\",f(b);};window.continuePlay=function(){vara,b=d(d(\".video-list.on\")[0].nextSibling);3==b.nodeType&&(b=d(b.nextSibling));if(b&&d(\".video-innerinput\")[0].checked){e(b);}},function(){vara={init:function(){if(d(\".video-listli\")[0]){d(d(\".video-listli\")[0]).addCss(\"on\"),this.eventBind();}},eventBind:function(){d(\".video-listli\").addEvent(\"click\",function(b){e(d(this)),b.preventDefault();});}};a.init();}();}(NTES);哈尔滨凯宾斯基酒店致力于为顾客创造友好与安全的环境，并秉承实施最高的专业操作规范。酒店管理团队近日得知，在酒店内据报发生不符合卫生标准和制度流程的事件。我们对于此事件予以极高度的重视，已经和地方当局合作，进行全面调查核实。对于该事件的发生，我们表示十分遗憾，目前酒店已经进一步加强预防措施，确保我们所有的员工均能按照最严格的卫生标准执行操作。官方回应五星酒店\"马桶刷刷茶杯\":事实确实存在12月26日，一段内容为哈尔滨三家五星级酒店的客房清洁视频在网上热传。记者从哈尔滨市卫生和计划生育委员会了解到，初步调查结果显示“用马桶刷刷杯子”“床尾巾不及时更换”“马桶里洗抹布”等事实确实存在，目前已约谈3家酒店。本文来源：哈尔滨凯宾斯基酒店责任编辑：谷莹_NN6577",
    "PublishTime": "12/27/201711:33:33",
    "URL": "http://news.163.com/17/1227/11/D6LKSUHT0001875P.html",
    "Title": "哈尔滨凯宾斯基酒店回应\"马桶刷刷茶杯\":十分遗憾_网易新闻",
    "KeyWords": "凯宾斯基酒店,哈尔滨,凯宾斯基,酒店",
    "Source": "Netease"
}