{
    "Title": "尾号5个8手机号将被强制拍卖 因机主干了这件事儿_网易新闻",
    "URL": "http://news.163.com/17/1226/03/D6I6QCMF0001875P.html",
    "Source": "Netease",
    "Comment": {
        "Total": 6675,
        "Reply": 395,
        "Content": "先转给警察三个月后转回来 诚信第一 手机号都可以执行了，奇葩啊。 58一无法一无发。不吉利的号码，不能买！ 装逼犯 狼心狗肺的悲哀啊！ 这老赖的号谁买使用谁倒霉，不信试试，以观后效。 这号码不吉利 人为财死鸟为食亡 ，， 对，然后你老婆怀孕难产，电话没有电。就等着母子双亡。电话都通知不到你 这就是为什么安徽人不受待见的原因[窃笑] 有这个号码的人是个老赖，看来这种号码也是花钱挣面子，不一定是好人好事 干得好，对于老赖的追债就得不择手段！ 好，支持。 应该拍卖九个8的号码<br>哈哈哈哈哈哈……………… 真相了 ... 湖南益阳胡小贝，借我一千三不还，求支招 这号码拍下是不是每天有追债电话打过来[大笑] 谁用谁知道！ 有人喜欢就够了， 眠不好 干的漂亮多少钱啊 11位号码5个8能算好号？ 这个老赖号不买为妙，但法院的努力值得首肯。 老赖拒不执行，法院居然没有办法！法院的威严何在？ 58同城倒了？ 其实这个号不吉利，没有给主人带来来财富，反而欠债，被拍卖号码，属于霉运当头！敬而远之！ 执行难 啥乱七八糟的玩意啊？ 自古以来的狗东西为什么好号就要拍卖，垃圾号怎么不免费？ 这种号真的好吗 无关痛痒 欠钱不还天诛地灭 沧海一粟而已！如果我这个平民百姓还法院支持吗？呵呵...... 号码拍卖，无语 干得好，支持执行, 感觉大家将欠钱不还的一棍子打死了，都叫老赖。有钱不还的，才能叫老赖，没钱了还在努力还，不能叫吧。多少电视剧上面演，家庭困难，努力挣钱还债都是励志片。<br>我们没有个人破产法，像香港的钟镇涛，破产几年后还清债务。在我们这里是不可能的，因为你没那个环境让你可以去挣钱，重新开始。 号码能值多少钱。不谈5个8了，就是13个8又能代表什么。南方讲8，有人听了象”发”字。有8的人发了吗？官司缠身不能自拨，国人不要太迷8了。 炒作无所谓| 呵呵 累不？送餐员到你家门口都是电话通知突然发现打不进你电话又把餐拿回店里 这老赖的号谁买使用谁倒霉，不信试试，以观后效。 关键是现在手机号码实名制，连手机号都给你拍卖了，这不成原始人了么？连个验证码都接受不到了、 不不不，拍卖，成交价一块钱，剩余债务继续偿还，恶心死老赖。<br>相信老赖买回来不止1块钱吧。 就得有点措施 18888888888 我没怕，又不是我借的，就是烦人。我也骂过这帮二逼，我说谁借钱你找谁去啊，跑来骚扰我去尼玛……哎 新闻一出，估计没人敢买 真相了 8这个数字真的好？？ 东北都是人才 一个工作号码一个私人号码，有什么关系 他知道放在银行里会有麻烦，都装在坛子里埋地下了。 这也行？服了 这个太无理了，这种拍卖，虽然可以用来还钱，但达不到惩戒作用，要知道手机号是有升值价值的，如果经过法院拍卖，就有很大的溢价空间，也就是说，原本号码可能只值1000元，但被拍卖就能卖到10000元，钱是还了，但并不是老赖自己拿的钱，而是号码溢价的钱。 即便全部是你“8”又能如何？赚钱靠关系网或者自己努力，而不是靠一个手机号就能发财 老赖的号码有人敢用 感觉大家将欠钱不还的一棍子打死了，都叫老赖。有钱不还的，才能叫老赖，没钱了还在努力还，不能叫吧。多少电视剧上面演，家庭困难，努力挣钱还债都是励志片。<br>我们没有个人破产法，像香港的钟镇涛，破产几年后还清债务。在我们这里是不可能的，因为你没那个环境让你可以去挣钱，重新开始。 中国人就是爱显摆。喜欢高人一等的感觉。<br><br>这种豹子号，在其他国家不知道，但是在韩国，<br>普通人都会避开这种特殊号码，几乎不会选择要这种多连同号的手机号。<br>所以中国人去了，全部买8888.6666.9999.。。。。<br>不信你要是有在韩国的中国人朋友，问问手机号是不是有很多人都很牛？<br>韩国的手机号申请还有一个特点。<br>就是最后四位您随便选，想要什么号就给什么号，中间四位是自动生成的。<br>所以啊，中国人在韩国至少一半以上是豹子号。<br><br>韩国选号不花钱，来电显示也是默认开通，不关你是什么套餐。<br>羡慕吗？ 看来再多的8也还是发不起来。 你傻中，能用这种号码的，你以为什么电话都能打进去？ 这完全可以说明,手机号里面的8太多,会让你罚罚罚....忒不吉利! 下来身份证都要选吉祥号了，加钱！ 讨债公司需要这个号码，电话一开业务自然上门代收欠款成功率高效率高哈哈哈 这是个奇迹，为何不能找到他银行的存款？ 现在的新闻标题很这个 狗屎一它。 还是你狠 讨债公司买 买好雪藏一年基本就没人打了 黑龙江很黑的 不懂了吧，就算你设置了白名单，那些讨债电话如果很多，并不停的打，虽然你看不见，但是你的手机通信信道是被占用的，白名单的号码想打也打不进来。 中国人就是爱显摆。喜欢高人一等的感觉。<br><br>这种豹子号，在其他国家不知道，但是在韩国，<br>普通人都会避开这种特殊号码，几乎不会选择要这种多连同号的手机号。<br>所以中国人去了，全部买8888.6666.9999.。。。。<br>不信你要是有在韩国的中国人朋友，问问手机号是不是有很多人都很牛？<br>韩国的手机号申请还有一个特点。<br>就是最后四位您随便选，想要什么号就给什么号，中间四位是自动生成的。<br>所以啊，中国人在韩国至少一半以上是豹子号。<br><br>韩国选号不花钱，来电显示也是默认开通，不关你是什么套餐。<br>羡慕吗？ 好几个8？ 你确定用这种号码的人不是二个手机号？ 这号码拍下是不是每天有追债电话打过来[大笑] 老赖号不买为妙 这有什么好怕的？接通后通通回复：老子不打算还钱了有种你弄我 无语中 搞得女朋友还以为我真借了多少钱 黑名单是拦截指定号码，其他号码可以正常接听，但是对于现在的换号软件无能为力。白名单是指定哪些号码可以打进来，未设置的号码绝打不进来。 SB去买？？？到时候天天被追债。。。 还不知道这手机号的机主作了多少孽呢！还拍卖，看看白送有人要不？ 天天被打电话要钱也是挺烦人的 拍卖不是坑人？ 新闻一出，估计没人敢买 用这种号的不是生意人也是有钱人，设置为陌生人电话打不进来？你的号码还有用没 怕毛，接通后直接说：有种你弄死我......... 这个老赖号不买为妙，但法院的努力值得首肯。 土地可黑了呢！不用上肥，庄稼蹭蹭长！！呵呵 中国人就是爱显摆。喜欢高人一等的感觉。<br><br>这种豹子号，在其他国家不知道，但是在韩国，<br>普通人都会避开这种特殊号码，几乎不会选择要这种多连同号的手机号。<br>所以中国人去了，全部买8888.6666.9999.。。。。<br>不信你要是有在韩国的中国人朋友，问问手机号是不是有很多人都很牛？<br>韩国的手机号申请还有一个特点。<br>就是最后四位您随便选，想要什么号就给什么号，中间四位是自动生成的。<br>所以啊，中国人在韩国至少一半以上是豹子号。<br><br>韩国选号不花钱，来电显示也是默认开通，不关你是什么套餐。<br>羡慕吗？ 诚信第一 陌生来电的范围怎么设定？ 我学的经济学原来都是错误的。 此号可以停机几个月，只要每月交点钱进去扣月租即可。 一笑而过 呵呵 现在的新闻标题很这个 现在的新闻标题很这个 真相了 这老赖的号谁买使用谁倒霉，不信试试，以观后效。 已经欠下巨额外账的机主深深的呼了一口气，自言自语道：“终于没有人知道老子的新号码了……” 别说，这个不少钱[狗] 这种号码先回收，停几个月，再续费，慢慢就没啥影响了。 现在的新闻标题很这个 丰字不是风，智能手机也有不足，容易出现笔误。 新号主将陌生来电设置为骚扰来电并拦截了，就没有追债烦恼了。 希望这个号码被某殡仪馆拍到。 买了之后人家也不会用，存着两三年之后再出售 现在的新闻标题很这个 手机号还能拍卖?所有权是移动公司的啊 谁买谁傻逼 这种号码收了之后，都会先放个一年半载的，后续就没有什么影响了 现在的新闻标题很这个 6666 方法不错，但有人买吗？ 买这号码的都是有钱人，不会随便接陌生人号码，这时候白名单功能应该有用 不是你通讯录里的都是陌生来电。 这小编uc来的？ 通讯录里没有的都是黑名单，但终究是下策。 拍卖一个电话号码有什么用，难道他就没有值钱的家产？ 那要是老赖没有东西可卖就让他一直赖着吗？为什么不能判刑呢？一万一年，二十万以上无期，让他有钱没时间享福不就行了！ 这号码拍下是不是每天有追债电话打过来[大笑] 五个8去了，不是断了老赖的财路吗？ 只要有利可图，这帮**连他妈都想拿来拍卖。 这也算财产 年底了老赖一个个都浮出来了 [惊讶][惊讶] 我也是这样认为的，老赖，送给我吧 搞个万民上书制定或修改法律吧，你牵个头 现在的新闻标题很这个 傻逼标题党！！ 地都是地，为什么北京跟地比武汉的要贵？ 标题错别字，直接意思表述错误， 不还钱，就坐牢。。。就这么简单 干得好，对于老赖的追债就得不择手段！ 能查到的可执行资产只有一个手机号了，这明摆着是执行不能了，说什么拒不履行已经没意义了。 自古以来的狗东西为什么好号就要拍卖，垃圾号怎么不免费？ 卖不出去的…… 老赖可恶！ 58一无法一无发。不吉利的号码，不能买！ 欠钱不还最恶心 这个很东北 在真要问我摸摸呢 哦豁 手机号不是免费的么 哈哈哈 买了之后人家也不会用，存着两三年之后再出售 在哪买的到？ 这老赖的号谁买使用谁倒霉，不信试试，以观后效。 讲究诚信 手机号码算个人财产吗？ 买了也是麻烦总接要帐的电话 5万卖给你要不要？ 这个老赖 这得多少钱呀 看看 呵呵 算个人财产，并且可以继承！ 亏你想的出来。 干得好，支持执行, 停机保号半年先 呵呵 这个可能性肯定非常大 用了之后负债累累的电话号码，你还会花钱去买？这不要倒霉吗？ TMD的小编，到底会不会写新闻了！好好的新闻弄个死标题！ 真能扯 把这号卖给谁坑谁 5个8，谁要谁倒大霉。 可以啊关机半年差不多 这号码拍下是不是每天有追债电话打过来[大笑] 对付老赖就是要榨干他们所有可以变卖的值钱物！ 我看到这种标题，莫名的恶心和尴尬，有人一样吗？ 没什么 11位号码5个8能算好号？ 5个8连号在哪儿都算靓号 YY9哦哦 我发呢？ 严肃执行，加大力度；没钱就搬砖干活挣钱还，别让闲着！ 5万卖给你要不要？ 买了买了 尼玛，难道不是“吾发”？ 呵呵呵 我的就是139+区号，可以后区很一般😣 执行到谁手里? 58一无法一无发。不吉利的号码，不能买！ 老赖肯定不会用这号码… 这个说明好号码并不能带来财富和好运 干得好，对于老赖的追债就得不择手段！ 我不要 来咯 58同城倒了？ 真相了 100块钱我要了 有人喜欢就够了， 啦啦啦 这老赖的号谁买使用谁倒霉，不信试试，以观后效。 没有，最多12个 四九年以前 有些事就看你怎么想，58-我发。又好像买房子，都不喜欢18层说什么18层地狱，那1-17层不就是1-17-层地狱了？没有前边的哪来的第18层呢？自古说棺材不吉利，但现在有很多人俩字拆开来看，棺-官，材-财。所以事都是两面性的你看着是好事别人可能看着是坏事，你看着是坏事可能别人觉得是好事。 不不不 超: 再多的钱对我来说，只是一组数字 活该老赖就要这么治 再好的号码对我来说，只是一组数字 哦。 呵呵 号码能值多少钱。不谈5个8了，就是13个8又能代表什么。南方讲8，有人听了象”发”字。有8的人发了吗？官司缠身不能自拨，国人不要太迷8了。 拍点实际点的嘛 先转给警察三个月后转回来 诚信第一 不错 垃圾号哪里收钱了？一个30块钱五十话费 我买了，给我儿子一个练习躲债的机会！ 十五的号估值5000能要 还有一件事就是可以把欠债人的老婆拍卖抵债 10W以上，如果了移动的最贵、电池其次、联通最便宜 手机号也能作为财产？！ 6666 。。？？？？。 这号码拍下是不是每天有追债电话打过来[大笑] 没人用高价回收它的 升官发财 违法行为 没有十三个八是因为权利不够，中国第一人如果哪天孩子气要弄一个试试，你说有十三个八没有？ 在柳州卖的小棺材饰品就是升官发财的寓意 是我发，我发 社会就因为有你们这些败类，炒炒炒炒你M 拍下来之后先关机三个月之后再使用。 很多人并不在意手机的 考试考的吗。 容易挨揍。 看手机就知道你号码多烂[挨揍]舅服你 骗吧尾号5个6的要发财了 58同城倒了？ 要是139➕区号号段就值钱了 …… 自古以来的狗东西为什么好号就要拍卖，垃圾号怎么不免费？ 这号码好吗 又不是现机主欠的挨什么揍 谁买呀 。。。。 58一无法一无发。不吉利的号码，不能买！ 手机号都可以执行了，奇葩啊。 好事啊 老铁有希望了 减肥 好事 老赖拒不执行，法院居然没有办法！法院的威严何在？ 干得好，对于老赖的追债就得不择手段！ 好，支持。 应该拍卖九个8的号码<br>哈哈哈哈哈哈……………… 难道这个老赖欠的是国家的钱？ 那咋找他要钱嘞？ 要是欠个百万千万的咋整？手机号能拍出来！？ 有点怪 ... 有这个号码的人是个老赖，看来这种号码也是花钱挣面子，不一定是好人好事 沧海一粟而已！如果我这个平民百姓还法院支持吗？呵呵...... 眠不好 人家是5个8，不是58 干的漂亮多少钱啊 ！！！ 你自己看的懂吗？小编 呵呵呵呵 一个吊手机号码，算个吊毛！中国这些吊人就没事干了！什么多大个吊事也要上新闻！ 你不拍机主说不定还不想要了 其实这个号不吉利，没有给主人带来来财富，反而欠债，被拍卖号码，属于霉运当头！敬而远之！ 都是朋友害的 执行难 感觉东北多数人特别喜欢手机连号，车牌靓号，好几个东北朋友都是，不是7777就是8868要不就是6669。 什么意思？ 老敕 别人用过的二手货，不要！ 某地人酷爱装逼 [微笑][微笑] 这不能叫不择手段吧 不便宜 666 法律越来越完善！ 小地方的手机靓号值钱吗？ 呵呵 这老赖的号谁买使用谁倒霉，不信试试，以观后效。 ",
        "Link": "http://comment.news.163.com/news_shehui7_bbs/D6I6QCMF0001875P.html"
    },
    "Article": "（原标题：干得漂亮！黑龙江88888手机号将被强制拍卖！原因竟是这个……看谁不敢这么赖！）生活中常会遇到欠钱不还的人因借贷纠纷闹到法院也不少可下面这则案例让小编有点惊讶不已2016年，双鸭山市的裴某、贾某与李某因一起借贷纠纷一直闹得不可开交，最后裴某、贾某被李某起诉到了绥化市北林区法院。经判决，裴某、贾某应立即支付执行款，但两名被执行人一直拒不履行法院生效文书，并且拒不听从传唤。随后，北林区法院执行局干警多次调查被执行人名下财产。经调查，裴某名下手机号码为1*****88888。12月14日，经绥化市中级人民法院批准，北林区法院执行干警奔赴哈尔滨市评估中心，对被执行人裴某手机号进行了评估作价。下一步，北林区法院执行局将依法按照程序，将该手机号拍卖偿还执行款。本文来源：新闻夜航责任编辑：乔敬_NN6607",
    "PublishTime": "12/26/201703:29:45",
    "KeyWords": "手机,拍卖,法院,北林区"
}