{
    "Article": "（原标题：乐视的债，怎么还？贾跃亭的这波“神操作”明白人都看不下去了...）2017年三季报显示，乐视网前三季度净利润亏损16.5亿元，停牌已经8个多月的乐视股价，已从2015年最高点到停牌前跌去近七成，市值蒸发超千亿。乐视股价暴跌的锅，谁来背？而乐视复牌后，资金危机很可能会加剧，供应商面临的处境也将更为不利。那么，乐视的债，谁来还？今天早上，贾跃亭妻子发表的一篇《一位妻子的内心独白》的微博引起了广泛热议，贾跃亭声称“负责到底”却始终未归，妻子尚未还债就称“忍辱负重”。这夫妻俩可谓是横跨两年的“焦点”。“替夫还债”，靠谱吗？贾跃亭面对欠债的“神操作”，也引来一大波“神吐槽”乐视股价暴跌，谁来背锅？2015年下半年，贾跃亭一次性质押了5.07亿股，套现近百亿资金，投入乐视生态业务。两年过去了，梦能不能成不知道，可当初高位质押的股票却一路下跌，早在停牌之前就触及了平仓警戒线。股价大跌——触及质押线——再到触及平仓线，然后因强平而出现股价踩踏，对于二级市场股价来说，是不可承受之重。2017年三季报显示，乐视网前三季度净利润亏损16.5亿元，停牌已经8个多月乐视股价，已从2015年最高点到停牌前跌去近七成，市值蒸发超千亿。乐视股票复盘后持续跌停几率较大，随着复盘后的股价暴跌，乐视市值会一减再减，资金缺口越来越大，届时，乐视将直面生死存亡的最大危机。甘薇“替夫还债”靠谱吗？除了股价危机，乐视的债务危机怎么破，也是一个大问题。从去年6月25日开始，位于北京市朝阳区的乐视大厦，门口躺满了前来讨债的供应商。他们自带高分贝音响设备，现场循环播放“乐视还钱，贾跃亭还钱”的口号。从6月25日就开始来乐视大厦要账，这些供应商表示，乐视一共欠了他们6000万元左右。十多名供应商占据了大厦一层三分之二的空间，只留下一条通道供员工进出使用。据专业人士分析，贾跃亭和乐视的债务沉重而复杂，至少涉及乐视非上市体系对乐视网上市公司庞大的应收账欠款、乐视上市和非上市体系对供应商和经销商的欠款、贾跃亭和乐视体系的银行欠款三大方面。乐视复牌后，资金危机很可能会加剧，供应商面临的处境也将更为不利。乐视的债，怎么还？乐视控股创始人贾跃亭的妻子甘薇今日发布微博，称受贾跃亭的委托，其将负责贾跃亭在国内的债务问题。“顺便澄清：老贾减持股票的钱，减持所得97亿，缴税20亿和质押股票的贷款，质押贷款余额69亿，2014年至今利息支出17.4亿，股权投资约16亿，经营投入约152亿。”甘薇说，“不但没用于个人及家庭使用，还替公司担保100多亿，个人及家庭两套房产和资产都被冻结，负债累累。我将与债务小组全力以赴解决债务问题。”贾跃亭今日也发布回应函，称为更好地解决上市公司债务问题，已委托甘薇、贾跃民全权代理其行使上市公司股东权利和履行股东责任。替夫还债，靠谱吗？今天一早央视财经记者联系了好几位律师，他们一致认为贾跃亭应该尽快回国接受监管，处理相关债务。贾跃亭委托妻子甘薇回国处理债务，委托手续存在瑕疵。北京盈科（上海）律师事务所高级合伙人赵星海律师认为：贾跃亭应该回国接受监管部门的问询。虽然按照公司法及相关法律规定，贾跃亭可以委托太太和兄弟来处理债务，但贾跃亭作为公司实际控制人，亲自回来更有利于处理债务。赵星海律师表示，目前尚未看到贾跃亭此次委托太太回国处理债务的相关手续，不清楚手续上是否存在瑕疵。委托手续应该完备和合法，由于贾跃亭人在美国，他应该到中国驻美国的大使馆或领事馆办理相关委托认证手续，才合规。?贾跃亭应对欠债“神操作”引来各方“神吐槽”格力电器董事长董明珠在2018年的第一天表示，“当一个人没有诚信的时候，别人帮你只能一次。贾跃亭，帮他的人太多太多了，结果他让那么多人失望了。”“贾跃亭一开始是不是想骗钱我不知道，但是结果就是这样。”而针对贾跃亭妻子的长篇微博，SOHO中国CEO张欣在微博上表示，“这个小女子，看着娇滴滴的，这么能担当，了不起！这男人，遇到事，把老婆推出来，真没出息！”?此外，在“甘薇的声明”下，网友们也纷纷赶来围观，网友“为自己努力绽放一次”表示：贾会计的设计其实是完全合法合规的，上市公司举债，然后把现金投入到私人在海外的公司作为投资，烂壳留在国内，现金抽到自己海外公司，就算投资失败了也是合法的。自己控制的FF怎么玩都可以，比如一年给自己开1000万美元的工资，买房产等等。2017年12月25日，北京证监局再次责令贾跃亭在12月31日之前回国。通告称，贾跃亭以投资汽车业务及融资为由滞留境外，其控制的相关公司对上市公司存在巨额欠款，至今尚未归还，相关行为严重侵害了上市公司的合法权益及广大投资者的切身利益，社会影响极其恶劣。本文来源：央视财经责任编辑：张海桐_NN9053",
    "URL": "http://news.163.com/18/0104/00/D793ELGL0001899N.html",
    "KeyWords": "贾跃亭,乐视,股价,停牌",
    "PublishTime": "01/04/201800:53:27",
    "Title": "贾跃亭用“神操作”应对欠债 明白人都看不下去了_网易新闻",
    "Comment": {
        "Content": "两股势力在博弈，现在贾这边只是暂时被打退一步但并非全败，另一边也只是暂时进一步也非全胜，最终结局还有待博弈，这中间倒霉的就是大小鱼虾全部当了炮灰 179元时你以为他不想套现?如果他全部套现股价会被砸到1.79，只能继续编故事忽悠才有孙宏斌这种大水鱼来接盘。 按照法律规定，证监会必须成为连带赔偿义务人，因为实在他的经营场所出现的恶性事件，他必须成为债务人 还发钱呢？ 秧是是最不靠谱的煤起,现在是一件件一桩桩如数家珍,以前你们躲在那个山洞里,对乐视只字片语未提,现在是乐视出了状况就墙倒众人推,破鼓千人擂,恨不得将之置之死地而后快。<br>人除在母肚里和死去的人不犯错,凡生活在人世间没有一个人一生一世不过错,作为管理层,作为主流媒体要本着治病救人而不是把人整死,乐视从一家上市只时有7亿余元默默无闻的小公司,发展到最高峰时市值超过1000多亿元,（最高峰时达到将近4000亿）的大公司,市值增值超过一百倍,罗马不是一日建成,也不是一蹴而就的,是经过全体乐视人数年的兢兢业业的艰苦创业打拼才能有今天的成就,你们说容易吗????象这样的企业一年为国家创造多少税收?????创造多少个就业机会?????<br>现在新闻传媒不论是对人、对事、对企业都是有出一点问题,就小题大作,借题发挥,穷追猛打,我来问证监会，中国设立股市的初衷是不是为了扶持企业做大做强？？？？做为证监会,做为主流媒体应该站在国家发展战略的高度上,对不犯死罪的企业尽可能的去支持,去帮助,去呵护,这也是证监会职责之所在,而不是乘人之危,落井下石,将于置于死地。<br>贾跃亭钢铁般的意志、坚韧、执着、敢创、敢拼、敢闯永不言败,这才是真正创业的人才,就凭此,我坚决支技贾跃亭.理由是贾跃亭从来不从上市公司拿走一分钱私用，只有向上市公司注资，减持所得资金及自筹的巨额资金都全部投入公司运营。<br>贾跃亭呕心沥血，历尽艰辛，费尽心血，任劳任怨，无怨无悔对乐视是立下汗马功劳的，是乐视的能臣、功臣，贾跃亭与全体乐视人，同舟共济,同甘共苦,不怨不悔,不离不弃,这就是路遥知马力,患难见真情,（他去美国是为公司的新能源汽车招商引资而不是其他）不象一些唯利是图,以圈钱为目的公司,一出现状况便减持套现走人,一逃了之。<br>贾跃亭才是真真正正创办实业的伟才。天下无难事，只怕有心人，人非圣贤,孰能不错,要勇于认错,知错必改,不退缩,不逃避,不推卸,敢于担当,勇于进取,顽强拼博,凤凰涅槃，浴火重生,假与时日，乐视定当不负众望。祝乐视兴旺发达，如日中天，坚决支持乐视，坚决支持贾跃亭。 太复杂，看不懂。 监管部门拿它没办法，潇洒快活在美国 大家以为他老婆不想带着孩子跑去美国不回来？而是如果全家都跑美国不回来了，那贾就是红通人员了，现在她呆在国内，就是指望那些入了乐视局的人和机构来挽救乐视。。。所以她留在国内是贾的意思也符合那些入了局的意愿。 所以说：贾总成与不成就差你那点钱了，您再付出一点乐视就盈利了，为什么不努力一下呢？加油！ 个人感觉他手上还有东西，不然的话不会这么猖狂… 有啊，TMD他说乐视跌了他回购乐视股份啊！现在人都不见了也不开盘怎么回购？ 假药停表示“嘿嘿嘿，劳资光两个小孩就一人五亿的信托，劳资什么都够了，管你们怎么折腾，去死吧傻逼，嘿嘿嘿”…… 你这个SB,乐视是靠不给供应商的货款来拉门面，你真弱智 无良的媒体和群众太多了。乐视为多少人创造了工作和收入，养活了多少人？可惜现在人人回头竖着中指骂 投资不一定是现金，有可能股权交换，好像我给你1亿股，一股100，我就投资你100亿，你公司让我占30%股份，其实一分钱没出。这样股权交换，其实毛都没动过，就是为了迎合PPT的需要炒作，。反正他又没想长期经营乐视，别人投资要多少股份他就给多少，只要能骗到钱 我们的月亮就是一个鸡蛋，我们的地球系就是一个鸡蛋!我们的太阳系就是一个鸡蛋，我们的天郎双星系就是一个鸡蛋，我们的银河系就是一个鸡蛋!坯胎为中心，蛋黄，蛋清，蛋壳层层立体包围着坯胎!固体地球为中心，大气层，平流层，电离层等等以及最外层真空遂道层层立体包围着固体地球!而月亮飘流在地球最外层空间真空遂道里，就像船儿飘流在大气层和海平面之间的空间是一样的!以此类推至太阳系天郎双星系银河系及任何物质!月亮在地球最外层空间真空遂道里绕着地球自转公转着，地月绕着太阳在太阳系第三层真空遂道里自转公转着，太阳系绕着天郎双星在天郎双星系最外层真空遂道里自转公转着!任何物质皆如此运动，天地人合一，阿门 你说得对，如果他是骗子在乐视的股价达到179元/股的时候不减持套现走人，如果在那个时候套现他将得到近1000亿的现金，如果他是骗子他那个时候为什么不走？？？骂贾跃亭的人凡事要经大脑分析一下，不要随波逐流，人云也云。 秧是是最不靠谱的煤起,现在是一件件一桩桩如数家珍,以前你们躲在那个山洞里,对乐视只字片语未提,现在是乐视出了状况就墙倒众人推,破鼓千人擂,恨不得将之置之死地而后快。<br>人除在母肚里和死去的人不犯错,凡生活在人世间没有一个人一生一世不过错,作为管理层,作为主流媒体要本着治病救人而不是把人整死,乐视从一家上市只时有7亿余元默默无闻的小公司,发展到最高峰时市值超过700多亿元,的大公司,市值增值超过百倍,罗马不是一日建成,也不是一蹴而就的,是经过全体乐视人数年的兢兢业业的艰苦创业打拼才能有今天的成就,你们说容易吗????象这样的企业一年为国家创造多少税收?????创造多少个就业机会?????<br>现在新闻传媒不论是对人、对事、对企业都是有出一点问题,就小题大作,借题发挥,穷追猛打,我来问证监会，中国设立股市的初衷是不是为了扶持企业做大做强？？？？做为证监会,做为主流媒体应该站在国家发展战略的高度上,对不犯死罪的企业尽可能的去支持,去帮助,去呵护,这也是证监会职责之所在,而不是乘人之危,落井下石,将于置于死地。<br>贾跃亭钢铁般的意志、坚韧、执着、敢创、敢拼、敢闯永不言败,这才是真正创业的人才,就凭此,我坚决支技贾跃亭.理由是贾跃亭从来不从上市公司拿走一分钱私用，只有向上市公司注资，减持所得资金及自筹的巨额资金都全部投入公司运营。<br>贾跃亭呕心沥血，历尽艰辛，费尽心血，任劳任怨，无怨无悔对乐视是立下汗马功劳的，是乐视的能臣、功臣，贾跃亭与全体乐视人，同舟共济,同甘共苦,不怨不悔,不离不弃,这就是路遥知马力,患难见真情,（他去美国是为公司的新能源汽车招商引资而不是其他）不象一些唯利是图,以圈钱为目的公司,一出现状况便减持套现走人,一逃了之。<br>贾跃亭才是真真正正创办实业的伟才。天下无难事，只怕有心人，人非圣贤,孰能不错,要勇于认错,知错必改,不退缩,不逃避,不推卸,敢于担当,勇于进取,顽强拼博,凤凰涅槃，浴火重生,假与时日，乐视定当不负众望。祝乐视兴旺发达，如日中天，坚决支持乐视，坚决支持贾跃亭。 你怎么不说坑了多少人？乐视这种企业有多少正式员工？出了这样的事有没有欠工资？你这地洗的太没水平。 呵呵了，我就问一句，你买股票的时候，你能猜出来一个股最高股价会是多少钱？在牛市中，你可能会觉得乐视会涨到279元呢。 问问一楼，行骗需不需道具，包装需不需要花钱，<br>融资型的庞氏烧钱做业绩做并购才能在天上画出大饼来……<br>但最终，终究是海市蜃楼， 我只想知道如果贾跃亭想骗钱为何投资酷派22亿，入股TCL多媒体25亿，而不是把钱投到他控制的法拉第汽车？为何投资近百亿开发手机业务，又投资一百多亿搞乐视体育，在负面新闻出来后亏得一塌糊涂？这些钱都转移到自己控制的公司不是更符合骗钱的途径吗？大家都说贾跃亭套现后把钱拿去美国，为何他要个人担保乐视贷款100多亿，以他的头脑和资本运作手段，乐视都在市值2000多亿的时候他套现然后砍掉亏本的手机，体育和各种投资自己不是能套得更多吗？ 大家都说老贾在骗人，这里点赞的和回贴的有被老贾骗得没？ 秧是是最不靠谱的煤起,现在是一件件一桩桩如数家珍,以前你们躲在那个山洞里,对乐视只字片语未提,现在是乐视出了状况就墙倒众人推,破鼓千人擂,恨不得将之置之死地而后快。<br>人除在母肚里和死去的人不犯错,凡生活在人世间没有一个人一生一世不过错,作为管理层,作为主流媒体要本着治病救人而不是把人整死,乐视从一家上市只时有7亿余元默默无闻的小公司,发展到最高峰时市值超过700多亿元,的大公司,市值增值超过百倍,罗马不是一日建成,也不是一蹴而就的,是经过全体乐视人数年的兢兢业业的艰苦创业打拼才能有今天的成就,你们说容易吗????象这样的企业一年为国家创造多少税收?????创造多少个就业机会?????<br>现在新闻传媒不论是对人、对事、对企业都是有出一点问题,就小题大作,借题发挥,穷追猛打,我来问证监会，中国设立股市的初衷是不是为了扶持企业做大做强？？？？做为证监会,做为主流媒体应该站在国家发展战略的高度上,对不犯死罪的企业尽可能的去支持,去帮助,去呵护,这也是证监会职责之所在,而不是乘人之危,落井下石,将于置于死地。<br>贾跃亭钢铁般的意志、坚韧、执着、敢创、敢拼、敢闯永不言败,这才是真正创业的人才,就凭此,我坚决支技贾跃亭.理由是贾跃亭从来不从上市公司拿走一分钱私用，只有向上市公司注资，减持所得资金及自筹的巨额资金都全部投入公司运营。<br>贾跃亭呕心沥血，历尽艰辛，费尽心血，任劳任怨，无怨无悔对乐视是立下汗马功劳的，是乐视的能臣、功臣，贾跃亭与全体乐视人，同舟共济,同甘共苦,不怨不悔,不离不弃,这就是路遥知马力,患难见真情,（他去美国是为公司的新能源汽车招商引资而不是其他）不象一些唯利是图,以圈钱为目的公司,一出现状况便减持套现走人,一逃了之。<br>贾跃亭才是真真正正创办实业的伟才。天下无难事，只怕有心人，人非圣贤,孰能不错,要勇于认错,知错必改,不退缩,不逃避,不推卸,敢于担当,勇于进取,顽强拼博,凤凰涅槃，浴火重生,假与时日，乐视定当不负众望。祝乐视兴旺发达，如日中天，坚决支持乐视，坚决支持贾跃亭。 一家子戏精！！！！！！！正在和办理绿卡的时间赛跑！！！！！！！！！！！！ 乐视走的是雷布斯的模式，只是老贾想一口吃成胖子，涉足页面太广，一个搞视频网站的腿伸那么长不被打折就是被压折！ 乐视成立到现在包括上市公司融资的几百亿！股权套现的上百亿，股权抵押的上百亿，这么多钱，整个乐视控股可能全部加在一起没有产生过超过十亿净利润的正现金流！一开始就注定了的悲剧 不回来就把甘薇弄去大世界洗浴中心上班一次398包夜888 喜欢落井下石的，都别笑得太早！谁的一生不会经历困难，到你头上的时候就算报应吧 一杯敬前妻，一杯敬老王，夺走我的爱情留下了悲伤<br>一杯敬羽凡，一杯敬乃亮，绿了之后发现和宝强一样<br>一杯敬金星，一杯敬玉刚，是他们改变了我的性取向 骗，都是要先做给别人看，别人才能相信你，你才能骗更多。 为何不追究监管部门的责任？他们明显失职和渎职！这件事的意义在于给其他人警告，防止再出现这种金蝉脱壳的情况！ 甘微这下傻眼了，以前大家包括她自己都找到潜力超强的绩优股，谁知道，居然是个超烂的垃圾股；这一点，不得不佩服奶茶妹。 179元的时候他到是想卖，证监会得批准呀，大股东+法人你以为可以随便减持、随便抵押的，两个傻逼还在那洗地，他不到处投资，股价能会网上涨，他能股权质押那么多，还有说投资酷派22亿，你去查查黄章实际拿到多少，酷派真有22亿现金流早牛逼坏了，宣称投资，实际投的零头都没有，这事多了去了 看到甘薇长成这样，我们才知道这个贾司机有多牛！ 假药停高手中的战斗机 看来贾太太回来第一件工作就是向水军发薪。 这回我相信甘薇的信托是真的，否则不会这么卖命。 世纪骗子玩儿的够高级 一个戏子撬动几百个亿，分分钟的事情，变态的社会！ 早就看出事有蹊跷，从贾套现股市几百亿开始，就觉得贾背后有很大的背景在互斗，现今只不过是贾的敌人得势罢了 就一段时间，没人提都忘了 假药停只不过是领导的私人会计，美帝家属的出纳，这次出国只不过是奉命给家属送钱了，要不然怎么会出去的这么潇洒。 不是傍上大佬，他有这样的成绩？不过现在大佬倒了，成也萧何败也萧何。 真他妈的无耻 资本家没好饼，基本特点是坑蒙拐骗。 除了贾某外，还有谁得了好处？假如贾某跑路怎么办？更甚一步，假如贾某跳楼怎么办？事情的发生不是一天，不是一个人，处理后事也不可能简单。建议，抽丝剥茧，力求把这一根绳子上的蚂蚱一块儿处理了。 就说说哪个是赚钱的吧 难道一开始就眼瞎？还不是想击鼓传花，那想自己接了最后一棒！我想说，活该！BAT都没敢搞什么生态，他来搞，风投自己煞笔~~欠工人钱，要还？其它的~~~股价下跌就是跌~~~紫金矿业一直被套，谁让自己高位买的~~ 假药停在合法合规的情况下转移财产，没毛病，只怪某会不作为，漏洞太多。 所以说：贾总成与不成就差你那点钱了，您再付出一点乐视就盈利了，为什么不努力一下呢？加油！ 不是说12月31号回的吗？难道不是2017年？ 贵了 违反市场规律，必然会遭到惩罚 给小编一个赞 无良的媒体和群众太多了。乐视为多少人创造了工作和收入，养活了多少人？可惜现在人人回头竖着中指骂 说的很明白，已经负债累累，没钱，认账不还钱。 假药不能停 你说得对，如果他是骗子在乐视的股价达到179元/股的时候不减持套现走人，如果在那个时候套现他将得到近1000亿的现金，如果他是骗子他那个时候为什么不走？？？骂贾跃亭的人凡事要经大脑分析一下，不要随波逐流，人云也云。 1楼典型地就是在自己猜想，上次贾骗说他套现的钱拿来干这个干那个，其中有收购tcl的钱，可是人家立马查出来，收购tcl的钱全部由合作单位出。贾骗不早套一是条件不允许二是胃口大，他公开说出要把市值做到3000亿被证监警告。可见乐视网最高峰的1600亿还填不饱他的贪婪。后面资金链断了眼看市值是无法回升他就强行质押疯狂套现。这是事实。看到一二楼的话就像说一伙强盗理想情况下能抢银行1000万，结果只抢了20万，难道抢少了就不是强盗，就证明他不是在抢钱？ 甘薇要悲剧了。 看不懂，股票不开盘，不就买卖不了了吗？那么怎会有损失？开盘才会有损失的吧 一楼的，能不能让他自己回来解释下？既然没问题他怕什么？ 我只想知道如果贾跃亭想骗钱为何投资酷派22亿，入股TCL多媒体25亿，而不是把钱投到他控制的法拉第汽车？为何投资近百亿开发手机业务，又投资一百多亿搞乐视体育，在负面新闻出来后亏得一塌糊涂？这些钱都转移到自己控制的公司不是更符合骗钱的途径吗？大家都说贾跃亭套现后把钱拿去美国，为何他要个人担保乐视贷款100多亿，以他的头脑和资本运作手段，乐视都在市值2000多亿的时候他套现然后砍掉亏本的手机，体育和各种投资自己不是能套得更多吗？ 你根本不了解乐视的发展史，乐视就是政治层面的乐视，是令的银行，当时令被查，贾躲到国外不回来就证明了一切，后来政治上达成了某种协议，上面默认他回来为令捞一笔，才有15年的乐视股价大涨，然后套现出逃，没有上头的默许，贾干不了这么大的事 帮贾不回写那么多，得几个大子啊？ 我文化层次低，看不懂大神们斗法。<br>谁能给我科普下是不是大树倒了？<br>但我昨天问，有人说是被大树抛弃了。。。<br>我更迷糊了。<br><br>到底咋回事？ 我只能精神上支持贾总,加油,谁的事业是一帆风顺的?但我更看好甘薇,是时候让她出场了 你都想到了！投资人想不到。按照你的想法老贾都死10次了 又是那种国内圈钱国外花的套路，这横竖亏的还是自己人。不懂造环境的地方只能让这种人登顶。 女人说来个富翁收了我 我组织拐卖尼玛卖淫也能提供就业，你是不是还要把你老婆、女儿也先给我。 秧是是最不靠谱的煤起,现在是一件件一桩桩如数家珍,以前你们躲在那个山洞里,对乐视只字片语未提,现在是乐视出了状况就墙倒众人推,破鼓千人擂,恨不得将之置之死地而后快。<br>人除在母肚里和死去的人不犯错,凡生活在人世间没有一个人一生一世不过错,作为管理层,作为主流媒体要本着治病救人而不是把人整死,乐视从一家上市只时有7亿余元默默无闻的小公司,发展到最高峰时市值超过700多亿元,的大公司,市值增值超过百倍,罗马不是一日建成,也不是一蹴而就的,是经过全体乐视人数年的兢兢业业的艰苦创业打拼才能有今天的成就,你们说容易吗????象这样的企业一年为国家创造多少税收?????创造多少个就业机会?????<br>现在新闻传媒不论是对人、对事、对企业都是有出一点问题,就小题大作,借题发挥,穷追猛打,我来问证监会，中国设立股市的初衷是不是为了扶持企业做大做强？？？？做为证监会,做为主流媒体应该站在国家发展战略的高度上,对不犯死罪的企业尽可能的去支持,去帮助,去呵护,这也是证监会职责之所在,而不是乘人之危,落井下石,将于置于死地。<br>贾跃亭钢铁般的意志、坚韧、执着、敢创、敢拼、敢闯永不言败,这才是真正创业的人才,就凭此,我坚决支技贾跃亭.理由是贾跃亭从来不从上市公司拿走一分钱私用，只有向上市公司注资，减持所得资金及自筹的巨额资金都全部投入公司运营。<br>贾跃亭呕心沥血，历尽艰辛，费尽心血，任劳任怨，无怨无悔对乐视是立下汗马功劳的，是乐视的能臣、功臣，贾跃亭与全体乐视人，同舟共济,同甘共苦,不怨不悔,不离不弃,这就是路遥知马力,患难见真情,（他去美国是为公司的新能源汽车招商引资而不是其他）不象一些唯利是图,以圈钱为目的公司,一出现状况便减持套现走人,一逃了之。<br>贾跃亭才是真真正正创办实业的伟才。天下无难事，只怕有心人，人非圣贤,孰能不错,要勇于认错,知错必改,不退缩,不逃避,不推卸,敢于担当,勇于进取,顽强拼博,凤凰涅槃，浴火重生,假与时日，乐视定当不负众望。祝乐视兴旺发达，如日中天，坚决支持乐视，坚决支持贾跃亭。 看样子是没人想让老贾的电动汽车梦做成了！毕竟还有肿掴梦要做，电动车真要大普及，吃亏的是哪些主儿？想想都替老贾绝望！！！！！ 乐视走的是雷布斯的模式，只是老贾想一口吃成胖子，涉足页面太广，一个搞视频网站的腿伸那么长不被打折就是被压折！ 乐视成立到现在包括上市公司融资的几百亿！股权套现的上百亿，股权抵押的上百亿，这么多钱，整个乐视控股可能全部加在一起没有产生过超过十亿净利润的正现金流！一开始就注定了的悲剧 有啊，TMD他说乐视跌了他回购乐视股份啊！现在人都不见了也不开盘怎么回购？ 不回来就把甘薇弄去大世界洗浴中心上班一次398包夜888 喜欢落井下石的，都别笑得太早！谁的一生不会经历困难，到你头上的时候就算报应吧 骗，都是要先做给别人看，别人才能相信你，你才能骗更多。 药不能停 甘微这下傻眼了，以前大家包括她自己都找到潜力超强的绩优股，谁知道，居然是个超烂的垃圾股；这一点，不得不佩服奶茶妹。 还有贾的岳父岳母，亲爹亲妈，女的做鸡男的卖菊花。 179元的时候他到是想卖，证监会得批准呀，大股东+法人你以为可以随便减持、随便抵押的，两个傻逼还在那洗地，他不到处投资，股价能会网上涨，他能股权质押那么多，还有说投资酷派22亿，你去查查黄章实际拿到多少，酷派真有22亿现金流早牛逼坏了，宣称投资，实际投的零头都没有，这事多了去了 哈哈 格力电器董事长董明珠在2018年的第一天表示，“当一个人没有诚信的时候，别人帮你只能一次。贾跃亭，帮他的人太多太多了，结果他让那么多人失望了。”“贾跃亭一开始是不是想骗钱我不知道，但是结果就是这样。”<br>估计老贾会拖死很多人！ 假称下周回国 资不抵债！真的只是贾总一个人的锅？ 按照包夜1000，一年400天，也才40万。像伊利丹那样玩一万年，才40亿，还了个零头。。。 自作孽，不可活。假药停的事纯粹是他自己作的，不值得同情。 二楼不太了解，首先他如果要套现，需要提前发公告公布，准备套现多少，在什么期限内完成。难道公告说董事长准备清仓式套现？所有人马上就会提前动手杀跌。其次他套现期间时，每减持了一段落，通常要都会公布一下。现在大宗交易也不能随便接盘了，更难 这种人欠人那么多钱还好意思说“忍辱负重”用心险恶博取同情<br>前段时间还月薪万元给孩子聘英语老师呢呵呵了<br>欠这么多个亿的钱这辈子要是还能翻身过上比普通人好的生活让我们这些老百姓情何以堪 上百亿呢，会出人命的.... 反正倒霉的是大众，那些供应商 贾就是一个烂人，烂大学出来的烂人。没有一点基本道德观念，做企业做不下去，没有人怪他。做不走，还继续造概念，同时继续卖出股票，这不是骗子和烂人是什么？ 这水准的1000下不来吧 我觉得格力的图片有问题，试想一下，91年的钱和2012年的钱价值差距多大，不能仅仅以数额来看。假如算上货币的贬值率，好像还不及91年。 只有在这片神奇的国土上才能这种操作，换做山姆大叔那边，假还想这样玩儿？门儿都没有 甘薇只是贾的道具！ 多少人？求解 世间自有公道,付出总有回报,说到不如做到,要做就做最好,步步高啊! 按照法律规定，证监会必须成为连带赔偿义务人，因为实在他的经营场所出现的恶性事件，他必须成为债务人 今年年底一定回国！ 秧是是最不靠谱的煤起,现在是一件件一桩桩如数家珍,以前你们躲在那个山洞里,对乐视只字片语未提,现在是乐视出了状况就墙倒众人推,破鼓千人擂,恨不得将之置之死地而后快。<br>人除在母肚里和死去的人不犯错,凡生活在人世间没有一个人一生一世不过错,作为管理层,作为主流媒体要本着治病救人而不是把人整死,乐视从一家上市只时有7亿余元默默无闻的小公司,发展到最高峰时市值超过1000多亿元,（最高峰时达到将近4000亿）的大公司,市值增值超过一百倍,罗马不是一日建成,也不是一蹴而就的,是经过全体乐视人数年的兢兢业业的艰苦创业打拼才能有今天的成就,你们说容易吗????象这样的企业一年为国家创造多少税收?????创造多少个就业机会?????<br>现在新闻传媒不论是对人、对事、对企业都是有出一点问题,就小题大作,借题发挥,穷追猛打,我来问证监会，中国设立股市的初衷是不是为了扶持企业做大做强？？？？做为证监会,做为主流媒体应该站在国家发展战略的高度上,对不犯死罪的企业尽可能的去支持,去帮助,去呵护,这也是证监会职责之所在,而不是乘人之危,落井下石,将于置于死地。<br>贾跃亭钢铁般的意志、坚韧、执着、敢创、敢拼、敢闯永不言败,这才是真正创业的人才,就凭此,我坚决支技贾跃亭.理由是贾跃亭从来不从上市公司拿走一分钱私用，只有向上市公司注资，减持所得资金及自筹的巨额资金都全部投入公司运营。<br>贾跃亭呕心沥血，历尽艰辛，费尽心血，任劳任怨，无怨无悔对乐视是立下汗马功劳的，是乐视的能臣、功臣，贾跃亭与全体乐视人，同舟共济,同甘共苦,不怨不悔,不离不弃,这就是路遥知马力,患难见真情,（他去美国是为公司的新能源汽车招商引资而不是其他）不象一些唯利是图,以圈钱为目的公司,一出现状况便减持套现走人,一逃了之。<br>贾跃亭才是真真正正创办实业的伟才。天下无难事，只怕有心人，人非圣贤,孰能不错,要勇于认错,知错必改,不退缩,不逃避,不推卸,敢于担当,勇于进取,顽强拼博,凤凰涅槃，浴火重生,假与时日，乐视定当不负众望。祝乐视兴旺发达，如日中天，坚决支持乐视，坚决支持贾跃亭。 乐视融资的钱进了乐视公司，那么多钱不可能都败掉了，应该查查有没有人把钱拿走了。 背后的大批国贼汉奸也快显露出来了吧。 之前在网易看到的新闻是说乐视帝国将来资产会达到17000亿，贾跃亭会把自己的一半身价8500亿分给自己的员工，乐视很多员工一夜之间千万富翁。我当时想，乐视一个做视频网站的，哪有这么大的市值？手机做的也没见几个人用。 甘薇我出9.99元/夜 我借钱包一夜 贾就是一个烂人，烂大学出来的烂人。没有一点基本道德观念，做企业做不下去，没有人怪他。做不走，还继续造概念，同时继续卖出股票，这不是骗子和烂人是什么？ 大家以为他老婆不想带着孩子跑去美国不回来？而是如果全家都跑美国不回来了，那贾就是红通人员了，现在她呆在国内，就是指望那些入了乐视局的人和机构来挽救乐视。。。所以她留在国内是贾的意思也符合那些入了局的意愿。 几个水军有气无力的 贾总菊花惨了 一家子戏精！！！！！！！正在和办理绿卡的时间赛跑！！！！！！！！！！！！ 贾跃亭=乐视？当=过？ 手机好像达到过出货2000万，是模式不可持续，都贴钱卖，生产设计全部外包，如果是万科这种暴利行业到没什么，手机电视这种微利行业就杯具了。后来的事情也证明了这一点，欠了一PP钱。 监管部门拿它没办法，潇洒快活在美国 早就给你说了，他没资格上红通， 一家子戏精！！！！！！！正在和办理绿卡的时间赛跑！！！！！！！！！！！！ 无良的媒体和群众太多了。乐视为多少人创造了工作和收入，养活了多少人？可惜现在人人回头竖着中指骂 一家子戏精！！！！！！！正在和办理绿卡的时间赛跑！！！！！！！！！！！！ 楼猪智商是硬伤，坑了多少投资者？他圈钱没有打通症监会会通得过？ 一家子戏精！！！！！！！正在和办理绿卡的时间赛跑！！！！！！！！！！！！ 你这问号牛逼 你说得对，如果他是骗子在乐视的股价达到179元/股的时候不减持套现走人，如果在那个时候套现他将得到近1000亿的现金，如果他是骗子他那个时候为什么不走？？？骂贾跃亭的人凡事要经大脑分析一下，不要随波逐流，人云也云。 你怎么不说坑了多少人？乐视这种企业有多少正式员工？出了这样的事有没有欠工资？你这地洗的太没水平。 这是要洗白的节奏啊！！！！！！！！ 一家子戏精！！！！！！！正在和办理绿卡的时间赛跑！！！！！！！！！！！！ 如果他没有抽逃公司的钱，他的行为谈不上跑路！乐视已经不是他的了，可惜他还为乐视的债务承担连带责任！ 我只想知道如果贾跃亭想骗钱为何投资酷派22亿，入股TCL多媒体25亿，而不是把钱投到他控制的法拉第汽车？为何投资近百亿开发手机业务，又投资一百多亿搞乐视体育，在负面新闻出来后亏得一塌糊涂？这些钱都转移到自己控制的公司不是更符合骗钱的途径吗？大家都说贾跃亭套现后把钱拿去美国，为何他要个人担保乐视贷款100多亿，以他的头脑和资本运作手段，乐视都在市值2000多亿的时候他套现然后砍掉亏本的手机，体育和各种投资自己不是能套得更多吗？ 甘薇这小女子，看着娇滴滴的，这么能担当，了不起！ 一家子戏精！！！！！！！正在和办理绿卡的时间赛跑！！！！！！！！！！！！ 一对狗男女 一家子戏精！！！！！！！正在和办理绿卡的时间赛跑！！！！！！！！！！！！ 乐视走的是雷布斯的模式，只是老贾想一口吃成胖子，涉足页面太广，一个搞视频网站的腿伸那么长不被打折就是被压折！ 乐视成立到现在包括上市公司融资的几百亿！股权套现的上百亿，股权抵押的上百亿，这么多钱，整个乐视控股可能全部加在一起没有产生过超过十亿净利润的正现金流！一开始就注定了的悲剧 不回来就把甘薇弄去大世界洗浴中心上班一次398包夜888 那要多少年？？？？？？？？？？？？？？？？？？？？？？？？？？？？？？？？？？？？？？？？？？？？？？？？？？？？？？？？？？？？？？？？？？？？？？？？？？？？？？？？？？？？？？？？？？？？？？？？？？？？？？？？？？？？？？？？？？？？ 乐视融资的钱进了乐视公司，那么多钱不可能都败掉了，应该查查有没有人把钱拿走了。 光打口水仗，什么实际也没有 真是物以类聚，一个比一个不要脸 贾总吹牛确实有一套，也很有想法，绝对是个人才，但说他是个“真真正正创办实业的伟才”，还如此长篇大论，你不是水军就是脑袋有问题，贾跃亭与其说是个企业家，不如说是个赌徒。 钱债肉偿 这么多水军是老贾的还是小甘的？ 在中国。一个上市公司的老总竟然能跑路，而且还能逍遥法外，国之悲哀 我操都这会了竟然还有水军… 当年你们把他奉若神明，现在落井下石，你们还算人吗？ 贾做手机一开始就没打算要赚钱，可能一开始就想把盘子做大，利润无所谓，然后开始忽悠。最少我是这么认为的。 逗比，人家一开始就是圈钱 起码还是个名人，这个价格太低了吧。 讲故事，拉融资，编故事，搞上市，圈钱，套现，转移，洗白白，国外贵人生活。整个一套路，完胜。 两次，都完美离境，要说没鬼[惊讶]鬼都不信 不只是乐视，其他互联网企业98%的都是这个套路，融资，融资，再融资，他妈的就没看见挣钱，只看见出钱了！靠什么创造利润，不就是吸引散户接盘么？ 急功近利已成国人常态 怕是早就离婚了，骗谁呀 我擦，贾总，再玩你都快成红通了。 乐视网欠银行的钱乐视网还，乐视非上市公司钱乐视网的钱欠供应商的钱由乐视非上市公司还，贾是股东在其出资范围内承担责任，但是贾为公司借款提供了担保他要承担连带责任。贾的股票质押借的钱由他个人还，还不上的部分谁借谁倒霉！银行都是猪吗？个人可以提供上百亿元的担保？！ …… 法律无助啊，就这样你能怎么着！ 太贵，不如我燕 施主，請積點德.. 最讨厌骗子奸诈小人！不看了起床啦 还发钱呢？ 到底回不回来啊 神回复 替夫还债？肉偿吗？500块一次，100多亿，被干2000多万次，一天被干20次，一年7000次，不吃不喝，三辈子还完。 吕布的命偏要以为自己是曹操！！！ 所以说：贾总成与不成就差你那点钱了，您再付出一点乐视就盈利了，为什么不努力一下呢？加油！ 刚开始不知。质押的时候就在设局，挖坑，吃人不吐骨头的坑。 一开始就是庞氏模式 负责把股票给你跌到底吧 先来2000火车皮嫖客 你这个SB,乐视是靠不给供应商的货款来拉门面，你真弱智 无良的媒体和群众太多了。乐视为多少人创造了工作和收入，养活了多少人？可惜现在人人回头竖着中指骂 作为一名骗子，此人是成功的。 不刹住这种歪风，以后的企业全这样玩 有限责任公司，相关融资操作要经法务的审核，规避法律风险。 总觉得老贾是要牺牲老婆了 傻子一样的逻辑。 看来贾太太回国有点效果。 我只想知道如果贾跃亭想骗钱为何投资酷派22亿，入股TCL多媒体25亿，而不是把钱投到他控制的法拉第汽车？为何投资近百亿开发手机业务，又投资一百多亿搞乐视体育，在负面新闻出来后亏得一塌糊涂？这些钱都转移到自己控制的公司不是更符合骗钱的途径吗？大家都说贾跃亭套现后把钱拿去美国，为何他要个人担保乐视贷款100多亿，以他的头脑和资本运作手段，乐视都在市值2000多亿的时候他套现然后砍掉亏本的手机，体育和各种投资自己不是能套得更多吗？ 担当个p，也不看自己的钱怎么来的 可以 呵呵 这货为了避免打官司啊。<br>就告诉大家，我欠你钱，我肯定还，别去法院。。。<br>至于什么时间还钱，等有钱了肯定还，没钱我就拖着。。。<br>反正我承认，法院又不能怎么了。 它怎么就上市了呢？ 洗白？ 乐视走的是雷布斯的模式，只是老贾想一口吃成胖子，涉足页面太广，一个搞视频网站的腿伸那么长不被打折就是被压折！ 乐视成立到现在包括上市公司融资的几百亿！股权套现的上百亿，股权抵押的上百亿，这么多钱，整个乐视控股可能全部加在一起没有产生过超过十亿净利润的正现金流！一开始就注定了的悲剧 不回来就把甘薇弄去大世界洗浴中心上班一次398包夜888 喜欢落井下石的，都别笑得太早！谁的一生不会经历困难，到你头上的时候就算报应吧 扯到🥚了 连回顾你都看不懂，所以你没达到假会计的高度 假药停表示“嘿嘿嘿，劳资光两个小孩就一人五亿的信托，劳资什么都够了，管你们怎么折腾，去死吧傻逼，嘿嘿嘿”…… 年轻人，10快的转播权，乐视开价50，，结果买过去了，又欠费给不了，，，员工价10快的，他又开到50挖过来，结果不到半年，，公司开不下去了，，，<br>这就叫养活了多少人？ 积点嘴德吧。 小薇你靠什么还债？？几百亿的债务。你他妈的卖一辈子。一次卖十万，都还不起 这货为什么避免打官司啊。<br>就公司大家，我欠你钱，我肯定还，别去法院。。。<br>至于什么时间还钱，等有钱了肯定还，没钱我就拖着。。。反正我承认，法院又不能怎么了。 1楼弱智，你怎么确定全给酷派，TCL了 我下订单了 看来贾太太回来第一件工作就是向水军发薪。 既然不被信任，还被诋毁，不如就不还了吧！让他们算盘如意了如何？免得被人说既立牌坊还得做婊子。 猪脑子，他那么做他出的了国门？ 资美债中 吃饭睡觉骂老贾 承诺 你洗你mmp 没办法，有人喜欢讲故事，有人喜欢听故事，听着听着就把门票钱交了，顺便打赏点。 加油骗吗？ 原来背后有王城，现在没有了 所以就圈钱跑路了[微笑] 减持90亿，纳税20亿元，亮点啊 应该说是老贾的债主自己把自己玩死。 傻屌 666 连央视都看不下去了……专题新闻都出来。 哄抬物价 不是虽远必诛吗，上冷锋啊 遇到困难就要面对，要有担当，而不是欠人家一屁股债不管而自己另搞自己的生意。 股价跌了，股东赔偿？笑话，有点法律常识没有？ 太复杂，看不懂。 所以说：贾总成与不成就差你那点钱了，您再付出一点乐视就盈利了，为什么不努力一下呢？加油！ 乐视股民真惨 还发钱呢？ 不急等个绿卡先 祝贺你 个人感觉他手上还有东西，不然的话不会这么猖狂… 得罪了快播 做了个屁屁踢，下辈子生活不用愁，还有漂亮女人可以操 坏事绝事做太多！鞭尸几年都不解粪！ 得罪了谁 资金链断裂，神仙也无力回天，试问什么万科、万达、恒大……这些房地产企业哪一个遇到这种事都得完蛋，老贾是有人要搞他而已，ZZ斗争的牺牲品 一个戏子撬动几百个亿，分分钟的事情，变态的社会！ 一些小部分为了除掉异已，已经让百姓牺牲太多东西了。这场讨伐失去最多的还是百姓，但愿他们能知错能改，否则以后他们会继续这种命运 投资不一定是现金，有可能股权交换，好像我给你1亿股，一股100，我就投资你100亿，你公司让我占30%股份，其实一分钱没出。这样股权交换，其实毛都没动过，就是为了迎合PPT的需要炒作，。反正他又没想长期经营乐视，别人投资要多少股份他就给多少，只要能骗到钱 讓樂視欺詐上市的流氓黑惡勢力難道不用負責？ 秧是是最不靠谱的煤起,现在是一件件一桩桩如数家珍,以前你们躲在那个山洞里,对乐视只字片语未提,现在是乐视出了状况就墙倒众人推,破鼓千人擂,恨不得将之置之死地而后快。<br>人除在母肚里和死去的人不犯错,凡生活在人世间没有一个人一生一世不过错,作为管理层,作为主流媒体要本着治病救人而不是把人整死,乐视从一家上市只时有7亿余元默默无闻的小公司,发展到最高峰时市值超过700多亿元,的大公司,市值增值超过百倍,罗马不是一日建成,也不是一蹴而就的,是经过全体乐视人数年的兢兢业业的艰苦创业打拼才能有今天的成就,你们说容易吗????象这样的企业一年为国家创造多少税收?????创造多少个就业机会?????<br>现在新闻传媒不论是对人、对事、对企业都是有出一点问题,就小题大作,借题发挥,穷追猛打,我来问证监会，中国设立股市的初衷是不是为了扶持企业做大做强？？？？做为证监会,做为主流媒体应该站在国家发展战略的高度上,对不犯死罪的企业尽可能的去支持,去帮助,去呵护,这也是证监会职责之所在,而不是乘人之危,落井下石,将于置于死地。<br>贾跃亭钢铁般的意志、坚韧、执着、敢创、敢拼、敢闯永不言败,这才是真正创业的人才,就凭此,我坚决支技贾跃亭.理由是贾跃亭从来不从上市公司拿走一分钱私用，只有向上市公司注资，减持所得资金及自筹的巨额资金都全部投入公司运营。<br>贾跃亭呕心沥血，历尽艰辛，费尽心血，任劳任怨，无怨无悔对乐视是立下汗马功劳的，是乐视的能臣、功臣，贾跃亭与全体乐视人，同舟共济,同甘共苦,不怨不悔,不离不弃,这就是路遥知马力,患难见真情,（他去美国是为公司的新能源汽车招商引资而不是其他）不象一些唯利是图,以圈钱为目的公司,一出现状况便减持套现走人,一逃了之。<br>贾跃亭才是真真正正创办实业的伟才。天下无难事，只怕有心人，人非圣贤,孰能不错,要勇于认错,知错必改,不退缩,不逃避,不推卸,敢于担当,勇于进取,顽强拼博,凤凰涅槃，浴火重生,假与时日，乐视定当不负众望。祝乐视兴旺发达，如日中天，坚决支持乐视，坚决支持贾跃亭。 我相信老贾并不是骗子,只是经营有问题后来债越滚越大 这叫风水轮流转，明天到你家。当初怎么样打压快播，现在就怎么样被打压。 你妈！整栋楼的水军都出现啦？公司给媒体曝光就是阴谋？地下赌场才怕曝光呢，你们这帮SB！ 问问一楼，行骗需不需道具，包装需不需要花钱，<br>融资型的庞氏烧钱做业绩做并购才能在天上画出大饼来……<br>但最终，终究是海市蜃楼， 我只想知道如果贾跃亭想骗钱为何投资酷派22亿，入股TCL多媒体25亿，而不是把钱投到他控制的法拉第汽车？为何投资近百亿开发手机业务，又投资一百多亿搞乐视体育，在负面新闻出来后亏得一塌糊涂？这些钱都转移到自己控制的公司不是更符合骗钱的途径吗？大家都说贾跃亭套现后把钱拿去美国，为何他要个人担保乐视贷款100多亿，以他的头脑和资本运作手段，乐视都在市值2000多亿的时候他套现然后砍掉亏本的手机，体育和各种投资自己不是能套得更多吗？ 大哥，跑路了就跑了，有我黄鹤陪着你 小老婆不错哦！ 金融创新好啊！玩着花样洗钱吸钱！接着创新啊！把钱都变肥皂泡！在这个笑贫不笑娼的当钱社会！多好啊！动动脑子钱就来了多爽！金融创新好啊！玩着花样洗钱吸钱！接着创新啊！把钱都变肥皂泡！在这个笑贫不笑娼的当钱金融创新好啊！玩着花样洗钱吸钱！接着创新啊！把钱都变肥皂泡！在这个笑贫不笑娼的当钱社会！多好啊！动动脑子钱就来了多爽！社会！多好啊！动动脑子钱就来了多爽！ 呵呵 不回来就把甘薇弄去大世界洗浴中心上班一次398包夜888 喜欢落井下石的，都别笑得太早！谁的一生不会经历困难，到你头上的时候就算报应吧 一杯敬前妻，一杯敬老王，夺走我的爱情留下了悲伤<br>一杯敬羽凡，一杯敬乃亮，绿了之后发现和宝强一样<br>一杯敬金星，一杯敬玉刚，是他们改变了我的性取向 不是傍上大佬，他有这样的成绩？不过现在大佬倒了，成也萧何败也萧何。 时间能不能让梦想窒息？时间到了也许真相早就坐在那里观看..... 看到甘薇长成这样，我们才知道这个贾司机有多牛！ 贾一开始并不想骗还是想做事，只是个人能力有限盲目投资导致失控然后才为自己打算，如果他是个负责任的人早该回来了，何必把一个女子放到前台接受暴风骤雨 假药停高手中的战斗机 神来之笔！🐂 贾跃亭的债主就是假药停[被黑] 在哪？ 如果给你看得透，你还用在这发评论! 两股势力在博弈，现在贾这边只是暂时被打退一步但并非全败，另一边也只是暂时进一步也非全胜，最终结局还有待博弈，这中间倒霉的就是大小鱼虾全部当了炮灰 当一个人没有诚信的时候，别人帮你只能一次。贾跃亭，帮他的人太多太多了，结果他让那么多人失望了。”“贾跃亭一开始是不是想骗钱我不知道，但是结果就是这样 没有这些投资,谁信他.这个就是前面的铺垫.后面才能顺利搞了100多亿去美国. 呵呵 假药停只不过是领导的私人会计，美帝家属的出纳，这次出国只不过是奉命给家属送钱了，要不然怎么会出去的这么潇洒。 雪球越滚越大，没有后备资金。早晚完蛋 真敬业啊你 雪球越滚越大，没有后备资金。早晚完蛋 辛苦甘薇了 什么叫搞？你连常识都不懂，我只能说跟喷子说话我很后悔，太累，理解不到点上。 骗子! 这回我相信甘薇的信托是真的，否则不会这么卖命。 世纪骗子玩儿的够高级 确实是这样的逻辑，大部分人都是瞎起哄，鸟事不懂！ 一个媳妇根本还不了这么多饥荒 哦哦好的 为何不追究监管部门的责任？他们明显失职和渎职！这件事的意义在于给其他人警告，防止再出现这种金蝉脱壳的情况！ 没有这些投资,谁信他.这个就是前面的铺垫.后面才能顺利搞了100多亿去美国. 老婆家人人质也，和国大侠一样一样滴 我们的月亮就是一个鸡蛋，我们的地球系就是一个鸡蛋!我们的太阳系就是一个鸡蛋，我们的天郎双星系就是一个鸡蛋，我们的银河系就是一个鸡蛋!坯胎为中心，蛋黄，蛋清，蛋壳层层立体包围着坯胎!固体地球为中心，大气层，平流层，电离层等等以及最外层真空遂道层层立体包围着固体地球!而月亮飘流在地球最外层空间真空遂道里，就像船儿飘流在大气层和海平面之间的空间是一样的!以此类推至太阳系天郎双星系银河系及任何物质!月亮在地球最外层空间真空遂道里绕着地球自转公转着，地月绕着太阳在太阳系第三层真空遂道里自转公转着，太阳系绕着天郎双星在天郎双星系最外层真空遂道里自转公转着!任何物质皆如此运动，天地人合一，阿门 我只想知道如果贾跃亭想骗钱为何投资酷派22亿，入股TCL多媒体25亿，而不是把钱投到他控制的法拉第汽车？为何投资近百亿开发手机业务，又投资一百多亿搞乐视体育，在负面新闻出来后亏得一塌糊涂？这些钱都转移到自己控制的公司不是更符合骗钱的途径吗？大家都说贾跃亭套现后把钱拿去美国，为何他要个人担保乐视贷款100多亿，以他的头脑和资本运作手段，乐视都在市值2000多亿的时候他套现然后砍掉亏本的手机，体育和各种投资自己不是能套得更多吗？ 天黑了，明白人都看不下去了，都闭眼睡觉觉了 ",
        "Link": "http://comment.news.163.com/news2_bbs/D793ELGL0001899N.html",
        "Total": 4442,
        "Reply": 224
    },
    "Source": "Netease"
}