{
    "URL": "http://news.163.com/17/1228/16/D6OOAAL80001875N.html",
    "Article": "军报记者【天安门国旗护卫队将转隶三军仪仗队？国防部回应】在今天下午国防部例行记者会上，有记者提问，有消息称，武警天安门国旗护卫队即将完成历史使命，转隶中国人民解放军三军仪仗队，武警天安门国旗护卫队的番号将取消。对此，国防部新闻局副局长、国防部新闻发言人任国强回应：“我不了解。”本文来源：军报记者责任编辑：赵亚萍_NN9005",
    "Source": "Netease",
    "PublishTime": "12/28/201716:31:00",
    "KeyWords": "三军仪仗队,国防部,护卫队,天安门",
    "Comment": {
        "Content": "帅气 精兵簡政。👍🏻 支持 帅气 精兵簡政。👍🏻 ",
        "Total": 135,
        "Link": "http://comment.news.163.com/news_guonei8_bbs/D6OOAAL80001875N.html",
        "Reply": 3
    },
    "Title": "天安门国旗护卫队将转隶三军仪仗队？国防部回应_网易新闻"
}