{
    "URL": "http://war.163.com/17/1231/11/D6VT25HM000181KT.html",
    "Article": "资料图据微信公众号“中国陆军”12月30日消息，针对当前部队对“五多”问题反应强烈，中部战区陆军政委在战区陆军基层转型建设规范工作会议上强调，必须出重拳用硬招下狠劲，坚决纠治、防止反弹！一、对基层的考核评比以旅团组织为主，除战备训练课目外，战区陆军和军师级领导机关不得到基层组织考试。二、建立工作组申报审批制度，一个旅团一个月之内原则上不能有两个以上工作组，除战备拉动、明察暗访、安全检查外，节假日不向部队派工作组。三、电视电话会议要控制规模、简化形式，师以上单位组织的电视电话会议不要安排营连参加。四、旅团以上机关不得向连队要文字材料。五、无特殊情况，不得挤占基层双休日时间，不得提高官兵外出审批权限，不得剥夺基层日常工作的安排权。本文来源：中国陆军责任编辑：赵亮亮_NN6671",
    "KeyWords": "中部战区,陆军",
    "Source": "Netease",
    "Comment": {
        "Reply": 0,
        "Content": "",
        "Total": 9,
        "Link": "http://comment.war.163.com/news_junshi_bbs/D6VT25HM000181KT.html"
    },
    "PublishTime": "12/31/201711:08:37",
    "Title": "中部战区陆军立铁规矩：电视电话会议控制规模_网易军事"
}