{
    "Comment": {
        "Total": 3675,
        "Reply": 134,
        "Link": "http://comment.news.163.com/news2_bbs/D76046RS00018AOQ.html",
        "Content": "有什么事大哥顶着，怕啥 中东如果都归以色列统治，那么几十年后，世界将出现一个前所未有的超级大国！甚至比美国还牛 强权就是公理，没实力只能任人宰割 以色列是伟大的国家。 打又打不过！ 说得真好，赞！ 只能扔两个弹渣渣百姓抗议了 说的好！！ 楼上傻逼 支持以色列，祝福以色列！ 茫茫人海相遇就是缘分朋友！我愿为你点赞~ 天天强烈谴责，哈哈 支持以色列干死巴勒斯坦！💨🔫🗡🔪🏹⚔ 巴勒斯坦除了令人生厌的、反复强调的抗议和强烈谴责以外，屁的办法、屁的实力也没有！这和当年某国的外交部发言人一个德性。 竟然不是一人说了算，小小以色列还这么民主，佩服！ 跟某国一样的味道 是时候让犹猪流浪，阿拉伯人联合起来，杀犹猪过年！ 有的时候，文明也是一种对流氓的救星。 跟巴勒斯坦那样的流氓讲什么道义！ 真正的民主才会强大 要买门票吗？有人要求你烧高香吗？ 支持正义以色列将巴勒斯坦的恐怖分子殺清光。 全世界都反对的事（美国除外），怎么在网易有这么多的狗赞成呢，难道多是美狗。希望美狗们都来骂我，让我看看有多少只。 支持以色列。 可以吃，营养！ 都特码不是好东西 真主干不过上帝。因为上帝是智慧的象征，真主是愚昧的代表。大卫的子孙们万岁。 谴责管毛用不服就打 支持以色列，彻底统治巴勒斯坦吧，不要给恐怖分子哪怕1平方厘米的土地 你被赶出家园，老婆被强占，…，看你也要变成恐怖分子 能不能强硬一点，一次性把巴勒斯坦干掉，整天这么扯来扯去不烦吗 .恶人自有恶人磨，真主也罩不住你们。 愿你快乐享受点赞! 那巴勒斯坦的土地怎么来的嘛2楼你来说说 支持！ [不屑]教堂里放着募捐箱，瞬间石化，不是说只施舍，不求回报吗？ 把绿皮教从地球上抹掉才是功德一件，教义里有好的东西，但是反人类的东西混杂太多了，索性都抹去对世界还比较好 谴责你妈，你他妈倒是干过去啊，死胡克巴 亲爱的陌生人，晚上少熬夜，躺在床上也不要来回刷手机。胃不好就少吃辣少喝冷饮，受了委屈就哭出来，学会珍惜身边的人，如果还没有人牵你的手，自己要照顾好自己。<br>陌生人从来不给我点赞，<br>希望下一个陌生人给我点赞。<br>新年快乐大家！ 另外烧几个拿破仑 以色列好好的，米国已经不再是奥黑软蛋当政，土地与和平是靠打出来的，收复耶路撒冷，把黎巴嫩，贝鲁特拿下 我建议你点开他的回复记录，颠覆你的认识 能给人民生活带来幸福，就是好东西 给你个建议，有机会去以色列，伊拉克，游玩一次！那么到时将颠覆你所以内心观点[惊讶][惊讶][惊讶] 傻逼，你这是要让阿拉伯猪吃猪肉 那巴勒斯坦的土地怎么来的嘛2楼你来说说 干掉干嘛，以色列要跟他们做朋友，他们不愿意啊！再说那块地皮原来是圣地是公共的。现在以色列说大家都来吧，我们一起是一个国家，老百姓当然愿意，有福利，有和平多好啊，可是一些人为了自己的私欲怎么也不答应。整天被打的惨兮兮的。 谴责 中东如果都归以色列统治，那么几十年后，世界将出现一个前所未有的超级大国！甚至比美国还牛 拿下土地容易关键是人怎么办那些人很能生目前出生率最高的就是那群人 你把毛子换成以色列也适用。 说得真好，赞！ 楼上没别的，是专业喷子，搞不好是摩萨德一员 楼上傻逼 不懂装懂了？现在耶路撒冷全在以色列的控制之内，以色列要捏圆搓扁都看心情，什么自治？巴人连正常的获取国际援助都必须要以色列点头准许才可以。这叫自治？巴人不需要你以色列来给予自治权，人家已经是一个国家了。人家要的是对其主权的承认，你把对耶路撒冷的封锁包围解除了，这才是真正的和平之路。 支持以色列，祝福以色列！ [挨揍]支持以色列 千万不要和一楼这种没上进心又没有见识的人去理论，只会拉低自己的智商 要不是美国拉着，巴勒斯坦早就被打死了 支持巴勒斯坦解放组织，世世代代坚持下去，终能把邪恶的犹太人赶下大海。真主保佑。 支持以色列。 竟然不是一人说了算，小小以色列还这么民主，佩服！ 有法可依 巴勒斯坦都灭不掉，犹太人也不要装逼了 肯定的！ 这话太绝对了吧 上帝叫耶和华 世界的所有战乱都是美国造成的 亲爱的陌生人，晚上少熬夜，躺在床上也不要来回刷手机。胃不好就少吃辣少喝冷饮，受了委屈就哭出来，学会珍惜身边的人，如果还没有人牵你的手，自己要照顾好自己。<br>陌生人从来不给我点赞，<br>希望下一个陌生人给我点赞。<br>新年快乐大家！ 有的时候，文明也是一种对流氓的救星。 闻到了熟悉的味道 真主干不过上帝。因为上帝是智慧的象征，真主是愚昧的代表。大卫的子孙们万岁。 确实是同一个，不过既然默罕默德抄书时把名字改了，那就当是两个吧，所以大家别跟着韩剧的low翻译走哟，以撒就是以撒，不是耶稣哟～ 全世界都反对的事（美国除外），怎么在网易有这么多的狗赞成呢，难道多是美狗。希望美狗们都来骂我，让我看看有多少只。 狼首召开几个狼议员会议，讨论对圈里心羊羔吃不吃，如果有三分之二不同意吃，那狼们就不吃。结果可想而知，…。 你那李闯王才最恐怖 消灭了恐怖就不再有恐怖了 都特码不是好东西 支持！ 真正的民主才会强大 不能啊，有些老鼠屎装好人谴责！再则，世界上不会个个都像毛子那样无耻，占领一个地方杀光当地人然后迁一批毛子过来就变永久了！以色列要考虑巴列斯坦难民问题，拿回土地就是对巴列斯坦的教训，但不能全部拿回，要不然难民没地方放，自己收了也不行，以色列已经有两百万阿拉伯人了，再收就改变人口比例了，阿拉伯人就会鸠占鹊巢了，就跟巴列斯坦难民到了黎巴嫩南部一样，一下子改变了人口比例，伊朗一渗透，出来个镇住当，打起内战来了，把中东小巴黎打成现在那个熊样！ 铲除国际恐怖主义大本营老巢，就看你了！？以色列！！ 这么麻烦，伟人大手一挥就解决的事 愿你快乐享受点赞! 抢占别人土地，把人赶出家园，还要赶尽杀绝。到底谁才恐怖？ 你被赶出家园，老婆被强占，…，看你也要变成恐怖分子 你都知道全在以色列控制之下，你对主权的诉求又关以色列国内立法什么事呢？你抗议有屌用吗？无论如何，从以色列角度出发，他们想给你自治给你相对话语权，当然以色列真正目的是甩包袱。只有甩包袱才是你值得抗议的，你想要主权，立法前后你都没有。 喊万岁的都是傻逼感觉到了文革…… 这样子的啊！ 只是叫法不一样而已，确实是同一个神 上帝叫耶和华，真主是安拉，怎么可能是同一个人，你才无知。 能不能强硬一点，一次性把巴勒斯坦干掉，整天这么扯来扯去不烦吗 哪有公平正义，一切的根本就是实力 我不知道你们对以色列的认知来之哪里，估计大部分来自网络吧。但是你们说的话里满满的充满着对巴以问题的无知，还好意思叫别人颠覆内心观点？？？不要说什么巴以问题了，连有没有犹太民族这个问题都非常颠覆人的内心观点。你们一直吹嘘的“犹太民族”其实是近代犹太复国主义者强行建立起的概念。 说的好！！ 巴勒斯坦是不是巴铁啊 调解拉偏架，当然不承认这个调解人啦 受教了，我感觉他只看军事新闻和美日有关的新闻。不像我们啥子新闻都看。体育足球，篮球，娱乐，头条，，，，总结就是这个一个铁血狗 开打吧，打不过怎么说都没有用 真主是不是路西法的另一个身份呢？ 上帝叫耶稣，真主是安拉，怎么可能是同一个人，你才无知。 毛子就全杀了 不知小编有没有报导错误，如果细看这文章，以色列出台这法律对巴人是有利的，抗议个屌？原来是不允许改变市界，现在是主权放弃需要三分之二多数可以通过。就算主权没得谈或谈得困难，但治权以色列想给你阿拉伯人自治，不想把你纳入耶路沙冷，甚至想把这送给巴人，对巴人来说，这是好事还是坏事呢？担心自治之后，以色列给的福利没了所以抗议？人家不是傻子，你不能两头占是不是？ 是基 支持正义以色列将巴勒斯坦的恐怖分子殺清光。 支持以色列，彻底统治巴勒斯坦吧，不要给恐怖分子哪怕1平方厘米的土地 那我问你，你家住哪里？你家的土地怎么来的？ 能给人民生活带来幸福，就是好东西 呵呵，犹太人在式微的时候就坚决不要阿拉伯人提出的民主的“代议制”，非要“代办制”。现在犹太人牛逼了，开始吹什么牛民主？知道黑犹太人要移民以色列之前必须要接受打绝育针才准获得准许吗？ 给你个建议，有机会去以色列，伊拉克，游玩一次！那么到时将颠覆你所以内心观点[惊讶][惊讶][惊讶] 上帝和真主本来就是同一人，一楼无知无畏，秀下限 中东希望以色列！ 哎呦哎呦 以色列好好的，米国已经不再是奥黑软蛋当政，土地与和平是靠打出来的，收复耶路撒冷，把黎巴嫩，贝鲁特拿下 有个国家也经常谴责 强权就是公理，没实力只能任人宰割 给喷子科普能改变什么，换一个新闻贴继续喷 打又打不过！ 成都赶紧回归重庆的主权统治下。瓜娃子 错是同一个神 只能扔两个弹渣渣百姓抗议了 有的时候，流氓也能主宰天下。 .恶人自有恶人磨，真主也罩不住你们。 真主和上帝是同个吧 傻叼，三个教信的是一个人 傻逼，你这是要让阿拉伯猪吃猪肉 茫茫人海相遇就是缘分朋友！我愿为你点赞~ 可惜不能直接干死邪教徒 抗议个毛线，有种去boom啊 天天强烈谴责，哈哈 谴责有用的话要🔫干嘛？ 支持以色列干死巴勒斯坦！💨🔫🗡🔪🏹⚔ 跟某国一样的味道 巴勒斯坦除了令人生厌的、反复强调的抗议和强烈谴责以外，屁的办法、屁的实力也没有！这和当年某国的外交部发言人一个德性。 支持 充分证明强大才可想为就为 楼上你是智障吗？难道没就开打？ 是时候让犹猪流浪，阿拉伯人联合起来，杀犹猪过年！ 亲爱的陌生人，晚上少熬夜，躺在床上也不要来回刷手机。胃不好就少吃辣少喝冷饮，受了委屈就哭出来，学会珍惜身边的人，如果还没有人牵你的手，自己要照顾好自己。<br>陌生人从来不给我点赞，<br>希望下一个陌生人给我点赞。<br>新年快乐大家！ 有的时候，文明也是一种对流氓的救星。 只能过过嘴炮了 能不能强硬一点，一次性把巴勒斯坦干掉，整天这么扯来扯去不烦吗 可以吃，营养！ 宗教都差不多，不管信什么对女性都不够友善，世俗化的还好点，深挖起来没干净的 其实都是一个神各自解读不同对唯一的神没有异议只是对弥赛亚的解读不同 都特码不是好东西 真主干不过上帝。因为上帝是智慧的象征，真主是愚昧的代表。大卫的子孙们万岁。 反对无效。恐怖分子 得，又特么“谴责”了，算了算了…也让他们动动嘴吧！给点面子……[大笑][大笑][大笑] 干嘛弄得这么激烈！ 不好意思，以色列这两个都不信，人家有自己的神！ 有什么事大哥顶着，怕啥 可以干过玉皇大帝吗 另外烧几个拿破仑 二楼，你是好东西！ 跟巴勒斯坦那样的流氓讲什么道义！ 还谴责呢？干呀。话说这个谴责让我想起了某国。 被烧死的哥白尼有话想说。 上帝和真主是同一个人啊，哥 犹太🐷🐷欺负人耶[暴怒][暴怒][暴怒] 把绿皮教从地球上抹掉才是功德一件，教义里有好的东西，但是反人类的东西混杂太多了，索性都抹去对世界还比较好 上帝和真主本来就是同一人，一楼无知无畏，秀下限 谴责你妈，你他妈倒是干过去啊，死胡克巴 以色列胜了眼前，输了未来，骨子里透着固执与短视，爹一不中用了，到时会被群殴。 请时间退回到1942年4月19日 谴责管毛用不服就打 以色列是伟大的国家。 看了你以往的回帖，每次留下名字就走了 三教都一樣是信同一個神的。。。 你傻逼玩意啊！ 我是无神论者不过阿拉伯国家的女性摊上那么个宗教真够倒霉的 谴责到吐血都没用……🙅 傻逼你上过学吗？别在这丢人显眼！ 不是说那地方快没油了吗？？再让他们折腾几年罢了。。 支持以色列。 都特码不是好东西 比寺庙那种赤裸裸的骗钱确实好多了 要买门票吗？有人要求你烧高香吗？ 真主干不过上帝。因为上帝是智慧的象征，真主是愚昧的代表。大卫的子孙们万岁。 也许以色列现在赢了，毕竟人家有这个实力。但长远来看，这肯定是个巨大的安全隐患。 "
    },
    "Title": "以色列议会通过《耶路撒冷法》 巴勒斯坦强烈谴责_网易新闻",
    "KeyWords": "巴勒斯坦,以色列,耶路撒冷",
    "Article": "（原标题：以色列议会通过《耶路撒冷法》遭巴勒斯坦强烈谴责）国际在线报道：以色列议会1月1日深夜通过《耶路撒冷法》，称以色列放弃耶路撒冷任何一片土地的主权，需要议会三分之二的绝对多数赞成票。巴勒斯坦2日对以色列议会通过该法案表示强烈谴责。据以色列媒体2日报道，《耶路撒冷法》是对以色列《基本法》的一项修正案。该法案明文规定，以色列向外国实体放弃耶路撒冷任何一片土地的主权，需要议会中80名议员的赞成票，也就是议会三分之二的赞成票。该法案的通过是在极右翼政党“犹太家园党”的推动下，在以色列议会中以64票赞成获得通过。“犹太家园党”主席、现任教育部长贝内特在议会发言强调，“这不是一个理论法案，它非常实际，因为已经有人在试图分裂耶路撒冷”。此前，以色列中左翼联盟－“犹太复国主义者联盟”和“未来党”领导人都曾分别表示，耶路撒冷的犹太人居住区属于以色列，但老城区有其“特殊地位”。该法案同时取消了以色列《基本法》中禁止改变耶路撒冷市边界的条款。据报道，取消该条款是由耶路撒冷事务部部长泽埃夫?埃尔金提议的。埃尔金试图从耶路撒冷的市政边界去除那些在耶路撒冷市内、但位于以色列修建的隔离墙之外的阿拉伯人居住的村庄。埃尔金说，新法律“加强了对那些左派人士的防御，防止他们试图在未来破坏以色列对统一的耶路撒冷拥有主权”。另一方面，取消该条款将使以色列政府可以把耶路撒冷阿拉伯人的主要聚居区划分为自治市，并在与巴勒斯坦人的谈判中将其交给巴方。但是根据以色列相关法律，这样做需要举行公民投票。《耶路撒冷法》的通过引起了以色列一些议员的反对。左翼政党“梅雷兹党”议员摩瑟·拉兹说，通过该法案是危险的，因为它将使与巴勒斯坦达成和平协议变得更加困难。他指出，巴勒斯坦人并不是耶路撒冷中的外国人。“未来党”议员欧斐·舍拉赫指出该法案是自相矛盾的，一方面要求放弃耶路撒冷任何一片土地的主权需要绝对多数的赞成票；另一方面，很少有人知道他们将把哪些区域划分在耶路撒冷之外。对以色列议会通过《耶路撒冷法》，巴勒斯坦表示强烈谴责。巴勒斯坦解放组织执行委员会秘书长埃雷卡特2日强调，以色列议会通过《耶路撒冷法》是美国总统特朗普上月宣布承认耶路撒冷为以色列首都后，美国和以色列破坏“两国方案”的又一步骤。他指出，巴勒斯坦方面与美国特朗普当局举行了36次有关巴以和平进程的会谈，但是美方违背了之前做出的承诺。他说，巴勒斯坦总统阿巴斯已表示，美国不再是解决问题的一方，而是制造问题的一方。巴方已中断了与美方的联系，并宣布其不再是巴以和平进程的调解人。本文来源：国际在线责任编辑：范姜国一_NN9138",
    "URL": "http://news.163.com/18/0102/19/D76046RS00018AOQ.html",
    "PublishTime": "01/02/201819:54:13",
    "Source": "Netease"
}