{
    "KeyWords": "美国,拍卖,纳瓦霍,毛毡",
    "PublishTime": "01/02/201809:26:00",
    "Comment": {
        "Link": "http://comment.news.163.com/news2_bbs/D74SFEM100018AOQ.html",
        "Content": "150万美元买了两间屋子和新车。 天降横财还不戴头套，这回傻逼了吧 150万美元买了两间屋子和新车。 天降横财还不戴头套，这回傻逼了吧 挽尊 ",
        "Total": 13,
        "Reply": 3
    },
    "Title": "一夜暴富！美国伤残男子拍卖破毛毡竟获150万美元_网易新闻",
    "Article": "（原标题：破毛毡是个宝美国男子拍卖获得150万美元变富翁）中新网1月2日电据外媒报道，美国加州一名伤残无业男子，把家里的破旧毛毡拿去拍卖，竟然以150万美元成交，让他一跃成为富翁。据报道，该男子克泽原是名木匠，他2007年遭遇意外后失去一只脚又无法工作，仅靠每月200美元津贴过活。有一天他看到电视介绍一条毛毡，发现跟祖母留下来的毛毡十分相似。这条毡子搁在柜里已经7年，差点被丢掉。原来，这是罕见的纳瓦霍(美国西南部的一支原住民族)毛毡。克泽交给拍卖行鉴定，这是条18世纪的珍贵毛毡，以150万美元成交，让他激动不已。克泽用这笔钱买了两间屋子和新车。不过他一夜致富后，立即有家庭成员要求分一杯羹，有姐妹甚至威胁控告他，连他自己的孩子也有不满。本文来源：中国新闻网责任编辑：程钢_NN7377",
    "Source": "Netease",
    "URL": "http://news.163.com/18/0102/09/D74SFEM100018AOQ.html"
}