{
    "PublishTime": "12/27/201708:35:00",
    "Source": "Netease",
    "Comment": {
        "Link": "http://comment.news.163.com/news2_bbs/D6LC6TU000018AOQ.html",
        "Total": 456,
        "Reply": 47,
        "Content": "法国人脑筋短路了吧，这么简单的事都搞不明白。<br><br>如果校车没撞栏杆，肯定是栏杆没放下。如果栏杆放下了，校车肯定把栏杆撞坏。 摄像头竟然坏了 到底要不要抵制家乐福 关键时刻就掉链子的监控摄像系统，总是无处不在的 家楼下的雪铁龙和标志，到底是砸还是不砸？！急！ 我开了一瓶人头马，是喝还是不喝？ 为何没人看到摄像头坏了呢？真不应该啊 法国太落后了，再看看我们，就连乡村小道都装着各种各样的摄像头。 u型锁，链条锁，环型锁哪种好使？用过的人来说下，在线等，急，我的麒麟臂已经急不可耐了[微笑] 这个事，法国司法自相矛盾：若当时栏杆已经放下而司机开车撞坏栏杆进去，那就不是女司机犯了“非故意杀人和伤人罪”了，而且那栏杆也就会是被撞坏的了。而实际是，栏杆还好着哩。（我天天看法国电视新闻学外语） 刘少尧的事调查的怎么样了？八个月还没调查出来？法国这效率。 法国现在站哪头的？喷还是洗？[被黑] 连个监控都没有？ 就算没有放下栏杆，作为校车司机在通过无人看管的铁道路口也应该查看四周情况吧？因为没看路口情况所以搞了个非故意？ 白婊，白婊要不得 福尔摩斯先生，你好 看看栏杆好的坏的不就知道了？ 不要乱说话，砸车之类言辞，网警很强大，玩笑不要乱开 关键时刻就掉链子的监控摄像系统，总是无处不在的 最近买的空客多，肯定要洗。什么时候买波音了再喷 万恶的资本主义，关键时刻又学天朝，选择性坏摄像头 是没行人,还是基本没行人? 不可能啊？法帝那边不是欧洲自由民主的乌托邦么？怎么还有这等屁事？ 刘少尧的事调查的怎么样了？八个月还没调查出来？法国这效率。 就算没有放下，看到火车来了，还要硬过吗？这是什么混蛋逻辑。 多年前开丰田的被开现代的把车砸了换了现代今年又被开丰田的给砸了 法国现在站哪头的？喷还是洗？[被黑] 挽尊 就算没有放下栏杆，作为校车司机在通过无人看管的铁道路口也应该查看四周情况吧？因为没看路口情况所以搞了个非故意？ 火车进入小镇大城不发出长鸣声？ 我现在手里的第七舰队到底要不要派过去？ 我们镇提前10分钟落秆。。哈哈，牛逼吧 家楼下的雪铁龙和标志，到底是砸还是不砸？！急！ 到底要不要抵制家乐福 法国人智商这么低？ 不要急，先看看有没有需要盖着的事再说 资本主义都得喷 先把日韩的砸了，没错。 砸吧。 砸，最喜欢插队的了 摄像头竟然坏了 几把心🤔🤔 遇上这样的新闻是不是像小孩得到心爱的新年礼物一样高兴？ 其实，他们求得不是真相，而是赔偿金，当然的，铁路公司更有钱，赔偿的更多，所以，责任一定要推给铁路公司 万恶的资本主义国家，先喷了再说 u型锁，链条锁，环型锁哪种好使？用过的人来说下，在线等，急，我的麒麟臂已经急不可耐了[微笑] 看他比你穷还是富，比你穷就算了，比你有钱赶紧砸啊，砸了他就比你还穷了 不砸，一伙的[喷水] 这是啥玩意[窃笑][窃笑] 法国人脑筋短路了吧，这么简单的事都搞不明白。<br><br>如果校车没撞栏杆，肯定是栏杆没放下。如果栏杆放下了，校车肯定把栏杆撞坏。 法国摄像头也失灵啊？ 法国太落后了，再看看我们，就连乡村小道都装着各种各样的摄像头。 我开了一瓶人头马，是喝还是不喝？ 为何没人看到摄像头坏了呢？真不应该啊 这个事，法国司法自相矛盾：若当时栏杆已经放下而司机开车撞坏栏杆进去，那就不是女司机犯了“非故意杀人和伤人罪”了，而且那栏杆也就会是被撞坏的了。而实际是，栏杆还好着哩。（我天天看法国电视新闻学外语） 额KKK啦 法国原来也有监控器失灵的情况[大笑] 什么事实都不清楚就签名了？ 连个监控都没有？ 错他们只敢砸比他们穷的比他们富得他们不敢砸 "
    },
    "Article": "（原标题：法国逾万人签名支持与火车相撞的校车女司机）人民网讯据法新社报道，截止12月26日10点半，法国超万人联署支持与火车冲撞的校车女司机。12月14日在东比利牛斯省发生的车祸惨剧造成6名少年死亡。受伤的女司机被以“非故意杀人和伤人罪”起诉。但女司机和校车上的孩子们表示，当时拦路杆并没有放下，而更多的证人却说，当时栏杆放下了。一个名为Change.org的网站5天前发起联署动议，呼吁大家支持被起诉的校车女司机纳蒂娜（Nadine）。联署信指出，出事的米亚斯镇（Millas）的多名居民和周边居民都表示，法国国家铁路公司（SNCF）在米亚斯镇的铁路交叉道口拦路杆系统有时会失灵。联署信也向遇难学生的家人表示巨大支持，称“愿遇难的小天使们安息”。负责该案的马赛检察官塔拉博（Xavier-Tarabeux）表示，在出事巴车找到的痕迹以及列车司机和对面汽车司机的证词与出事女司机的说法相左。据法国电视媒体报道，由于出事地点没有安装摄像设备，远处工厂的摄像镜头也坏了，所以无法确认当时的情景。本文来源：人民网责任编辑：王征_NN7526",
    "Title": "法国逾万人签名支持与火车相撞校车女司机_网易新闻",
    "URL": "http://news.163.com/17/1227/09/D6LC6TU000018AOQ.html",
    "KeyWords": "女车主,校车,法国,遇难"
}