{
    "Comment": {
        "Link": "http://comment.ent.163.com/ent2_bbs/D6JN7UUJ00038FO9.html",
        "Reply": 173,
        "Content": "你不偷人？女的这样搞你钱？ 她家就是胆大妄为骗国家钱。伙同律师骗法院。已经被部队开除，被李军甩了。婚内不穿衣服被各种男人睡，特别脏。 陈红父亲叫陈永才 这就是利用权力害别人的陈家。后来陈爹妈都死了。苍天有眼呐 她花了我一千万！她丈夫在沈星门外被捕时说 原来的厅长，陈有才！ 这一下你还怎么“常回家看看”？ 她妈就是因为陈红违法犯罪被部队开除，就窝囊而死，非法把李军财产转移到她死了的妈妈名下，利用她死了的妈妈的灵魂打官司。她妈妈真是灵魂难安 此女好毒 唱给别人听的！<br>自己母亲死了还被啃……<br>真乃老鼠一族也！ 那是炒作，真够天真！陈红婚内不穿衣服被各种男人睡，身心都肮脏。呕吐 那不是军用马桶吗？ 真的么 这女的的确不咋滴，但做为一个企业家就这智商也是醉了…… 对的，改变了人家一生的命运。她爸爸利用权力帮她抢的。这不后来就死了，报应 陈红已经因为违法犯罪被部队踢出来了。紧跟着她妈妈深感窝囊就丧命了。 骗国家钱，骗法院。不然为什么被部队开除了，人品太差。婚前被包养了7年。 这女的之前在军区和汤灿一样都是jinv 这前夫就是翻墙泡妞被报警的那位吧 两口子都不是好东西，男的好色 两个人结婚也是各取所需而已，女的为了钱，男的为了权 在和陈红结婚之前李军早已功成名就，陈红的爸爸早年遭谴丧命黄泉，为了她爸爸的鬼魂权？不知道别瞎说。显得多无知。 常回家看看 律师也要担责了 这男的纠缠别的女星，人尽皆知，给力的原配就该这么坑他 哪个陈红？ 没有销户怎么办死亡证明 军队中的烂货多多！陈红！谭晶！ 陈红到处请水军叫嚣，违法犯罪被部队开除，被李军甩了，她妈妈羞愧而死，死了都不放过她妈。输了官司，婚前被包养七年，婚内脱了衣服被各种男人睡，没教养的人走到今天没什么大惊小怪的。活该啊 这事就是炒作，你还当真了？ 唱常回家砍砍的那个[窃笑] 那是炒作，你还当真了？真够无知 某个挥手的后人还是后人的qf？ 这个女人唱回家看看的时候就有人说她绝非善类！感觉这人会看相，改天请请他 伙同律师欺骗国家，欺骗法院，胆大妄为，走到今天也是活该倒霉！ 因为做恶太多，早得癌症被天谴死了。她妈妈又被陈红克死了。 我记得原唱是叫耿宁吧 她妈就是因为陈红违法犯罪被部队开除，就窝囊而死，非法把李军财产转移到她死了的妈妈名下，利用她死了的妈妈的灵魂打官司。她妈妈真是灵魂难安 陈红可是正师级现役军人 好像菌二代 长成这样也能被包养啊？ 歌手陈红犯罪以成事实，因此被部队开除，她母亲因受不了屈辱丧命黄泉。到处散布李军过去和沈星的事迹，在此说明：沈星事件纯属炒作，不知者慎言，免遭天谴。陈红无论找水军说什么都是徒劳，臭名昭著，克星一个！克死父母，大家见她都躲的远远的，怕染上病毒 我是比较相信她前夫的话。毕竟她母亲什么时候死的，打官司是什么时候，这些都是有证可查的，随便瞎说基本上一吿一个准。既然她前夫在跟她打官司，不会做出这么蠢的事。 李的事之前是炒作，还当真了？ 背景深厚 她爸是黑龙江省公安厅厅长 一脸婊子象 是的，然后就爆出陈红跟他离婚转移财产等 沈星的事那是炒作，你还当真了？果然天真者无畏。 这男的就是白天爬沈星窗户然后被抓之后被爆出轨的哥们儿？ 这回复怎么被人承包了？ 亚之杰品牌毁于一旦 陈红是克星，把她父母都克死了，婚前被包养七年，婚内脱了衣服被各种男人睡，好好滑稽的样子。因为违法被部队开除，她娘因此羞愧而死，死了她还捉弄她妈妈，好好有趣 陈红到处请水军叫嚣，违法犯罪被部队开除，被李军甩了，她妈妈羞愧而死，死了都不放过她妈。输了官司，婚前被包养七年，婚内脱了衣服被各种男人睡，没教养的人走到今天没什么大惊小怪的。活该啊 你是仇富？还是羡慕？陈红婚内脱了衣服被各种男人睡好滑稽的样子，你看着不错？ 陈红是克星，把她父母都克死了！ 这个山东临沂的怎么一直在这给人回复评论呢你是不是有什么问题还是你有隐情？ 99年春晚唱红的 多少年了？ 她父亲利用权力帮她抢别人的常回家看看这首歌，改变了别人一生的命运，这不她父做坏事太多遭谴早死了。陈红又因违法犯罪被部队开除，而后克死她妈妈。婚内脱了衣服被各种男人睡，好滑稽的样子哈哈哈哈哈 亚之杰真心好着呢，无知者无畏！亚之杰牛逼着呢，你仰慕吧？没有吧？仇富吧？活该！哈哈哈 一个女的整天呆在几万个光棍男中，哪怕一头母猪，都有人排队等着上。 此女好毒 你还记得这女的名字啊，我都忘了， 少你妈穴！ 沈星事件纯属炒作，是成为了毁坏李军声誉自行虚构的。她的想象力太丰富，都能替死人签字打官司，什么干不出来啊，哈哈哈哈哈哈 亚之杰品牌在汽车行业无人能敌，李军为人一级优秀！歌手陈红这个克星克死爹娘，被部队开除，婚内脱了衣服被各种男人睡，婚前被包养7年，那模样真滑稽 她爸爸利用权力帮她抢别人的常回家看看这首歌，改变了别人一生的命运，其父自己做坏事太多遭报应早死了。后来陈因违法被部队开除，又把她妈妈克死了。哈哈好滑稽， 不要脸呗，心机婊。婚前被包养了7年。现在她妈妈都被她弄死了，死了还捉弄她妈妈，克星啊 何止无耻？她被部队开除，把她妈妈克死了，死了都不放过她妈，令她妈妈灵魂难安。婚前被包养7面。婚内被各种男人睡，好好滑稽的样子。 陈红是不是太无耻了。 是。 陈红是克星，把她父母都克死了，婚前被包养七年，婚内脱了衣服被各种男人睡，好好滑稽的样子。因为违法被部队开除，她娘因此羞愧而死，死了她还捉弄她妈妈，好好有趣 沈星事件纯属虚构炒作，是歌手陈红用来毁坏李军声誉胡编乱造的。歌手陈红被部队开除，她妈妈嫌丢人，哈哈滑稽的死了，真搞笑， 陈红她爸爸利用权力帮她抢的，改变了别人一生的命运，这不遭谴早死了。她是克星，违法被部队开除，她妈妈羞愧而死！死了还冒充死人打官司！国家会彻查到底！ 她花了我一千万！她丈夫在沈星门外被捕时说 对了，陈红婚前被包养了7年，你和她睡过几天？ 陈红是克星，把她父母都克死了，婚前被包养七年，婚内脱了衣服被各种男人睡，好好滑稽的样子。因为违法被部队开除，她娘因此羞愧而死，死了她还捉弄她妈妈，好好有趣 这是炒作，你还当真了？无知者无畏。 这个女人唱回家看看的时候就有人说她绝非善类！感觉这人会看相，改天请请他 这事就是炒作，你还当真了？果然无知者无畏 婚前被包养了7年！ 你是陈红请来的水军？贼不打自招。你哪只眼睛看见的水军？对了，陈红教没教你怎么克死她妈妈的？怎么婚内脱衣服被各种男人睡的？怎么婚前被包养7年的？ 给你们变一个魔术：你们先点击一下我右上角的那个大拇指，点了之后就变成橙色，这时，你再点一下，就会出现6个让你受益匪浅的字！ 陈红的孩子姓曾？ 这男的玩沈🌟不是被抓过么？😅😅😅 陈红婚前被包养了7年！哈哈婚内脱了衣服被各种男人睡，好滑稽 陈红是克星，把她父母都克死了，婚前被包养七年，婚内脱了衣服被各种男人睡，好好滑稽的样子。因为违法被部队开除，她娘因此羞愧而死，死了她还捉弄她妈妈，好好有趣 炒作也信？无知者无畏 你爬沈星窗户的事自己来说说，丢人 19岁大学毕业时找工作，面试时对面坐着的漂亮女白领，是人力资源部经理，她问我：你能干多长时间？我有些诧异，但还是老老实实回答：一般半个小时，状态好的时候四十分钟。她低声说：我是说你在这儿能干多久？我环顾四周，有些羞涩的说：这我可能放不开，我从没当着这么多人，真的不太习惯。三天后我被录取了，知道她原来是老板娘。她送给我一本《能量决定命运》，让我学习红浅学。三个月后她挺着肚子辞职离开公司，临行前嘱咐我一定认真学习，不学红浅学，赶不上马化腾，娶不起林志玲。不读《能量决定命运》，富不过刘强东，跑不过贾跃亭。二十年后孩子会来认你的。 水军 哈哈，曾经看到过这个新闻 早就知道某红不是好人，这首《常回家看看》原唱另有其人，后来某红看这歌好，就靠背景强行给人家夺了才上的春晚，这事当年圈里人都知道，只不过她家当年势力大，人家不愿惹事。 陈红因为违法被部队早开除了，她妈妈因此羞愧而丧命，她是克星！冒充死人打官司，国家会彻查她！ 我是比较相信她前夫的话。毕竟她母亲什么时候死的，打官司是什么时候，这些都是有证可查的，随便瞎说基本上一吿一个准。既然她前夫在跟她打官司，不会做出这么蠢的事。 《中国人民解放军内务条令》规定，“军人不得经商,不得从事本职以外的其他职业和有偿中介活动。” 要是真的话，确实是人渣啊。 此贱男花了上千万包养沈女士，之后沈劈腿，不甘心被甩，于是翻墙进入沈女家里，未料沈女的闺房里还藏另一个相好，顿时两男为沈女大打出手，惊动警察。简直是狗血剧 贼不打自招 长成这样也能被包养啊？ 种瓜得瓜种豆得豆 沈星事件纯属炒作，是陈红为了毁坏李军声誉胡编乱造的言论。陈红是克星把她父母都克死了。她遗传她爸爸癌症也没几天了，好好滑稽，想想都令人兴奋！ 。。。 那是炒作，无知者无畏的草民！ 为不打自招，估计陈红给你讲过她婚内脱了衣服怎么被各种男人睡她的，好有趣 红你妈穴！ 长成这样也能被包养啊？ 都被香港警方抓了，炒作？这女的名声都臭了，有人炒作把自己送入监狱和断送名声的吗 这事是炒作，你还当真了？果然无知者无畏。对了陈红没教教你她是如何婚内脱了衣服被各种男人睡的？还有她没给你讲讲她是如何克死她妈妈，死了都还捉弄她妈的？ 李军和沈星的事纯属炒作，还当真了？无知者无畏 这事是炒作你还当真了？无知者无畏。 你还认识李军？你是多仰慕他？到哪都以为是他本人，你太小瞧他高抬自己了。 生命是能量的载体，能量释放曲线就是命运轨迹——红浅学 年你妈穴！ 我怎么觉得她长的还可以，十几年前的时候幻想过她。 能量包括潜能和显能，显能决定现在，潜能决定未来，开发潜能会导致早衰——红浅学。 这事是炒作，你还当真了？陈红被部队开除，被李军甩了，就是一克星，把她妈妈克死了，哈哈陈红活的好讲究，娘死了都捉弄她娘 这男的就是白天爬沈星窗户然后被抓之后被爆出轨的哥们儿？ 你不偷人？女的这样搞你钱？ 李军你好 那是炒作，你还当真了？果然无知 你还记得这女的名字啊，我都忘了， 那是炒作，你还当真了？果然天真者无畏 流星月亮地球太阳系有发动机么？没有!他们却高速在宇宙中运行!为什么？因为他们的运行轨道本身就是太空高速时空隧道!他们的运行路线一半为去路一半为来路，周而复始地运行着!地球自转公转着，本就没有东西南北上下左右等方位!谁定的？我们的天父啊!目的只有一个，告诉人类我们天父的星座方位!所以九曲桥的方向始终对着东北方!在宇宙一切物质中，永远是子体围绕母体运动，这是恒定的!所以地球自转并围绕太阳公转!因地球是自转公转的，所以根据地球的东西南北是找不到星外文明的星座方位的!只有找到太阳的上下前后东西南北才能准确地给天父星座方位定位!我们天父星座方位在太阳系东北上方第九颗恒星那里!那里以双伴恒星为中心带动周围108颗恒星运动着! 陈红父亲叫陈永才 这就是利用权力害别人的陈家。后来陈爹妈都死了。苍天有眼呐 这事就是炒作，你还当真了？ 这位老公就是强闯著名的凤凰卫视美女主持人沈星闺房的那位。 陈红是个克星，把她父母都克死了 呦！你还认识李军？给他打过工？ 冷艳教教主 真是无知者无畏，李军已经赢了官司，陈红输了官司，陈红一违法犯罪之徒被部队开除，害死她妈妈，她还敢说话？她就是地下老鼠，就是一克星，把父母都克死了。 此女好毒 那是炒作，真够天真！陈红婚内不穿衣服被各种男人睡，身心都肮脏。呕吐 出轨那个陈红吗？ 这位老公就是强闯著名的凤凰卫视美女主持人沈星闺房的那位。 那是炒作，你还当真了？果真无知 那是炒作，你还当真了？果然无知 对的，改变了人家一生的命运。她爸爸利用权力帮她抢的。这不后来就死了，报应 这是事实，陈红给了你多少钱让你来攻击事实？陈红因违法被部队开除，她妈妈受不了这侮辱而死，这不是克星？她父亲为他抢别人的常回家看看，结果也因做坏事多丧命，这不是克星？婚内脱了衣服被各种男人睡，害她儿子嫌她肮脏，这不是克星？哈哈，很是滑稽的一生，生活真美好，阳光真灿烂！啦啦啦啦 常回家看看？看哪了。 那是炒作，你还当真了？果然无知 骗国家钱，骗法院。不然为什么被部队开除了，人品太差。婚前被包养了7年。 这女的之前在军区和汤灿一样都是jinv 某个挥手的后人还是后人的qf？ 那是炒作，你还当真了？果然无知 呵呵 这前夫就是翻墙泡妞被报警的那位吧 两口子都不是好东西，男的好色 两个人结婚也是各取所需而已，女的为了钱，男的为了权 李军之前的事就是炒作，还当真了？果然天真。 是啊，陈红把她妈妈克死了，可不是冷血嘛！死了都不放过她妈妈。克星！ 在和陈红结婚之前李军早已功成名就，陈红的爸爸早年遭谴丧命黄泉，为了她爸爸的鬼魂权？不知道别瞎说。显得多无知。 这女的的确不咋滴，但做为一个企业家就这智商也是醉了…… 这位老公就是强闯著名的凤凰卫视美女主持人沈星闺房的那位。 这位老公就是强闯著名的凤凰卫视美女主持人沈星闺房的那位。 常回家看看 炒作，别替陈红叫嚣了，无知者无畏 你多么仰慕李军？到哪都以为是李军本人，你接触不到做梦都想认识他？ 沈星的事那是炒作，还当真了？果然天真者无畏 明摆着陈红找来一波不要脸的想为自己洗白。事实清楚，输了官司，被部队开除，被李军甩，违法犯罪都已是定局。她妈妈就是受不了她女儿这么不要脸屈辱而死。人死了还利用母亲，克星！ 李军之前的事就是炒作，还当真了？果然天真。 她花了我一千万！她丈夫在沈星门外被捕时说 那是炒作，你还当真了？你很是天真呢 律师也要担责了 原来的厅长，陈有才！ 这男的纠缠别的女星，人尽皆知，给力的原配就该这么坑他 哪个陈红？ 没有销户怎么办死亡证明 这就是利用权力害别人的陈家。后来陈爹妈都死了。苍天有眼呐 军队中的烂货多多！陈红！谭晶！ 沈星的事那是炒作，还当真了？果然天真者无畏 我是比较相信她前夫的话。毕竟她母亲什么时候死的，打官司是什么时候，这些都是有证可查的，随便瞎说基本上一吿一个准。既然她前夫在跟她打官司，不会做出这么蠢的事。 那是炒作，你还当真了？真够无知 伙同律师欺骗国家，欺骗法院，胆大妄为，走到今天也是活该倒霉！ 领稿费去吧新号专喷人的吗 陈红就是克星，把她父母都克死了！ 那是炒作，你还当真了？果然无知 这位老公就是强闯著名的凤凰卫视美女主持人沈星闺房的那位。 是的，然后就爆出陈红跟他离婚转移财产等 伙同律师欺骗国家，欺骗法院，胆大妄为，走到今天也是活该倒霉！ 因为做恶太多，早得癌症被天谴死了。她妈妈又被陈红克死了。 我记得原唱是叫耿宁吧 好像菌二代 歌手陈红犯罪以成事实，因此被部队开除，她母亲因受不了屈辱丧命黄泉。到处散布李军过去和沈星的事迹，在此说明：沈星事件纯属炒作，不知者慎言，免遭天谴。陈红无论找水军说什么都是徒劳，臭名昭著，克星一个！克死父母，大家见她都躲的远远的，怕染上病毒 14年，应该足够了解一个人，从什么时候起开始划清界线，开始所谓变“坏”，不可能只是一方之责。只是陈红方目前看是得利者，所以不发一语让法律判定，而失利者因为没占法律赢面方，就不停发微博一吐为快，把没有“证据”可以证明的失利在舆论点上造势，但法律终究只看证据，这只是失利方的一点心理补偿。夫妻如此，终究两败俱伤。 李的事之前是炒作，还当真了？ 背景深厚 沈星的事就是炒作，你这是当真了？果然天真者无畏，呵呵 一脸婊子象 这男的就是白天爬沈星窗户然后被抓之后被爆出轨的哥们儿？ 沈星的事那是炒作，你还当真了？果然天真者无畏。 李军你好 她家就是胆大妄为骗国家钱。伙同律师骗法院。已经被部队开除，被李军甩了。婚内不穿衣服被各种男人睡，特别脏。 啧啧，有背景 常回家看看 哪怕帮爸爸妈妈折折筷子摔摔碗 狗血淋头 陈有才就是因为做坏事太多遭谴死了。帮陈红抢别人的常回家看看这首歌，她家真不要脸。 原来的厅长，陈有才！ 我看成是韩红 都十多年了还离婚，是没弄爽吗？ 哪个陈红？ 没有销户怎么办死亡证明 常回家看看，回家看看 她妈就是因为陈红违法犯罪被部队开除，就窝囊而死，非法把李军财产转移到她死了的妈妈名下，利用她死了的妈妈的灵魂打官司。她妈妈真是灵魂难安 没完没了 唱给别人听的！<br>自己母亲死了还被啃……<br>真乃老鼠一族也！ 她妈妈的灵魂在野外漂泊无家可归，都是被陈红害死的 紧啊 陈红已经因为违法犯罪被部队踢出来了。紧跟着她妈妈深感窝囊就丧命了。 唱常回家砍砍的那个[窃笑] 这是炒作，你还当真了？ 她妈就是因为陈红违法犯罪被部队开除，就窝囊而死，非法把李军财产转移到她死了的妈妈名下，利用她死了的妈妈的灵魂打官司。她妈妈真是灵魂难安 陈红可是正师级现役军人 陈什么才就是因为帮陈红非法抢夺别人的常回家看看这首歌，改变了别人一生的命运，这不也遭谴早年死了。陈红又把她妈妈害死了，真是克星啊！ 陈红已经因为违法犯罪被部队踢出来了。紧跟着她妈妈深感窝囊就丧命了。 没有好人 她妈妈的灵魂在野外漂泊无家可归，都是被陈红害死的 这一下你还怎么“常回家看看”？ 伪造遍及的锅度呵呵。 无耻之尤 估计她妈妈经常会去看她的． 这男的就是白天爬沈星窗户然后被抓之后被爆出轨的哥们儿？ 151我佩服过三个男人，一是许仙，二是董永，三是宁采臣。一个敢睡蛇，一个敢睡仙，最后一个连鬼也不放过。直到看了花千骨，我才知道，落十一才是真汉子，敢睡毛毛虫。最看不起的就是孙悟空，把七个仙女定住，他居然跑去偷桃子了、但是不得不佩服孙悟空他爹、居然能把石头整怀孕！有人说我水经验，我上去就是一巴掌，***的不是废话么，不水怎么升级，以前不懂，看帖总是不回。一直没升级和增加经验，现在我明白了，反正回帖15字就可以升级，还可以有经验。升级又需要经验，于是我把这话复制下来，遇帖就回，捞完就闪我只是来赚积分的。 ",
        "Total": 1914
    },
    "Article": "网易娱乐12月26日报道12月26日，歌手陈红前夫李军就陈红冒充死去的母亲打官司扰乱法庭再发文。李军透露，2014年陈红借母亲之名曾非法转移自己的财产至其名下，而在其母亲去世一年多以后，仍然为达到继续非法侵占资产的目的，刻意隐瞒母亲死亡的消息。2017年8月份和9月份，陈红弟弟陈军还作为其母亲李善荣的授权委托人到法院代理案件，李军认为其扰乱司法正常程序。李军还透露陈红母亲去世后一直没有销户也是为了继续欺骗侵占财产。据悉，2014年3月5日，歌手陈红与李军结束长达14年的婚姻，2015年的6月29日，李军在微博晒出昔日全家福照片，以及两人的离婚证书，并且发长文控告陈红。全文如下：陈红之母李善荣，已于2016年9月2日去世，到现在已有一年多的时间了（我和我的家人也是前段时间通过到其户籍所在地哈尔滨道里区派出所求证，才知道李善荣死亡的消息和事实）。李善荣作为陈红非法转移资产的接受者（2014年3月3日，陈红伪造我和我母亲的签名，通过伪造的股权转让协议和出资转让协议提交虚假材料向工商部门骗取变更，将我的资产非法转移至其已快70岁的母亲李善荣名下），按照相关法律法规，去世的人就丧失行使民事权利了，陈红本应将其母亲死亡的信息告知法院和公司股东，但其为达到继续非法侵占资产的目的，刻意隐瞒母亲死亡的消息。2017年8月份和9月份，陈红弟弟陈军还作为其母亲李善荣的授权委托人，到北京市第三中级人民法院代理此案件，陈红代理亚之杰置业公司共同出庭，明目张胆欺骗法院，扰乱法庭，拖延诉讼，企图为非法转移资产赢得时间。我请问？那时其母亲已经死亡一年，死者如何委托？死者如何签字？难道活见鬼了？另外，陈红害怕其母亲死亡的事情败露，一直欺骗公安机关，不主动到派出所注销其母亲李善荣户口（至今没有主动去注销，因此，派出所已于2017年9月15日强制将户口注销）。请大家想想，死者为大，逝人为安，天理人伦，陈红和陈军作为儿女，用逝去的母亲打官司，以达到非法侵占资产的目的，于法不顾，孝心何在？良心何安？天理难容！如果你们的父母在天有灵，也会为你们这姐弟俩的所作所为羞愧难当。十九大吹响了依法治国的号角，在习总书记的领导下，我国的法治环境越加清朗、清明、公正。我坚信：公平正义可能会迟到，但从不会缺席。天道有常，善恶终报。法网恢恢，疏而不漏。我希望法院尽快作出公正的判决，还我一个公道。本文来源：网易娱乐责任编辑：胡梦瑶_NK5655",
    "PublishTime": "12/26/201717:36:02",
    "URL": "http://ent.163.com/17/1226/17/D6JN7UUJ00038FO9.html",
    "Title": "前夫控告歌手陈红 冒充死人打官司扰乱法庭_网易娱乐",
    "KeyWords": "陈红,法庭,李军,法院",
    "Source": "Netease"
}