{
    "Article": "（原标题：普京递交大选文件正式成为2018俄总统候选人）",
    "Source": "Netease",
    "KeyWords": "普京,大选,俄罗斯,选举",
    "Title": "普京递交大选文件 正式成为2018俄总统候选人_网易新闻",
    "Comment": {
        "Total": 333,
        "Content": "丁春秋一样的人物！ 直接当非得搞这么大的动静 普京很能，给统一俄罗斯党和梅德韦杰夫留好名声，以独立候选人参加大选。 这个普京有问题 危害不仅仅是俄罗斯，要警惕有人从中得到启迪 二个人的性福生活 直接称帝就行了，搞得这么复杂有意思么。 直接当行了，不用怎么多套路了 何必这么麻烦，接着宣布把自已的有生之年都献给伟大的俄国人民就行了 危害不仅仅是俄罗斯，要警惕有人从中得到启迪 危害不仅仅是俄罗斯，要警惕有人从中得到启迪 好朋友！！！！！！ 普京主义道路还处于初期阶段、发展阶段，俄罗斯民众的美好生活还在后面呢，“给我二十年，还你一个强大的俄罗斯”只差三年了。 官迷 好你说咋滴就咋滴 丁春秋一样的人物！ 直接当非得搞这么大的动静 普京很能，给统一俄罗斯党和梅德韦杰夫留好名声，以独立候选人参加大选。 这个普京有问题 危害不仅仅是俄罗斯，要警惕有人从中得到启迪 二个人的性福生活 直接称帝就行了，搞得这么复杂有意思么。 直接当行了，不用怎么多套路了 何必这么麻烦，接着宣布把自已的有生之年都献给伟大的俄国人民就行了 友持普京。 危害不仅仅是俄罗斯，要警惕有人从中得到启迪 危害不仅仅是俄罗斯，要警惕有人从中得到启迪 好朋友！！！！！！ 普京主义道路还处于初期阶段、发展阶段，俄罗斯民众的美好生活还在后面呢，“给我二十年，还你一个强大的俄罗斯”只差三年了。 官迷 好你说咋滴就咋滴 ",
        "Reply": 16,
        "Link": "http://comment.news.163.com/news2_bbs/D6MFJUL90001899N.html"
    },
    "PublishTime": "12/27/201719:20:29",
    "URL": "http://news.163.com/17/1227/19/D6MFJUL90001899N.html"
}