{
    "Title": "蔡依林喜欢“大肚腩暖男”：很有安全感_网易娱乐",
    "PublishTime": "01/01/201809:09:26",
    "URL": "http://ent.163.com/18/0101/09/D728KLBA00038FO9.html",
    "Source": "Netease",
    "KeyWords": "蔡依林,捉妖记2,大肚腩,暖男",
    "Comment": {
        "Reply": 22,
        "Content": "我确实是喜欢大肚腩的中年男子 蔡依林被上海的狗gay爆过后门，得了艾滋 你妈估计被台湾人轮了个变 抬毒丑鸡蔡依林，跨年晚会嗓子真难听，是被大肚子暖男陈啊扁通了嗓子吗 可问题是我们是异性恋 人跟卡通可不一样，有大肚腩的男性朋友不要开心太早哦！🤣🤣 你爸被上海的狗爆了一遍肛 和杜海涛结婚啊 让我这疯狂健身的肌肉男情何以堪 男胖短，女胖深 现实中还是喜欢小鲜肉啊 [色色][色色][色色][色色][色色][色色][色色][色色][色色][色色][色色][色色][色色][色色][色色] 我喜欢.摸着有手感 台不台独不知道，蔡是真丑逼，跟凤姐那是亲姐妹，凸牙香肠嘴，又矮又丑，自以为时尚。二楼这种脑残蠢逼才会当这种丑逼的粉丝。cao尼玛二楼。 嫁不出去了 潘玮柏潘戏子可以啊[大笑][大笑] 我确实是喜欢大肚腩的中年男子 刚才男同事和女同事聊天，女同事说，特别怕黑，男同事说，怕黑干嘛，黑只是一种颜色女同事说，那你害怕绿吗？ 我要摆脱小肚腩 可问题是我们是异性恋 和杜海涛结婚啊 嘻嘻嘻嘻嘻🤗🤗😜😘😘😘😘😘么么哒😗😗😗😗😗😗😗😗😗😗 你妈估计被台湾人轮了个变 嫁不出去了 潘玮柏潘戏子可以啊[大笑][大笑] 台不台独不知道，蔡是真丑逼，跟凤姐那是亲姐妹，凸牙香肠嘴，又矮又丑，自以为时尚。二楼这种脑残蠢逼才会当这种丑逼的粉丝。cao尼玛二楼。 哈哈哈，我就喜欢你这类型的😍😘😚😋 蔡依林被上海的狗gay爆过后门，得了艾滋 抬毒丑鸡蔡依林，跨年晚会嗓子真难听，是被大肚子暖男陈啊扁通了嗓子吗 蔡依林，别惦记我家洪金宝，滚开（范BB新年贺词） 你爸被上海的狗爆了一遍肛 人跟卡通可不一样，有大肚腩的男性朋友不要开心太早哦！🤣🤣 😁我也喜欢肉多多肉嘟嘟 让我这疯狂健身的肌肉男情何以堪 男胖短，女胖深 现实中还是喜欢小鲜肉啊 [色色][色色][色色][色色][色色][色色][色色][色色][色色][色色][色色][色色][色色][色色][色色] 我喜欢.摸着有手感 ",
        "Total": 510,
        "Link": "http://comment.ent.163.com/ent2_bbs/D728KLBA00038FO9.html"
    },
    "Article": "蔡依林赞妖界第一暖男笨笨有个大肚腩，十分有安全感。网易娱乐1月1日报道北京时间1月1日消息，据香港媒体报导，蔡依林为梁朝伟演出的贺岁电影《捉妖记2》唱主题曲《什么什么》，MV玩穿越情节，她与一众《捉妖记2》的妖怪穿越到现代办公室，大家一起共舞，配上七彩缤纷的场景与轻快节奏，开心得有如开派对。妖怪们经常围着蔡依林，超受欢迎的她十分开心，令她的少女心爆发，还躺在妖界第一暖男，新妖怪笨笨的身上。她说：“我很喜欢他，因为他有一个大肚腩，很有安全感，找到我的另一半了。”她还不停地打笨笨的大肚腩，一向最可爱的小妖王胡巴有劲敌了。本文来源：网易娱乐责任编辑：陈少杰_b6952"
}