{
    "Source": "Netease",
    "KeyWords": "挪威,韩国,K9,",
    "URL": "http://war.163.com/photoview/4T8E0001/2286804.html",
    "PublishTime": "12/23/201711:51:08",
    "Comment": {
        "Content": "500亿造出垃圾级的发动机。 我觉得这个不单单是这种原因吧，买北约武器，你在仿制，然后获取技术更低价卖出，这个也是部分国家不卖中国武器的一大原因吧，如果不服，请参照俄制各种武器，乌克兰要不是没钱，他能卖个废航母？没有废航母，中国能造出自己第一个国产航母？ 棒子K9哪个出口合同不是赔本卖。这种出口合同都是整套系统报价，你丫按车体报价人家能让你去竞标？车体也是王师和汉斯的，棒子只会装配 武器系统只有合适不合适，没有好不好。 当然是！基本上只要是铁的零件都是进口的！但是，中国的木结构还是很厉害的，比如说里面的方向盘就是我们国产的！ 很想知道你的思想中。中国连炮管都制不出来吗？从哪些傻逼媒体上得到的消息，希望给出。 是从奥地利还是瑞士弄来的技术用的很成功 不是 楼上蛾狗急的用屁股唱红哥。 呵呵，3楼这个S.B，象条疯狗一样，，，， 你个脑残连美的炮管都是进口德国的，你也有脸吹。<br>宝钢都是日本控股，全套日本技术，你还有脸吹。 大陆的这些傻粪，就是为了黑韩而黑韩，都是被那个抢祖宗的谣言忽悠起来的脑残。 PLZ45当时狗大户买的时候还没有研发完，有了资金注入才搞出来，实际上就是交保护费。挪威作为北约成员国不可能买中国的装备，另外K9账面的性能确实比PLZ4要好。 大陆的脑残粪天天就是掩耳盗铃，活在谣言之中。。 韩国的制造业很厉害啊，往英国卖军舰，往北欧卖火炮，往东欧卖坦克，飞机，确实牛X 对越反击战，炮击的时候发生过炸膛，一下炸死整个炮班！ 制造业大国就这几个，传统武备越来越多会是东亚产。 请教一个，中国的炮的炮管是进口的吗？ 继续给人家起外号贬低人家呗，什么棒子，鬼子，🐒，湾湾，阿三。。。。村里还有几个人跟你玩耍。。。 北约，英联邦国家的武器不好？要买你中国的？ 是的，日本进口的 总之一句话，买欧美的太贵，买中国、俄国的政治不允许（同盟买竞争对手的军火）， 棒子卖给土耳其的K9出奇的便宜，还附赠了一条汽车生产线 连巴铁都不想买中国装备，有时连白送都不要。 照你丫这么说棒子是卖嘴皮子就把K9卖出去了，连装配都省了，还不用负担售后责任，这么会挣钱啊，这得给你发多少狗粮？ 西方能拿的出手的自行火炮还真没有，不然挪威也不会买韩国的，美国前几年有十字军，但研发成本高被终止了，不是说技术不行，而是战术思想不同，老美能用空军解决的绝不麻烦陆军！ 不买还好，买了战时只能惨败。这叫缘分啊！哈哈哈！ 买汽车就看你穷不穷，也没有好不好。只要穷一定有款适合你。 瓦良格根本就不是废航母，而是因为没有资金了无法继续建造的航母，懂？<br><br>另外，就算没有瓦良格，我们也同样可以造航母，只不过没有训练用的现成航母了以，中国一共买过四艘航母，明斯克号，基辅号，墨尔本号，瓦良格号 销量代表质量 怎么一爱国就有日杂、美狗、鹅毛出来咬人呀！ 它们能知道什么，脑残傻粪的特点就是无知无耻， 中国工业化的奠基-前苏联156项目引进后就可以自产了，二战以来炮管技术进步有限，基本没有超出二战战列舰大口径火炮技术多少，都是在减重，增加寿命，降低成本方面的进步，中国自造自行火炮稳定性方面比棒子K9要好中东土豪阿联酋科威特能看中的性能肯定不差，棒子系统集成能力有限，德国的动力包，英国的炮塔，美国的火控技术没集合好，经常出问题 我们聊聊一汽吧 挪威就是想买中国货美国也不会答应。 真让价廉物美商标产品的制造大国赚吆喝啊 是的，国内的无缝钢管流水线非常差，几乎没有耐久性可言 5楼日杂急眼了。 5楼日杂急眼了。 你说的好像跟模仿个车壳子就能卖一样，军品套路根本不一样！军标不是一时半会能抄的，我们卖给科威特的PLZ45只是在弹药兼容性上可发射北约弹药，对于海湾国家足够了，但是对于北约国家来说无法融入其装备体系！另一个最重要的原因就是政治因素。没有瓦良格我们就造不出航母纯属扯卵蛋，有瓦良格参考只是大为缩短了我们的研发时间而已！日本也是靠山寨西方列强起家才走到今天的，建议你多读读书，别他妈人云亦云！ 你就是个SB阉犬。土耳其T-155“佛提纳”就是按韩国许可生产的K-9都不知道？ 一条破船修了十几年，你个傻狗还有脸舌忝。 楼上山洞傻狗 咋地！买韩国货不服气啊！酸啊 萨达姆说了不打我我现在还再吹，一打露馅了，呵呵呵 炮钢很难造中国可以造技术是引进的 别一说国内的钢就是你嘛宝钢的日本技术。中国的钢产量可不是宝钢一家能生产的，炮管加工也不是什么拿成品钢来造。中国二重听说过没？对越反击战中用的炮都是这儿造的。跟宝钢的日本技术没一分钱关系。全部国产设备。自己炼钢，直接钢水浇筑完了锻造。 这二个国家在世界上都没排上号。还用它们的技术。你比那个说材料是从德国弄的更能吹。记住了。欧洲对华一直在武器上从材料到技术都是禁止出口的。 这些傻屎连土耳其T-155“佛提纳”就是按韩国许可生产的K-9都不知道。 去尼玛币的，日本的炮钢都是从日本制钢所（JSW）采购的。<br>日本钢铁企业的冶炼技术是世界霸主，全世界几乎所有高炉或炼钢厂都是利用日本的许可证建造（包括欧美，当然也包括德国）。不过日本免除了中国所有钢铁厂的专利费，中国的宝钢、鞍钢、唐钢、武钢无一例外都是日本钢铁企业设计规划和建造的，甚至连工人操作手势和站姿都手把手教给你。<br>日本的钢铁企业像新日铁、JFE、住友金属、东京制纲、神户制钢随便哪一家站出来都碾压大陆所有钢铁厂。单就产量而言高端特种钢市场，日本占据了近40%，而中国只占2%不到，而且还是以赠送或者随工程配送出去的。<br>有脸在日本面前吹炼钢技术的人，这个脸皮都不是一般的厚了呵呵。 老苏那些傻大黑粗的山寨货，谁稀罕？ 山寨大国 这些都是钻了军民两用的空子弄进来的你别想当然发表意见前先查查资料 三星重工的产物 军火不完全适用这句话 西方拿不出手自行火炮？德国那货，M109，英法都有合适的产品，哪样比你差。当年拿到点斯太尔的炮身技术搞得飘飘然天下第一了。当然西方现在基本都不造自行榴弹炮，现在流行超轻榴弹炮，高机动才是主流。Bae的M777和L118才是主流。 地震天谴还不忘唱红哥的蛾狗急了。 🐔国技术一直是不可靠的代名词怎么有人要了舔.... 脑残，日本炮钢还是进口德国的，中国还进口日本的？不懂不要丢人现眼 自产的!别人也不卖啊!<br>坦克炮管使用电渣重熔技术制造,德国第一,国内一般,排名靠后,所以与俄罗斯一样,依靠大口径弥补炮管水平低的缺陷,也就是同样的指标,需要更大的口径才能做到. 那是16年前价格懂吗，还不是全套而是车体。 O(∩_∩)O哈哈~1楼这得多鲨笔啊 都说炮钢很难造只有几个国家有。而中国也一直是整个西方对武器控制出口的国家。凡是与武器装备有关的材料及资料都禁止出口中国的。中国不能自己造。这半个世纪是如何发展的？ 大陆的这些傻粪，就是为了黑韩而黑韩，都是被那个抢祖宗的谣言忽悠起来的脑残。 你这杂货也不看看欧美日韩国内是怎样贬低中国的中国就你们这种走狗太多 给外国人跪舔习惯了？不愿意站起来了 网易脑残傻逼喷子多，楼上不能当真的，看看就好了 对对对对~~~~赶紧让所有人都知道吧，这可是天大的好消息 只能占领亚非拉，打不进欧美高端市场他们急呀！没办法，当初自己选了苏联当叠的。 不是 楼上蛾狗急的用屁股唱红哥。 为什么美国不会答应 请教一个，中国的炮的炮管是进口的吗？ 估计这个历史不知道的是你。当世界开始搞对抗时，西方的巴黎统筹会对所有社会主义国家进行所有物资控制。后来美国人为了搞垮苏联，与中国开始建交，适当放宽对中国武器方面的禁运。当老毛子被搞解体后，这个巴统筹出了一个专门针对中国的武器禁运的。还有那个七楼的，炮钢材料选择与冶炼、电渣重熔、深孔加工、身管自紧、内膛表面处——多种技术。而中国早期用的是用稀土或钒元素代替镍元素的炮钢，改革开放后在镍元素炮钢技术普及后开始大量使用。 对越反击战，炮击的时候发生过炸膛，一下炸死整个炮班！ 自己搜索k9火炮都是你们铁轮帖子辱骂的内容。你们那地方还用黑？ 其实在火炮方面，中国说第二，没人敢说第一，这方面你们可以查阅任何资料，挪威不买中国火炮唯一原因是作为非北约成员国和美国的头号战略对手，挪威不可能冒受打压的危险买中国的武器，中国也没打算自讨没趣凑热闹。 继续给人家起外号贬低人家呗，什么棒子，鬼子，🐒，湾湾，阿三。。。。村里还有几个人跟你玩耍。。。 北约，英联邦国家的武器不好？要买你中国的？ 是的，日本进口的 讲真，就火炮而言，除俄罗斯外真没有比天朝更好的火炮！ 早期那就是苏联援助呗 印度进口俄罗斯的东西还少吗？ 好是好，就是贵 三星TECHWIN 希腊的S300也不看是什么时候买的，斯洛文尼亚的虎式战车是什么鬼？加入北约后有向毛子买过武器？ 政治的原因、军事上的原因，但我认为更多的还是制式上的原因，北约的制式是155，中国的是152，当然中国也有155制式的外贸产品，如果让你买，你会选择那种？一种产品，不能光看价格，还要看后续的产品服务，武器装备更是如此，要知道，在没有战争的情况下，一种武器服役几十年是常有的事，一种为外贸所需开发的产品，如何让人相信能保证提供几十年的备件服务？ 炮钢是谁的？ 西方能拿的出手的自行火炮还真没有，不然挪威也不会买韩国的，美国前几年有十字军，但研发成本高被终止了，不是说技术不行，而是战术思想不同，老美能用空军解决的绝不麻烦陆军！ 俺们都是大陆的，你他妈的是哪里的逗逼？ 它们能知道什么，脑残傻粪的特点就是无知无耻， 卖的不错。但是我国军事网站论坛里k9就是垃圾中垃圾比如铁血 现在已经越来越嫌弃了。当年引进苏30被坑哭了，那会搞核武被美制裁听鹅毛忽悠。 中国工业化的奠基-前苏联156项目引进后就可以自产了，二战以来炮管技术进步有限，基本没有超出二战战列舰大口径火炮技术多少，都是在减重，增加寿命，降低成本方面的进步，中国自造自行火炮稳定性方面比棒子K9要好中东土豪阿联酋科威特能看中的性能肯定不差，棒子系统集成能力有限，德国的动力包，英国的炮塔，美国的火控技术没集合好，经常出问题 K9是经常炸膛的那款吗？ 是的，国内的无缝钢管流水线非常差，几乎没有耐久性可言 北约，英联邦国家的武器不好？要买你中国的？ 性价比。 中国今后的制式是155和122！152不就后就绝迹了...... 挪威就是想买中国货美国也不会答应。 铁血没看到过这样的帖子，超大还是有的，还有，能来网易的都是喷子，不要到处黑好吗 他奶奶的，都靠德国钢造炮，那仗还怎么打？ 真让价廉物美商标产品的制造大国赚吆喝啊 是的，国内的无缝钢管流水线非常差，几乎没有耐久性可言 扯淡的！中国155榴弹炮，45倍口径的，买的布尔博士的技术！52倍口径的买的欧洲的......可能是博福斯公司的技术......已经远远超过俄罗斯152榴弹炮技术了！ 中国只有宝钢在炼钢是吧？军工厂都是自己炼钢。不会拿成品钢来造炮。 政治的原因、军事上的原因，但我认为更多的还是制式上的原因，北约的制式是155，中国的是152，当然中国也有155制式的外贸产品，如果让你买，你会选择那种？一种产品，不能光看价格，还要看后续的产品服务，武器装备更是如此，要知道，在没有战争的情况下，一种武器服役几十年是常有的事，一种为外贸所需开发的产品，如何让人相信能保证提供几十年的备件服务？ 那要照你这么说中国明朝就铸铁炮了不过真正的好炮还是进口的红夷大炮 日本九0式坦克研制之初，使用的是原日本产的105坦克炮扩膛而生产的日本国产坦克火炮，因质量不过关，引进了德国的坦克炮装在90式坦克的样车上，并取得了德国莱茵公司的特许生产资格。 真让价廉物美商标产品的制造大国赚吆喝啊 莫非又是米帝的阴谋？呵呵 哈哈哈哈 你就是个SB阉犬。土耳其T-155“佛提纳”就是按韩国许可生产的K-9都不知道？ 价格摆在这里 进口的又怎么样？ 很想知道你的思想中。中国连炮管都制不出来吗？从哪些傻逼媒体上得到的消息，希望给出。 萨达姆说了不打我我现在还再吹，一打露馅了，呵呵呵 不打，萨达姆现在还在吐沫星子吹牛呢，巴沙尔谢谢谈判地盘越来越大 用事实说话！卫士系列！ 日本会向中国出口军工产品？喷子喷起来连脸都不要了 你是屎吃多了把有好货不要要破烂？ 是小编的阴谋，让你们互骂。 卫士出口的，军方并未采购！ 你这杂货也不看看欧美日韩国内是怎样贬低中国的中国就你们这种走狗太多 三星重工的产物 扯淡的！中国155榴弹炮，45倍口径的，买的布尔博士的技术！52倍口径的买的欧洲的......可能是博福斯公司的技术......已经远远超过俄罗斯152榴弹炮技术了！ 人家买棒子货怎么了？你以为只有你们有军工？人家买韩国棒子的也不买朝鲜棒子的，棒子和棒子还有区别呢！你们的阵营优势呢？你们的军工发展还不是近期与西方接轨的产物？接着走苏联路线呀！ 首先中国军售被美国限制不说。为什么不买德国产品，一定比韩国的强的呀。 挪威什么时候成为强国了？还是留着与三哥对轰吧。 說你主子一句不好，你就開始瘋狗模式了？<br>真是條好狗 总之一句话，买欧美的太贵，买中国、俄国的政治不允许（同盟买竞争对手的军火）， 🐔国技术一直是不可靠的代名词怎么有人要了舔.... 奇怪挪威为什么不买德国货啊 中国70年代才跟日本建交，这之前中国不造炮了是吧？ 挪威什么时候成为强国了？ 没什么好坏，事实而已，只怕只有你们才会左右别人能都知道 炮钢又不是什么高科技，中国上世纪五十年代就从前苏联引进生产了，至于质量，也就是寿命，1000发和5000发10000发有很大区别吗？换就是了！ 延坪岛一战被谷山大炮打得抬不起头 棒子K9哪个出口合同不是赔本卖。这种出口合同都是整套系统报价，你丫按车体报价人家能让你去竞标？车体也是王师和汉斯的，棒子只会装配 当然是！基本上只要是铁的零件都是进口的！但是，中国的木结构还是很厉害的，比如说里面的方向盘就是我们国产的！ 都有自己的强项 英联邦是个古代称呼从美国的租借法案出台后用债务制造了一个北约以前的英联邦都在为美国当年的租借法案买单当年神圣罗马帝国成员想摆脱债务组建了欧盟呵呵但完整的欧洲不符合英国的利益（英国人骨子里就认为自己不是欧洲人）更不符合手握英国这个欧洲搅棍的美国人的利益 大陆的脑残粪天天就是掩耳盗铃，活在谣言之中。。 和平时期的工艺品与战争时期的消耗品有不同的标准。<br>炮管寿命，苏联根据二战经验，坦克平均发射十几发炮弹就被对方击中报销了，所以苏联的炮管寿命标准是150发。是按战争消耗品装备。<br>同样飞机发动机寿命，按战时标准，几次上天就被揍下来了，只能飞几十个小时。苏联的发动机寿命标准是300小时。<br>后来长期没仗可打，战时标准就不合适了，就逐渐转变成了和平时期的工艺品标准。<br><br>所以，和平时期与战时生产能力不是一个概念、不是一个标准。<br>战时消耗品生产，标准放宽后，原材料、制造流水线上的工人来源，都可扩充几百倍。 那就不要用英联邦 一条新闻引来一群狗叫春 脑残的要死 嗨没人和我叫板[大哭] 制造业大国就这几个，传统武备越来越多会是东亚产。 你脑残，中进口俄石油不也卖石油吗？ 挪威就是想买中国货美国也不会答应。 莱茵金属又怎样，还不是照样炸膛！棒子K9除了装配还有几个是自主研发？！你个逗逼拿莱茵金属证明什么？延坪岛上棒子丢人现眼，你丫是不是哭了一宿？ 北约，英联邦国家的武器不好？要买你中国的？ 知道莱茵金属吗蠢货。 中国在60就以经生产出无封刚管了。先在有出现世界独一无二的超级刚 行程器开关不算吧。 K2采用北约标准，兼容了北约弹药。 你个脑残连美的炮管都是进口德国的，你也有脸吹。<br>宝钢都是日本控股，全套日本技术，你还有脸吹。 狗国的也敢买。小心👄知量 西方能拿的出手的自行火炮还真没有，不然挪威也不会买韩国的，美国前几年有十字军，但研发成本高被终止了，不是说技术不行，而是战术思想不同，老美能用空军解决的绝不麻烦陆军！ 切。。。我T92申请与之一战让你见识一下什么叫做移动的核武器 销量代表质量 中国工业化的奠基-前苏联156项目引进后就可以自产了，二战以来炮管技术进步有限，基本没有超出二战战列舰大口径火炮技术多少，都是在减重，增加寿命，降低成本方面的进步，中国自造自行火炮稳定性方面比棒子K9要好中东土豪阿联酋科威特能看中的性能肯定不差，棒子系统集成能力有限，德国的动力包，英国的炮塔，美国的火控技术没集合好，经常出问题 韩国的制造业很厉害啊，往英国卖军舰，往北欧卖火炮，往东欧卖坦克，飞机，确实牛X 咋地！买韩国货不服气啊！酸啊 不知道不要乱扯淡，挪威、瑞典、芬兰就是维京人后裔，维京人对欧洲有过一波持续几百年的冲击，比如俄罗斯就是维京人+东斯拉夫人+鞑靼人的混成品。 青岛舰舰载雷达天线细节，最前面的是1部日本KODEN公司的GPS天线。<br>合肥舰JRC日本无线株式会社的TRIHAWKV600导航雷达 放心2楼这条网易上的喷狗视而不见。 日本的炮管是进口德国克虏伯的，是你自己理解错了他的意思还骂人...... 不是 人家不卖你垃圾跟美国有䯌你老娘的关系？ 你个大傻逼，布尔会给你120炮？自己查查120坦克歼击车用的谁家的火炮，傻逼一个 土耳其离德国近，还是棒子离德国近？<br>芬兰和爱沙尼亚里买的就是车体，自已装又不难，省时还省运费。<br>PLZ45才是整套系统。以一个营为例：火力分系统包括18~24门炮车、18~24辆供弹车及各型弹药；指挥控制分系统包括1~2辆营指挥车、3~6辆连指挥车和1部（2辆）气象雷达车；侦察校射分系统包括9~11辆侦察车、1部（2辆）侦察校射雷达车；后勤保障分系统包括2辆装甲抢救车、4辆维修工程车（包括机械维修车和电子维修车）以及备件车；模拟训练分系统包括炮塔模拟训练器、指挥车模拟训练器和侦察车模拟训练器。 是的，国内的无缝钢管流水线非常差，几乎没有耐久性可言 这没什么吧，谁都是自己的强项。 看一群慕洋犬的嘴脸还嫌不丢人，居然连棒子也跪舔，可见你们就没有脊梁骨。棒子货为何好卖？其一他所有核心部件都是符合北约制式的货架品，棒子也就搞了个集成。其二棒国给了巨额补贴，棒子其实做的是亏本买卖，为了抢市场也是黔驴技穷。 请教一个，中国的炮的炮管是进口的吗？ 你以为人家傻吗？ 不会是用来研究炸膛原理的吧 国内网上一片贬低K2的帖子，怎么怎么垃圾，但是K2就是不断在卖，难道买家都是瞎子？还是某些人在胡说八道😂😂😂 无知不是你拿来吹嘘的借口！炮钢工艺技术是绝对的机密，根本不可能出售！哪怕是日本也只能进口莱茵钢铁的火炮成品，后面才进口了加工工艺自行生产，但工艺配方它也拿不到！ TRIHAWKV600 呵呵，3楼这个S.B，象条疯狗一样，，，， 合肥舰的TRIHAWKV600了 老苏那些傻大黑粗的山寨货，谁稀罕？ 挪威都成北欧强国了！瑞士和瑞典都哭晕在厕所了 放尼玛个屁！装什么大明白！澳大利亚是你给的技术生产155炮管的？不懂还瞎装逼！ 瑞士笑死我了。 专抽的确军事方面网易最懂 很想知道你的思想中。中国连炮管都制不出来吗？从哪些傻逼媒体上得到的消息，希望给出。 不是！但你可以出口 西方各国都有进口，甚至还有澳大利亚，美其名曰都是民用钢管实际上投军工 真是跟疯狗一样。赝品岛一战后韩国换装，这事怎么分析？ 你妈叫你回家洗菊花 包钢才是做炮管的，傻叉，中国的炮钢技术从德国佬那里买来的，和120火炮一起 傻碧 这些傻屎连土耳其T-155“佛提纳”就是按韩国许可生产的K-9都不知道。 他们公有制占主体了？😄 山寨大国 不买还好，买了战时只能惨败。这叫缘分啊！哈哈哈！ 不是前几年的十字军，是几十年前的十字军，十字军是面对冷战立的项。先在美军用的还是轻型坦克底盘的M109，炮管还是用的45倍的不舍得加长，为的就是空运方便。 军火不完全适用这句话 这是是真的，你只是不知道而已。 美的用法防空导弹都能反舰。超速度反舰的唯一实战还是美的创造的。<br>火炮都过时了，够用就好，要不疯子布尔就不会被以色列干掉了。<br>谷山大炮笑掉大牙的东西把傻大木坑惨了两截炮管焊一起，美的缴获试射5发炸膛。<br>延坪岛一战朝鲜4个炮兵阵地偷袭，发射170余枚其中60枚命中延坪岛。只干掉两个士兵两个平民。韩国反击80多炮却干掉5人。 这跟山寨不山寨没什么关系。有冶金、机械能力，而且产能大到能覆盖到陆军炮这个细分市场的国家就这么几个。 你个傻狗还德国佬。瑞士奥地利知道吗。都是二道贩子疯子布尔淘来的。 喷子们打鸡血了[大笑][大笑][大笑] 大陆的这些傻粪，就是为了黑韩而黑韩，都是被那个抢祖宗的谣言忽悠起来的脑残。 脑残，日本炮钢还是进口德国的，中国还进口日本的？不懂不要丢人现眼 楼上宝钢日本控股？控多少？舔可以，得有个度 日本和韩国的炮管是进口的，中国的自产。 就像那些每天在WY喊口号的废物，谁愿意要？ 有人倒是想买政治对手的，人不给卖啊 。。 很想知道你的思想中。中国连炮管都制不出来吗？从哪些傻逼媒体上得到的消息，希望给出。 莱阳无缝钢管厂出品 当然是！基本上只要是铁的零件都是进口的！但是，中国的木结构还是很厉害的，比如说里面的方向盘就是我们国产的！ 为亚洲增光了 价格在那呢，要人民同意啊，你以为都是领导说的算啊 不是 楼上蛾狗急的用屁股唱红哥。 请教一个，中国的炮的炮管是进口的吗？ 有常识的都知道，中国不可能生产炮管的。都是从日本进口的。日本只要不出口钢铁，中国连子弹都造不出来 为什么就不能买韩国的？ 都是美军盟友，而且三国也是结盟国家 韩国货就是好！打的🐔国哇哇叫 为什么买韩国的？ 北约，英联邦国家的武器不好？要买你中国的？ 欧美压根没拿得出手的火炮，不光是火炮，反舰导弹也一样。美国这两样东西都多少年没出新玩意了！当然，不能说欧美火炮和反舰导弹不行就说人家技术造不出来，事实就是别人更加倚重空中的精确打击。人家喜欢那种地面部队激光制导空中战机投下弹药就跑的战术。而不是拉个炮出来对轰 居然敢买韩国火炮，不怕炸膛吗？ 讲真欧美国家资本模式讲究的就是合理使用军费，我不相信一个把钱看这么重要的国家不将钱效益最大化。物美价廉这个根本不适合用在两个经济模式的国家。 精神病院唱红哥 首先说反舰导弹，不敢苟同。反舰导弹没什么发展不是没技术，美国对反舰导弹的研发和技术储备独步全球，问题是没那个必要。哪怕是鱼叉，在美海军的定位只是一个防御性武器，作用是对付漏网的快艇以及低冲突条件下反舰。现在标准2标准6直接可以打水面舰艇，哪怕是几十吨的小船也能用ESSM打，根本没必要装反舰导弹，伯克F2开始连鱼叉都懒得装。对美海军来说反舰是舰载机和核潜艇的事，制空权才是关键，水面舰艇装备超越海天线射程的反舰导弹意义不大。哪怕就鱼叉技术水平一样高的很，抗干扰射程命中精度在同类武器里都是翘楚。现在还有Lrasm这类神器。美海军对反舰的测试和效率研究远比我朝深厚，哪怕是舰载机也不喜欢用鱼叉。这个要说没底了。至于火炮，你觉得欧美那些地方的金属，特种材料和整合能力造个炮还造不好？德国那个2000系列的自行榴弹炮算厉害吧，在阿富汗就是个固定火力点，欧美根本就不发展了。在阿富汗玩的6的是M777和L118，都是英国货，人家思路远走在我朝前面，超轻灵活才符合现在的要求。 进不进口管你什么事，是进口不是进口你还不是一样搬你的砖。 不是，但自紧技术好想是80年代买的 从瑞典引进的钢铁技术 挪威的森林不错👍 怎么一爱国就有日杂、美狗、鹅毛出来咬人呀！ 以前是苏俄进口，后来是，加拿大和德国进口！现在是德国，法国，加拿大，卢森堡等多国中外合作的炮管！多种型号！但，多数还是德国技术制造！ 总之一句话，买欧美的太贵，买中国、俄国的政治不允许（同盟买竞争对手的军火）， 中国工业化的奠基-前苏联156项目引进后就可以自产了，二战以来炮管技术进步有限，基本没有超出二战战列舰大口径火炮技术多少，都是在减重，增加寿命，降低成本方面的进步，中国自造自行火炮稳定性方面比棒子K9要好中东土豪阿联酋科威特能看中的性能肯定不差，棒子系统集成能力有限，德国的动力包，英国的炮塔，美国的火控技术没集合好，经常出问题 买这破炮的肯定是图价格便宜，俄罗斯中国制造的火炮北约成员肯定不能买，看来棒子是跳楼价甩卖。。。 韩国作为美国小弟、盟友、保护国，不算英联邦？ 挪威就是想买中国货美国也不会答应。 你进过重工业企业？ 组装货就是比自主研发的卖的好，这是什么原因？ 韩国用事实证明一切嘲讽都是那么苍白无力。 卧槽 奥迪想买奥拓美国也不答应 我只知道中国自制的航母需要的钢材比这个还难。但也是自己造的。 呵呵 很甜 挪威有好武器不买要买废铜烂铁？ 楼上山洞傻狗 咋地！买韩国货不服气啊！酸啊 北约除了德国的Pzh2000，其他的火炮还就是不如中国的05式 管他怎么吹，那货就是白送你看北约一线要不要。天天黑棒子结果人家步步为营已经走入高端市场。 哦。明白了 你母亲也急了。 俄中的不是一个系统的，不可能买也不能买！ 5楼急了 去尼玛币的，日本的炮钢都是从日本制钢所（JSW）采购的。<br>日本钢铁企业的冶炼技术是世界霸主，全世界几乎所有高炉或炼钢厂都是利用日本的许可证建造（包括欧美，当然也包括德国）。不过日本免除了中国所有钢铁厂的专利费，中国的宝钢、鞍钢、唐钢、武钢无一例外都是日本钢铁企业设计规划和建造的，甚至连工人操作手势和站姿都手把手教给你。<br>日本的钢铁企业像新日铁、JFE、住友金属、东京制纲、神户制钢随便哪一家站出来都碾压大陆所有钢铁厂。单就产量而言高端特种钢市场，日本占据了近40%，而中国只占2%不到，而且还是以赠送或者随工程配送出去的。<br>有脸在日本面前吹炼钢技术的人，这个脸皮都不是一般的厚了呵呵。 一楼狗砸！ 给一楼点赞。都脑残？ 哪里来的傻逼，初中物理及格了吗？ 会后悔的。 真够傻逼的，也不做下市场调查 很酸 这个K货比他爹的M货在火控系统上牛逼很多，其他地方也没啥了。这几个国家想买这个类型的火炮就美俄中瑞典南非韩棒子这几个可选，好几家不卖，几家的已经落后，不选K货选个球 O(∩_∩)O哈哈~1楼这得多鲨笔啊 领教了，原来以为是国内狂吹的某特钢生产的 酸啊酸，各种的踩啊踩！ 便宜的人家都不好意思不买！ 因为挪威是北约国家 不丢人现眼怎么体现文化沙漠地区人的素质呢？ 为什么美国不会答应 那你也太看不起中国军工了，中国炮管的技术水准不错的。 主炮不是韩国产的，德国莱茵金属公司的 请教一个，中国的炮的炮管是进口的吗？ 因为美的打击山寨？斯洛文尼亚虎式战车，希腊的S300查查弱奖事件吧傻狗。 北约，英联邦国家的武器不好？要买你中国的？ 四三方案才是四化的基础，156项目连电都用不上。 你去欧美国家看看韩国车多还是东风与长安牌车牌车就知了 挪威就是想买中国货美国也不会答应。 噗嗤，日本钢~~注意有没有假哦 想买别人也不卖 当然是！基本上只要是铁的零件都是进口的！但是，中国的木结构还是很厉害的，比如说里面的方向盘就是我们国产的！ 看给你急的，4楼哪里说错了？宝钢日本技术。和日本进口德国炮管有几毛钱关系。一急就会舔歪了 然而中国和西方制式火炮口径可是一样的，楼上是怎么得出用口径弥补缺陷的结论的？找喷点都不会，差评。 没看人家明显是调侃吗 中国工业化的奠基-前苏联156项目引进后就可以自产了，二战以来炮管技术进步有限，基本没有超出二战战列舰大口径火炮技术多少，都是在减重，增加寿命，降低成本方面的进步，中国自造自行火炮稳定性方面比棒子K9要好中东土豪阿联酋科威特能看中的性能肯定不差，棒子系统集成能力有限，德国的动力包，英国的炮塔，美国的火控技术没集合好，经常出问题 瞧你咬牙切齿的全心投入的发帖<br>我个人赞助你一美金<br>好久没看到有这么代入感的美分日杂了赚钱真特么敬业 报道一下 咋地！买韩国货不服气啊！酸啊 K2整炮比单买零件都要便宜，国际军火市场上有名的笑话， 只要是用于军工不是都对中国禁售吗？ 谁跟你说中国圆珠笔心不能生产的？那是因为投入高，经济上不划算，有现成的就用现成的，还有，现在中国早就能生产圆珠笔心了 不是 一个延坪岛就能看出端倪的东西 乱讲 5楼日杂急眼了。 一分钱一分货，K2的确便宜！不差钱儿早就买PZH2000的高端货了。 果然是华为SB定律。监狱指定用机<br>听说为华为高管自已都是苹果。 什么？电渣重溶技术国内到你嘴里就变成一般了？你先了解了解有这个技术的就几个国家，在了解了解炮的性能吧。另外，大口径弥补穿深不足是毛子的做法，我们需要大口径是要保持第一优势做到能保证有效击穿所有现役坦克的装甲。 你母亲天天被蛾狗压着唱红哥。 会的 微博搜索海峡科技在线，有很多台湾财经、科技新闻，有助于大家了解台湾的真实现状。 冷轧重溶炮钢不属于高端钢，早就无需进口了。可能有一些钻头或工业刀口用的高精密特种钢国产的还差一些。 炸膛了就搞笑了！ 灵道吓的不敢坐霸道了。 早期的PLZ45上，只有闭气环是进口的！现在，这个闭气环中国也能自己生产了...... 脑子进大粪才会买 土耳其就是例子，中国军火只是某些国家用来压价的筹码。 福州日杂天天高唱十八摸问候他老娘。 噗嗤，蛾狗明显生活层次就是好啊~~急了不 6楼日杂傻逼 好是好，价格就不好了 …… 再胡说，撕你的嘴。 不对吧？德国莱茵金属公司的炮管也会开花？？！明显是污蔑。哈哈！ 一楼这个台巴子TM有病吧，一个新闻网站的新闻被你解读称这样。 你个斗鸡眼说你视力很好不用望远镜，老子拿起VECTOR23笑而不语。<br>莱茵金属世界第一能搞到为什么不用。博特尔不是很能跑吗，所以出门就用跑的不用开车了。 地震天谴还不忘唱红哥的蛾狗急了。 脑残，日本炮钢还是进口德国的，中国还进口日本的？不懂不要丢人现眼 自产的!别人也不卖啊!<br>坦克炮管使用电渣重熔技术制造,德国第一,国内一般,排名靠后,所以与俄罗斯一样,依靠大口径弥补炮管水平低的缺陷,也就是同样的指标,需要更大的口径才能做到. 二楼理解不对，北约和英联邦的货价格贵 然而中国和西方制式火炮口径可是一样都是155，毛子更小，是152，楼上是怎么得出用口径弥补缺陷的结论的？找喷点都不会，差评。 ",
        "Total": 4340,
        "Link": "http://comment.news.163.com/photoview_bbs/PHOT25P6K00014T8.html",
        "Reply": 277
    },
    "Article": "这个北欧强国买了韩国K9火炮挪威继芬兰和爱沙尼亚之后，成为第三个购买155毫米/52倍口径K9雷霆自行榴弹炮的欧洲国家。2017年12月20日，挪威国防部下属的挪威国防??采购机构l签订合同，从韩国公司为挪威陆军购买24门K9雷霆155毫米自行榴弹炮系统",
    "Title": "这个北欧强国买了韩国K9火炮_网易军事"
}