{
    "Article": "（原标题：巴基斯坦医院气瓶爆炸已致6人死亡12人受伤）海外网1月2日电GeoTV电视台报道称，当地时间周一（1日）晚间，巴基斯坦阿托克地区一家医院内发生气瓶爆炸事故，造成包括2名儿童在内6人死亡，12人受伤。报道称，爆炸造成医院部分建筑倒塌，许多人被埋在废墟中。目前，当地政府正组织救援，并开展事故原因调查。本文来源：海外网责任编辑：王征_NN7526",
    "Title": "巴基斯坦医院气瓶爆炸 已致6人死亡12人受伤_网易新闻",
    "PublishTime": "01/02/201810:56:14",
    "Source": "Netease",
    "Comment": {
        "Content": "美国人的阴谋？（有钱领吗？） 真吓人，威力不小啊！ 在医院抢救也来不及…… 巴铁不😭 什么情况啊 巴铁不😭 美国人的阴谋？（有钱领吗？） 真吓人，威力不小啊！ 住院都不安全了 我靠 一百亿给你 什么情况啊 去医院被炸死也是很倒霉了 好恐怖 在医院抢救也来不及…… 我朋友在巴基斯坦工作，每天周围都有驻军保护着出去买个东西得申请保护巴基斯坦这段不太平啊 ",
        "Reply": 11,
        "Link": "http://comment.news.163.com/news2_bbs/D7514UKT0001899N.html",
        "Total": 148
    },
    "KeyWords": "巴基斯坦,气瓶,爆炸,医院",
    "URL": "http://news.163.com/18/0102/10/D7514UKT0001899N.html"
}