{
    "Article": "网易科技讯12月30日消息，《连线》网站撰文称，2017年是Home键消失的一年，但不久以后你会不再想念它。从今年的行业趋势来看，消费电子产品在变得比以往任何时候都要全能和复杂，厂商们似乎日益趋向于让用户自己去琢磨怎么使用。它们不应忘记当初是什么让Home键如此美妙。以下是文章主要内容：苹果联合创始人史蒂夫·乔布斯（SteveJobs）说过的最令人信服的一句谎言是，“你已经知道该如何使用它。”多年来，苹果一直以其打造简单易用的产品的能力为豪，它的产品仿佛天生就那么易于使用——仿佛你即便经过了数十年的深冷冻，苏醒过来以后你也马上懂得该如何3D触控相机应用图标和自拍。需要证据？看看那个才两岁就已经懂得自己在iPad上游戏的小孩的可爱视频吧！当然，那种想法是虚假的。苹果的确非常善于教导人们使用产品，不管是通过广告和视频，还是通过设备上的指导，但没有人是天生晓得如何去使用iPhone的。这从来都不重要，因为苹果在该设备上加入了一项人人都已知道如何使用的功能：Home键。每当你不知道该怎么办的时候，按下Home键即可。它让你能够放心去探索设备的各项功能特性，因为一旦遇到什么麻烦，按下该按键，你马上就能走出麻烦，从头来过。然而，2017年，苹果取消了Home键。它不是唯一这么做的公司，但毫无疑问是最引人注目的一家公司。对于iPhoneX，苹果替代了该显而易见的东西——一个仅仅存在就让你下意识地想要按压的按键——代之以一条你应该懂得如何滑动操作的小水平线。真的不再有按键了。至少从今年的行业趋势来看，消费电子市场的未来充斥着全能性和复杂性均远超以往的产品。生产那些产品的公司日益趋向迫使用户自己去琢磨怎么使用。语音助手的问题像亚马逊Alexa和苹果Siri这样的语音助手，或许是这种现象的最佳例证。每一家做这种语音助手的公司都面临同样的问题：用户不知道怎么使用。他们很快就知道用哪个词来唤醒语音助手，当然也懂得如何让他们的Echo智能音箱播放音乐或者设置闹钟。但谷歌、亚马逊和其它的公司都希望这些助手一直陪伴着用户，提供帮助，参与用户的整个生活。它们需要找到办法去解释语音助手的功能，让用户能够区分“那行不通”和“它不能做那个”之间的差异。那些差异不好清晰地传达出来，尤其是在没有屏幕的设备上。不过，打造Siri、Cortana等语音助手服务的人却在这方面出奇地松懈。他们都在说：界面非常简单，所以人们会去试用，在这一过程中出错也不要紧。这只是一个反复试验的问题。不过，到目前为止，那种做法并不奏效。2017年初的一项调查发现，接近70%的Alexa技能属于“ZombieSkills”（僵尸技能），几乎没有人使用。某项技能即便有被用户发现，一周后它仍被使用的概率只有3%。另一项调查发现，只有14%的受访者称一天在各个平台上使用语音助手几次以上。用户发现他们的语音助手非常基础的一些功能，也喜欢使用，但不会去深层挖掘更多的功能。表现自然从根本上说，40年前的计算机界面不同于人们过往见过的任何东西，所以厂商们必须要帮助用户学习使用。很多早期的计算机都做得像是人们的办公桌，以便让用户能够更容易掌握。计算机中的记事本像是现实生活中的记事本。计算机桌面像是现实中的桌面，文档保存按钮也看似软盘。计算机当初可谓外来物种，得设计得让人有点熟悉感。而40年过后，用户变得更加了解计算机了。因此，企业能够尝试新花样以及更具实验性、更加有用的东西。但随着像增强现实（AR）和语音这样的新界面日益流行，我们似乎要跳过手握设备的部分。因为理论上这些界面是如此的自然，如此像人类，打造它们的公司认为每一个人都会马上变成重度用户。但那不会成真。当然，微软的混合现实系统中的起始环境看似屋子。但在你的VR“屋子”里走动的唯一途径是瞬间移动，这或许不是你现在在你的两卧房子里移动的方式。控制器像是你的双手，但你不能抓握或者戳东西。你还是得学习那些规则，自己琢磨清楚什么是能够触摸的，什么是不能触摸的。这并无不妥，毕竟它是如此地自然，你该知道如何去使用，只不过没有人教你点什么。顺便说说，语音也是同样的情况。没错，语音很自然，我们都知道如何说话。但没有人会本能地说出“嘿谷歌，让我跟Todoist通话。”我们要去学习这些东西，科技公司来教，这没问题。但那些公司并没有在教。它们只是希望你自己去试用各种玩意，自己去搞懂怎么使用。要么是这样，要么技术最终变得极其出色，让你能够随心所欲地使用。二者都需要一定的时日，而且也不一定可行。在那以前，我们被困在用户交互的泥潭当中。期间，你能够在某种程度上感知到事情应该如何运作，但却无法那么运作。“回家”说点好的：在使用iPhoneX两个月后，我不再想念Home键了。这用了一些时间，但我挺过来了。对于手机往屏占比更大设备更大和界面略为模糊不清的方向发展，我并无异议。数十亿的用户花了十年去学习如何使用这些设备，现在我们懂得怎么用了，因此我们能够尝试新的东西。但随着我们开始接触新的产品品类和界面，科技公司不应忘记当初是什么让Home键如此美妙：它给了用户探索的许可和自由，因为不管遇到什么问题，用户总有一条“回家”的路。不管设备可能有多么地智能，或者多么地自然，你总会遇到问题，尤其对于初生技术。（乐邦）本文来源：网易科技报道责任编辑：侯维铖_NT4124",
    "PublishTime": "12/30/201707:02:45",
    "URL": "http://tech.163.com/17/1230/07/D6SSJ8TS00097U7T.html",
    "Comment": {
        "Content": "以后如果全屏幕下的虚拟按键体验跟home键一样的话就没必要怀念了，时代是进步的。非要扯怀念的话干吗不怀念大哥大和BP机时代？鄙视网易标题党。 不喜欢 全是屏幕，就不需要了 X就是因为没有home键，所以我不买……😂 这确实是iPhone的不足，不要拿siri说事了。在室外人多的地方你好意思用siri拨号？[窃笑] 这就是用锤子的理由？ 没有home挺好用的啊 Nexus4用户表示5年前就习惯了 你这是在黑苹果吗？简单易用这个词离苹果还有十万八千里吧？Siri这个华而不实的东西在多普达事情WM系统时就有了雏形了 会呀，可是总有些东西会消失不见的 不想念，用的是魅族 不怀念丑 想个锤子 我都用siri拨号，为啥要搜索名字啊，siri识别挺准确的，告诉它就行了。 不习惯 说实话，锤子真机看过，还真不错，不知道使用起来怎么样 19岁大学毕业时找工作，面试时对面坐着的漂亮女白领，是人力资源部经理，她问我：你能干多长时间？我有些诧异，但还是老老实实回答：一般半个小时，状态好的时候四十分钟。她低声说：我是说你在这儿能干多久？我环顾四周，有些羞涩的说：这我可能放不开，我从没当着这么多人，真的不太习惯。三天后我被录取了，知道她原来是老板娘。她送给我一本《能量决定命运》，让我学习红浅学。三个月后她挺着肚子辞职离开公司，临行前嘱咐我一定认真学习，不学红浅学，赶不上马化腾，娶不起林志玲。不读《能量决定命运》，富不过刘强东，跑不过贾跃亭。二十年后孩子会来认你的。 我只想知道华为什么时候倒闭 非常想念 已不用苹果了，毫无感觉 你想我？[羞羞][羞羞][羞羞] 厂商自己就定了！要是都生产没有HOME键的手机，你怀念又有什么用？难不成你还能自己去做一个？？ 还是喜欢物理home 你的给我我跟你换6 我喜欢万事不灵，老子就按一下那种感觉，像重启一般爽 我觉得home键最关键 苹果的产品，就如同一个残疾人，总是比正常产品残疾某些地方。说苹果手机方便，来来来，谁回答我，结束一个进程，苹果手机需要几个步骤？都是哪些步骤？ 你的给我，我给你两部锤子[微笑] 是这么久了没有定位关闭的快捷方式，定位很费电的 苹果手机最让人失望的是这么久了还没有自带检索功能的拨号盘，非得在通讯录里才能搜索名字。没有安卓方便。我个人觉得这是最大的败笔。难道这个功能很难吗？ 不想念，因为还在用 二楼啊,siri就是个玩具,在家里用用,给小朋友当聊天机器人什么的,出门在外你siri试试,一群人立马当你傻叉. 不怀念丑 有HOME键，果粉们也舍不得按 科技进步 刚把7换成了X，感觉极其不习惯，尤其是背面太滑，一只手操作感觉尺寸太大，坦白说，更喜欢有HOME的7 乔布斯不在了，很多设计理念变成了为了设计而设计。 谁说的，苹果换铃声最简单最容易…… 华为有home键？不是魅族才有么？ 19岁大学毕业时找工作，面试时对面坐着的漂亮女白领，是人力资源部经理，她问我：你能干多长时间？我有些诧异，但还是老老实实回答：一般半个小时，状态好的时候四十分钟。她低声说：我是说你在这儿能干多久？我环顾四周，有些羞涩的说：这我可能放不开，我从没当着这么多人，真的不太习惯。三天后我被录取了，知道她原来是老板娘。她送给我一本《能量决定命运》，让我学习红浅学。三个月后她挺着肚子辞职离开公司，临行前嘱咐我一定认真学习，不学红浅学，赶不上马化腾，娶不起林志玲。不读《能量决定命运》，富不过刘强东，跑不过贾跃亭。二十年后孩子会来认你的。 没那个还真不好用，还有底部快捷方式侧握时候，够不到 想个锤子 蠢比快递狗带你妈去看尖锐湿疣吧 来，咱两换下？ 非常想念 你想我？[羞羞][羞羞][羞羞] 都变味呢 手势操作真的舒服 哈哈，精辟 所以我买了8P纪念纪念 是这么久了没有定位关闭的快捷方式，定位很费电的 挺好看的 只有傻逼才会想念 用了两天MIX，然后换了米6以后，又可以单手操作手机了，但还是觉得好复古 世界上不是只有苹果和锤子手机么、 我觉得home键很重要。没有了反而不适应 不喜欢 一共就那么一款就成了整体了 X就是因为没有home键，所以我不买……😂 很想念. 这就是用锤子的理由？ 不怀念,因为穷 能你妈穴！ 确实，每次要拨号还得把号码按完，傻逼美国人！ 你这是在黑苹果吗？简单易用这个词离苹果还有十万八千里吧？Siri这个华而不实的东西在多普达事情WM系统时就有了雏形了 华为有模拟home建 之前用了好多年的苹果，除了偶尔调戏，就没用siri干过一点正事 不怀念，手势操作挺方便的 能你妈穴！ 不习惯 想念 我只想知道华为什么时候倒闭 舍不得 没有了hone建，以后走失怎么办？ 嘿SIRI，打电话给XX！！！开车用得最多。 怀不怀念一念之间 苹果手机最让人失望的是这么久了还没有自带检索功能的拨号盘，非得在通讯录里才能搜索名字。没有安卓方便。我个人觉得这是最大的败笔。难道这个功能很难吗？ 我会想念他的 x好用 。。。 不想念，一直用着home 安卓的不是消失好几年了？ home稳健，虚拟键感觉有时误操作 突然发现iphoneX的命名是学小米，米X，米X2 是啊!已经想念很久了 我喜欢用魅族的原因就是前面有个home键。 主界面下滑就能搜索了啊…… 我都用siri拨号，为啥要搜索名字啊，siri识别挺准确的，告诉它就行了。 已不用苹果了，毫无感觉 刚从6升级到9，不错，流畅多了！ 好的，谢谢 更加符合人体工程学 哟点意思 不怀念丑 会呀，可是总有些东西会消失不见的 为什么想念？现在还在用MX4~早习惯了~~ 你的给我，我给你两部锤子[微笑] 没用过啊！ 没有home挺好用的啊 19岁大学毕业时找工作，面试时对面坐着的漂亮女白领，是人力资源部经理，她问我：你能干多长时间？我有些诧异，但还是老老实实回答：一般半个小时，状态好的时候四十分钟。她低声说：我是说你在这儿能干多久？我环顾四周，有些羞涩的说：这我可能放不开，我从没当着这么多人，真的不太习惯。三天后我被录取了，知道她原来是老板娘。她送给我一本《能量决定命运》，让我学习红浅学。三个月后她挺着肚子辞职离开公司，临行前嘱咐我一定认真学习，不学红浅学，赶不上马化腾，娶不起林志玲。不读《能量决定命运》，富不过刘强东，跑不过贾跃亭。二十年后孩子会来认你的。 这确实是iPhone的不足，不要拿siri说事了。在室外人多的地方你好意思用siri拨号？[窃笑] 非常想念 一个手机还能装逼？那得傻逼成啥样 到时候实体键还有人知道干啥的吗 你的给我我跟你换6 会吧 我喜欢万事不灵，老子就按一下那种感觉，像重启一般爽 不会 二楼啊,siri就是个玩具,在家里用用,给小朋友当聊天机器人什么的,出门在外你siri试试,一群人立马当你傻叉. 的确是好。 真的指纹好 该消失的总归要消失，时代在进步 讨厌Home键，不小心就误按了，有缝宽下巴难看！ 这就是用锤子的理由？ 想念个毛，当年诺基亚N9多特么惊艳 很想念 Nexus4用户表示5年前就习惯了 厂商自己就定了！要是都生产没有HOME键的手机，你怀念又有什么用？难不成你还能自己去做一个？？ 的确，之前用安卓手机习惯拨号直接点击数字就可以了！换了苹果之后反而有点不适应！毕竟手机还是要用来打电话的 9月份发布，到现在也才4个月，何来一年之说？小编语言水平实在不敢恭维。 等人类消失的时候，没有其他动物会怀念 不會[微笑] 祖国键你们说砍就砍了啊 外加一炮。 希望不会重新学习呀 不会的，因为我手机有好多按钮，[窃笑][窃笑] 苹果手机最让人失望的是这么久了还没有自带检索功能的拨号盘，非得在通讯录里才能搜索名字。没有安卓方便。我个人觉得这是最大的败笔。难道这个功能很难吗？ 如果回帖不是为了装逼，那将毫无意义 我觉得home键最关键 苹果的产品，就如同一个残疾人，总是比正常产品残疾某些地方。说苹果手机方便，来来来，谁回答我，结束一个进程，苹果手机需要几个步骤？都是哪些步骤？ 还是喜欢物理home 还是会想念 不想，因为现在还在用 完全不一样。安卓机只要打几个关联的数字或者字母就能把类似的名字给搜索出来，苹果就没有这样的模糊搜索。 是一个，只有home键有压感 我四川人，锤子手机还是算了 以后如果全屏幕下的虚拟按键体验跟home键一样的话就没必要怀念了，时代是进步的。非要扯怀念的话干吗不怀念大哥大和BP机时代？鄙视网易标题党。 我大华为就是和你们不一样，大家前置他后置，大家后置即使全面屏也非要前置 全是屏幕，就不需要了 不想念 不想念，因为用过x就回不去了[不屑] 不想念，用的是魅族 想念，不过屏下指纹出来后就不想念了[大笑] [喷水][喷水][喷水] 用我妈的7觉得home键太多余了 耳机需要 路过 不想念，因为还在用 呵呵，科技变化大 啥home键消失了？辣我手机上的是啥 ",
        "Link": "http://comment.tech.163.com/tech_bbs/D6SSJ8TS00097U7T.html",
        "Total": 738,
        "Reply": 114
    },
    "Source": "Netease",
    "Title": "2017年是\"Home\"键消失的一年 你会想念它吗？_网易科技",
    "KeyWords": "语音助手,home,计算机"
}