{
    "URL": "http://sports.163.com/17/1231/16/D70EKUO500058781.html",
    "Article": "北京时间12月31日凌晨，英超第21轮，曼联坐镇老特拉福德球场被南安普顿逼平。赛后，阿森纳名宿基翁直言穆里尼奥已经失去了对更衣室的控制。随着主场被南安普顿逼平，曼联在英超密集的新年赛程遭遇三连平，积分榜上不但被曼城拉大了差距，还被切尔西反超跌至第三，未来几场比赛又无正选中锋可用，穆里尼奥的压力着实不小。而阿森纳名宿基翁赛后直言：“我认为他已经失去了对更衣室的掌控，我完全看不见场上球员们的斗志。”“他想让这些球员重新回到正确的轨道上来，可很明显，现在队内的气氛已经不再如赛季初那么和谐了。曼联阔别英超冠军已经有五年了，这在弗格森时代是不可能发生的。”“我今天原本对曼联有着更多的期待，无论踢的怎样，至少你应该拿到三分吧。也许前四对于他们来说才是一个更加准确的定位，说实话，我很想看看穆里尼奥之后会带领球队作出怎样的回应。”本文来源：肆客足球App责任编辑：马鑫_NS4811",
    "KeyWords": "穆帅,曼联,穆里尼奥,英超",
    "Source": "Netease",
    "Comment": {
        "Reply": 78,
        "Content": "我爱穆帅，你的路，就是我的路 没有穆鸟，首先是没有鸟粪。如果鸟不到处乱拉粪，也就不怎么可能招黑。 4真不敢争 母鸟可以滚了，防守都不会了，还谈个锤子进攻，他已经落伍了，时代选择了他，而最后终将被时代抛弃。 奇怪，没有穆鸟，鸟黑怎么能活？ 高开低走。不知道还会不会低下去 名宿，娜娜跟你有仇？ 其实穆里尼奥摆大巴没事，一个正在重建的队伍，虽说是豪门，也可以摆大巴！这时候需要成绩吸引更好的赞助和更好的球员！关键这逼嘴太贱了！他自己摆大巴没事，别人摆就不行！做人太双标了！ 足球比赛是一项鼓励球员努力把球踢进对方球门的激情运动，而不是尽力阻止对方将球踢进自己球门为目的。 阿森纳名宿说曼联只能争四意思是娜娜想要下赛季的欧冠资格只能死拼欧联了？ 教授这几年哪年不被喷？喷不投入，喷成绩不好！可在我印象里，还真没有喷打法不好看的！所以教授一直能坚持下来！很多球迷看到这种打法也算是认了吧，起码能带来一场场的漂亮足球啊！ 这话把我四爷置于何地 你，loser 枪手名宿说穆帅只能争前4，就相当于湖人名宿孙悦说周琦只能当饮水机管理员，笑死我了 木鸟不是说过范加尔是他的朋友 把切尔西搞的一团糟居然还能去执教曼联？？冤枉钱花的还不够多？ 又要捉内鬼了 高开低走机构在出货不跑套死你<br>嗷走错片场了 在这么下去曼联的百年老店的口碑要崩了 一堆死妈的巴狗大过年的要献上巴狗他妈骨灰 赛季初，各种文章说曼联更衣室最和谐 自己是大巴鼻祖，嘲笑孔蒂保守战术难看。因为教授说切尔西烧钱他骂教授是偷窥狂，如今说球队输球是因为投入比曼城少。自己在诺坎普滑跪指天，却不许曼城在更衣室庆祝。比赛没结束就去和对方教练握手，却不许孔蒂场上鼓舞球员。这逼就是个人渣 教授貌似分数多，去年还被喷 曼联让表妹搞了以后像个娘们一样一蹶不振了。 克洛普，温格，孔蒂。里面有谁跟瓜迪奥拉有矛盾？有谁跟穆里尼奥没矛盾？鸟屎咬这些人的时候，没想过会被打？ 穆联高薪养老，瓜城低薪养勤，穆联养老足球，瓜城攻势足球；穆联无球发呆，瓜城无球跑位；穆联拉什福德闷头一根筋，瓜城斯特林反越位一路杀；穆联高大壮转身慢，瓜城小快灵反抢快；穆联单打独斗，瓜城多点开花；穆联一过一靠运气，瓜城一过二靠实力；穆联有情养老，瓜城无情清洗；穆联伊布养老剩嘴硬，瓜城丁丁传切剩腰硬；博粑脑残秀发型示傻穆联，巴神脑残秀下限愿回瓜城；穆联志在争六六恋忘返，瓜城志在夺冠称霸世界 最爱看鸟迷细数鸟曾经的辉煌。依稀看到一个二13青年抱着一个牙齿掉光的老妪声嘶力竭的大叫：“都滚开！你们知道个屁！她八十年前可是绝世美人，我就是非她不娶！” 轮冠军的历史，谁能比得过枪手的主子温格教授那 坐等你鸟爹一巴掌扇醒你 争四，考虑过温格的感受吗？[微笑][微笑][微笑] 穆鸟四面楚歌啊…… 怎么没有一篇稿子是写德罗巴德进去的球硬生生被他抢攻搞越位 那他们阿森纳队不是争4⃣️队，可惜现在只是5⃣️，6⃣️名（呵呵 温格:争4，问过我了吗。 不是木鸟生锈了，这厮根本不会进攻，喜欢当受。就这样，还说别人是娘炮！可笑！ 啄目鸟请记住，皇马永远是你的家！欢迎你回西甲执掌皇马！--巴萨球迷留。这两年皇马太吓人了，就需要你搞一搞 他绝对不是嘴贱，前有科斯塔，现在的博格巴红牌和尼克杨肘击，不是被刺激球员会这样？这种教练去屎吧 我魔压力太大了，受外界影响太多，鸟叔凭这些人想找回当年的铁血蓝军势头已经不容易，两边和锋线硬度不够，抢点也差，中场开始成型，无奈现在的曼城，切尔西阵容已经十分稳定，想重夺辉煌，估计不是一两年的事，如果鸟叔还创造不出自己的巨星体系，恐怕我魔就这样了 主要是对强队从来不该进攻，老是那一套玩法，前锋当后卫使用，技术性球员被玩废了。这年头球员都是九零后，你把他们当七零后对待，谁买你的帐？<br>木鸟脑子生锈了。看来真的不行了。<br>曼联这个赛季，就是这样被玩废的。曼联死在过于保守上。 娜娜保证有第四意思是说曼联更差 那他们阿森纳队不是争4⃣️队，可惜现在只是5⃣️，6⃣️名（呵呵 认识中国字不？会说中国话不？装尼玛啥大尾巴狼！有多远滚多远去，什么东西！ 越来越坠落… 这个基翁是个何等砸碎 4真不敢争 母鸟可以滚了，防守都不会了，还谈个锤子进攻，他已经落伍了，时代选择了他，而最后终将被时代抛弃。 奇怪，没有穆鸟，鸟黑怎么能活？ 名宿，娜娜跟你有仇？ 自己是大巴鼻祖，嘲笑孔蒂保守战术难看。因为教授说切尔西烧钱他骂教授是偷窥狂，如今说球队输球是因为投入比曼城少。自己在诺坎普滑跪指天，却不许曼城在更衣室庆祝。比赛没结束就去和对方教练握手，却不许孔蒂场上鼓舞球员。这逼就是个人渣 这话骂木鸟的？ 又要捉内鬼了 枪手名宿枪手名宿 他绝对不是嘴贱，前有科斯塔，现在的博格巴红牌和尼克杨肘击，不是被刺激球员会这样？这种教练去屎吧 赛季初，各种文章说曼联更衣室最和谐 哎哟,???虾米? 很搞笑的说,鲁尼和小罗的cp真的很好玩 克洛普，温格，孔蒂。里面有谁跟瓜迪奥拉有矛盾？有谁跟穆里尼奥没矛盾？鸟屎咬这些人的时候，没想过会被打？ 轮冠军的历史，谁能比得过枪手的主子温格教授那 那他们阿森纳队不是争4⃣️队，可惜现在只是5⃣️，6⃣️名（呵呵 穆鸟四面楚歌啊…… 温格:争4，问过我了吗。 足协赶紧想办法找曼联踢场友谊赛，肯定能逼平穆帅带领，博格巴伊布领衔的曼联[惊讶][惊讶][惊讶] 最爱看鸟迷细数鸟曾经的辉煌。依稀看到一个二13青年抱着一个牙齿掉光的老妪声嘶力竭的大叫：“都滚开！你们知道个屁！她八十年前可是绝世美人，我就是非她不娶！” 进攻没有体系，战术僵化保守，场面无聊无趣无激情，跟马景涛似的，只剩咆哮 那他们阿森纳队不是争4⃣️队，可惜现在只是5⃣️，6⃣️名（呵呵 我魔压力太大了，受外界影响太多，鸟叔凭这些人想找回当年的铁血蓝军势头已经不容易，两边和锋线硬度不够，抢点也差，中场开始成型，无奈现在的曼城，切尔西阵容已经十分稳定，想重夺辉煌，估计不是一两年的事，如果鸟叔还创造不出自己的巨星体系，恐怕我魔就这样了 主要是对强队从来不该进攻，老是那一套玩法，前锋当后卫使用，技术性球员被玩废了。这年头球员都是九零后，你把他们当七零后对待，谁买你的帐？<br>木鸟脑子生锈了。看来真的不行了。<br>曼联这个赛季，就是这样被玩废的。曼联死在过于保守上。 娜娜保证有第四意思是说曼联更差 那他们阿森纳队不是争4⃣️队，可惜现在只是5⃣️，6⃣️名（呵呵 争四，考虑过温格的感受吗？[微笑][微笑][微笑] 不是木鸟生锈了，这厮根本不会进攻，喜欢当受。就这样，还说别人是娘炮！可笑！ 我爱穆帅，你的路，就是我的路 完了，阿森纳只能第五了 鸟叔的战术体系完全不适合曼联 其实穆里尼奥摆大巴没事，一个正在重建的队伍，虽说是豪门，也可以摆大巴！这时候需要成绩吸引更好的赞助和更好的球员！关键这逼嘴太贱了！他自己摆大巴没事，别人摆就不行！做人太双标了！ 足球比赛是一项鼓励球员努力把球踢进对方球门的激情运动，而不是尽力阻止对方将球踢进自己球门为目的。 这话把我四爷置于何地 什么墙倒众人推!是他自己作的 你，loser 这说的是阿森纳自己吧 把切尔西搞的一团糟居然还能去执教曼联？？冤枉钱花的还不够多？ 这JB鸟人算什么玩意? 坐等你鸟爹一巴掌扇醒你 曼联让表妹搞了以后像个娘们一样一蹶不振了。 继续你的表演 一堆死妈的巴狗大过年的要献上巴狗他妈骨灰 鸟黑们是寄生在穆鸟新闻板块的生物，不承认？哈哈，一生为敌也是快哉，新年继续，新年快乐！ 认识中国字不？会说中国话不？装尼玛啥大尾巴狼！有多远滚多远去，什么东西！ 怎么没有一篇稿子是写德罗巴德进去的球硬生生被他抢攻搞越位 那他们阿森纳队不是争4⃣️队，可惜现在只是5⃣️，6⃣️名（呵呵 这个基翁是个何种杂碎 墙倒众人推啊 瞧把鸟粪气的，在地上打滚 阿森纳名宿说曼联只能争四意思是娜娜想要下赛季的欧冠资格只能死拼欧联了？ 那他们阿森纳队不是争4⃣️队，可惜现在只是5⃣️，6⃣️名（呵呵 不是恩师吗 这就是讽刺曼城上赛季高开低走的报应！ 其实穆里尼奥摆大巴没事，一个正在重建的队伍，虽说是豪门，也可以摆大巴！这时候需要成绩吸引更好的赞助和更好的球员！关键这逼嘴太贱了！他自己摆大巴没事，别人摆就不行！做人太双标了！ 教授这几年哪年不被喷？喷不投入，喷成绩不好！可在我印象里，还真没有喷打法不好看的！所以教授一直能坚持下来！很多球迷看到这种打法也算是认了吧，起码能带来一场场的漂亮足球啊！ 哈哈，真的笑死人了 教授貌似分数多，去年还被喷 枪手名宿说穆帅只能争前4，就相当于湖人名宿孙悦说周琦只能当饮水机管理员，笑死我了 高开低走机构在出货不跑套死你<br>嗷走错片场了 在这么下去曼联的百年老店的口碑要崩了 弗格森回来吧 高开低走。不知道还会不会低下去 木鸟不是说过范加尔是他的朋友 穆联高薪养老，瓜城低薪养勤，穆联养老足球，瓜城攻势足球；穆联无球发呆，瓜城无球跑位；穆联拉什福德闷头一根筋，瓜城斯特林反越位一路杀；穆联高大壮转身慢，瓜城小快灵反抢快；穆联单打独斗，瓜城多点开花；穆联一过一靠运气，瓜城一过二靠实力；穆联有情养老，瓜城无情清洗；穆联伊布养老剩嘴硬，瓜城丁丁传切剩腰硬；博粑脑残秀发型示傻穆联，巴神脑残秀下限愿回瓜城；穆联志在争六六恋忘返，瓜城志在夺冠称霸世界 这赛季能进前六就算成功！！ 说的好像对弱队对攻似得，波霸没付出的时候说中场没人只能打防反，现在付出多少轮了还不是打防反被人按着草，他妈的卢卡库频频出现在后腰的位置，我他妈真是醉了，真他妈属王八的除了防守什么都没有，看看马桶表妹热翔切龟的进攻怎么打的，再看看莱斯特防反怎么打的，再看看这龟孙的防反，看着真的恶心 墙到众人推啊，看来只能争四了 打强队不进攻？逗了 最爱看鸟迷细数鸟曾经的辉煌。依稀看到一个二13青年抱着一个牙齿掉光的老妪声嘶力竭的大叫：“都滚开！你们知道个屁！她八十年前可是绝世美人，我就是非她不娶！” 富士康北门的艺剪坊（清湖形象店）<br>坑爹五步曲————————————坑爹的理发店<br>第一步，装热情——刚一走到门口，几个人围着你上来，那叫一个热情啊。只要你说了一句“洗剪吹”，全部人都散了……（钱少啊）<br>第二步，套关系——那个理发师（我们暂且叫他SB）会主动问你是哪里的人，但不管你说自己是哪里的人，SB都会说“哦，老乡啊”，然后会编出一个跟你同省的城市（最有可能的就是省府），让你放松警惕，开始下手宰你……<br>第三步，故意下套，让你钻——洗完头发，他会问你：“你头发有点弯，要不要梳直？”刚洗完头发，这么乱，当然要梳直啦。你中了，不是中奖，而是中了他的套套。里面的人马上又“热情”起来，两三个人会迫不及待的拿药水给你涂上，这就是钱啊……<br>第四步，“教导”你——等你发现后，店长（暂且就叫GRD吧）说这是你无知，不懂理发店的潜规则（靠，听起来怎么像圈圈里面的事），然后还教师口气的对你说，这次他“好心”告诉你，下次你就不会上当了（来他那里就是买教训的？），FUCK，强盗还讲起理来了！！！<br>第五，威逼胁迫——几个人“围着”你，然后绞尽脑汁给你“想办法、出主意”，押厂牌啊，押手机啊，“陪”你去取钱啊，真感觉自己处在Hongkong电影里<br>同仁们，希望大家记住富士康北门这个店——艺剪坊（清湖形象店）。现在我们被无数的无良商家残害，毒害、欺诈，我们这些“上帝”再也伤不起了，我们不能严惩他们，但至少可以抵制他们。 啄目鸟请记住，皇马永远是你的家！欢迎你回西甲执掌皇马！--巴萨球迷留。这两年皇马太吓人了，就需要你搞一搞 主要是对强队从来不该进攻，老是那一套玩法，前锋当后卫使用，技术性球员被玩废了。这年头球员都是九零后，你把他们当七零后对待，谁买你的帐？<br>木鸟脑子生锈了。看来真的不行了。<br>曼联这个赛季，就是这样被玩废的。曼联死在过于保守上。 哈哈哈，太特么的形象了。 说这话的时候还没轮到厨师背锅！ 越来越坠落… 如此看来英超争四才是最难的[微笑] ",
        "Total": 1863,
        "Link": "http://comment.sports.163.com/sports2_bbs/D70EKUO500058781.html"
    },
    "PublishTime": "12/31/201716:15:58",
    "Title": "枪手传奇炮轰穆帅:曼联更衣室失控 他带队只能争4_网易体育"
}