{
    "Source": "Netease",
    "PublishTime": "12/26/201707:48:19",
    "KeyWords": "贾跃亭,乐视,上市,股权",
    "Title": "被责令回国履责 贾跃亭这次能\"下周回国\"吗？_网易科技",
    "Comment": {
        "Link": "http://comment.tech.163.com/tech_bbs/D6ILJQ6900097U7R.html",
        "Total": 2040,
        "Content": "写了那么长一篇文，有用的就这句“如果贾跃亭未能按期回国，监管部门也没有强制手段令其归国，并没有很好的应对方法”。结合文章内容，标题改为“证监局跪求贾总年底前归国”比较妥当 好的，下周我带小薇🏊🏻回国 老婆都跑出国了..还回来？再下一步应该把一家子都带到美国去了...贾总：乱讲，我下周就回国！！！ 别扯淡了，你当国家吃干饭了？上了老赖名单了，拖欠时间长了，直接给你开出国籍，你爱嘛嘛嘛去吧，这辈子别想回国了 买不了机票怎么回？难道走路回来？你们叫JC开专机去接他！ 贾骗子：麻痹，限制我坐飞机又要我回国，难道要我划洗澡盆过太平洋？ 怎么感觉像农夫与蛇的故事中那个农夫说的话 你错了，人家双方都在演戏，都是心照不宣的给对方时间回避/逃避后走走流程，做给老百姓看的，要是真敢回来还不知道能不能活着出北京机场 在一栋面朝太平洋的别墅里贾搂着甘躺在按摩池中，一只手手里摇着香槟酒问甘:亲爱的我们应该回去吗？<br>那么问题来了，贾的另一只手再干什么？[不屑] 嘛蛋不让我坐飞机我怎么回 贾跃亭还是有领导风范的。愿意承担责任。 唱双簧都看不出来吗？一帮贱民 没钱买机票，打钱过来 愿意对乐视的员工，领导客户，投资者尽责到底。我们要相信。 讲真的，作为一个小老百姓我还是比较开心看到这个的，虽然我们国家的法律执行力我也知道，不抱什么太大希望，监管有力的话，根本不会出这种事，但是至少有一份声明总比没有好。国家监管局责令你回国，多少会产生点影响，否则就真的这么一直赖着了。几千万的钱，你说不换就不还，是我的话都不敢出门，睡都睡不好。希望你还有点良心，有点男人的担当。 那你也回来好吗 假药挺不可能回来了，接下来更有讽刺意味的会是：假药挺的🚘卖到中国来了 不可能回来了 国内怎么可能通缉，多少人巴不得他不回来，装模作样做点姿态就行了。最后不了了之 直接上红通不就搞定了 好不容易带着钱跑路成功，傻逼才会回国 不能！我还没圈到钱！ 继续演戏 实际上“潜”逃在外，可以肯定已经将大量资金移到国外，不可能自动回来了。但是，这种人，如果在国内没有罪行，也是绝对为0的。最后只能国际通缉。 坐船漂两个月，争取在大年三十前回来过年！ 一步一步来，肯定会有个说法。要不上面也丢人啊，谁也不想写进历史书里 我们还是静等消息吧！ 下周复下周，下周何其多。<br>。。。 没有什么事一份PPT解决不了的，如果有，那就两份[狗][狗][狗] 辞职了呢还履啥职啊，不在其位 好的，朋友们下周见 贾跃亭迈向红通名单的第一步 小薇都来美国了我还会回去吗？ 下周回，具体哪个下周就不知道了 能回来就不姓贾了 胜利大逃亡，全家团聚在美帝了，还指望回？ 回，下周回 据说携程将请假药停代替邓超作为2018年度携程代言人，毕竟说走就走不是一般人可以马上实施的。 老贾是个人才！ 证监局责令贾跃亭回国，给政府人民一个台阶下，贾肯定不会回来，然后发个红色通缉令把责任推给美国，完美。 快过年了，衷心感谢假药挺这一年不断啪啪打脸有关部门的喜剧。同时也给我们上了一课，骗子无所不在，无所不用其极 回啊，肯定回，这周8，老铁们等我 放了一个屁而已！ 下周8游泳回国！ 嘛蛋不让我坐飞机我怎么回 贾跃亭还是有领导风范的。愿意承担责任。 唱双簧都看不出来吗？一帮贱民 创业不是一天两天的事，不要墙倒就众人推，电动汽车这个行业还是很有前景，何不给人个机会。 愿意对乐视的员工，领导客户，投资者尽责到底。我们要相信。 写这种文章的，肯定不是贾丽 好不容易带着钱跑路成功，傻逼才会回国 我准备卖贾回来的船票了 贾回国 你们把小薇放过来我就回去～～～结果小伟去了，还是不回。赶紧发个通告维护一下 国内怎么可能通缉，多少人巴不得他不回来，装模作样做点姿态就行了。最后不了了之 那你也回来好吗 就沒見過這麼蠢的，哪個二逼會自投羅網？ 他坐船回来么 好大的证监会！ 回国的后果就是... 满屏水军 哥，都是出来混的不是？给留点面子呗。 证监局责令贾跃亭回国，给政府人民一个台阶下，贾肯定不会回来，然后发个红色通缉令把责任推给美国，完美。 贾：👌，下周回 写了那么长一篇文，有用的就这句“如果贾跃亭未能按期回国，监管部门也没有强制手段令其归国，并没有很好的应对方法”。结合文章内容，标题改为“证监局跪求贾总年底前归国”比较妥当 好的，下周我带小薇🏊🏻回国 别扯淡了，你当国家吃干饭了？上了老赖名单了，拖欠时间长了，直接给你开出国籍，你爱嘛嘛嘛去吧，这辈子别想回国了 贾骗子：麻痹，限制我坐飞机又要我回国，难道要我划洗澡盆过太平洋？ 怎么感觉像农夫与蛇的故事中那个农夫说的话 你错了，人家双方都在演戏，都是心照不宣的给对方时间回避/逃避后走走流程，做给老百姓看的，要是真敢回来还不知道能不能活着出北京机场 在一栋面朝太平洋的别墅里贾搂着甘躺在按摩池中，一只手手里摇着香槟酒问甘:亲爱的我们应该回去吗？<br>那么问题来了，贾的另一只手再干什么？[不屑] 对于一个离职了的，贾跃亭还能做到这样真的是不错了。 假药挺不可能回来了，接下来更有讽刺意味的会是：假药挺的🚘卖到中国来了 呵呵～ 不可能回来了 可怜他才刚有转机。。。 直接上红通不就搞定了 那有谁能给我个机会让我把易到里剩下的几百块钱用完？ 有人痛打落水狗，有人乘虚而入 实际上“潜”逃在外，可以肯定已经将大量资金移到国外，不可能自动回来了。但是，这种人，如果在国内没有罪行，也是绝对为0的。最后只能国际通缉。 坐船漂两个月，争取在大年三十前回来过年！ 傻子才会回国，骗子智商很高 我们还是静等消息吧！ 讲真的，作为一个小老百姓我还是比较开心看到这个的，虽然我们国家的法律执行力我也知道，不抱什么太大希望，监管有力的话，根本不会出这种事，但是至少有一份声明总比没有好。国家监管局责令你回国，多少会产生点影响，否则就真的这么一直赖着了。几千万的钱，你说不换就不还，是我的话都不敢出门，睡都睡不好。希望你还有点良心，有点男人的担当。 快过年了，衷心感谢假药挺这一年不断啪啪打脸有关部门的喜剧。同时也给我们上了一课，骗子无所不在，无所不用其极 亮了 贾跃亭迈向红通名单的第一步 能回国? 据说携程将请假药停代替邓超作为2018年度携程代言人，毕竟说走就走不是一般人可以马上实施的。 贾丽呢 踩单车回国？ 老婆都跑出国了..还回来？再下一步应该把一家子都带到美国去了...贾总：乱讲，我下周就回国！！！ 难道不能以诈骗罪起诉它通缉它逮捕它吗？ 做轮船回来 嘛蛋不让我坐飞机我怎么回 回，下周回 没钱买机票，打钱过来 讲真的，作为一个小老百姓我还是比较开心看到这个的，虽然我们国家的法律执行力我也知道，不抱什么太大希望，监管有力的话，根本不会出这种事，但是至少有一份声明总比没有好。国家监管局责令你回国，多少会产生点影响，否则就真的这么一直赖着了。几千万的钱，你说不换就不还，是我的话都不敢出门，睡都睡不好。希望你还有点良心，有点男人的担当。 能回来就不姓贾了 下周一顶回 不能！我还没圈到钱！ 小薇都来美国了我还会回去吗？ 一步一步来，肯定会有个说法。要不上面也丢人啊，谁也不想写进历史书里 下周复下周，下周何其多。<br>。。。 买不了机票怎么回？难道走路回来？你们叫JC开专机去接他！ 辞职了呢还履啥职啊，不在其位 好的，朋友们下周见 继续演戏 下周回，具体哪个下周就不知道了 贾老板自己有专机 胜利大逃亡，全家团聚在美帝了，还指望回？ 倘若如此，不知道有多少公司老板会锒铛入狱？ 买不了机票回你妹呀 老贾是个人才！ 没有什么事一份PPT解决不了的，如果有，那就两份[狗][狗][狗] 回啊，肯定回，这周8，老铁们等我 ",
        "Reply": 72
    },
    "Article": "（原标题：叫喊声敲碎贾跃亭的圣诞梦！责令你回国期限马上到了，这回还能赖吗？）文/邵好北京证监局12月25日发布《关于责令贾跃亭回国履责的通告》（下称“通告”）。“通告”责令乐视网实际控制人贾跃亭于今年12月31日前回国，切实履行公司实际控制人应尽义务，配合解决公司问题，稳妥处置公司风险，切实保护投资者合法权益。今年7月初，贾跃亭在乐视网等相关公司仍深陷困局的情况下飞往美国。7月6日，贾跃亭在微博上发声：“乐视至今日之巨大挑战，我会承担全部的责任，会对乐视的员工、用户、客户和投资者尽责到底。”并表示，会把金融机构、供应商以及任何的欠款全部还上。此后相当长一段时间内，市场不断传出“贾跃亭有望下周回国”的消息，但最终都被证实为谣言。贾跃亭离境后，乐视网、乐视致新及乐视影业实际上由融创方面所主导，此前贾跃亭及其相关方给上市公司带来的风险也逐渐暴露出来。例如，贾跃亭曾于2015年5月作出承诺，将减持乐视网股票所得资金全部借给上市公司作为营运资金使用，免收利息，然而，2017年11月，其明确表示无力继续履行对上市公司无息借款的承诺。对此，北京证监局12月3日下发《关于对贾跃亭采取责令改正行政监管措施的决定》（下称“决定”）。“决定”指出，贾跃亭在上市公司经营困难之际抽回全部借款，拒绝履行承诺，置公司风险于不顾，严重损害上市公司及广大中小投资者的切身利益，社会影响恶劣，并违反相关规定。因此，北京证监局对贾跃亭采取责令改正的监管措施，要求其就违规行为出具书面整改报告。然而，据北京证监局披露，截至目前，贾跃亭仍未履行承诺且未向证监局报送整改报告。不仅如此，北京证监局早在9月13日就曾对贾跃亭下发了《关于对贾跃亭的监管关注函》，要求其在见文后立即回国，妥善处置公司面临的各种问题。此后也通过上市公司多次向其转达了回国履责的要求，但至今未见其采取相关行动。北京证监局此次在“通告”中指出，贾跃亭以投资汽车业务及融资为由滞留境外，其控制的相关公司对上市公司存在巨额欠款，至今尚未归还，相关行为严重侵害了上市公司的合法权益及广大投资者的切身利益，社会影响极其恶劣。因此，责令其12月31日前回国，切实履行公司实际控制人应尽义务。就在前不久，贾跃亭被法院列入失信被执行人名单，成为高消费会受到限制的“老赖”。延伸阅读融创欲增资上位第一大股东乐视影业重组或提速酝酿许久的资产注入计划终于开始显山露水。乐视网12月25日晚间公告称，重组标的乐视影业拟进行股权调整，融创旗下公司嘉睿汇鑫拟增资乐视影业。交易完成后，其持股比例将提升至40.75%，取代乐视控股成为乐视影业第一大股东。在分析人士看来，乐视网自今年4月17日停牌以来，一直筹划、推进对乐视影业的重组方案，此次由嘉睿汇鑫主导对乐视影业股权的调整，或是为后续资产注入做铺垫，不排除重组方案推进提速的可能。回溯此前公告，融创方面进驻乐视网之时，便已将乐视网、乐视致新及乐视影业视为同一生态。乐视控股、嘉睿汇鑫1月中旬签署的股权转让协议显示，前者将其所持乐视影业1.26亿元出资金额转让给后者，该出资额占乐视影业总股本的15%，交易作价10.5亿元。交易后，乐视控股对乐视影业的持股比例降至28.38%，但仍是第一大股东。此后，嘉睿汇鑫进一步增持，将对乐视影业的持股比例提升至21%，而乐视控股的持股比例则降至21.8%。尽管嘉睿汇鑫仍为二股东，但融创方面对乐视影业的话语权已明显提升。今年7月，乐视网披露，乐视控股已将其所持有乐视影业21.8%股权质押给融创。同时，该股权已被司法冻结。在乐视控股所持乐视影业股权已被质押的情况下，为何融创不直接从乐视控股手中接下股权，而是选择以增资方式入主乐视影业呢？上述分析人士表示，乐视控股本身已经麻烦缠身，且贾跃亭已经被列入失信被执行人名单，采用增资入股的形式，能够尽可能地令资金留在乐视影业体内，毕竟目前乐视影业自身资金状况并不乐观。在接管乐视后，融创方面一直在对乐视“输血”。11月16日早间，融创中国发布公告称，旗下公司天津嘉睿与乐视致新、乐视网签订借款协议，向乐视致新提供5亿元借款，向乐视网提供12.9亿元借款，用于后者日常运营。此外，融创中国旗下公司融创房地产也与乐视网签订委托担保协议，融创房地产同意为乐视网现有债务及新增债务提供总额不超过30亿元的担保。作为条件，乐视网向融创房地产提供反担保，并将其所持乐视致新26.7702%的股权质押给融创房地产。持续“输血”之后最终还需各个业务自身“造血”，而“造血”的关键之一便是形成协同效应。9月25日，乐视网发布公告称，拟受让乐视投资100%股权（不包含乐视投资旗下非金融类资产及业务），推进娱乐金融化、金融视频化的特色创新。本文来源：上海证券报·中国证券网责任编辑：王凤枝_NT2541",
    "URL": "http://tech.163.com/17/1226/07/D6ILJQ6900097U7R.html"
}