{
    "Title": "国家旅游局：元旦前两日接待国内游客1亿多人次_网易新闻",
    "PublishTime": "01/01/201805:13:59",
    "URL": "http://news.163.com/18/0101/05/D71R5HTC0001875N.html",
    "Source": "Netease",
    "KeyWords": "新年,旅游,出行,国家旅游局",
    "Comment": {
        "Reply": 4,
        "Content": "旅游局工作的人都知道人数怎么来的，不多说了。 这数据怎么统计的，是不是算火车票，飞机票 以前叫回家叫探亲，现在叫旅游。 有钱真好 旅游局工作的人都知道人数怎么来的，不多说了。 这数据怎么统计的，是不是算火车票，飞机票 以前叫回家叫探亲，现在叫旅游。 有钱真好 ",
        "Total": 30,
        "Link": "http://comment.news.163.com/news_guonei8_bbs/D71R5HTC0001875N.html"
    },
    "Article": "（原标题：元旦假期前两日接待国内游客一亿多人次）本报北京12月31日电综合通信运营商、线上旅行服务商等数据，经国家旅游局数据中心测算：30日全国共接待国内游客0.56亿人次，实现国内旅游收入345亿元；31日全国共接待国内游客0.51亿人次，实现国内旅游收入296亿元。元旦假期首日，全国大部分地区以晴天为主，总体适宜出行。各地中短途旅游、都市和郊区休闲游成为消费主流。全国旅游市场南下避寒、北上玩雪趋势相对明显。元旦假期第二天，全国假日旅游市场迎来高峰。滑雪场、温泉度假村、大型综合商圈等旅游休闲场所火热。公路、铁路、民航均迎来出行高峰。各地以全域旅游理念为指导，积极加强假日旅游供给，内容更丰富，出行更便捷，体验更美好。本文来源：人民日报作者：王珂责任编辑：韩佳鹏_NN9841"
}