{
    "PublishTime": "12/27/201714:24:17",
    "Source": "Netease",
    "Comment": {
        "Link": "http://comment.ent.163.com/ent2_bbs/D6LULIQ600038FO9.html",
        "Total": 10930,
        "Reply": 478,
        "Content": "没想到啊没想到，你朱时茂这样浓眉大眼的也出轨了 不是我自己想当，是笛粉们哭着喊着非让让我当的。我不当他们不答应，我也很无奈啊。但现在是时候退下来了，我也坐这个位子好多年了，也该让年轻人上来锻炼锻炼了。 我老爸会说：儿子，老爸不用了，你拿去玩吧！ 德艺双馨！ 这些搞偷拍的还好意思叫摄影师，脏了师这个字了 大美妞你变了 好好爱笛，天天向上。护笛任重，继续努力！请你们支持新任会长的工作，我走了，再见！ 中国人就算是亲人貌似也不这样亲啊！ 别走啊，没你网易我都想卸载了，毕竟网易娱乐板块就认识你一个人 这话一说，更觉得有事 你当初那么多海誓山盟的誓言呢？ 大美妞你变了吗？爱笛大业任重道远，你忘了吗？ 没看见是亲吻啊 不要，我就要大美妞你，别人我不承认 明显钓鱼🎣执法 一日为师！ “老艺术家”赵忠祥，李金斗，侯宝林，侯耀华，朱时茂，张铁林，张纪中，欢迎大家补充 声明：本人已于2017年12月26日辞去姚笛国际后援会会长职务，且永久退出姚笛国际后援会，结束与姚笛国际后援会的一切人事、劳动关系。在此希望各方爱笛同仁们继续高举爱笛旗帜，延续爱笛伟业！ 自封自卸？你丫货车啊？ 新会长尚未任<br>你就想走？！<br>组织同意你了吗？！<br>到我办公室来一趟！ o(∩_∩)o 老艺术家，你没亲行了吧！你解释一下搂人家头，拉人家手干嘛？ 不是就起诉媒体 我相信朱时茂，这种程度算啥！成龙大哥岂不是强奸了。。 同时期的大咖——陈佩斯、葛优、梁天不会做出这种事的。<br>第一，他们不是“艺术家”，<br>第二，......你们都懂得。 在下是章子怡善款网友会<br>资深会员，在组织里说话还是有一定份量的，老会长若有意，在下愿下山跑一趟前往引见！海纳百川皆因心系天下！有幸能得老会长这等高洁之士助理，章子怡这个发国难财的老婊子，伏法指日可待呀！ 成龙那确实是强奸，朱这个顶多算是有占便宜的想法 装逼遭雷劈 国际后援会！那比她更好的演员不得宇宙后援会？ 敢做不敢当，哎 老会长且慢走！<br>章子怡善款网友会，<br>最近人士调动，有空缺，该机构弘扬正义为民请愿<br>追到善款后有提成！<br>干不干？<br>待遇优厚报名从速！ 要是真的做一些羞羞的事情，没必要车门大敞大开吧、还两个门都打开，怕是有人算计你吧[窃笑]，话又说回来，你不和异性独处不就没事了？活该啊[窃笑] 找个嫩妹婚外情算不要脸，发这种声明，就是太他嘛的不要脸了！ 这角度叫亲，我岂不是和n个女同事亲上了？ 怎么啦，摸干女儿的手是关爱的表现，贴脸是学习的西方礼仪，干爹父爱如山！ 别啊，网易就属你最专一了，别走啊，你走了以后我们都少了一个等待的人了。 自封自卸？你丫货车啊？ 哪里亲了么？错位 动作很明显啊，就算没亲上，这种动作对一个女孩来说也太轻浮随意了，长辈这个样子，也难免不让人想歪啊 是不是没发工资？ 他不是还得过性病呢么这不很正常 买B的? 任重他认识姚笛吗？ 不要脸的女人白天晚上的打扮真是让人难以分清， 大家都不要说了，这是朱时茂干女儿！ 大美妞去投奔眼哥 你一辟谣我就明白了 动手了 死猪头，吻了就吻了，还狡辩，老不死的，最狡猾 落井下石的人真多 嗯，哪里 声明：本人已于2017年12月26日辞去姚笛国际后援会会长职务，且永久退出姚笛国际后援会，结束与姚笛国际后援会的一切人事、劳动关系。在此希望各方爱笛同仁们继续高举爱笛旗帜，延续爱笛伟业！ 别炒了行么？过气了 理解 无中生有？强烈谴责？ 煞笔！ 改换门庭了？ 我去偷电动车养你啊 名人就是名人 这样有钱有背景的亲戚，给我来一打 国家还没有开放纳妾呢 现在居然有狗仔去拍朱时茂？这狗仔怎么想的 但小三是合法的啊 发生了什么大事？难道。。。 动作很明显啊，就算没亲上，这种动作对一个女孩来说也太轻浮随意了，长辈这个样子，也难免不让人想歪啊 我不信他捐50万 就算没有亲上了，看动作表情什么的也是很暧昧的 好好爱笛，天天向上。护笛任重，继续努力！请你们支持新任会长的工作，我走了，再见！ 明显人家在耳边说话，就说激吻 你自己看看新闻和收据 别啊，网易就属你最专一了，别走啊，你走了以后我们都少了一个等待的人了。 老男人为什么这么色[疑问] 大美妞你变了吗？爱笛大业任重道远，你忘了吗？ 人家的自由，不反对，不干涉，不羡慕。 这里最不缺的就是落井下石的人，仔细看，很明显没有亲上去，只是角度错位。我们也经常有朋友拉进说话的，我觉得这并不代表什么！说得好像个个都是圣人一样 哈哈，说不定是朱时茂的女友或者准未婚妻呢？！不过名人无隐私！ 10 真是辛苦摄像了，等他吗一晚。 干爹不行吗 自封自卸？你丫货车啊？ 他压根就不是什么好东西,他还说人家韩国朴海镇耍大牌,朴海镇只是自己拿酒店钱自己单住,人家朴海镇在汶川地震捐50万人民币时,他个老霪棍还道貌岸然潜规则 这么暧昧，这么香艳，就算是没亲，朱时茂你个浓眉大眼的家伙也太不注意老艺术家的节操了吧。在屋里亲就算了，街上就来看来是喝高兴了。 老艺术家，你没亲行了吧！你解释一下搂人家头，拉人家手干嘛？ 这些无聊的记者真该挨揍！还有一些瞎起哄的网民，心灵也极其丑陋。 明显故意炒作！！<br>第一故意开双门提供视觉<br>第二女子眼神多次望向影像机方向 大美妞你让狗🐶日了嘛？ 没想到啊没想到，你朱时茂这样浓眉大眼的也出轨了 最新消息，姚笛分手了。 害人之心不可有，防人之心不可无！ 就是，换作你们的老婆在车里会怎么想，！？😈 不好吧 为啥要亲吻？礼貌性的亲吻也不行！他妈的，活该你被拍 老艺术家发现这位女子脸色不好，给你人家搭个脉，看个舌苔，这么编你看行不？ 大美妞是个有才华的人 o(∩_∩)o 干没干你心里没点逼数？ 晚节不保的感觉 人家吻不吻管你们媒体鬼事咩，人家怎么吻，吻多久又关你鬼事咩！就算人家做爱也是人家私事呀，难道你还要看看用什么牌子不成！一天到晚去揭别人的隐私，连人家洗澡用什么沐浴露你都要管，真是的！ 这些狗逼娱妓没事没事找事，人家又没亲你妈你妻你女的！ 你不能走啊，你走了我们怎么办啊 奸夫奸妇吗?.... 大美妞伤心了吗 这个角度要亲最多是耳朵吧 是打算担任姚笛宇宙后援会会长吗？ 声明：本人已于2017年12月26日辞去姚笛国际后援会会长职务，且永久退出姚笛国际后援会，结束与姚笛国际后援会的一切人事、劳动关系。在此希望各方爱笛同仁们继续高举爱笛旗帜，延续爱笛伟业！ 为什么？我不信 朱老师，你是公众人物，我们不是。 你们都瞎说，明明只有小黄车是黄的 你这个叛徒！我原来一直以为，只有我这模样的能叛变——没想到啊没想到——你朱时茂这浓眉大眼的家伙也叛变革命啊！ 連大美妞都變了我再也不相信愛情了 朱时茂回应车吻：换做你的亲人被调侃做何感想<br>（记住：此处的亲人不是名词，而是动词） 哪里亲了么？错位 找个嫩妹婚外情算不要脸，发这种声明，就是太他嘛的不要脸了！ 0.5没到账 说实话，没有吻，错位了。至于其他就不发表意见了 换做别人亲人肯定往嘴上亲你亲人亲脸不调侃你调侃谁？ 为了钱啥不能干 厄这篇文章写全了啊亲戚也得有个具体关系吧 谁亲人？谁亲人？还不是你亲人。 人家都说了是亲人，是人家女儿或者侄女怎么办，如果全部搞清楚了，谁是谁的谁？那还差不多。 多少明星自以为爆出来的料看上去模棱两可立马义正言辞发声明谴责转脸立刻被狗仔扔出的实锤打了脸 好好爱笛，天天向上。护笛任重，继续努力！请你们支持新任会长的工作，我走了，再见！ 人家接吻关你们鬼事咩！人家怎么吻，吻多久又管你们鬼事咩，是不是人家洞房用什么牌子都要让你知道啊，无聊透顶了，是不是人家洗澡沐浴露用什么牌子都要成新闻啊，这些媒体真是无聊得发慌！ 这些搞偷拍的还好意思叫摄影师，脏了师这个字了 大美妞你变了吗？爱笛大业任重道远，你忘了吗？ 别啊别走啊 是谁 我没这种老艺术家亲戚 娱乐 因为姚笛要结婚了，新郎不是一楼。 自封自卸？你丫货车啊？ 他这是抛弃了大美妞 无聊 哈哈还哈哈哈哈哈哈 媒体太坏了 人生在世，只求个阶级分冶有什么意思。。。爱在沉默中凝重背弃公平、能划出多阔的天际...<br>-～只要对垄断说不，让我们牺牲自身(幸福)又何况当初的革命者想到的不是垄断的运命 强烈遣责 越描越黑，别嘴硬了。 谁信啊 理这个二百五干什么 有人借题材赚钱了，不管事情是真是假目的达到了 挨打要站直 你这名真是找抽 我的亲人可干不出此等龌龊事 这种礼貌也太性福了吧？？ 看来是女的炒作 惯的，果然戏子当道啊 评论里面的变态真他妈多！ 姿色还不错说实话 女的绝对在看镜头。 好好爱笛，天天向上。护笛任重，继续努力！请你们支持新任会长的工作，我走了，再见！ 换成龙呢？ 那马蓉不就是睡个男人嘛 没实锤啊 跟帖 人生短短几个秋啊不醉不罢休东边我的美人哪西边黄河流<br><br>来呀来个够啊不醉不罢休<br>愁情烦事别放心头.....<br><br>好儿郎浑身是胆壮志豪情四海远名扬<br>爱江山更爱美人那个英雄好汉宁愿孤单<br><br>道不尽红尘舍恋诉不完人间恩怨世世代代都是缘<br>留着相同的血喝着相同的水这条路漫漫又长远<br>红花当然配绿叶这一辈子谁来陪藕虽断了丝还连轻叹世间事多变迁<br>渺渺茫茫来又回 有人都敢这样，没人可想而知： 声明：本人已于2017年12月26日辞去姚笛国际后援会会长职务，且永久退出姚笛国际后援会，结束与姚笛国际后援会的一切人事、劳动关系。在此希望各方爱笛同仁们继续高举爱笛旗帜，延续爱笛伟业！ 有个动图，这女的看了一眼镜头 他是你母亲吗？还爱迪，爱你马大笔 亲人嫡亲干女儿 王顾左右 7。 比不回应更恶心 再继续十年，你就是传奇了 有钱人都是人老心不老！！ 一看那表情一看那动作就不是个好鸟 敢做不敢当，哎 谁跟你是亲人啊？！ 丽都饭店，朝阳群众！ 呵呵 装逼了 你的意思公众人物就得青灯古佛伴一身，清心寡欲活到老对吧 你是说。是女的安排的。 整个网易我就服大美妞，活活把我掰弯了……😂 自封自卸？你丫货车啊？ 不是我自己想当，是笛粉们哭着喊着非让让我当的。我不当他们不答应，我也很无奈啊。但现在是时候退下来了，我也坐这个位子好多年了，也该让年轻人上来锻炼锻炼了。 不可以，不能没有大美妞[大哭] 跟拍的妓者很无聊，这种事你情我愿，如果涉及犯罪你可以见义勇为，如果是为了满足偷窥癖去拍摄这个，还不如去路边做鸡比较高尚。 感觉像是借位，没亲呢？ 做了好多年了，学到了成长是吗？学到了陪多点时间爱父母？父母比情人重要？ 这只是干女儿而已 你特么泡妞，没人管你，他是公众人物。 无论再怎么义正辞严，已不能改变你猥琐的形象! 这么明显了，还谴责你妹 哈哈 是从网易辞职了还是马伊俐不给打钱了 泡个妞而已，人家有钱又有闲怎么了。一群道德婊 为什么，你怎么了，你不能离开啊。 要是真的做一些羞羞的事情，没必要车门大敞大开吧、还两个门都打开，怕是有人算计你吧[窃笑]，话又说回来，你不和异性独处不就没事了？活该啊[窃笑] 连大美妞也变心了。 我给你孩子取了个伟大的名字，爱迪生，小明灯泡或者亮亮。 为什么 亲昵是肯定的，如果那也不是，拍的东西如何解释？ 亲个嘴罢了，你情我愿的，我日了这帮狗腿子。 跟拍的妓者很无聊，这种事你情我愿，如果涉及犯罪你可以见义勇为，如果是为了满足偷窥癖去拍摄这个，还不如去路边做鸡比较高尚。 [晕] 这算说清楚了吗？ 和1图会 像错位，不像亲 警察，我和干女儿睡觉有啥错？ 人民的老艺术家果然经验丰富！坦然应对！ Hao 跟贴被火星网友带走啦~ 跟贴被火星网友带走啦~ …… 你什么时候卸任？ 在下是章子怡善款网友会<br>资深会员，在组织里说话还是有一定份量的，老会长若有意，在下愿下山跑一趟前往引见！海纳百川皆因心系天下！有幸能得老会长这等高洁之士助理，章子怡这个发国难财的老婊子，伏法指日可待呀！ 放成龙身上不叫事，洗洗睡了吧 这都行？ 还老艺术家？ 我要是有钱我比他玩的更嗨 …… 声明：本人已于2017年12月26日辞去姚笛国际后援会会长职务，且永久退出姚笛国际后援会，结束与姚笛国际后援会的一切人事、劳动关系。在此希望各方爱笛同仁们继续高举爱笛旗帜，延续爱笛伟业！ 对老衲有意见？！ 女孩子的表情还是挺不情愿的呢，凭什么说抱就抱 是没有亲，明显这女的知道有人在偷拍。炒作 真是辛苦了.....多少年在网易上都能这么活跃 不想负责任？老娘捏死你 这些老艺术家怎么了 不敬业 跟贴被火星网友带走啦~ 可能炒作！车门不需要二边开！ 离亲还差的远，有色心是肯定的，但这也正常 呵呵，明显只是拉过来说了句悄悄话而已。。。这能联想。 你不爱姚笛了 大美妞你变了吗？爱笛大业任重道远，你忘了吗？ 别走啊，没你网易我都想卸载了，毕竟网易娱乐板块就认识你一个人 的确，很多次女的都是眼睛看向镜头方向的。不过你自己把持不住，就别怪人家仙人跳 …… 被曝光于众脸上挂不住了！倚老卖老来了 章子怡人品太烂 zv 交头接耳而已，有什么 那是再为艺术献身 好东西 老艺术家，你没亲行了吧！你解释一下搂人家头，拉人家手干嘛？ 陈佩斯和朱时茂，还是信得过的！ CAONIMAB 握手道别，挥手道别，点头道别，你们是生离死别吗？要那样。 自封自卸？你丫货车啊？ …… 关你什么事，人家自愿的，鸡毛点大的事 又少了个网易老人啊 一年二千多亿中80%医疗费用用于高干病房及其家属，高房价也是此类人推动，待遇高国企事企公务员也是，高退休金也是，幼儿园也是，公积金也是，特供大米，油，菜也是，多的去了，哪个东西无缘无故给这么多好处？ 老了老了来这么一出 正版的？？？不要姚笛了？？？ [可怜][疲惫][大笑] 一看就跟其他明星不一样，评论里没有水军 这个女的在看摄像机 做明星真惨 好好爱笛，天天向上。护笛任重，继续努力！请你们支持新任会长的工作，我走了，再见！ 傻茂，就等你否认，跟你谈价格，谈不成，然后再放出更多证据 [色色][狗][大哭] 来来回回就他么一张图，老子就不信没其他照片？要锤就拿实锤往死了弄啊。 老艺术家，演技好，继续演。 [羞羞][鄙视][暴怒] 声明：本人已于2017年12月26日辞去姚笛国际后援会会长职务，且永久退出姚笛国际后援会，结束与姚笛国际后援会的一切人事、劳动关系。在此希望各方爱笛同仁们继续高举爱笛旗帜，延续爱笛伟业！ 老艺术家，演技好，继续演。 没看见亲没亲 看到了 好的，下次穿个马甲 别啊，大美妞 老艺术家需要找些灵感！小艺术青年需要尽快找到位子！各取所需，关尔等吃瓜者何事呢？ 这女子是朱时茂的女儿。 好久不见 我只信我看到的 我可能觉得完了事情暴露了 你们这群疯狂的🐶粉，真的让本总统太失望了。 泰国的广告历历在目啊这种无良媒体就该封杀[骷髅] 满脸淫笑你还说被误导？呵呵 [大笑][大笑][大笑] 果然是老艺术家的口吻 [被黑][喷水][晕] 准奏！ 你发错地方了，少装逼 怎么，不当了？准备去跳楼了索 这种老东西是最不要脸的 不是爱笛之情绵绵无绝期吗 自封自卸？你丫货车啊？ 那女人向外看的眼神，面对镜头，好像知道有人拍摄。像是在执法。 老艺术家，你没亲行了吧！你解释一下搂人家头，拉人家手干嘛？ 看照片更像是错位。不像是亲吻 那好我就建立一个咬笛协会 要是真的做一些羞羞的事情，没必要车门大敞大开吧、还两个门都打开，怕是有人算计你吧[窃笑]，话又说回来，你不和异性独处不就没事了？活该啊[窃笑] 不要脸 国际后援会！那比她更好的演员不得宇宙后援会？ 想不到这浓眉大眼的朱时茂你晚节不保啊 风光66 [微笑][疑问][不屑] 谁允许你们偷拍的，不是已经禁止了吗 为什么，因为姚迪谈恋爱了？ 感觉网易上好多人都没有素质，简直就是疯狗，见人就咬 "
    },
    "Article": "回应",
    "Title": "朱时茂回应车吻：换做你的亲人被调侃 做何感想_网易娱乐",
    "URL": "http://ent.163.com/17/1227/14/D6LULIQ600038FO9.html",
    "KeyWords": "名誉,朱时茂"
}