{
    "Title": "两名男子因赌博结成\"忘年交\" 输光积蓄\"相约\"偷车_网易新闻",
    "PublishTime": "01/01/201811:18:34",
    "URL": "http://news.163.com/18/0101/11/D72G13GT0001875P.html",
    "Source": "Netease",
    "KeyWords": "赌博,电瓶车,偷车贼,违法,偷盗",
    "Comment": {
        "Reply": 32,
        "Content": "告诉你们什么是知己，什么是战友！ 印证了那句物以类聚人以群分！什么样的人你想尽快了解他，看看他身边是什么人就好了 没有钱肯定要做了啊！不做的话没有钱用 标题有创意 我偷电瓶车养你啊…[狗] 打工这辈子是不能打工的 易友们新年快乐～顶我的2018年中双色球一等奖！ 问题我就不买彩票怎么办 不想做苦力，那只能赌了 打工是不可能打工的 你不偷电动车，我哪有钱养你呀……😁 穷鬼凑到一起没有好事 告诉你们什么是知己，什么是战友！ 不抽不喝不嫖之人不可交也 真会玩 标题有创意 士为知己者死。 好基友一辈子 没有钱肯定要做了啊！不做的话没有钱用 啦咯啦咯看几个个 赌博的人他能爱劳动 我偷电瓶车养你啊…[狗] 监控 打工这辈子是不能打工的 严禁黄睹毒，害人又害已，好多人倾家荡产妻离子散，周围就有些例子，一旦沾染终生受害 只有这样，赌博的人才会走上犯罪。 问题我就不买彩票怎么办 中了，我不带面具 啦咯啦咯看几个个 打工是不可能打工的 这俩太有才了。 泡美女手到擒来！ 没有钱了，肯定要赌啊！不赌没有钱用。<br>打工是不可能打工的，这辈子都不可能打工的！做生意又不会做，就是赌这种东西，才可以维持得了生活这样子。<br>进赌场就像回家一样，大年三十大晚上我都不回去，就平时家里面出点事，我才回去看看这样子。<br>在赌场里面的感觉呢，在赌场里面的感觉比家里面好多了！在家里面一个人很无聊，没有朋友玩，也没有女朋友可以玩。进了赌场里面去个个都是人才，说话又好听，什么包赢技术、三五瓶、去去妹，哇哦超喜欢在里面！ 宇宙的探索是离不开我的话的，只有把围绕地球公转的一切物质包括气体计算在地球体积之内才能找到地球真正的边和角，那是反引力汇聚地，是真正的真空隧道，宇宙高速路，太阳系内的动脉!把围绕太阳公转的一切物质包括气体计算在太阳体积之内才能找到恒星与恒星的边和角，那是恒星与恒星之间的真空高速隧道，找到真空隧道以近光速超光速飞行那不是个事!宇宙飞行器也不能按照飞机的二维结构原理制造，飞机是不能高速自转的，但只有高速自转才能产生真空电磁场，以近光速飞行，未来的宇宙飞行器必须按地球原理制造，八层以上结构，你看地球高速自转着前进，我们人坐在地球上有啥不适感觉吗？ 😄 这是真感情啊 印证了那句物以类聚人以群分！什么样的人你想尽快了解他，看看他身边是什么人就好了 呵呵 monomaniacal 易友们新年快乐～顶我的2018年中双色球一等奖！ 老两口 不想做苦力，那只能赌了 你不偷电动车，我哪有钱养你呀……😁 穷鬼凑到一起没有好事 ",
        "Total": 313,
        "Link": "http://comment.news.163.com/news_shehui7_bbs/D72G13GT0001875P.html"
    },
    "Article": "（原标题：两男子因赌博结成“忘年交”输光积蓄“相约”偷车）#endText.video-infoa{text-decoration:none;color:#000;}#endText.video-infoa:hover{color:#d34747;}#endText.video-listli{overflow:hidden;float:left;list-style:none;width:132px;height:118px;position:relative;margin:8px3px0px0px;}#entText.video-lista,#endText.video-lista:visited{text-decoration:none;color:#fff;}#endText.video-list.overlay{text-align:left;padding:0px6px;background-color:#313131;font-size:12px;width:120px;position:absolute;bottom:0px;left:0px;height:26px;line-height:26px;overflow:hidden;color:#fff;}#endText.video-list.on{border-bottom:8pxsolid#c4282b;}#endText.video-list.play{width:20px;height:20px;background:url(http://img1.cache.netease.com/video/img14/zhuzhan/play.png);position:absolute;right:12px;top:62px;opacity:0.7;color:#fff;filter:alpha(opacity=70);_background:none;_filter:progid:DXImageTransform.Microsoft.AlphaImageLoader(src=\"http://img1.cache.netease.com/video/img14/zhuzhan/play.png\");}#endText.video-lista:hover.play{opacity:1;filter:alpha(opacity=100);_filter:progid:DXImageTransform.Microsoft.AlphaImageLoader(src=\"http://img1.cache.netease.com/video/img14/zhuzhan/play.png\");}if(/(iPhone|iPad|iPod|Android|NETEASEBOBO|blackberry|bbd+)/ig.test(navigator.userAgent)||/safari|chrome|firefox/i.test(navigator.userAgent)&&navigator.plugins&&!navigator.plugins[\"ShockwaveFlash\"]){varstr1='<videocontrols=\"controls\"preload=\"auto\"width=\"100%\"poster=\"http://vimg3.ws.126.net/image/snapshot/2018/1/9/P/VD64LON9P.jpg\"style=\"max-height:100%\">';varstr2='<sourcetype=\"video/mp4\"src=\"http://flv.bn.netease.com/videolib3/1801/01/xUVRY6082/SD/xUVRY6082-mobile.mp4\">您的浏览器暂时无法播放此视频.</video>';document.getElementById(\"FPlayer1404863609673\").parentNode.innerHTML=str1+str2;}两男子因赌博结成“忘年交”输光积蓄相约去偷车（来源：~）window.NTES&&function(d){varf=function(c){varb=c.getAttribute(\"flashvars\"),a=c.getAttribute(\"repovideourl\").replace(\".flv\",\"-mobile.mp4\");h=d(c.parentNode.parentNode.parentNode),g='<embedsrc=\"http://v.163.com/swf/video/NetEaseFlvPlayerV3.swf\"flashvars=\"'+b+'\"allowfullscreen=\"true\"allowscriptaccess=\"always\"quality=\"high\"wmode=\"opaque\"width=\"100%\"height=\"100%\"type=\"application/x-shockwave-flash\"/>';if(/(iPhone|iPad|iPod|Android|NETEASEBOBO|blackberry|bbd+)/ig.test(navigator.userAgent)){g='<videocontrols=\"controls\"preload=\"auto\"width=\"100%\"height=\"100%\"><sourcetype=\"video/mp4\"src=\"'+a+'\">您的浏览器暂时无法播放此视频.</video>';}h.$(\".video\")[0].innerHTML=g;},e=function(b){vara=d(b.parentNode.parentNode.parentNode);a.$(\"li\").removeCss(\"on\"),b.addCss(\"on\"),a.$(\".video-title\")[0].innerHTML=\"string\"==typeofb.textContent?b.textContent:b.innerText,a.$(\".video-title\")[0].setAttribute(\"href\",b.getAttribute(\"url\")),a.$(\".video-from\")[0].innerHTML=\"（来源：\"+b.getAttribute(\"source\")+\"）\",f(b);};window.continuePlay=function(){vara,b=d(d(\".video-list.on\")[0].nextSibling);3==b.nodeType&&(b=d(b.nextSibling));if(b&&d(\".video-innerinput\")[0].checked){e(b);}},function(){vara={init:function(){if(d(\".video-listli\")[0]){d(d(\".video-listli\")[0]).addCss(\"on\"),this.eventBind();}},eventBind:function(){d(\".video-listli\").addEvent(\"click\",function(b){e(d(this)),b.preventDefault();});}};a.init();}();}(NTES);近日，南京市栖霞警方多次接到居民报警，称自己的电瓶车被盗。民警发现几起偷车案，被偷地点相对集中，民警经过蹲点守候，终于抓住两名偷车贼。先来看一段警方调取的监控画面。民警在案发地多段监控中发现，有两名形迹可疑的男子，多次出现在车辆被盗现场。二人大多是在凌晨进入小区或地铁站附近的停车场，进去不久后，便会骑着疑似被盗电瓶车大摇大摆地骑出小区。民警经过连夜蹲守，12月26号，成功将这二人抓获。偷盗嫌疑人陈某今年51岁、张某30岁。陈某交代，二人因喜欢赌博，在麻将档相识，并成为好友。12月月初，张某因为手头紧找到陈某，想向陈某借点钱，谁知道陈某也表示自己快“揭不开锅了”。于是，二人合计了一下，就想到“偷车”。陈某供述，他们一般会选择凌晨时分潜入小区，假装住户回家取车，撬开车锁后便会骑着电瓶车扬长而去，再低价转卖。得手后的钱，二人分了，基本都用于赌博挥霍。本文来源：看看新闻Knews责任编辑：张宪超_NN9310"
}