{
    "URL": "http://news.163.com/17/1231/13/D705O890000187VE.html",
    "Article": "（原标题：调查：加拿大安省房屋海外买家中国人最多占逾7成）中国侨网12月31日电据加拿大《星岛日报》报道，加拿大安省政府早前推出15%的海外买家销售税以遏抑楼价，但最新政府数据显示，多伦多海外买家的买屋价格比本地人高出接近一半，而在海外买家当中，中国买家占逾7成，有专家坦言，海外投资者是推高本国楼价的主因。根据《环球邮报》(TheGlobeandMail)透过《资讯自由法》索取未经公开的政府数据显示，安省政府推出海外买家税“辣招”后的4个月内，非国民在大多区买屋的平均楼价是977,611元，但国民和永久居民买屋的平均楼价为659,470元，两个平均价格相差为48.2%。另一方面，政府调查海外买家的国籍显示，绝大多数来自中国，占70.6%，第二位是美国，只占4.6%，而印度排第3，占3.6%。卑诗省亦出现海外买家买屋较贵的情况，卑诗省政府数据显示，海外买家买屋的平均价格为1,065,444元，本地人买屋的平均价格为958,701元，两个平均价格相差11.1%。加拿大帝国商业银行(CIBC)经济师BenjaminTal表示，海外买家在推高楼市价格上扮演关键角色，特别是在市中心等高需求的地区，影响了该地区的房屋可负担性。专门研究多伦多及温哥华楼价的西门菲沙大学(SimonFraserUniversity)JoshGordon教授说，海外买家引发所谓的涟漪效应，抬高所有物业的价格。富有海外买家通常喜欢购买豪宅，本地买家出不起价钱，只好退而求其次转往较平的地区，最终把楼价上升的效应扩展到所有地区。本文来源：中国侨网责任编辑：李天奕_NN7528",
    "KeyWords": "加拿大,购房,楼价,房价,置业,投资",
    "Source": "Netease",
    "Comment": {
        "Reply": 33,
        "Content": "走到哪，哪房价就升。。 西方真闭塞，根本不了解东方5000年传统物种 为了把资产转出去，到国外买房子也是无奈之举吧，与炒房无关吧 你们应该高兴啊，地广人稀，能盖多少房子？ 加拿大GDP翻一番！ 反正比在国内买同样房子要便宜好多,而且还是永久权. 买下宇宙，我能！ 罚，罚死这帮炒房的孙子 如果外汇没有管制 我是生活在一个动物园里吗 中国炒房世界第一 老百姓的钱，想买起哪里都行 怎么感觉中国人到哪都讨人嫌…… 中国的所谓牛逼导演跟人家好好学学什么才叫拍电影？ 温州炒房团出国了 帮你推高NDP还不乐意呢？ 中国真强大 中国人不好过，让全世界陪葬 没调查一下买房的都是些什么人!? 拍纪录片的人才厉害，那里面有思想。电影，最多算老二吧~ 市场经济，你情我愿呀 不是贪污的就是偷税污染环境来的，外国当局可以罚没 走到哪，哪房价就升。。 西方真闭塞，根本不了解东方5000年传统物种 蝗虫们出国炒房了 中国人不好过，让全世界陪葬 你我 你们应该高兴啊，地广人稀，能盖多少房子？ 拍纪录片的人才厉害，那里面有思想。电影，最多算老二吧~ 反正比在国内买同样房子要便宜好多,而且还是永久权. 蝗虫们出国炒房了 买下宇宙，我能！ 早点遣返赖昌星房价就跌了 罚，罚死这帮炒房的孙子 没调查一下买房的都是些什么人!? 蝗虫们出国炒房了 我是生活在一个动物园里吗 中国炒房世界第一 中国真强大 蝗虫们出国炒房了 老百姓的钱，想买起哪里都行 怎么感觉中国人到哪都讨人嫌…… 为了把资产转出去，到国外买房子也是无奈之举吧，与炒房无关吧 中国的所谓牛逼导演跟人家好好学学什么才叫拍电影？ 温州炒房团出国了 祸及世界 帮你推高NDP还不乐意呢？ 好支威有 加拿大GDP翻一番！ 你我 蝗虫们出国炒房了 如果外汇没有管制 卡尔加里应该不算高吧,哪里的房价应该是在下降才对. 市场经济，你情我愿呀 不是贪污的就是偷税污染环境来的，外国当局可以罚没 ",
        "Total": 700,
        "Link": "http://comment.news.163.com/news2_bbs/D705O890000187VE.html"
    },
    "PublishTime": "12/31/201713:13:00",
    "Title": "加拿大:中国买家占海外买家七成 推高加拿大房价_网易新闻"
}