{
    "URL": "http://war.163.com/17/1230/10/D6T8JMLG000181KT.html",
    "Article": "（原标题：中国首台国产大型客机发动机验证机装配完成）【环球网军事报道】据工信部网站12月29日报道，2017年12月25日，大型客机发动机验证机（CJ-1000AX）首台整机在上海完成装配，标志我国首个民用大涵道比涡扇发动机整机验证平台已经建立，将为后续研制工作奠定坚实基础。CJ-1000AX由中国航发集团商发公司负责研制，直径1.95米，长3.29米。其结构复杂、试制难度大，包含风扇/增压级、核心机、低压涡轮和附件传动机匣装置，由近35000个零组件组成。中国航发集团商发公司采用“主制造商-供应商”研制模式，联合24家单位参与试制工作，先后突破了钛合金宽弦高空心率风扇叶片、铝合金大型薄壁风扇包容机匣、3D打印燃烧室燃油喷嘴等多项试制关键技术，同时也攻克了大直径、长轴类单元体水平装配技术难关，历史18个月完成首台整机试制、装配。本文来源：环球网综合责任编辑：吴龙飞_NBJ9602",
    "KeyWords": "发动机,验证机,客机,整机",
    "Source": "Netease",
    "Comment": {
        "Reply": 143,
        "Content": "呵呵，日本人比欧美白爹爹还牛逼？ 还是3楼比较客观 你爱坐不坐，又不是给你造的 真实情况是，美国不允许日本制造，不允许德国单独制造，这二个优秀民族太厉害，美国对其它国家不追究二战责任，如泰国，是日本二战时的盟国，罗马尼亚，保加利亚，芬兰等，也是德国的盟国。一同进攻苏联。 总算看到国产大涵道航发了！尚未见参数！ 飞机最核心的部件就是发动机了 3楼客观个屁，日本没有是造不出来，国土面积小就没必要生产？不外销？这是什么逻辑？？？ 日本连中美60年代搞出的冷道叶片都搞不定，请你提供我国和日本确找证据。别光嘴巴巴好吗，我国材料学和冶金学跟日本差距甚大，要不也不会舔个脸让人帮建宝钢。 9494，日本连三聚氰胺都造不出来，还想喝营养奶粉？ 然而日本60年代就通过《航空振兴法》，第一代做YS11是一个超级失败的作品。由于航发方面日本实在拿得出手的产品不多，不如那另外一个侧面说事。那就是跟航发同源的燃气轮机说事好了。发电燃气轮机由于要求性较少，凭借日本的材料技术，这方面还是挺厉害的。但一说到要求更极端的船用燃气轮机日本就完全另外一回事了。例如以石川岛磨起头的SMGT计划。集合了几乎日本所有涡扇发动机相关企业科研单位研发力量来研发。结果现在方案已经被冻结。SMGT日本称为次世代船用燃气轮机技术。名字很厉害，但第一款产品原本是准备研制一款中小型船用动力总成。就不说具体了，就说最重要的燃效比，作为一台中小型船用燃气轮机。日本这个东西居然不如中国例如军舰大量使用的QC280中大型机器的燃效比。这是很匪夷所思的。当然，但到这地步了也没有继续研发的必要了，差距实在太大。然而中国QC280与美国GE与英国罗罗差距还不小。我觉得前面有些易友说的很现实，中日这方面差距有时候比中美差距还大.... 1楼<br>日本川崎重工造的有<br>你去Google下性能就知道日本人东西如何了 会越来越好的 没有国企的全盘民营化，就看不到中国尖端工业产品真正诞生的这一天！ 一楼肯定不知道现在日本连自己的机体都造不好~~~<br>静力试验连续断裂~~~ 以此为基础开始腾飞吧，我们的航空工业 机床加工不了航发，航发的精密加工是铸造+激光冲击。 够呛，说是五个国家合作的V2500-A5,前期很可靠，过了三年就故障不断。基本上发现问题，30个循环内必须换下了。CFM56-5B当时设计CSO为2000cycles,结果实验下来，性能能达到12000cycles,不管怎么样，是骡子是马，拉出来溜溜。 确实是，十年能正式商用就不错了。总算起步了 赞，支持科研。尽早与国外缩小差距。 有了总是好事……不过这玩意是真正的高精尖，从样本到投入市场有很长的路要走。 3楼先要查一下来发表，人家二楼说的没错，日本确实没有飞机的风洞，三菱重工的支线都是求美国人帮忙吹的好不！ 日本到现在驱逐舰还在用通用的燃气轮机，日本造游艇也用别人的发动机，你咋解释？ 很容易?你知道全世界只有几家公司能造飞机发动机吗？ 不过2楼说的也是事实啊！日本真没有飞机风洞，日本自己MRJ支线客机都是到美国吹的风洞！ 水平到了，以前的难题看起来都是小儿科 发动机配件？笑死了~日本连中美60年代搞出的冷道叶片都搞不定，还掐人脖子？ 不是,商用飞机发动机不一定要国产的,可以买到市场上的成熟产品.但是从长远来看还是有战略隐患的 为中华崛起鼓掌👏 新干线底盘开裂，轮船断裂沉底，心神解体，大飞机一再延迟都是障眼法，为了老美多漏点高科技给它 日本国土面积小，发展客机，特别是大型客机发动机，没有那么大的市场需求，英国是依靠欧洲市场，才有罗罗公司存在的。 它连实验用的风洞实验室都造不出来，还想造飞机发动机？ 拆一台波音或空客的发动机，照葫芦画瓢仿制一台很容易，但是，要想达到2-3万小时的寿命，就不是仿制能达到的了！ 华为已经成为无知自大的代名词了 外销意味着竞争，外销并不意味着市场就是小日本的了，国土面积大，意味着自己国内市场够大，参与国际竞争之前能够有足够市场培育企业，就像中国的大飞机，国家要扶持，参与国际竞争前，几百架订单就到手了，企业有足够订单成长 看看10式那个垃圾货，会做冶金却不会整合的玩意有个屁战斗力 客机短时间是不会用的，这东西要求太高了，油耗、噪声、排放，可靠性、可维护性都要求很高 日本没技术的产产汽车发动机还行军用就不要想了 希望安全运转三年以上，我就座 川崎重工自制的发动机四法停车，而且搞不定冷道叶片和热端轮盘，只能进口rr的。日本人的航发连朝鲜都不如。 主要是机床精加工。 日本人只在上游给发动机提供配件就足以掐断很多人的脖子 日本人为啥不造这玩意，这东西日本人造还是比较靠谱的 我擦，我记一个月前的新闻离才说这发动机的概念性设计刚刚通过评审，现在这实物都造出来了？这速度，要吓死人啊！ 希望祖国越来越好 嗯嗯，日本比你落后多了，数控机床可不可以别用日本的，你那手机也别用了，日本专机好多 呵呵，日本人比欧美白爹爹还牛逼？ 是你无知风洞也分好多种的有低速/高速的而日本肯定没有高速的因为它美国爸爸不准 祖国加油！ 真实情况是，美国不允许日本制造，不允许德国单独制造，这二个优秀民族太厉害，美国对其它国家不追究二战责任，如泰国，是日本二战时的盟国，罗马尼亚，保加利亚，芬兰等，也是德国的盟国。一同进攻苏联。 自己造的话，即可商用也能军用。买别人的就只能商用了，想军用人家就卡你脖子 期待中，预祝成功！ 中国的飞行员是世界上最勇敢。 这价格如果放到中国满大街的豪车了。税税税重要的字说三遍。 它连实验用的风洞实验室都造不出来，还想造飞机发动机？ 确实是，十年能正式商用就不错了。总算起步了 3楼客观个屁，日本没有是造不出来，国土面积小就没必要生产？不外销？这是什么逻辑？？？ 他卡到谁了？！！！ 50年前的风洞早淘汰了吧，适用大飞机的风洞根本没有，当然并不是说他们弄不出来，关键是弄出来也没有太大用处 9494，日本连三聚氰胺都造不出来，还想喝营养奶粉？ 日本不搞是有原因的，日本要搞也能搞 有很大的进度 发展很不错 如果美帝不管，你看看日本能造出什么 日本不能造？日本二战时就的飞机就是自己的发动机。 制造出来到可以批量装机使用，还有很长的路要走！ 搞个性神都拆了，小鬼子造灰机连门都入不了。 日本没技术的产产汽车发动机还行军用就不要想了 他能买的起票吗 666 这里面航空工业发展的确实很快 好好好 支持 你不亏是黑帮的 只是一个开始，还有漫长的路要走。努力吧 很容易?你知道全世界只有几家公司能造飞机发动机吗？ 日本没风洞？1965年前确实没有<br>6.5m×5.5m低速风洞完成年度1965年度<br>测定部断面が高さ6.5m、幅5.5mの连続循环式风洞で、航空机用としては我が国最大の风洞です。<br>2m×2m迁音速风洞完成年度1960年度形式连続循环式<br>测定部断面が2m×2m（正方形）の连続循环式风洞で、マッハ数が0.1から1.4の范囲の试験が长时间连続的にできる、 等吧，还得好几年。 美国人买车就是便宜，而且都是美国人认为！就这价格中国人想都不敢想！ 原谅三楼的无知，人家是民主派 可以想象杨利伟有多勇敢。 隐患是🈶️的但更多是考虑军用比如加油机预警机电子战等 不是,商用飞机发动机不一定要国产的,可以买到市场上的成熟产品.但是从长远来看还是有战略隐患的 这是最后一个技术男。 为中华崛起鼓掌👏 以此为基础开始腾飞吧，我们的航空工业 确实不行，但是不代表以后不行，日本材料、精密加工比中国强很多，造不出飞机最大问题是强而不全，系统工程不行，主要是被美国阉割的结果，不过其巨大的潜力值得警惕的。 希望安全运转三年以上，我就座 拆一台波音或空客的发动机，照葫芦画瓢仿制一台很容易，但是，要想达到2-3万小时的寿命，就不是仿制能达到的了！ 华为已经成为无知自大的代名词了 你们别提日本好不好，你们这是给汽油涨价找借口。 用嘴说都容易 外销意味着竞争，外销并不意味着市场就是小日本的了，国土面积大，意味着自己国内市场够大，参与国际竞争之前能够有足够市场培育企业，就像中国的大飞机，国家要扶持，参与国际竞争前，几百架订单就到手了，企业有足够订单成长 4楼有什么潜力，日本能进步，中国就不能在材料、精密加工等等进步吗！这种大项目是靠市场决定的。 3楼先要查一下来发表，人家二楼说的没错，日本确实没有飞机的风洞，三菱重工的支线都是求美国人帮忙吹的好不！ 有了总是好事……不过这玩意是真正的高精尖，从样本到投入市场有很长的路要走。 那是因为二战的发动机门槛低你让它现在再造一个不过中那时候更落后 投入是巨额资金,而等有回报时,能在市场上有竞争力时,技术早就更新了,说不定你的投入就是个泡影.其它国家没有这勇气干这么大风险的投资,必须人家只考虑到过太平日子. 日本人只在上游给发动机提供配件就足以掐断很多人的脖子 日本人为啥不造这玩意，这东西日本人造还是比较靠谱的 这几天这新闻真多 日本国土面积小，发展客机，特别是大型客机发动机，没有那么大的市场需求，英国是依靠欧洲市场，才有罗罗公司存在的。 你爱坐不坐，又不是给你造的 霸气十足！ 叶片都没几个能造的。单晶叶片 你不知道日本三菱的MRJ都要放弃了因为用了神户的钢材哈韩 开始苏联才是德国的盟友，一同瓜分了波兰。百度卡廷惨案 呵呵，日本人比欧美白爹爹还牛逼？ 妄自菲薄 看来华为不如你 日本鬼子造的加油漏油加水漏水（全假货），只有汉奸会坐。 靠自己才更安全！在这个问题上不能马虎 这个要是搞成功了还是巨大的进步了，不过投入市场估计起码要10年后了。 够呛，说是五个国家合作的V2500-A5,前期很可靠，过了三年就故障不断。基本上发现问题，30个循环内必须换下了。CFM56-5B当时设计CSO为2000cycles,结果实验下来，性能能达到12000cycles,不管怎么样，是骡子是马，拉出来溜溜。 轰6的涡喷8，运8的涡桨6，运20仿制的涡扇18等等如果说为了造客机而造客机，用这些动力总成都能够满足。CJ是完全按照民用标准研制的，就是以满足你说的这些标准造的 这个做工确实不敢恭维，可能个人的审美观不同吧。 中国造出来，国内飞二十年，然后，国际市场也要让中国进入，欧美的份额，，，，，，让他们去死吧 飞机最核心的部件就是发动机了 更上一层楼哦 貌似是小型客机,发动机动力不够只好装多台了 加油 日本连中美60年代搞出的冷道叶片都搞不定，请你提供我国和日本确找证据。别光嘴巴巴好吗，我国材料学和冶金学跟日本差距甚大，要不也不会舔个脸让人帮建宝钢。 太赞了！！！ 赞，支持科研。尽早与国外缩小差距。 没有国企的全盘民营化，就看不到中国尖端工业产品真正诞生的这一天！ [大笑][大笑][大笑][大笑] 主要是它美爹掐着它脖子呢～ 好消息，希望一点一点赶上来，缩短差距，掌握核心技术。 帅气！！！！ 希望中国航发越搞越好!!!! 加油 嗯嗯，大日本最好，你咋不移民过去啊！可怜的孩子，永远活在自卑里。 有了总是好事……不过这玩意是真正的高精尖，从样本到投入市场有很长的路要走。 自薄菲妄 很强大 不过2楼说的也是事实啊！日本真没有飞机风洞，日本自己MRJ支线客机都是到美国吹的风洞！ 以前都是看进口。现在美元这么金贵，还是靠自己 新干线底盘开裂，轮船断裂沉底，心神解体，大飞机一再延迟都是障眼法，为了老美多漏点高科技给它 谢谢五楼上课 V587 很大型 既然飞机发动机是国产的能否把c919改装成空中预警机或者远程轰炸机。以前的飞机发动机是进口的不能用于军事装备，现在好了不再受制于人了。我们可以放开手脚，想怎么搞就怎么搞。 它连实验用的风洞实验室都造不出来，还想造飞机发动机？ 希望安全运转三年以上，我就座 华为已经成为无知自大的代名词了 进展神速，开机试试如何？还很长的路要走！ 必须要有自己的飞机才行 期待国产湍达 看看10式那个垃圾货，会做冶金却不会整合的玩意有个屁战斗力 客机短时间是不会用的，这东西要求太高了，油耗、噪声、排放，可靠性、可维护性都要求很高 不是.国产大飞机刚立项,早呢 不知道有多少牛 应流股份有限公司为国家航空发动机燃气轮机发展做贡献加油应流股份 日本人为啥不造这玩意，这东西日本人造还是比较靠谱的 日本人只在上游给发动机提供配件就足以掐断很多人的脖子 我擦，我记一个月前的新闻离才说这发动机的概念性设计刚刚通过评审，现在这实物都造出来了？这速度，要吓死人啊！ 加油 嗯嗯，日本比你落后多了，数控机床可不可以别用日本的，你那手机也别用了，日本专机好多 好，终于等到了，振兴中华的时候了！ 这很棒 外观看着跟cfm没什么区别啊 生命不止，自强不息！ 呵呵，日本人比欧美白爹爹还牛逼？ 水平到了，以前的难题看起来都是小儿科 管线凌乱 比如神户钢铁 航空发动机领域，中日的差距就跟中美之间的差距一样，日本还远远不行。 向前进，向前进。总有一天站在世界之巅 只是验证机，还需要很长时间实验呢 2楼无知者无敌 这个，还得看RR的 箭在弦上，发出去只是早晚的问题了！！666 因为造不出来，不是不想。你去看一下他们的规划，做梦都想。 总归可以提升制造业的技术 1楼<br>日本川崎重工造的有<br>你去Google下性能就知道日本人东西如何了 日本真的不行 会越来越好的 你日爹没这个实力，航空发动机不是汽车发动机。。。 长三角精神！那些老式懒散国企都要关掉 总算看到国产大涵道航发了！尚未见参数！ 有了总是好事……不过这玩意是真正的高精尖，从样本到投入市场有很长的路要走。 川崎重工自制的发动机四法停车，而且搞不定冷道叶片和热端轮盘，只能进口rr的。日本人的航发连朝鲜都不如。 可喜可贺，路还很长 主要是机床精加工。 日本人只在上游给发动机提供配件就足以掐断很多人的脖子 👍👍👍👏👏👏 日本人为啥不造这玩意，这东西日本人造还是比较靠谱的 给大家普及一下，只是核心机，风扇还没装呢，就是干了50%的活 1楼·是傻逼，日本人造这发动机？ 赶紧的 希望祖国越来越好 呵呵蔑你大国企 从国际个国内两个方向看，产业升级都势在必行。核心装备有和没有是质的差别，要做就做百年老店，接受运十的教训，不管遇到什么样的挑战，高端制造的香火都必须传下去。 机床加工不了航发，航发的精密加工是铸造+激光冲击。 四台可驱动929，先929军用，在考虑双发民用 ",
        "Total": 1945,
        "Link": "http://comment.war.163.com/news_junshi_bbs/D6T8JMLG000181KT.html"
    },
    "PublishTime": "12/30/201710:32:42",
    "Title": "中国首台国产大型客机发动机验证机装配完成_网易军事"
}