{
    "URL": "http://news.163.com/18/0101/03/D71K0UNR0001875P.html",
    "Article": "（原标题：雾霾难阻热情，外滩23时30分游客已逾30万人次：上海启动一级勤务确保平安迎新年）大雾黄色预警、重度污染和降温天气都没能阻止游客外出跨年的步伐。记者今天晚上在外滩等热门景区看到，仍有不少游客到这里迎接新年的到来。据统计，截止今天晚上22时，外滩江堤客流累计达27万人次。上海公安部门启动一级勤务，确保跨年安全。今天下午16时许，前往外滩方向的游客开始增多，黄浦警方在南京东路从河南中路到中山东一路段实行交通管制措施，禁止机动车通行，只允许行人通行。下午17时，外滩陈毅广场的人流开始增加。记者在现场看到，警方在现场打出“外滩无倒计时活动”的灯牌提醒市民。这时，江堤5号通道开始采取“只下不上”的单向通行措施。据现场民警介绍：“如果江堤客流持续增长，单向通行措施将以陈毅广场为中心向两边江堤延伸。”记者从警方了解到，今天的第一波客流高峰出现在晚上18时到20时，江堤滞留人数达3万人左右。截至晚上22时许，外滩江堤瞬时客流量达到2万人，全天累积客流量达到27万余人次。截至23时25分许，今天外滩江堤累计游客数量已达到30万人次。此时，外滩江堤和中山东一路瞬时滞留游客数量达到7万余人。据黄浦警方介绍，今晚第二波客流高峰在23时左右出现。从23时开始，黄浦警方对中山东一路进行交通管制，禁止机动车通行：“根据往年经验，第二波高峰客流会在外滩进行跨年倒数，预计将滞留到24时后。过了零点，游客将集中离开。”为避免人流过分拥挤和对冲，警方从23时开始，在中山东一路和外滩江堤设置“拦截线”，对散场人流进行分隔和固定，分块、依次放行。从23时开始，外滩江堤全部采取“只下不上”单向通行措施，开放中山东一路路面，分散客流。记者从上海市公安部门了解到，从2017年12月31日至2018年1月1日，上海市公安局将启动社会面防控一级勤务等级，全面强化社会面防控力度，深入开展消防安全夜查行动，从严管控烟花爆竹，全力维护各项跨年迎新活动安全顺利举办，以确保元旦期间社会面治安持续稳定。本文来源：上观新闻责任编辑：韩佳鹏_NN9841",
    "KeyWords": "外滩,新年,上海,人流",
    "Source": "Netease",
    "Comment": {
        "Reply": 216,
        "Content": "本市环保工作做得再好，也架不住北霾南输啊！！ 2015的灾难全忘了，抹去了，一点纪念都没有 哎，请求北方别烧煤了 那年踩踏事件只字不提 周末也是洋人的，应该抵制 昨天美领馆空气污染指数显示是800多，真是亡我之心不死啊。 空气不重度污染人家还不去呢，要的就是这个效果。。。 梦中仙境！ 北方飘过来的，河北有很多炼钢厂，生产钢铁的废气都是从那里飘到南方来的。没人管，央视记者突袭拍摄，被当地人暴打。摄像机都砸掉了 终于吸到了免费烟，激动地留下了热泪 跟贴被火星网友带走啦~ 自从上次踩踏事件，跨年就不去外滩了 北方一供暖，南方雾霾就加重 人工吸尘器可以有 这新闻写的，污染并幸福着的感觉 人家说安全的食物，你说干净的，干净就代表安全？ 元旦节也是洋节。应该抵制 利用人工呼吸消除雾霾，申请专利 雾霾这个事因为美帝大使馆披露后盖不住了，然后开始说什么治理雾霾，人民群众了解情况后一开始马路上一下子戴口罩的人多了起来，然而随着时间的漂移，现在好像大家也默认了这个现实，所以，有时候只能怪我们太健忘太没有原则太好说话。 不是不让放鞭炮了吗 对于致命的东西没人关心，悲哀 说的其他地方安全食品能提供似的 新鲜空气没办法，喝干净水吃干净食物你还做不到？您家孩子天天都去小饭馆吃饭么？ 国人已经麻木了，戴口罩的越来越少了 30万台吸尘器 30万台空气净化器 一楼高级黑，知道吗？ 还有这么多人？令到不行啊，赶的还不够多呢 成年人只是想安安静静当休息...只有小屁孩才需要热闹 这是国际大都市该有的事，不像广州，没有一点新年新气象，死悄悄的。 不知道环保部门在干什么？猪 北方飘过一片雾霾，你看不见我，我怕看不见你，混混沌沌，迷迷茫茫 我只需要孩子能呼吸新鲜空气，喝上干净的水，吃上安全的食物，而这些基本的需求，在这个全球地价最贵的城市都提供不了 都是游客凑热闹。别去踩踏 感谢你们在外净化空气，[惊讶][疲惫] 二楼以为他家天天吃的特供… 怎么不说自己不用电呢？ 跟贴被火星网友带走啦~ 爱国霾，不吸不是中国人 恭禧上海，雾霾终于超越了北京，中国第一！世界第二，仅次于印度！ 还记得那年踩踏事件吗 导航出问题了… 我擦，，楼上更白痴，，按楼上意思，吃了不马上死都是安全的，对吧，， 真有福气，一边玩一边免费吸毒 会不会告诉你路的都是老乡？ 神tmd上海没有安全的食物和水！我难道生活在假的上海？一楼，你给个具体的数据，上海每年有多少人食物中毒和水中毒了？ 都是老外地和农民工年轻打工者学生和装bi的百无聊赖的人ta们用行为告诉周边的人和自己我们站起来了富起来了牛叉起来了其实这些人恰恰是四不像什么都不是什么都不如 那么过什么阳历啊取其精华去其糟粕的心胸都没有？愣头青 二楼不知道有些大米中有镉吧？这概念中学化学不教。 赞！怼得有理有据 上海人最坏！去上海的朋友都反应问路告诉别人反方向！上海人自认为自己是全球最时尚的城市！呵呵 谁说不关心，关键是关心也没法改变！ 昨晚我打开窗户，吸了一口上海的雾霾，有皮革被烧焦的味道🗽 朝小日本美帝 这回不怪放烟花的了 昨天美领馆空气污染指数显示是800多，真是亡我之心不死啊。 该来的迟早要来，就连宇宙第一强国牌雾霾也无法阻挡！ 这个比印度的除霾大炮还厉害，申遗。 元旦节也是洋节。应该抵制 神tmd上海没有安全的食物和水！我难道生活在假的上海？一楼，你给个具体的数据，上海每年有多少人食物中毒和水中毒了？ 某报确实黑过洋节 扇子我已经准备好了，说吧，朝哪边扇 利用人工呼吸消除雾霾，申请专利 跟贴被火星网友带走啦~ 跟贴被火星网友带走啦~ 北方一供暖，南方雾霾就加重 看来要建一堵高墙抵御北霾南下 雾霾也不能阻止人们跨年进入耶稣诞生第2018个年头。 戴口罩就有用了？ 脑残，星期六星期天也是外国传过来的，怎么不见你们抵制。 人工空气净化器！为你们点赞。 它们存在的基础那个什么足矣更是外国传来的 我们哪天不是超过270，怎没有报道一下？ 2楼呢？消失在雾霾中？ 郭嘉感谢你们作出的贡献 到广西，云南，贵州偏一点的山区，租几亩地，自己种田，自己养鸡猪，空气是新鲜的，泉水是无毒的，食物是安全的，想试试么？ 报告指挥部，监控屏幕看不清了 去趟外滩，用的着这么讽刺吗，99年哥刚毕业的穷学生照样去 上海人的确素质堪忧，建议把安徽并入上海，鼓励大量安徽农民和上海女人进行交配配种，以彻底改善上海人低劣基因，提高上海人整体素质！ 没什么好玩的。 用词不当，应该用封杀就适合 新鲜空气没办法，喝干净水吃干净食物你还做不到？您家孩子天天都去小饭馆吃饭么？ 国人已经麻木了，戴口罩的越来越少了 不出门就有用吗？ 😏 对于致命的东西没人关心，悲哀 这是国际大都市该有的事，不像广州，没有一点新年新气象，死悄悄的。 在指路的事情上，上海和北京，是两个几把煮汤，一个几把味 上海算上流动人口绝对3000w<br>+，不敢想像全部到马路上来是怎样的场景 上海本地人已经见怪不怪了 用扇子扇呐 在意的人不会出门，不在意的人出门也不戴口罩 都是游客凑热闹。别去踩踏 那就是在上海的人操蛋或在上海的人逆行 吉尼斯记录 那就是在上海的人操蛋 忘了某年跨年夜的踩踏事故了 中国人民吸不到安全的空气，吃不到安全食物，那个“初二学生”还在电视上叽叽歪歪大谈成绩，恶心！ 倾巢之下无完卵 我擦，，楼上更白痴，，按楼上意思，吃了不马上死都是安全的，对吧，， 真有福气，一边玩一边免费吸毒 你就这么看不起别人你祖上三代是干什么的就这个素质还有人这么多人赞看不起穷人农民学生你他妈18年不得好 😄，昨天我这边只有不到200，天是蓝的，但是远处的山灰蒙蒙的 全国多数地方都是雾霾跨年，就数云南优多。 北方小煤炉取暖得危害一目了然 那个足矣是哪的？ 跟贴被火星网友带走啦~ 都是老外地和农民工年轻打工者学生和装bi的百无聊赖的人ta们用行为告诉周边的人和自己我们站起来了富起来了牛叉起来了其实这些人恰恰是四不像什么都不是什么都不如 那么过什么阳历啊取其精华去其糟粕的心胸都没有？愣头青 智商还没到能看懂高德的档次 大家别说了我要发表新年致辞了同志们朋友们女士们先生们 这又怎么样呢，同时他们也是一群心存梦想，充满激情的人，才会大晚上兴致勃勃去跨年，莫欺少年穷啊兄弟 一楼高级黑，知道吗？ 我自豪！我为祖国吸雾霾！ 还是合法哦 上海人最坏！去上海的朋友都反应问路告诉别人反方向！上海人自认为自己是全球最时尚的城市！呵呵 国人都死完了它们才高兴 我只需要孩子能呼吸新鲜空气，喝上干净的水，吃上安全的食物，而这些基本的需求，在这个全球地价最贵的城市都提供不了 2015的灾难全忘了，抹去了，一点纪念都没有 周末也是洋人的，应该抵制 下刀子也得出门儿啊！ 孔雀东南飞 不管怎么说，人是真的多 钱多送医院，耗子肥了就是喂猫。 跟贴被火星网友带走啦~ 北方飘过来的，河北有很多炼钢厂，生产钢铁的废气都是从那里飘到南方来的。没人管，央视记者突袭拍摄，被当地人暴打。摄像机都砸掉了 情侣们浪漫的代价 利用人工呼吸消除雾霾，申请专利 哎，请求北方别烧煤了 自从上次踩踏事件，跨年就不去外滩了 老北京的就喜欢提着鸟笼一边遛圈一边说风凉话？ 这思想太肤浅 这点雾霾算什么，每人吸一口再吸一口，妈的，还不够吸的。 北京的空气真的很好的。蓝天白云、晚上明月。现在怎么轮到上海雾霾了？印度就别提了雾霾太重了。台湾也雾霾。 这能净化多少。。。 枕戈待旦？你真是高级黑！ 啪啪啪，新年刚开始，就有人这样对待上海，唉，伤心哪！！！ 一楼，生活方式不同而已，没必要去挖苦别人 人还是太少了，雾霾还是很严重 元旦节也是洋节。应该抵制 真是不怕死 这是波要命啊！卫生防疫部门看不见吗？ 很嗨皮 是的，扎心了 不是不让放鞭炮了吗 每年12月份上海就是这个熊样雾蒙蒙的 新鲜空气没办法，喝干净水吃干净食物你还做不到？您家孩子天天都去小饭馆吃饭么？ 梦中仙境！ 爱国霾，不吸不是中国人 都是乡活宁 欢迎来魔都吸霾 一楼高级黑，知道吗？ 好，好，上海太需要吸尘器了[大笑] 赞！怼得有理有据 谁在说国人胆小怕死？我抽他嘴丫子 确实 自己开过饭店，卖过炸鸡，见识过郑州城中村里成片房子，专门做外卖。<br>现在在外面，饿了宁可吃泡面，也不点外面。<br>忒不干净！！！！！ 我只需要孩子能呼吸新鲜空气，喝上干净的水，吃上安全的食物，而这些基本的需求，在这个全球地价最贵的城市都提供不了 感谢你们在外净化空气，[惊讶][疲惫] 一楼意思是人家保持警惕随时作战，虽然用词不当理解意思就行了 要提高居民舒适度，上海需要努力减轻污染！ 怎么不说自己不用电呢？ 出去吸霾？ 火星回忆 恭禧上海，雾霾终于超越了北京，中国第一！世界第二，仅次于印度！ 北方飘过一片雾霾，你看不见我，我怕看不见你，混混沌沌，迷迷茫茫 核电空气污染低，但真要建一楼这样的一定更不愿意。所以还是网易最先进，用喷能发电，粘点新闻改个标题喷动机就转起来了。 活一天多活一天，想多了太累。 昨晚凌晨虹桥天街看完电影回来，碰到两个值班的消防战士坐在消防车里枕戈待旦，不得不说一句：你们辛苦了！ 何必问路，用高德就行了 👮🏻同志们辛苦了！ 昨天美领馆空气污染指数显示是800多，真是亡我之心不死啊。 没气氛 上海人说都怪你们这些外地人，把阿拉的空气也搞污染了。 跟贴被火星网友带走啦~ 都是老外地和农民工年轻打工者学生和装bi的百无聊赖的人ta们用行为告诉周边的人和自己我们站起来了富起来了牛叉起来了其实这些人恰恰是四不像什么都不是什么都不如 那么过什么阳历啊取其精华去其糟粕的心胸都没有？愣头青 二楼不知道有些大米中有镉吧？这概念中学化学不教。 有什么好看的？真是没见过世面 特色国家的特色治理方法 大神，新年快乐，诸位，新年快乐😊 上海人最坏！去上海的朋友都反应问路告诉别人反方向！上海人自认为自己是全球最时尚的城市！呵呵 无知真可怕 本市环保工作做得再好，也架不住北霾南输啊！！ 看样子只有我一个人感觉到生活压力越来越大唉拖后腿了不好意思 那年踩踏事件只字不提 …… 越穷越要造雾霾 戴口罩出门 新年 终于吸到了免费烟，激动地留下了热泪 直接就睡了，又老了一岁 全世界都在跨年，只有我还留在去年，去年好多急忙跨年掉下的钱见都捡不完，我不想和你们一起跑，我只想慢一点，看看前面死了多少人，有多少陷阱多少错过的机遇，现在不是讲究回头看吗，啦啦啦啦 元旦节也是洋节。应该抵制 这些人哈哈😄 何必呢 心疼警察，照片上看上去没有带口罩 都是不怕死的感谢你们～ 这新闻写的，污染并幸福着的感觉 哈哈，我昨天去了。今年刚来上海，知道昨天人多也不想出来但是每天除了工作周末玩游戏把自己都放霉了，才一激动去看看的。我去了之后感觉美女真多都不知道看哪一个了[狗] 盘盘胃口是好呀，冒死建设上海旅游业 一楼高级黑，知道吗？ 世界各国都在倒计时欢庆2018的到来，烟火灿烂...... 雾霾这个事因为美帝大使馆披露后盖不住了，然后开始说什么治理雾霾，人民群众了解情况后一开始马路上一下子戴口罩的人多了起来，然而随着时间的漂移，现在好像大家也默认了这个现实，所以，有时候只能怪我们太健忘太没有原则太好说话。 不喜欢人多的地方 哈哈，对比世界各国的欢庆，我们静度元旦 我能说去的都是傻逼吗？！ 空气不重度污染人家还不去呢，要的就是这个效果。。。 想不通！昨天雾霾那么严重[不屑]没来过我们上海似的哈哈哈哈 还有这么多人？令到不行啊，赶的还不够多呢 成年人只是想安安静静当休息...只有小屁孩才需要热闹 这是国际大都市该有的事，不像广州，没有一点新年新气象，死悄悄的。 在家睡觉最美！ 瞎几把扯淡，北方的供暖雾霾，你们去看看北方几个个城市这些天的pm2.5指数，再来说吧 新天地到处都是武警 重度了啊...鼻子老难过的.... 哈哈相当形象 感谢你们在外净化空气，[惊讶][疲惫] 你们都是什么人呢？一些见不得阳光的人，龌龊阴暗的心理。让我鄙视。 可以同时扇扇子了！ 好打车吗 大陆哪里有什么国际大都市！又不是像香港一样新历年，龙历年12点都放烟花，on99站在条街上自己帮自己倒数，想起都傻hi。话说那谁上来后，广州龙历年都几年没放烟花了，一切从简😂 一群傻逼 你他么就是个傻逼 不知道环保部门在干什么？猪 难啊 为什么这两天怎么这么重的污染 你的意思只要洋的东西统统抵制 都是老外地和农民工年轻打工者学生和装bi的百无聊赖的人ta们用行为告诉周边的人和自己我们站起来了富起来了牛叉起来了其实这些人恰恰是四不像什么都不是什么都不如 舅服你 提什么?那那头猪要不开心了! 民众自己搞跨年，赫赫，历年的惯性吗 猫粪物贸自导自演地域攻击。 也许你问的是伪上海人 跟贴被火星网友带走啦~ IP南京，看你言论就知道你是日本人精子发育的 跟贴被火星网友带走啦~ 跟贴被火星网友带走啦~ 跟贴被火星网友带走啦~ 去的傻逼自己都心里有点B数，就是去找点事……天打五雷轰啊怎么没有闪电劈死他们 他们是在人工呼吸消除雾霾，请点赞 人工吸尘器可以有 原来是朝阳区群众，“思想觉悟”就是与众不同。 新年快乐[大笑] 30万？人数是怎么统计出来的？ 元旦节也是洋节。应该抵制 不是羡慕，实在看你们的笑话，一群安徽和苏北浙江的后代，还真以为自己是正宗憋3了 利用人工呼吸消除雾霾，申请专利 注意安全！ 就知道玩，你看还是李小璐爱岗敬业，年末最后两天还坚持谈论电影到半夜 现在不是不允许在户外搞活动了吗？那多人去外滩干嘛？看风景？ pm爆表都不算啥事 会不会告诉你路的都是老乡？ 这边没低于这个数 那你又算什么东西？标点符号都没有，你也就知道花生米是甜的。 30万台吸尘器 已经有全民扇扇子除雾霾的专利了[大笑] 有病 30万台空气净化器 温州人是最没有文化的人群 别出门小心枪击案 我也遇到过，其实过去一点点就到了。他却给我指了相反的路，太可恶了 私自发布2.5？ 人肉吸尘器已全面上线 人是擅于遗忘的动物，重大踩踏灾难只字不提 应该废除公历，统统使用阴历（农历） 跟贴被火星网友带走啦~ 导航出问题了… 他们没经历三年前的夜晚 SB 上海去过一次，也是冬天，pm2.5经常200以上，灰压压的一片，我在广东广西100以上都少见，今天是50 说的很无情，但确实如此 想想曹操百万大军得多长 他们是吸霾空气净化器，还是有点用的 都是老外地和农民工年轻打工者学生和装bi的百无聊赖的人ta们用行为告诉周边的人和自己我们站起来了富起来了牛叉起来了其实这些人恰恰是四不像什么都不是什么都不如 猫粪物贸自导自演地域攻击。 还去啊！脑残！ 滚回倭国 跨年狂欢夜，迎接2018年。愿2018年更美好。 跟贴被火星网友带走啦~ 上海人最坏！去上海的朋友都反应问路告诉别人反方向！上海人自认为自己是全球最时尚的城市！呵呵 号称百万，实约十八万。 一人发一把扇子[喷水] 新年去外滩的都是游客。上海人就在上海住，不用在人最多最挤的时候还跑去凑热闹。动脑子想想就能明白。 宇宙的探索是离不开我的话的，只有把围绕地球公转的一切物质包括气体计算在地球体积之内才能找到地球真正的边和角，那是反引力汇聚地，是真正的真空隧道，宇宙高速路，太阳系内的动脉!把围绕太阳公转的一切物质包括气体计算在太阳体积之内才能找到恒星与恒星的边和角，那是恒星与恒星之间的真空高速隧道，找到真空隧道以近光速超光速飞行那不是个事!宇宙飞行器也不能按照飞机的二维结构原理制造，飞机是不能高速自转的，但只有高速自转才能产生真空电磁场，以近光速飞行，未来的宇宙飞行器必须按地球原理制造，八层以上结构，你看地球高速自转着前进，我们人坐在地球上有啥不适感觉吗？ 感谢你们在外净化空气， 还记得那年踩踏事件吗 今夜我们都是上海宁 脑残太多 黑不溜秋的外滩有啥好看的 ",
        "Total": 4434,
        "Link": "http://comment.news.163.com/news_shehui7_bbs/D71K0UNR0001875P.html"
    },
    "PublishTime": "01/01/201803:09:08",
    "Title": "上海PM2.5达重度污染难阻跨年热情 外滩游客逾30万_网易新闻"
}