{
    "Comment": {
        "Content": "素质低的别养狗了满小区的狗屎狗尿 想起一个快速脱销的办法：把这些狗拉倒卖狗肉店的门口，不宰，就那么摆着，一会就会有人过来照照片，然后过几天就会有人过来枪，再告诉他们，200一只拿走，一半天就卖完。虽然这招对狗而言有点不负责任。。。 现在大多数养狗的人士纯粹是为了跟风，看人家欧美发达国家户户养狗，就附庸风雅，人云亦云，要知道人家的生活环境跟我们天差地别啊，人家是三层小楼外加门前有草坪和车库，楼后有花园和游泳池，你中国住一高层住宅还30％公摊面积，狗一周不洗澡屋里就没法待人，怎么跟人家比啊。国内所谓养狗的人，事情都是做给别人看的，遛狗专挑商业街等繁华区域，其目的就是为了显摆。国人的意识中就是习惯别人做什么，我也得做什么，否则就是不正常，装逼是常态，他们连基本的独立意识都没有，如何能明白养狗的真正含义。 一楼高级黑，讽爱狗人士呢。 所谓的爱狗人士其实就是一群疯狗 你这样利用和绑架别人的爱心，比路边乞讨的假乞丐还可恶 一群连自己都照顾不来的野鸡们就不要一时兴起养狗了，养好自己，不给社会添乱，就是功德无量了 狗年买狗，那么牛年买头牛牵回家？ 爱狗人士出来遛两圈，顺便把市场上的狗都带走，不然没爱心哦。 吃猪肉也要遭报应 开门，警察查房！ 少繁殖些吧，流浪狗都成灾了，很多宠物狗后来都成了流浪狗。 我特么的就想到了虎年 也不是不行，不过龙年怎么办？ 意思是爱人的人该进疯人院了。 半圆狗数量不减啊！ 所以这就是你和狗狗交配的原因，为自己找个老公？ 现在哪里有中华田园犬，东串西串，连土狗都不是纯粹的土狗，也从来没人承认过中华田园犬这个品种，别自欺欺人了 狗内都50元一斤。花江狗肉真香。 养鸡成本高呀 吃狗肉遭报应。 泰日天，日天迪，日天日地日空气，20都不要。 到处便溺的狗主人，你全家天天吃狗屎，你全家与狗乱伦，都是杂的种货。 这就是责任，跟养孩子一样的 泰迪这种垃圾犬最好淘汰掉！！应该大力拯救我国的优良犬种——中华田园犬！！ 毛多肉少卖两百，想钱想疯了吧！生猪才多少钱一斤？ 哥，你这说的是老鼠吧 人都养不起，养狗... 吃啊。鲸鱼都吃，何况狗肉 养狗的人家，养在家里的，家里总归有一股味道。养在车库的，更是恶心到家。住公寓的，就不该养。 还许多骨头 龙年咋整 日本吃狗肉吗？ 狗的寿命12年左右，想养狗狗的大部分已经养了，宠物狗市应该不会再火。<br>我养的贵宾4岁，大约周岁的时候学会在卫生间便便，清理卫生没感到麻烦（偶尔下楼遛一次，自备垃圾袋以防狗狗弄脏小区）。主要食物是餐余肉类骨头和蛋糕，每个月二百多块钱够了（修毛洗澡剪指甲都自己做）。狗狗寿终正寝时我会请人安葬（有做这种专门业务的）。<br>吃狗肉的勿跟帖。 我只关心，狗年狗肉涨价不？好那口啊 狗老了就像人老了一样会生很多病。所以，如果因为老了就遗弃的话主人自己将来老了也会是这个下场。会遭报应的。 又有多少流浪狗没人要的？ 天津啥时候出你这种傻逼了 你确定你会教狗？我第一只金毛来时两个月用了不到两个月就会只下楼屎尿一天三回现在十个月一天一回第二只博美笨一些来时两个多月用了两个月时间会在阳台尿盆里屎尿你那狗一岁才会？？？那一年时间都在家里乱尿？？想想就恶心 泰迪，有的女人喜欢，200块比起电动玩具还是便宜啊。 狗贩子们，别特么再炒作了。。。12年前我媳妇（那时候还是女朋友）就是听信狗贩子忽悠，非要养狗，新鲜劲过了，就不管了，都特么是我剪狗屎，遛狗，洗澡。现在狗老了，又是肿瘤眼睛也看不到了，耳朵也背了，嗓子也哑了。。。再回想起他们一起同时养狗的圈子（当时论坛和qq群几十号人经常组织出去玩儿），，就没有几条狗能够得到善终的。。。。一部分中途被遗弃，有的被送人，有的交通事故死亡，有的走丢。。。。还有的被安乐死。。幸亏我家这狗遇到我这么好一个主人。。不然也凶多吉少。。 与狗同吃同住的好人少点，整天狗里狗气，到处拉屎，污染城市环境，败坏社会风气。 哈士奇，阿拉斯加200元你看有没有人要 一楼你说你自己吧？咬的好凶哦！ 狗年不过是一个属相标记，实际上与狗毫无关系。<br>城市养狗缺德透顶，随着社会的进步，恶狗将没有市场。 原文“黄明在成都宠物狗批发生意圈内小有名气，生意好的时候，一年能发货近10只宠物狗”……这一年10只，一个月不到1只，居然饿不死？ 我们中华民族历来就厌恶狗，看看用狗骂人的词汇就足以证明，狗是过街老鼠，人人喊打。 一楼好人！ 2块了 想起一个快速脱销的办法：把这些狗拉倒卖狗肉店的门口，不宰，就那么摆着，一会就会有人过来照照片，然后过几天就会有人过来枪，再告诉他们，200一只拿走，一半天就卖完。虽然这招对狗而言有点不负责任。。。 放过你 一楼高级黑，讽爱狗人士呢。 开门，警察查房！ 所谓的爱狗人士其实就是一群疯狗 你这样利用和绑架别人的爱心，比路边乞讨的假乞丐还可恶 狗年买狗，那么牛年买头牛牵回家？ 苍天没放过谁？ 目测一大波狗儿子狗女儿群情激奋 电商咋买狗？淘宝吗 狗年带不火狗市，只能带火狗粉市。 10个狗粉里面可能都没1个能把他的狗养到狗挂的！ 这年头，鸡飞狗跳。 我特么的就想到了虎年 现在村里买狗的都没有了，可是每天都有犬只失踪的消息。 意思是爱人的人该进疯人院了。 所以这就是你和狗狗交配的原因，为自己找个老公？ 为什么要讽刺爱狗人士？他们养狗、救狗是出自对生命的爱，花的也是自己的钱和精力，只为了让身边的狗少受点罪。至于那些养狗不打疫苗，遛狗不拴绳、拣屎，甚至抛弃狗的，只能算是不负责任的伪爱狗人士，他们菜应该受谴责。 现在哪里有中华田园犬，东串西串，连土狗都不是纯粹的土狗，也从来没人承认过中华田园犬这个品种，别自欺欺人了 泰日天，比日地，贵宾日空气 养鸡成本高呀 吃狗肉遭报应。 炒藏獒的时候五千的成本，买五万，怎么会饿死。 泰日天，日天迪，日天日地日空气，20都不要。 泰迪这种垃圾犬最好淘汰掉！！应该大力拯救我国的优良犬种——中华田园犬！！ 本是同根生，相煎何太急～～～～ 有没有卖可蒙犬的，联系我 毛多肉少卖两百，想钱想疯了吧！生猪才多少钱一斤？ 卧槽，我这一只哈士奇都要价1800 我自己也养狗，但是那些不牵绳、不捡狗屎、乱喊扰民不管、三分钟热度就遗弃的人还是别养了 狗内都50元一斤。花江狗肉真香。 不要轻易养狗，比养孩子还费劲，但是养了就要负责任 买hellokity 泰迪，丑B的狗还没肉，偷狗的都不理 狗贩子们，别特么再炒作了。。。12年前我媳妇（那时候还是女朋友）就是听信狗贩子忽悠，非要养狗，新鲜劲过了，就不管了，都特么是我剪狗屎，遛狗，洗澡。现在狗老了，又是肿瘤眼睛也看不到了，耳朵也背了，嗓子也哑了。。。再回想起他们一起同时养狗的圈子（当时论坛和qq群几十号人经常组织出去玩儿），，就没有几条狗能够得到善终的。。。。一部分中途被遗弃，有的被送人，有的交通事故死亡，有的走丢。。。。还有的被安乐死。。幸亏我家这狗遇到我这么好一个主人。。不然也凶多吉少。。 你咋还没进疯人院 吃啊。鲸鱼都吃，何况狗肉 🐶p纯种泰迪要几千呢 说实话，我那些爱狗人士有点无语，明明自己没条件，可硬要养，到处拉屎，小区里面，哎，真心不想说了... 买了以后先阉割就行了 我只关心，狗年狗肉涨价不？好那口啊 狗老了就像人老了一样会生很多病。所以，如果因为老了就遗弃的话主人自己将来老了也会是这个下场。会遭报应的。 估计被偷去吃掉的更多哈 纯种的泰日天200元能买到？骗谁呢 天津啥时候出你这种傻逼了 我是05年养的狗，12年了，牙齿不行，睡觉越来越多，新陈代谢特别快，吃得多拉得多，其他还好 现在点视频有一定几率变成游戏广告,这是怪网易还是怪浏览器? 狗年买狗、那虎年还的买只老虎啊 天道轮回，苍天放过谁 狗肉滚三滚，神仙都企唔稳。 吃牛肉也要遭报应 龙年才是关键 开个VPN感觉不错吧😂 一楼你说你自己吧？咬的好凶哦！ 原文“黄明在成都宠物狗批发生意圈内小有名气，生意好的时候，一年能发货近10只宠物狗”……这一年10只，一个月不到1只，居然饿不死？ 鸡年吃个鸡吧 狗年多养土狗泰迪还是算了 还是鸡年好啊 猫不用溜，好养多了 🐶《寻找收养我家狗狗的有缘人》🐶我家狗狗名叫“臭臭”黄色拉布拉多公狗，性格活泼可爱、热情。于2017年10月6日下午6时45分，从运城中学-博物馆不慎走失，寻找已有两月多至今无果。[流泪][流泪]每晚夜里醒来再也无法入睡，由于自己的原因导致狗狗的走失，后悔、自责无时无刻都在折磨着自己，常常自言“怎么能把臭臭给丢了”，难道我们和狗狗的缘分尽了。[流泪][流泪]想想他刚到家里时才一个月大，朝夕相处了1年零3个月，就好像家里一个调皮的孩子，刚刚长大了一点开始懂事，就突然间不见了！每天晚上起来，总感觉他还睡在沙发上；每天早晚拉开窗户总希望他能出现在楼下；每次从外面回来总希望他能出现在门口；每次回家开门总希望能看到他的小脑袋在拱门；每次路过狗狗走失的地方四处张望、轻轻呼叫着“臭臭”。也不知他现在过得好不好，晚上冷不冷，每天都吃点啥、喝点啥。如果有缘人的您收养了我家狗狗，无论何种情况，在此郑重承诺我们绝不要回，请您和我们联系，也许我们能成为因狗而结缘的朋友，只求您能让我们和狗狗再见上一面以了心事，要不一辈子心中都不得安宁！如果哪天您不想养了请和我们联系，一定会给您满意的经济补偿。如果您实在不愿意和我们联系，请在明年8月1日给狗狗打疫苗。狗狗除了狗粮，还喜欢吃馒头、喝米汤、面汤、麦麸，喜欢吃水果，但千万别吃果核，狗狗不能吃葡萄、巧克力、洋葱、葱、大蒜、甜食、吃盐要轻，不能喝牛奶！在此拜谢朋友们帮忙转发，祈求收养我家狗狗的有缘人能看到此信息，能和我们联系！🙏🙏🙏再奉劝养狗狗的朋友对于没有训好的狗狗出门要么牵好狗绳、要么视线不能离开狗狗。联系电话：15935973399 半年不开张，开张管半年 想起一个快速脱销的办法：把这些狗拉倒卖狗肉店的门口，不宰，就那么摆着，一会就会有人过来照照片，然后过几天就会有人过来枪，再告诉他们，200一只拿走，一半天就卖完。虽然这招对狗而言有点不负责任。。。 就是，按说冬天是吃火锅的旺季，哈哈哈哈哈~~~~~~~~ 狗贩子们，别特么再炒作了。。。12年前我媳妇（那时候还是女朋友）就是听信狗贩子忽悠，非要养狗，新鲜劲过了，就不管了，都特么是我剪狗屎，遛狗，洗澡。现在狗老了，又是肿瘤眼睛也看不到了，耳朵也背了，嗓子也哑了。。。再回想起他们一起同时养狗的圈子（当时论坛和qq群几十号人经常组织出去玩儿），，就没有几条狗能够得到善终的。。。。一部分中途被遗弃，有的被送人，有的交通事故死亡，有的走丢。。。。还有的被安乐死。。幸亏我家这狗遇到我这么好一个主人。。不然也凶多吉少。。 养狗需要有足够的耐心，时间，爱心。没有的话就别折腾自己和狗了。钱倒在其次。 现在大多数养狗的人士纯粹是为了跟风，看人家欧美发达国家户户养狗，就附庸风雅，人云亦云，要知道人家的生活环境跟我们天差地别啊，人家是三层小楼外加门前有草坪和车库，楼后有花园和游泳池，你中国住一高层住宅还30％公摊面积，狗一周不洗澡屋里就没法待人，怎么跟人家比啊。国内所谓养狗的人，事情都是做给别人看的，遛狗专挑商业街等繁华区域，其目的就是为了显摆。国人的意识中就是习惯别人做什么，我也得做什么，否则就是不正常，装逼是常态，他们连基本的独立意识都没有，如何能明白养狗的真正含义。 你这么说的话,龙年虎年怎么办. 狗的寿命12年左右，想养狗狗的大部分已经养了，宠物狗市应该不会再火。<br>我养的贵宾4岁，大约周岁的时候学会在卫生间便便，清理卫生没感到麻烦（偶尔下楼遛一次，自备垃圾袋以防狗狗弄脏小区）。主要食物是餐余肉类骨头和蛋糕，每个月二百多块钱够了（修毛洗澡剪指甲都自己做）。狗狗寿终正寝时我会请人安葬（有做这种专门业务的）。<br>吃狗肉的勿跟帖。 内心阴暗的人，只配躲在地沟里，做人要厚道 功能性狗，别问我为什么知道～黄一天天科普～ 你不懂，主要是宠物狗肉太难吃，我们大玉林哪家卖宠物狗忽悠食客，他生意就不用做了 狗年买狗，那么牛年买头牛牵回家？ 狗年不过是一个属相标记，实际上与狗毫无关系。<br>城市养狗缺德透顶，随着社会的进步，恶狗将没有市场。 一年发货10只，这是生意好的时候吗？强？ 我不反对大家养狗，但要文明养狗，，我小孩姨养狗，天天抱着法牛睡觉，真受不了，这狗到我家来就喜欢上沙发，，真烦人，， 少繁殖些吧，流浪狗都成灾了，很多宠物狗后来都成了流浪狗。 我特么的就想到了虎年 也不是不行，不过龙年怎么办？ 半圆狗数量不减啊！ 流浪狗不都是狗粉遗弃的么？？？？？？？？ 泰迪除了哼哼就是吱吱太烦人，养别的吧。 这就是责任，跟养孩子一样的 扯淡，哪里的泰迪200元？有多少我要多少 女人养狗的确是一时的兴趣，自己都懒得打理还给你打理狗？哈 没那精力和没那时间不要养宠物，遗弃宠物良心不会感到痛吗，我家的小狗8岁了也开始变老了 问题网上天天软文，养狗有多好，狗狗有多萌，其实就忽悠大家养狗，最后照旧一匹流浪狗 到处便溺的狗主人，你全家天天吃狗屎，你全家与狗乱伦，都是杂的种货。 爱狗人士赶紧去领养自己的亲人吧 不如养只喵 花钱花精力，比养孩子还劳神 叶公好龙，与虎谋皮！ 毛多肉少卖两百，想钱想疯了吧！生猪才多少钱一斤？ 哥，你这说的是老鼠吧 龙年 养狗的人家，养在家里的，家里总归有一股味道。养在车库的，更是恶心到家。住公寓的，就不该养。 还许多骨头 哦，说的对。按我知道的骂法有：你这狗奴才狗东西…… 我只关心，狗年狗肉涨价不？好那口啊 蛇年呢？抓条蚯蚓吗 至少不必为他娶媳妇，也不必为他付买房子的首付，与养孩子比，还是强一点！ 所以，养猫呗，会用猫砂，没味道，品种猫还粘人！ 龙有腿，龙年应该养蜥蜴。 你确定你会教狗？我第一只金毛来时两个月用了不到两个月就会只下楼屎尿一天三回现在十个月一天一回第二只博美笨一些来时两个多月用了两个月时间会在阳台尿盆里屎尿你那狗一岁才会？？？那一年时间都在家里乱尿？？想想就恶心 早些年也喜好这口，后来才知道狗肉遇强则强遇弱则弱。 泰迪，有的女人喜欢，200块比起电动玩具还是便宜啊。 金毛哈士奇之类的健康幼犬没有低于千元的，狗生也要看出身的。土狗都是自生自灭了，除非遇到好心人。 是啊，遇到好的主人很重要。我院子里有个女的，养了一条京巴狗，后来不要了，把狗放在车里开到别的地方扔了，没想到过了好久，狗竟然找回来了。之后她把这狗又扔到一个更远的地方，那狗我再也没有看到过。<br>如果只是一时兴起，还不如不要养。 正经养狗花费太大，宠物口粮宠物打针医疗宠物清洁。费时间费金钱。不建议年轻人养。 与狗同吃同住的好人少点，整天狗里狗气，到处拉屎，污染城市环境，败坏社会风气。 吃了吧 真的爱狗人士是不会让大街上那么多流浪狗翻来翻去吃垃圾的。 吃的话还是可以的 养什么不好，非要买日天日地日空气的泰日天 这狗这么能生，生几窝再卖不是价也拉低了 我们中华民族历来就厌恶狗，看看用狗骂人的词汇就足以证明，狗是过街老鼠，人人喊打。 一楼好人！ 怕是去享受一条龙服务...爽到飞天. 狗的繁殖能力让狗贩子一年不如一年 行行好，放过狗吧 人都养不起，养狗... 以前养狗的那些人，要么现在在养人了；要么就是被人养了。新的一代又对养狗不感兴趣。 毛多肉少卖两百，想钱想疯了吧！生猪才多少钱一斤？ 你不懂，主要是宠物狗肉太难吃，我们大玉林哪家卖宠物狗忽悠食客，他生意就不应做了 哈士奇，阿拉斯加200元你看有没有人要 泰迪这种日天日地的狗，白送都不要。 但愿少一些养狗的人，也希望养狗的人是真正爱狗的人、有素质的人。 爱狗人士出来遛两圈，顺便把市场上的狗都带走，不然没爱心哦。 一群连自己都照顾不来的野鸡们就不要一时兴起养狗了，养好自己，不给社会添乱，就是功德无量了 又有多少流浪狗没人要的？ 这么便宜吗 素质低的别养狗了满小区的狗屎狗尿 油价又涨了？ 养宠物的同志们辛苦了 ",
        "Link": "http://comment.news.163.com/news_shehui7_bbs/D77VUUKT0001875P.html",
        "Reply": 133,
        "Total": 1895
    },
    "KeyWords": "狗年,宠物,泰迪,狗狗",
    "PublishTime": "01/03/201814:33:12",
    "Title": "狗年能否\"带火\"今年狗市？商家:泰迪200元无人要_网易新闻",
    "Source": "Netease",
    "Article": "（原标题：狗年能否“带火”今年狗市？泰迪200元无人要）#endText.video-infoa{text-decoration:none;color:#000;}#endText.video-infoa:hover{color:#d34747;}#endText.video-listli{overflow:hidden;float:left;list-style:none;width:132px;height:118px;position:relative;margin:8px3px0px0px;}#entText.video-lista,#endText.video-lista:visited{text-decoration:none;color:#fff;}#endText.video-list.overlay{text-align:left;padding:0px6px;background-color:#313131;font-size:12px;width:120px;position:absolute;bottom:0px;left:0px;height:26px;line-height:26px;overflow:hidden;color:#fff;}#endText.video-list.on{border-bottom:8pxsolid#c4282b;}#endText.video-list.play{width:20px;height:20px;background:url(http://img1.cache.netease.com/video/img14/zhuzhan/play.png);position:absolute;right:12px;top:62px;opacity:0.7;color:#fff;filter:alpha(opacity=70);_background:none;_filter:progid:DXImageTransform.Microsoft.AlphaImageLoader(src=\"http://img1.cache.netease.com/video/img14/zhuzhan/play.png\");}#endText.video-lista:hover.play{opacity:1;filter:alpha(opacity=100);_filter:progid:DXImageTransform.Microsoft.AlphaImageLoader(src=\"http://img1.cache.netease.com/video/img14/zhuzhan/play.png\");}if(/(iPhone|iPad|iPod|Android|NETEASEBOBO|blackberry|bbd+)/ig.test(navigator.userAgent)||/safari|chrome|firefox/i.test(navigator.userAgent)&&navigator.plugins&&!navigator.plugins[\"ShockwaveFlash\"]){varstr1='<videocontrols=\"controls\"preload=\"auto\"width=\"100%\"poster=\"http://vimg3.ws.126.net/image/snapshot/2018/1/L/H/VD6A73LLH.jpg\"style=\"max-height:100%\">';varstr2='<sourcetype=\"video/mp4\"src=\"http://flv.bn.netease.com/videolib3/1801/03/tTeNf1938/SD/tTeNf1938-mobile.mp4\">您的浏览器暂时无法播放此视频.</video>';document.getElementById(\"FPlayer1404863609673\").parentNode.innerHTML=str1+str2;}狗年能否“带火”今年狗市？泰迪200元无人要（来源：~）window.NTES&&function(d){varf=function(c){varb=c.getAttribute(\"flashvars\"),a=c.getAttribute(\"repovideourl\").replace(\".flv\",\"-mobile.mp4\");h=d(c.parentNode.parentNode.parentNode),g='<embedsrc=\"http://v.163.com/swf/video/NetEaseFlvPlayerV3.swf\"flashvars=\"'+b+'\"allowfullscreen=\"true\"allowscriptaccess=\"always\"quality=\"high\"wmode=\"opaque\"width=\"100%\"height=\"100%\"type=\"application/x-shockwave-flash\"/>';if(/(iPhone|iPad|iPod|Android|NETEASEBOBO|blackberry|bbd+)/ig.test(navigator.userAgent)){g='<videocontrols=\"controls\"preload=\"auto\"width=\"100%\"height=\"100%\"><sourcetype=\"video/mp4\"src=\"'+a+'\">您的浏览器暂时无法播放此视频.</video>';}h.$(\".video\")[0].innerHTML=g;},e=function(b){vara=d(b.parentNode.parentNode.parentNode);a.$(\"li\").removeCss(\"on\"),b.addCss(\"on\"),a.$(\".video-title\")[0].innerHTML=\"string\"==typeofb.textContent?b.textContent:b.innerText,a.$(\".video-title\")[0].setAttribute(\"href\",b.getAttribute(\"url\")),a.$(\".video-from\")[0].innerHTML=\"（来源：\"+b.getAttribute(\"source\")+\"）\",f(b);};window.continuePlay=function(){vara,b=d(d(\".video-list.on\")[0].nextSibling);3==b.nodeType&&(b=d(b.nextSibling));if(b&&d(\".video-innerinput\")[0].checked){e(b);}},function(){vara={init:function(){if(d(\".video-listli\")[0]){d(d(\".video-listli\")[0]).addCss(\"on\"),this.eventBind();}},eventBind:function(){d(\".video-listli\").addEvent(\"click\",function(b){e(d(this)),b.preventDefault();});}};a.init();}();}(NTES);辞去鸡年，即将迎来狗年。时隔12年一个轮回，成都狗市是否能重回2006年的“疯狂”？1月2日，记者走访成都各大宠物市场调查发现，狗市市场目前还比较“淡定”，暂未出现火爆升温的现象：商家嗑瓜子织毛衣打发时间，“养狗需求基本饱和，批发销售生意不好做了”、“一只狗，一天两三个价，难卖”……就此业内认为狗市近年来逐渐趋于理性和饱和，狗年能否带火狗市，还有待观察。不过，宠物用品或宠物配套的生意却花样频出，甚至有人试水要开“狗狗农家乐”，让狗狗也能享受“喝咖啡泡吧的轻松与惬意”。一个现状市场行情：宠物狗一天几个价在成都做了十几年零售宠物狗生意的王琴清晰记得，狗市在2006年最疯狂，当时进价三、五百的狗狗，轻轻松松卖到近千元，利润十分可观。从十陵搬到龙泉三联宠物市场，这几年养宠物的人是多了，但生意却一年比一年难做。1月3日上午10点，记者走进三联市场，在狗狗零售区，阵阵犬叫声中夹带着几句闲话，更多的时候，只听见狗叫声。一字排开的十几家商家，有的在耍手机，有的织毛衣、嗑瓜子。说起宠物狗的行情，王琴说：3个月大的泰迪，标价300元，到了中午喊250，到了晚上五六点，200元处理了都没人要。“生意难做的很，一天几个价。”眼看着狗年来了，暂未看到火热的迹象。往年这个时候生意还是多好的，现在越来越差了。商家林端说，前几年狗市一直还算稳定，但不知为啥，从今年七、八月份开始，生意就突然变得冷淡了。“去年这个时候，我一天营业额上万块，现在一天只能挣到几百，说出来很多人不太相信，但这就是现状。”相比之下，电商情况较为乐观，几家销量靠前的成都宠物电商透露，元旦前后前来咨询的客户比平时有增多。“都是年轻人来买，买个狗狗寓意狗年有个好兆头。”一位商家介绍，忙的时候，都顾不上回复客户的问题。这个星期，光比熊就卖出了好几只，销量超出了预期。一种声音趋向理性：狗年未必带火狗市黄明在成都宠物狗批发生意圈内小有名气，生意好的时候，一年能发货近10只宠物狗，还举办过大型宠物博览会，玩过宠物技能比赛。这个年过四十的中年男子，在成都周边有几个宠物狗养殖场。如今的生意，“我都不好意思说。”黄明说，从去年10月底开始，养殖场要他把养殖场搬到了川北的其他小城市去了。而且很大部分客户在外省，运输主要依靠航空，从去年开始，航空公司也提高了运费。“以前限定一个笼子只能载重10公斤，现在降到只能运输8公斤，虽然费用不变，但装载的数量却减少了，成本就上来了。”黄明说，运输成本大幅度提高，利润只能维持到10%左右，除了日常的水电、人工等成本，盈亏基本就是持本。为何生意难做？黄明有他自己判断。2006年是一个转折年，之后的12年是增长年，到了现在，市场的需求基本处于临近饱满的状态。“除了高端宠物市场有少量的空间，中低档宠物，基本没啥销路了，靠批发的生意就更难做。”一家专注高端宠物全配套的商家陈军说，在经历2006年疯狂的狗市以来，市场越来越趋于理性。“今年价格应该没啥涨，高端宠物的销量可能有小幅增长，整体持平可能加大。”一个趋势宠物配套更有“前景”？按照黄明等众多销售端的商家的说法，市场趋于饱和，那么，宠物狗市会变成一个怎样的生态链呢？1月2日，成都龙泉三圣乡附近，一家近千平米的农家乐正在加紧装修中。如果不是店家的介绍，很难想象，这看起来环境优美的农家乐，它的客人是狗狗。“就像咖啡吧一样，宠物也应该有他们舒适的娱乐聚居的场所。”店家说，人们可以陪着狗狗到这里去玩耍，还可以寄养在这里，而店家将提供无微不至的服务。“社区式的配套将具有巨大的前景。”在走访中，不少商家提到了这样的观点。在成都的街头，宠物美容，宠物寄养，宠物娱乐主题party越来越火热。成都青羊区八宝街一家宠物用品店，商家忙的不可开交，“员工从一个人到现在五个人，三年时间了，销量和利润也基本每年翻翻。”记者发现无论是销售端，还是售后服务端，商家们都看好宠物狗的配套服务和产品。在华西动物医院高新店，负责人李代兵忙的不可开交，这家宠物医院，每天带着狗狗上门寻求帮助的客人，多的有些打挤，以这个医院为中心，形成了一个个闭环的圈子，也诞生了不少关于狗的感人故事。本文来源：封面新闻作者：李秀江刘旭强责任编辑：李天奕_NN7528",
    "URL": "http://news.163.com/18/0103/14/D77VUUKT0001875P.html"
}