{
    "PublishTime": "12/30/201705:02:00",
    "Source": "Netease",
    "Comment": {
        "Content": "都是老朋友们 红肾原是红色高棉的一个师长（？），跟随了反叛的韩桑林，骨子里还是劣宁屎大林那套顺我者昌逆我者亡的独裁专制意识。 红一一色一高一棉的余孽，华人的耻辱 红肾是原红色高棉的一个师长（？），跟随了反叛的韩桑林，骨子里还是劣宁屎大林那套顺我者昌逆我者亡的独裁专制意识。 一样的，强奸民意之后强奸法律只是时间问题 但也有轻重，能向法院起诉，通过法律途径解决，还是值得点赞的。至少没有玩“全国共讨之、全民共诛之”一套，也没有让人失踪。 毒菜者都是一个尿性 划重点，NGO 感觉洪森境界还是不行 建设性评论，不是诽谤行为 大炸好，我系古天乐，我系渣渣辉。谭万蓝月，姐系里没有玩过的船新版本，挤需体验三番钟，里造会干我一样，爱香借款游戏。点一下，完一年，装备不发一粪钱。 红肾原是红色高棉的一个师长（？），跟随了反叛的韩桑林，骨子里还是劣宁屎大林那套顺我者昌逆我者亡的独裁专制意识。 红一一色一高一棉的余孽，华人的耻辱 红肾是原红色高棉的一个师长（？），跟随了反叛的韩桑林，骨子里还是劣宁屎大林那套顺我者昌逆我者亡的独裁专制意识。 一样的，强奸民意之后强奸法律只是时间问题 但也有轻重，能向法院起诉，通过法律途径解决，还是值得点赞的。至少没有玩“全国共讨之、全民共诛之”一套，也没有让人失踪。 毒菜者都是一个尿性 划重点，NGO 都是老朋友们 感觉洪森境界还是不行 ",
        "Link": "http://comment.news.163.com/news2_bbs/D6SM6DQA00018AOQ.html",
        "Total": 175,
        "Reply": 11
    },
    "Article": "（原标题：前救国党前主席桑兰西诽谤洪森罪名成立判罚百万美金）中新网金边12月29日电柬埔寨王国首相洪森起诉前救国党前主席桑兰西诽谤案，29日被法庭裁定赔偿100万美元。资料图：洪森。中新社记者黄耀辉摄金边初院是在桑兰西缺庭情况下，判决诽谤罪名成立。今年1月14日，桑兰西因公开指责洪森利用100万美元贿赂前救国党之花提淑万塔而被洪森起诉诽谤，洪森要求赔偿100万美元的精神损失。在29日听证会上，桑兰西辩护律师宋速光要求法院传唤相关执法人员和关键证人提淑万塔出庭应讯，但遭法官拒绝。宋速光律师在庭上称，桑兰西只是发表建设性评论，不是诽谤行为，法庭应该撤销提控。洪森代表律师基德在庭上表示，有足够证据证明桑兰西是在污蔑洪森首相，要求法官重判桑兰西。当日法官引用《刑事法》第305条文诽谤罪，判桑兰西罪名成立，判罚桑兰西向洪森赔偿100万美元的精神损失费，并处以罚款1000万柬币(合2500美元)。本文来源：中国新闻网责任编辑：赵亚萍_NN9005",
    "URL": "http://news.163.com/17/1230/05/D6SM6DQA00018AOQ.html",
    "Title": "柬埔寨救国党前主席诽谤首相罪名成立 罚百万美金_网易新闻",
    "KeyWords": "柬埔寨,桑兰西,前主席,法官"
}