{
    "Source": "Netease",
    "KeyWords": "中国,溺水,泰国,大象",
    "URL": "http://news.163.com/17/1224/11/D6DT8U1G000187V9.html",
    "PublishTime": "12/24/201711:18:00",
    "Comment": {
        "Content": "玩到死 才这么点，等铁路通了，让你们知道什么叫做强大的购买力！ 泰国刚发生游船相撞死一男一女中国游客现在 玩到死 泰国刚发生游船相撞死一男一女中国游客现在 才这么点，等铁路通了，让你们知道什么叫做强大的购买力！ 找死啊？ ",
        "Total": 44,
        "Link": "http://comment.news.163.com/news2_bbs/D6DT8U1G000187V9.html",
        "Reply": 4
    },
    "Article": "（原标题：泰媒：900万中国游客游泰上半年74人溺水而亡）【环球网报道】据泰国“世界日报”网站12月23日报道，泰国是中国民众喜爱的旅游胜地之一，预计今年中国游客将创下950万人次的新高，但是今年上半年，已有74名中国人溺水而亡，而且还不包括因车祸、不遵守动物园规则及从事危险游玩项目等引发的伤亡。泰国旅游与体育部数据显示，中国游客遇溺原因包括部分人不理会红旗警示或强行落海致死，此外潜水也是高危活动之一，更有人因为喝醉等原因在饭店泳池溺毙。此外，还有中国游客因不习惯泰国的行车方向、交通规则等而发生车祸。2015年即有33名中国游客在泰国因此身亡。泰国海滨渡假胜地芭堤雅21日发生大象踩人致命意外，两名中国旅客不遵守导游及领队指示，拉扯象尾，导致大象发狂冲向人群，35岁的重庆领队为了抢救肇事游客，遭大象袭击踩踏致死。本文来源：环球时报-环球网。更多精彩，请登录环球网http://www.huanqiu.com作者：余鹏飞责任编辑：李杭_BJS4645",
    "Title": "泰媒:预计今年900万中国游客游泰 上半年74人溺水_网易新闻"
}