{
    "URL": "http://news.163.com/17/1228/17/D6OQP6H4000187VE.html",
    "Comment": {
        "Reply": 17,
        "Content": "逼崽子，没事不去读书，尽胡咧咧…… 这难道就是传说中的中二少年？ 小小年纪思想太丰富了 这智商做急 这是全部，还是挑几句报到出来 这难道就是传说中的中二少年？ 这智商就别搞事了 了不起 我发帖都支持有希望所以不怕啦 想起。。。索马里招聘广告了 这最起码应该关一个月吧，胡说八道也得有个教训才是 你是个傻逼 “寒蝉效应”？~~呵呵... 哎小小年纪长点心吧 十四岁以下的呢？教育两下就放出来了？ 有志不在年高 逼崽子，没事不去读书，尽胡咧咧…… 这难道就是传说中的中二少年？ 被喷子带坏的 小小年纪思想太丰富了 这智商做急 这是全部，还是挑几句报到出来 这难道就是传说中的中二少年？ 这智商就别搞事了 了不起 我发帖都支持有希望所以不怕啦 想起。。。索马里招聘广告了 这最起码应该关一个月吧，胡说八道也得有个教训才是 你是个傻逼 “寒蝉效应”？~~呵呵... 哎小小年纪长点心吧 十四岁以下的呢？教育两下就放出来了？ 有志不在年高 ",
        "Total": 374,
        "Link": "http://comment.news.163.com/news2_bbs/D6OQP6H4000187VE.html"
    },
    "Title": "少年网上发表恐怖言论 警方：拘留十日不予执行_网易新闻",
    "Source": "Netease",
    "KeyWords": "拘留,恐怖主义,违法",
    "PublishTime": "12/28/201717:04:00",
    "Article": "（原标题：湖南涟源警方：少年网上发表恐怖言论，对其拘留十日不予执行）近日，（湖南）涟源市公安局相关警种经过缜密工作，抓获并依法行政拘留在百度贴吧上发布“有想加入恐怖分子的志同道合者吗”、“想搞点事情，这个政府”等恐怖信息的违法人员龙某，此案是涟源市公安机关侦办的第一起违反《中华人民共和国反恐怖主义法》的案件。经调查，犯罪嫌疑人龙某辍学在家，父母对其也疏于管教，为了在论坛积累所谓的经验值，便产生该极端想法，发表恐怖言论。龙某对自己的违法行为供认不讳，根据《中华人民共和国反恐怖主义法》第八十条第一项以及《公安机关办理行政案件程序规定》第一百三十三条之规定，我局对龙某行政拘留十日。因违法行为人已满十四周岁不满十六周岁，根据《公安机关办理行政案件规定》第一百四十条第一项之规定，我局决定对龙某不予执行行政拘留。《中华人民共和国反恐怖主义法》第八十条：参与下列活动之一，情节轻微，尚不构成犯罪的，由公安机关处十日以上十五日以下拘留，可以并处一万元以下罚款：（一）宣扬恐怖主义、极端主义或者煽动实施恐怖活动、极端主义活动的；（二）制作、传播、非法持有宣扬恐怖主义、极端主义物品的；（三）强制他人在公共场所穿戴宣扬恐怖主义、极端主义的物品的；（四）为宣扬恐怖主义、极端主义或者实施恐怖主义、极端主义活动提供信息、资金、物资、劳务、技术、场所等支持、协助、便利的。本文来源：涟源公安责任编辑：张海桐_NN9053"
}