{
    "URL": "http://ent.163.com/photoview/00AJ0003/647011.html",
    "Title": "谢娜挺孕肚出行 张杰全程紧搂护妻台甜蜜_网易娱乐",
    "KeyWords": "谢娜,张杰,",
    "Article": "谢娜挺孕肚出行张杰全程紧搂护妻台甜蜜张杰谢娜在结婚六年之后终于迎来了一个新生命，也引发了大半个娱乐圈的祝福。近日谢娜低调出行，作为丈夫的张杰更是贴心更随，紧紧搂住妻子，生怕谢娜有什么闪失",
    "Source": "Netease",
    "PublishTime": "01/01/201808:59:08",
    "Comment": {
        "Link": "http://comment.ent.163.com/ent2_bbs/PHOTJNR3000300AJ.html",
        "Reply": 274,
        "Content": "祝福 是啊，人家二个也都没负面影响，也是大众还比较喜欢的娱乐人。 我身家比你这闰土多得多，我有戴口罩？ 谢娜上辈子拯救了谁，那么好的朋友那么的事业那么好的老公，自己却平淡无奇 终于要上了，祝平安喜乐！ 谢娜：今年没主持跨年，赶紧出来蹭蹭热度，大家别忘了我啊 这狗仔真他妈牛。偷拍高手呀 小娜母狗快要生小狗了🐶 张杰的打扮.... 他们两又没吸毒，又没出轨，没对社会没负面影响，张杰唱歌也好听，为什么老黑他们 网友的嘴真特么毒，谢娜和张杰在娱乐圈形象还是挺正面的，看看其它娱乐明星那点破事，哪特么像个人 脑子有病吧？ 吵了多久了还没生？不怕糊了？ 这他妈还上要闻？ 好几条哈巴狗，洗一次多少钱，爹给你们10倍 你嘴真臭！怀孩子9个多月才生，这是一个过程，别人炒什么？ 谢娜就会装 咋一看我以为李小璐又被pg万搂着上头条了 不孕不育的二貨 虽然我也不是他俩的粉，但是一楼，你留点口德吧。做母亲真的不容易，尤其是怀孕的过程。 他妈滴不戴口罩都没法出门啦。这样打扮狗仔也能认出闰土来？ 沒有謝娜的跨年晚會差很多，這個瘋子還是有本事 人家老公爱啊，可能你没被这样呵护过吧 在出现这俩，我退出网易。 这种垃圾大家不回复就是有态度了 麻痹16年就开始说怀了怀了，臭你马勒戈壁 你全家就是这样生出来的吧…… 都不知道为什么要骂他们，他们两个至少一个还有点作品，一个是在电视台主持上班，最少还是比较正面的，至于你不喜欢他们的风格，那就另当别论了，纵观内地所谓娱乐圈，都特么是些什么鬼。 果然是臭嘴，别人就是生哪吒关你毛事，16年还不是媒体乱扯啊，你哪只狗眼看到16年他们自己公布说怀了 那些人就是眼红呗，看不得别人过得好 闰土不会生出个猹来吧 哈哈哈闰土哥高兴不 你媳妇才怀就能生了吗？那个怪胎吧 谁没怀过孕…和老公一起，至于这样走路嘛！！！ 家庭和睦是幸福人生的根基，责任感是家庭幸福的根基，祝福 好不好人家才知道，局外人过好自己的生活。 人家秀恩爱碍着谁了呀？常人媳妇儿出门都要搂搂嘞！至于人家穿得丑也不关你事啊！瞎逼逼！ 一楼真的臭。怀胎十月容易吗，这明显是被别人拍的。 一楼确实恶毒，看不过眼 你妈生你的时候怀了3个月出生？估计你就是个发育不良的娃 闰土这以后该怎么称呼你呢？ 祝福你们早生贵子 你家怀孕今天怀明天就生啊？ 你妈得多么不容易啊 ....还要等过难产这一关.... 装B之王 你妈生你全家的时候就一天，不信问你爷爷还是你姥爷博得种 戏孑而已，国人就是贱，就关注这些人，自己不行就膜拜别人，哎，人家把钱从你口代挣走了，到头来你还委屈，别人骂他，你还护着他们，活该，贱国人 想想你自已吧，生活的主角是你，不是他们，他们再好，也不能代表你，要过好自己，才对得起你爸你妈 是啊，人家二个也都没负面影响，也是大众还比较喜欢的娱乐人。 他们还可以，不喜欢也不讨厌，至少不是绯闻满天，祝福祝福 终于要上了，祝平安喜乐！ 闰土不会生出个猹来吧 祝福 闰土这个打扮也太土了…… ....还要等过难产这一关.... 太装太作了，我们不是喜欢什么正能量，我们只是比较讨厌装作。 呵呵 五十六个民族，五十六枝花。预备唱！ 这帮戏子故意戴眼镜口罩、怕不认认不出来吧 娱乐圈嘛，你见到的不一定是真的 吵了多久了还没生？不怕糊了？ 祝福，有些人逼嘴里脏话连篇，管好你们的狗嘴 这样更不方便走路吧，人那么多 谁怀孕不是挺孕肚出行 老哥稳了，扶你上去 最讨厌那些明星把自己包的像个不透风的蛋一样，装B装的没完没了！戏子当道，是人性的扭曲？还是道德的沦丧？ 不管是什么类型的，至少给大家带来的都是正面的，开心的，祝福㊗️他们 呵呵 他妈滴不戴口罩都没法出门啦。这样打扮狗仔也能认出闰土来？ 大家只需要记住，所谓娱乐圈……那里面的每一个人无论正面或负面最终都是拿来被我们“娱乐”的，仅此而已…… 张杰对谢娜的专一我是能感受到的，老公当的挺不错的，宠爱妻子～ 谢娜：今年没主持跨年，赶紧出来蹭蹭热度，大家别忘了我啊 哇！这句话还有人踩啊[惊讶] 小编是不是傻？谢娜年近四十，结婚五年，好不容易才怀上，前面不知道用了多少办法，换谁家都会万分小心啊。又不是二十出头的小姑娘，人家这样很正常啊。 答得驴唇不对马嘴 家庭和睦是幸福人生的根基，责任感是家庭幸福的根基，祝福 ....伟大的母性个个如此.你姥姥便是其中之一.三楼你说是吗.... 支持他们 都不知道为什么要骂他们，他们两个至少一个还有点作品，一个是在电视台主持上班，最少还是比较正面的，至于你不喜欢他们的风格，那就另当别论了，纵观内地所谓娱乐圈，都特么是些什么鬼。 为啥叫人家闰土啊？ 恭喜恭喜 人家老公爱啊，可能你没被这样呵护过吧 耙耳朵~~ 试管婴儿双胞胎比较多 哈哈哈闰土哥高兴不 有意思闰土哥不要给人家站岗哦[大笑] 四川男人都挺好 谁没怀过孕…和老公一起，至于这样走路嘛！！！ 快分了 操满屏都是说她怀孕的事、悲哀 说到重点了 其实只要有钱做一个也未尝不可，一个个怀，一个个生真费劲。 你妈生你的时候怀了3个月出生？估计你就是个发育不良的娃 这狗仔真他妈牛。偷拍高手呀 你哪只逼眼看到孕肚了？ 都说是做的双胞胎，不知道真假 弱弱的问一下，谢娜的肚子是怎么大起的？有知道的吗？ 闰土这以后该怎么称呼你呢？ .....那是刨腹产.真没教养的三楼你懂吗....孩子.你还小.... 试管又怎么了，还不也是在母亲子宫里孕育出来的。 你妈得多么不容易啊 谢娜是谁？ 你妈生你全家的时候就一天，不信问你爷爷还是你姥爷博得种 模範夫妻 贱人就是矫情，才几个月就孕肚，闰土的肚子都比这蟹乸的大 有多少还自然生产，基本都是人工的吧？ 打网球的吗？今晚看到小路了，啊啊，我老公呢，啊啊。。。 是啊，人家二个也都没负面影响，也是大众还比较喜欢的娱乐人。 不给红包 生个赚钱机器 演戏 蒙面大侠 1200mm长焦距，ISO值6400 他们两又没吸毒，又没出轨，没对社会没负面影响，张杰唱歌也好听，为什么老黑他们 闰土插了猹，猹能生个啥。 都去美國生產，準備當好美國人的爸媽! 谢疯子 发货 那你不拿个态度出来 什么玩意 呵呵呵呵呵 吃哦 搂的也忒紧了哈哈 直赴评论 祝福！比那些乱渣渣强多了 人工自能 真专业 虽然这小两口女是县级，男是镇级也很配！祝福他们 闰土夫妇 怀的是个大熊猫吗？几个月了一天都是这些报道，这是不是说明之前的确不孕不育，现在难得试管上，就各种报道？ 恶心的铲子脸！ 谢娜：今年没主持跨年，赶紧出来蹭蹭热度，大家别忘了我啊 真好！ 在出现这俩，我退出网易。 娱乐圈你懂的，国内不好做。怕泄露风声，对不起粉丝。没办法得花大价钱去国外做。一个个作的很，因为有很多无脑的粉丝追捧。没办法。 这种垃圾大家不回复就是有态度了 炒作 都不知道为什么要骂他们，他们两个至少一个还有点作品，一个是在电视台主持上班，最少还是比较正面的，至于你不喜欢他们的风格，那就另当别论了，纵观内地所谓娱乐圈，都特么是些什么鬼。 像做贼一样，搞得好像有很多人围追堵截一样 如果哪天杰哥也被拍到与别人一起讨论剧本会怎么样[窃笑][窃笑][窃笑] 我靠，说的好像你退出网易了纳斯达克都会崩盘似的，省省吧，吓死人了。这俩货也就爱装装逼，比娱乐圈很多人强多了。 那些在新闻评论区骂人的是想刷存在感还是想让我们知道没素质的人哪里都会有…… 我不是任何明星的粉丝，但是我觉得这些人心眼太坏了，一直骂人家侮辱人家，是羡慕嫉妒恨吧 为什么要遮掩肚子，很费解 那些人就是眼红呗，看不得别人过得好 人家秀恩爱碍着谁了呀？常人媳妇儿出门都要搂搂嘞！至于人家穿得丑也不关你事啊！瞎逼逼！ 故意出现的，媒体曝光都是计划好的？有些看似被动很可能是主动的炒作 突然发现以前说去美国游学应该是假，估计是去做试管了……终于受孕成功了，还假装在外国学校晒照片，假死了，戏子真是虚伪呀！还有那个董卿也是假的死，也是去国外生娃了说成游学。鄙视 梦寒 得亏没跟刘烨 是的 你就在外边吃，敲击进去。 幸福呀！ 好紧张的样子 小🐂耕烂田！越耕越🈶️劲 你不怕造口业吗？人要有一颗善良的心 闰土 娱乐圈真是一代不如一代 你嘴真臭！怀孩子9个多月才生，这是一个过程，别人炒什么？ 要知道被喷的人一般都有被人羡慕嫉妒的地方！ 这个姿势搂的，很难受好吗，作秀嫌疑 闰土不会生出个猹来吧 闰土 张杰的打扮.... 至于吗跟个粽子似的 这一楼没救了，内心全是阴暗面 祝福！ 脑子有病吧？ 挺好的，很真实！不要黑了，祝福 张杰，娜姐都没口罩，其实你更不应该戴口罩！ 吵了多久了还没生？不怕糊了？ 水生，是你吗？ 刚刚吃了四个羊肉串，这下都吐出来了 戴手套钢叉拿得稳 榜样夫妻 和你有关系吗 家庭和睦是幸福人生的根基，责任感是家庭幸福的根基，祝福 一楼确实傻逼…… 怀孕有大半年了还这么小？ 钢叉准备好 不孕不育的二貨 家庭和睦是幸福人生的根基，责任感是家庭幸福的根基，祝福 1200mm长焦，ISO6400 这个闪落了不得了，地球都要拿来报废。 最看不惯的是闰土每次唱歌都要戴个手套。还觉得很酷！😂 谢娜：今年没主持跨年，赶紧出来蹭蹭热度，大家别忘了我啊 网上说他怀孕大半年了，肚子不见大啊 谢娜估计怀的是哪吒吧 看来很甜蜜 没有绯闻人正派这正是一股清流 都不知道为什么要骂他们，他们两个至少一个还有点作品，一个是在电视台主持上班，最少还是比较正面的，至于你不喜欢他们的风格，那就另当别论了，纵观内地所谓娱乐圈，都特么是些什么鬼。 麻痹16年就开始说怀了怀了，臭你马勒戈壁 不关注， 香港哪来的雾霾？ 这种效果非常好的防雾霾口罩就是黑色的啊. 那个黑口罩像个裤衩。为什么口罩要用黑色呢？一个月不洗也看不出脏的懒人用的？白色口罩一脏就能看出来要天天换。 [鄙视][鄙视][鄙视] 肚呢 亮B 张杰比那个谁强多了…… 摔一脚，流了， 别爆，过两天不知道会不会放料 看到你就恶心，婊子 这样骂人什么教养 张杰就是个傻逼靠女上位 是人家两口子说的还是媒体意淫出来的？！搞搞清楚再骂，没素质！ 炒作女王 怀的哪吒？ 什么时候预产期 [微笑]是生哪吒吗？要怀孕好几年 祝福谢娜 嘴真毒 谢娜就会装 这那像夫妻，像偷情 出轨大队就差你们了 这一楼没救了，内心全是阴暗面 不是说生了吗？前几天看新闻 网友的嘴真特么毒，谢娜和张杰在娱乐圈形象还是挺正面的，看看其它娱乐明星那点破事，哪特么像个人 又不是多大明星戴个口罩，装逼 加油 我不是不让给我推送闰土的文章吗？？过个元旦还要我重新屏蔽？ 吵了多久了还没生？不怕糊了？ 天呢，这夫妻得罪谁了？做了什么事怎么那么多人深恶痛绝，没必要吧 遮着肚子干啥总有人挡住关键部位 为什么要这么阴毒呀 娱乐圈两大寡妇脸：杨幂谢娜。。。。 1楼就是现实社会过得不幸福，在网上撒欢的那种 祝福 你嘴真臭！怀孩子9个多月才生，这是一个过程，别人炒什么？ 张杰哈哈……真是穿啥都土，这个西装这个大宽肩 祝福他们生个小闰土 挺好的 谢娜：今年没主持跨年，赶紧出来蹭蹭热度，大家别忘了我啊 实话。虽然不喜欢 祝幸福 你全家就是这样生出来的吧…… 都不知道为什么要骂他们，他们两个至少一个还有点作品，一个是在电视台主持上班，最少还是比较正面的，至于你不喜欢他们的风格，那就另当别论了，纵观内地所谓娱乐圈，都特么是些什么鬼。 怎么不上CCTV啊， 小人之心[鄙视] 祝福两口子，喜欢你们 评论好恶毒啊我擦…我觉得好甜是怎么肥四[微笑] 你媳妇才怀就能生了吗？那个怪胎吧 张杰的歌真是越唱越好、非常喜欢！ 闰土不会生出个猹来吧 娱乐圈赵丽颖杨幂迪丽热巴李小璐杨颖都脏的要死 恭喜恭喜 神神秘秘 长得还不如春哥 这位仁兄的价值观正确 我也觉得他是挺土的[窃笑][窃笑][窃笑]不过歌真的是好好听呀[大笑][大笑][大笑][大笑][大笑][大笑] 祝福你们早生贵子 终于有了！ 比你过得好的，全都在装 看过一个视频，张杰赶车，然后碰撞了旁边的的一个大姐，张杰横的不行，装逼的一批。有些明星，确实人前人后不一样。 终于可以拿到美国国籍了 前几年也说过啊 祝福一下吧，毕竟怀宝宝的女人很艰辛也很幸福！ 祝福，生个好宝宝！ 嘴好毒呀 這標題是弱單身豿嗎？ 我身家比你这闰土多得多，我有戴口罩？ 谢娜上辈子拯救了谁，那么好的朋友那么的事业那么好的老公，自己却平淡无奇 不作不死 恶心二人组 会生出一匹楂来么？ 生完就该出轨了 祝福你们 不认识 不知道会不会出轨 恩爱 要是去🇺🇸生就别出来炒了……无聊 吵了多久了还没生？不怕糊了？ 傻逼 独坐书房手做妻，此事羞与外人提。前面电脑东瀛女，桌上卷纸铺整齐。一上一下渐入戏，忽快忽慢眼迷离。点点滴滴落在地，子子孙孙化做泥,事后惊觉无意义，决定不再手做妻，又是一天深夜里，再把卷纸铺整齐，昨夜感慨全忘记，宅男废纸伤身体，还未娶妻肾先虚，你说可惜不可惜! 嘴真恶毒 怀孕，人家幸福就好 祝福 非正常人类是什么东西？ 你嘴真臭！怀孩子9个多月才生，这是一个过程，别人炒什么？ 不管说什么母亲是最伟大的！加油！ 咋一看我以为李小璐又被pg万搂着上头条了 不孕不育的二貨 好几条哈巴狗，洗一次多少钱，爹给你们10倍 谢娜：今年没主持跨年，赶紧出来蹭蹭热度，大家别忘了我啊 你家怀孕今天怀明天就生啊？ 说好就蹭蹭热度，怎么又进来了？ 傻逼太多了 猹... 都不知道为什么要骂他们，他们两个至少一个还有点作品，一个是在电视台主持上班，最少还是比较正面的，至于你不喜欢他们的风格，那就另当别论了，纵观内地所谓娱乐圈，都特么是些什么鬼。 闰土夫妇 可以坐飞机吗 嫁给了爱情 “低调出行”，高调出行还的放几个响屁啊！ 好不好人家才知道，局外人过好自己的生活。 恭喜恭喜，什么时候生 祝福 恭喜 对呀，张杰是有实力的，唱功是公认的好，各种类型的歌都唱的不错，谢娜也是很努力很上进的女人，他们在娱乐圈人际关系也不错，他们的爱情也是很正能量的，不知道喷点在哪 找存在感，看着挺烦 孩子出生不久也要出轨估计 嘴真臭，你积点德吧 喷规喷，人家对婆娘好，这是事实 图片里张杰真是一土货。。。。一股浓浓的乡土味。。。。 啊土还是不错的 装B之王 有没有觉得是假怀孕？ ",
        "Total": 5194
    }
}