{
    "URL": "http://news.163.com/17/1228/12/D6O956QN00018AOQ.html",
    "Article": "（原标题：欧盟对中国电动自行车发起反补贴调查中方回应）中新网12月28日电针对“欧盟对中国的电动自行车发起反补贴调查”一事，商务部新闻发言人高峰28日上午表示，我们对欧盟的立案标准与世贸组织《补贴与反补贴协定》的一致性表示质疑，敦促欧方能够严格遵守世贸组织的有关规则，客观公正地开展调查，避免对相关产业提供过度的保护。资料图：商务部新闻发言人高峰。中新社记者李慧思摄商务部28日上午召开例行新闻发布会。有记者问到，21号欧盟针对中国出口的电动自行车发起了一项调查，认为出口商存在过度的政府补贴，请问商务部对此有何评论？高峰回应称，我们遗憾地注意到，欧委会不顾中方的反对，于21号发布公告，对原产于中国的电动自行车发起反补贴调查。这是欧委会继今年10月份对中国电动自行车发起反倾销调查之后，在两个月之内再次对中国的同一产品发起贸易救济调查。中方对此高度关注。高峰表示，事实上，在此次反补贴立案之前，我们已就欧盟业界关于所谓“补贴”的无端指责，向欧委会提出严正的交涉，明确指出欧盟相关产业申请书存在的严重缺陷。中国的电动自行车行业是完全市场化的、充分竞争的行业，欧盟业界所谓的“政府补贴”是对中国相关政策的误读和对世贸组织规则的曲解，缺乏事实依据，是站不住脚的。高峰指出，我们对欧盟的立案标准与世贸组织《补贴与反补贴协定》的一致性表示质疑，敦促欧方能够严格遵守世贸组织的有关规则，客观公正地开展调查，避免对相关产业提供过度的保护。同时，我们也希望欧方能够本着建设性的态度，鼓励欧盟的业界与中国的电动自行车行业加强合作，化竞争为共赢，实现双方产业的共同发展。中方将密切跟踪案件的进展，视案件进展情况，采取必要措施，坚决捍卫中方正当合法的权益。本文来源：中国新闻网责任编辑：黄哲程_B9302",
    "Source": "Netease",
    "PublishTime": "12/28/201712:01:00",
    "KeyWords": "自行车,反补贴调查,欧盟,中国",
    "Comment": {
        "Content": "老外很少骑电动自行车，也几乎没有专的制造厂商，这个反补贴倾销背后有故事 发言人回应:我们己经做的很低调很隐蔽，怎么又被发现，我会责成相关部门自查自纠，进一步疏理完善各个流程各个环节，力求今后的补贴倾销行为无懈可击，从容应对各国调查 进口的多收+17%，出口的补贴-17%，哪个国家竞争的过 不知道老外的电动车卖多少钱啊 我们的电动自行车本来就物美价廉，不需要补贴 手势非常标准 好！ 连电动车都怕，真可怜 歪果仁也骑电动自行车？ 老外很少骑电动自行车，也几乎没有专的制造厂商，这个反补贴倾销背后有故事 不是说外援球员都喜欢电驴吗？一度电5毛钱，2度电充满跑50-60公里市区道路，堪称无敌 好！ 发言人回应:我们己经做的很低调很隐蔽，怎么又被发现，我会责成相关部门自查自纠，进一步疏理完善各个流程各个环节，力求今后的补贴倾销行为无懈可击，从容应对各国调查 进口的多收+17%，出口的补贴-17%，哪个国家竞争的过 不知道老外的电动车卖多少钱啊 我们的电动自行车本来就物美价廉，不需要补贴 手势非常标准 如果卖到国外比国内价格低就接受调查和重罚 歪果仁也骑电动自行车？ 连电动车都怕，真可怜 ",
        "Total": 267,
        "Link": "http://comment.news.163.com/news2_bbs/D6O956QN00018AOQ.html",
        "Reply": 11
    },
    "Title": "欧盟对中国电动自行车发起反补贴调查 中方回应_网易新闻"
}