{
    "Article": "（原标题：难敌腾讯！41类「微信」商标被撤！）自从微信出现以来，活跃用户已近10亿人。但是微信也有一个缺点，如果你去商标局搜索“微信”相关的商标，你就会发现“微信”商标很多类别早就被人注册。微信商标拥有图自从微信推出以来，关于“微信”商标的案子也发生了好几起，结局往往是腾讯胜诉。近日，又传来消息称，41类“微信”商标被腾讯啃下来了。北京知识产权法院审结在第41类“提供在线电子出版物（非下载的）、广播和电视节目制作、（在计算机网络上）提供在线游戏”等服务上注册的“微信”文字商标撤销行政纠纷案，认为现有证据不足以证明诉争商标是在复审服务上的使用，依法撤销商标评审委员会作出的维持涉案商标注册的决定。诉争商标由蛙扑（北京）信息技术有限公司于2011年申请注册，核定使用在第41类的“图书出版、在线电子书籍和杂志的出版、提供在线电子出版物（非下载的）、广播和电视节目制作、电视文娱节目、娱乐信息、数字成像服务、（在计算机网络上）提供在线游戏、文娱活动、节目制作”服务上，目前权利人为北京游联网络科技有限公司（简称游联公司）。核定使用在第41类服务上，在法定期限内，腾讯公司提出商标撤销申请，对方则提交了其制作的几款可下载的微信游戏作为使用证据。因此商标局和商标评审委员会相继作出决定，认为现有证据可以证明诉争商标在复审服务上、在指定期间的使用。41类微信商标图但是腾讯向北京知识产权法院发起诉讼，而这次诉讼中，腾讯发现了对反的漏洞。法院经过审理认为，下载安装“北京停车场（微信游戏）”、“大圣归来（微信游戏）”等游戏后，关闭互联网连接，可以继续游戏至“恭喜您成功过关”。而前述三份公证书均未记载相应手机、电脑被要求检查网络连接等情况。也就是说，如果这两款游戏不用联网也可以玩，那么就不能证明上述游戏是否是在线游戏，不能证明“（在计算机网络上）提供在线游戏”服务的真实性。不仅如此，这枚41类商标里其他几项服务也遇到了同样的尴尬状况。据此，法院对这枚商标不予支持，让商评委重新就第9452607号“微信”商标作出撤销复审决定。目前，商标评审委员会和游联公司已经针对本判决提出上诉。本文来源：融诺知识产权责任编辑：白鑫_NT4464",
    "PublishTime": "12/30/201708:28:09",
    "URL": "http://tech.163.com/17/1230/08/D6T1FKBV00097U7R.html",
    "Comment": {
        "Content": "我觉得是腾讯，实战经验特别足 有钱就是好，有一堆黑白律师，帮腾讯抢商标 我有钱可以借鉴模仿，你没钱所以不行[微笑] 一直在模仿，从未被抄袭 腾讯:和我比抄袭，你们太嫩了。 有钱就是任性，虽然大家都知道腾讯啥德行。腾讯：你能拿老子怎么样？就是有钱！[窃笑][窃笑][窃笑][窃笑][窃笑] 别的不说，至少在深圳跟tx打官司基本上是不可能赢的，深圳的法院快成tx开的了 我抄你可以，你抄我，我就弄死你 大胆的从技术上推断一下，在螣讯里操作记录、对话、短信等都可以被软件设计者调取，没有绝对的秘密，不过安装与否还是有点区别地。现在设计的电池也拿不下来了，设备都是现成的，家里的手机很有可能成为窃听器、监控器、追踪器。 说真的，我还真不信有人整天偷窥我这样得小老百姓，全国这么多人他都偷窥不得累死？ 但是这个时代你不用还不行 有钱还不行，得有权，有权也不够，得官大，第一个参考王，第二个参考薄 普华Y道、R华、笠信等会计师事务所及出版社，中国绘计视野、螣讯、百毒等网站，在土地问题方面就是封锁视听、欺骗人民。这些组织的理念是不保护土地所有权价值的，为了私利出卖国家人民利益的。大家不要受骗上当，别信它们。 本来就是啊，国家希望这类通信软件做大做强，因为这样利与监管，就和腾讯的另一款QQ一样，通过关键词警务部门可以直接搜索查询聊天信息 中国没钱不行[微笑]滚你妈的提前注册 最厉害的是2011年推出的微信把2001年注册的weixin点com告赢了 呵呵，看似是好事，实际上腾讯已经形成了垄断，这样腾讯得利，这个国家倒霉。 🐧：跟我学抄袭！你们还嫩了点，小样 是的 这都能抢，大清的法律真是笑话 在南山法院有腾讯打不赢的官司？ 一直在抄袭，从未被模仿 我们用了10年的12类商标lsdera也给撤销了，中国商标局真的是无语了。谁能帮我找回公道，帮忙曝光下 和邓花疼比背景那是找死，想当年它老母深圳一枝花，接待了多少大LD 我记得有个人的商标好像比企鹅的早早，后来都输了 当初IPAD商标如果企鹅要用，估计一毛都不用花吧 亲身体会：前两天在qq群里问有没有用过平安好车主APP的，结果第二天平安就打电话过来问，说看到我再问这款软件，有没有下载，有没有绑定汽车等等… 一直在抄袭的路上。。。。。。。 货币制度可以看作房地产的金块本位制。一张100元的“假”币的成本有多少钱呢？6元、3元？人为操纵的秘籍:1元电子货币等于1元人民币吗?!若1元电子货币等于1千元人民币，那么一百七十元电子货币的银行账户里就应该拥有十七万元人民币。债还不了，决策者先还。银行账都不让查，假账水平较低 楼主劝你一句，这种事习惯就好了。你以为自己真的活在新闻联播里吗？ 出了奇瑞QQ，其他都赢了 腾讯是骗子加无赖流氓。 奇葩国家法律都是为有钱人服务的~~ 流氓当道 婊子从良，热心扫黄 你太年轻了，百分百监控你的，都是大数据了。 不知道华为PK腾讯哪个能赢。。。。。。大佬能来说说呗。 腾讯：我就喜欢你们看我不爽又打不过我的样子 王者荣耀坐拥一大波中小学生用户，11岁至20岁的玩家比例高达54%。....10多年后不敢想象后果有多严重 顶你上去 先注册的有所有权岂不是一句屁话？ 二楼的贴切一点 最骚的是国家法律不认为它是垄断的 事实是…… 我觉得是腾讯，实战经验特别足 腾讯太没道德了 说真的，我还真不信有人整天偷窥我这样得小老百姓，全国这么多人他都偷窥不得累死？ 穷就是任性，虽然大家都知道楼上啥德行。楼上：你能拿老子怎么样？我啥本事没有用着你的产品说你垃圾我就是这么贱 大胆的从技术上推断一下，在螣讯里操作记录、对话、短信等都可以被软件设计者调取，没有绝对的秘密，不过安装与否还是有点区别地。现在设计的电池也拿不下来了，设备都是现成的，家里的手机很有可能成为窃听器、监控器、追踪器。 哦。 商标抢注 保护知识产权 要钱还得有权 一直在模仿，从未被抄袭 呵呵，看似是好事，实际上腾讯已经形成了垄断，这样腾讯得利，这个国家倒霉。 别的不说，至少在深圳跟tx打官司基本上是不可能赢的，深圳的法院快成tx开的了 在南山法院有腾讯打不赢的官司？ 3楼蠢了吧，现在随时在监控，比如百度，随时记录你收索的信息，然后给你推送相关的广告。腾讯一样。记录你QQ聊天的相关信息。然后“卖出”或者“推送”你可能想了解的信息。 不知道该说什么 哇咔咔，被你喷的面红耳赤，好怕。我改。[大哭][大哭][大哭][大哭] 和邓花疼比背景那是找死，想当年它老母深圳一枝花，接待了多少大LD 腾讯把国策做的做的完全、彻底、精致。 电脑淘宝搜索了某个东西，网易都给推荐了 难怪那流氓看起来挺帅的，哈哈。。。。 出了奇瑞QQ，其他都赢了 不知道华为PK腾讯哪个能赢。。。。。。大佬能来说说呗。 和腾讯比抄袭？？你们还是嫩了点～[鄙视][鄙视] 电子出版物 银角大王将宝葫芦倒置，喊了一声：“周鸿祎。”周鸿祎应了一声，嗖地便被吸了进去。银角大王查看时，里面除了周鸿祎，还有360杀毒、360压缩、360浏览器、360安全卫士、360游戏大厅等熙熙攘攘一干人。银角大王惊讶道：“怎的来了这许多。”宝葫芦开口言道：“我就只点了个‘下一步’。”这时马化腾在旁边呵呵的笑，银角大王怒了，刚要将宝葫芦倒置，马化腾嗖的一声已经飞进了宝葫芦，银角大王查看时，除了马化腾，还有疼询扣扣，疼询伪信，扣扣浏览器，坑害青少年的游戏等等黑压压上万人，银角大王大惊怎的比周鸿祎还多！宝葫芦摇摇头我什么都没点😓😓😓 腾讯:和我比抄袭，你们太嫩了。 有钱就是任性，虽然大家都知道腾讯啥德行。腾讯：你能拿老子怎么样？就是有钱！[窃笑][窃笑][窃笑][窃笑][窃笑] 不用推断.一定会被调取监控 19岁大学毕业时找工作，面试时对面坐着的漂亮女白领，是人力资源部经理，她问我：你能干多长时间？我有些诧异，但还是老老实实回答：一般半个小时，状态好的时候四十分钟。她低声说：我是说你在这儿能干多久？我环顾四周，有些羞涩的说：这我可能放不开，我从没当着这么多人，真的不太习惯。三天后我被录取了，知道她原来是老板娘。她送给我一本《虫虫战队如何赶走蟑螂》，让我学习生物科学。三个月后她挺着肚子辞职离开公司，临行前嘱咐我一定认真学习，不学，赶不上马化腾，娶不起林志玲。富不过刘强东，跑不过贾跃亭。二十年后孩子会来认你的。 流氓的流氓 淘宝，京东浏览过的东西网易还不是有推给你们 买断 六点多了 腾讯啥时候能灭亡 是的，有钱就可以为所欲为[微笑] 腾讯：我就喜欢你们看我不爽又打不过我的样子 姜还是老的辣，抄袭教父腾讯 网络需要规范 小公司在深圳和腾讯打官司？原告也要打成被告 一直在抄袭，从未被模仿 先注册的有所有权岂不是一句屁话？ 其实这个从智能机问世时就有类似的想法，不奇怪，完全有可能，只是有些人并不知道而已！ 我记得有个人的商标好像比企鹅的早早，后来都输了 法制社会 腾讯有钱是其次，主要是跟风跟的好，队列站的稳 这么多年抄袭之路都没事，肯定后台够硬 有过新闻，微信没出来的前几年，某公司注册了个weixin的网址，被腾讯告了。 微信的网址啊，比微信早出来十年 腾讯后台硬啊 最厉害的是2011年推出的微信把2001年注册的weixin点com告赢了 别说深圳，整个天朝都怕TX这个用户量 微信出现之前先注册没事，出现之后再注册一般有问题 对不起，有钱就是可以为所欲为 在本地起诉企鹅基本没有输过[微笑] 二楼的贴切一点 最骚的是国家法律不认为它是垄断的 腾讯现在可以控制一切么 家大业大什么都不怕 一直在模仿，一直在抄袭 我有钱可以借鉴模仿，你没钱所以不行[微笑] 说真的，我还真不信有人整天偷窥我这样得小老百姓，全国这么多人他都偷窥不得累死？ 一直在模仿，从未被抄袭 大胆的从技术上推断一下，在螣讯里操作记录、对话、短信等都可以被软件设计者调取，没有绝对的秘密，不过安装与否还是有点区别地。现在设计的电池也拿不下来了，设备都是现成的，家里的手机很有可能成为窃听器、监控器、追踪器。 我大网易荒野行动完爆腾讯，天道有轮回，苍天饶过谁 🐧：跟我学抄袭！你们还嫩了点，小样 法治社会[微笑] 荒野不是抄袭？ 是的 很多软件都调取信息的，比如你的mac地址，这个是非常重要的，因为wlan一直在后台搜索可用的无线网络，所以当你进入一个网络覆盖范围的时候，就会自动连接这个无线网。打个比方，你在使用了某个商场的免费wifi，那么你的mac地址就被商场获取了，你付款的时候扫码，有可能会弹出一条消息，是否注册为会员，当你点是的时候，你在腾讯支付宝上的信息就都被商场获取了，姓名年龄性别家庭住房是否有车，在哪工作。商场会根据你的信息对你进行推销，如果商场用第三方的推广系统，那么你的信息就会同步给第三方，这样不管你走到哪，只要你走进曾经连接的wifi覆盖范围，他们就知道你来了，就会向你推送你可能感兴趣的消息 奇葩国家法律都是为有钱人服务的~~ 666666666 关键还是要易信给力! 这项技术完全有可能实现，因为我们平常呼吸的空气其实质也可以看作是一个含氧量较高的气体海洋，与真正的海洋不同的只是密度及成份不同罢了。 我们用了10年的12类商标lsdera也给撤销了，中国商标局真的是无语了。谁能帮我找回公道，帮忙曝光下 腾讯是骗子加无赖流氓。 ಠ_ಠ 你太年轻了，百分百监控你的，都是大数据了。 又没人强迫你用，但凡事拿证据 已阅 你要知道是在深圳判的 于2000年11月21日注册的weixin。com网站都被腾讯打官司夺去了，有比腾讯更牛的？ 楼上都对 直接提起申诉不行吗，毕竟12面前微信在哪里都不知道 呵呵 有钱就是任性，虽然大家都知道腾讯啥德行。腾讯：你能拿老子怎么样？就是有钱！[窃笑][窃笑][窃笑][窃笑][窃笑] 小朋友玩游戏中毒不亚于吸毒，腾讯难逃其责！ 错，是你们抄都不会抄，还留下漏洞 我抄你可以，你抄我，我就弄死你 蚍蜉撼大树，黄柯一梦 [窃笑][窃笑][窃笑][窃笑][窃笑] 所以要非法所得要上交国家。小孩花的钱白花[喷水] 微信说：只要看上，统统都是我的！ 问题是打官司你还输 本来就是啊，国家希望这类通信软件做大做强，因为这样利与监管，就和腾讯的另一款QQ一样，通过关键词警务部门可以直接搜索查询聊天信息 王者荣耀坐拥一大波中小学生用户，11岁至20岁的玩家比例高达54%。....10多年后不敢想象后果有多严重 微信说：只要看上，统统都是我的！ 一直在模仿， 玩不过 难道没有先后顺序吗？ 一直在抄袭，从未被模仿 有枪玩不过有坦克 你说了一大堆，我没怎么听懂。其实说白就是成年人感觉QQ比较幼稚，未成年人感觉 没错，听说某些人准备两台手机什么的。 必要的时候，把手机放进密封的金属罐里，保证没信号了。 我记得有个人的商标好像比企鹅的早早，后来都输了 骗取小孩的巨额钱财，未经监护人同意都属于非法所得 如果回帖不是为了装逼，那将毫无意义 楼主劝你一句，这种事习惯就好了。你以为自己真的活在新闻联播里吗？ ⊙∀⊙！ 有钱玩不过有枪[微笑] 抄王 顶你上去 fubomo 但是这个时代你不用还不行 腾讯不要脸是出了名的 支持不在话下 Tx能帮zf监控国民，zf会帮tx摆平很多问题的。 背景靠山… [狗] 在法不如狗屎的支na，有钱你放个屁也比法有用 马老板财大气粗，在国内没有他办不成的事，那怕他就是一垃圾！ 一直在模仿，从未被抄袭 大胆的从技术上推断一下，在螣讯里操作记录、对话、短信等都可以被软件设计者调取，没有绝对的秘密，不过安装与否还是有点区别地。现在设计的电池也拿不下来了，设备都是现成的，家里的手机很有可能成为窃听器、监控器、追踪器。 微商,推广,流量,等等等,太多了 吃饭 其实想我们这种没网易的更不行，腾讯无所谓 微信不是腾讯旗下的吗？ iOS你怎么做到后台监听？不越狱根本就不可能。 可以 一直在模仿，从未被起诉！就算被起诉了原告也赢不了。 很难想象，国外的聊天工具能这样大范围的应用！上到达官贵人，下到黎民百姓！ 当初IPAD商标如果企鹅要用，估计一毛都不用花吧 屁个钱啊。<br>是洪私企，比锅企还高级的存在！ 厉害 流氓当道 有钱真的可以为所欲为 有钱就是爷 听过一次张小龙的 商标法和商标执法真乱。 反正你们不得不用我，还跟我嘚瑟什么，有本事卸载别用啊 我有钱可以借鉴模仿，你没钱所以不行[微笑] 有钱就是任性，虽然大家都知道腾讯啥德行。腾讯：你能拿老子怎么样？就是有钱！[窃笑][窃笑][窃笑][窃笑][窃笑] 出国就是傻逼！ 走自己的路，让别人无路可走 中国没钱不行[微笑]滚你妈的提前注册 这都能抢，大清的法律真是笑话 我去 犯贱刁民真多 微信，还是有局限性的 大整顿，老马要小心 腾讯游戏抄袭了这么多网游还有碧莲说别人 对没钱的叫抄袭 有钱就是好，有一堆黑白律师，帮腾讯抢商标 货币制度可以看作房地产的金块本位制。一张100元的“假”币的成本有多少钱呢？6元、3元？人为操纵的秘籍:1元电子货币等于1元人民币吗?!若1元电子货币等于1千元人民币，那么一百七十元电子货币的银行账户里就应该拥有十七万元人民币。债还不了，决策者先还。银行账都不让查，假账水平较低 婊子从良，热心扫黄 注册商标要多少钱？ windows各种诟病，mac各种牛逼，那又怎么样？windows长期独步世界，mac连windows的零头都不及 有钱还不行，得有权，有权也不够，得官大，第一个参考王，第二个参考薄 星球差距的真实性？<br>在近玩帝国时代2,发现运气好,资源多,没有发生战乱很容易升级到帝国时代,运气差的手背的,有的只升级到城堡时代,有的连封建时代没升到就亡国了<br>回望现实世界<br>300年前欧洲文艺复兴进入工业社会,唯物主义诞生,探索宇宙开始启蒙。而中国还停留在农业社会,处于迷信时代,说明文明.科技差距是存在的<br>在把望远镜朝向太空<br>天上有2000亿个星系.银河系活了80亿年，太阳和地球才出生是事实<br>依据上面几点,由此推测<br>由于运气,资源多或少,战乱,发展快慢等原因,星系文明等级差1亿年是很正常的(而人类整个历史只有1万年),也就是说地球刚打开潘多拉魔盒或脑洞大开时,别星系的人早已发展成究极状态<br><br>科普：<br>宇宙有多大<br>直径900亿光年，以光速前行，需900亿年才能到头<br><br>物质有多小<br>假设把一颗1立方毫米铁粒的三维图像放大到太阳那么大,肉眼看到的原子核也只有1立方毫米大<br>如果有足够压力,整个地球的物质多能塞进一个原子里<br><br>物质的神奇<br>以身体为例.细胞构成身体不同的系统,如动力系统,感官系统<br>而电脑,传感器,人工智能,则是依靠电流来实现<br><br>物质属性神奇应用<br>震动(声音)<br>电磁（发电机→电流→电灯→电报→电脑→数控→人工智能→智能社会）<br>粒子相互作用力(分子聚分→TNT炸弹，核子聚分→核弹，电子移动→电流)<br>相互作用力构建了宇宙万物，否则众分子聚不成一个细胞，也聚不成一个星球<br><br>科技带来了什么<br>800年前,蒙古凭着马与弓箭的发明征服整个欧亚大陆,10万军队屠了90%中国人<br>300年前,欧洲凭着船与枪的发明,称霸了地球，原住民几乎见不到<br>现在宇宙处于生命大爆发时代<br>今天，机枪,核弹,生化武器毁地球分秒的事<br>今天工业革命,自动化革命,生产力是以前的10000倍不是梦想<br>人工智能杀人制造灵敏样样优，而人类就是个渣<br><br>历史明智<br>太阳系很大，宇宙很大，利益体很多。斗不是出路，利益合理分配，共存共赢，共甘共苦。各兄弟，各家庭，各部落，各种族，各国家，各星球，各星球群，各星系，各星系群，各集团，各阶级,才会和谐昌盛，才不会被宇宙淘汰，在400万亿亿星球中才有一席之地<br><br>内斗耗光资源，耗光时间，而在宇宙很遥远且完全陌生的星系，正在联盟成更大更强的组织<br><br>提升全人类意识，需你我共同努力(因婴孩‘白纸’时时在出生) 哼哼。 普华Y道、R华、笠信等会计师事务所及出版社，中国绘计视野、螣讯、百毒等网站，在土地问题方面就是封锁视听、欺骗人民。这些组织的理念是不保护土地所有权价值的，为了私利出卖国家人民利益的。大家不要受骗上当，别信它们。 呵呵 被撤 不侵权不霸权 一直在抄袭的路上。。。。。。。 我可以抄袭你，你不能模仿我。 老马是吃这亏长大的，还会重复犯错么？ 这样误导人的标题是不是应该举报一下啊 IMessage哭死在厕所 金币 不是一家，没懂 打官司没数过 牛[微笑] 。。。。 ",
        "Link": "http://comment.tech.163.com/tech_bbs/D6T1FKBV00097U7R.html",
        "Total": 3519,
        "Reply": 168
    },
    "Source": "Netease",
    "Title": "难敌腾讯！41类“微信”商标被撤！_网易科技",
    "KeyWords": "微信,腾讯,游戏,诉争"
}