{
    "Source": "Netease",
    "PublishTime": "12/26/201711:14:42",
    "KeyWords": "李冰冰,好莱坞,谜巢",
    "Title": "李冰冰：好莱坞影响我？应该说我给它带来啥影响_网易娱乐",
    "Comment": {
        "Link": "http://comment.ent.163.com/ent2_bbs/D6J13E95000380D0.html",
        "Total": 666,
        "Content": "厉害啊。。 和国妓脏有一拼 你这么狂，你妈妈知道吗？ 已经很大影响了! 我去，能影响好莱坞的起码都五六十岁了，往下的少了谁都没啥影响，好莱坞还是那个好莱坞，小李子德普阿汤哥这些少了谁好莱坞都不会失色。 目前来说只有李小龙对世界电影有重大影响，包括成龙李连杰他们都没有造成什么大的影响，影响力不代表影响。 给你能的啊。。。 大言不惭 嚯嚯嚯 作者故意这么说的，一般人都不会这么大言不惭，这是黑帖 配，还不如国妓章影响大 除李小龙外，还没有那个中国人说能给好莱坞带来什么影响，周润发和成龙也没办法。 李冰冰都演过啥戏？得过啥奖？唉。。。。。。。 李冰冰不错的，漂亮， 没什么影响. 连华艺都不配，更何况她就旗下一演员 。。 不吹牛逼的时候还可以 这🐮逼吹的有点过了 就你？我呸！ 李冰冰不错的，漂亮，演技好，支持她！ 呵呵，在国内你还算说的过去，但说到你给好莱坞带来影响？什么影响，人家也是利用下，看看票房是否高些，但对于国内观众来说，没你更好，你有什么代表作，呵呵呵 在变形金刚合作过……这句话我咋这么别扭 不吹牛逼的时候还可以 这不是很正常吗？蝴蝶效应嘛，我前段时间也去看了几套好莱坞的电影，也给好莱坞带来了一定的影响。 姐弟恋真的不靠谱了小男友 随地大小便 你这么狂，你妈妈知道吗？ 自以为是 哈哈哈哈哈 真会说 国际章用bi换的不一样 厉害啊。。 虽是牛逼，但勇气可嘉 你这么狂，你妈妈知道吗？ 和国妓脏有一拼 你这么狂，你妈妈知道吗？ 姐弟恋真的不靠谱了小男友 还不知道[疑问]整容整了一个🐂逼。 不吹牛逼的时候还可以 目前来说只有李小龙对世界电影有重大影响，包括成龙李连杰他们都没有造成什么大的影响，影响力不代表影响。 给你能的啊。。。 大言不惭 我就记得她拍过的少年包青天，其他她还拍过什么？？ 作者故意这么说的，一般人都不会这么大言不惭，这是黑帖 嚯嚯嚯 配，还不如国妓章影响大 白鹿原的画面和质感就非常棒 除李小龙外，还没有那个中国人说能给好莱坞带来什么影响，周润发和成龙也没办法。 李冰冰都演过啥戏？得过啥奖？唉。。。。。。。 李冰冰不错的，漂亮， 没什么影响. 连华艺都不配，更何况她就旗下一演员 。。 不吹牛逼的时候还可以 不吹牛逼的时候还可以 这🐮逼吹的有点过了 就你？我呸！ 李冰冰不错的，漂亮，演技好，支持她！ 谁知道呢 已经很大影响了! 厉害了 小编黑啊，截这话来摆标题真心来搞骂的 呵呵，在国内你还算说的过去，但说到你给好莱坞带来影响？什么影响，人家也是利用下，看看票房是否高些，但对于国内观众来说，没你更好，你有什么代表作，呵呵呵 在变形金刚合作过……这句话我咋这么别扭 我去，能影响好莱坞的起码都五六十岁了，往下的少了谁都没啥影响，好莱坞还是那个好莱坞，小李子德普阿汤哥这些少了谁好莱坞都不会失色。 这不是很正常吗？蝴蝶效应嘛，我前段时间也去看了几套好莱坞的电影，也给好莱坞带来了一定的影响。 保养的很不错 周润发当然不能，成龙影响力只会比李小龙更大，毕竟李小龙的电影少，也没主演过好莱坞大片，也没跟好莱坞级别明显合作过 随地大小便 ",
        "Reply": 43
    },
    "Article": "#endText.video-infoa{text-decoration:none;color:#000;}#endText.video-infoa:hover{color:#d34747;}#endText.video-listli{overflow:hidden;float:left;list-style:none;width:132px;height:118px;position:relative;margin:8px3px0px0px;}#entText.video-lista,#endText.video-lista:visited{text-decoration:none;color:#fff;}#endText.video-list.overlay{text-align:left;padding:0px6px;background-color:#313131;font-size:12px;width:120px;position:absolute;bottom:0px;left:0px;height:26px;line-height:26px;overflow:hidden;color:#fff;}#endText.video-list.on{border-bottom:8pxsolid#c4282b;}#endText.video-list.play{width:20px;height:20px;background:url(http://img1.cache.netease.com/video/img14/zhuzhan/play.png);position:absolute;right:12px;top:62px;opacity:0.7;color:#fff;filter:alpha(opacity=70);_background:none;_filter:progid:DXImageTransform.Microsoft.AlphaImageLoader(src=\"http://img1.cache.netease.com/video/img14/zhuzhan/play.png\");}#endText.video-lista:hover.play{opacity:1;filter:alpha(opacity=100);_filter:progid:DXImageTransform.Microsoft.AlphaImageLoader(src=\"http://img1.cache.netease.com/video/img14/zhuzhan/play.png\");}if(/(iPhone|iPad|iPod|Android|NETEASEBOBO|blackberry|bb\\d+)/ig.test(navigator.userAgent)||/safari|chrome|firefox/i.test(navigator.userAgent)&&navigator.plugins&&!navigator.plugins[\"ShockwaveFlash\"]){varstr1='<videocontrols=\"controls\"preload=\"auto\"width=\"100%\"poster=\"http://vimg3.ws.126.net/image/snapshot/2017/12/L/5/VD4HD9AL5.jpg\"style=\"max-height:100%\">';varstr2='<sourcetype=\"video/mp4\"src=\"http://flv.bn.netease.com/videolib3/1712/12/mAlPS5913/SD/mAlPS5913-mobile.mp4\">您的浏览器暂时无法播放此视频.</video>';document.getElementById(\"FPlayer1404863609673\").parentNode.innerHTML=str1+str2;}专访《谜巢》主演李冰冰（来源：网易视频）window.NTES&&function(d){varf=function(c){varb=c.getAttribute(\"flashvars\"),a=c.getAttribute(\"repovideourl\").replace(\".flv\",\"-mobile.mp4\");h=d(c.parentNode.parentNode.parentNode),g='<embedsrc=\"http://v.163.com/swf/video/NetEaseFlvPlayerV3.swf\"flashvars=\"'+b+'\"allowfullscreen=\"true\"allowscriptaccess=\"always\"quality=\"high\"wmode=\"opaque\"width=\"100%\"height=\"100%\"type=\"application/x-shockwave-flash\"/>';if(/(iPhone|iPad|iPod|Android|NETEASEBOBO|blackberry|bb\\d+)/ig.test(navigator.userAgent)){g='<videocontrols=\"controls\"preload=\"auto\"width=\"100%\"height=\"100%\"><sourcetype=\"video/mp4\"src=\"'+a+'\">您的浏览器暂时无法播放此视频.</video>';}h.$(\".video\")[0].innerHTML=g;},e=function(b){vara=d(b.parentNode.parentNode.parentNode);a.$(\"li\").removeCss(\"on\"),b.addCss(\"on\"),a.$(\".video-title\")[0].innerHTML=\"string\"==typeofb.textContent?b.textContent:b.innerText,a.$(\".video-title\")[0].setAttribute(\"href\",b.getAttribute(\"url\")),a.$(\".video-from\")[0].innerHTML=\"（来源：\"+b.getAttribute(\"source\")+\"）\",f(b);};window.continuePlay=function(){vara,b=d(d(\".video-list.on\")[0].nextSibling);3==b.nodeType&&(b=d(b.nextSibling));if(b&&d(\".video-innerinput\")[0].checked){e(b);}},function(){vara={init:function(){if(d(\".video-listli\")[0]){d(d(\".video-listli\")[0]).addCss(\"on\"),this.eventBind();}},eventBind:function(){d(\".video-listli\").addEvent(\"click\",function(b){e(d(this)),b.preventDefault();});}};a.init();}();}(NTES);网易娱乐专稿12月26日报道（文/派翠克图、视频/伟子）《谜巢》作为李冰冰担任制片人的电影，结合了东西方元素。采访中我们问李冰冰，觉得这次的合作给自己带来什么影响？她坦率表示，应该问自己给好莱坞带来什么影响。毕竟作为少数闯荡好莱坞的中国女星，李冰冰的确闯出了自己的一片天地。在《变形金刚》《生化危机》等一系列电影之后，这次的《谜巢》也是动作冒险的电影。电影在澳洲拍摄。李冰冰说自己接到剧本，并不想像不了解中国人的人去理解东方女性的态度。采访中，她表示自己的主导能力还是比较强势的，自己对这个人物有理解。在好莱坞的出演经历，也让她发现，好莱坞虽然对中国好奇，但太多的人依旧不了解中国。所以李冰冰说，这次担任制片人和女主角，特别选择了中国作为电影当中非常重要的一个场景。这个场景不仅仅是来中国取景，而是他把故事的背景设计在中国。她告诉网易娱乐：“包括我们电影当中的选角这边，一直都是我在参与和做决定的。”采访实录：网易娱乐：这次《谜巢》冰冰姐不仅作为女主演，而且还多了一个身份就是制片人。您作为制片参与到这个剧本里参与到了一个什么样的程度？李冰冰：其实我没有什么当制片人的经验，但是拍这么多年戏，应该说是非常清楚一个戏、一个好的电影，在它的制作和在它的前期筹备过程当中，应该做哪些非常重要的工作。在我们这个戏，我负责的这个领域里面，比如我们演员的选择，更重要的是这个戏其实是一个中美合资的合拍片的形式。也是非常好地运用了中国的元素放到里面，特别选择了中国作为电影当中非常重要的一个场景。这个场景不仅仅是来中国取景，而是他把故事的背景设计在中国。包括我们电影当中的选角这边，一直都是我在参与和做决定的。网易娱乐：所以这次角色上面，不管是欧美的明星，还是华人的演员，您都给予了自己的一些想法？李冰冰：对。我们男主角的选择，我们戏里面几个男演员的选择，除了我以外的其他几个演员的选择，都是经过我认可和我们大家一起评估的。网易娱乐：这次选择角色有什么标准吗？比如希望是什么样的外形、什么样的气质。李冰冰：其实因为我们这个电影是一个动作冒险片，它是一个类型片。在这个戏里面，它要求，一，演员要全部说英文。二，我们可能要有一些探险，我们可能就会涉及到一些体能上面，不是功夫的那种动作，这一点大家不要误会，它就是一个体能上的，比如掉到山洞里面，发生一些危险的时候，大概这方面的一些需求。然后在选择男主角的时候，我们有几个选择。片方给了我们几个人，一个是美剧《吸血鬼》里面的，还有一个是《暮光之城》里面的，几个男演员。不是他们不好，只是我们针对我们这个电影的需求，然后我最终选择了大雷，大雷是我给他起的名字。他叫凯南·鲁兹，我看了他非常有名的一部电影《大力神》，然后我觉得他是非常适合我们这个影片的。所以其实我们所有选角都是根据电影当中角色的需求，然后去选择合适的演员，而不是随便选一个自己（喜欢的）。我们其他的几个演员，包括KelseyGrammer，我跟他在《变形金刚》里面合作过，我非常喜欢老人家的表演，也喜欢他在拍戏时候的状态，认真。他是非常有百老汇风格的老戏骨了，在《变4》的合作里面就非常愉快。所以这次我也特别把他请过来。开始的时候还不知道他是不是有时间，而且他档期确实很紧，我们请他来的时候，他档期紧到，到最后，我们只能紧着他先拍他那场，就是我们最后的那场大戏，就是结束的那场戏。因为当时大家一直在商榷，所以到最后做决定的时候，再去跟所有演员沟通的时候，时间上也确实受到了一些限制。所以这次当了制片人之后，就会比当演员要操心一点，担的责任、负责的事情就要多一点。因为这个电影也需要一些英文的能力，吴尊又是一个可以说很好英文的人，他无论在年纪和外形上跟我都有一点相似的地方，来演我的弟弟。所以最后我们就敲定吴尊来演。网易娱乐：你也提到电影是一个动作冒险，可能还带了一点稍微惊悚的元素。里面最重要一个元素就是那个蜘蛛，我很好奇片场的时候是需要大家都来无实物的表演吗？李冰冰：对啊，真的都是无实物。我们其实在演的过程当中，演着演着，我就想问一下导演，我们那个蜘蛛就是最可怕的，它这种蜘蛛只在澳洲有，片子非常有意思的地方就是，我们在中国的一个地方探险发生了意外，然后发现有这个蜘蛛，这个蜘蛛叫漏斗网蜘蛛，但是这种蜘蛛只在澳洲有，在全世界其他地方是没有的，它是澳洲的产物。那么怎么会在中国有呢？我们这个故事就是，当然我们这个是编的了，故事就展开的，为什么它会在中国有。然后这个就追溯到很久以前的一个什么样的历史，然后带出来我们这个故事的整个过程。这个蜘蛛，其实我在拍的时候，我就上网也搜索了很多关于蜘蛛的（资料），因为我在里面演一个毒理专家，专门研究有毒的动物的专家。我也上网搜了一下，我看那个蜘蛛好像不大，然后我还在想，我们这个蜘蛛在我们这个戏里也算是一个大主角了，能把这个蜘蛛做成什么样的，其实对观众来讲，特别对我们个人来讲，每个人演员来讲，也是非常大的一个期待。我就问他，我说“你这个蜘蛛到底最后弄成什么样啊”，而且我们还有一个特大的蜘蛛。他就给我拿了一个模型过来，我说“才这么大一点”，我说“我们最后那个大的蜘蛛什么样”，他说“那个我们会做一个什么什么样的设计”。我们当时看完了之后，我以为是一个特别恐怖的的那种。但是这个戏为什么久？也做了很长时间的后期，直到前一段时间我们去看片，我也挺钦佩老外在做特效方面确实是世界先进水平。把那个蜘蛛做得真的是极其逼真，连每一根蜘蛛腿上面的那种毛发纤维都做得极其得逼真，跟真的一样。网易娱乐：像您在现场的时候，也不会有一些模型来帮助你演出恐惧的感觉？李冰冰：没有，是真没有。我们确实是要通过自己的想象去想。我们在黄金海岸的威秀影棚拍的，是非常美丽的地方。我们每天开车要三四十分钟，开到这个摄影棚。像《雷神》，还有好多好莱坞的这种大片儿都在这拍的，它的制作条件也都是非常好的。美国拍戏属于这种，他会有一些前置给你画一些东西，然后电脑上给你出一些东西，让你去想，给你看一下，就像一个reference一样，有一个这样的参考。你可以想象将来特技制作或者后期制作会变成什么样子。你稍微对这个是有一些概念的。网易娱乐：您刚才自己也说到在片中扮演的是一个毒理学家，我印象中有一场戏是您在给一群小朋友们介绍各种毒虫的时候，会自己亲自拿出蛇、蜘蛛给他们看，这个在片场是有实物的吗？李冰冰：我当时是在一个动物园还是在哪，我有一点记不清了，给来参观和学习的小朋友讲毒蛇的一些毒理知识，让大家怎么去防范，然后告诉大家这种毒蛇可以在几秒钟之内就能让人中毒。当时确实是有一个毒蛇在里面，我都挺害怕的。后来制片方跟我讲说已经处理过了，已经拔掉了，没有毒液了。我才敢放心地去碰那个毒蛇。要不然我也害怕，万一给我咬了怎么办。后来跟小朋友那块就是一个小道具了，就是逗小孩玩儿的是一个小道具。其他真的是毒蛇。网易娱乐：说到这次在黄金海岸的影棚里面拍摄整个戏份，你在跟这些演员合作的时候，会不会觉得沟通各方面还蛮有挑战性的？李冰冰：跟他们沟通确实是比较有挑战性的，就是语言是最大一关。所谓语言，更多的还是一个文化。我们对一件事情的看法啊，然后大家在事情的沟通和理解上，其实都是有一个文化的差异，对事情理解上的一个差异。但基本在这个过程当中，也很好地锻炼了我的英文的沟通能力。我当时拍这个戏还有一个更大的理由，就是逼自己一把，找个机会给自己套一个小夹板，然后逼着自己再好好学学英文。因为戏里面要全英文，对我来说也确实是一次挑战。毕竟全英文的戏拍得并不是很多，这次又是一个大女主，她是以女性为主导的，女性leader的这么一个大电影。所以我当时也是非常忐忑，对自己也是很憋着一口气。网易娱乐：但其实除了《谜巢》之外，你也跟杰森·斯坦森合作了《巨齿鲨》，片中也是女主角的戏份。整个在好莱坞闯荡下来，您自己觉得哪一方面是好莱坞给您带来的帮助或者带来影响最大的？李冰冰：你应该是说我给好莱坞带来啥影响吧。网易娱乐：那个肯定是，因为难得中国演员能在好莱坞??李冰冰：我是觉得之前美国对中国的认知就少，特别是电影界对中国的认知。追溯到2011年，我拍《雪花秘扇》的时候，那个时候我去美国做宣传，那次的宣传，说心里话，做得是非常透彻的。也接触了一下当时《雪花秘扇》的作者，她还是个外国人，一老外，一女的。她写的中国湖南的老同的文化，她会写我自己几乎都没有听说过的老同这样一个文化。并且有女书这样一种很秘密的文字，只有女人之间可以看得懂这个文字，那个文字非常得漂亮。但是我们真的是一个都不认识。这种其实都是我们的文化瑰宝，都要好好地把它传承下去的。但是是一个外国人去解读这样一个中国女性之间的这种情感，那个时代背景下的一种很微妙的、很地下的、很细腻的女性之间的情感。那次我们去美国的时候，好多美国人觉得中国还在绑着小脚，我想说信息如此发达的年代，好多人对中国的印象还是停留在一百年前，这个就让我比较吃惊了。所以这几年拍外国戏，我觉得也让很多外国人知道了当下当代的中国女性和中国市场的一个现状。另外这几年我们中国电影市场也非常好，也震惊了美国和整个好莱坞。比如今年吴京的电影，我相信已经让整个好莱坞都shock，真的是吓死了。那么这几年整个好莱坞也都非常看好中国。其实从我那个时候开始跟美国合作的时候，我就能感觉到他们非常想跟中国合作，但是却苦于找不到一个很好的合作的方式、切入点，到底是从文化的角度，还是从商业的角度，还是从什么样的角度可以进行一个更好的融合。所以回到我们这个电影，正好是一个合拍片。合拍片其实是一个很好的结合方式，我们可以很好地把中国的文化合理地放在一个电影上，然后让西方人更清楚地看到真正中国文化的体现。网易娱乐：您觉得在这样的片子中，自己所传递出来的、表现出来的这种女性的形象，是您自己的想法更多一些，还是可能美国人或者导演他们对于中国女性的想法会更多一些呢？李冰冰：我觉得跟不一样的人来解读这个剧本是有关的。作为我来讲，我接到这样一个电影的时候，我的主导能力还是比较强势的，我对这个人物有理解。我也并不想像外国人或者不了解中国人的人去理解东方女性的一个态度。那么现在当下的东方女性，特别是中国女性，都非常独立，受教育，有自己的判断力、思想，并且有自己的价值观、态度。这已经是新时代女性的一个新样子，而不是大家理解上的中国的女性可能过去都是锁在家里，或者只能做家庭主妇这样的一个状态。所以我在这个电影里更会尊重我的角色，并且更能够体现女性在这个电影当中的责任、强势、还有她的态度。网易娱乐：表现这样的女性，在体能上对您的要求高吗？李冰冰：还好，我们这个不是一个打戏，像我们以前拍的那种动作片，那是一个真正的纯的动作片，打戏。这个戏里面不是要求你很多的打戏，对我来说压力最大的可能还是语言。我就希望我自己的语言在整个电影的表达过程当中，一是顺畅的，二是合拍的，跟所有其他说英语的nativespeaker在一起，我们是一个很match的状态。那么说心里话，这个真的需要要求你的台词，还有你所有英文台词的训练。我确实也花了一定的时间和工夫。网易娱乐：这个也是会专门请台词的老师来帮助。李冰冰：对，剧组也给我请了一个老师，有帮助。我自己也请了一个。网易娱乐：在片场上相当于是和全球的团队合作，片场是不是会跟国内片场有一些不一样的感觉？李冰冰：会有，大家会有很多很多不习惯的地方，会有很多很多的水土不服。他水土不服了你，你也水土不服了他，就属于这种。工作方式，比如去现场工作的节奏、顺序，好多地方需要磨合的。老外做事儿就比较死板，好像进到现场，所有的东西都得ready。对我来讲，我们工作的时候，我们先把戏走好了，走好完了，我们再处理头发、脸、妆、做脏做旧这些乱七八糟的事儿。老外是一进现场，我就先把你忙活好了。然后他已经浪费这么长时间了，然后再进去排练。弄完之后，出来还要再弄。有的时候，大家在这方面的沟通真的是有一些水土不服的。网易娱乐：片场跟这些外国的演员们，包括跟吴尊在一起合作的话??李冰冰：这个非常愉快。演员跟演员之间，我们的沟通和合作都还是非常愉快的，相互之间非常尊重。但是语言上确实是，因为他们说英文，我们说中文嘛。但是在里面只有我一个人说中文，一个中国演员。吴尊的英文也很好，他从小就说英文，文莱的，英文对他来讲也不是什么太大的困难。所以其实主要是我一个人说中文。那么在现场只能我跟他们讲英文，没有人跟我说中文，他们也听不懂，我们也没有中文翻译，只能靠英文。网易娱乐：您刚才也提到故事里面还是有一部分是在中国的情境，这个片子有没有来到中国的一些地方进行拍摄外景之类的？李冰冰：我们还真没来中国拍。我们搭了好多景，取了好多外景，也弄得特别像中国西部的那种感觉，很荒凉的那种地方。因为我们描写是在一个洞里面发生了这样的事情。开始的时候，说得还挺具象的，是发生在XXX。当时我就提了一个意见，我说我不希望如此得具象，因为你要说具象了，变得很写实，就变成你不是很好把握这个尺度。如果你不说明是在哪里，那么我们的想象空间就特别大了。但是肯定是在中国。一个什么样的地方？一个人烟稀少，非常荒凉的大漠上面，全都是巨石和黄土这样的地方。就是挺有气氛的这样的地方，充满了神秘莫测的这种感觉。网易娱乐：当您把这些经验或者对中国市场的了解分享给这些外国演员的时候，他们是不是也会很惊讶于您对于整个中国市场的熟悉？李冰冰：他们也会觉得演员怎么会能管这么多事儿，就是会有这么多建议。反正我是觉得，可能是我入行20年了，就是这20年所学到、看到、感受到的各个方面的知识和经验，都能够让我在拍一部电影或者创作一个角色的时候给我很好的背书和指导。所以在跟他们要求的时候，他们也都非常接受我的想法。包括他们设计的中国皇陵里面的一种想象，我也给了好多建议。网易娱乐：因为现在好像这两年的真人秀又非常得热。国内现在的这些综艺节目。您自己有想法再去参加综艺节目吗？李冰冰：综艺节目，我参加得不多。有一些综艺节目挺好玩儿的，就看一看，就挺有意思的，也比较有意义的。有一些可能我就看得少了。网易娱乐：电视剧呢？因为这两年很多优秀的电影演员其实都回流到了电视剧市场中。李冰冰：现在中国的电视剧确实是拍得很棒。很多电视剧，我觉得那种画面、质感，真的不亚于电影。所以这一两年自己也在筹备，也在摩拳擦掌吧，想拍好一点的电视剧。但是制作上需要真的很精良的那种（制作）。网易娱乐：您也希望做一个类似于大女主这样的电视剧吗？李冰冰：我不知道别的演员，反正对于我来讲，作为一个演员，单纯以演员的身份去选择作品的时候，只要作品好，只要剧本好、角色好，就是我接戏最起码的条件了。我根本不是因为它是电视剧或者因为它是电影，起到了决定权让我做还是不做。只要它是一个好的作品，我就愿意去做，而并不是因为它是电视剧还是电影。网易娱乐：我们看到您最近几年电影的履历当中，真的好像有一种对一些片子类型的特殊偏爱，您自己在考虑做电影的时候，会不会有自己特别喜欢的影片类型？李冰冰：我倒也没有。比如拍这个戏，拍《谜巢》的时候，我就觉得我们没有这样的影片，在我们国内的市场上好像也没有出现过这种有点动作冒险的，有点惊悚的，有点怪物的，在一个电影里面。这样的电影类型，我们其实挺少的，然后我也没尝试过。其实就是一种好奇心，觉得那我就尝试一下吧，想去试试吧，就做一点自己没做过的事。就是这种心态。网易娱乐：因为动作冒险再加上探险的元素，很容易让人想到《古墓丽影》这样的电影。您自己有没有这种想法？李冰冰：那都十几年，快二十年前的电影了。网易娱乐：对，因为马上要有新版了。您自己有没有这个想法，要做中国的劳拉系列？李冰冰：你说我们这个电影？这个是两回事儿。他那个是真的动作，很炫酷的。我觉得我们这个还是相对来讲比较写实，我们没有一些不真实的、炫酷的东西。它相对来讲还是很真实的，就是一群人在一次探险的过程当中，看到了人性的劣根和光芒。所以其实我们这个还是完全不一样的两个戏种。网易娱乐：其实片中好多的演员都要画那种被蜘蛛咬伤的妆。李冰冰：我觉得我们化妆师非常棒。她化完的妆，我看到了，我简直就是??太像了，就无可挑剔地像。每次她化那种妆，就是我们最厉害的那个咬伤的演员，好像化了七个多小时，早上恨不得两三点起来就开始化妆了。那个真得太棒了，化得太像了。我觉得国外的这种化妆技术确实是挺成熟的，特别是在做这种特效装束的时候，真的是一个比较独立的学科，然后非常需要功底的。这个我是真的很佩服的。网易娱乐：因为现在已经是2017年的末尾了，2018年就要到了。冰冰姐您自己在2018年有什么新的计划么？李冰冰：拍个戏呗。我这个戏就是2018年上，2018年的1月19号上。然后2018年的7月，我的《巨齿鲨》也要上了。两部电影要上了。网易娱乐：对于自己的生活有什么新的构想吗？李冰冰：我现在就觉得生活上其实挺随意的，挺轻松的，有点无欲则刚吧，应该这样的话。其实当你没有那么大欲望的时候，你会挺轻松的，做减法。本文来源：网易娱乐专稿责任编辑：杜嘉悦_NK6020",
    "URL": "http://ent.163.com/17/1226/11/D6J13E95000380D0.html"
}