{
    "Title": "菲律宾南部一车辆坠落18米高悬崖 致8人死亡_网易新闻",
    "URL": "http://news.163.com/17/1225/15/D6GUJCIU0001899N.html",
    "Source": "Netease",
    "Comment": {
        "Total": 30,
        "Reply": 10,
        "Content": "办公室里小伙子总是找不着对象，眼看30了，还是没着落。说实话，人还行，就是有点毛躁，干啥都没耐心，总想急功近利得实惠。前几天办公室新来了个女孩，人挺漂亮，也很懂事，对谁都挺客气，他一看，就觉得喜欢，想追。突然有一天，他偶然听见那女孩管老板叫了声爸爸，好家伙，他像如获至宝，立刻就发动起了爱情攻势。结果，今天中午的时候，公司人事通知他立刻离职，大家赶紧问是啥原因，人事说是骚扰老板的儿媳妇...... 在圣诞节死？ 最起码人家让说话呀 跟贴被火星网友带走啦~ 什么事 🔫，和谐社会 最起码人家让说话呀 跟贴被火星网友带走啦~ 最起码人家让说话呀 在圣诞节死？ 这也可以坠落! 什么事 好人一生平安. 还有一辆是无人驾驶 vb麦克风好吃 办公室里小伙子总是找不着对象，眼看30了，还是没着落。说实话，人还行，就是有点毛躁，干啥都没耐心，总想急功近利得实惠。前几天办公室新来了个女孩，人挺漂亮，也很懂事，对谁都挺客气，他一看，就觉得喜欢，想追。突然有一天，他偶然听见那女孩管老板叫了声爸爸，好家伙，他像如获至宝，立刻就发动起了爱情攻势。结果，今天中午的时候，公司人事通知他立刻离职，大家赶紧问是啥原因，人事说是骚扰老板的儿媳妇...... ",
        "Link": "http://comment.news.163.com/news2_bbs/D6GUJCIU0001899N.html"
    },
    "Article": "（原标题：菲律宾南部一车辆坠落18米高悬崖致8人死亡）△图片来自GMA电视台推特据菲律宾当地电视台GMA报道，12月25日，菲律宾南部棉兰老岛的哥打巴托省发生一起车辆坠崖事故，一辆载着乘客和货物的吉普尼车从约18米高的悬崖上坠落，导致8人死亡，多人受伤。据悉，此次车祸是由于吉普尼车的刹车失灵导致的。本文来源：央视新闻作者：黄铮铮责任编辑：李杭_BJS4645",
    "PublishTime": "12/25/201715:46:53",
    "KeyWords": "车祸,悬崖,菲律宾,吉普"
}