{
    "Article": "网易体育1月3日报道：库蒂尼奥缺席了利物浦年度首战，克洛普给出的说法是他有伤在身。但《每日体育报》指出，库蒂尼奥其实是在罢赛，他拒绝再为利物浦出战。通过这种方式，库蒂尼奥表达着自己要转投巴萨的坚定态度。在整个12月，库蒂尼奥为利物浦出场8次打进7球。在进入1月之后，库蒂尼奥就拒绝再为利物浦出场。库蒂尼奥用这种方式，明确表达了自己的态度：转会窗口没开启？他会为利物浦竭尽全力。转会窗口开启了？他只想要披上巴萨球衣！库蒂尼奥的态度，也直接导致了利物浦态度的改变。英格兰足坛的西甲专家巴拉格指出，利物浦已经不再把库蒂尼奥视为非卖品，红军对一切可能性都持开放态度，其中就包括在冬季将其出售。《卫报》也指出，利物浦的确有可能在冬季卖掉库蒂尼奥，红军要价为1.3亿英镑。按照目前汇率，利物浦要价为1.47亿欧元。巴萨则打算为他报价1.5亿欧元，只不过其中有4000万浮动条款。《每日体育报》今天在头版头条上指出，库蒂尼奥的加盟，已经“非常非常非常接近”了。该报指出，巴萨和利物浦将在未来几天内完成谈判，巴萨将派人去英格兰谈妥合同最终的细节。库蒂尼奥的转会费，总额将控制在1.5亿欧元左右。《世界体育报》今天的头版头条，甚至在探讨库蒂尼奥加盟巴萨后的战术打法，这家加泰媒体已经把巴西人看成了巴萨人。该报指出，库蒂尼奥可以在433体系下踢两翼边锋或者两侧的攻击型中场，他也可以在442体系下出任两翼边前卫。库蒂尼奥的加盟，将会让巴萨进攻体系变得更加立体更加丰富。本文来源：网易体育作者：张琳责任编辑：刘頔_NS4812",
    "URL": "http://sports.163.com/18/0103/08/D77BQE6D00058781.html",
    "KeyWords": "巴萨,库蒂尼奥,利物浦",
    "PublishTime": "01/03/201808:41:13",
    "Title": "曝库鸟罢赛只为去巴萨 1.5亿欧先生能玩转4个位置!_网易体育",
    "Comment": {
        "Content": "芭莎有人吗？是人能去芭莎的。。。 作为一名皇马球迷，看了那么多年皇马的球，感觉最近10年来能和库鸟媲美的皇马球员只有11-12赛季的厄齐尔以及13-14赛季的贝尔 别跟8⃣️🐶讲逻辑 难道一定要按照你这🐶的价格 渣叔：酷鸟你个浓眉大眼的家伙也要背叛红军了？😂 你觉得这种思维的货，这辈子跟买房能沾得上边吗？ 你丫逻辑混乱，先回家整理再出来喷，也不看看清现在是谁喷喷谁，喷子那B脑袋真是奇葩！ 难道是巴黎骂巴萨内马尔骂巴萨？别说脏话我哪说不对了你指出来我说的不是事实吗？内钞这名不是你们巴萨球迷起的？ 全民公敌都出来了一个愿意买一个愿意这样卖有问题吗花你钱了还是卖给你了搬你的砖吧 所以合同期内不能转会？你利物浦挖那么多南安普顿的人哪个是合同到期自由转会的？ 怕被敲竹杠或者觉得价格高出不起转会费巴萨可以不买啊难道巴萨想买就一定要按照巴萨的价格？ 有些时候乖乖老实做好人只会被人往死里坑出社会那么多年这点都领悟不到嘛 巴萨当时完全是因为转会时间来不及导致被敲竹杠你不知道，拿敲竹杠的价格当公道，搞笑不？<br>利物浦显然也是利用那种机会在敲竹杠，这种情况下俱乐部承受不了，球员不想转会被黄，只能施压了，结果一群喷子……，你妈，喷的粪飞上天了（这句非针对楼上） 罢赛真的很不职业 除了巴萨自己，哪个俱乐部受得了被这么挖人？ 做人不能太巴萨库蒂尼奥做人真狗 库鸟冬天来有什么用啊？？踢不了欧冠啊 和皇马一比就是豪门与小俱乐部的区别！连暴发户都算不上。虽然也有球员闹的事情过，但价格方面从不含糊。要买直接给钱到满意！ 买卖只要在法律框架内，都是可以的。巴萨想要买，不想花很多钱，难道不正常？？楼上某些人，你们买东西，别人要多少就多少？？别人要的高，你就自动觉得合理，就不想买了？除非你不喜欢，否则肯定砍价的！ 人越没什么越爱秀什么，比如智商低的爱骂人“蠢”。<br>和脑残一般见识，你能强哪里去？他就是跳疯狗，咬你正常。可你去咬狗，是不是哪里风格不对了？ 球员倒贴都要去的俱乐部，说明吸引力大，你牛比也让别人倒贴啊 巴萨球迷知道合同？笑话，自己跟内马尔签了合同违约金，巴黎砸违约金球员也想去。他们还装无辜。到自己买人又一副我要你就得卖的嘴脸。他们哪有什么契约精神 难道不是球员罢赛恶心？永不独行没深入洗脑呀，巴萨穷的过se？ 这样好，巴萨高价引援逼着皇马也要加大投入。 聊球能聊出地域来，这素质真高👍🏻 买不是问题，价钱给足了就行，做那么多小动作来促成交易，不让同行耻笑吗？裤子向往巴萨人之常情，但起码得有职业精神，利物浦带你起飞，就算走，是否该以其他形式报答利物浦，像当年的苏牙，就是去巴萨前和球队续约才卖了高价，现在这么走，真的给不了祝福 皇家妈跌地如今排第几呢 素质的高低不分南北这层里很好的诠释了这一点 吧撒下个客场飞机必定失事全队暴毙的，那个矮子西是最惨的身上一块肉都找不见了。 目测这里有一大拨黄dog混在围观人群之中 哪个英超大俱乐部坑人了？<br>你说出来，你还要脸吗？<br>都学阿德巴约吗？天天逛街就是不去“单位”，拿着高薪。<br>这就是你说的“老实人”被坑死。英超球员脑袋“傻”可以理解，但人家签约的时候都有经纪人和律师，像你在工地搬砖肯定不用这么麻烦。 强行全民公敌 炸出一堆北佬哈哈哈哈 犹记得内马尔被砸违约金在大巴黎给足钱的情况下一部分巴萨球迷还哭天抢地的骂大巴黎骂内马尔人家利物浦被你巴萨挖就不许人家利物浦多要钱？不许利物浦说你巴萨挖人？ 所以脏莫斯、佩佩、马塞洛……去了“贵族”队。 昨天巴萨的赞助商不是宣布库蒂尼奥加盟巴萨了吗？ 说白了！酷屌就是我霉球找来的背锅侠！到时候四大皆空总要有人站出来吧！。—理性球迷留 厉害 猪思维 东北人还是真他妈。蠢 别听媒体BB，库鸟看得出是想去巴萨，心里从夏天起就有意见，但人家还是敬业的，训练和比赛都尽力。 罢赛真的很不职业，明明签了合同的，如果想留后路，你可以不签那么长时间啊 这事儿巴萨做的不地道，想要人又不愿意出钱，一个毛头菜鸟登贝莱都花了一亿多，你给人利物浦出1亿+4000万浮动，还是人家核心球员，而且出的那些招数让人耻笑，你让人怎么愿意卖？ 所以呢？要合同干嘛？球员说想走俱乐部就要放？说俱乐部不尊重球员？这样球员尊重俱乐部吗？合同是在你情我愿的情况下签的，你想毁约是俱乐部还得配合你？不然就是不尊重？再说了，利物浦也貌似表示过1.5亿一次性直接拿走！怎么？是不是还得利物浦倒贴你巴萨还要送祝福才算尊重球员？ 他们就希望买人的时候个个都像倒贴法一样，还分期付。然后自己标几亿的违约金，阻止别人买。 黄🐶户主心情<br>诱惑德赫亚，转会费不高还要降工资还要球员向俱乐部摊牌<br>上面就有新闻，贝儿凯恩互换东家，n年前诱惑贝儿，贝儿罢训 你懂不懂职业球员要尊重合同，他的合同没有买断条约，合同都不尊重的球员配叫职业？你该多读书 我不觉得，因为前面夏季转会时候已经说过了，俱乐部强留球员，以为不给机会库鸟就会死心，其实当时俱乐部就不尊重球员的愿望，而经过这么久，库鸟也认真打比赛了，到了冬季转会期，俱乐部还不放人，俱乐部就毫无理由。按照很多恒大狗屎球迷的逻辑，把球员摁死在板凳上也不给他转会的机会，这是可以的，要走就按照毁约赔偿。不过，这样高水平球员还愿意加入吗？ 北佬就是蠢没办法 可以放库蒂尼奥，但是巴萨又穷，尼玛的苏亚雷斯的钱都没给完，现在又要按揭库蒂尼奥，这个俱乐部是真的恶心，怪不得全民公敌 年薪不足别人周薪的人就不要妄自揣测啦 想起了倒贴法！巴萨果然有一套 你买房没还贷完，还消费就是真恶心。 但是皇马当时出了快一个亿，给钱爽快啊 拉玛西亚中场指挥官要来了 因为你买东西分期，而利物浦需要资金填补库蒂尼奥离开的空白 同样作为老牌豪门，利物浦已经成为巴萨的后备队了！近几年马队、苏牙、再加小库，个个都是利物浦中轴 你都罢赛了，有没有你还不是一样，所以看台上见咯[微笑] 2亿，学学大巴黎。出来混总是要还的。 限制老赖高消费 曼联球迷送你一句话：狗带！ 这不为了小白梅西寻找接班人吗巴萨怎么能没有球星镇场子呢 来，给巴萨球迷鼓掌。不知情观众看了你们留言还被你们说服了觉得是一个愿买一个愿卖。1.人家利物浦一个夏天都再说不卖，你巴萨啪啪被打脸还不够？还有什么高管说库鸟很快来，结果被利物浦官方打脸，最后夏窗完了也没去。2.你买人和球员解除很正常，虽然官方不允许，但是基本球队都会这么干，但是库鸟罢训不知道是不是巴萨怂恿，反正登贝莱罢训有点可疑。（别和我说皇马买贝尔，人家怎样做你也怎样做？你不是最看不起皇马嘛，为啥跟他们学？）。2.从最开始8000万，到后面分期+金球+N次欧冠，你当利物浦猴耍啊？3.在库鸟转会这件事上巴萨从高管到球迷有没有给过利物浦尊重？这应该是巴萨长期以来的传统把，从阿森纳小法被套球衣开始，就基本没尊重过对方球队。总是一副高高在上看上你的人你就应该倒贴钱送过来，想要自行车就是无耻，就是耽误球员梦想的态度。 又罢赛 真他妈阴暗 谈判就是钱呀。巴萨的报价没有得到同意。为啥？想要心头肉。必须给足钱。 吧撒下个客场飞机必定失事全队暴毙的，那个矮子西是最惨的身上一块肉都找不见了。 其实巴萨也没必要急着买，现在的行情真不适合买球员，现在联赛基本稳了，欧冠他又不能打。 现在还是我利物浦的人！ 啥事不干的话3天两头就罚你工资，罚到你破产 做人不能太巴萨库蒂尼奥做人真狗 据说萨拉赫也要走，哈哈 轮换呗，多踢联赛 巴萨媒体就会自己意淫从夏天开始就这样天天官宣相信酷鸟sb巴萨！ 巴萨这是被大巴黎碰到G点了，疯狂的买人，连恒大这种蝇量级俱乐部都不放过。 目测这里有一大拨黄dog混在围观人群之中 下放到预备队，让他待着 巴萨等你 是的然后被告了 签长了才能卖高价吧 拿不到至少也能拿到1.3亿，还想怎么样？？巴萨摆明了拿联赛冠军和欧冠比利物浦容易得多。 不是很正常？都说分期，又不是拖着不给钱，还不上还去消费。同时供两套房也很正常啊。。 来，给巴萨球迷鼓掌。不知情观众看了你们留言还被你们说服了觉得是一个愿买一个愿卖。1.人家利物浦一个夏天都再说不卖，你巴萨啪啪被打脸还不够？还有什么高管说库鸟很快来，结果被利物浦官方打脸，最后夏窗完了也没去。2.你买人和球员解除很正常，虽然官方不允许，但是基本球队都会这么干，但是库鸟罢训不知道是不是巴萨怂恿，反正登贝莱罢训有点可惜。（别和我说皇马买贝尔，人家怎样做你也怎样做？你不是最看不起皇马嘛，为啥跟他们学？）。2.从最开始8000万，到后面分期+金球+N次欧冠，你当利物浦猴耍啊？3.在库鸟转会这件事上巴萨从高管到球迷有没有给过利物浦尊重？这应该是巴萨长期以来的传统把，从阿森纳小法被套球衣开始，就基本没尊重过对方球队。总是一副高高在上看上你的人你就应该倒贴钱送过来，想要自行车就是无耻，就是耽误球员梦想的态度。 如果1.5亿全款该卖还是卖了吧，强送看台，俱乐部吃亏，以后其他球员续约也不容易，强扭瓜不甜，拿去买人吧，话说素雅的钱付清了么 一次性付款，这样利物浦好买人啊！ 若报道属实，我就真的看不起库鸟了！你不是同利物浦签约了吗？那就请你好好履行你签的合约，利物浦是否放你走，要看民巴塞的谈判进展如何。一日未官宣将你出售，你一日都是红军人，继续为红军效力，否则你就是一个缺乏职业道德的人，瞧不起你！ 咋老整罢赛罢训的呢？ 实在没有职业道德。现在的球星和贝克汉姆以前那些人没得比。 真发觉我们总喜欢用国情来代入人家的法律，欧美的契约精神能和中国式打工合同比吗？欧美只要在自愿平等的情况下签了合同，是百分之百要完成的，违约的全部后果由违约方承担的，你以为是你想不遵守就不遵守的。俱乐部培养了库鸟，还给了报酬，现在还是俱乐部资产，作为职业运动员，就应该上场尽力，想走就给俱乐部带来足够的回报。而罢赛这种不负责的行为，俱乐部有大把的方法去惩罚你，换弗格森做主教练的时候，一定管教得死死的。 这种评论居然这么多人赞，服了这些赞的人了。毫无营养 望了贝尔罢赛去黄吗了？ 强行全民公敌 其实上面5楼说的也有道理，站在利物浦的立场他希望坐地起价，收益越高越好，对于库鸟来说就是希望走人看，对于巴萨来说就是价格越低越好。那就谈判了，互相妥协。当然利物浦也可以完全不让步，也没有问题，库鸟也不让步，利物浦就把库鸟摁死在板凳上，库鸟反正就破罐子破摔，就每天啥事不干拿钱。相信利物浦也不会蠢得最后合同到期一无所有的情况，还白养一个球员这么久吧？？ 小道新闻说罢赛你就觉得是罢赛吗？明显是利物浦留不住人，开始为自己弱者形象在加分 内马尔刚走的时候，巴萨内外交困，一堆SB天天唱衰，说巴萨2亿都用来给梅西发工资了，结果巴萨砸了1亿多买人，又被笑话是冤大头，好话坏话都被你们说了。和利物浦的交易能不能成，还是双方博弈的结果，你们说了算？看看利物浦买范迪克的过程，你觉得球队间的交易要怎么来？讨价还价不是正常的？现在又来这一套，只想说，做人不能无耻到这个地步！做黑子也是要有智商的，小学没毕业的只能让别人笑话！ 快点吧 留不住，不还是球员罢赛威胁俱乐部放人吗 1亿+暴力鸟，秒卖 昨天巴萨的赞助商不是宣布库蒂尼奥加盟巴萨了吗？ 说白了！酷屌就是我霉球找来的背锅侠！到时候四大皆空总要有人站出来吧！。—理性球迷留 好聚好散你为啥不放人 物以类聚人以群分，巴萨挖人手段本来就肮脏，而被挖者也是道德成问题，登贝莱库蒂尼奥就是样本 库鸟冬天来有什么用啊？？踢不了欧冠啊 别听媒体BB，库鸟看得出是想去巴萨，心里从夏天起就有意见，但人家还是敬业的，训练和比赛都尽力。 罢赛真的很不职业，明明签了合同的，如果想留后路，你可以不签那么长时间啊 渣叔：酷鸟你个浓眉大眼的家伙也要背叛红军了？😂 你这不是恶心利物浦吗？你买人分期，利物浦却需要钱来买人，等于说不接受贷款就是俱乐部的错？ 五年长约没有违约金，球员敢造次到哪一步我倒是不信了，好聚好散给红军留一笔巨款大致也就是这个结局了。别搞分期哦[大笑][大笑][大笑] 我不觉得，因为前面夏季转会时候已经说过了，俱乐部强留球员，以为不给机会库鸟就会死心，其实当时俱乐部就不尊重球员的愿望，而经过这么久，库鸟也认真打比赛了，到了冬季转会期，俱乐部还不放人，俱乐部就毫无理由。按照很多恒大狗屎球迷的逻辑，把球员摁死在板凳上也不给他转会的机会，这是可以的，要走就按照毁约赔偿。不过，这样高水平球员还愿意加入吗？ 范迪克你给钱就走啊，库蒂尼奥你却要分期，俱乐部当然接受不了了 可以放库蒂尼奥，但是巴萨又穷，尼玛的苏亚雷斯的钱都没给完，现在又要按揭库蒂尼奥，这个俱乐部是真的恶心，怪不得全民公敌 一说巴🐶不好就是黄，巴沟每个队员都要诛九族，一定灵验的 所以，才有谈判这事儿。只是交易，没有对错。 港真，不如卖巴黎算了，一口价爽快，不拖欠，总比玩这些拉锯战好 裤底鸟又不是想去巴黎，他只想去巴萨 你买房没还贷完，还消费就是真恶心。 苏牙钱没给完，你听谁说的？ 你妈脑残 然并卵。 所以这些，都是巴萨的喉舌为了造势编造出来的！ 皇军让我给你带个话 巴沟偷换概念？ 难道一定要按照你这🐶的价格 库鸟来了，小白就要走了 夏天转会的时候时间紧，结果被利物浦敲竹杆了，巴萨不想做冤大头，所以没买了呀，有问题吗？现在冬季转会未开启，有足够时间慢慢谈，现在去买有问题吗 呵呵，搞笑，一味的谈俱乐部不尊重球员愿望？那球员尊重过俱乐部愿望了？尊重过教练队友球迷的愿望了？你丫的球员是上帝？球员的愿望就是一切？ 队长，不要枪毙我 我不觉得，因为前面夏季转会时候已经说过了，俱乐部强留球员，以为不给机会库鸟就会死心，其实当时俱乐部就不尊重球员的愿望，而经过这么久，库鸟也认真打比赛了，到了冬季转会期，俱乐部还不放人，俱乐部就毫无理由。按照很多恒大狗屎球迷的逻辑，把球员摁死在板凳上也不给他转会的机会，这是可以的，要走就按照毁约赔偿。不过，这样高水平球员还愿意加入吗？ 北佬误国 怕被敲竹杠或者觉得价格高出不起转会费巴萨可以不买啊难道巴萨想买就一定要按照巴萨的价格？ 相比之下，保利尼奥人品爆棚！ 所以这些，都是巴萨的喉舌为了造势编造出来的！ 那就放到赛季末，世界杯也甭想踢了！ 做人不能太巴萨库蒂尼奥做人真狗 ^_^ 只是因为库鸟多看了一眼巴萨，就被很多“球迷”绑到靶子上了～ 后面就该失联了吧🤔 罢赛就冷冻，对培养自己的母队采取罢赛的做法坚决不允许，别跟我说什么与钱过不去的话，俱乐部的尊严比金钱重要得多，尤其是象利物浦这样的老字号。 再怎么也只有11人能上场比赛！ 不尊重俱乐部的话早被抓内鬼了。 罢训鼻祖：莫德里奇、贝尔，大黄粉丝不了解自己俱乐部队员吗？ 杭州的这个傻逼！操！ 利物浦这种中游小球队，高价买你人还这么咋咋呼呼，还不赶紧拜谢，不然不给钱，哼！ 你犯罪了！ 库蒂尼奥一个人可以解决很多问题 切尔西娜娜表示赞同 目测这里有一大拨黄dog混在围观人群之中 强行全民公敌 屁股决定脑袋 多特皇马红军西班牙人国米，嗯，不多 别叽歪了，我已经决定把天赋带到中超了 正常轮休而已。媒体真是无节操呀。最应该受惩罚的就是媒体。 我不是挺巴萨巴萨做事情确实不靠谱有时不过你的言论是真的睁着眼说瞎话搞得全欧洲就巴萨一个俱乐部分期买人的商业俱乐部哪个贷款不一大堆？ 那是南安普顿愿意卖，现在利物浦不愿卖！这逻辑，果然是一日红蓝。 每日体育报，厕纸报！ 所以这个就是互相体谅的过程。俱乐部要利益，还要球队成绩，球员想要更好的发展。俱乐部需要平衡这个东西，不过如果球员铁了心要走，绝大部分俱乐部都会选择放人，只要价钱合适。当然也会出现谈不拢的情况，要人的不给那么高的价格，卖家就只有给球员做工作安下心来继续踢球，就看工作能不能做好。 有些时候你是无法决定的。 就听到你这条狗在叫。 内马尔不走，本赛季没这战绩 别听媒体BB，库鸟看得出是想去巴萨，心里从夏天起就有意见，但人家还是敬业的，训练和比赛都尽力。 罢赛真的很不职业，明明签了合同的，如果想留后路，你可以不签那么长时间啊 虽然不讨厌巴萨，但是巴萨这种不找俱乐部直接联系球员的做法确实让人反感 登贝莱复出库鸟如果再加盟有了保利尼奥尼玛巴萨如虎添翼更猛了 和内马尔走不走有什么联系？皇马自己不行了现在都联赛第四了欧冠又被热刺吊打马竞小组出局打欧联去了是竞争对手不行而不是巴萨走了内马尔那么简单，保利尼奥的加盟巴萨后腰明显硬了很多 还不如买后卫培养新人，性价比不高，不看好巴西技术型球员的寿命 渣叔：酷鸟你个浓眉大眼的家伙也要背叛红军了？😂 黄🐶户主心情<br>诱惑德赫亚，转会费不高还要降工资还要球员向俱乐部摊牌<br>上面就有新闻，贝儿凯恩互换东家，n年前诱惑贝儿，贝儿罢训 罢训鼻祖：莫德里奇、贝尔，大黄粉丝不了解自己俱乐部队员吗？ 钱给够，谁不愿意卖？7500的后卫买得起。1.5亿有意思么？ 呵呵，又是浮动条款！麻辣烫隔壁！！ 可以放库蒂尼奥，但是巴萨又穷，尼玛的苏亚雷斯的钱都没给完，现在又要按揭库蒂尼奥，这个俱乐部是真的恶心，怪不得全民公敌 很开心 俱乐部：不续签？是不是想着免费走啊，板凳坐穿吧废了你丫 罢训，然后1.5亿来巴萨！紧接着比赛中受伤！靠，看到了登贝莱的影子[可怜][可怜] 天要下雨娘要嫁人，库鸟虽然不可或缺，但这样闹下去对利物浦的团结百害无一利，今早在搜狐网读到红军的跟队记者一篇文章写得很有见地，既然留不住人，红军应该早作打算，前提是库鸟必须踢完这个赛季，帮助球队打入冠军联赛，夏天哪凉快哪呆去！这应该是双赢局面：红军拿到巨额转会费可以买到肯为自己战斗的球员，库鸟可以嫁给如意郎君，这个办法也最可行，因为别忘了，库鸟跟红军的合同到2022年且没有违约金，容不得库鸟爱怎的怎的，把球会惹毛了把你按在板凳上，那真是一个吃不了兜着走！红军高层可能做梦都想不到，当初给库鸟这么长的合约到今天会如此重要，像枪手那个桑切斯，阿森纳真是欲哭无泪呀！ 你买房没还贷完，还消费就是真恶心。 傻吊 第一好像马儿没有库鸟这样迫切希望离开球队，第二是合同中有违约金，库鸟合同中好像没有（我也不是很清楚），另外库鸟的实力，1.5e不算讹红军，就像有些钉子户一样，死开高价最终就没意义了！话说回来，我更希望巴萨买德拉克斯勒，库鸟1.5e即使红军卖，作为球迷，我也觉得太贵！ 皇马背后有亲爹撑着，连欧盟扶贫款都敢挪用，你丫心里就没个B数？ 卖了吧，心思不在这了强留没用，有个好价钱就卖 作为一名皇马球迷，看了那么多年皇马的球，感觉最近10年来能和库鸟媲美的皇马球员只有11-12赛季的厄齐尔以及13-14赛季的贝尔 哈哈哈，笑死我了，居然有你这么天真的喷子，我该同情你还是同情你还是同情你呢？球员签合同是为东家？你厉害👍🏼 你问过热刺的感受了吗？<br>真是“无知者无畏” 可以卖了， 你这话说的没道理那内马尔为啥要巴萨砸违约金给你1e你能放吗？巴黎不砸2.2e你能放吗？利物浦也不是求着巴萨买啊你给够人家想要的价格自然放人啊咱不能啥事都可着自己吧？ 那就废了他！一点职业精神都没有 你觉得这种思维的货，这辈子跟买房能沾得上边吗？ 所以你爹一直让你汪汪汪？<br>所以你爹一直让你汪汪汪？<br>所以你爹一直让你汪汪汪？ 希望库鸟去了巴萨水土不服，跟阿森纳的小法一样，踢个一年踢不出来，对折再回利物浦... 海南东北垃圾。哈哈 芭莎有人吗？是人能去芭莎的。。。 库鸟，来巴萨吧！！等你很久了 所以合同期内不能转会？你利物浦挖那么多南安普顿的人哪个是合同到期自由转会的？ 商业社会重视的是综合博弈（包括情感、资金、追求等各方面），别说利物浦自己（从弱队引进球员），就是萨其马、尤文曼联等各顶级俱乐部，哪家不是运用了自己的综合影响力？！<br>所以别动不动用道德绑架，拿着个键盘感觉自己牛得一比（“喷粪机借此还能喷点粪”），其实却是傻冒得非同一般！按键盘侠的逻辑，他们最佩服的应该是暴发户了…… 3楼这智障，2楼这话啥意思都看不明白就跳出来骂，还误伤了友军(〜￣▽￣)〜 签合同是为了老东家能收到一笔可观的转会费，库鸟做人没得说 你别在这丢人了。赶紧去搬砖吧。要不今晚要挨饿了。 除了巴萨自己，哪个俱乐部受得了被这么挖人？ 做人不能太巴萨库蒂尼奥做人真狗 签合同时间长了可以，如果时间短了，在进入合同年以后，俱乐部就抬不起价了，而且球员自己就可以自由接触球队了。如果价格不合适，球员自由身离开，俱乐部得不到钱，损失的更多。就像阿四娜的桑切斯一样，球员拒绝续约，俱乐部不卖人的话一分钱都得不到。 利物浦全部是全款，凡迪克一次7500万镑，巴萨给的起1.5亿全款，可以卖啊，问题是你给不起，怪利物浦不放人？ 库鸟冬天来有什么用啊？？踢不了欧冠啊 可以放库蒂尼奥，但是巴萨又穷，尼玛的苏亚雷斯的钱都没给完，现在又要按揭库蒂尼奥，这个俱乐部是真的恶心，怪不得全民公敌 就像我们每个人上班工作一样，以前要的薪水比较低，那是因为能力不够，后来能力增长了，有大企业高薪招聘，或者有自己喜欢的行业，选择辞工很正常，即使以前签了10年合同。企业要留人通常需要升职加薪来表达留人的诚意，但是即使这样，很多人还是愿意走。如果企业强行按照合同留人，可以法院打官司，企业也要放人。每家企业都应该尊重员工的梦想。所以上面浙江那个说几个东北的不懂事，是有点道理的。 球员倒贴都要去的俱乐部，说明吸引力大，你牛比也让别人倒贴啊 所以你豿爹一直让你汪汪汪？<br>所以你豿爹一直让你汪汪汪？<br>所以你豿爹一直让你汪汪汪？ 每日厕所报夏天也说即将加盟，结果呢？ 每日厕所报 商业社会重视的是综合博弈（包括情感、资金、追求等各方面），别说利物浦自己（从弱队引进球员），就是萨其马、尤文曼联等各顶级俱乐部，哪家不是运用了自己的综合影响力？！<br>所以别动不动用道德绑架，拿着个键盘感觉自己牛得一比，其实却是傻缺得非同一般！按键盘侠的逻辑，他们最佩服的应该是暴发户了……，有奶便是娘啊！ 巴畜真是恶心 如果真是1.5亿、利物浦就放人吧！大家都好！ 说不定住的四合院，一辈子都不需要买房。 马竞前两天不也起诉了？巴萨不属于畜生球队的典范？ 又来…… 有钱的话任何合约都不是问题，说到底也就是生意而已。一手交钱一手交人，vvd都7500了，库鸟再报1.5e就没意思了。 你是你吗近个近亲生的产品？蛮子？ 呵呵你这样的人真是污染了杭州这地方 嗯。你家人不恶心。买车买房都是全款！你他妈那点钱够在北京买半个厕所吗？弱智？ 英超得罪切尔西，意甲得罪国米，德甲得罪多特，法甲和巴黎结下梁子，西甲和皇马不共戴天 强行全民公敌 其实上面5楼说的也有道理，站在利物浦的立场他希望坐地起价，收益越高越好，对于库鸟来说就是希望走人看，对于巴萨来说就是价格越低越好。那就谈判了，互相妥协。当然利物浦也可以完全不让步，也没有问题，库鸟也不让步，利物浦就把库鸟摁死在板凳上，库鸟反正就破罐子破摔，就每天啥事不干拿钱。相信利物浦也不会蠢得最后合同到期一无所有的情况，还白养一个球员这么久吧？？ 利物浦上赛季的表现明显不想让库鸟转会，库鸟能施加影响力的，只能是这种方式了<br>虽然是巴萨球迷，但我还挺希望库鸟留在利物浦，对渣叔的利物浦还是很有期待的！ 未来可以就行了，现在过来说不定可以给自己添加个欧冠冠军跟联赛冠军 所以说这个跟股票一样，有高价卖出的机会不卖，非拿在手里，最后腰斩成了垃圾股！以后库鸟就闹情绪，不上场或者出工不出力，利物浦高薪养着一个废物。这个需要利物浦自己选择。至于内马尔事件，跟这个一样。两家俱乐部都是希望坐地起价，我相信巴萨最后也是耗不起，毕竟内马尔已经铁了心要走，留着他还影响士气。大巴黎如果耗下去，相信最后1.5亿会成交，不过大巴黎也许觉得2.3亿也不贵，就买下了。 又是7楼这条口，浪费我文字跟你说理<br>对豿，爷从来都是直接开遛，7楼你不服再吠，吠完我继续曰你女良 所以叫巴畜？ 这傻×，如果当时巴黎就不给那个钱，和巴萨耗，巴萨也不会死拿着内马尔，因为内马尔已经铁了心要走，估计最后1.5就卖了。 罢赛真的很不职业，明明签了合同的，如果想留后路，你可以不签那么长时间啊 你是傻逼？我不看西甲 莫名其妙的，你说的和罢赛什么关系？有企业挖你你就能不上班逼迫让你走？ 带三星手机的那位杭州火星网友。您妈裸死在家，快滚去收尸 还有5楼拿了个键盘跟自己是跟暴发户似的，笑死你爹 减掉范迪克的钱还能撸一个好后卫 傻狗不要回我[喷水] 他们就希望买人的时候个个都像倒贴法一样，还分期付。然后自己标几亿的违约金，阻止别人买。 我不觉得，因为前面夏季转会时候已经说过了，俱乐部强留球员，以为不给机会库鸟就会死心，其实当时俱乐部就不尊重球员的愿望，而经过这么久，库鸟也认真打比赛了，到了冬季转会期，俱乐部还不放人，俱乐部就毫无理由。按照很多恒大狗屎球迷的逻辑，把球员摁死在板凳上也不给他转会的机会，这是可以的，要走就按照毁约赔偿。不过，这样高水平球员还愿意加入吗？ 想想曾经是我国米的人，哎…………………… 商业社会重视的是综合博弈（包括情感、资金、追求等各方面），别说利物浦自己（从弱队引进球员），就是萨其马、尤文曼联等各顶级俱乐部，哪家不是运用了自己的综合影响力？！<br>所以别动不动用道德绑架，拿着个键盘感觉自己牛得一比，其实却是傻缺得非同一般！按键盘侠的逻辑，他们最佩服的应该是暴发户了…… 还不知道真新闻假新闻就喷的这么热闹。。 然而就是你说的这个穷逼俱乐部一次次的虐你家主子，刚刚3比蛋历历在目。是不是很爽。 年薪不足别人周薪的人就不要妄自揣测啦 想起了倒贴法！巴萨果然有一套 人家有投票的权利，你们只有奴隶的命。 你买房没还贷完，还消费就是真恶心。 我再给你说一下，库蒂尼奥没有买断条约，利物浦不想卖，他合同期就走不了，巴萨有实力一次拿1.5亿出来？那个俱乐部多恶心全世界都知道，苏亚雷斯的按揭款都没给完，给不起钱买什么人？先把苏牙的账结了再bb行吗？又穷又想消费？去蚂蚁花呗提额吧 哈哈哈哈，哥们少说也有35岁了吧？ 你是在骂当时的贝儿和莫德里奇么？ 所以呢？要合同干嘛？球员说想走俱乐部就要放？说俱乐部不尊重球员？这样球员尊重俱乐部吗？合同是在你情我愿的情况下签的，你想毁约是俱乐部还得配合你？不然就是不尊重？再说了，利物浦也貌似表示过1.5亿一次性直接拿走！怎么？是不是还得利物浦倒贴你巴萨还要送祝福才算尊重球员？ 张琳的文章，满体育板块都闻着臭！ 这还不敲一笔，直接2亿起，不要就滚 与梅西合作，是多数球员的梦想。 我不觉得，因为前面夏季转会时候已经说过了，俱乐部强留球员，以为不给机会库鸟就会死心，其实当时俱乐部就不尊重球员的愿望，而经过这么久，库鸟也认真打比赛了，到了冬季转会期，俱乐部还不放人，俱乐部就毫无理由。按照很多恒大狗屎球迷的逻辑，把球员摁死在板凳上也不给他转会的机会，这是可以的，要走就按照毁约赔偿。不过，这样高水平球员还愿意加入吗？ 全民公敌都出来了一个愿意买一个愿意这样卖有问题吗花你钱了还是卖给你了搬你的砖吧 国米你是不是傻缺 如果这样没有职业操守那就废了他 对莱斯特城时，无球状态散步，拿了球带一两步意思一下，卖了吧。1.3亿现金可以卖给巴萨，巴萨耍小伎俩的话，8KW卖给大巴黎或者皇马 卖掉挺好的，再买个后卫和一个好兽腰还有剩的呢 贝尔莫德里奇都是罢训才转会成功的 做人不能太巴萨库蒂尼奥做人真狗 我就想不明白了，现在契约精神在这么多人眼里一文不值了？你表达转会意见没有问题，罢赛这事儿说不过去吧 dfhh 你说的这根本两回事简单来说巴萨想买出到利物浦想要的价格利物浦也不是不能放就好比你巴萨内马尔被挖一样你内马尔被挖2.2e哭天抢地骂大巴黎现在轮到你挖利物浦你还不让人家多要点？足球就足球转会就转会扯什么企业地域这tm是一回事吗 中后卫合适 没想到啊，没想到 评论里bb了一堆人，不妨碍人一周的工资顶你十年 该走就走，该来就来，何必把生意搞得这么僵 巴萨球迷知道合同？笑话，自己跟内马尔签了合同违约金，巴黎砸违约金球员也想去。他们还装无辜。到自己买人又一副我要你就得卖的嘴脸。他们哪有什么契约精神 世界上只有三个球员敢在己队2-1领先，比赛只剩2分钟，自己在边路拿球时不选择带球去角旗区护球而是强突对方中卫射门。这三个人是：克里斯蒂亚诺·罗纳尔多，莱昂内尔·梅西，伊戈沙碧·武磊 杭州司马孤儿火星网友 难道不是球员罢赛恶心？永不独行没深入洗脑呀，巴萨穷的过se？ 楼上自以为聪明，其实心里连最起码得职业道德都没有吧 库鸟就不该签约，其实大家都没想到内马尔走，导致巴萨这么需要库鸟！如果巴萨去年年初就追库鸟，库鸟估计也不会签约。或者签约里加入条款！五年长约对于一个不想长久球队的队员，其实是对俱乐部的保护！至少给俱乐部带回资金了！如果球员不签约，那就预示着明年夏天库鸟自由走，红军一个子都没有，问题是正好赶上世界杯年，所以球员为了世界杯屈服了，所以不敢赌，只能签约！这才是事实！总之，对于一个不想继续留的球员，能给球队带来1.5亿，也算帮老东家赚回培养费了！好合好散吧！ 所以合同期内不能转会？你利物浦挖那么多南安普顿的人哪个是合同到期自由转会的？ 库鸟的确有实力，但是巴萨一根筋，为什么不买德拉，德拉，德拉？德拉年轻有实力，在巴黎现在被马儿压着踢不上，论实力，不比库鸟差多少！ 我觉得他态度还可以，正常比赛时从来认认真真！只是他不想在这里而已，只要转会窗口不开，就12分认真！唯独当时他不该签约，话说他如果选择签约，5年估计不是他选择的，是他必须选择的！ 气死你个傻逼 强行全民公敌 北佬一直都是蠢 傻子 这事利物浦不放人于理没有什么不正确的，于情有点不近人情，球员不想效力了没必要强留，留得住人留不住心，对库鸟来说，你想去巴萨心情可以理解，但是得尊重俱乐部，签了合同俱乐部不想放你你不能用罢训的方式，要么你当初签的合同里就该加条款，对巴萨来说，你看上别人俱乐部的人可以，买人要人家愿意卖才行，每个俱乐部都有非卖品，你能协商，但不能联系经纪人让球员罢训，虽然皇马巴萨都喜欢这么干，但的确不地道，尤其赛季中期冬窗的时候，大家都有赛季任务，你把别人大腿挖走了对成绩肯定有影响，看看暴力鸟走了恒大的成绩就知道，这也是冬窗一般都是小修小补，很少有重磅交易的原因，至于你们调侃的分期不分期和附加条款那都不是事，大额交易基本全是分期带附加条款的，没什么不正常的，这事现在就是个三输的局面，利物浦输了球员心，库鸟输了球迷心，巴萨输了俱乐部心，但起因是巴萨，最大的输家也是巴萨，高层这操作手法真是脑残的一笔，库鸟真就是非买不可的么？ 厉害 猪思维 东北人还是真他妈。蠢 罢赛真的很不职业，明明签了合同的，如果想留后路，你可以不签那么长时间啊 巴萨管理层可以说是全民公敌了 人越没什么越爱秀什么，比如智商低的，爱说别人“蠢”。 说明巴萨更有吸引力，球员本人想去，就可以谈，你也可以不卖，强留 马桶也是累啊，天天得防这个防那个。。。。。。。。。。。。。。 这么直接 渣叔：酷鸟你个浓眉大眼的家伙也要背叛红军了？😂 罢赛，瞎扯蛋。明显轮换，刚踢完莱斯特，身体都没恢复就去踢伯恩利？利物浦还要踢欧冠，联赛，足协杯，不轮换搞屁。怎么不写阿扎尔不踢，是罢赛去皇马嘛？ 人家去年签约的时候还要成为利物浦的传奇呢，多忠诚啊 真不知道在广东人眼里，杭州算不算北佬.... 利物浦买后卫是先问南安普顿报价的，人家俱乐部要7500w，利物浦说成交，给钱就能买球员了。巴萨去鼓动一个还4年合同在身的球员罢赛闹转会，而不是直接报价，太无耻了，没王法了。 可以放库蒂尼奥，但是巴萨又穷，尼玛的苏亚雷斯的钱都没给完，现在又要按揭库蒂尼奥，这个俱乐部是真的恶心，怪不得全民公敌 巴萨今年夺冠基本上没有什么悬念了，可以不用花这么多钱，留着这么多钱明年再说，一年光利息也不少啊哈哈 可以转会啊，按合同来，没有违约金的合同，只双方都同意就行，有一方不同意你就得尊重合同，就这么简单。就像利物浦想3亿镑卖你到中超，你不同意，俱乐部也没办法，如果用不让你上场不让你训练的方法逼你就范，你觉得怎样？ 雇佣单位不愿意合同期间您就是不能转会，那些转会成功的都是双方谈妥了合同的，要碰到我国的那些流氓土匪S定了，让他几年没比赛打，宁愿不要钱也把他废了。 可以转会啊，按合同来，没有违约金的合同，只双方都同意就行，有一方不同意你就得尊重合同，就这么简单。就像利物浦想3亿镑卖你到中超，你不同意，俱乐部也没办法，如果用不让你上场不让你训练的方法逼你就范，你觉得怎样？ 全民公敌是按上去的？ 库蒂尼奥的水平算是最接近内马尔的边锋了 🚽表态不卖！给15亿都不想卖，和巴萨有过节了 芭莎有人吗？是人能去芭莎的。。。 对利物浦仁至义尽了别人，何必紧捏着不放呢，比赛全情投入，进了不少球。已经够了 巴🐶 巴萨这点我说实话真是看不惯，怎么总玩这个套路，一两个可能是球员问题，但是都这样明显是巴萨挑唆的 求发上看台 下一步再报萨拉赫😁 去了也就是第二个苏牙，踢不出什么鸟的。 我不觉得，因为前面夏季转会时候已经说过了，俱乐部强留球员，以为不给机会库鸟就会死心，其实当时俱乐部就不尊重球员的愿望，而经过这么久，库鸟也认真打比赛了，到了冬季转会期，俱乐部还不放人，俱乐部就毫无理由。按照很多恒大狗屎球迷的逻辑，把球员摁死在板凳上也不给他转会的机会，这是可以的，要走就按照毁约赔偿。不过，这样高水平球员还愿意加入吗？ 库鸟加盟，登贝莱复出，暴力鸟又得坐板凳了 能不能换家报纸 马桶要1.47亿巴萨报价1.5亿谁是傻逼 罢赛真的很不职业 替小白 看利物浦买范迪克那狠劲，估计他们已经做好库鸟走的准备了 在红军确实屁都捞不到，不走不行 做人不能太巴萨库蒂尼奥做人真狗 这孩子，谈判都不懂，心理战而已 每日体育报，厕所真需要 所以合同期内不能转会？你利物浦挖那么多南安普顿的人哪个是合同到期自由转会的？ 两亿欧现结，马上放人！ 这样好，巴萨高价引援逼着皇马也要加大投入。 皇家妈跌地如今排第几呢 皇马不跟？不进则退啊，本赛季就是这样的情况 不知道巴萨要他，好像年初才签的五年合同。<br>巴萨皇马这种俱乐部，球员们真的无法抗拒的吸引力，当年莫德里奇贝尔都是罢训才走的。 垃圾玩意 good 长约周薪高，当时他也不知道一年之后他会这么值钱 有钱可以谈，没钱别bb……分你奶奶个球分期[微笑] 昨天巴萨的赞助商不是宣布库蒂尼奥加盟巴萨了吗？ 钱不到位，一切免谈 罢赛真的很不职业，明明签了合同的，如果想留后路，你可以不签那么长时间啊 去你妈的马桶，满嘴喷粪 你这种傻逼摆明了就是出来挨骂的，就是没事干了让大家骂，本来懒得理你，但你是个什么东西 不要违约金和合同期长可以要多点好处，例如上场时间啊工资啊签字费什么的 渣叔：酷鸟你个浓眉大眼的家伙也要背叛红军了？😂 酷狗要走就走吧…… lulu🐶，你爹爹没得到尊重，去裁判更衣室抗议，被禁赛啦，还不去护主？？？😂😂 没办法，西班牙两个队，对南美球员诱惑力太大了，而且也有机会打主力，谁都会拼一次 巴萨有了库蒂尼奥才有宇宙队的意思 世界体育报 想去就去吧 罢吧，半赛季不打世界杯还有你位置吗 去吧去吧，我6卡说不定下赛季卖个好价钱 4000万浮动条款…真的很巴萨，哈哈哈 ",
        "Link": "http://comment.sports.163.com/sports2_bbs/D77BQE6D00058781.html",
        "Total": 2870,
        "Reply": 307
    },
    "Source": "Netease"
}