{
    "Source": "Netease",
    "PublishTime": "12/25/201719:45:17",
    "KeyWords": "房票,武汉,住房,户籍",
    "Title": "武汉拟推人才\"房票\":非本地户籍者可持票购首套房_网易新闻",
    "Comment": {
        "Link": "http://comment.news.163.com/news2_bbs/D6HC7T4I0001899N.html",
        "Total": 562,
        "Content": "屌丝们看见吗？你有钱也拿不到🏠，何况你没钱啊，嘿嘿。 人家武汉就是有创新，大学生多不是没道理的。 就这样还要人家承认是市场经济？！ 改来改去，还是老样子，掐住百姓命门。 回到票时代 扭曲畸形的房产市场背后是官商勾结榨取经济利益。<br>房产导致国家发生经济危机金融危机必须追究法律责任！ 票也可以拿来卖了，高 搞的好像有套房子就像找到干爹一样！ 坚持房炒不住 这种官员应该审查，官商勾结利益输送。 武汉又出给力新政，非本市户籍个人可以凭房票在武汉市范围内购买首套住房。 对我们大学生来说真的是好消息。准备落户武汉 新政留人，建设大武汉，发展到武汉。 文件还明确，房票实行实名制，不得提现，转让和赠予。 社会治理体系更加完善，社会大局保持稳定，国家安全全面加强，大胸怀 走进新时代，迈向新征程，武汉每天不一样。 武汉威武，留人才诚意满满的 为了留住人才，武汉全力出击。有幸啊 房票哈哈哈厉害 期待武汉明天更加灿烂辉煌。 太给力了 武汉市发布的突破性发展民营经济的政策措施，公布了推动民营经济突破性发展的16条措施，其中提出，对生产经营规模和财政贡献达到相应标准的行业骨干企业，可以向其发放人才购房房票。 抢抓当下，立足长远 武汉将从三镇时代迈向长江时代。 规划先行，规划引领，高点定位，超前定位。 房票只发放之日起，有效期24个月，没有在有效期限内使用的，自动失效。 据悉，房票的发放标准由各主管部门根据行业管理实际情况另行制定。 敢为人先，武汉敢想敢做未来不可限量。 厉害了我的武汉 快把具体规定公布吧 武汉是潜力股城市，未来武汉的发展无可限量 把武汉建设成为世界亮点城市，实现武汉伟大梦想。 具体细则要快点出来啊。 好想能有一张 留住人才的举措进一步落细落地，欢迎大学生留在武汉，共同建设美好武汉 武汉房产政策出新招，棒 人才是第一生产力 企业人才评房票可以在武汉购买首套住房，并享受补贴，持票人由企业自行确定，但是一个企业不超过20人。 非武汉市户籍个人评房票，可以在武汉市范围内购买首套住房，即持有房票的，非武汉市户籍个人，可以不受限购政策制约购买首套住房。 武汉每一天真是不一样，发展太快了，新政策层出不穷。 放宽购房政策，留住人才，建设大武汉 不留余地的政策各种扶持，如此武汉，怎能不爱 聚力武汉，江城明天会更好 民营经济新突破 人才的未来越来越多 聚力武汉搞事情，江城明天会更好 文件明确规定，房票是对达到相应标准的企业以及各类创新创业人才，政府发放用于租购房屋的补贴凭证。 为大武汉喝彩，大武汉明年的幸福指数一定会更好，我为生活在这座城市而骄傲！ 拿出最好的政策给人才购房，这体现出武汉的胸怀 武汉的新政策利于留住人才，共谋发展，勇敢闯 武汉站在新时代的关口，人才政策真给力 好消息 留住人才，好政策 拿出最好的政策给人才购房，这体现出武汉的胸怀！ 招才引智，房票政策，武汉留住人才诚意满满 中国特色社会主义进入新时代，意味着近代以来久经磨难的中华民族迎来了从站起来、富起来到强起来的伟大飞跃，迎来了实现中华民族伟大复兴的光明前景 武汉用各种优惠政策吸引人才留下来 想法设法留住人才 票房继续涨! 现在武汉大学生真是赶上了好时候啊 政策落实需加强监管 人才储备 我们的国家稳定解决了十几亿人的温饱问题，总体上实现小康，不久将全面建成小康社会！！ 赞赞赞，棒棒哒， 只有社会主义才能救中国，只有改革开放才能发展中国、发展社会主义、发展马克思主义！ 武汉放宽政策，只为留住人才 为了留住人才，武汉全力出击。 武汉的新政策利于留住人才，共建美好大武汉。 武汉的新政策利于留住人才，共谋发展 赞赞赞，棒棒哒 人才政策持续发力，武汉留人才诚意满满。 留住优秀人才，共建美丽武汉 人才是第一生产力！ 生逢其时 抢抓当下，立足长远! 文化自信是一个国家、一个民族发展中更基本、更深沉、更持久的力量。 加油啊 武汉威武，留人才诚意满满 武汉用各种优惠政策吸引人才留下来！ 留住人才的举措进一步落细落地，欢迎大学生留在武汉，共同建设美好武汉！！ 抢抓当下，立足长远! 撸起袖子好好干啊 改革全面发力、多点突破、纵深推进，着力增强改革系统性、整体性、协同性 明确新时代我国社会主要矛盾是人民日益增长的美好生活需要和不平衡不充分的发展之间的矛盾，必须坚持以人民为中心的发展思想，不断促进人的全面发展、全体人民共同富裕 社会治理体系更加完善，社会大局保持稳定，国家安全全面加强。 人才强市！ 人才政策持续发力，武汉留人才诚意满满 放宽购房政策，留住人才，建设大武汉。 人才政策持续发力，武汉留人才诚意满满，未来可期 拿出最好的政策给人才购房，这体现出武汉的诚意 武汉好强 每天不一样的武汉 武汉一直都在改革创新中 为留住人才武汉做得很贴心。 厉害了 好政策留住大学生，我愿意留在武汉 武汉的政策越来越好，真棒 这个很给力，就是还不知道具体规定 来了就是武汉人，武汉大气魂大手笔大希望！ 期待着 建议把程序公开搞好！！！ 奔跑吧，大武汉！ 房票房票！ 来吧，同学们，我在武汉等你 有些人这也能黑，看不懂 武汉房产政策出新招 好措施，好政策! 惠民之举 房产是最大的民生。武汉高度重视民生工作，提出来一系列惠民生的创新之举，真心觉得好。 大武汉有大气度! 招才引智，武汉留住人才诚意满满 多留住人才振兴我大武汉 为了留住人才，武汉拿出了足够的诚意，明天会更美！ 好事一件啊！！！ 利民举措 又一吸收人才之举 留住人才留住武汉未来 武汉好政策留人才 留住人才，靠好的政策。 武汉正在用越来越好的政策吸引人才留下来 使用“房票”所购住房取得不动产权证满5年后方可上市交易，限制投机炒房。 真的好棒 还不错呀 留住人才才能发展的更好。 持有“房票”的非武汉市户籍个人，可不受限购政策制约，购买首套住房，留人才的好政策。 不留余地的政策各种扶持，如此武汉，怎能不爱！ 武汉留下人才的一系列政策真棒 武汉政策极大便利了非武汉籍人士的买房需求 看过具体内容，2年执行期限有点短吧！！！ 希望以此留住更多的人才。 留住人才，武汉有有新动作 求具体适用标准！！！ 让知识体现她应有的价值！ 建议武汉户籍的也应该纳入！！！ 公开征求意见，也是汇聚民意和民智的举措! 留人不拘一格 购房渠道越来越多 政策越来越好 房票，牛！ 灵活又不失原则，为留住人才武汉做得很贴心 好政策，留人才，促发展，必须打call 就这里了，不走了 留住人才，人才战略 很好哟，非常棒 武汉敢超北上广 武汉是一个包容性非常强的城市，这个政策好，但要避免被有心人利用 有房才有家，有家就有人愿意留下！ 招揽人才武汉在行动！ 让新生力量有个新家，为新型武汉增添新力量 为了留住人才，武汉全力出击 是人才总会被亲睐！ 好政策! 武汉，每天不一样，武汉政策好！ 看发放标准了 户口本子、工作位子、购房票子，武汉这是开外挂了啊！！！！ 政策是放宽啦 期待武汉大腾飞。 就这么定了，不走了 武汉欢迎你 在求实的基础上求新，就是王道！！！ 满满的节日福利啊！！！ 现在的大学生真是赶上了好时候啊。 留住大学生，就是留住人才。 武汉在向人才招手 只有留住人才，武汉才有未来 我大武汉有大气度! 为武汉大胆创新点赞 实施效果拭目以待，但武汉不断提高，谋求发展之心有目共睹！ 武汉拼了，就为留住人才 我觉得政策挺好的 让优秀人才有房可住！ 武汉政策服务好，相信会有越来越多的优秀人才留下来 就这样还有人不高兴 你内心是有多阴暗 武汉站在新时代的关口，等你来。 我爱大武汉 武汉喊你来呀，同学们 好政策才能留住大好人才，武汉大有魄力！ 5年不能卖 武汉做了这么多，就为了留住人才，真心与诚意可见一斑 措施实，有魄力！ 为了抢占人才，武汉也是很拼的 广留人材，用实际行动来回应 武汉加油，留住人才吧。 一定会赢得大家的支持! 新政策，有创新，点赞 留住优秀人才，共建大武汉 惠民利民之举！ 这个票，不同于计划经济时期的票! 武汉，加油 坚持房炒不住 寻求新模式，武汉一直在进步！ 人才是核心竞争力 武汉，人才可期，未来可期，复兴可期，唯人民不可欺。 改来改去，还是老样子，掐住百姓命门。 你不要？我觉得很好，不管什么方式，有利于人才的难道不应该鼓励 一定要加强监管！！！ 不是说武汉什么人才战略么，这又开始打脸了不是，装逼装的痛苦的 不知所云 实施好人才战略 人才也能用标准评出来？ 这政策不好吗，非得在这酸 这个票，不用于计划经济时期的票! 为了留住人才，武汉拿出了足够的诚意。 希望本地人也能有房票。 武汉政策好，全国的大学生留下来，留下来！！！ 不知所云，你以为市场经济就没补贴没奖励了 这种官员应该审查，官商勾结利益输送。 回到票时代 实名制，不得转让，买卖，赠与! 武汉最需要的是法治化和提高人民素质 就这样还要人家承认是市场经济？！ 你有才我给房！ 看来5年留住百万大学生的目标要提前实现了！ 武汉的未来不可限量 大武汉的极不平凡的2017+大留人才+引智引资+决策落实。2018大武汉必有各行各业的新景像，大武汉的各项惠民政策会更好！ ",
        "Reply": 223
    },
    "Article": "（原标题：（社会）武汉拟推人才“房票”非本地户籍个人可持票购房）新华社武汉12月25日电非本市户籍个人凭“房票”，可在武汉市范围内购买首套住房……近日，武汉市住房保障和房屋管理局发布《武汉市房票(人才住房券)使用管理办法(试行)》，公开征求意见。今年7月，武汉市发布《突破性发展民营经济的政策措施(试行)》，公布了推动民营经济突破性发展的16条措施。其中提出：对生产经营规模和财政贡献达到相应标准的行业骨干企业，向其发放人才购房“房票”，企业人才凭票可在武汉购买首套住房并享受补贴，持票人由企业自行确定，单个企业不超过20人。征求意见稿明确规定，“房票”是指对达到相应标准的企业以及各类创新创业人才，政府发放用于租购房屋的补贴凭证，发放标准由各主管部门根据行业管理实际情况另行制定。征求意见稿规定，非武汉市户籍个人凭“房票”可在武汉市范围内购买首套住房。即持有“房票”的非武汉市户籍个人，可不受限购政策制约，购买首套住房。征求意见稿还明确，“房票”实行实名制，不得提现、转让和赠与。“房票”自发放之日起，有效期24个月，未在有效期限内使用的，自动失效。此外，按照规定，使用“房票”所购住房取得不动产权证满5年后方可上市交易。本文来源：新华社责任编辑：徐萌_NN7485",
    "URL": "http://news.163.com/17/1225/19/D6HC7T4I0001899N.html"
}