{
    "Article": "（原标题：北京拟对黑车载客运营扣车罚款金额1万到3万不等）《北京市查处非法客运若干规定（草案送审稿）》昨天起在市政府法制办网站公开征求意见，其中对非法运营、假冒巡游出租等车辆规定了查处措施，明确未经许可擅自从事出租汽车客运经营活动的，扣押车辆，并处以罚款。草案规定，未经许可擅自从事出租汽车客运经营活动的，扣押车辆，责令停止经营活动，没收违法所得，没收非法安装的顶灯、计价器等巡游出租汽车专用营运标识和设施，并处以罚款。未经许可擅自从事道路运输班车客运、包车客运、旅游客运经营活动的，按照道路运输相关法律法规依法查处。擅自利用其他车辆从事客运经营活动的，扣押车辆，责令停止经营活动，没收违法所得，并处以罚款。情节严重的，对非法营运车辆予以没收。对喷涂巡游出租汽车专用车身配色和图案标识，假冒巡游出租汽车的行为，草案送审稿有专门规定：除巡游出租汽车外，禁止对其他汽车喷涂巡游出租汽车专用车身配色和图案标识、安装专用营运标识和设施。假冒巡游出租汽车的，由交通行政执法部门没收其车辆和装置的营运标识、设施，并可处以1万元以上3万元以下的罚款。对查处的从事非法客运的车辆，草案送审稿规定，被扣押车辆属于拼装车辆的，由扣押车辆的执法部门移送公安机关交通管理部门依法处置。被扣押的车辆达到报废标准的，由公安机关交通管理部门依法公告车辆登记证书、号牌、行驶证作废后，由扣押车辆的执法部门告知当事人在三个月内自行报废车辆，逾期未报废的，依法予以强制报废。此外，草案送审稿规定，对违法行为人由查处部门记入信用记录，并依照相关法律、法规的规定予以公示。本文来源：法制晚报-看法新闻责任编辑：苏泓珵_NBJ9980",
    "URL": "http://news.163.com/18/0103/11/D77JVS9900018AOR.html",
    "KeyWords": "运营,非法,黑车,客运",
    "PublishTime": "01/03/201811:03:54",
    "Title": "北京拟对黑车载客运营扣车罚款 金额1万到3万不等_网易新闻",
    "Comment": {
        "Content": "举报一辆奖励5000 举报有奖没？亚运村周边几个城铁站，尤其是大屯东，大屯倍，黑车群聚，每天高峰期非高峰期，动辄把交通弄得混乱不堪 举报一辆奖励5000 举报有奖没？亚运村周边几个城铁站，尤其是大屯东，大屯倍，黑车群聚，每天高峰期非高峰期，动辄把交通弄得混乱不堪 稀里糊涂的过也不缺钱真好 还好还好，我买的白色 ",
        "Link": "http://comment.news.163.com/news2_bbs/D77JVS9900018AOR.html",
        "Total": 10,
        "Reply": 4
    },
    "Source": "Netease"
}