{
    "URL": "http://news.163.com/17/1231/21/D70VIK3N0001899N.html",
    "Article": "【自己作死别人遭殃美国男子报假警致无辜市民被射杀】25岁的巴里斯28日晚打电话给美国堪萨斯州威奇托市警方，谎称他开枪打中父亲头部，正用枪指着母亲和其他家人并要烧房子。警方包围“案发现场”并准备“解救人质”。警察命令一开门男子举起双手走出来，其间他伸出一只手移向腰部，警察误以为他要拔枪于是开枪击中他并导致其死亡。警方没有公开死亡男子身份。巴里斯已被捕，他曾于2015年两次报警谎称一电视台有炸弹，后被判两年监禁。全美每年发生约400起类似恶作剧。本文来源：新华国际责任编辑：徐萌_NN7485",
    "KeyWords": "报假警,无辜者,警察",
    "Source": "Netease",
    "Comment": {
        "Reply": 23,
        "Content": "假借jc之手报仇，实在是高 开门男子：我只是腰不好…… 其实有统计，黑人被打死的比例比白人低。只是一有黑人被打死就有人闹，还有媒体煽风点火。 求大神教下怎么喷 一年才400起 记得《不见不散》里葛优讲：千万别动，他们是真开枪！ 我去。这个人是不是应该一命抵一命…… 看来作家不分国籍 看来报复一个人很容易:只须报个警，然后让警察帮解决。 哪也得看什么人，如果是黑人你就是趴在地上不动，有时候也会被打死。 美国被jc射死的一年一千多，都是不听话的或者耳朵不好的 开枪一口气打光所有子弹的感觉真好 假借jc之手报仇，实在是高 求大神教下怎么喷 其实有统计，黑人被打死的比例比白人低。只是一有黑人被打死就有人闹，还有媒体煽风点火。 腰不好就可以掏前面那个了吗 哈哈，大美帝国牛逼！ 记得《不见不散》里葛优讲：千万别动，他们是真开枪！ 真的是作死 这人的脑子是不是打滴滴去酒吧了 看来报复一个人很容易:只须报个警，然后让警察帮解决。 美国被jc射死的一年一千多，都是不听话的或者耳朵不好的 我去。这个人是不是应该一命抵一命…… 真惨 在美国真幸福！ 一年才400起 报假警应该严惩 开门男子：我只是腰不好…… 看来作家不分国籍 这个杂种一看就是某某教的 哪也得看什么人，如果是黑人你就是趴在地上不动，有时候也会被打死。 猪一样的暴力斯。 歹徒:玩真的啊 开枪一口气打光所有子弹的感觉真好 杀了吧 ",
        "Total": 307,
        "Link": "http://comment.news.163.com/news2_bbs/D70VIK3N0001899N.html"
    },
    "PublishTime": "12/31/201721:11:47",
    "Title": "自己作死别人遭殃!男子报假警致无辜者被警方射杀_网易新闻"
}