{
    "PublishTime": "12/27/201710:57:48",
    "Source": "Netease",
    "Comment": {
        "Link": "http://comment.news.163.com/news2_bbs/D6LJ3LT800018AOR.html",
        "Total": 3,
        "Reply": 2,
        "Content": "蔡英文在玩火，最后成为罪人，三思而行 这是准备走出大陆，走向台湾，走出国门吗 "
    },
    "Article": "（原标题：滴滴出行被曝开始在台湾招募司机国台办回应）海外网12月27日电国务院台湾事务办公室于27日上午10:00举行例行新闻发布会，国台办新闻发言人安峰山主持。环球网记者：第一个问题，台湾“妇联会主委”、辜振甫先生的遗孀辜严倬云女士日前遭到台内政部门的强令撤换。发言人对此有何评论？第二个问题，有报道称，中国最大的叫车平台滴滴出行开始在台湾招募司机，加入载客服务。发言人能否予以证实，对此是否乐观其成？安峰山：您的第一个问题，对岛内的事务，我不评论，相信岛内社会舆论自有公评。您的第二个问题，我不太了解这个情况。滴滴出行应该是大陆在互联网经济时代出台的一个一站式、多元化的出行平台，很多大众民众都由此享受到了便利的出行服务。两岸在互联网经济领域加强交流合作，利于增进两岸同胞的利益福祉，是互利双赢的事情，应该以平常心看待。本文来源：海外网责任编辑：何雨芳_NN5632",
    "Title": "滴滴出行被曝开始在台湾招募司机 国台办回应_网易新闻",
    "URL": "http://news.163.com/17/1227/11/D6LJ3LT800018AOR.html",
    "KeyWords": "国台办,滴滴出行,台湾,安峰山"
}