{
    "Source": "Netease",
    "PublishTime": "12/26/201720:57:47",
    "KeyWords": "张继科,健康",
    "Title": "张继科为爸爸庆生 一家三口合影被赞都是高颜值_网易娱乐",
    "Comment": {
        "Link": "http://comment.ent.163.com/ent2_bbs/D6K2PCAF00038FO9.html",
        "Total": 25,
        "Content": "极速前进中的坑爹货，粉转黑了 妈妈年轻时应该挺漂亮的 妈妈挺美的 父母高颜值 妈妈年轻时应该挺漂亮的 不高吧 还不错…… 妈妈挺美的 他颜值不高....我在考虑要不要换 极速前进中的坑爹货，粉转黑了 爸爸善良 真喜欢继科哥哥 ",
        "Reply": 9
    },
    "Article": "张继科与父母张继科与父亲网易娱乐12月26日报道12月26日晚，张继科晒和爸妈的合影，为老爸庆生，配文写道：“到底59还是60呢？老爸生日快乐！！！”照片中，张继科爸妈穿着喜庆的红衣服，张继科将手分别搭在爸妈肩上，温馨幸福。对此，网友纷纷送祝福：“科爸爸生日快乐，身体健康！”“祝公公生日快乐。”本文来源：网易娱乐责任编辑：胡梦瑶_NK5655",
    "URL": "http://ent.163.com/17/1226/20/D6K2PCAF00038FO9.html"
}