{
    "Title": "全球进入新年倒计时 这个国家将最先踏入2018_网易新闻",
    "PublishTime": "12/31/201719:23:00",
    "URL": "http://news.163.com/17/1231/19/D70PLHNK000187V9.html",
    "Source": "Netease",
    "KeyWords": "太平洋,新年,汤加,岛国",
    "Comment": {
        "Reply": 2,
        "Content": "挽尊 大沥人发来贺电 ",
        "Total": 2,
        "Link": "http://comment.news.163.com/news2_bbs/D70PLHNK000187V9.html"
    },
    "Article": "（原标题：全球进入新年倒计时南太平洋岛国汤加将率先踏入2018）【环球网综合报道】新年的钟声即将敲响，据英国《电讯报》报道，南太平洋岛国汤加将率先踏入2018年。美国一些偏远的岛将最晚进入2018年，比如Baker岛和aHowland岛，不过这些都是无人岛。而最晚进入2018，又有人居住的岛为美属萨摩亚。那里将在伦敦时间1月1日上午11点迎来新年。本文来源：环球时报-环球网。更多精彩，请登录环球网http://www.huanqiu.com责任编辑：李杭_BJS4645"
}