{
    "Title": "华为：2017销售收入预计约6000亿 同比增长约15%_网易科技",
    "URL": "http://tech.163.com/17/1229/10/D6QMRTR200097U7S.html",
    "Source": "Netease",
    "Article": "网易科技讯12月29日消息，华为轮值CEO胡厚崑新年献词中透露，2017年华为全年销售收入预计约6000亿人民币，同比增长约15%。值得一提的是，三大业务中，手机业务取得了不错的成绩：华为手机全年发货1.53亿台，全球份额突破10%。另外，胡厚崑还表示2018年华为三十而立，要立志把数字世界带入每个人、每个家庭、每个组织，构建万物互联的智能世界。（崔玉贤）以下是全文华为轮值CEO胡厚崑新年献词东风好作阳和使，逢草逢花报发生。2017年，全球经济整体复苏向好，ICT行业在进行产业结构性变革和调整的同时，仍保持着稳健发展，华为聚焦管道战略，加强经营质量管理，坚持为客户创造价值，全年销售收入预计约6000亿人民币，同比增长约15%。在此我代表公司管理团队，向全体员工的努力奋斗与奉献致以最诚挚的谢意！运营商业务受到市场投资周期波动的影响，但仍保持了稳健经营。市场的波动也让我们更坚定地与客户一起探索与把握网络建设从“投资驱动”向“价值驱动”转变的趋势，华为助力全球运营商一方面立足现实，以品质家宽、全场景站点、MobileMoney等创新解决方案，挖掘数十万亿美元现网资产的潜能；另一方面，面向未来，加速5G预商用测试，建设以数据中心为核心的全云化网络和数字化运营运维系统，为个人、家庭、企业用户提供视频、IoT、云通信等极致体验的业务，实现新增长。企业业务着力于加速全球企业数字化转型进程，不断强化云计算、企业园区、数据中心、物联网等创新产品和解决方案，并在智慧城市、平安城市以及金融、能源、交通、制造等行业得到广泛应用。华为通过领先的“端、管、云”全栈式ICT解决方案，帮助客户进行ICT基础架构的顶层设计，同时基于“平台+生态”战略，与合作伙伴共同打造企业数字化转型所需的生态链。目前，197家世界500强企业，45家世界100强企业选择华为作为数字化转型的合作伙伴。企业业务正呈现出喷薄欲出的活力与潜能。消费者业务在打造“世界级智能终端品牌”的道路上不断突破。2017年，华为与荣耀双品牌并驾齐驱，用户忠诚度不断提升，市场规模快速增长，华为（含荣耀）智能手机全年发货1.53亿台，全球份额突破10%，稳居全球前三，在中国市场持续保持领先。华为新推出的Mate10成为首款加载人工智能芯片的手机，我们为消费者带来了真正意义上的、足以称为由AI主导的智能手机。未来将不断洞悉消费者需求，探索智能社会行业变革方向，在AI、AR等领域积极创新，引领行业发展趋势。我们新成立了云BU，旨在携手合作伙伴，为客户提供稳定可靠、安全可信和可持续演进的云服务。华为云的服务从2016年底10大类45个增加到14大类97个，上线包括制造、EI企业智能、电商、SAP等50多个解决方案，自从云BU成立后华为云的用户数、资源使用量都增长了3倍。同时，推出公有云合作伙伴计划，全年发展伙伴超过一千家。展望未来，5G、物联网、云计算、人工智能等新兴技术迅速走向规模化商用，行业数字化转型正进入深水区，以“万物感知、万物互联、万物智能”为特征的智能社会即将来临。我们既要关注满足客户长远需求的产业和技术,把握技术创新与商业变革的趋势；更要关注客户在数字化转型过程中所遇到的现实挑战，通过帮助客户解决问题实现商业成功来持续为客户创造价值。华为未来能够继续成功的关键在于两点：一方面，战略要瞄准正确的大方向，但并不追求精确，要为适应不确定性留下调整的空间；另一方面，要让日益庞大的组织始终充满活力。要做到上述两点并不容易，我们要有战略自信，坚定不移地往前走。战略上，华为聚焦万物互联主航道，努力成为智能社会使能者和推动者。我们要有所为、有所不为，不能在非战略机会点上消耗战略竞争力量，就像高尔夫击球，只有击中球杆头部的“甜蜜点”才能不损失能量获得最远的击球距离。万物互联我们要敢于领先，持续扩大优势；万物感知我们只聚焦在其中的连接和边缘计算、分布计算，持续构建并巩固优势；万物智能是行业知识和信息技术相结合的结果，我们聚焦云计算和大数据人工智能平台、On-DeviceAI，使能电信网络智能化及各行各业智能化，也用于内部管理的智能化。战略思考要视野开阔、着眼长远，经营管理则要放低重心、脚踏实地。面对复杂的业务形势，我们既要实事求是，挤掉泡沫和水分，通过工作重心下沉切实提升经营质量；又要勇于挑战、敢于冲锋，抓住市场增长的机会，从容应对市场波动。经营管理工作是苦活、累活、细活，是综合性的系统工作，需要长时间的努力建设。代表处是公司最基层的，也是最重要的经营单元，公司各项管理动作要围绕帮助代表处提升经营质量，从一线到机关、再从机关到一线，围绕战略、机会、目标、打法、资源配置形成共识与合力，真正把工作做细、做实，来实现创造机会、挖掘机会、把握机会。运营商业务要跑赢行业大势，提高合同质量、积极寻求增长；企业业务要持续中高速增长，确保在5年内成为公司的业务顶梁柱；消费者业务要夯实基础、继续良好的发展势头并不断提高盈利能力；公有云业务要按既定战略投入,提高产品竞争力，集中精力追求规模增长。我们要以“春雨润物细无声”的方式呈现价值与贡献，获得信任，持续改善、软化商业环境，使之与公司未来千亿美元规模相匹配，在更高层面支撑业务发展。华为的价值循环平台将是全产业链的价值创造与分享，我们要用好最优秀的资源，在资源多、政策好的地方加强布局，构建产业生态圈。同时，要提升对风险内控、合规运营的监管能力，建立危机预警及管理机制，守护好企业形象。继续坚持从成功实践中选拔干部，让更多有使命感和责任感，具备战略洞察能力和决断力，富有战役管控能力，崇尚战斗意志和自我牺牲精神的员工走上各级重要岗位。2017年我们完成了对4500名优秀员工的破格提拔；2018年将继续对6000名员工破格提拔，其中3000名在15、16级，2000名在17、18、19级，其他职级1000名。代表处是公司实现健康经营、有效增长的关键经营单元，要加快代表处代表等一线主官、专家及职员岗位的干部选拔，公司对艰苦国家及地区将推行“蒙哥马利”计划，打通从“二等兵快速晋升到上将”的流畅通道。谁说撒哈拉沙漠没有将军，蒙哥马利不是吗？坚持论责任结果而不论资历，实事求是地根据其责任结果提升这些员工的职级；同时，要看到日益复杂的业务环境对一线主官的能力提出了更高的要求，因此要加快对一线主官的赋能，提高他们的任职能力，使他们敢战而且善战。加快职员队伍的建设，对确定性工作及时、准确、快速、精细化管理。加快代表处专家队伍的全能化建设，培养选拔一批能文能武的文职将军。各经营责任中心的主官要聚焦作战与胜利，以商业成功与持续成功作为唯一衡量准绳，坚持驱动发展与防范风险的并重、坚持短期收益与长远发展协调平衡；公司高层干部要多仰望星空，引领公司前进的方向。各级主官和专家要学习向坤山、满广志，真正深入业务场景去了解业务，发现和解决问题。要敢于使用先进武器，打赢复杂的信息化战争，不要用汉阳造的悲怆文化掩盖主官的无能。努力奋斗的优秀人才是公司价值创造之源，我们坚持“积极、多元、开放”的人才观，构建公司与人才同创共赢的人才管理机制。面对更加动态变化的商业环境、更加复杂的内部业务需求，对外要打开组织边界，用多种方式整合优秀资源，“一杯咖啡吸收宇宙能量，一桶浆糊粘接世界智慧”；对内要敢于破格提拔优秀人才，给优秀人才更多成长的机会；要大胆地开展各类人才的差异化管理，形成主官、专家、职员各司其责的人才结构，促使各类人才能在最佳时间、最佳岗位，作出最佳贡献，获得最好回报。为适应公司更加复杂的业务结构，我们要逐步建立起集团统治与各业务单位分治并重、责权清晰、运作高效、监管有效的分布式组织运作模式，让各业务在集团共同价值的管控下和共同平台的支撑下自主生长。我们的组织阵形要灵活，从集团到地区部、国家，队形能张能收；我们的组织规模要有弹性，需要资源的时候能得到，不需要资源的时候就释放掉。坚定不移地继续推进公司经营重心的前移，加强项目型组织的运作，真正实现一线指挥炮火，机关支撑服务。要通过经营责权前移后的反向运作梳理和一线评价机关机制的建立，努力实现机关职能向平台化、服务化、市场化的转变，从而大力推动机关组织的精简与合并，减少冗余低效的管理层级。继续坚持“以客户为中心、以奋斗者为本、长期艰苦奋斗”的价值观不改变，坚持“责任结果导向”的评价原则，贯彻“物质文明和精神文明”双轮驱动，将组织的愿景使命与员工个人的工作动机相结合，不断激发组织与员工追求更高成功的内在动力。在内外合规、责任自担的基础上，基于信任进行管理，促进各类组织与干部员工主观能动性的发挥。要通过简化过程KPI、增强协同考核等方式，重塑“胜则举杯相庆，败则拼死相救”的群体奋斗精神。2018年，华为三十而立，风华正茂。未来二三十年，人类将进入智能社会。面向新的时代，华为立志：把数字世界带入每个人、每个家庭、每个组织，构建万物互联的智能世界。这既是激发我们不懈奋斗的远大愿景，也是我们所肩负的神圣使命。寻芳陌上花如锦，折得东风第一枝。充满希望和活力的新时代已经到来，相信多年后，你我仍会因身在华为、历经这样的奔腾年代激动不已。在此，恭祝各位同事和你们的家人们新年快乐。2018年，让我们一起拥抱更多的收获和成长，创造更加美好的未来！本文来源：网易科技报道责任编辑：王凤枝_NT2541",
    "PublishTime": "12/29/201710:44:08",
    "Comment": {
        "Total": 3905,
        "Content": "你全家是汉奸[窃笑] 呵呵<br>好一个东欧非洲市场，穷得一塌糊涂的地方基建有几个钱？东欧不先给欧洲的爱立信阿尔卡特之类的做啊？<br>那点市场包得住成本吗？国内通信的基建华为不拿到手，能做到今天这么大？ 小米最良心，iphone算个求。雷军说了三年干掉苹果 国内电信设备制造商有国企的大唐，中兴等公司，为啥只支持华为？<br>华为电信设备收入海外占比将近5成，难道国内电信公司垄断到国外去了？ 有证据么？没有的话这话可以负责任了 手机1.53亿台，海军眼里平均每台3000块朝上，怎么也得有4500亿的营收，还不是大头吗？不是大头不打脸吗？ 海军收入有没有增加？ 去干6L家女的！！出击！！！！ 人家苹果出货量华为能比 华为还是不错的。家里的路由器用了好多种都不理想，就现在的华为路由器还行 华为终端一悲剧，就无法增长了。楼上说的没任何问题。华为就是靠国内电信基建发家的 除了公司派发，水狗自用，国企采购，移动定制，装宽带送的黑白屏非智能机电子垃圾，3500以上的销量能有苹果一个零头就不错了 华为是三星的五分之一 等着喷子[狗] 不错，不错。拿华为手机的网友更牛逼了。什么时候送我一个？ 跟贴被火星网友带走啦~ 大绿很多煞笔的喷子，华为是靠自己在海外拼出来的！大绿唯一一个能在国外赚到钱的高新企业。华为做到世界500强时，国家才重视这个民企。试问世界500强放到哪个国家哪里不收重视？楼上的大绿朱多读书，别让我们人看不起你！ 自己维护个系统和软件市场还要研发，哪像某些手机，用着别人的安卓和公版配件，成天自行高潮。 华为6000亿，小米1000亿，差距还不是一般大啊 牛逼 额，明明就是从非洲东欧起家再回大陆打市场的…… 毕竟是偷工减料，成本低利润高。 我只用iphone 锤子🔨手机📱只是看看——罗永浩 苹果低配？这世界上还有比苹果更高配的手机？苹果是高配高价，你搞清楚。 1.53亿台，每台3000，怎么也得有4500亿人民币吧，还是说手机卖的都是低端机或者单位免费发的？😅🔫🔫🔫🔫 1L家已经没人了！！！！！ 手机真成主业了 一个被世界五百强，世界一百强认可的通讯技术，被一群屌丝喷的体无完肤。可笑 你知道个屁 切可不是贱卖好不好！第三世界可知道这钱不是自己的，干嘛要跟华为砍价？华为开多少价就是多少 手机利润不到一百亿居然都是主业，你让每年利润五六百亿的华为去哪偷另外四，五百亿利润，煞笔！ 国家要拨款也是拨给中兴这种亲儿子，华为是民企，野生的懂吗。造谣也需要智商的。 我的找谁报销啊？ 侧面说明了除终端业务外其他业务已经到达天花板 华为不止手机，还有通信设备，那才是大头！手机算是副业！ 看我说的，我说的终端业务也就是手机大增，其他业务天花板！ 真可笑，海康威视全员华为，人家能争取到更多的大合同，小米可以吗？人家有自己的芯片小米可以吗？人家每年投入那么多做研发小米可以吗？人家有你小米不能望其项背的专利。小米………呵呵 但是利润只是苹果几分之一 如果华为没有国家电信这块支持，他有这么能耐？能发展成这样？ 还有这事？怎么回事，难道我买了个假华为？🏹🏹🎱 华为狗来护主了。。。。恭喜你。。水军听令，全体出击 苹果出货量没比华为高多少，单机利润相当于三十多部华为，苹果低配高价宰的痛快。 关键是达到6000亿即营收增加了800多亿，一年增长量差不多就是一个小米，就这还天花板？ 收入没有什么意义，华伪好多收入都是ZG拨款，贱卖给第三世界国家，拿着中国老百姓的钱搞利益输送。 听说某群体都是发手机，有没有包含这部分？ 手机现在已经成主业了，智障 那三星就是30000亿，折合4600亿美金，你别在这里扯淡了，好不好？ 喷子需要负什么责任呢？傻逼一楼，你以为华为这种白手起家的私营企业像国企都一样，都是天生的败家子？ 华伪？？？哈哈。。。。。SB 不看好华为手机，两年之前给朋友推荐过，结果用的很不爽。 这个言论可以在牢房里过新年了 华为恰恰是在国外打开市场以后，国内才开始采购 希望你多赚钱，去国外看看华为是什么地位……虽然我用的是苹果，但是也看不惯你这种为黑而黑！ 我哥是市移动公司工程管理中心经理，他说，国家下达一定的份额给中兴，如果单靠投标的话，中兴早就倒闭了，竞争不过华为。 1楼知道基站是何物吗？你知道你的手机信号是怎么来的吗 楼上的别看不起锤子，软件的创新，很多厂商已经在模仿。等着打脸吧。 有证据么？没有的话这话可以负责任了 3楼，国家电信骨干网络起步在20世纪90年代，当时国内的通信公司中，大唐，贝尔，中兴才是国家队，而华为只是一家各方面都不占任何优势的，还在以程控交换机销售为主的中小型私企。可以说起步阶段，机会并不均等。华为作为私营企业，面对着贝尔，大唐这些国企甚至央企巨头，可以说劣势的不能再劣势了吧。可为什么现在同样起步的背景为航空科研机构的中兴通讯，营业额只有华为的五分之一？在起步阶段市场机会均等的情况下只有作为私营企业的华为发展到了现在，你觉得这是为什么？ 又来了，那种什么我朋友，我亲戚，我家人…… 是的，该吃药了 侧面说明了除终端业务外其他业务已经到达天花板 果狗很多啊都来凑热闹 华为6000亿，小米1000亿，差距还不是一般大啊 大哥，那是协议机，也是要付钱给华为的。警务通。天下没有傻子，不好不会去批量采的。傻 山东人有几个有智商的？ 一楼一本正经的胡说八道 光提收入，利润呢？ 第二个联想 傻逼玩意 6000亿一台手机就算卖到6000也要卖出一亿台什么时候公布卖了多少台啊 中兴怎么看？ 华为员工工资高是有原因的。 不错，不错。拿华为手机的网友更牛逼了。什么时候送我一个？ 造谣是要被关进去的 你选国产是你的自由，你认为别人是傻逼或者别人秀逗了是你的权利，也是你的看法，圈子和境界在这摆着，我不想对你评论什么，大家开心就好。 当然包括了，无耻的作弊行为 刚好是三星的二分之一 开玩笑，刚拿下5G短码专利，坐等收钱 2360除以1.53等于多少，急，在线等！ 看看我用什么手机？ 杨拓在魅族就提了个宣传口号，加入3个月不到就出Pro7证明Pro7研发一点都不关他事，Pro7扑街后就背锅了。 用个进口合资就是档次问题了😂😂刚从树上下来的猴吧这话要搁在20世纪末说才对放在现在来说你会打脸的你认为的进口产品说不定就是MadeinChina出口转内销要不就是个贴牌货20世纪未用进口货还是满有面子的到了21世纪用这玩意还是档次问题的话那就是智商问题了 不怎么样 在中国用华为是身份的象征。 我只用iphone 傻逼，垃圾手机也好意思用，指纹识别都没有 有错么？中国所有企业，在国外还有比华为混的更好的么？ 短码什么鸟 笑死人了，小米的系统敢跟emui5以上比?人家无广告，简洁，功能，生态，云服务，app优化都甩小米几十条大街，人家不愧是全国第一大软硬件公司。 当然包括了。 没听说过私生子吗？ 我朋友开蓝绿手机店，接到政府部门通知必须在他的专卖店里给华伪空出一个柜台卖华伪手机，这么霸道的背景敢说民企？也只有菊花水狗会信吧 苹果手机算个屁呀，在我大华为面前就是垃圾，因为我大华为拥有宇宙超级无敌的科技，就是余总那张嘴。。。。。 那你意思国企能？ 国家要拨款也是拨给中兴这种亲儿子，华为是民企，野生的懂吗。造谣也需要智商的。 没有国内市场的扶持，光做国外怎么可能做那么大？人家指定一个对你不利的标准就能玩死你 不要总是一副很懂的样子，都是以阴谋论去揣度别人，你这样子的我觉得就是见不得别人比自己好！ 华为是靠自己在海外拼出来的，说的好！领五毛过节加个蛋，貌似还不够，你还得多喷会啊😋 可以更无知一点吗？ 傻逼啊，民企在中国能做成这样啊？你他妈长点脑子好吗？傻逼玩意 硬件不是很敢打包票，但同为安卓系统，就ui而言小米甩华为几条街。 如果华为没有国家电信这块支持，他有这么能耐？能发展成这样？ 小米比华为便宜，这绝对是一个优势，尤其是对口袋里没多少钱的同志。没有嘲笑的意思，只能说每个人都有自己的诉求，性价比也是其中之一。小米MIX2比华为mate10的乞丐版还便宜将近500，小米是个好选择。 得看你跟帖的方向。 没见到你卖几台就有6000亿，国营单位做市场有几个人愿意用心去做？ 电信这块的业务，不是中兴，就是华为。 华为能代表zf？吓死人了，呵呵，哎呀，这段时间没少损华为，我是不是要进去反省几年了呀，吓死我了 收入没有什么意义，华伪好多收入都是ZG拨款，贱卖给第三世界国家，拿着中国老百姓的钱搞利益输送。 听说某群体都是发手机，有没有包含这部分？ 不上市还是好，报表数字随便写 欧洲是第三世界？ 楼主吃大蒜脑袋吃出问题了。 有空多读读书，比如《华为三十年》，看看这群任正非带领的野狼们是怎么从一个小作坊变成现在的。中国人的臭毛病，凡是别人成功一定有背景，凡是企业壮大一定靠政府，凡是这群人赚钱一定发的不义之财，凡是无脑喷的都他妈是奴才中的奴才。一边抵制着日货一边对发展好的国货冷嘲热讽，真不晓得你们的人生到底给你们带来什么刺激。说华为不好别买啊，反正，你们也未必买得起。 第一，这不是国企，第二，你根本不懂华为 你们接着喷，人家钱接着赚，成天就是那几个丑麻逼，搞得网易乌烟瘴气的 这个言论可以在牢房里过新年了 为什么一点也不觉得骄傲，我这是病吗？[狗][喷水] 没有华为的基站设备，你的苹果就一板砖。有机会出国走走，大半个世界都是华为的基础通讯设备，迪拜机场和街头到处都是华为的巨幅广告，欧洲各大城市都有华为的办事处或者办公大楼。 我P10四千多买的这个辣鸡… TMD我看到小米手机比华伪多？这怎么回事？ 幼稚，为什么就竞争不过中兴？ 苹果还真别谈硬件 有证据么？没有的话这话可以负责任了 配吗? 那不知道，反正plus很好用 华为还有其他行业啊，终端行业应该占大头 都是果狗在黑华为啊 功能已经赶不上安卓的一半 说的好像苹果处理器不是ARM似的，哈哈哈，果粉多大的信仰？ 联想那里去了 每年缝缝补补的改进，增加几个安卓早就玩剩下的功能，这种研发值一百块 1.53亿台，每台3000，怎么也得有4500亿人民币吧，还是说手机卖的都是低端机或者单位免费发的？😅🔫🔫🔫🔫 一楼脑子瓦特了 来看华为狗高潮 侧面说明了除终端业务外其他业务已经到达天花板 小米是靠真正的势力，华为呢？靠内部采购？送？ 硬件成本是第三方拆机计算的，厂家无论怎样铺张浪费也不能提过硬件成本。对了，华为的成本控制是作为经典案例用来学习的，你不知道？ 喷子可不管这些 mate8和S7硬件成本能一样？S7是,IP68级别防尘防水，Oled2K屏，拍照业界顶尖。除了CPU外，其它狗屎一样的硬件的mate8凭什么和S7一样的成本？ 华为6000亿，小米1000亿，差距还不是一般大啊 苹果乖乖的给华为交专利费就行了，别研发了，没那技术 华为国际营收多少？小米多少？ 这得是多傻的🐦还这么认为 虚一口不要瞎说实话 上海有个佩佛自动设备公司是做门的欠工人工资不给，老板叫刘汝合，嘉定区有个办公地址在宝钱公路的五金城 给酸民机会进华为的话～ 华为手机是辣鸡，其他系列产品线还好 真的很强 这是第一次听说…… 除了公司派发，水狗自用，国企采购，移动定制，装宽带送的黑白屏非智能机电子垃圾，3500以上的销量能有苹果一个零头就不错了 开蓝绿手机店，政府还管你代理什么手机品牌，我靠你拿网友们当弱智？说话你得负责任，什么土鳖地方，政府还管你怎么经营？换句话说华为线下模式要么是直营实体店，要么是类似于苏宁国美那样的连锁巨头代理，其余时间，华为商城线上点点鼠标就能解决了。华为代理的门槛不低，你那个朋友还是安心代理蓝绿吧。 p10plus很好用。 今年新增货币大概16w亿，6000亿算条毛。 傻逼，国企都不够分，还给你民营企业？ 做soc没那么简单，不是给你公版你就能做的！真想设计出一款主流soc投入高得吓人! 华为收入大头在国外，怎么竞争不过国企？ 我朋友开蓝绿手机店，接到政府部门通知必须在他的专卖店里给华伪空出一个柜台卖华伪手机，这么霸道的背景敢说民企？也只有菊花水狗会信吧 苹果的ios一样啊<br>谁能超越？<br>他和谷歌分别掌控手机的两大操作系统<br>利润高也一样正常啊 一款三四千的手机都没疏油层，肯定利润更大 用了P7和P9~P7用了一年多开始卡~不过还可以~P9现在用了一年多~目前没问题~ 联想联想赶紧醒醒啊 杂铺店全年营收还比不过华为荣耀一个部门。 华为是三个人拿四个人的钱干五个人的活，成本当然高 智障真多 怎么？防水成本高吗？mate10p有防水，价格也根本不比mate9p高啊 富可敌国啊 民企？他敢海外上市吗？你是真华为！ 哈哈哈，华为的成本控制是作为经典案例学习的，你以为呢？ 小米1000亿感觉也很厉害了 我还敢把你塞余大嘴的嘴里 华为的ai就是个识别图片快，卵用都没有，能吹一整年 平均每台都有一千四元以上吧，营收应该超过2300亿元， 收入没有什么意义，华伪好多收入都是ZG拨款，贱卖给第三世界国家，拿着中国老百姓的钱搞利益输送。 听说某群体都是发手机，有没有包含这部分？ 这个言论可以在牢房里过新年了 总是说华为军企，海军多的这些喷子，真应该好好看看国家电网和中石油这种企业，华为是靠产品和客户，不是靠垄断，躺着能赚钱的说法真是无脑。 国家要拨款也是拨给中兴这种亲儿子，华为是民企，野生的懂吗。造谣也需要智商的。 我用将近二年了，不知道怎么叫卡。 看好华为 硬件的成本岂是软件开发能烧钱的 成立时间相差也比较大，华为成立30年了，小米7年 硬件制造三星说第二，谁敢认第一？苹果只是软件系统和应用生态好 500次 干的不错。 翻翻前面的跟帖，你这句话是大大的错误，不解释了 海军收入有没有增加？ 大点的民企都有党支部，不设党支部你不想混了，脑残！<br>几个地摊文学看多了的智障 你说小米吗？ 利润增长低于销售增长也有可能是新开店过多,但若都是负增长就.... 华为野生？你他妈的是不是地球人！ 呵呵<br>吹牛逼也有点逻辑好不<br>非洲有富人，但是还是搞不起电信大基建的<br>市场承载力不够是养不出大型企业的<br>美国为啥牛逼，因为市场够大消费力够强<br>你们这帮水军天天网上各种吹牛逼其实是在给华为招恨。像我估计一辈子不会买华为的手机 手机1.53亿台，海军眼里平均每台3000块朝上，怎么也得有4500亿的营收，还不是大头吗？不是大头不打脸吗？ 没有国家的大力扶持，华为现在可能在华强北做翻新机呢 祝华为越来越好！ 以爱国绑架手机消费者销量能不高吗？ 我也想用苹果手机😭，可惜我穷。 继续力争营收达到1000亿美元，进入世界500强前50强。 政府部门有一大半功劳！ 1.53亿台，每台3000，怎么也得有4500亿人民币吧，还是说手机卖的都是低端机或者单位免费发的？😅🔫🔫🔫🔫 那又怎样，我还是支持小米，良心企业 剥削廉价劳动力而已，35以上一律开除 听说某群体都是发手机，有没有包含这部分？ 连自己的员工都不送，你还指望送谁？ 华为6000亿，小米1000亿，差距还不是一般大啊 民企也能得到ZF的资助的，SB 利害咯。中国华为。。收入比碧桂园还多。。。 民企华为你信吗？党支部是摆设？ 我只用iphone 手机和无线是华为的两大赚钱部门，无线市场已经饱和，手机市场这几年华为发展太猛了，反倒是做的早的中兴越来越垃圾了 华为和水军不会承认的， 你把八九百的华为荣耀都吃了 华为真的不好用新机子都特么卡死喊你等待 这种不用判，直接喂狗！ 华为7成收入来自海外，亲儿子是中兴，也是个不争气的东西，被老美罚了十几亿刀，华为好多了，中国第一科技公司 做大了都是國企 按照12亿（小孩不算）中国人算，平均每人500元买华为 真没听说 果然是你这阉狗奴才的主子的好奴才，一样那么霸气呀，霸气的阉狗依然是阉狗 牛！中国牛企！ 饭都吃不饱的地方，养得出这么大的电信设备商？<br>水军们真是一点常识都没有<br>呵呵<br>国内电信基建才是养大他们的饲料<br>而这背后是20多年的经济高速发展和p民高昂的通信费 五MAO这个群体，D国顶多养个几百万就够用了，而且五MAO也不是每年都给换手机，华为2017年销售1.5亿部，五MAO狗就算全部都用，也就千分之一的量 魅族一直都凉就没热过，不会做营销没华为能吹，没办法 献辞太长，我一般听着就睡着了 你应该用行动支持小米，还买华为干嘛，看我的ID这才叫支持[大笑] 民企[狗][狗][狗][狗] 华为的大头是电信设备不是手机 还有这事？怎么回事，难道我买了个假华为？🏹🏹🎱 智商感人……穷地方就没有富人了，穷地方就没有政府机构了，穷地方就没有企业，穷地方就不需要通信了，穷地方通信靠喊，靠狼烟……朋友，非洲是穷，但不是你意淫中的原始社会…… 第一科技公司是小米，虽然没有研发但是造出来大量高科技产品。手机，插线板，机顶盒，充电宝数不过来 用苹果的都是傻逼 侧面说明了除终端业务外其他业务已经到达天花板 收入没有什么意义，华伪好多收入都是ZG拨款，贱卖给第三世界国家，拿着中国老百姓的钱搞利益输送。 原来华为是杂种，那你用华为的算什么种哈哈哈哈哈哈哈这智商难怪用华为 然并卵，茅台市值都九千亿了，兴国安邦靠茅台！ 自产自销？ 国家要拨款也是拨给中兴这种亲儿子，华为是民企，野生的懂吗。造谣也需要智商的。 海军是支出，不是收入，你要注意！ 现在造谣500赞也不判刑了？ 华为好样的 这个言论可以在牢房里过新年了 难道说欧洲也是第三世界了，摆脱华为手机业务又不是主要业务，通信才是好吧，而且华为超过一半的收入来自国外 A9,A10的多核性能完全落后于高通麒麟 张口就黑，做世界性企业这么容易，为啥中国就一个华为？再说了真是囯资，以咱国家的特点，会这么给员工发工资么…… 华为什么时候把苹果、三星收购了？ 苹果一向是顶级配置吧。华为的在安卓阵营配置也不算顶级。而且华为是非上市公司，利润可以高低随心的。华为员工的收入比苹果都高，全球任何同等规模公司都比不了。真正想释放利润真的很容易。 你继续喷华为定律，也不妨碍他年年增长，看到楼上玻璃心崩溃就是开心 听说某群体都是发手机，有没有包含这部分？ 年底了，海军工资该结了，我手下一个军团等着拿钱过年呢[窃笑][窃笑][窃笑] 哎！喷子敢喷也是因为无知的人太多！ 国内纽交所上市企业都可以假财报满天飞，何况没上市的呢 华为在所有市场都是要利润的 送你？就因为你脸皮厚？ 就是高上天也是偷工减料偷工减料就是欺骗你个傻逼肯定不能理解 一楼是想说他在坐牢 果然，华为的新闻下永远都是一堆喷子，其他新闻还没这1/3多，佩服有钱来请喷子的厂家，有钱拿来研发岂不是更好，养一群喷子，却天天喷别人海军，哈哈，谁才是海军 告诉大家个秘密，洗脑公司的中层以上领导出国都带速效救心丸，一不小心可能就挂了！[微笑] 2017财年，苹果公司的净销售收入和运营收入分别达到2292亿美元和613亿美元，股价增长36.7%，目前市值为8783亿美元。 你倒是说说哪个群体，哪个部门。我就在ZF上班，咋没人给我发，我的mate是为啥还得再天猫买？ 华为终端一悲剧，就无法增长了。楼上说的没任何问题。华为就是靠国内电信基建发家的 华为手机越做越良心毫无疑问 而且都是整付部门指定采购商，简单说就是垄断，结果是死一片别的中小企业 哈哈哈，不要去理那些无趣的喷子 不错，不错。拿华为手机的网友更牛逼了。什么时候送我一个？ 不上市，这成绩不错 国家要拨款也是拨给中兴这种亲儿子，华为是民企，野生的懂吗。造谣也需要智商的。 华为6000亿，小米1000亿，差距还不是一般大啊 1.53亿台，每台卖3000怎么也得有4500亿的营收，还是说手机大多都是单位发的或者卖的都是低端机？ 美国和韩国不会同意的 跟苹果比，华为必须扔 1楼你这样说啊，会让狗咬你的，明眼人都明白，很多都是傻大个的ZZ生意，不过嘛，在这地方，没几个干净 苹果出货量没比华为高多少，单机利润相当于三十多部华为，苹果低配高价宰的痛快。 大傻逼雷军望尘莫及 好可怜，黑军那么卖力居然还是没阻挡住华为的进步 以前还有人说手机销售对于华为无足轻重，现在已经占据半数，反过来也可以说既往的通信业务实际上是在下降的，华为以后会逐步变为一个手机制造公司。 傻屌，我认为这是有的，前些天倒闭了了印度的通信运营商，估计就是这套路，还有些非洲的垃圾国家，有个鸟的钱买设备，华为混得风生水起 还有比苹果把高通基带降频到英特尔，更欺骗消费者的吗 此生绝不用华为东西，立贴为证。 别逗了，它不是高配，那谁是高配？不说别的，A9、A10刚出时，同期有能跟它比的CPU吗？苹果利润高，是因为单机的量大，对原料和零部件厂家有着强大的议价能力。如它一次采购7000万5.5寸的屏，跟其它机海战术的品牌采购1000万5.9寸、500万5.1寸之类等等的，价格能一样吗？ 小米少了300亿的智商税收入！ 你这话就不对了，请问华为对于通信业务的市场规模有萎缩吗？ 看了一下一楼的回复，确实喷子一个，啥都喷 手机利润不到一百亿居然都是主业，你让每年利润五六百亿的华为去哪偷另外四，五百亿利润，煞笔！ 够脑残的，了解下华为的股权结果吧 支持华为，支持国产，性价比超高 是的，确实很良心。偷换闪存。偷工减料。虚假宣传。良心大大的。 国内电信设备制造商有国企的大唐，中兴等公司，为啥只支持华为？<br>华为电信设备收入海外占比将近5成，难道国内电信公司垄断到国外去了？ 这么说并不公平。华为也得体现国家意志。 牛逼啊 国内的大企业基本上都有国家参股里面的，不然呵呵，你想在种国玩的转 这么说并不公平 别吹了，国内企业的议价能力更强，砍价是中国人的专长 侧面说明了除终端业务外其他业务已经到达天花板 收入没有什么意义，华伪好多收入都是ZG拨款，贱卖给第三世界国家，拿着中国老百姓的钱搞利益输送。 ov是低配高价。某品牌该怎么形容？ 楼上诠释了大绿山寨珠定律！ 太厉害了 三星说实话，依然是华为需要仰望的存在 而且都是政府部门指定采购商，简单说就是垄断，结果是死一片别的中小企业 有智商的能当喷子吗？水军都比喷子智商高 北捞，返归啦！华为定律傻逼 SB，国内电信基建当初可没华为的份额，都是国外和中兴的，要不然华为干嘛跑非洲去发展，非洲发展起来又去闯欧洲，等扎根欧洲了国内领导才发现，原来华为已经这么叼了，然后国内订单才开始偏向国内企业，当然中兴还是拿大头，如果没补贴，中兴早就被华为干死了，现在国内市场基本不会用国外品牌，大部分都是中兴和华为。 你这心操的也是没谁了！跟你有毛关系？我就是来看评论对骂的，一个个过着苦逼蛋疼的日子，也就跑网易来装装逼了！ 你全家是汉奸[窃笑] 然而国家隔几年就要免除那些国家外债 大绿很多煞笔的喷子，华为是靠自己在海外拼出来的！大绿唯一一个能在国外赚到钱的高新企业。华为做到世界500强时，国家才重视这个民企。试问世界500强放到哪个国家哪里不收重视？楼上的大绿朱多读书，别人我们人看不起你们大绿山寨朱！ 华为大部分销量都是ZF采购 曹尼玛的闪存，不要个逼脸 没华为，三星不是更臭屁哄哄了!乔布斯都要起来了… 三星2017的营业额约为2400亿美元，利润约550亿美元，华为的利润为11%，也就600多亿人民币，利润是三星的多少？你自己衡量。 痔疮菊花华为任屎豿吹屎痹 去干6L家女的！！出击！！！！ 偷工减料，前年mate8的硬件成本仍然远高于苹果8。华为手机平均利润不到一百，苹果单机利润三四千 供应商拿货可没这么贵 是否美好的文字掩盖即将来临的艰难困苦？ 小米1000亿还不牛逼？ 人家苹果出货量华为能比 很懂一样，有些人yy的自己都当真了 是的，找工厂组装山寨机能做到1000亿确实是奇迹 跟贴被火星网友带走啦~ 华为还是不错的。家里的路由器用了好多种都不理想，就现在的华为路由器还行 我一直用华为 华为6000亿，小米1000亿，差距还不是一般大啊 不买华为不爱国 一个企业相当于一个强二线城市，服了！ 1L家已经没人了！！！！！ 智障，我说的两个都是营收，别自作聪明了 苹果出货量没比华为高多少，单机利润相当于三十多部华为，苹果低配高价宰的痛快。 如果华为上市，是不是估值大几万亿啊 小学电子班标配华为平板，16G的平板三千五百块，没有选择的余地。 一个被世界五百强，世界一百强认可的通讯技术，被一群屌丝喷的体无完肤。可笑 收入拨款到说不上，但是赚第三世界的贷款这事就是真的了 企业业务发展空间还是比较大的。 关键是达到6000亿即营收增加了800多亿，一年增长量差不多就是一个小米，就这还天花板？ 那是政府的事情 第一次用华为，也没有其他网游说的那么差，感觉还不错吧符合预期 你知道个屁 切可不是贱卖好不好！第三世界可知道这钱不是自己的，干嘛要跟华为砍价？华为开多少价就是多少 华伪 不不不海军都说你以为华伪靠手机？手机只是华伪很小的一部分💩💩💩 侧面说明了除终端业务外其他业务已经到达天花板 先有华为后有天，华为科技全球领先者，秒杀微软苹果 国内电信设备制造商有国企的大唐，中兴等公司，为啥只支持华为？<br>华为电信设备收入海外占比将近5成，难道国内电信公司垄断到国外去了？ 哈哈看看有多少傻逼相信一楼 华为的运营商业务现在已经到了天花板。现在主要靠手机，云计算之类的做不起来。华为的问题是像余大嘴这样敢做事的人太少了。大部分的领导现在都是不犯错就行。能吹牛拍马屁把位子保住。刚毕业来华为攒点经验啥的就行，三十岁之后千万不要来。 国内公司靠国家输血活着的多了去了！有几个华为？你说说！ 是啊，5G快来了，又将爆发性增长 真可笑，海康威视全员华为，人家能争取到更多的大合同，小米可以吗？人家有自己的芯片小米可以吗？人家每年投入那么多做研发小米可以吗？人家有你小米不能望其项背的专利。小米………呵呵 回一楼，其实这两年，光纤到户基本完成，4g基本停滞，都在等5g，运营商基本不大规模投入只修补了！18年5g开始铺网，应该业绩会大面积提升。 如果华为没有国家电信这块支持，他有这么能耐？能发展成这样？ 小米1000亿感觉也很厉害了 行了行了，一个华为等于你青岛的产值了，骂也没用 华为狗来护主了。。。。恭喜你。。水军听令，全体出击 呵呵，华为是民企？ 大绿很多煞笔的喷子，华为是靠自己在海外拼出来的！大绿唯一一个能在国外赚到钱的高新企业。华为做到世界500强时，国家才重视这个民企。试问世界500强放到哪个国家哪里不收重视？楼上的大绿朱多读书，别人我们人看不起你们大绿山寨朱 这是五倍么？ 收入没有什么意义，华伪好多收入都是ZG拨款，贱卖给第三世界国家，拿着中国老百姓的钱搞利益输送。 听说某群体都是发手机，有没有包含这部分？ 评论区傻逼好多 小米估值而已，而华为是盈利。大哥 国家要拨款也是拨给中兴这种亲儿子，华为是民企，野生的懂吗。造谣也需要智商的。 主要傻逼买单呢 傻逼 先有华为后有天！不买华为是汉奸！ 拿货肯定没那么高，但出货量是个天文数字，每个班50人，想想全国多少小学，如果放在市场上，谁买？ 这个言论可以在牢房里过新年了 华为恰恰是在国外打开市场以后，国内才开始采购 ",
        "Reply": 447,
        "Link": "http://comment.tech.163.com/tech_bbs/D6QMRTR200097U7S.html"
    },
    "KeyWords": "华为,公司"
}