{
    "KeyWords": "新年,俄罗斯,炸弹",
    "PublishTime": "01/02/201808:14:43",
    "Comment": {
        "Link": "http://comment.news.163.com/news2_bbs/D74NT6E50001899N.html",
        "Content": "注意小人 自家扫不干净，何以扫天下？ 挽尊 自家扫不干净，何以扫天下？ ",
        "Total": 4,
        "Reply": 4
    },
    "Title": "新年之际俄多地再遭\"诈弹\"电话威胁 1.4万人撤离_网易新闻",
    "Article": "（原标题：新年之际俄多地再遭“诈弹”电话惊魂）在新年即将到来的上周末，俄罗斯多地再次接到大量匿名谎报炸弹威胁的电话，1.4万人被迫撤离。俄罗斯新闻社1日以安全部门人士为消息源报道，上周末，俄罗斯50座城市共接到56通“诈弹”电话，商场、火车站和其他公共建筑中的人群被迫撤离。另据塔斯社1日援引俄护法机关的消息，在过去的一昼夜里，俄30座城市接到了53通匿名虚假炸弹威胁电话。受影响的城市包括莫斯科、圣彼得堡、伏尔加格勒、符拉迪沃斯托克等。经查，未发现爆炸装置。近几个月，俄罗斯经常遭遇“诈弹”电话骚扰。仅首都莫斯科一地，这类闹剧已经给政府造成1.5亿卢布(约合260万美元)损失。去年12月，俄罗斯内政部说，大多数“诈弹”电话从叙利亚境内拨出。还有个别电话从土耳其、乌克兰、美国、加拿大、哈萨克斯坦和乌兹别克斯坦境内拨出。德新社1日报道，俄罗斯总统弗拉基米尔·普京去年12月31日签署一项法案，拨打“诈弹”电话的人将面临10年监禁。本文来源：新华社责任编辑：王征_NN7526",
    "Source": "Netease",
    "URL": "http://news.163.com/18/0102/08/D74NT6E50001899N.html"
}