{
    "Comment": {
        "Link": "http://comment.news.163.com/photoview_bbs/PHOT25PBM00014T8.html",
        "Reply": 37,
        "Content": "喷子部分频道，只需要喷就行<br><br>你问他吃饭没有，他跟你说他刚拉完屎 到底是谁是法拉利也说不准，原装品相当强，不知道国产后怎么样 偷拍可耻 稀稀拉拉几艘<br>老想夸大其词，弄得自己很多一样<br>把一百元换成一百个硬币，往地上一撒，可有钱了 哈哈哈，它么又得说了完全自主发明自主知识产权了 166还在那儿干嘛？改白船？ 呜哩哇啦。。。。布拉布拉 俄语学怎么样啦？ 打死这泄密的，强奸他妈！为国出气！ 以史为鉴励精图治 请去民生频道抱怨，在这里说再多也没啥鸟用 作为一个80后，依然很爱166舰 用，是个女人都需要卫生巾 建舰船扎堆一年维修保养得多钱啊？ 搞了大半年，才搞出一艘？到底搞什么搞啊 泄露国家机密 野牛并不是什么机密，船厂，船台有可能是，<br>咱们国家的保密意识还是需要加强 难道你妈就不能跟我睡吗？ 哇塞这个这会了 乌克兰得罪了发动机够不 屁民们注意了，继续延迟退休5年~~多省养老金亏空喽~~ 祖国越来越好了 这位网友泄露国家机密，要枪毙了 有国产的用什么乌克兰的 再保这个伪证券三年 呵呵，都叫“燃气轮机”，但技术差距至少40年啊～都叫汽车，但QQ和法拉利不大一样啊。 QQ和法拉利有本质上的区别吗？难道法拉利能飞上天？ 现在燃气轮机已经国产了 喷子部分频道，只需要喷就行<br><br>你问他吃饭没有，他跟你说他刚拉完屎 到底是谁是法拉利也说不准，原装品相当强，不知道国产后怎么样 偷拍可耻 稀稀拉拉几艘<br>老想夸大其词，弄得自己很多一样<br>把一百元换成一百个硬币，往地上一撒，可有钱了 是在着力提升登陆能力，看来台湾问题在未来10年有可能解决。 哈哈哈，它么又得说了完全自主发明自主知识产权了 呜哩哇啦。。。。布拉布拉 欧洲野牛可以国产了？厉害了 打死这泄密的，强奸他妈！为国出气！ 以史为鉴励精图治 166还在那儿干嘛？改白船？ 作为一个80后，依然很爱166舰 1楼眼瞎，脑子也不好，重点是还有傻逼顶。 建舰船扎堆一年维修保养得多钱啊？ 国产野牛哈哈 有国产的用什么乌克兰的 搞了大半年，才搞出一艘？到底搞什么搞啊 所以应该枪毙 俄语学怎么样啦？ 你吃饭了没有 泄露国家机密 野牛并不是什么机密，船厂，船台有可能是，<br>咱们国家的保密意识还是需要加强 这些船厂不造军舰的话是不是产能过剩？ 克里米亚已经被俄毛并吞。乌克兰舰船类输出基本没戏了。 哇塞这个这会了 乌克兰得罪了发动机够不 屁民们注意了，继续延迟退休5年~~多省养老金亏空喽~~ 祖国越来越好了 在建舰船扎堆，美狗日杂知道了，绝对心惊肉颤，蛋都气炸了。哈哈哈！ 这位网友泄露国家机密，要枪毙了 请去民生频道抱怨，在这里说再多也没啥鸟用 再保这个伪证券三年 呵呵，都叫“燃气轮机”，但技术差距至少40年啊～都叫汽车，但QQ和法拉利不大一样啊。 现在燃气轮机已经国产了 ",
        "Total": 724
    },
    "Article": "第二艘国产野牛船厂内亮相在建舰船扎堆据网友拍摄的国内某船厂内部可以看到多艘海军、海警舰船正在建造，其中包括国产野牛级气垫船。（感谢超大军事fzgfzy）",
    "PublishTime": "12/26/201711:40:13",
    "URL": "http://war.163.com/photoview/4T8E0001/2286966.html",
    "Title": "第二艘国产野牛船厂内亮相 在建舰船扎堆_网易军事",
    "KeyWords": "中国,野牛,气垫船,",
    "Source": "Netease"
}