{
    "PublishTime": "01/01/201822:01:25",
    "Comment": {
        "Total": 118,
        "Link": "http://comment.news.163.com/news2_bbs/D73KQ6HT0001899N.html",
        "Reply": 21,
        "Content": "你干完了让我接着来！ 国庆期间，《新周报》编辑部接到南京师范大学有关人士的来信，信中这样描述了当时的场景——<br>“那些来访干部大都是四、五十岁的男人。女生们一去，就被叫过去陪着跳舞其实那些女孩子虽然是舞蹈专业的，但她们大都不会跳交谊舞。但是那些男的还是半搂半抱地要教她们跳一边跳舞一边还和她们闲聊，讲着一些什么身材好、皮肤好之类的话有些人还追问她们的手机号码有的还故意透露自己的身份……”<br>“我的这位同学今年才过完20岁生日，她们班上的女生年纪才十七八岁这样一群女孩子居然被和她们父亲差不多年纪的人抱在怀里跳舞就因为那些男人都是什么干部吗？更让人难以置信的是地点就在大学校园内”<br>记者在该校的“师大**”论坛上果然查到了类似的内容。是举报者恶意中伤南京师大？还是有人将“学生与领导联欢”进行了臆测夸大？为了解事实真相，《新周报》记者在南京进行实地调查。师大天空被屏蔽负面影响难消弭<br>当这次“陪舞活动”被公布在南师大***“**天空”论坛之后，顿时引起全校师生的普遍关注，校方对此采取了最简单有效的措施——技术屏蔽。<br>在师生们看来，校方的做法是对学生明显不尊重，学生对此表达意见的最极端言辞是：“学校这种拿漂亮女大学生当工具媚上的做法让人感到愤怒和恶心！”<br><br>----------新周报：南京师大学生停课陪舞事件调查 排队，一个个来 现在的新闻，都是标题党，看到这种标题我一般都不看正文 好气有好笑，委屈孩子了。 今天发生的事情你不要和任何人说，我刚才这么做是试探你的作风，我招学生不仅需要聪明还要品行端正，通过刚才的测试，你品行应该还不错。 拍戏太耽误………各种事了!…哈哈! 今天发生的事情你不要和任何人说，我刚才这么做是试探你的作风，我招学生不仅需要聪明还要品行端正，通过刚才的测试，你品行应该还不错。 5岁男孩半夜抱树大哭因为爸妈偷偷干这事...操小编 我现在开始让我4岁的儿子背电话号码了。 江苏新闻 这父母，也是醉了，起码留一个在家，另一个出去带回来啊？是不是彼此都不放心，才一同出去？ 排队，一个个来 mdzz标题党 这个题目。。 好气有好笑，委屈孩子了。 今天发生的事情你不要和任何人说，我刚才这么做是试探你的作风，我招学生不仅需要聪明还要品行端正，通过刚才的测试，你品行应该还不错。 拍戏太耽误………各种事了!…哈哈! 今天发生的事情你不要和任何人说，我刚才这么做是试探你的作风，我招学生不仅需要聪明还要品行端正，通过刚才的测试，你品行应该还不错。 江苏新闻 你干完了让我接着来！ 5岁男孩半夜抱树大哭因为爸妈偷偷干这事...当年他爸妈也是偷偷干这事才生的小编🙄🙄🙄 偷偷干这事?小编,你MB的震惊部的啊? 这俩父母也是没谁了，不会叫外卖吗 现在的新闻，都是标题党，看到这种标题我一般都不看正文 南有师大，北有航大。 国庆期间，《新周报》编辑部接到南京师范大学有关人士的来信，信中这样描述了当时的场景——<br>“那些来访干部大都是四、五十岁的男人。女生们一去，就被叫过去陪着跳舞其实那些女孩子虽然是舞蹈专业的，但她们大都不会跳交谊舞。但是那些男的还是半搂半抱地要教她们跳一边跳舞一边还和她们闲聊，讲着一些什么身材好、皮肤好之类的话有些人还追问她们的手机号码有的还故意透露自己的身份……”<br>“我的这位同学今年才过完20岁生日，她们班上的女生年纪才十七八岁这样一群女孩子居然被和她们父亲差不多年纪的人抱在怀里跳舞就因为那些男人都是什么干部吗？更让人难以置信的是地点就在大学校园内”<br>记者在该校的“师大**”论坛上果然查到了类似的内容。是举报者恶意中伤南京师大？还是有人将“学生与领导联欢”进行了臆测夸大？为了解事实真相，《新周报》记者在南京进行实地调查。师大天空被屏蔽负面影响难消弭<br>当这次“陪舞活动”被公布在南师大***“**天空”论坛之后，顿时引起全校师生的普遍关注，校方对此采取了最简单有效的措施——技术屏蔽。<br>在师生们看来，校方的做法是对学生明显不尊重，学生对此表达意见的最极端言辞是：“学校这种拿漂亮女大学生当工具媚上的做法让人感到愤怒和恶心！”<br><br>----------新周报：南京师大学生停课陪舞事件调查 尼玛，不就出个门嘛，题目起得那么有想象力干啥玩 偷偷干这事?小编,震惊部的啊?骗老子进来 5岁男孩半夜抱树大哭因为爸妈偷偷干这事...操小编 我现在开始让我4岁的儿子背电话号码了。 这标题？小编，你的语文老师是苍井空吗？ "
    },
    "Article": "（原标题：受不了这委屈！5岁娃半夜抱树大哭，竟因为爸妈偷偷干这事）前几天，江苏常熟市古里派出所的民警接到报警报警人称他们辖区有一个4、5岁大的孩子正抱着一颗大树痛哭流涕大冬天的，孩子穿着单衣单裤袜子也没穿就穿着一双拖鞋问孩子爸妈的名字也不知道也不分不清家具体在哪不过当警方到达现场后旁观的一名路人却认识这个孩子原来这孩子今年5岁就住在附近的一间出租屋里民警到达出租屋后发现卷帘门开了一半大门开了一半屋里灯也开着但进去以后家中空无一人这是什么情况民警也有点懵孩子父母哪去了？出门办事了？还是遭遇不测了？最终，民警联系到了孩子父母原来，当天凌晨小孩母亲因为肚子饿便招呼老公一起出门吃宵夜看着儿子还在熟睡就没有叫醒儿子合计一会就回来也就没锁门可夫妻俩万万没想到孩子会中途突然醒来看到爸妈不见“爸爸妈妈是不是不要我了”“是不是因为我是垃圾桶里捡来他们就嫌弃我了”“我真是充话费送的吗？”于是，着了急的娃冲出了家门这一出来就后悔了漆黑的小巷寒冷的小风不见的爸妈找不到的家无助的宝宝最终只能抱着大树痛哭流涕警方提醒不管是深夜还是白天家长们千万不要把孩子单独留在家里更不能让孩子单独出门一定要有大人陪伴本文来源：江苏新闻责任编辑：李杭_BJS4645",
    "Source": "Netease",
    "Title": "5岁男孩半夜抱树大哭 因为爸妈偷偷干这事_网易新闻",
    "KeyWords": "孩子,单衣,父母",
    "URL": "http://news.163.com/18/0101/22/D73KQ6HT0001899N.html"
}