{
    "Article": "（原标题：非洲球星总统承诺：腐败者将没有容身之地！）",
    "Title": "利比里亚球星总统承诺:腐败者将没有容身之地_网易新闻",
    "PublishTime": "01/02/201811:10:32",
    "Source": "Netease",
    "Comment": {
        "Content": "熊弟，一个是利比亚，一个是利比里亚。。。好歹有点常识呀 完成了从CCTV5到CCTV1跨越的男人[窃笑] 你们现在没有卡扎菲，现在过的很幸福了！ 记得乔治.维阿，你从来不需要为他所效力的球队担心，过去是AC米兰今天或许是整个利比里亚！ 雄心壮志，可惜难上难 他在米兰的时候就有这个愿望，没想到真的当总统了，牛逼 当官竟然为了不腐败，很难理解！ 一个好领导 又一个大话精 你们现在没有卡扎菲，现在过的很幸福了！ 利比里亚，以自由为名的国家，由美国自由黑人建立，当地部族推翻美国黑人的统治之后，逐渐变成了战乱、落后、腐败的国家，希望维阿能带来幸福 文明社会，从理性发贴开始。谢绝地域攻击。 怕是真做了会死 可以相信吧。毕竟他自己不缺钱 😄 利比里亚球星总统 熊弟，一个是利比亚，一个是利比里亚。。。好歹有点常识呀 他在米兰的时候就有这个愿望，没想到真的当总统了，牛逼 新的开始 什么来头 记得乔治.维阿，你从来不需要为他所效力的球队担心，过去是AC米兰今天或许是整个利比里亚！ 完成了从CCTV5到CCTV1跨越的男人[窃笑] “利比里亚”和“利比亚”是一回事儿吗？ 在非洲敢说这话，一要是真心，二要有胆量，三要有手段…当年尼日利亚大神奥巴桑乔，以铁血和真心把国家推上非洲强国地位，最后还政于民，结果立马被各路政客倒查清算… 当官竟然为了不腐败，很难理解！ 雄心壮志，可惜难上难 ",
        "Reply": 19,
        "Link": "http://comment.news.163.com/news2_bbs/D751V42J0001899N.html",
        "Total": 116
    },
    "KeyWords": "利比里亚,足球,乔治,总统",
    "URL": "http://news.163.com/18/0102/11/D751V42J0001899N.html"
}