{
    "Comment": {
        "Link": "http://comment.war.163.com/news_junshi_bbs/D6IT2S93000181KT.html",
        "Reply": 152,
        "Content": "想想看，人类从有文明记载才最多5000年而已，就已经走出了地球。如果地外文明随便发展个几百万年哪？ 你扯几巴蛋吧，还辩证唯物主义，灵魂的存在那是你这种被洗脑的货能思考的，现代量子力学的量子纠缠、量子干扰、量子叠加很好的证明了神识的存在！ 地球的年龄是46亿年，宇宙的年龄是138亿年。相对于年幼的宇宙，地球可并不那么年轻。我们很可能是宇宙诞生后第一批智慧生命，虽然我们并不孤单，但我们来得确实太早了，我们的邻居非常非常少。未来占领银河系的，就是地球人的后裔，当然是高度机械化与电子化的、能够自我复制的变异人。 低维度生物是无法感知来自高维度的存在 有两个论证点，一个是宇宙大爆炸，一个是宇宙膨胀。先说第一个，宇宙为什么会大爆炸，由什么引起的，什么大爆炸才能产生一个宇宙，哈哈，不要跟我说是恒星什么的，恒星本来就是宇宙内的。第二个宇宙膨胀更好说了，宇宙膨胀必须要有物质填充吧，哪些个物质哪里来的，不要说内部起反应造成的，宇宙有膨胀哪就必有缩小吧。 外星人不削搭理我们 人家来地球看看我们，估计跟我们去看看蚂蚁窝一样，还真舍不得一脚给揣了 美国国防部花费了上千万美元来支持这个项目，估计审计大限要到了，要赶紧搞出点东西来，不然这上千万美元打了水漂肯定有人要背锅了 外星人帮忙把深圳的房价降下来吧 已经走出这个宇宙 生命的起源不可能只是随机的巧合！不过即使真有外星人ZF也不会对外正式承认的！ 辩证唯物主义早就有答案的 有外星人，我都接触过，不过你们肯定不信，懒得说了。 你说的是现在这个宇宙的年龄，但是前面有多少个宇宙存在，你能知道吗？ 人类文明时间太短了火星如果在3亿年前就是地球现在这样的环境，而且有了地球目前的科技水平那么火星文明如果还存在的话应该领先地球3亿年了他们也需在很久以前就离开了太阳系不过在离开太阳系前改造了地球在地球上撒上了生命的火种他们应该在未来的某个时候还会在回到太阳系看看地球呵呵呵呵 宇宙也不止一个啊！ 我觉得宇宙无边，就及时到了所谓的边，可能又进入另外的宇宙，宇宙连宇宙，无边无垠，也许进入另外的宇宙的时候，空间时间慨念又不一样，浩渺宇宙太神秘，我们人类太渺小。 可能其他适宜生命生存的星球，现在的生命还只是单细胞生物，甚至是有机大分子！我们想找到一个文明程度和地球人类相匹配的可以交流的星球，实在是太难太难了！就算他就在银河系里，他发射出来的信号，最长需要10万年我们才能接收到，等我们接收到这些信号的时候，也许对方早就灭绝了！就算是能够10倍100倍光速来传递信号（现有理论不可能），也是几千年前的事情了！宇宙大的让人绝望！ 这个早就有科学推断过了类似于地球这种可生存的行星光是银河系就不下十万个要是全宇宙的话都不知道有多少个只不过其他的星球文明发展是时间是快还是慢就不知道了总有一天会出现哥伦布发现印第安人一样的状况到时候谁是哥伦布谁是印第安人就不好说了 我们是地球上的第几代文明都说不定 没法交流就和人类听不懂蚂蚁之间的交流一样人类在外星人眼里是蚂蚁低等的三维感知生物 又来又感觉美国人是靠说谎过日子了。我还记得去年拉稀那个巫婆许愿上位后给外星人给你看，还有什么51区的。。。。。真是人类的笑话。 楼上的说法比较适合科幻小说。如果较真的话，即使火星有过文明，文明已经搬离。那么生态圈不应该被灭绝。也就是说我们现在应该仍然能在火星上发现火星的微生物细菌等生命。甚至能挖掘到遗迹。但目前没有证据支持这些推断。 相对宇宙的浩瀚，人类太渺小了！以至于在其它外星生命的眼中，连我们赖以生存的地球都可能渺小到像我们显微镜下的细胞一样，恐怕外星人想要看到人类，要比我们人类看到质子还要难！因此，人类完全可能被外星人所无视，而如果我们想看到这些外星人的全貌，则要比我们体内的细胞想看到我们的人体形态还要难！ 空间和时间本身就是大爆炸后宇宙的一项规则，在大爆炸之前这些规则根本不存在，谈何空间和时间？ 又开始用不可知论来迷惑人。不可知的东西，有什么讨论的必要？ 基本逻辑来讲，那么浩渺的宇宙，几百万亿的星球，如果只有人类，就真的太浪费了。。。。所以，肯定有外星人。 你看见蚂蚁就杀光么 说一些似是而非的虚话，其实就是为本国飞行器的科研打掩护而已。 或许对于宇宙上帝来说，一亿年只不过是一秒钟而已。对于掌握了时间旅行的外星人来说，时间根本不是问题。 有很多的傻逼，自己就是井底之蛙，没有半点见识，只要他没见过的东西，他就全说是假的。最后我告诉大家，我亲眼见过飞碟，虽然不敢说那就是外星人造的，但可以肯定，那绝不是人类能造出来的东西，而且那东西离我距离并不远，停在不是很高的空中。 知道黑暗丛林法则吗？科技爆炸是有科学论证支持的，外星人见到地球，要么占有要么毁灭（资源看不上），没有不爱搭理这一说。 佛曰：三千大千世界之主~~摩醯首罗天王~~！ 美国人也开始骗经费了，什么外星人？无中生有。忽悠人的。 美国总是在推动人类文明前进 作为合理党人，从来不相信外星人存在。飞碟可能是各种光学、天象、电磁、离子等现象造成的影像。 宇宙有边界吗？没有边界何以测量大小？何来的膨胀与收缩？时间有起点吗？如果有起点，那起点之前呢？ 不是没法交流是外星人不会干预破坏地球的自然规律既不会用技术帮助地球文明也不会消灭低等的地球文明就像我们不会去破坏自然界的生态平衡一样 以目前的理论来看，地球年龄是50亿年，宇宙年龄大概是120多亿年，算不上一瞬间。也有一半时间了。只是人类拥有文明的时间和地球或者宇宙相比只是一瞬间。 错！外星人早就渗透到地球，就在我们中间，比如：马云 外星高智商生物，肯定是有，可能他们比人类更文明、更规范。他们遵循着某种法则，基本没有对地球造成多大的影响。 ufo肯定存在，人类不过100年已经发展到如此程度，何况浩瀚宇宙，只希望人类能存续的久一些吧 为什么会爆炸和是不是发生了爆炸是两个问题。而后一个问题我们的回答以及目前的证据是充分的。而要回答前一个问题，必须有更多的数据。毕竟目前为止我们只有地球上一个观测角度。在没有足够数据支撑的情况下，我们只能做一些猜测，比如宇宙在爆炸前可能经历过无数次收缩、爆炸。这一次的爆炸是因为前一次的收缩导致，等等。<br><br>“宇宙膨胀必须要有物质填充吧”，并不是。宇宙膨胀的不是物质，而是空间。搞清楚这一点。否则质量守恒无从谈起。 那大爆炸之前是个啥？ 你不能把宇宙看做3岁地球1岁这么简单100亿年是什么概念？人类从制造出飞机到飞向太空不过几十年 洗脑好彻底，可悲 人类才是宇宙最聪明的生物？肯定不可能！地球的年龄相比宇宙的年龄不过是电光火石的一瞬间。 宇宙的维度跟我们理解的不太一样，就像一只蚂蚁在球体上爬行，对这只蚂蚁来说，这个球体是没有边界的，你理解了这点，那么对宇宙的边界就比较好理解了！ 外星人在和我们人类玩藏猫猫。 美国总是在推动人类文明前进 我相信有外星生物，就是不相信会有造访地球的外星生物，生物天性好奇，如果有造访，早就想方设法的要与地球生物联络，有这个科技来地球的生物一定能联络到地球生物。 你扯几巴蛋吧，还辩证唯物主义，灵魂的存在那是你这种被洗脑的货能思考的，现代量子力学的量子纠缠、量子干扰、量子叠加很好的证明了神识的存在！ 地球的年龄是46亿年，宇宙的年龄是138亿年。相对于年幼的宇宙，地球可并不那么年轻。我们很可能是宇宙诞生后第一批智慧生命，虽然我们并不孤单，但我们来得确实太早了，我们的邻居非常非常少。未来占领银河系的，就是地球人的后裔，当然是高度机械化与电子化的、能够自我复制的变异人。 不用别的，就瞅人家那飞行器，咱们地球的F22弱爆了，根本不需要燃料，完全另外一种层面上的知识，打开宇宙真正奥秘的钥匙🔑掌握在外星友人的手里，估计咱们在他们眼里就是三岁小孩子，，， 别扯淡了，你应该说所有的基本粒子都是活的，你确定他们都是上帝掌控的吗，那样就不是活的了！ 昨晚突然接到一个外星人电话说我中了木星头奖彩票500万要我把银行账号给它只要先交1000元确认金就可以了 UFO是美国冷战产物，而且可以说是美国政治阴谋论的产物，一到美国财务吃紧就搞出这个东西来，说白了就是让纳税人多给钱，现在科技多发达，这路子不太可靠 人类不孤单，我孤单 外星人不削搭理我们 为什么不说这五十亿年，是人类第几次文明？ 美国国防部花费了上千万美元来支持这个项目，估计审计大限要到了，要赶紧搞出点东西来，不然这上千万美元打了水漂肯定有人要背锅了 外星人帮忙把深圳的房价降下来吧 到现在为止人类的知识很有限，对宇宙，对深海，甚至是对人类自身DNA的认识都很初级，我绝对不相信宇宙大爆炸的观点，宇宙里这么多的物质，确实从一个奇点爆炸所产生的，这些科学家都是来骗鬼的？你不知道就说不知道，别瞎编一些理论。这个中世纪的神棍有什么区别？ 人类本身就是外星人，只是其他星球智慧生物不一定要以人的形态进化，也不排除被高等智慧体创造的智慧生物，就像人造机器人 不知道美国没建国前文明是不是停滞的 51区 辩证唯物主义早就有答案的 外星人👽，，我们的朋友，， 无极老儿，没想你的内心也是很科幻的嘛。 不是三岁，是圈养的大熊猫 外星人肯定存在。我想说几句：一、人死后不可能会还有所谓灵魂存在。二、地球人、外星人是宇宙物质基础上形成的智慧生物，外形轮廓不会相差很大。三、外星人的科技有很发达的，也有差的，外星科技再先进，脱离不了物质的基本规律。四、外星人想灭掉地球人的想法可能性小，物质的特性不支持生物间毁灭，而是求平衡。五、人类的本质是改变物质流通速度，让特质的交换更频繁，更优化。六，人类应放拚你死我活的斗争意识形态，而是应努力让每位人生活得更好。七、科技无止境，人类当努力，为飞出地球而奋斗。 标题是“我们并不孤单”，但内容是“我们可能并不孤单”。 人家来地球看看我们，估计跟我们去看看蚂蚁窝一样，还真舍不得一脚给揣了 这个没有类比性。即便我们的科技处于落后，但是最基本的物质原理不应该有巨大的偏移。<br>针对这些现象，目前只能以最能让人类接受的理论去解释，或者说去做科学探索，<br>到底我们已经是智慧生物，决不能置之不理，否则容易转为神话迷信。<br>瞬移、修真、空间结界、银河之主之类的玄幻之说已经泛滥了。 白痴，人类所能理解的都是自己灌输给自己的，宏大的宇宙万物交织，岂是人类能理解的？ 外星人来两种可能，一种是自然保护区，一种是对付印第安人的手法，所以霍金说离外星人远点还是有道理的。 基本逻辑来讲，那么浩渺的宇宙，几百万亿的星球，如果只有人类，就真的太浪费了。。。。所以，肯定有外星人。 说一些似是而非的虚话，其实就是为本国飞行器的科研打掩护而已。 没法交流就和人类听不懂蚂蚁之间的交流一样人类在外星人眼里是蚂蚁低等的三维感知生物 已经走出这个宇宙 相对宇宙的浩瀚，人类太渺小了！以至于在其它外星生命的眼中，连我们赖以生存的地球都可能渺小到像我们显微镜下的细胞一样，恐怕外星人想要看到人类，要比我们人类看到质子还要难！因此，人类完全可能被外星人所无视，而如果我们想看到这些外星人的全貌，则要比我们体内的细胞想看到我们的人体形态还要难！ 到现在为止人类的知识很有限，对宇宙，对深海，甚至是对人类自身DNA的认识都很初级，我绝对不相信宇宙大爆炸的观点，宇宙里这么多的物质，却是从一个奇点爆炸所产生的，这些科学家都是来骗鬼的？你不知道就说不知道，别瞎编一些理论。这和中世纪的神棍有什么区别？ 到访地球的外星人怕我们你们信吗，他们长的非常小 这个不能用你现有的知识去理解的。举个例子，我们发现了一个行星上有人类，但是，尚处在类人猿时期，那么，我们去观察他们，他们会发现我们吗？如果发现了，会理解的了吗？ 罗斯维尔事件之后，美国的51区就成为了神秘的UFO研究基地，很多传闻说美国政府一直都和外星人有联系，不管别人信不信，反正我是相信宇宙中一定会有智慧生物，并且他们到达过地球。 那是必须滴，，再送你个地球，，200个男人或者女人 外形智慧生物，未必有人的形状或名称 想想看，人类从有文明记载才最多5000年而已，就已经走出了地球。如果地外文明随便发展个几百万年哪？ 能到地球的话应该有很高明的隐形技术了 地球其实就是外星人，我们只是它身体里的细菌 人家能做星际旅行，其技术实力的差别就好比现在能跨越太平洋的现代人和过条河都犯愁的原始人一样大，甚至还要大，有什么好搭理的。人类发明第一架飞机开始到现在也就百年时间，已经可以做太阳系里面的一些简单探索，想象一下如果某个外星球的智慧生命没事就延续个千万年的历史，这差距....... 远超音速的速度、低可观测性、正升力——这些似乎再次无视了空气动力学规律。”<br>-------这不是立体成像投影技术吗？ 明星要向过会拿钱 神识？ 120万吧 以人类三个维度看待宇宙的角度你能保证计算的宇宙生命正确？你怎么知道时间对于宇宙是单向的？过去我们还认为地球是平的，宏观宇宙与微观宇宙都是矛盾的，一句话，人类太无知了。。 到现在为止人类的知识很有限，对宇宙，对深海，甚至是对人类自身DNA的认识都很初级，我绝对不相信宇宙大爆炸的观点，宇宙里这么多的物质，却是从一个奇点爆炸所产生的，这些科学家都是来骗鬼的？你不知道就说不知道，别瞎编一些理论。这和中世纪的神棍有什么区别？ 地球人在外星人眼里，就和我们看自然保护区的动物一样，只看不动，让他自己发展。想想看，一个能跨越几十到几万光年来到地球的外星人，所依赖的科技远远不是我们这些还在用化石燃料的地球所能比的。我们现在的科技手段，光速还是不能超过的，运动理论还在用牛顿定律。外星人要是想改变地球的进程，其实只要做一些小的扰动就能改变地球发展的进展 以目前的理论来看，地球年龄是50亿年，宇宙年龄大概是120多亿年，算不上一瞬间。也有一半时间了。只是人类拥有文明的时间和地球或者宇宙相比只是一瞬间。 有外星人，我都接触过，不过你们肯定不信，懒得说了。 外星高智商生物，肯定是有，可能他们比人类更文明、更规范。他们遵循着某种法则，基本没有对地球造成多大的影响。 ufo肯定存在，人类不过100年已经发展到如此程度，何况浩瀚宇宙，只希望人类能存续的久一些吧 浪费啥啊钱吗 你不能把宇宙看做3岁地球1岁这么简单100亿年是什么概念？人类从制造出飞机到飞向太空不过几十年 小灰人👽主要是看人类长得比他们漂亮来借种的 洗脑好彻底，可悲 看来人们似乎已经掌握了一些外星人的一些证据，包括之前一段时间我看见大量的报道ufo，还有这次的奥陌陌，太阳系以外的天外来客，似乎在慢慢的告诉世人们一些隐藏了很久的秘密 人类才是宇宙最聪明的生物？肯定不可能！地球的年龄相比宇宙的年龄不过是电光火石的一瞬间。 外星人生活在高维度空间，看地球人就如看皮影戏。人类还没有资格摆脱“孤独”。 我有个朋友,跟这作者差不多,也是爱编故事去年走的,走的时候并不安详,尸体在太平间抽搐了三天,火化的时候烧得滋滋响,嘴里还在嚎叫,烧了几个钟头才烧完,烧完以后上了灵车,出门就翻车了,骨灰洒了一地,还被风吹走了不少,刚想把剩下的扫起来,迎面来了一辆洒水车,唉…… 骗经费的招数无奇不有，这个理由最奇葩。美人希！ 想想看，人类从有文明记载才最多5000年而已，就已经走出了地球。如果地外文明随便发展个几百万年哪？ 多做好事，必有好报）加快发展繁重工作替代性智能机器（不用延迟退休）公司上市后业绩异常下降，依法赔偿遏制骗钱（当务之急大小限减持和再融资要挂钩分红或回购，违则重罚，促进长期良好经营，缓解套现压力）尽快开征股指期货的印花税，才能降低杠杆及高频风险，限制其乱影响股市（基金只有盈利才收管理费，真正为投资者服务）连续2天涨跌停就限仓交易，共同受益，利国利民！ 你扯几巴蛋吧，还辩证唯物主义，灵魂的存在那是你这种被洗脑的货能思考的，现代量子力学的量子纠缠、量子干扰、量子叠加很好的证明了神识的存在！ 地球的年龄是46亿年，宇宙的年龄是138亿年。相对于年幼的宇宙，地球可并不那么年轻。我们很可能是宇宙诞生后第一批智慧生命，虽然我们并不孤单，但我们来得确实太早了，我们的邻居非常非常少。未来占领银河系的，就是地球人的后裔，当然是高度机械化与电子化的、能够自我复制的变异人。 天津的房价曾经一路暴跌。 在光年为单位的距离谈论外星人，没有意义了。 谁会和蚂蚁做朋友 我认为2楼说的有道理 一个小卫星砸下来，领先多少年都回到原始社会。 有两个论证点，一个是宇宙大爆炸，一个是宇宙膨胀。先说第一个，宇宙为什么会大爆炸，由什么引起的，什么大爆炸才能产生一个宇宙，哈哈，不要跟我说是恒星什么的，恒星本来就是宇宙内的。第二个宇宙膨胀更好说了，宇宙膨胀必须要有物质填充吧，哪些个物质哪里来的，不要说内部起反应造成的，宇宙有膨胀哪就必有缩小吧。 地球为何会有生物？地球生物的存在意义是什么？这个问题不搞清楚，恐怕所有的宇宙学研发都是盲目的。 质量根本就不守恒！<br>从体积小于一个原子核级别的宇宙变成拥有具有千万亿庞大星系的宇宙，这质量咋能守恒呢？ 低维度生物是无法感知来自高维度的存在 这么容易就给你看出来？也许没这么简单，可能是马化腾 人类如果现在突然消失，20万年之后，人类留下的所以痕迹都会被大自然抹平！其实，很怀疑人类是地球上的第一代智慧生物！毕竟从地球上有生命到现在的几亿年里，人类不过1万！ 外星人帮忙把深圳的房价降下来吧 应该是几百万万年，整不好就连咱们都是他们发明出来的呢， 俄罗斯对付不明外星飞行器就是击落，外星飞行器好像没有攻击俄罗斯，外国人说法就是俄罗斯明显是对外星人开战了，俄现在占的地区在远古时期原来属于外星人管辖。 哈哈 你说的有一定道理，但宇宙年龄是按亿年来划分的，如果其他地外生命形成了文明，那么无须1亿年，只要领先我们一千年或者一万年，那很有可能，毕竟千年万年在宇宙尺度是短暂的，你可以想象一下，如果按我们现在的文明发展下去，一万年以后，你应该想象不出了吧？ 辩证唯物主义早就有答案的 可能其他适宜生命生存的星球，现在的生命还只是单细胞生物，甚至是有机大分子！我们想找到一个文明程度和地球人类相匹配的可以交流的星球，实在是太难太难了！就算他就在银河系里，他发射出来的信号，最长需要10万年我们才能接收到，等我们接收到这些信号的时候，也许对方早就灭绝了！就算是能够10倍100倍光速来传递信号（现有理论不可能），也是几千年前的事情了！宇宙大的让人绝望！ 好好国际航线马六甲海峡不走,却去搞什么要靠潜艇才难保障安全的中巴走狼,放着太平日子不过,天天想着战争怎么办.这个走狼这才海运线.真正的陆运线有着数不清的武装力量等着肥肉上门吧. 不同维度的智能之间确实不好沟通 我觉得宇宙无边，就及时到了所谓的边，可能又进入另外的宇宙，宇宙连宇宙，无边无垠，也许进入另外的宇宙的时候，空间时间慨念又不一样，浩渺宇宙太神秘，我们人类太渺小。 能够来到地球上，说明了外星人的智慧和外星人社会的科技水平远超人类社会无限多。他们来到地球，发现了人类却又要刻意地躲避人类，就象人到了毒蛇、毒蝎成堆的地方却又要刻意刻意躲避毒蛇、蝎子一样，他们观察人类如像隔着一面单向透视的玻璃窗一样，他们看人类很容易，人们要看到他们根本不可能，只能靠他们不小心留存的蛛丝马迹进行无休无止的猜疑。因为不了解人类，躲避即可避免伤害又便于他们更好地悄悄观察、研究，他们也可能想到帮助人类，但他们又担心上演人类社会农夫与蛇的故事，他们通过观察，没发现人类社会存在多少真善美的行为，也没有什么宇宙真理，却普遍存在假恶丑霸横吹，始终尊崇强权真理，所为他们便打算永久放弃与人类接触了想法了。在他们眼里，人类社会就是毒虫的世界。 可能其他适宜生命生存的星球，现在的生命还只是单细胞生物，甚至是有机大分子！我们想找到一个文明程度和地球人类相匹配的可以交流的星球，实在是太难太难了！就算他就在银河系里，他发射出来的信号，最长需要10万年我们才能接收到，等我们接收到这些信号的时候，也许对方早就灭绝了！就算是能够10倍100倍光速来传递信号（现有理论不可能），也是几千年前的事情了！宇宙大的让人绝望！ 这个早就有科学推断过了类似于地球这种可生存的行星光是银河系就不下十万个要是全宇宙的话都不知道有多少个只不过其他的星球文明发展是时间是快还是慢就不知道了总有一天会出现哥伦布发现印第安人一样的状况到时候谁是哥伦布谁是印第安人就不好说了 没法交流就和人类听不懂蚂蚁之间的交流一样人类在外星人眼里是蚂蚁低等的三维感知生物 诡异 楼上的说法比较适合科幻小说。如果较真的话，即使火星有过文明，文明已经搬离。那么生态圈不应该被灭绝。也就是说我们现在应该仍然能在火星上发现火星的微生物细菌等生命。甚至能挖掘到遗迹。但目前没有证据支持这些推断。 外星人不削搭理我们 空间和时间本身就是大爆炸后宇宙的一项规则，在大爆炸之前这些规则根本不存在，谈何空间和时间？ 没那么夸张，顶多是现代人和原始人的对比！ 可能其他适宜生命生存的星球，现在的生命还只是单细胞生物，甚至是有机大分子！我们想找到一个文明程度和地球人类相匹配的可以交流的星球，实在是太难太难了！就算他就在银河系里，他发射出来的信号，最长需要10万年我们才能接收到，等我们接收到这些信号的时候，也许对方早就灭绝了！就算是能够10倍100倍光速来传递信号（现有理论不可能），也是几千年前的事情了！宇宙大的让人绝望！ 你看见蚂蚁就杀光么 一个连自己居住的星球都没探索完全的种族，去妄谈宇宙，岂不可笑？。。。。 爆炸前是没有时间等东西的，所以爆炸前不存在任何东西，宇宙存在的东西只能是宇宙年龄内的 呵呵，无知者无畏！古人也是你这样的逻辑思维！！呵呵，人类无知分善恶，神也无知吗？？ 好像很有道理呢！也许真就是这样呢！就是这样的！ 知道黑暗丛林法则吗？科技爆炸是有科学论证支持的，外星人见到地球，要么占有要么毁灭（资源看不上），没有不爱搭理这一说。 为什么会爆炸和是不是发生了爆炸是两个问题。而后一个问题我们的回答以及目前的证据是充分的。而要回答前一个问题，必须有更多的数据。毕竟目前为止我们只有地球上一个观测角度。在没有足够数据支撑的情况下，我们只能做一些猜测，比如宇宙在爆炸前可能经历过无数次收缩、爆炸。这一次的爆炸是因为前一次的收缩导致，等等。<br><br>“宇宙膨胀必须要有物质填充吧”，并不是。宇宙膨胀的不是物质，而是空间。搞清楚这一点。否则质量守恒无从谈起。 距离是限制我们跟地外文明交流的唯一屏障！10光年范围之内只有区区4颗恒星，如果把太阳比作玻璃球那么大，那么整个太平洋范围内只有4颗玻璃球，而地球只是玻璃球上的一个黑点，我们是黑点里的尘埃都算不上！我们最远的距离就只是离开玻璃球20CM的样子，到达太平洋另外一边，一万年都到不了！宇宙无比空旷，你在地球上发射一束激光，到达宇宙另外一端，99.999999999%都不会遇见任何物体！宇宙又无比拥挤，整个宇宙的恒星数量比全世界沙漠里的沙粒数量还多！你们理解了这些概念，那么就知道我们绝对不孤单，但基本不可能接触到地外文明，一切都是徒劳，因为距离让人绝望！我们就像生活在太平洋孤岛上面的一个小小玻璃球周围的微生物，虽然知道太平洋对面有同伴，但永远无法接触，更不用说达到了！ 发现三体还是3P啊？ 距离是限制我们跟地外文明交流的唯一屏障！10光年范围之内只有区区4颗恒星，如果把太阳比作玻璃球那么大，那么整个太平洋范围内只有4颗玻璃球，而地球只是玻璃球上的一个黑点，我们是黑点里的尘埃都算不上！我们最远的距离就只是离开玻璃球20CM的样子，到达太平洋另外一边，一万年都到不了！宇宙无比空旷，你在地球上发射一束激光，到达宇宙另外一端，99.999999999%都不会遇见任何物体！宇宙又无比拥挤，整个宇宙的恒星数量比全世界沙漠里的沙粒数量还多！你们理解了这些概念，那么就知道我们绝对不孤单，但基本不可能接触到地外文明，一切都是徒劳，因为距离让人绝望！我们就像生活在太平洋孤岛上面的一个小小玻璃球周围的微生物，虽然知道太平洋对面有同伴，但永远无法接触，更不用说达到了！ 作为合理党人，从来不相信外星人存在。飞碟可能是各种光学、天象、电磁、离子等现象造成的影像。 宇宙有边界吗？没有边界何以测量大小？何来的膨胀与收缩？时间有起点吗？如果有起点，那起点之前呢？ 不是没法交流是外星人不会干预破坏地球的自然规律既不会用技术帮助地球文明也不会消灭低等的地球文明就像我们不会去破坏自然界的生态平衡一样 以目前的理论来看，地球年龄是50亿年，宇宙年龄大概是120多亿年，算不上一瞬间。也有一半时间了。只是人类拥有文明的时间和地球或者宇宙相比只是一瞬间。 问题是你仅仅只是说恒星，但一个以恒星为中心的星系是非常大的，就以太阳系为例，最外围是奥尔特云，这不能否认了吧，那太阳系就是2光年的直径了。而太阳距离临星也就区区4光年，相当于两个蛋蛋的距离 错！外星人早就渗透到地球，就在我们中间，比如：马云 能够来到地球上，说明了外星人的智慧和外星人社会的科技水平远超人类社会无限多。他们来到地球，发现了人类却又要刻意地躲避人类，就象人到了毒蛇、毒蝎成堆的地方却又要刻意刻意躲避毒蛇、蝎子一样，他们观察人类如像隔着一面单向透视的玻璃窗一样，他们看人类很容易，人们要看到他们根本不可能，只能靠他们不小心留存的蛛丝马迹进行无休无止的猜疑。因为不了解人类，躲避即可避免伤害又便于他们更好地悄悄观察、研究，他们也可能想到帮助人类，但他们又担心上演人类社会农夫与蛇的故事，他们通过观察，没发现人类社会存在多少真善美的行为，也没有什么宇宙真理，却普遍存在假恶丑霸横吹，始终尊崇强权真理，所为他们便打算永久放弃与人类接触了想法了。在他们眼里，人类社会就是毒虫的世界。 你是用地维度的思维去猜度高纬度的存在，没意义！你在认真想想！你都知道神的一切，它还是神吗？ 第一：宇宙的生命有共性，人类生命的特点，是宇宙力量作用的结果。比如引力，温度，等。同样，其他的宇宙生命也会受这些力量的影响。这些力量一致，那么宇宙的生命就一致。<br><br>第二：生产力和生产关系相适应。如果外星人的生产力很先进，那么生产关系肯定也很先进。 外星人只跟地球各个时期最强大国家建立联系，让这个国家维系地球平衡，早期的西亚两河流域，后来的罗马帝国，然后德国，到现在的美国，，，， 那大爆炸之前是个啥？ 以人类大多数人的怎私贪婪来看。有外星人也会保持距离的。因为不晓得什么时间会被咬一口。 生命的起源不可能只是随机的巧合！不过即使真有外星人ZF也不会对外正式承认的！ 最近正在读三体这本小说，不搭理最好 人类原本就不孤单，地球有无数种类的美丽生物，可是人类对此不屑一顾，号称自己孤单，去追寻外星智慧生物，可笑的是等你追寻到的时候，说不定也是自己灭亡的时候，这回该轮到外星生物说自己孤单了。 有很多的傻逼，自己就是井底之蛙，没有半点见识，只要他没见过的东西，他就全说是假的。最后我告诉大家，我亲眼见过飞碟，虽然不敢说那就是外星人造的，但可以肯定，那绝不是人类能造出来的东西，而且那东西离我距离并不远，停在不是很高的空中。 人类才是宇宙最聪明的生物？肯定不可能！地球的年龄相比宇宙的年龄不过是电光火石的一瞬间。 宇宙的维度跟我们理解的不太一样，就像一只蚂蚁在球体上爬行，对这只蚂蚁来说，这个球体是没有边界的，你理解了这点，那么对宇宙的边界就比较好理解了！ 时间概念是为了解释问题人为加上去的，物理意义也不清楚，在多维空间也没有分坐标...空间根本没有时间 错！外星人早就渗透到地球，就在我们中间，比如：马云 又开始用不可知论来迷惑人。不可知的东西，有什么讨论的必要？ 人类才是宇宙最聪明的生物？肯定不可能！地球的年龄相比宇宙的年龄不过是电光火石的一瞬间。 19世纪的古玩能有个屁答案！ 人类的进化速度是比较异常的，恐龙存货了数亿年，人类进化远比恐龙时代短得多。 楼上说的有道义，只是空间膨胀动力是什么，膨胀还是需要能量，这个能量的来源是什么？是否存在不同的空间？不同空间的能量是否可以转换？ 仅凭那几个美国的火星车的探索就能下定论火星没有文明遗迹？先上去人再下结论。楼上说的太绝对了 或许对于宇宙上帝来说，一亿年只不过是一秒钟而已。对于掌握了时间旅行的外星人来说，时间根本不是问题。 以目前的理论来看，地球年龄是50亿年，宇宙年龄大概是120多亿年，算不上一瞬间。也有一半时间了。只是人类拥有文明的时间和地球或者宇宙相比只是一瞬间。 这是个悖论！宇宙年龄120亿年，那这之前呢？50亿年前地球又来自哪里？ 说好的宇宙之真理又被洞穿了……楼上就是胡说八道了，虫族和神族，我们都是知道的！ 外星生命也许不是在其他遥远的星球，而是在我们未知的其他维度 外星人不削搭理我们 现在的宇宙是人类目前已经观测到的 佛曰：三千大千世界之主~~摩醯首罗天王~~！ 想象一下一千年前的人类生存水平，看看现在的科技，再发挥一下想象力想想一千年后.....估计只有你想不到的，没有什么是不可能的！ 大爆炸理论无法解释爆炸之前发生过什么。因为我们没有数据。这就像是一部侦探剧，你只看了最后一集，然后问你第一集的凶手是谁，你答不上来并不是因为你不够聪明，而是你的线索不够。<br>50亿年前地球来自哪里这个问题并不难。虽然细节有出入，但行星和恒星的诞生无非都是通过星云盘中的尘埃碰撞吸引而成。当然有少量情况是行星恒星之间碰撞从而产生新的星体。目前主流的说法是地球诞生于太阳星云盘中。 楼上的都在扯淡！不明飞行器都来自宇宙国--正恩大将军的麾下 星系之间的空间有什么物质，知道是什么物质，星系之间的飞行器的动力应该使用什么驱动。 宇宙有边界吗？没有边界何以测量大小？何来的膨胀与收缩？时间有起点吗？如果有起点，那起点之前呢？ 辩证唯物主义早就有答案的 为什么会爆炸和是不是发生了爆炸是两个问题。而后一个问题我们的回答以及目前的证据是充分的。而要回答前一个问题，必须有更多的数据。毕竟目前为止我们只有地球上一个观测角度。在没有足够数据支撑的情况下，我们只能做一些猜测，比如宇宙在爆炸前可能经历过无数次收缩、爆炸。这一次的爆炸是因为前一次的收缩导致，等等。<br><br>“宇宙膨胀必须要有物质填充吧”，并不是。宇宙膨胀的不是物质，而是空间。搞清楚这一点。否则质量守恒无从谈起。 哈哈哈，连外星人都喜欢美帝，并与其合作，这是为什么？ 是时候亮出我真实的身份了，易友们，明天头条见！记得用你们地球上的方式为我的产值打分，谢谢。 连月球背面都没搞清楚还谈什么火星 是时候亮出我真实的身份了，易友们，明天头条见！记得用你们地球上的方式为我的颜值打分，谢谢。 你说的是现在这个宇宙的年龄，但是前面有多少个宇宙存在，你能知道吗？ 星系之间的距离正在飞速扩大。 美国人也开始骗经费了，什么外星人？无中生有。忽悠人的。 地球的年龄是46亿年，宇宙的年龄是138亿年。相对于年幼的宇宙，地球可并不那么年轻。我们很可能是宇宙诞生后第一批智慧生命，虽然我们并不孤单，但我们来得确实太早了，我们的邻居非常非常少。未来占领银河系的，就是地球人的后裔，当然是高度机械化与电子化的、能够自我复制的变异人。 宇宙也不止一个啊！ 错！外星人早就渗透到地球，就在我们中间，比如：马云 是时候推荐一波星际之门Sg1了，没看过的可以一看，我个人感觉不错 人类成为了地球的主宰，却面临着宇宙的竞争，如果失败可能以后就没有人类这个物种了 又来又感觉美国人是靠说谎过日子了。我还记得去年拉稀那个巫婆许愿上位后给外星人给你看，还有什么51区的。。。。。真是人类的笑话。 看我以前的贴子，有详细描述那次见过的真实的UFO事件，我敢明确的说，这事情我们国家一定有记录，如果认为我是造谣，欢迎网警来跨省，不用说外卖，直接说警察。看见飞行物的那晚上有上千人。根本不是气象或者云层或者幻觉。就是真真实实的不明飞行物。离军用机场那么近。不可能官方没有记录。 我们太低级了 ",
        "Total": 1196
    },
    "Article": "（原标题：证据很有说服力！美军UFO项目前负责人称人类“并不孤单”）参考消息网12月26日报道英国《独立报》网站12月19日报道称，五角大楼不明飞行物（UFO）研究项目的前负责人路易斯·埃利桑多表示，他认为“我们可能并不孤单”。在埃利桑多作出上述表态之前，解密录像显示2014年美国战斗机飞行员在加利福尼亚州附近观察到一个不明飞行物，他们做出了非常惊讶的反应。这个名为“先进飞行威胁辨识计划”的项目结束于5年前，当时美国国防部官员把注意力和资金转移到了其他优先事项上。该项目是在民主党参议员哈里·里德的要求下展开的。图为UFO想象图在国防部承认该项目的存在之后，埃利桑多表示，这个项目所观察到的物体提供了“令人信服的证据”来支持人类并不孤单的观点。他向美国有线电视新闻网表示，他的团队所发挥的作用是“从国家安全的角度出发，识别我们所看到的东西——无论是通过电子光学仪器、通过雷达，还是通过目击者的报告来发现它们——然后查明并确定该信息是否对国家安全构成潜在的威胁”。埃利桑多补充说：“我们发现了很多。我想你们看到的一些社交媒体以及人们发表的一些东西可能给出了错误的描述。很多时候，当我们没有太多信息时，我们倾向于用自己认为合乎逻辑的方法来填补这些空白。”他表示：“顺便说一下，这其中仍有很多我们无法理解的东西。我想重要的是我们已经识别了一些非常有趣、不规则的飞行器。”埃利桑多称，他们发现了一些异常飞行器，这些东西“没有明显的飞行器外观，看不出来任何明显的推进模式，飞行的时候有一些极端的加速方式，我得承认这超出了人类或任何生物所能承受的G力。”他说：“远超音速的速度、低可观测性、正升力——这些似乎再次无视了空气动力学规律。”埃利桑多表示，一些飞行器展示了“在我们印象中”美国或其他任何国家都无法实现的能力。他指出：“我不能代表政府发言，很显然我不再是美国政府的工作人员了。不过我个人的看法是，一些非常有说服力的证据表明我们可能并不孤单，无论这意味着什么。”（编译/杨雪蕾）本文来源：参考消息网责任编辑：姚文广_NN1682",
    "PublishTime": "12/26/201709:58:52",
    "URL": "http://war.163.com/17/1226/09/D6IT2S93000181KT.html",
    "Title": "有证据！美军UFO项目前负责人称人类“并不孤单”_网易军事",
    "KeyWords": "ufo,美国,飞行器,美军",
    "Source": "Netease"
}