{
    "Article": "李嘉欣晒与老公恩爱照送新年祝福网易娱乐1月2日报道1月1日，大美女李嘉欣和老公许晋亨合体晒照，送上新年祝福。照片中，他们一身礼服装扮，李嘉欣的大眼睛十分有神，美艳动人。老公身穿花衬衫显得很帅气。不少网友回应：“你们也要快乐！真漂亮！”“恭喜你们，帅男靓女。”本文来源：网易娱乐责任编辑：胡梦瑶_NK5655",
    "Title": "好养眼！李嘉欣晒与老公恩爱照送新年祝福_网易娱乐",
    "PublishTime": "01/02/201810:59:21",
    "Source": "Netease",
    "Comment": {
        "Content": "快50岁的人了，还是挺漂亮的 这照片P的，不仔细看以为她老公换成了《陀枪师姐》里那个魏骏杰呢！不是只有眼睛大才好看，小眼睛依然可以有魅力，何必呢？ 这照片P的差评！ 她算是找对了男人的！ 柳岩不整容就是一坨屎 有请卓伟爆一料！越是高调秀恩爱，越会有问题 [微笑] [可怜] 这张有点假了……用了软件李嘉欣不是一直不用滤镜来么 这张照片真的很像柳岩 有请卓伟爆一料！越是高调秀恩爱，越会有问题 [可怜] 幸福美满的一对 这照片P的，不仔细看以为她老公换成了《陀枪师姐》里那个魏骏杰呢！不是只有眼睛大才好看，小眼睛依然可以有魅力，何必呢？ 文明上网，理性发言 小哑巴[羞羞] 她算是找对了男人的！ [微笑] 无错误就是发菩提心放下吃素持戒慈悲平等心空不要伤害一切不要破坏大自然不要结怨不要干扰正法传递唯一免费无错误正法不结怨因果自己了不破坏大自然不破坏龙脉给鸟自由不伤害害虫不伤害吃素不用动物成分禁止恶不杀不堕胎放下发菩提心无错误的传递无错误免费正法健康快乐不老好。 快50岁的人了，还是挺漂亮的 这张有点假了……用了软件李嘉欣不是一直不用滤镜来么 祝福依依! 女神 这照片P的差评！ 新年快乐、幸福永远! 柳岩不整容就是一坨屎 年纪大了，老公对她还是很好，真爱。 这张照片真的很像柳岩 这美图的都不像真人了 戏子=妓女=明星当道毁国导致雾霾天灾人祸灾难不看明星不下贱不低俗ps诈骗真人丑烂臭恶毒虚荣淫贱虚伪禁止恶发菩提心放下字体. 文明上网，理性发言 ",
        "Reply": 21,
        "Link": "http://comment.ent.163.com/ent2_bbs/D751AKQN00038FO9.html",
        "Total": 271
    },
    "KeyWords": "李嘉欣",
    "URL": "http://ent.163.com/18/0102/10/D751AKQN00038FO9.html"
}