{
    "Title": "\"三桶油\"负责人税前年薪公布:中石化一把手近83万_网易新闻",
    "URL": "http://news.163.com/17/1228/21/D6PAKF3A000187VE.html",
    "Source": "Netease",
    "Article": "（原标题：“三桶油”负责人税前年薪公布：中石化一把手最高，近83万）按照中央管理企业负责人薪酬制度改革方案，各大央企负责人2016年的薪酬信息已陆续披露。12月26日，“三桶油”（中石化、中石油、中海油）分别在官网晒出了自家领导的“工资单”。澎湃新闻梳理“三桶油”负责人2016年度薪酬发现，“三桶油”的一把手2016年度从公司获得的税前报酬分布在76万-83万元。中石化董事长、党组书记王玉普以税前报酬82.99万元位居第一，中石油和中海油的一把手王宜林和杨华的税前报酬分别为79.2万和76.5万元。上述三家公司在官网披露薪酬的企业负责人包括，集团公司党组成员、董事长、总经理、副总经理、纪检组组长等。公布的薪酬信息包括“2016年度从本公司获得的税前报酬情况”、“是否在股东单位或其他关联方领取薪酬”、“在关联方领取的税前薪酬总额”三项。“2016年度从本公司获得的税前报酬情况”又分为三大项，分别为应付薪酬，社会保险、企业年金、补充医疗保险及住房公积金单位缴存部分，及其他货币性收入。2016年12月，国资委官网统一公布了彼时111家央企负责人2015年度的收入信息。按照当时公布的《中央企业负责人经营业绩考核办法》（下称《考核办法》），国资委核定的应付薪酬由基本年薪、绩效年薪和任期激励收入三部分构成。央企董事长、党委书记、总经理以及其他副职负责人都按照《考核办法》领取薪酬。人民日报曾报道，在上述三部分收入中，央企负责人的基本年薪根据上年度央企在岗职工平均工资的一定倍数确定，该数值低于10倍。绩效年薪则与高管的年度考核评价结果相关，并结合绩效年薪调节系数确定，任期激励收入同样根据任期考核评价结果的不同等次来决定。以下为中石化、中石油和中海油负责人2016年度薪酬情况：中石化集团企业负责人2016年度薪酬情况（图片来自公司官网，下同）中石油集团企业负责人2016年度薪酬情况中海油集团企业负责人2016年度薪酬情况本文来源：澎湃新闻责任编辑：赵亚萍_NN9005",
    "PublishTime": "12/28/201721:46:00",
    "Comment": {
        "Total": 3060,
        "Content": "鸡毛，这样的高管，83只能算个手续费，后边加上两个零都只少不多 减半？我不要，让我干 国企亏损的原因！ 这种级别需要花工资一分钱么？和高速一样年年亏损，不如让我接盘吧，以前的亏损我都承担 09年刚上班，去阿国的新员工月薪就上万了。 不管你们信不信，我反正信了。 这只是底薪而已！还有补贴奖金和年终分红没发出来。当然回扣就更不得了了。 一边去！我倒贴50000一个月，我来。 估计易友还能让他扭亏为盈 这个工资不过是明面上的，暗的绝不会低于一个亿。 以前新闻报道过康师傅儿媳妇名下的海外公司，一亿多美金购买设备，转手九亿美金卖给中石油。所以讨论这些部级老总年薪有意思? 呵呵，这种消息就别报了，大家都知道怎么回事 你当是乞丐呢才加2个0，真是笑话了 我倒贴5000一个月，我来 我白干，你敢不敢？ 奖金都无所谓。重要的应该是他们私下控制的和国企有业务往来的公司 工资卡从来不动的，看都懒得看。。。 额，这个工资卡估计都忘记掉哪里了…… 年年亏损还能发这么多？ 才83万？谁信。那只是写在工资条上的而已吧，还有不在工资条上的部分呢 有很多收入挂在底下员工的ERP里面的中石油处级干部都这么玩何况集团公司老大 这都是零花钱 后面少了00吧 难为他们了，公司这么亏钱只能这么点了 年薪无所谓，我主要想知道奖金 内行人啊 来来来，我倒贴100万，我就干一个月 你们辛苦了！拿着微薄的薪水干着苦逼的活！ 全民财富，居然少数人说了算，要咋吃就咋吃。 难怪总亏损，一把手这么点工资，能招到优秀的职业经理人？能把这么大公司管好？ 缺人吗？还招人不？ nmd普通职工连3万都没得 工资算零钱 我信了，有希望了 据说集团老总可以在各个子公司挂名领不同的薪水的真信才83万的都是傻子 老总年薪是小头，不说别的，总经理一年费用都不得了，还不加上灰色收入。 这种新闻真是欲盖弥彰，哎！ 中建阿尔及利亚分公司一个区域经理都年薪50万了，还不用交个税~你中石化一把手才83万?谁信啊！ 我相信这个薪资减半，也有众多易友干的比它们好！ 自己算一下要交多少税八十三万交多少钱五险一金再算算他的房产车子消费支出根本无法匹配 不给钱都干 谢谢🙏 敢把房产信息、股票信息公布一下吗？ 全球最高油价，永远亏损的企业 真这么点儿？ 这是给孩子买糖吃的钱 亏这样还有钱赚？ 呵呵，比我还少，辛苦了 我倒贴5000一个月，我来 扭亏为盈你怎么死的都不知道。 我倒贴83万一个月，让我来当。 我贷款都愿意 而且还能扭亏为盈 年年亏损还能发这么多？ 鸡毛，这样的高管，83只能算个手续费，后边加上两个零都只少不多 倒贴50万每个月都能做！ 我倒贴10万， 我相信这个薪资减半，也有众多易友干的比它们好！ 我不要工资 笑死人了，讲笑话吗？ 倒贴十万我去干别拦我 000000 怕是有83000000000吧 这种级别需要花工资一分钱么？和高速一样年年亏损，不如让我接盘吧，以前的亏损我都承担 呵呵。让你去开个会发个言你都说不出来话吧，别意淫了好吗？别人脱稿讲话一样思路清晰，这还只是一点。你真以为别人是蠢货？ 我倒贴100w一个月我来，年入10亿轻轻松松 才83W？！放个P啊 上次说联想的老总是多少年薪? 减半？我不要，让我干 不要？我倒贴！ 然后共同富裕。 呵呵，到了那种职位的，薪资鸟都不鸟一眼，都懂的 让开,我倒贴五万，我上！ 一年倒贴十万，处级采油厂厂长抢着干 后面少了00吧 这不能叫工资，叫全勤补贴 我只想默默的问一句，，，在座的各位？？？你们信麽。。。。 我倒贴50000一个月 我白干，你敢不敢？ 我也觉得是，哈哈 加三个0 明修浅道，暗渡陈仓 还没有华为本科生年薪多吗？ 工资算零钱 估计易友还能让他扭亏为盈 我倒贴50000一个月，我来 我倒贴五百亿一年，还盈利五百亿 这点钱他们也看得上？磕碜人呢？ 你若如此自卑，别人也没办法，不过得承认一点，如果天天让我说假大空，我肯定会变非正常人类。 你知道的太多了 这种新闻真是欲盖弥彰，哎！ 工资确实是这些，没毛病，但有几个靠工资的？经销商只看营业额？不看吃的回扣？ 一年给我三万就行，我去 自己算一下要交多少税八十三万交多少钱五险一金再算算他的房产车子消费支出根本无法匹配 人是国企，你说的这些都是福利。 年年亏损还能发这么多？ 09年刚上班，去阿国的新员工月薪就上万了。 待己宽，责人严。 不管你们信不信，我反正信了。 这只是底薪而已！还有补贴奖金和年终分红没发出来。当然回扣就更不得了了。 这个工资不过是明面上的，暗的绝不会低于一个亿。 呵呵，这种消息就别报了，大家都知道怎么回事 真只拿这么点到反而不会有人骂了…… 我倒贴5000一个月，我来 工资卡从来不动的，看都懒得看。。。 税后肯定过百万了。 不要钱我也干 这都是零花钱 真的不多 职务消费、没完没了的房改房、、、、、、 两万，不能再多了 这么点工资，怨不得人家不好好干！ 你的意思是……一个月能灰辣么多？ nmd普通职工连3万都没得 零头吧 这是工资，隐形收入不在之列 我倒贴百万，我来！ 中建阿尔及利亚分公司一个区域经理都年薪50万了，还不用交个税~你中石化一把手才83万?谁信啊！ 我相信这个薪资减半，也有众多易友干的比它们好！ 年薪才83万？？ 每年亏几十亿，你们还好意思要那么高的工资？ 呵呵 同意，不管是开公司的还是做生意的，特么你去问百分之百都说亏，亏你妹 一边去！我倒贴50000一个月，我来。 看工资有什么用？得看资产 ｸﾞｯ!(๑•̀ㅂ•́)و✧一个月你能干啥 正常，每个做生意的都会说，这年头生意不好做，赔钱 你当是乞丐呢才加2个0，真是笑话了 我出十万 年年亏损还能发这么多？ 国企亏损的原因 我倒贴1000W让我当一个月就好了 呵呵 后面少了00吧 工资不动，老婆不用。 来来来，我倒贴100万，我就干一个月 一万，免休假 不是说年年都亏损么？？ 难怪总亏损，一把手这么点工资，能招到优秀的职业经理人？能把这么大公司管好？ 你们辛苦了！拿着微薄的薪水干着苦逼的活！ 全民财富，居然少数人说了算，要咋吃就咋吃。 给他发这么多，不是每个人都能去做的，因为这样的国企，最难的事是内耗，内耗不解决，这个位子就不稳。从这个角度说，83万偏少了，后面加个几个零，没问题。 灰色收入呢？ 电信老总多少??????? 不给钱都干 工资，这只是工资 亏损居然还有钱发工资 83万？谁信？ 我倒贴5000一个月，我来 我倒贴10万，让我做中石化把手吧，我保证让车友们点赞 我倒贴500万一年，让我来。 不要工资，我想干，可以不 我一个月给组织10万我干可不可以？？ 只有83万年薪？是基本年薪吧！ 太多了，一毛钱都不值。 有很多收入挂在底下员工的ERP里面的中石油处级干部都这么玩何况集团公司老大 这是一级工资吗？ 我只想说中石化下属的千人小单位的一把手也不止这点年薪，都起码过百万的。 年薪无所谓，我主要想知道奖金 减半？我倒贴钱，只要让干 想说明什么 我一年交83万让我来 据说集团老总可以在各个子公司挂名领不同的薪水的真信才83万的都是傻子 老总年薪是小头，不说别的，总经理一年费用都不得了，还不加上灰色收入。 你算个屁 我相信这个薪资减半，也有众多易友干的比它们好！ 怎么看都少俩零！ 国企亏损的原因！ 何德何能啊他们？ 今年奖金都不发了 才五千？我倒贴50万，我来 兄弟，你也太小气了吧？俺倒贴十万一个月，如果嫌太少，价格可以慢慢再商量 作为石化一员，工资惨不忍睹 以前新闻报道过康师傅儿媳妇名下的海外公司，一亿多美金购买设备，转手九亿美金卖给中石油。所以讨论这些部级老总年薪有意思? 一大家子的吃喝拉撒睡费用，都得排除在外，至少的。 自己算一下要交多少税八十三万交多少钱五险一金再算算他的房产车子消费支出根本无法匹配 才83万？谁信。那只是写在工资条上的而已吧，还有不在工资条上的部分呢 我倒贴五万一月我来 内行人啊 太少 这东西要是认真那就呵呵啦 知道了 实话说不多。 日薪比较可信 少3个0？？？？ 一个月倒贴五万都合算啊 哈哈哈哈哈哈哈 奖金都无所谓。重要的应该是他们私下控制的和国企有业务往来的公司 😄我是信了 800万我信 这是三张中其中一个 静跟帖 我信，呵呵 多吗？多少收入都不入账的 确实不高 我贴5万 lol 👏鼓掌！ 谁信！呵呵 我倒贴5000一个月，我来 太少 额，这个工资卡估计都忘记掉哪里了…… 这应该只是每个月的补贴吧？ 我相信 年年亏损还能发这么多？ 年薪？少了几个零？ 我真信了 8万3要人不 我信了，有希望了 我倒贴10000一个月，我来 这么低，我不信 哈哈相信吗 难为他们了，公司这么亏钱只能这么点了 我倒贴83万，让我干吧😍 呵呵 二级公司甚至三级公司一把手都不少呢。 有希望了。 能评论吗 沙发 按收入计至少漏写两个0 这么少吗？出乎意料，来个n线城市的信用社一把手也能拿这个数。 缺人吗？还招人不？ 三桶油一把手税前80多万？月薪吧？ 少算了两个零吧 看看 认真你就输了 谢谢🙏 ",
        "Reply": 176,
        "Link": "http://comment.news.163.com/news2_bbs/D6PAKF3A000187VE.html"
    },
    "KeyWords": "中石化,央企,年薪"
}