{
    "Article": "（原标题：涨知识｜元旦升旗仪式，礼号手为何站在天安门城楼上演奏）#endText.video-infoa{text-decoration:none;color:#000;}#endText.video-infoa:hover{color:#d34747;}#endText.video-listli{overflow:hidden;float:left;list-style:none;width:132px;height:118px;position:relative;margin:8px3px0px0px;}#entText.video-lista,#endText.video-lista:visited{text-decoration:none;color:#fff;}#endText.video-list.overlay{text-align:left;padding:0px6px;background-color:#313131;font-size:12px;width:120px;position:absolute;bottom:0px;left:0px;height:26px;line-height:26px;overflow:hidden;color:#fff;}#endText.video-list.on{border-bottom:8pxsolid#c4282b;}#endText.video-list.play{width:20px;height:20px;background:url(http://img1.cache.netease.com/video/img14/zhuzhan/play.png);position:absolute;right:12px;top:62px;opacity:0.7;color:#fff;filter:alpha(opacity=70);_background:none;_filter:progid:DXImageTransform.Microsoft.AlphaImageLoader(src=\"http://img1.cache.netease.com/video/img14/zhuzhan/play.png\");}#endText.video-lista:hover.play{opacity:1;filter:alpha(opacity=100);_filter:progid:DXImageTransform.Microsoft.AlphaImageLoader(src=\"http://img1.cache.netease.com/video/img14/zhuzhan/play.png\");}if(/(iPhone|iPad|iPod|Android|NETEASEBOBO|blackberry|bb\\d+)/ig.test(navigator.userAgent)||/safari|chrome|firefox/i.test(navigator.userAgent)&&navigator.plugins&&!navigator.plugins[\"ShockwaveFlash\"]){varstr1='<videocontrols=\"controls\"preload=\"auto\"width=\"100%\"poster=\"http://vimg3.ws.126.net/image/snapshot/2018/1/3/F/VA654P73F.jpg\"style=\"max-height:100%\">';varstr2='<sourcetype=\"video/mp4\"src=\"http://flv.bn.netease.com/videolib3/1801/01/eGWlo1712/SD/eGWlo1712-mobile.mp4\">您的浏览器暂时无法播放此视频.</video>';document.getElementById(\"FPlayer1404863609673\").parentNode.innerHTML=str1+str2;}揭秘：天安门广场升降国旗仪式有哪七大变化？（来源：original）window.NTES&&function(d){varf=function(c){varb=c.getAttribute(\"flashvars\"),a=c.getAttribute(\"repovideourl\").replace(\".flv\",\"-mobile.mp4\");h=d(c.parentNode.parentNode.parentNode),g='<embedsrc=\"http://v.163.com/swf/video/NetEaseFlvPlayerV3.swf\"flashvars=\"'+b+'\"allowfullscreen=\"true\"allowscriptaccess=\"always\"quality=\"high\"wmode=\"opaque\"width=\"100%\"height=\"100%\"type=\"application/x-shockwave-flash\"/>';if(/(iPhone|iPad|iPod|Android|NETEASEBOBO|blackberry|bb\\d+)/ig.test(navigator.userAgent)){g='<videocontrols=\"controls\"preload=\"auto\"width=\"100%\"height=\"100%\"><sourcetype=\"video/mp4\"src=\"'+a+'\">您的浏览器暂时无法播放此视频.</video>';}h.$(\".video\")[0].innerHTML=g;},e=function(b){vara=d(b.parentNode.parentNode.parentNode);a.$(\"li\").removeCss(\"on\"),b.addCss(\"on\"),a.$(\".video-title\")[0].innerHTML=\"string\"==typeofb.textContent?b.textContent:b.innerText,a.$(\".video-title\")[0].setAttribute(\"href\",b.getAttribute(\"url\")),a.$(\".video-from\")[0].innerHTML=\"（来源：\"+b.getAttribute(\"source\")+\"）\",f(b);};window.continuePlay=function(){vara,b=d(d(\".video-list.on\")[0].nextSibling);3==b.nodeType&&(b=d(b.nextSibling));if(b&&d(\".video-innerinput\")[0].checked){e(b);}},function(){vara={init:function(){if(d(\".video-listli\")[0]){d(d(\".video-listli\")[0]).addCss(\"on\"),this.eventBind();}},eventBind:function(){d(\".video-listli\").addEvent(\"click\",function(b){e(d(this)),b.preventDefault();});}};a.init();}();}(NTES);经党中央批准，2018年1月1日起，由人民解放军担负国旗护卫和礼炮鸣放任务。此前守卫国旗35年的天安门国旗护卫队（1991年以前为“天安门国旗班”）光荣结束使命。2018年的第一天，天安门的升旗仪式发生了哪些变化？一起来看。亮点一：军乐团演奏2018年元旦升国旗仪式最大亮点，就是有八名礼号手登上吹奏台吹响号角，嘹亮的号声划破夜空，迎来2018年的第一缕曙光。由军乐团八名礼号手在天安门城楼演奏《升旗号角》音乐，增加了升旗仪式的神圣感与仪式感。八名礼号手经过严格挑选，从技术到体貌都是最优秀的，未来一年基本不会轮换。解放军军乐团团长邹锐：其实第一个方案不是在城楼上，而是在第一辅桥这，我们看完以后觉得不行，感觉这八名礼号手应该站在更高点上，想来想去，我们感觉应该在天安门城楼上。因为我们想，站在天安门城楼上，就是站在五千年厚重的文化积淀上，去奏响新时代的号角。解放军军乐团的创作团队仅用了三天就写出了《升旗号角》，融入了中国的音乐元素，体现了大气恢弘庄严肃穆的特点。解放军军乐团创作室主任郭思达：创作号角音乐遵循了军乐号角的传统，不能太长，整体不到20秒，太长不能突出仪式感，怎么在这二十秒以内将气氛烘托出来，我在创作过程中深入考虑了这个问题。这次军乐团的入场方式由过去跟随护旗队执行演奏和返回，改为提前从广场南侧进场，在护旗杆基座南侧区域演奏，使护旗队出场和返回显得更加整齐划一。为了让国旗升起的时长与太阳经过地平线的时长相对应，原升国旗时需要演奏国歌三遍，用时2分07秒，而按照《国歌法》国歌必须完整演奏一遍的要求，新的升国旗方案将升旗时长改为46秒，演奏国歌一遍，原来演奏《歌唱祖国》的时机，也从护旗队出场行进间演奏改为升旗后返回时演奏，护旗队出场时不再演奏音乐。亮点二：礼兵迎旗礼兵迎旗，是此次升国旗仪式中的又一亮点，解放军仪仗队30名身着陆海空军礼服的礼兵在金水桥南侧列队，并行注目礼，体现对国旗的崇敬与热爱。新的护旗方队，由海陆空三军方阵组成，为体现气势，每月第一天升旗，国旗护卫队人数由过去36名增加到96名，平日由36名增加到66名，护旗方队齐步从天安门正中央券门走出，到金水桥南侧时变换为正步行进，同时持枪姿势由肩枪改为端枪，更好的体现了仪式的庄严感。走在国旗手与护旗队中间的分队长，此次从一名增加到了三名，他们分别身着陆海空军礼服，配挂指挥刀，代表解放军全军，负责发出升国旗口令。身着陆军礼服的升旗手同时执行了升旗和展旗的任务，另外两名着海军空军礼服的护旗兵握枪行注目礼。为达到最佳效果，每一处细微的改变，队员们都进行了刻苦的训练。解放军仪仗队训练处处长朱振华：升国旗任务非常神圣，任何一个动作任何一个流程出现差错都会给整个仪式造成影响，所以我们把每一个细节掌握好，通过刻苦的训练把它完成好，以求达到最佳效果。本文来源：网络新闻联播责任编辑：官平_NN4892",
    "Title": "元旦升旗仪式 礼号手为何站在天安门城楼上演奏？_网易新闻",
    "PublishTime": "01/01/201822:36:00",
    "Source": "Netease",
    "Comment": {
        "Content": "向军人致敬 向五星红旗敬礼!!! 威武！ 升旗仪式就看到了我们祖国的强大 耀我中华 彰显我国人民解放军威武雄壮。 中国万岁，万万岁。 很好！ 威武雄壮 彰显我国人民解放军威武雄壮。 壮观 升旗仪式就看到了我们祖国的强大 耀我中华 向军人致敬 大国风范！ 很好！ 帅气啊 威武雄壮 中国万岁，万万岁。 向五星红旗敬礼!!! 看看 威武！ 😁😁😁😁 ",
        "Reply": 14,
        "Link": "http://comment.news.163.com/news2_bbs/D73N2TLP000187VE.html",
        "Total": 286
    },
    "KeyWords": "天安门城楼,演奏,天安门,号手",
    "URL": "http://news.163.com/18/0101/22/D73N2TLP000187VE.html"
}