{
    "Article": "（原标题：职业打假这条路，不好走了）多年前，王海曾在杭州打假。新华社资料照片近日，著名打假人王海买了“六个核桃”，喝了以后认为自己没变聪明，将生产商和代言人陈鲁豫告上法庭，要求其退货并赔偿500元。目前一审法院以依据不足为由驳回王海诉讼请求，王海已上诉。27日，钱报记者在王海微博上看到，他依然在继续对此事发声。王海可以说是职业打假人的代表，实际上在杭州，也有这样一群人，以打假为生，他们有自己的江湖，有自己的规矩，甚至有自己的鄙视链。钱报记者辗转采访了几位职业打假人，试图一窥他们的江湖。有意思的是，他们不约而同地告诉记者，最近都在研究一个案子——杭州互联网法院此前公布的10大典型案例中排在第一位的刘某买奶粉一案，因为这是法院首次对职业打假人进行了界定，并且不利于他们。“不好混了，我已经在考虑转行。”有职业打假人向记者坦言。打假人：我反感整天去超市找过期商品的钱报记者辗转找到杭州一位资深职业打假人老周，记者提出是否可以跟随他去打次假，被他一口拒绝。他说，一是自己要低调，二是自己不是那种每天逛超市的打假人，他一年三五个案子就吃饱了。他告诉记者，今年他最大的一个案子是针对省内某品牌铁皮石斛的。“上半年的事，私了的，拿了二十几万赔偿，不算多，但现在大环境不好，差不多就行了。”他说，“其实就是铁皮石斛里多糖含量的问题，我跟了三个月才拿下。”老周说，职业打假大致分三类：公司化运作，比如王海和之前刘殿林的北方狼公司；二是合伙，三五人为多，分工明确，找目标、打假、打官司，然后分成；三是单干，散兵游勇，一般就是找超市的过期商品之类的，每月赚几千块零花。“说实话，我看不起这些整天逛超市打假的，丢人。”他说，这些人会故意把快过期的商品藏起来，过几天去找出来再索赔。“我们职业打假人的名声，就是毁在这些人手里。”老周说现在职业打假人高低分化很严重，像他们这样做大单的全国也就几十个，但跑超市或者专做网购打假的，多如牛毛。“我们要学的东西很多，最主要是法律。前几年就有个成都的，举报电视台索赔，结果成了敲诈勒索，被判7年，这就是不懂法。”老周说，职业打假出来，有20来年了，他们圈子越来越专业，有人专攻食品，有人专攻广告，像他是专攻药品保健品的。“做药的利润高，谈的余地大，口碑对他们很重要，同时国家对药品监管力度大，10倍的顶格赔偿也意味着我每单能赚的钱更多。”他说，“行有行规，我搞过你一次，肯定不会再搞了，还会帮你分析原因，对商家来说，就是学费。”对于自己的职业，老周笑了笑，“没有别人说的那么好，也没那么坏。我们这是商业打假，王海早就说了，打假和正义无关。”现状：职业打假人的日子越来越难过最近，老周在研究杭州互联网法院此前公布的10大典型案例中排在第一位的刘某买奶粉一案。“因为这个案子明确职业打假人不属于消费者，这就糟了。”老周感慨，“现在这个案子还没生效，但是我们担心会有示范效应，听说王海已经向最高法寄信了，就是希望明确消费者的认定标准。”老周说，这几年流行一句话，风口上，猪也能飞，但是风停了，猪就摔死了。对我们来说，风就是法律，法律吹起这个行业20几年了，现在，我感觉风要停了。“如果有一天，职业打假人在法律上明确，不属于消费者了，那我立马转行，其实我现在已经在考虑了。”像老周这样专做大单的职业打假者，受法律层面影响最大，而一些专门逛超市的打假人的麻烦，则来自于同行。钱报记者通过老周的关系找到专门逛超市的打假人赵小来（化名），他说，最好的时候一年能有20万进账。“现在是年底，在以前都是我们发财的时候，但今年不行，一来官司不好打，二来超市商场背后都有被招安的同行支招，纰漏不好找。”让赵小来郁闷的还有前些年冒出来的打假培训班，当时打假日子好过的时候，有些人剑走偏锋，搞打假培训班带徒弟，结果来学打假的培训三五天就上阵了。“素质差水平低，想钱想疯了，乱打官司，把一些基层的工商部门和法院都搞烦了，连累我们。”赵小来恨恨地说，目光短浅！对于未来，他还没想好，“但留给我们打假人的时间，可能不多了，我闻出味道了。”被打假者：我被职业打假者打到关门80后陈晓（化名）之前在杭州某大型商场开了家服装店。她就遇到了好几拨职业打假人，直接把她的店给“打垮”了。2015年，她的店开业，不久就遇到了几个奇怪的买家。“先来买一件衣服，然后过了几天，又来几个人，把我店里所有的这个款式的衣服，全部买走。然后，一次性拿着所有衣服来找我索赔，理由是标识有问题，一开口就是5倍赔偿。”陈晓说，“所谓的标识问题，有的是标着100%真丝，但是按规定，要标明是天然的还是人工的，我们的货源很多，有时厂家没标那么细，就吃亏了。”这一年，她仅仅5万以上的赔偿就赔了好几笔。这生意还怎么做，不久她只能关店。她说，这些职业打假人非常专业，背后肯定是有技术支撑，而且他们最喜欢她这样开在大商场里的店，因为一旦闹上去，商场为息事宁人，会给店家压力。“他们不要银行转账的，只要现金，有人曾经提了个行李箱，装了几十万赔偿款，扬长而去。”陈晓说，本来做实体店就难，圈子里不少都是因此而退出商场的。新趋势：网络打假造就一批“老司机”这几年，随着网购的兴起，网购市场成了职业打假人的新战场。钱报记者通过QQ群，很容易就找到大量的职业打假群。有些还要付费入群，有的标注着“专招大量新人，手把手教你成为人生赢家。”记者随意申请加入一个打假群，申请很快就通过，群里消息密密麻麻，群文件里还有新手需知和案例教程。群里还时不时跳出“开车了，开车了，上车的买票”这样的消息，下面会附上一个链接。记者点开一看，是某平台商家一款衣服的购买链接，价格是79元。记者查询新手教程，发现都是黑话。所谓开车，就是发现目标，准备打假。发这种链接的一般是群主或者老手，以“老司机”自称。所谓上车买票就是招呼多人一起去买，然后集中索赔。比如那个衣服就是仿冒大牌的，只要卖家说是正品或者高仿，他就完蛋了，肯定赔钱。而所谓“车票”就是返给老手的费用。记者看到，这个群里“开车”频率还挺高，半小时就跳出来三个单子。有老手说，成功率很高，有八九成。据媒体报道，就连王海，近几年也把打假的注意力放到了网上。他近日表示，这几年每年开支400万，今年可能会亏。职业打假人的起伏和法律息息相关1994年，消费者权益保护法正式施行。1995年，22岁的王海在北京以12副假冒索尼耳机开始他的打假人生。这一年，是职业打假人的元年。著名打假人杨连弟曾分析：1995-2000年是第一代打假人的时代，来钱快。2005年后，一些人过分看重打假索赔谋利的一面，致使打假屡屡受阻。2009年后是第三个阶段，食品安全法颁布实施，可索赔10倍，一大批人加入索赔大军。职业打假人被打是常事，出人命的也有。据新华社报道，震动最大的一起案件发生于2003年，“民间调查员”黄立荣在偷拍、监视紫禁城国医馆老板时被发现，被活活打死后抛尸。但这些年来，从法律层面来看，对职业打假人，是有利的。2014年1月9日发布的《关于审理食品药品纠纷案件适用法律若干问题》规定，被解读为法院支持“买假打假”，这让职业打假人有了底气。但是，近几年，风向似乎有所转变。2016年11月，《中华人民共和国消费者权益保护法实施条例(送审稿)》征求意见。其中有这样的表述：自然人、法人或其他组织以牟利为目的购买、使用商品或接受服务的，不适用本条例。今年6月，最高法的一份回复意见中提到，将“逐步遏制职业打假人的牟利性打假行为”。这一意见无疑对职业打假人不利。今年8月底，杭州互联网法院发布10大典型案例，其中在对排名第一的刘某买奶粉一案的解读中，首次对职业打假人的概念进行界定：职业打假人是指以牟利为目的，知假买假并向生产者、经营者主张惩罚性赔偿的自然人、法人及其他组织。同时明确，本案原告应认定为非消费需要的牟利性行为，其不属于《消费者权益保护法》中的消费者。在不少职业打假人看来，法律已经不站在他们这一边了。本文来源：浙江在线-钱江晚报责任编辑：范姜国一_NN9138",
    "Source": "Netease",
    "KeyWords": "打假,法院,法律",
    "Title": "职业打假人起诉\"六个核桃\"被驳回 同行：不好混了_网易新闻",
    "Comment": {
        "Total": 4676,
        "Content": "知足吧，再不行就告你敲诈了。 一罐饮料写六个核桃，你不会告他这一罐有没有用六个核桃？ 补脑，每天按时收看CCAV足够了！ 胸罩里面没有胸 文章中打假人所谓的有很多打假，并不是普通消费者认知中的“打假货”，有很多都是在找商品标识中不符合国家最新标准的内容进行威胁起诉要求私了和解补偿。比如国家要求从某一天开始在某类产品上强制执行一项新标准，但国家并不管在这个新标准生效之前厂家按照旧标准生产的（新规生效日之前这些产品也是符合当时的国家标准的合格产品）产品是否卖完了。那么在新规生效后，以前的旧规产品就属于法律意义上我不合格产品了，职业打假人就可以根据新规来要求私了补偿了。通常来说愿意花高价格来私了的公司都是正规的生产销售公司，不想被影响品牌声誉才愿意私了的。你想想杂牌公司有必要花大价钱来做这件事吗。 吃“六个核桃”能否是自己变得聪明就像吃旺旺吃雪饼会不会财旺福旺运道旺一样，这个本意为祝福讨彩头的广告用语是不会给你答案的。即便这样偏偏还是有人自以为喝了“六个核桃”就能使自己变成爱因斯坦，就像当初“走遍天下都不怕”的桑塔纳轿车一样，恐怕谁也没想用这辆破车去环游地球，横行天下。将自己的聪明才智寄托在“六个核桃”上，真不知王海是在打假还是在打脸？ 打假能成为职业，可想而知…… 金龙鱼油里面没有金龙鱼，老婆饼里面没有老婆，夫妻肺片里面没有夫妻。要打假的太多了。。。。。。。。 不能在往下说了 喝前不知道假的现在喝后知道假的，这不是变聪明了？ 大个核桃 一楼赶快喝点六个核桃 奶茶里有奶，<br>沙琪玛不是沙琪马<br>龟苓膏里有龟。<br>调侃时候也多学学。别自己闹笑话了。 作为卖家同时也是作为买家，深深的痛恨卖假货的人。但是现在网上的职业碰瓷打假人和一些不作为的行政部门，搞的很有默契一般的。反正收到举报后，不给举报人敲诈下。工商和物价部门也会给你施压意思意思下的。搞的我们都不好做生意了，对中国的经商环境是一种变相的伤害。 他说，“行有行规，我搞过你一次，肯定不会再搞了，还会帮你分析原因，对商家来说，就是学费！<br><br>我可以理解为这样么：商家作假，你打假，然后你教商家如何作假才能不被你们发现？ 打钱 一天一个厂消耗六个核桃，也是可以的 你可真逗，别人夫妻肺片有打广告说有夫妻吗，老婆饼有告诉你有老婆吗？金龙鱼的广告里说的是什么？蠢的不像话了 还真有人告过，但是人家六个核桃是商标和品牌，不代表含量 我准备起诉老婆饼 奶茶里面没有奶，<br>沙琪玛里面没有马，<br>龟苓膏里面没有龟。 我们这有家店叫小乔豆腐。。 王海说了打架和正义无关，冲这句我顶王海；觉得最卑鄙的是天天拼爱国骂不同意自己观点的人就是卖国，自己却跑米国生活的司马兰倪萍之流 真正的打假，光明正大的打假，让黑心商家付出惨重代价，相信大部分民众都会支持这种行为！但如此文这样打假，尼玛，和敲诈有什么区别？！ 支持网络打假 写这么多，只说明了你很蠢而已！告的是虚假宣传，别把人当成跟你一样 奶罩没有胸是消费者问题，不是商家问题 风口上，猪也能飞，但是风停了，猪就摔死了 我就一直纳闷，为何是告变聪明？直接告有没有6个核桃不是更简单粗暴？ 这玩意变聪明没变聪明真不好说啊？怎么测试？走两步？ 卧槽，你这不变聪明了吗？没喝之前你不会去起诉它，喝完以后，哎？我想到了打假，起诉它挣它个500块，这不是变聪明了吗？所以法院不会判你胜诉的 没有道德底线的打假人，确实让人恶心 海参炒面里面为什么没有海参 金龙鱼转基因，你不去搞，搞6个核桃，你的脑容量也就像个核桃 毛血旺没有毛[鄙视] 这些职业打假人基本是流氓 黄金搭档和黄金酒，脑白金可以去上法院起诉 职业打假就是骗子，自己拿到赔偿就好了，不管其他的 你理解的不对，应该是我搞过一次，我不再来了，但是我会告诉其他同行继续搞你，我只拿提成。 红牛在美国的广告语是红牛给你一双梦想的翅膀，有个歪果仁起诉说自己喝了后并没有长出翅膀。然后胜诉，红牛赔了8000万。所以王海这个事如果在美国会胜诉。 我要去京东买奶茶。 编，接着编。你就会吹牛逼。<br>“梦想的翅膀”，看清楚了，是梦想的翅膀。<br>你语文几年级的？法官会这样判？<br>你以为法官和你一样傻。<br>一看就是你瞎编的 支持打假，但有些人打假就是为了讹钱，给钱就不曝光！ 公牛里面有牛吗？ 一罐饮料写六个核桃，你不会告他这一罐有没有用六个核桃？ 一罐饮料写六个核桃，你不会告他这一罐有没有用六个核桃？ 吃“六个核桃”能否是自己变得聪明就像吃旺旺吃雪饼会不会财旺福旺运道旺一样，这个本意为祝福讨彩头的广告用语是不会给你答案的。即便这样偏偏还是有人自以为喝了“六个核桃”就能使自己变成爱因斯坦，就像当初“走遍天下都不怕”的桑塔纳轿车一样，恐怕谁也没想用这辆破车去环游地球，横行天下。将自己的聪明才智寄托在“六个核桃”上，真不知王海是在打假还是在打脸？ 跟贴被火星网友带走啦~ 真不耻你这种人，打假本身打的是有假，而不是去造假，如果打假有罪，那造假的呢？不可否认，有打假人是以些谋生，但是，社会就是需要这样，要进步，总要有一些刁民，不然，奸商根本不会在意，现在造假的成本太低了。既然社会的灰色充许造假，那我们做为消费者为什么不宽容对待打假？就拿你这个例子，聪不聪明是可以量化的，既然你广告说可以变聪明，那你厂家有什么实例来证明你没吹牛？气运旺这类是不可以量化的，可以忽悠，就比如很多保健品，药品广告的虚假宣传，就是因为你这类白痴的混蛋理论才大行其道。你才是消费者中的败类。 我准备起诉我自己，我对不起我自己！ 鸡仔饼，马打滚，菠萝包 我准备起诉我楼下的饼店，并不卖饼… 苹果，小米。都要抖？ 傻X这些人其实就是搞敲诈勒索的 他说，“行有行规，我搞过你一次，肯定不会再搞了，还会帮你分析原因，对商家来说，就是学费！<br><br>我可以理解为这样么：商家作假，你打假，然后你教商家如何作假才能不被你们发现？ 晚上去买十份夫妻肺片 完了，如果法律定义职业打假人不是消费者，我们消费者打假时会被定义成职业打假人！ 很多不是假货，而是标识问题 你是智商不够，六个核桃那是商标。它的广告宣称变聪明 为了讹钱的职业打假，跟敲诈勒索有什么区别 支持. 真正的打假，光明正大的打假，让黑心商家付出惨重代价，相信大部分民众都会支持这种行为！但如此文这样打假，尼玛，和敲诈有什么区别？！ 真真假假，假假真真 没有市场了 我准备起诉老婆饼 反诉，我用了7个核桃，虽然小了点。呵呵。 三只松鼠瑟瑟发抖 打假的初衷是为了打击假冒伪劣！但是如果成了私下敲一笔，私下一锤子买卖或是私下搞过你家我就不会再搞之类的买卖！不把打的假公布于众，服务于大众，那何来打假之说！唯剩敲诈勒索欺名盗世之名罢了！ 楼上明白人。这些垃圾就是在这些小的很容易出错的细微之处利用法规逼迫执法部门变相促成他们敲诈。 支持打假，但有些人打假就是为了讹钱，给钱就不曝光！ 你行你上啊，说的轻巧 我买了奶茶，但奶茶却躺在东哥床上，我就问这事消协管不管？ 六个核桃只是产品名称不是内容，如果这都可以告，卖老婆饼的就完了 我还是共产主义接班人呢 打假可以采取任何手段！ 不能在往下说了 这种打假人也只是为了敲诈一笔 这种有误导性的商标难道就正常了吗 起诉天猫商城，，居然没有卖猫的，，弄虚作假，要求马云去改名字 这些以打架为名敲诈的杂-碎早就该有人收拾了。 如果给钱就能不曝光可以私了，那就不需要打假 这些以打假为名敲诈的垃圾早就该有人收拾了。 曾经在商场看见逗比的一幕，一个男的拿着发票要求营业员给他退货，营业员不给退，原因是他根本没拿货。那人说，你知道我是干嘛的啊，不给退你等着，我不相信你家产品都没问题……这就是打假的真实面目[报警] 虽然我鄙视打假人为了自己利益跟商家私了，然后商家继续做偷鸡摸狗的事。因为他们根本不是为了公众利益爆光假货，而是为了自己利益拿到钱后就不够那些假货。但要是连职业打假人都没有的话，那商家就更毫不忌惮地做假了。因为中国人：毫无诚信。为了钱，连祖宗都会出卖的那一类人群。 建议多学一些GB开头的文件，在上1688很容易就能找出问题了！ 只有锤子不怕，有种来试试😏😏 打假去农村啊，到处都是假货 中国的假货泛滥，谁的责任，你买过没有，怎么解决的呢 这要是能胜诉，中国的广告全要改！ 跟贴被火星网友带走啦~ 奶茶里面没有奶，<br>沙琪玛里面没有马，<br>龟苓膏里面没有龟。 方舟子，职业打假人😁 我就一直纳闷，为何是告变聪明？直接告有没有6个核桃不是更简单粗暴？ 没有道德底线的打假人，确实让人恶心 这些以打架为名敲诈的垃圾早就该有人收拾了。 国家不是有相关打假部门么？ 我看到的和这差不多！ 我要起诉丝袜奶茶 支持打假人！有这些打假人，才让黑心商家有所顾忌！希望越来越多这样的人 换做是我，让你有命拿，没命花！ 所以，浑水好摸鱼，这些地痞流氓只要披着打假人的外衣就可以敲着勒索？ 很早以前关于职业打假的话题就撕逼过一阵，有的说不管怎样打假就是好的，有的说这些职业打假就是打着正义的旗号敲诈。打假本身没错，但拿这点作为讹钱的手段就不对了，比如某商家售假，某职业打假人直接起诉，获得赔偿的同时公开这个商家，作为售假的惩罚，也同时告诉其他人不要上当，既获得了利益又服务了大众。但事实却是，打假人直接跟商家私了，获得赔偿之后就不再理会，商家继续售假的同时也学会了如何更好的使假货不被人发现或投诉，坑的就是之后的普通买家。告六个核桃不就跟前段时间告旺旺雪饼的一样？实在没辙了，这么低端下流的手段都用上了，职业打假人，呵呵，你们是自己把自己打死的 一罐饮料写六个核桃，你不会告他这一罐有没有用六个核桃？ 有是真有这事，但印象中不是判决的，红牛主动赔的八千万，相当于广告费，比打广告便宜多了。 我要去京东买奶茶。 跟贴被火星网友带走啦~ 难道厂家买了6个核桃一直用到现在? 那么多大个核桃，康帅傅，农天山泉，怎么不去打掉。 现在的打假已经产业化了，有点往合法敲诈方向发展了。 混字用的好 他说，“行有行规，我搞过你一次，肯定不会再搞了，还会帮你分析原因，对商家来说，就是学费！<br><br>我可以理解为这样么：商家作假，你打假，然后你教商家如何作假才能不被你们发现？ 就你那。 干了工商局的工作 我做过，可我不想说 其实是自导自演的一出戏吧，请人去告的，炒作咯，知名度就出来了，比直接打广告有效多了 不知各位有没有喝过二八个福核桃？ 我准备起诉老婆饼 曾经在商场看见逗比的一幕，一个男的拿着发票要求营业员给他退货，营业员不给退，原因是他根本没拿货。那人说，你知道我是干嘛的啊，不给退你等着，我不相信你家产品都没问题……这就是打假的真实面目[报警] 就是群垃圾给自己贴金，好多震动大的都是记者报的，他们收了钱就不会报了 黑吃黑 你认为有光明正大打假的人？<br>你真应该多吃六个核桃了！ 取消消费者权益保护法，维护造假售假者的利益才是维护安全稳定的局面所必须的。 因为他们要不到钱 打假应该去买：大个核桃、雷碧、康帅傅才对吧！ 我准备起诉煲仔饭！ 编，接着编。你就会吹牛逼。<br>“梦想的翅膀”，看清楚了，是梦想的翅膀。<br>你语文几年级的？法官会这样判？<br>你以为法官和你一样傻。<br>一看就是你瞎编的 跟贴被火星网友带走啦~ 老婆饼店家吓的瑟瑟发抖啊 ”他说，“行有行规，我搞过你一次，肯定不会再搞了，还会帮你分析原因，对商家来说，就是学费。”看看这一段，言外之意就是敲你一笔学费再教你做那么造假不会被别人再敲一笔。 6个核桃只是一个名字，又没说有6个核桃 为了利益而打假，这就不对了！ 现在的打假相当于敲诈 买了东西就是消费者啊，你管人家买来做什么？ 我准备起诉中南海香烟 红牛在美国的广告语是红牛给你一双梦想的翅膀，有个歪果仁起诉说自己喝了后并没有长出翅膀。然后胜诉，红牛赔了8000万。所以王海这个事如果在美国会胜诉。 它也没有说一罐6个核桃啊，你去告了，他说是一箱6个核桃，咋整！ 不是外国人值钱，而是我们命贱 真正的打假，光明正大的打假，让黑心商家付出惨重代价，相信大部分民众都会支持这种行为！但如此文这样打假，尼玛，和敲诈有什么区别？！ 我准备起诉红旗<br>不是说全景天窗带话筒的吗 职业打假人就是一群黑吃黑的，讹过一次的商品不会讹第二次，而且更喜欢私了，还不曝光商品，根本就不能称为打假 以前不是调查说这里面其实只有2个核桃吗 我准备起诉鱼香肉丝。 鸡精也不是鸡精啊 奶茶里有奶，<br>沙琪玛不是沙琪马<br>龟苓膏里有龟。<br>调侃时候也多学学。别自己闹笑话了。 怎么看不起我雷碧，舒钛佳 傻逼吗卖老婆饼的说了饼里有老婆？奶茶里面没有奶这个可以起诉。。。。。。。。。。 BB霜里没有逼！ 我就一直纳闷，为何是告变聪明？直接告有没有6个核桃不是更简单粗暴？ 我就不明白为什么打假遭法院，也就是政府的抵制?很明显这是国家在鼓励造假 奶茶里面没有奶，<br>沙琪玛里面没有马，<br>龟苓膏里面没有龟。 就是，这么简单的。还变聪明，你怎么证明你没变聪明，你干脆装傻算了，说喝了它你变傻了😂😂😂 这帮职业打假人早已成立了职业打假联盟。<br>他们全国收保护费，只要向他们当中的任何一帮人每年交保护费，全国的职业打假人就都不会打你的假！<br>如果你开个大超市，他们就会三天两头来制造你的假货，他们把超市里即将到期的食品藏起来，等过两天过了有效期了再找出来，付款买走，再索赔！<br>而且长年累月的搞你，搞到你疲于应付乖乖地给他们交保护费为止！<br>而这批全国敲诈勒索的所谓打假人几乎全是东北人！<br>而且他们干这事还没有犯罪成本，上次两个东北小伙把超市快过期的保健品往超市的雨靴里藏，被当场逮到，警察来了也就训两句就放人。 打假的正面效果是促进企业和厂家不敢制假，不敢宣传；负面效果是部分小厂和超市会遭到骚扰。两者相权，前者保护了广大消费者的权益，后者伤害了企业主的利益。从国家政策是否支持打假，就能看出这个国在乎的是谁的利益。 最搞的是美国太空计划时期，有个玩具宇航服，孩子穿上了天天嚷嚷要去太空，爸爸一怒把厂家告了，结果胜诉，厂家巨额赔付，新包装上标识此玩具不能上太空。<br>自己不规范，就别埋怨别人钻空子，商家厂家钻法律空子可以，老百姓用法律维护自己合法权益却难。呵呵 那就告他一箱有没有6个核桃，实在不行就一车 无底限的广告，招来无底限的打假，伤害正常的消费者 什么职业打假人，说白了就是一群敲诈勒索的人，专门挑刺的。我们的批发市场一大堆高仿，标志不齐全的产品，为什么不去打？因为人家根本不给你开发票。还有这个网络打假，那是打假吗？专挑商家描述不严谨的地方，咬文嚼字 这也敢去碰瓷 一罐饮料写六个核桃，你不会告他这一罐有没有用六个核桃？ 有是真有这事，但印象中不是判决的，红牛主动赔的八千万，相当于广告费，比打广告便宜多了。 真正打假的是很少很少的，大部分都是找标签瑕疵或是去超市“搞”过期商品。<br>要是真想打假，足不出户就可以，某宝上大量一看就是假货的，还有电视上的保健品。 记得很早一个案例，西单商场一个柜台，卖计算器，卡西欧的！王海一下买了十几台，后来经鉴定的确这批计算器有问题，商场赔款！此事还被新闻报道过！我个人觉得，这样的打假才是真正的打假，作为老百姓肯定支持的！但现如今发展到六个核桃喝了不聪明？这成什么样了！法院肯定不会让王海胜诉！ 吃“六个核桃”能否是自己变得聪明就像吃旺旺吃雪饼会不会财旺福旺运道旺一样，这个本意为祝福讨彩头的广告用语是不会给你答案的。即便这样偏偏还是有人自以为喝了“六个核桃”就能使自己变成爱因斯坦，就像当初“走遍天下都不怕”的桑塔纳轿车一样，恐怕谁也没想用这辆破车去环游地球，横行天下。将自己的聪明才智寄托在“六个核桃”上，真不知王海是在打假还是在打脸？ 驳回上诉! 我的名字叫陈百万，我正在考虑起诉父母，现在急需几千块诉讼费，谁给我胜诉后分你一半50万 看了很多美帝的律政片子，感觉就是两帮律师拔河，法官负责当裁判，美帝的司法也不是一定就公正的，国内的司法，律师存在感太低，像个新闻发言人，法官一肩挑，唯一除外的就是以国家各个机构、集体名义起诉的，官告民一般都是碾压，这个是最可怕的。 人家说来厂子的时候买了六个核桃，不是一瓶六个，也不是一件六个 不错了有这些人存在商家还稍微有点良心没这些人坑蒙拐骗都带出来了 自己井底之蛙就多看看新闻😂😂 文中这个就是啊私了就行 工商质检不作为，还不允许个人作为，这不是纵容制假售假嘛 妈的！三头两天来找麻烦，恨死这帮职业打假人，打的不是假，是玩的文字游戏，有良心本事的就应该去找假冒产品，不要纠着广告法的漏洞和商家还有工商部门玩文字游戏 我准备起诉老婆饼 我们这有家店叫小乔豆腐。。 没写是每一小罐哪…… 的确 说实话连卖假货的都瞧不起打假这行，太龌龊了。 红烧狮子头东坡肉 这些都是些混子打着打假的幌子公然进行敲诈..不仅线下商家不能避免连网店都会被这些混蛋搞 河南有个六仁核桃 我准备起诉:买房送老婆 商家行骗，他们敲诈，破财免灾，蛇鼠一窝[微笑][微笑][微笑] 不知道那个告全家桶不够全家吃的咋样了 我去起诉龟苓膏 红牛在美国的广告语是红牛给你一双梦想的翅膀，有个歪果仁起诉说自己喝了后并没有长出翅膀。然后胜诉，红牛赔了8000万。所以王海这个事如果在美国会胜诉。 编，接着编。你就会吹牛逼。<br>“梦想的翅膀”，看清楚了，是梦想的翅膀。<br>你语文几年级的？法官会这样判？<br>你以为法官和你一样傻。<br>一看就是你瞎编的 支持打假，但有些人打假就是为了讹钱，给钱就不曝光！ 职业打假办可以有 美国是律师监督，只要有企业违规。一大群律师名利双收。中国的律师存在感很低 记者二货啊，开车的和刷单的广告一样都是骗人的，有钱自己赚不好吗？收了钱就拉黑，多少年的骗局了 你比王海还聪明呢。<br>王海其实不用去打假，随便到什么公司做个顾问，每年大几百万的也有的拿。让你们买假货，还吆喝，好东西啊！ 突然想起，好像在哪见过六对核桃，加量不加价 怎么不去打老婆饼的假 还有鱼香肉丝，鱼香茄子、夫妻肺片、龙须酥… 是不卖违法产品了，只要卖就会被打假人发现，就会被买走然后赔偿，这样就净化市场了！ 建议往中医药上拓展业务。 开始王海认为喝六个核桃能变聪明！喝了以后认为没有用，不是变聪明了吗！ 妈逼的，人家商标是六个核桃，你去查查看，五个核桃，四个核桃都被注册了 其实里面没六个核桃。 还有大个核桃，也是加量甚至还降价的。 大哥一起吧，我买了五盒都没在里面找到老婆！ 他只要赢了大家都买一罐都起诉去 人民币也没有人民阿，是不是要…… 奶茶里面没有奶，<br>沙琪玛里面没有马，<br>龟苓膏里面没有龟。 呵呵，说白了就是敲诈！吹什么职业打假。打假是明面上的，让大众知道的，服务大众的！你这私了什么的跟敲诈有什么区别？无非就是黑吃黑，黑更黑 黄金搭档和黄金酒，脑白金可以去上法院起诉 搅乱中国道德体系！ 他说，“行有行规，我搞过你一次，肯定不会再搞了，还会帮你分析原因，对商家来说，就是学费！<br><br>我可以理解为这样么：商家作假，你打假，然后你教商家如何作假才能不被你们发现？ 如果是真的，那红牛应该赔每个美国人8000万他陪的起吗？一看就是假新闻，弱智才信 王思全家 卖老婆饼的瑟瑟发抖。。。 知足吧，再不行就告你敲诈了。 一罐饮料写六个核桃，你不会告他这一罐有没有用六个核桃？ 正宗奶茶里有奶啊 没告你敲诈勒索就不错了。 吃“六个核桃”能否是自己变得聪明就像吃旺旺吃雪饼会不会财旺福旺运道旺一样，这个本意为祝福讨彩头的广告用语是不会给你答案的。即便这样偏偏还是有人自以为喝了“六个核桃”就能使自己变成爱因斯坦，就像当初“走遍天下都不怕”的桑塔纳轿车一样，恐怕谁也没想用这辆破车去环游地球，横行天下。将自己的聪明才智寄托在“六个核桃”上，真不知王海是在打假还是在打脸？ 老婆饼怎么办？ 老子的评论呢？？ 是丈母娘的问题，丈母娘也是商家，这假必须打！ 风口上，猪也能飞，但是风停了，猪就摔死了 还真有这事[微笑] 夫妻肺片已退出中华美食榜 这王八蛋就是喝六个核桃变聪明了，也会装傻说没变聪明，因为他要讹钱 没有这种人，商家更加肆无忌惮！ 是的，人家打假就是为了赚钱，和正义无关 看他的下一句，打假与正义无关。 我准备起诉老婆饼 真正的打假，光明正大的打假，让黑心商家付出惨重代价，相信大部分民众都会支持这种行为！但如此文这样打假，尼玛，和敲诈有什么区别？！ 打假的人有钱拿，执法的有款罚，真是非常好的配合啊，可怜了那些做实业的人，还在苦苦支撑，真是操蛋的法 一看就是变聪明了呀！ 说白了,就是有后台的敲诈勒索,狮子大开口,不劳而获,但我个人目前表示支持 广告虚假宣传不要与称呼抠字眼混淆 欢迎职业打假人继续加大打假力度！他们的钱赚得有理有节、合法合规，是不法商家的克星，是消费者保护神！ 1楼说的是真的.广告原话忘了.反正是红牛赔了一大笔钱 这能叫职业打假人吗？跟敲诈我看也是差不多了。都是选择私了。。也就呵呵了。。 支持打假，但有些人打假就是为了讹钱，给钱就不曝光！ 以前国外不是有个告红牛的都胜诉了 打假困难重重 事出有因，如果这样都行，在美国王海早就是首富了。 我们村小卖部有八个核桃，比你们多两个[挨揍] 你说的这个，在12.24日有详细报导， 真的龟苓膏里还真的有龟 桑塔纳你还别说，真的走遍天下都不怕。上西藏的都有。 当打假成了赚钱的职业，这就和靠罚款吃饭没区别了 红牛在美国的广告语是红牛给你一双梦想的翅膀，有个歪果仁起诉说自己喝了后并没有长出翅膀。然后胜诉，红牛赔了8000万。所以王海这个事如果在美国会胜诉。 你都发现你没变聪明，你说你变没变聪明 看来中国人认同骗子 你还真以为有人会为了公义去打假 奶茶里面没有奶，<br>沙琪玛里面没有马，<br>龟苓膏里面没有龟。 我们是商业打假,不是为了正义!<br>但我还是支持你! 打生产厂家才最支持 作为卖家同时也是作为买家，深深的痛恨卖假货的人。但是现在网上的职业碰瓷打假人和一些不作为的行政部门，搞的很有默契一般的。反正收到举报后，不给举报人敲诈下。工商和物价部门也会给你施压意思意思下的。搞的我们都不好做生意了，对中国的经商环境是一种变相的伤害。 职业打假人就是垃圾 这是敲诈勒索。看不起这帮人。 他说，“行有行规，我搞过你一次，肯定不会再搞了，还会帮你分析原因，对商家来说，就是学费！<br><br>我可以理解为这样么：商家作假，你打假，然后你教商家如何作假才能不被你们发现？ 智商不够用，还是太想钱？ 我准备投诉电视台，春节晚会上恭喜发财，结果我并没有发财，索赔！！！！ 他们是属于碰瓷党吗？ 编，接着编。你就会吹牛逼。<br>“梦想的翅膀”，看清楚了，是梦想的翅膀。<br>你语文几年级的？法官会这样判？<br>你以为法官和你一样傻。<br>一看就是你瞎编的 打击假冒伪劣产品是政府部门的职责，而现在普通老百姓干着政府应该干的事！请问你们在干什么？不作为？占着茅坑不拉屎？？ 如果政府各职能部门，管理部门都像“打假人”一样主动出击，追究到底，何愁假货、伪货、毒货泛滥？<br>现在他们是坐在家里————坐等出事！ 我就想说红牛 这些人比商家还无耻! 一罐饮料写六个核桃，你不会告他这一罐有没有用六个核桃？ 就算收了前不曝光，对商家来说也是一笔开支，下次造假就有顾虑，对你普通消费者没有害处吧 无利不起早。 吃“六个核桃”能否是自己变得聪明就像吃旺旺吃雪饼会不会财旺福旺运道旺一样，这个本意为祝福讨彩头的广告用语是不会给你答案的。即便这样偏偏还是有人自以为喝了“六个核桃”就能使自己变成爱因斯坦，就像当初“走遍天下都不怕”的桑塔纳轿车一样，恐怕谁也没想用这辆破车去环游地球，横行天下。将自己的聪明才智寄托在“六个核桃”上，真不知王海是在打假还是在打脸？ 去告他老婆饼里面没有老婆啊 其实六个核桃是商标。。。你这招没用，告不了 前两天我们这的大超市遇到两个这样人在货架上不知怎么翻的找到了两瓶过期的饮料后来向超市要几万块钱解决事超市不干把厂家叫来了厂家来了七八个人那俩打假的开车就跑了 看来煲仔饭有难了 起诉你老妈，是不是你爸的真种。 什么打假人百分九十都是敲诈勒索 他说，“行有行规，我搞过你一次，肯定不会再搞了，还会帮你分析原因，对商家来说，就是学费。”交过钱后继续卖，他也不打了，这就是打假 是这个理。 实力大了，大家明知欺骗人的，你所谓打假人也斗不了的。是非你的实力背景比那些欺骗集团更大才能够斗败他们。 你要是打到假的会坚决曝光不法商家，我敬你是个斗士，你要收了钱就不曝光，和寄生的蛀虫有啥区别？？ 我准备起诉老婆饼 我起诉鸡仔饼 真正的打假，光明正大的打假，让黑心商家付出惨重代价，相信大部分民众都会支持这种行为！但如此文这样打假，尼玛，和敲诈有什么区别？！ 商家得意思事从出产到现在一共用了六个 有那么多假货吗？别骗我了！ 打钱 舅扶你 毛血旺没有毛[鄙视] 呵呵 林子这么大，容不下啄木鸟 你理解的不对，应该是我搞过一次，我不再来了，但是我会告诉其他同行继续搞你，我只拿提成。 是六个核桃没错只不过这家厂子开了这么多年六个核桃一直没用了 编，接着编。你就会吹牛逼。<br>“梦想的翅膀”，看清楚了，是梦想的翅膀。<br>你语文几年级的？法官会这样判？<br>你以为法官和你一样傻。<br>一看就是你瞎编的 支持打假，但有些人打假就是为了讹钱，给钱就不曝光！ 哎，开小超市的，稍微有点小问题，张嘴就讹八千一万的，有时候根本不是什么大事，比如买散装的东西，一堆里面有一两颗腐坏的，专挑腐坏的买，你有啥办法，小本生意心惊胆战的。 这些职业打假人基本是流氓 写六个核桃，却只用两个，没诈？ 不要谈道德，只要客观上能让商家为造假付出代价就可以，对普通消费者没害处 你以为谁都可以钓鱼吗？ 中国奇怪之处就在于很多新事物开始出现的时候是良性的，出发点和初衷是好的，但是一旦过几年就变味了，比如职业打假慢慢和讹诈挂上钩之后，谁来维护正常的市场秩序呢？比如说良心商家遇上流氓的时候警察帮流氓，商家迫于无奈杀人还被判个死刑，这叫什么事？ 红牛在美国的广告语是红牛给你一双梦想的翅膀，有个歪果仁起诉说自己喝了后并没有长出翅膀。然后胜诉，红牛赔了8000万。所以王海这个事如果在美国会胜诉。 我想问，那消协，工商，的什么部门不去管商家么？不然何有专业打假这职业？ 明明是变傻了，这种事情都做出来。 他肯定变聪明了啊，不变聪明怎么知道自己没变聪明？！ 这种明显谣言就别传了，高额赔偿在国外是确实受到严重损害才会有，这明显没受到什么损害怎么可能赔那么多。 按正常工艺奶茶和龟苓膏里应该有奶和龟的。<br>沙琪玛确实就只是个音译。 虽然打架可以威慑不良商家，但很多职业打假人其实并没有所谓的正义感，完全就是一门黑吃黑的生意，很多时候被打假人也很冤，他们的目的就是钱，并不会真正去为大家追求公平，所以个人很难对这些人有好感。 培养了一批不劳而获，敲诈勒索的害虫，让真正做事的人心寒 我刚刚写好投诉书，旺旺大礼包买了我股票还跌了 奶茶里面没有奶，<br>沙琪玛里面没有马，<br>龟苓膏里面没有龟。 职业打假，还是职业敲诈，政府也说了很多假话，你去打假试试 这打假人明显是奔钱去的，不是为了真的打架。吃了六个核桃没变聪明就去告，这有点.......别说吃六个核桃，就是吃一箩筐核桃也不可能变聪明的。 不跑等揍幺？ 到现在才看出来么，早期不是个个拍手叫好？都说了这种人打的假并不是什么小作坊的假食品又不是某某得假药。 耶，王海的日子不好过呢[狗][狗][狗] 社会上出现打假人，只能说明我们的政府相关部门不作为，占着茅坑不拉屎！查处假冒伪劣产品是他们的职责！而现在却是普通老百姓在做，请问政府的职能部门在干什么？？？😡😡 他说，“行有行规，我搞过你一次，肯定不会再搞了，还会帮你分析原因，对商家来说，就是学费！<br><br>我可以理解为这样么：商家作假，你打假，然后你教商家如何作假才能不被你们发现？ 卧槽，你这不变聪明了吗？没喝之前你不会去起诉它，喝完以后，哎？我想到了打假，起诉它挣它个500块，这不是变聪明了吗？所以法院不会判你胜诉的 其实他已经变聪明了，因为他都知道去告人家了嘛 你已经够聪明的了，都会用漏洞赚钱了，不需要吃东西加属性了。 职业打假人就是敲诈勒索，给了钱啊就不公开，不给钱的就公开，压根不是为普通消费者考虑，建议一律入刑。 被门挤过的核桃还能补脑吗？榨成汁的呢？ ",
        "Reply": 348,
        "Link": "http://comment.news.163.com/news_shehui7_bbs/D6NP9KGA0001875P.html"
    },
    "PublishTime": "12/28/201707:28:51",
    "URL": "http://news.163.com/17/1228/07/D6NP9KGA0001875P.html"
}