{
    "URL": "http://news.163.com/18/0101/02/D71GATUR0001875P.html",
    "Article": "（原标题：相信时间，相信世道，相信人心）今天，我们站在改革的延长线上，我们走在时间的脉络中。一个向好的社会，会珍视并呵护每一个人的价值。一元之始，岁在大寒。气候依然凛冽，而南北一脉，都已微微来风、阳气萌动。春天不远了。不必慨叹时光荏苒，不必悔恨岁月蹉跎，当新年的晨钟静静响起，你我无需在心里栽培苦涩。一百年前，梁漱溟的父亲梁济问儿子：“这个世界会好吗？”正在北京大学当哲学讲师的儿子回答说：“我相信世界是一天一天往好里去的。”四十年前，一声大地回春的惊雷，宣告结束了冬季的讯息。在那个冰雪消融的季节，在那个乍暖还寒的晨曦，中国用实事求是的理念凿破坚冰，走出泥泞，追求真理。那是改革开放元年，从那时起，改革开放便成为中国飞速发展的动力。古老的华夏大地，迸发出一波又一波的潮涌浪击。今天，我们站在改革的延长线上，我们走在时间的脉络中。走过2017，合上过往之书，站在新的历史起点，瞰览大江大海，踩着苍茫大地，你会发现，过往的诸般不如意，终将过去；未来的种种期许，有待开启。而无论是那些在微凉大地上、璀璨星空下行走的个体生命，还是我们身边的家、身后的国，对于即将绽放的日子，都有内心烁亮的理由。这一束束烁亮的光，也必然会照亮每一个人前行的路，照亮人性的幽暗与波折，照亮浩茫世事的边边角角。2017，这个沧桑饱历的国度，走过了极不平凡的一年。大事件浩荡而来，令人目不暇接。“进入了新时代”“新的历史方位”“社会主要矛盾已经转化为人民日益增长的美好生活需要和不平衡不充分的发展之间的矛盾”……纲举目自张，举旗即定向。举世瞩目的十九大，为中国擘画了新图景，绘制了路线图，开启了新征程。在过去一年，雄安新区横空出世、“一带一路”高峰论坛举行、反腐败以前所未有的力度深入推进、香港回归二十周年……经济社会中次第出现的宏大叙事，如疾风，如骤雨，冲刷着也定位着这个新时代。光华灿烂，宏旨清晰。同时，我们也时常会回想起那些在时代暗角闪过的面影。范雨素自述“走红”之后没啥改变，就是一种生活的常态；一个李文星沉溺水坑，而众多的“李文星们”正在期待社会的援手；“格斗孤儿”被劝回大凉山，他们的未来会怎样？无论被记住还是被遗忘，他们都是这个时代的注脚，其存在或掠过本身，就是一个提醒、一次尖锐的刺痛。一个向好的社会，会珍视并呵护每一个人的价值。往者可追，来者可期。大江奔腾，一路向前，2018年，早就被烙上了“改革开放40周年”的印记。过去40年，中国的发展，民众的福祉，乃至各种松绑、释放、跨越，均可以溯至这铿锵有力的四个字——“改革开放”。不忘初心，方得始终。于此节点，我们纪念改革开放40周年，而最好的纪念，就是继续全面深化改革，继续扩大开放。大道直行，其命维新。40年激荡，改革是波，开放为浪。也正是这40年的浪奔波涌，形塑了我们今天所处所在的这个时代截面。我们在革新的气候下生长，也在开放的环境中舒展。我们行经之处，总有改革路牌，探寻之路，常有开放掌灯。于是我们的视野越发开阔，观念越发开放，我们渐次知悉权力与权利的边界，渐次了解现代文明与未来科技的向度。当认知的奔流之势已成，便不可切断与拽回。这便是我们今日所生活的现实世界。过去40年塑造了我们的灵魂，也锻造出了今日之中国，与今日之世道人心。世道，指向大势，是社会发展演进的规律，乃国运所系；人心，指向个体的公平、正义、是非，是每一个人的获得感，是每一个人都能感受到的幸福、尊严和美好！也正是因此，我们更应对自己保持一份信心，相信我们面对人生的波折没有那么脆弱，相信社会，相信世道，相信人心，相信中国，相信世界潮流大势，面朝文明、开放、法治等永恒的价值，我们有理由期许更加美好的未来。我们在新年来临之际栽种期许之树，期许未来的日子和阳光。未来未必平坦，或有波折，但这些都难阻这棵树开花、结果，而幸福都是奋斗出来的。时间会给我们答案，答案就在我们前行的步履中。不妨希冀，不妨应许。你好，2018！本文来源：新京报责任编辑：韩佳鹏_NN9841",
    "KeyWords": "未来,GDP,国运",
    "Source": "Netease",
    "Comment": {
        "Reply": 0,
        "Content": "",
        "Total": 3,
        "Link": "http://comment.news.163.com/news_shehui7_bbs/D71GATUR0001875P.html"
    },
    "PublishTime": "01/01/201802:04:41",
    "Title": "新京报元旦社论：相信时间，相信世道，相信人心_网易新闻"
}