{
    "Article": "（原标题：上海夫妇疑惑家里钱包总少钱，客厅监控拍下钟点工打扫时行窃）#endText.video-infoa{text-decoration:none;color:#000;}#endText.video-infoa:hover{color:#d34747;}#endText.video-listli{overflow:hidden;float:left;list-style:none;width:132px;height:118px;position:relative;margin:8px3px0px0px;}#entText.video-lista,#endText.video-lista:visited{text-decoration:none;color:#fff;}#endText.video-list.overlay{text-align:left;padding:0px6px;background-color:#313131;font-size:12px;width:120px;position:absolute;bottom:0px;left:0px;height:26px;line-height:26px;overflow:hidden;color:#fff;}#endText.video-list.on{border-bottom:8pxsolid#c4282b;}#endText.video-list.play{width:20px;height:20px;background:url(http://img1.cache.netease.com/video/img14/zhuzhan/play.png);position:absolute;right:12px;top:62px;opacity:0.7;color:#fff;filter:alpha(opacity=70);_background:none;_filter:progid:DXImageTransform.Microsoft.AlphaImageLoader(src=\"http://img1.cache.netease.com/video/img14/zhuzhan/play.png\");}#endText.video-lista:hover.play{opacity:1;filter:alpha(opacity=100);_filter:progid:DXImageTransform.Microsoft.AlphaImageLoader(src=\"http://img1.cache.netease.com/video/img14/zhuzhan/play.png\");}if(/(iPhone|iPad|iPod|Android|NETEASEBOBO|blackberry|bb\\d+)/ig.test(navigator.userAgent)||/safari|chrome|firefox/i.test(navigator.userAgent)&&navigator.plugins&&!navigator.plugins[\"ShockwaveFlash\"]){varstr1='<videocontrols=\"controls\"preload=\"auto\"width=\"100%\"poster=\"http://vimg3.ws.126.net/image/snapshot/2018/1/I/D/VD68FP5ID.jpg\"style=\"max-height:100%\">';varstr2='<sourcetype=\"video/mp4\"src=\"http://flv.bn.netease.com/videolib3/1801/02/XbGfE3969/SD/XbGfE3969-mobile.mp4\">您的浏览器暂时无法播放此视频.</video>';document.getElementById(\"FPlayer1404863609673\").parentNode.innerHTML=str1+str2;}上海夫妇疑惑家里钱包总少钱，客厅监控拍下钟点工打扫时行窃（来源：~）window.NTES&&function(d){varf=function(c){varb=c.getAttribute(\"flashvars\"),a=c.getAttribute(\"repovideourl\").replace(\".flv\",\"-mobile.mp4\");h=d(c.parentNode.parentNode.parentNode),g='<embedsrc=\"http://v.163.com/swf/video/NetEaseFlvPlayerV3.swf\"flashvars=\"'+b+'\"allowfullscreen=\"true\"allowscriptaccess=\"always\"quality=\"high\"wmode=\"opaque\"width=\"100%\"height=\"100%\"type=\"application/x-shockwave-flash\"/>';if(/(iPhone|iPad|iPod|Android|NETEASEBOBO|blackberry|bb\\d+)/ig.test(navigator.userAgent)){g='<videocontrols=\"controls\"preload=\"auto\"width=\"100%\"height=\"100%\"><sourcetype=\"video/mp4\"src=\"'+a+'\">您的浏览器暂时无法播放此视频.</video>';}h.$(\".video\")[0].innerHTML=g;},e=function(b){vara=d(b.parentNode.parentNode.parentNode);a.$(\"li\").removeCss(\"on\"),b.addCss(\"on\"),a.$(\".video-title\")[0].innerHTML=\"string\"==typeofb.textContent?b.textContent:b.innerText,a.$(\".video-title\")[0].setAttribute(\"href\",b.getAttribute(\"url\")),a.$(\".video-from\")[0].innerHTML=\"（来源：\"+b.getAttribute(\"source\")+\"）\",f(b);};window.continuePlay=function(){vara,b=d(d(\".video-list.on\")[0].nextSibling);3==b.nodeType&&(b=d(b.nextSibling));if(b&&d(\".video-innerinput\")[0].checked){e(b);}},function(){vara={init:function(){if(d(\".video-listli\")[0]){d(d(\".video-listli\")[0]).addCss(\"on\"),this.eventBind();}},eventBind:function(){d(\".video-listli\").addEvent(\"click\",function(b){e(d(this)),b.preventDefault();});}};a.init();}();}(NTES);每次去许先生家打扫卫生，钟点工金顺（化名）总会顺走一百多元。起初，许先生夫妇发现钱包里少钱，还以为是对方随手拿的，直到他们在客厅里装了监控，才发现是钟点工干的。2018年1月2日，澎湃新闻记者从上海杨浦警方获悉，金顺因涉嫌盗窃已被依法刑事拘留，案件正在进一步审理中。据警方介绍，金顺到案后交代，从2017年10月底开始，她趁着上门打扫的机会，先后十余次在雇主许先生家中“顺手牵羊”，为了不被发现，她每回只偷一百余元。起初，许先生以为是妻子顺手拿的，他的妻子以为是丈夫许先生拿的，但钱包总是少钱，夫妻俩觉得蹊跷，便在客厅里装了监控。2017年12月20日下午，许先生在家休息，钟点工金顺独自打扫客厅。许先生通过手机中的应用软件，查看刚装好的监控：此时，正在打扫的金顺把他妻子放在柜子上的钱包拿了起来，并从里面抽取了两张纸币放入自己口袋中，随后将钱包放下继续打扫。许先生随即向杨浦公安分局五角场镇派出所报警称，自家钟点工偷钱，民警立即赶赴处置。民警到场后，在确凿的证据面前，金顺只好从口袋掏出了偷窃的110元。到案后，她如实交代了偷窃许先生家钱财的犯罪事实，她先后十余次在许先生家中“顺手牵羊”，案值2500余元。目前，犯罪嫌疑人陈某因涉嫌盗窃已被依法刑事拘留，案件正在进一步审理中。本文来源：澎湃新闻责任编辑：范姜国一_NN9138",
    "Title": "钱包里总少钱？夫妻在客厅装监控 拍下钟点工行窃_网易新闻",
    "PublishTime": "01/02/201821:32:00",
    "Source": "Netease",
    "Comment": {
        "Content": "",
        "Reply": 0,
        "Link": "http://comment.news.163.com/news2_bbs/D765MMCL00018AOR.html",
        "Total": 0
    },
    "KeyWords": "客厅,行窃,盗窃,钟点工",
    "URL": "http://news.163.com/18/0102/21/D765MMCL00018AOR.html"
}