{
    "Article": "",
    "KeyWords": "网易订阅、rss、新闻、资讯",
    "Source": "Netease",
    "Title": "俄罗斯在北极建成世界最大军事设施，绍伊古道出真相_网易订阅",
    "Comment": {
        "Link": "http://comment.war.163.com/news_junshi_bbs/D6MJKRA40515BM7C.html"
    },
    "URL": "http://dy.163.com/v2/article/detail/D6MJKRA40515BM7C.html",
    "PublishTime": "12/28/201718:02:39"
}