{
    "Title": "少年为玩手游抢劫邻居 被抓时吼\"等我把游戏退了\"_网易新闻",
    "URL": "http://news.163.com/17/1226/05/D6IF0HCC0001875P.html",
    "Source": "Netease",
    "Comment": {
        "Total": 1258,
        "Reply": 126,
        "Content": "不知道以后这小哥会后悔不~~~ 打王者荣耀花销大？这是竞争对手发的水文。 游戏本身没错。没家教才是根本原因。 此号已废 已经走火入魔了！ 王者荣耀是什么鬼，这也叫游戏？几十年游戏禁令毁了中国的游戏业。估计玩王者荣耀的这些骚年不知道末日余生，超凡双生，光环，刺客信条，战争机器等大作经典吧。他们根本不认识次时代掌机和主机…… 养不教父之过！ 少年，菊花可好？ 兄弟，把这精神用在学习上，清华、北大你一定是有坐位了！ 更像是水军来洗地！ 马化腾发来贺电，出来送你个绝版皮肤 好奇怪为啥王者农药还要花钱 整个作案流程，条理清晰，手法娴熟，我在他身上仿佛又看到了张子强的影子，希望小贼进去后，再接再厉，痛定思痛，深化作案手法和细节！顺便问下，王耀段位多少？！ 残害祖国的花朵，毁灭千万个家庭的希望 这样的好队友不多了 游戏到底退没退 真正的悲哀啊！ 这种智商最多黄金5 腾讯专坑未成年！ 哇塞，持刀入室抢劫才判个4年。。。 没事有未成年保护法 建议国家把荣耀关服[微笑] 王者荣耀这块游戏通过祸害青少年谋求了巨大的商业利益，现在的大企业除了赚钱之外，也应该承担社会责任，树立公司品德。 毒药啊…… 简称养父之过。 脑残游戏 一样，你去腾讯的论坛，各种骂梦幻和魔兽的 王者荣耀毁了一代年轻人 有钱赚，有关系，呼声没用哈！ 为了腾讯的崛起和马化腾家的富裕，没法子…… 敌人还有五秒到达战场[挨揍] 我再也不骂队友挂机了，说不定每个挂机都有他的故事 多好的队友…… 让马化腾给你报销哈😄 有个认识的做王者农药代充一个月竟然也能有五千多收入，不知道真吓了一跳 就像外国人说的，现在的中国人痴迷游戏，比当年的鸦片，更有过之 这游戏花销不大吗？把全部皮肤买下要多少钱？如果不想存金币英雄就要用钱买。武则天要充多少钱才能抽到？小乔的天鹅皮肤呢？老哥，我看你是没玩过这游戏。我第一次听到腾讯旗下的游戏花销不大的[微笑][微笑] 入室不持刀抢劫并且劫持小孩，这样的重罪才判4年，判得太轻了，估计出来后更凶残；过几年不知又是哪些无辜的小民受害。 执着的年轻人 王者农药害人不浅 打王者荣耀花销大？这是竞争对手发的水文。 梦幻一把无级别武器RMB100多万 打王者，没花钱一样上星耀…… 人才 那是玩的人多了，有市场需求，这个游戏如果要做高逼格玩家，上万元就封顶了，不像有些游戏冲几十万都填不了坑。 兄弟，把这精神用在学习上，清华、北大你一定是有坐位了！ 马化腾发来贺电，出来送你个绝版皮肤 都17了，可以入刑了，看个报道，陕西有个16岁抢💰被判3年 那你起码去外地抢啊，声音谁听不出来 这家人4年后搬家好，还是不搬家好？<br>这才是真正要命的地方。 哇塞，持刀入室抢劫才判个4年。。。 建议国家把荣耀关服[微笑] 王者荣耀这块游戏通过祸害青少年谋求了巨大的商业利益，现在的大企业除了赚钱之外，也应该承担社会责任，树立公司品德。 这样敬业的人，不多了。 入室抢劫就判这点，这对那个孩子可能是一生的影响，这种人渣至少应该10年+！ 第一：所有不兼容的主机都是浪费资源！别觉得自己玩主机游戏就是高大上<br>第二：一个人有多少时间精力呢，有一款自己喜欢的游戏玩玩就可以了。<br>ps：我没玩过农药，更加鄙视qie（窃），不存在为它说话；当然也没玩过一楼心中的经典。<br>我玩的是英雄无敌、轩辕剑系列、星际、魔兽3、文明5、fm系列等等。<br>我不觉得自己低人一等啰！ 农药一天销售1.5亿，想想多可怕 中国好队友 多读点书未成年保护法是关于隐私方面的量刑处理你得赖刑法 四川SB，没办法的。集中毁灭整个四川盆地，为世界和平做贡献吧。 说花销大的是没玩过网易的梦幻西游和大话西游。 别吹了，psv坟头草都两米高了，switch上没几个游戏 要都是这样的队友何尝不上王者 一样，你去腾讯的论坛，各种骂梦幻和魔兽的 王者农药害人不浅 这智商也就能玩玩这垃圾游戏了。 进去了有吃有喝，要是还能玩手机上网就完美了 说实话王者荣耀真不要怎么花钱，就算你金币不够买个英雄也就40块，新英雄一个月才出来一个呢，皮肤什么的量力而行没有皮肤也不影响玩游戏啊，主要是小学生太虚荣，要皮肤耍帅，还要送女生皮肤好约炮， 皮肤全买也就一万多块 是不是玩农药的，腾讯的忠实粉。 好奇怪为啥王者农药还要花钱 十七岁虚十八。是大人了啊。多么愚蠢多么可恶 整个作案流程，条理清晰，手法娴熟，我在他身上仿佛又看到了张子强的影子，希望小贼进去后，再接再厉，痛定思痛，深化作案手法和细节！顺便问下，王耀段位多少？！ 这样的好队友不多了 别说，还真是 王者农药，真心不花钱，最多充个百把块足够了。当然，对脑残四川SB来说，他们是听不懂什么刷金币、刷铭文、领礼包、做任务之类的“高难度”工作的。 除了俄罗斯方块，咱的智商什么游戏也玩不了，最佩服坐监的人，感觉监狱里都是人才，只是用错了地方 孩子，去里面挺好，可以戒掉游戏了。 不知道以后这小哥会后悔不~~~ 看门狗1真的好玩 骚年，游戏不要退，你挂机就是啦，等过四年你出来，你就会惊喜的发现你已经暴了几百个麻痹戒指啦😂 脑残游戏 入室持刀抢劫才四年？？？ 然而现在这些傻逼，在这样作下去，连王者荣耀都没了 王者荣耀是什么鬼，这也叫游戏？几十年游戏禁令毁了中国的游戏业。估计玩王者荣耀的这些骚年不知道末日余生，超凡双生，光环，刺客信条，战争机器等大作经典吧。他们根本不认识次时代掌机和主机…… 判太轻了，持刀抢劫 对不起，我是高贵的主机玩家 没事有未成年保护法 男主人见状吓得不轻，赶忙按胡某要求，将一百多元现金和手机拿出来放在茶几上，胡某立即夺过手机摔在地上。听到客厅响声后，室内的女主人跑出来，胡某抱着孩子继续威胁：将现金和手机拿出来，女主人连忙返回卧室拿出200元现金放在茶几上。<br>没想到，胡某嫌钱少，又冲女主人吼道：“我要1000元，拿到我就走！”随即胡某又勒住孩子，另一只手用刀背在小孩额头上划拉，刀尖把孩子耳朵划伤出血。因担心伤到孩子，男女主人赶紧返回卧室拿出家里全部现金五百元，放在茶几上。胡某见钱已差不多够数了，就让男女主人站到客厅窗户边，抱着头面向窗子蹲着，随后将孩子推到沙发边，抓起茶几上的900多元钱就快速逃离了出去。这孩子是这父母亲生的吗？该不会是这小家伙的弟弟吧？ 🐴滑滕表示情绪稳定，冲钱让你变的更强。 握草～啥时候玩个游戏也能分个三六九等…… 没皮肤也能玩，不像有些游戏，不冲个千元的入门费根本没法玩。 有个认识的做王者农药代充一个月竟然也能有五千多收入，不知道真吓了一跳 这游戏花销不大吗？把全部皮肤买下要多少钱？如果不想存金币英雄就要用钱买。武则天要充多少钱才能抽到？小乔的天鹅皮肤呢？老哥，我看你是没玩过这游戏。我第一次听到腾讯旗下的游戏花销不大的[微笑][微笑] 切………… 哥们玩的主机版还是PC版。 打王者荣耀花销大？这是竞争对手发的水文。 靠毒害弱智群体发家的麻花疼走不远的！ 游戏本身没错。没家教才是根本原因。 哦哦 他可能是村里没wifi，流量贵，抢的是为了买流量的钱… 快播吧！企鹅的微信qq还是不错的 养不教父之过！ 更像是水军来洗地！ 看你想怎么玩啊一分钱不花的多得是天天充值也有的是<br>虽然比不了最烧钱那些端游但也是钱不是<br>没看人家就抢1000么良心 那估计你的小命不保 问大家个问题，🐧和快播那一个对社会造成的危害更大？？？ 简称养父之过。 腾讯专坑未成年！ 游戏到底退没退 玩物丧志 这种智商最多黄金5 我再也不骂队友挂机了，说不定每个挂机都有他的故事 警察还有三十秒到达战场 王者荣耀害死人 为了腾讯的崛起和马化腾家的富裕，没法子…… 到底有没有让他把游戏退了！ 入室不持刀抢劫并且劫持小孩，这样的重罪才判4年，判得太轻了，估计出来后更凶残；过几年不知又是哪些无辜的小民受害。 王者荣耀毁了一代年轻人 退尼麻痹，老子带你去局子里玩爆菊游戏，绝对劲爆刺激。 玩物丧志！ 你抢我。我连一百现金都没有 谁来抢我，我只有200不到的现金，还是10月领的一直放到现在 这孩子就等着后悔吧 我倒是玩三石头哥的倩女幽魂花了百来块钱。 胡某，稳住我们能赢 哪国都一样，外国人玩游戏也一样沉迷。 走火入魔了 已经走火入魔了！ 尼玛，疯了 走火入魔了 居然有九百几现金 整个作案流程，条理清晰，手法娴熟，我在他身上仿佛又看到了张子强的影子，希望小贼进去后，再接再厉，痛定思痛，深化作案手法和细节！顺便问下，王耀段位多少？！ 残害祖国的花朵，毁灭千万个家庭的希望 真正的悲哀啊！ 微信支付宝都可以 不影响游戏乐趣？呵呵 等我游戏好了，咋的 毒药啊…… 有钱赚，有关系，呼声没用哈！ 敌人还有五秒到达战场[挨揍] 生出了这种渣渣父母此时有什么想法？这智商该是残疾人吧 哈哈哈 就像外国人说的，现在的中国人痴迷游戏，比当年的鸦片，更有过之 难怪队友总是那么坑，原来是智障在玩，还以为是猪在玩呢。 执着的年轻人 就这智商白银都上不了 王者荣耀玩了1年，1分没花，野蛮时代三个月花了5000多 兔子还不吃窝边草呢。 花了八千多，一半给女朋友买的皮肤 此号已废 走火入魔了 少年，菊花可好？ 入室抢劫[窃笑]我只是想说，你就不会去马路上面抢劫啊。说不定就不了了之了。 玩物丧志呀，希望政府去解这些精神毒品 多好的队友…… 没事有未成年保护法 他在哪蹲大狱，我有旧手机一部，要送给他。 十八了 游戏害人 这次保护法怎么没使劲？ 让马化腾给你报销哈😄 呵呵 鉴定完毕，这不是神坑，是个好队友，就是脑子有坑而已 好吧 ",
        "Link": "http://comment.news.163.com/news_shehui7_bbs/D6IF0HCC0001875P.html"
    },
    "Article": "（原标题：17岁少年为玩王者荣耀抢劫邻居被抓时大吼“等我把游戏退了”）泸州泸县一名17岁少年痴迷游戏，为了手头有钱打游戏，对楼上邻居实施持刀抢劫。但在警察抓住胡某时，他根本不担心自己失去自由，而是对民警大吼道：“你抓我可以，等我把游戏退了！”近日，胡某因犯抢劫罪，被判处有期徒刑四年零十一个月。据了解，17岁的胡某案发时家住泸县，就读于某职业高中。胡某很喜欢王者荣耀，打游戏花销很大，他的钱根本无法支撑花销。“电视演的都是拿着刀，带个头套从别人手里很快就能弄到钱，还不容易被发现。”归案后，胡某如此向警方供述他作案时的行动细节。今年10月6日晚9时左右，胡某带着准备好的帽子、头套和刀出门了。胡某的目标是自家楼上的邻居彭某家，他觉得自己戴上头套，连父母都认不出自己来，更何况邻居。胡某将头套戴上，拿着刀敲响了邻居房门，见到开门的是一小孩，胡某立马将小孩抱住反过身，将刀架在孩子脖子上，随后大吼：“把客厅的窗帘拉起来，把现金和手机拿出来。”男主人见状吓得不轻，赶忙按胡某要求，将一百多元现金和手机拿出来放在茶几上，胡某立即夺过手机摔在地上。听到客厅响声后，室内的女主人跑出来，胡某抱着孩子继续威胁：将现金和手机拿出来，女主人连忙返回卧室拿出200元现金放在茶几上。没想到，胡某嫌钱少，又冲女主人吼道：“我要1000元，拿到我就走！”随即胡某又勒住孩子，另一只手用刀背在小孩额头上划拉，刀尖把孩子耳朵划伤出血。因担心伤到孩子，男女主人赶紧返回卧室拿出家里全部现金五百元，放在茶几上。胡某见钱已差不多够数了，就让男女主人站到客厅窗户边，抱着头面向窗子蹲着，随后将孩子推到沙发边，抓起茶几上的900多元钱就快速逃离了出去。胡某一边逃跑一边摘下帽子，听见楼上有人在大喊抓小偷。胡某也顾不得别的，一个劲往外冲，跑到泸县彩虹桥附近一汽修店，胡某又偷了一双鞋子换掉自己的鞋以防警察根据鞋印找到他。随后，胡某逃至彩虹桥，顺手将自己作案时穿的衣服、刀、头套等从桥上扔进水里。泸县公安局接到报警后，通过侦查很快锁定胡某有重大作案嫌疑。10月7日中午1时左右，民警在一茶摊将正在用手机打王者荣耀的胡某抓获。胡某被抓获时激烈反抗，在其被控制后，对民警吼道：“你抓我可以，等我把游戏退了！”胡某到案后，对其犯罪行为供认不讳。近日，泸县人民法院对胡某作出有罪判决，依法判处有期徒刑四年零十一个月。本文来源：成都商报作者：罗敏殷宗菊杜金华责任编辑：李天奕_NN7528",
    "PublishTime": "12/26/201705:52:55",
    "KeyWords": "游戏,抢劫,王者荣耀,手游"
}