{
    "Article": "（原标题：居民楼底变小吃街居民不堪其扰）居民楼下就是餐饮店铺“我们小区已成了美食一条街，每天半夜12点过，还听得到鼓风机嗡嗡作响，锅碗瓢盆碰撞、喝酒划拳声……”家住水碾河路35号的陈先生近日向成都晚报市民问政QQ群反映，其所在小区数十家“住改商”餐饮，严重影响到居民日常生活，每天外来车辆随意进出，堵塞消防通道，存在安全隐患。不仅如此，近来还有新的商家在开业，“小区要变成闹市区了。”记者走访不到100米20多家餐饮最晚营业到凌晨2点昨日，记者来到陈先生所在的水碾河路北社区，沿着水碾河北二路往里走，翘脚牛肉、羊肉汤、炒菜店……从5栋走到18栋，每栋的底层都是餐饮店，不到100米有20多家，堪称“一条美食街”。居民介绍，这些餐饮店一般营业到晚上11点，最晚到次日凌晨2点。门卫李大爷告诉记者，“旁边的羊肉汤店夏天开冷啖杯，最晚要到凌晨三四点。”李大爷说，因为只有一墙之隔，他经常被客人划拳的声音吵得睡不着。“6楼上都能听见。”家住18栋的张大爷告诉记者，马上对面有一家火锅店开业，他十分担忧。社区街道“住改商”问题由来已久曾多次进行劝导水碾河路北社区书记李秀玲告诉记者，该社区有65栋楼，大概有六七十家餐饮门店。李秀玲说，社区“住改商”问题由来已久，然而社区没有执法权，只能进行劝导。双桥子街道执法中队队长赵爱民告诉记者，街道城管对小区内部道路同样没有管辖权，因“住改商”问题牵涉多个部门，“希望规划、房管、工商等有执法权的各个部门进行联合执法。”规划部门已责令限期整改拒不整改将限制房屋交易市规划执法监督局执法一处相关负责人介绍，针对该社区的“住改商”问题，执法人员已多次到现场调查，发放《整改通知书》，提出整改意见，并联合属地街办力量加强监督，责令限期整改。对于不整改的，将向市国土资源局不动产登记中心去函冻结产权，对房屋的交易权进行限制，“如果不整改，房屋产权就不能解冻，不能进行房屋交易。”该负责人告诉记者，下一步，还要对违法行为进行不良记录的登记。该负责人表示，本月城管委已将房管、规划等部门的执法队伍纳入综合执法队伍，“今后多部门联合执法后，力度将会加强。”本文来源：四川新闻网-成都晚报作者：章玲责任编辑：黄哲程_B9302",
    "Source": "Netease",
    "KeyWords": "餐饮,居民楼,扰民",
    "Title": "居民楼底变小吃街 100米内有20多家餐饮店_网易新闻",
    "Comment": {
        "Total": 381,
        "Content": "有的吃是好事。 恰恰在这个时候，它们失踪了！ 晚上喝酒会打扰别人休息的！！吵到街坊多不好？ 很多老小区临街的都这样吧，说好吧也方便，不想在家做饭时出门走几步就有东西吃，说不好吧也不好，不安全有噪音 你看吧这些人目光就是很短浅的，只看眼前要是一个小区热闹起来你的房价还不蹭蹭的往上涨。 餐饮业蓬勃发展，是好事啊！ 吃的时候觉得方便，吃饱了就嫌碍事儿了，人真难伺候。 直接三断就OK了 一般这种不好卖的，有价无市，只能出租 这个时候就需要城管了！ 大爷大妈吃的少也简单，熬点粥能顶两天。年轻人就容易饿需要周边有可以吃饭的地方，一说扰民就关算不算懒政，就不能给小饭馆找别的地方离居民楼远些。一个个街道办事处都是几层的楼房办公用的了吗不就是盖个章吗。腾几间房组织些社区下岗无业人员干个早点整个便民理发什么的不也基德行善吗。 有的吃是好事。 这个时候就需要城管了！ 餐饮业蓬勃发展，是好事啊！ 下个楼就能吃到还等美团送上来？ 我这里短短不过两百米的一条街道，有四家隆江猪脚饭，三家柳州螺丝粉。猪脚饭螺丝粉的市场需求有这么大？ 吃的时候觉得方便，吃饱了就嫌碍事儿了，人真难伺候。 不错啊，晚上饿了，可以下楼去整个菜，喝两杯。现在住的小区像鬼区一样，没烟火气息 其实这样很方便呀 这他么要在北京拆的你怀疑人生 这时候它们早没影了，就跟半夜的野狗恶狗叫唤一模一样，没有管的，，，，， 很多老小区临街的都这样吧，说好吧也方便，不想在家做饭时出门走几步就有东西吃，说不好吧也不好，不安全有噪音 直接三断就OK了 管控一下是好的，你让开店的都搬走，生活又不便利了。 有的吃的地方就不错了 [微笑][微笑][微笑] 一般这种不好卖的，有价无市，只能出租 如果不要钱就好了。 厉害了 很多地方还有半夜施工的。 外卖真不敢点，不如楼下的干净 我原来住在开放式小区就这样，夏天烧烤的，喝酒的，打牌的，喇叭轰鸣的，加上乱窜的野狗恶狗叫唤，向省长举报都没用，干脆搬走了，，，， 你看吧这些人目光就是很短浅的，只看眼前要是一个小区热闹起来你的房价还不蹭蹭的往上涨。 😂 晚上喝酒会打扰别人休息的！！吵到街坊多不好？ 现在有美团，如果不想在家做饭，解决问题应该很容易吧？ 十二点后的噪音算扰民，可以打110的了。 主要还是吵 说实话，小吃的味道最好，但是不卫生[窃笑] 很多事不能两全齐美 恰恰在这个时候，它们失踪了！ 我家附近就这样，老小区 大爷大妈吃的少也简单，熬点粥能顶两天。年轻人就容易饿需要周边有可以吃饭的地方，一说扰民就关算不算懒政，就不能给小饭馆找别的地方离居民楼远些。一个个街道办事处都是几层的楼房办公用的了吗不就是盖个章吗。腾几间房组织些社区下岗无业人员干个早点整个便民理发什么的不也基德行善吗。 ",
        "Reply": 32,
        "Link": "http://comment.news.163.com/news2_bbs/D6NR1N8J000187VI.html"
    },
    "PublishTime": "12/28/201707:59:16",
    "URL": "http://news.163.com/17/1228/07/D6NR1N8J000187VI.html"
}