{
    "Source": "Netease",
    "KeyWords": "航空,水陆,飞机",
    "URL": "http://news.163.com/17/1224/10/D6DPPFVT0001875N.html",
    "PublishTime": "12/24/201710:25:07",
    "Comment": {
        "Content": "好牛逼，点赞，核心技术才是竞争力 厉害了，我的机！ 好振奋心胸的大事情 厉害 能上天能下海，一举二得，赞中国自研水陆大飞机 还可以不错 厉害了我的国！ 不要老黑祖国，好吧，毕竟这些都是努力得来的， 蓝天因你而精彩大海因你而骄傲 蓝天有你而精彩蓝天因你而骄傲 中国的骄傲 跟贴被火星网友带走啦~ 厉害👍 祝贺中国AG600水陆两用飞机陆上试飞成功！这是中国航空发展又一大成果，是实现中国梦的坚定一步。加油。 祖国的强大，人民更幸福 好牛逼，点赞，核心技术才是竞争力 不要老黑祖国，好吧，毕竟这些都是努力得来的， 厉害 能上天能下海，一举二得，赞中国自研水陆大飞机 还可以不错 厉害了我的国！ 蓝天因你而精彩大海因你而骄傲 蓝天有你而精彩蓝天因你而骄傲 中国的骄傲 厉害了我的国 厉害👍 祖国的强大，人民更幸福 厉害了，我的机！ 好振奋心胸的大事情 AG600水陆两用飞机首飞成功，证明了航天科研工作者给祖国带来了丰厚的成果。 祝愿祖国越来越好！ 加油！~ 不错 厉害👍 厉害了，我的国 点赞👍👍👍。科研人员你们辛苦了 祝贺中国AG600水陆两用飞机陆上试飞成功！这是中国航空发展又一大成果，是实现中国梦的坚定一步。加油。 ",
        "Total": 2375,
        "Link": "http://comment.news.163.com/news_guonei8_bbs/D6DPPFVT0001875N.html",
        "Reply": 22
    },
    "Article": "（原标题：我国自研水陆大飞机AG600首飞成功可上天也可下海）#endText.video-infoa{text-decoration:none;color:#000;}#endText.video-infoa:hover{color:#d34747;}#endText.video-listli{overflow:hidden;float:left;list-style:none;width:132px;height:118px;position:relative;margin:8px3px0px0px;}#entText.video-lista,#endText.video-lista:visited{text-decoration:none;color:#fff;}#endText.video-list.overlay{text-align:left;padding:0px6px;background-color:#313131;font-size:12px;width:120px;position:absolute;bottom:0px;left:0px;height:26px;line-height:26px;overflow:hidden;color:#fff;}#endText.video-list.on{border-bottom:8pxsolid#c4282b;}#endText.video-list.play{width:20px;height:20px;background:url(http://img1.cache.netease.com/video/img14/zhuzhan/play.png);position:absolute;right:12px;top:62px;opacity:0.7;color:#fff;filter:alpha(opacity=70);_background:none;_filter:progid:DXImageTransform.Microsoft.AlphaImageLoader(src=\"http://img1.cache.netease.com/video/img14/zhuzhan/play.png\");}#endText.video-lista:hover.play{opacity:1;filter:alpha(opacity=100);_filter:progid:DXImageTransform.Microsoft.AlphaImageLoader(src=\"http://img1.cache.netease.com/video/img14/zhuzhan/play.png\");}if(/(iPhone|iPad|iPod|Android|NETEASEBOBO|blackberry|bbd+)/ig.test(navigator.userAgent)||/safari|chrome|firefox/i.test(navigator.userAgent)&&navigator.plugins&&!navigator.plugins[\"ShockwaveFlash\"]){varstr1='<videocontrols=\"controls\"preload=\"auto\"width=\"100%\"poster=\"http://vimg3.ws.126.net/image/snapshot/2017/12/N/9/VD5G1ECN9.jpg\"style=\"max-height:100%\">';varstr2='<sourcetype=\"video/mp4\"src=\"http://flv.bn.netease.com/videolib3/1712/24/FSdxs3669/SD/FSdxs3669-mobile.mp4\">您的浏览器暂时无法播放此视频.</video>';document.getElementById(\"FPlayer1404863609673\").parentNode.innerHTML=str1+str2;}AG600今天进行陆上首飞滑行距离超短（来源：~）window.NTES&&function(d){varf=function(c){varb=c.getAttribute(\"flashvars\"),a=c.getAttribute(\"repovideourl\").replace(\".flv\",\"-mobile.mp4\");h=d(c.parentNode.parentNode.parentNode),g='<embedsrc=\"http://v.163.com/swf/video/NetEaseFlvPlayerV3.swf\"flashvars=\"'+b+'\"allowfullscreen=\"true\"allowscriptaccess=\"always\"quality=\"high\"wmode=\"opaque\"width=\"100%\"height=\"100%\"type=\"application/x-shockwave-flash\"/>';if(/(iPhone|iPad|iPod|Android|NETEASEBOBO|blackberry|bbd+)/ig.test(navigator.userAgent)){g='<videocontrols=\"controls\"preload=\"auto\"width=\"100%\"height=\"100%\"><sourcetype=\"video/mp4\"src=\"'+a+'\">您的浏览器暂时无法播放此视频.</video>';}h.$(\".video\")[0].innerHTML=g;},e=function(b){vara=d(b.parentNode.parentNode.parentNode);a.$(\"li\").removeCss(\"on\"),b.addCss(\"on\"),a.$(\".video-title\")[0].innerHTML=\"string\"==typeofb.textContent?b.textContent:b.innerText,a.$(\".video-title\")[0].setAttribute(\"href\",b.getAttribute(\"url\")),a.$(\".video-from\")[0].innerHTML=\"（来源：\"+b.getAttribute(\"source\")+\"）\",f(b);};window.continuePlay=function(){vara,b=d(d(\".video-list.on\")[0].nextSibling);3==b.nodeType&&(b=d(b.nextSibling));if(b&&d(\".video-innerinput\")[0].checked){e(b);}},function(){vara={init:function(){if(d(\".video-listli\")[0]){d(d(\".video-listli\")[0]).addCss(\"on\"),this.eventBind();}},eventBind:function(){d(\".video-listli\").addEvent(\"click\",function(b){e(d(this)),b.preventDefault();});}};a.init();}();}(NTES);【中国制造全球最大水陆两栖飞机AG600首飞成功】今天上午9点40分，中国自主研制全球最大水陆两栖飞机AG600在广东珠海首飞成功。AG600填补了我国在大型水陆两栖飞机领域的研制空白，继运20、C919之后为我国大飞机家族再添一名强有力的重量级选手。图片来源：视觉中国AG600是当今世界在研的最大一款水陆两栖飞机划重点：AG600是我国“三个大飞机”之一，是当今世界在研的最大一款水陆两栖飞机。AG600是为满足我国森林灭火和水上救援的迫切需要，首次研制的大型特种用途民用飞机，是国家应急救援体系建设急需的重大航空装备。AG600总体技术水平和性能达到当前国际同类飞机的先进水平，完全具有自主知识产权，并满足中国民航适航规章要求。“这是一艘能飞起来的船，也是一架能游泳的飞机。”备受关注的全球在研最大水陆两栖飞机AG600今日将在珠海金湾机场迎来首次研发试飞。我国自主研制的大型灭火/水上救援水陆两栖飞机AG600是去年7月23日在珠海完成总装下线的，今年先后在珠海完成低中高速滑行试验和首飞技术质量评审会。12月7日，AG600水陆两栖飞机取得特许飞行证，预示着AG600飞机即将进行首次研发试飞。水陆大飞机AG600今日首飞作为我国“三个大飞机”之一的大型水陆两栖飞机AG600，承载着国家和民族的使命，是当今世界在研的最大一款水陆两栖飞机，是继我国自主研制的大型运输机运-20、C919大型客机之后，我国在大飞机领域研制工作取得的又一重大成果，填补了我国在大型水陆两栖飞机领域的研制空白，为我国大飞机家族再添一名强有力的“重量级选手”。AG600飞机去年7月23日在航空工业通飞华南公司总装成功下线，2017年4月29日，AG600在珠海进行了首次地面滑行试验，5月20日，AG600成功完成首次低速滑行试验。最近几个月，AG600先后成功完成上天中、高速滑行试验。今年12月1-3日，AG600首飞技术质量评审会和首飞放飞评审会先后在珠海召开。经过质询和讨论，专家组认为目前AG600飞机已达到首飞技术状态，一致同意通过首飞技术质量评审。12月7日，AG600水陆两栖飞机取得中南局颁发的编号为SFP5036的特许飞行证，预示着AG600飞机即将进行首次研发试飞。根据相关单位安排，今天AG600将在珠海金湾机场进行首飞试验。上天AG600飞机能做什么？森林灭火单次投12吨水大型灭火/水上救援水陆两栖飞机AG600是为满足我国森林灭火和水上救援的迫切需要，首次研制的大型特种用途民用飞机，是国家应急救援体系建设急需的重大航空装备。其以水陆两用、装载量大、航程远、升限适中、速度范围广、超低空飞行性能好等诸多特点，特别适用于火情监测和森林灭火、海难搜索和救援、海洋权益维护、海洋环境监测和保护等用途，除此以外，还可用于海洋监测、海关缉私、环境和资源监测、航空运输、航空游览/观光和私人公务等方面，具有十分广泛的应用前景。AG600飞机具有出动迅速、到达灭火区域速度快、小时投水量大、灭火效率高、覆盖范围广等诸多优点，可快速到达火灾地点，及早扑灭火源，是一种十分理想的灭火工具。AG600在接到森林灭火指令后，可以在陆上机场向水箱注水或到火源地区附近水域滑行汲水后飞到火区上空，按照灭火指挥系统的统一指挥，视火情大小，或者直接往返投水灭火，或者多机集中往返灭火。AG600最大载水量为12吨，20秒内可一次汲水12吨，单次投水救火面积可达4000余平方米，可单次齐投12吨水，也可以分批次投水;并可为被困人员和其他灭火人员及灭火机械开辟进出火区的安全通道。下海水上救人单次可救50人AG600除了是“灭火能手”，还是远海“救护高手”。海上救援黄金时间为12小时，一旦海上事故中的落水人员在低于20℃的海水中浸泡，生命救援时间将大大缩短。但我国的水上救援体系和救援设施相对落后，远远不能适应新时期开展水上救援工作的需要。对于远海救援，如果用船只救援，耗时将非常长;直升机执行任务效率很高，但超过500公里的任务半径距离，它们就“难有用武之地”。与之相对应的是，AG600具有速度快，最大巡航速度500公里/小时，最大航时12小时;最大航程4500公里。AG600飞机可以在2米高海浪的复杂气象条件下实施水面救援行动，水上应急救援一次可救护50名遇险人员，提供了开展中远海距离水上救援工作的保证。AG600飞机在海上救援方面与船舶相比优势在于速度快，该型机速度是救捞船舶的十倍以上。AG600最大救援半径可达1600km，可覆盖我国大部分海域及专属经济区，特别是我国海难多发的内海主航道。在接到救援指令后，AG600飞机立即携带必要的救援设备，飞往指定水域，目视并利用机载搜索探测设备，进行盘旋搜索，确定遇险船舶、人员的方位、坐标，及时报告当地水域和遇险人员情况;在天气和水域条件允许的情况下，飞机直接降落水面，着水救援，利用机载机动救生艇等救生设备，靠近遇险人员，将遇险人员直接救助上机，进行必要的紧急处置。如因水面风浪过大，超出飞机水面起降能力，则低空或超低空向遇难者投送救生设备、药品、食物和水，增加遇险人员获救的机会，为采取其他救助措施赢得时间。AG600的设计制造填补了我国大型水陆两栖飞机的空白，为我国应急救援体系建设奠定了坚实的基础。天上飞海中游的飞机AG600飞机总体技术水平和性能达到当前国际同类飞机的先进水平，完全具有自主知识产权，并满足中国民航适航规章要求。AG600飞机采用单船身、悬臂上单翼和前三点可收放式起落架布局;选装4台国产涡桨-6发动机;机长37米，翼展38.8米，机高12.1米，机身外部尺寸与波音737相当;最大起飞重量53.5吨，最大巡航速度500公里/小时，最大航时12小时;最大航程4500公里;具备执行森林灭火、水上救援等多项特种任务能力，根据需要加改装后，可满足执行海洋环境监测与保护、资源探测等多任务需要，尤其是可为“海上丝绸之路”航行安全提供最快速有效的支援与安全保障，可实现陆地和水面起降，在水源与火场之间多次往返执行投水灭火作业。除了陆地上起降，AG600同样能在水中自由升降，“这是一艘能飞起来的船，也是一架能游泳的飞机。”AG600总设计师黄领才曾表示，AG600飞机的设计和制造，将极大促进大型水陆两用飞行器研制进程，从而促进国家应急救援航空装备体系建设的跨越式发展，填补国内大型水陆两栖飞机的研制空白，形成具有自主产权的水陆两栖飞机设计研发技术体系，全面提升我国水面飞行器(包括水上飞机、水陆两栖飞机、地效飞机等)的设计和制造能力。本文来源：广州日报责任编辑：范姜国一_NN9138",
    "Title": "飞机当船开！中国自研水陆大飞机AG600首飞成功 _网易新闻"
}