{
    "Source": "Netease",
    "KeyWords": "基金会,公益,侵权,logo",
    "Title": "\"同一天生日\"平台合作机构有南都公益logo 遭打脸_网易新闻",
    "PublishTime": "12/25/201710:59:54",
    "URL": "http://news.163.com/17/1225/10/D6GE5STH0001875P.html",
    "Article": "（原标题：南都公益基金会声明：从未与零分贝有过任何合作）2017年12月24日凌晨1时，我们发现在零分贝精准扶贫平台官方网站“合作机构”一栏出现南都公益基金会Logo，如下图所示。在此，南都公益基金会郑重声明：南都公益基金会从未与零分贝有过任何合作，也并未授权该机构使用南都公益基金会Logo。该机构擅自使用南都公益基金会Logo，对我会声誉造成了损害。我会谴责这样的侵权行为，并已经与零分贝发起人王立先生本人严正交涉。目前零分贝已在其官网“合作机构”一栏撤下南都公益基金会Logo，以避免对我会及公众继续造成误解。南都公益基金会以支持民间公益为使命，助推公益行业发展。我们坚决反对盗用、侵权行为，坚决反对违背慈善伦理及法律底线的做法。此外，我会将通过公益筹款人联盟的平台发声，倡导公益组织在筹款活动中恪守筹款伦理，保护儿童隐私和受益人权益。南都公益基金会2017年12月24日\"同一天生日\"活动有孩子生于09年2月29日官方:bug今天，一则爱心活动在朋友圈中热传，活动称“一元助TA改变命运”。用户进入活动页面并选择自己的生日后，会出现一名生日日期相同的贫困儿童，并可为其捐赠一块钱。本文来源：南都公益基金会责任编辑：邵小波_NN2479",
    "Comment": {
        "Content": "这个郭家美美太多了 北京零分贝科技有限公司 虽然只是一块钱，但是你们太无耻了！ 现在还有这种捐款的人？ 把钱扔了也不要给慈善机构 再捐一分我就是🐶 走了郭美美，还有李美美、王美美、赵美美… 好大的胆子。 我捐了...通过朋友圈捐款而且只要1元蔓延得非常快善心又被利用了 一个郭美美撇开了，千万个美美掺进了来。中国的慈善事业就算是个笑话 南方系 北京零分贝科技有限公司 虽然只是一块钱，但是你们太无耻了！ 骗慈善款的死全家！ 把钱扔了也不要给慈善机构 智商税 窮人太多了，慈善机构都忙不过来了，但有几个慈善机构真正是在捐款做善事。 你也配姓赵？赵司晨的妹子真丑，吴妈的脚太大 这个郭家美美太多了 一个郭美美撇开了，千万个美美掺进了来。中国的慈善事业就算是个笑话 现在还有这种捐款的人？ 市慈善总会市关爱协会市志愿者联合会市妇女联谊总会服务妇女儿童志愿者分会 再捐一分我就是🐶 走了郭美美，还有李美美、王美美、赵美美… 好大的胆子。 我捐了...通过朋友圈捐款而且只要1元蔓延得非常快善心又被利用了 南都和红十字你信哪个？ ",
        "Reply": 17,
        "Link": "http://comment.news.163.com/news_shehui7_bbs/D6GE5STH0001875P.html",
        "Total": 360
    }
}