{
    "Article": "（原标题：一名57岁中国人在韩国釜山坠亡生前患有失眠）釜山海云台警察局海外网1月3日电据韩国NocutNews报道，近日，韩国釜山市海云台区的一栋商住两用楼房发生坠亡事故，死者系57岁的中国人A某，生前住在该建筑的15层。当地时间2日早上8点20分左右，警方发现了A某的尸体。警方表示，死者生前在海云台的一处工地工作，与同事一起住在事发建筑内。死者家属表示，A某最近因失眠饱受困扰。目前，警方正在调查具体的事故原因。本文来源：海外网责任编辑：乔敬_NN6607",
    "PublishTime": "01/03/201809:20:29",
    "URL": "http://news.163.com/18/0103/09/D77E2BEI0001875P.html",
    "Source": "Netease",
    "Comment": {
        "Content": "中国工薪阶层的孩子不能上大学的话，就会被送进工厂，做苦工！中国工薪阶层的孩子不能上大学的话，就会被送进工厂，做苦工！ 是压力太大吗 死都不想死在中国[狗] 怎么老有中国人在外国死亡的事件发生 也对啊，旅游大巴翻车在云南死一个赔偿40万人民币，翻车在美国赔偿60万美金，能一样吗？！ 说明资本主义国家真的是生活在水深火热之中 国外一片水深火热 说明资本主义国家真的是生活在水深火热之中 中国工薪阶层的孩子不能上大学的话，就会被送进工厂，做苦工！中国工薪阶层的孩子不能上大学的话，就会被送进工厂，做苦工！ 报应 怎么老有中国人在外国死亡的事件发生 是压力太大吗 也对啊，旅游大巴翻车在云南死一个赔偿40万人民币，翻车在美国赔偿60万美金，能一样吗？！ 死都不想死在中国[狗] 国外一片水深火热 ",
        "Reply": 8,
        "Total": 50,
        "Link": "http://comment.news.163.com/news_shehui7_bbs/D77E2BEI0001875P.html"
    },
    "Title": "一名57岁中国人在韩国釜山坠亡 生前饱受失眠困扰_网易新闻",
    "KeyWords": "韩国,釜山,失眠,海云台"
}