{
    "Source": "Netease",
    "PublishTime": "12/26/201716:36:00",
    "KeyWords": "华北,重度污染,华北地区,霾天气",
    "Title": "未来3天全国大部地区空气质量转差 华北或现重污染_网易新闻",
    "Comment": {
        "Link": "http://comment.news.163.com/news2_bbs/D6JKA3MI00018AOQ.html",
        "Total": 935,
        "Content": "雾霾就雾霾。 不是已经限号了吗？？难道真是我开车的姿势不对？？ 同样的面积，美国大陆两面临海一望无际的大平原得天独厚，那叫天佑美国；<br>中国的地理是遭天谴了吗？ 谁来访个华，事情就解决了。 哈哈哈哈，打脸了。 能干嘛 汽车全停、火车全停、火电厂全停、工厂全停、工地全停，不许烧媒、不许抽烟、不许放屁，然后了。。。 不要脸 这塔玛就尴尬了！ 想笑，但笑不出……很可悲的事。 [被黑] 刚烧个烤炉就就这样了？ 这不是我干的我今天没抽烟😄 环保靠吹？？！😂 而且还不让别人报道空气环境 比如啥峰会， 高！二楼就像一武林高手，用很平常的招式，却从一个令人意想不到角度，很轻松地打败对手！ 妈的不是限行了吗？还污染，肯定是执行力度不到位，建议全车限行，禁止行人出行，禁止人类放屁。防屁以污染环境罪入刑。 把所有人的耳朵都刺聋，这样他们偷铃铛的时候就不会响了。 限了烧烤和个人烧煤，为什么还雾霾呢！ 煤改气 哟，可别，不然就不是限行的事了 如果我记得没错的话，是美国人让我们知道了pm2.5这个东西，知道它是有害的，在此之前，我们都认为它是雾。<br>如果我记得没错的话，那个让我们知道pm2.5的美国人，被我们的媒体批为阴毛、干涉。。。。！<br>这是一个什么样的垃圾锅家？？ 早就停工了，妈的气死了，订单已经停产不能发货。 听不得真话 雾霾又双叒叕来了…… 反正过几天就收环保税了，收了税还有污染，你们就看着办吧！ 空气质量转差是雾霾的新叫法吗？ 四川盆地早就霾成狗了！ 女生宿舍比男生宿舍干净……兄弟你怕是没去过吧 河南全省限行，工厂停工，工地停工。再他妈污染还让不让我们活了！ 普通人赚的钱还不够去医院 将要毁灭一个国家和民族的10种事：1、没人性的政治。2、没思想的崇拜。3、没人文的科学。4、没道德的商业。5、没良知的知识。6、没真实的历史。7、没独立的精神。8、没自由的幸福。9、没劳动的富裕。10、没制约的权力。​​​ 当年信誓旦旦的抨击美帝大使馆 北美大陆的自然条件是地球最好的没有之一。 不是限行是单双号焦作公交免费坐依然空气很渣！ [刷卡][刷卡][刷卡][刷卡][刷卡][刷卡][刷卡][刷卡] 习惯了 我于任何宗教，本是充满质疑的。但自从基督定义了撒旦之日，我又有些崇拜那神的智慧了。<br><br>今日恶魔之日，宜与忌，每人自心有账 烧煤者抓！ 地处温带,大部分地方适合作物生长,阿拉斯加除外,但有石油,<br>南北无强敌,,,,,,,, 我来讲讲中国的霾问题，但又怕被喷，核心原因就是中国人太脏了，大街小巷、城市农村垃圾到处是，灰尘到处是，风一起就成了灰霾，吹到哪灰到哪。如果素质好不了，就永远是脏的环境。就好比女生宿舍永远比男生宿舍干净，是一个道理 开个大会就好了 西北风一停高耗能产业原型必露。 气，白改了？感情还是大跃进。 雾霾就雾霾。 不是已经限号了吗？？难道真是我开车的姿势不对？？ 风停了 同样的面积，美国大陆两面临海一望无际的大平原得天独厚，那叫天佑美国；<br>中国的地理是遭天谴了吗？ 谁来访个华，事情就解决了。 哈哈哈哈，打脸了。 能干嘛 汽车全停、火车全停、火电厂全停、工厂全停、工地全停，不许烧媒、不许抽烟、不许放屁，然后了。。。 不要脸 还是古代好 这塔玛就尴尬了！ 想笑，但笑不出……很可悲的事。 我于任何宗教，本是充满质疑的。但自从基督定义了撒旦之日，我又有些崇拜那神的智慧了。<br><br>今日恶魔之日，宜与忌，每人自心有账 一定是美帝的阴谋！ 草泥马前几天的呼吸道感染还没好呢！ 刚烧个烤炉就就这样了？ 这不是我干的我今天没抽烟😄 别雾霾了今年的企业已经很不容易了 是没风了吧 环保靠吹？？！😂 煤改气 妈的不是限行了吗？还污染，肯定是执行力度不到位，建议全车限行，禁止行人出行，禁止人类放屁。防屁以污染环境罪入刑。 而且还不让别人报道空气环境 比如啥峰会， 高！二楼就像一武林高手，用很平常的招式，却从一个令人意想不到角度，很轻松地打败对手！ 河南全省限行，工厂停工，工地停工。再他妈污染还让不让我们活了！ 。。。。又到了吸雾霾的好日子 把所有人的耳朵都刺聋，这样他们偷铃铛的时候就不会响了。 限了烧烤和个人烧煤，为什么还雾霾呢！ 深圳好几月没下一场正正规规的雨了！雨神快来开演唱会 哟，可别，不然就不是限行的事了 如果我记得没错的话，是美国人让我们知道了pm2.5这个东西，知道它是有害的，在此之前，我们都认为它是雾。<br>如果我记得没错的话，那个让我们知道pm2.5的美国人，被我们的媒体批为阴毛、干涉。。。。！<br>这是一个什么样的垃圾锅家？？ 早就停工了，妈的气死了，订单已经停产不能发货。 听不得真话 雾霾又双叒叕来了…… 反正过几天就收环保税了，收了税还有污染，你们就看着办吧！ 烧煤者抓！ 四川盆地早就霾成狗了！ 女生宿舍比男生宿舍干净……兄弟你怕是没去过吧 又来了 地处温带,大部分地方适合作物生长,阿拉斯加除外,但有石油,<br>南北无强敌,,,,,,,, 普通人赚的钱还不够去医院 将要毁灭一个国家和民族的10种事：1、没人性的政治。2、没思想的崇拜。3、没人文的科学。4、没道德的商业。5、没良知的知识。6、没真实的历史。7、没独立的精神。8、没自由的幸福。9、没劳动的富裕。10、没制约的权力。​​​ 当年信誓旦旦的抨击美帝大使馆 北美大陆的自然条件是地球最好的没有之一。 不是限行是单双号焦作公交免费坐依然空气很渣！ 杨澜把他给办了，哈哈哈 [刷卡][刷卡][刷卡][刷卡][刷卡][刷卡][刷卡][刷卡] 习惯了 西北风一停高耗能产业原型必露。 [被黑] 空气质量转差是雾霾的新叫法吗？ 我来讲讲中国的霾问题，但又怕被喷，核心原因就是中国人太脏了，大街小巷、城市农村垃圾到处是，灰尘到处是，风一起就成了灰霾，吹到哪灰到哪。如果素质好不了，就永远是脏的环境。就好比女生宿舍永远比男生宿舍干净，是一个道理 开个大会就好了 气，白改了？感情还是大跃进。 ",
        "Reply": 55
    },
    "Article": "（原标题：未来三天全国大部地区空气质量转差华北或重污染）资料图：雾霾天气。中新社记者刘新摄中新网12月26日电据环境保护部宣传教育司官方微博消息，未来三日(12月27-29日)，全国大部地区空气质量逐渐转差，华北地区可能出现重度污染。本文来源：中国新闻网责任编辑：张海桐_NN9053",
    "URL": "http://news.163.com/17/1226/16/D6JKA3MI00018AOQ.html"
}