{
    "URL": "http://ent.163.com/17/1228/15/D6OJSR8Q00038FO9.html",
    "Comment": {
        "Reply": 33,
        "Content": "个人认为演技比吴秀波好 我恰恰相反，他比唐国强演的好，这个诸葛亮演的不脸谱化 英文用文言文朗诵，基本就相当于现代的德语。 英文出师表也不是英国的文言文出师表 你的智商呢 其实于和伟的曹操更好 第一部的曹操杨修也比吴秀波演的好 有本事也押韵啊 赞，赞，赞 来一段英文版出师表让大伙看看多厉害 无脑喷无脑喷喷子需要智商吗哈哈 唐国强的诸葛亮估计是无法超越了 我觉得他超帅 这货读过几本书？一个外国人演什么诸葛亮，可笑 其实于和伟的曹操更好 英文出师表也不是英国的文言文出师表 百老汇第一人是英若诚，英达老爸。小编是混吃混喝的吗？ 你读过几本？傻逼 我觉得他超帅 有本事也押韵啊 形象上不如94版，用的配音美中不足 [大笑] 来一段英文版出师表让大伙看看多厉害 无脑喷无脑喷喷子需要智商吗哈哈 看过他的什么作品？点评下比吴秀波强哪 啊啊啊,我也要去百老汇. 牛逼了您馁 英文用文言文朗诵，基本就相当于现代的德语。 如果第一个三国演义是张纪中演的你也会说张纪中的无法超越 你的智商在哪里？？？？？？ 个人认为演技比吴秀波好 背诵全文 我恰恰相反，他比唐国强演的好，这个诸葛亮演的不脸谱化 哈哈送给你 那倒不是，不存在先入为主，可以自行比较，比如我之前看的翁美玲版黄蓉就被后来的朱茵版超越了 第一部的曹操杨修也比吴秀波演的好 我一直想知道吃葡萄不吐葡萄皮怎么翻译 赞，赞，赞 你的智商呢 你眼睛瞎了 然并卵 安徽也出傻逼？ 生死卧底电视剧 唐国强的诸葛亮估计是无法超越了 吴秀波纯属秀 这货读过几本书？一个外国人演什么诸葛亮，可笑 没脑子么没脑子就少说话 ",
        "Total": 194,
        "Link": "http://comment.ent.163.com/ent2_bbs/D6OJSR8Q00038FO9.html"
    },
    "Title": "百老汇中国第一人王洛勇 英文版《出师表》超厉害_网易娱乐",
    "Source": "Netease",
    "KeyWords": "王洛勇,出师表,诸葛亮,司马懿",
    "PublishTime": "12/28/201715:13:44",
    "Article": "网易娱乐12月28日报道近日，许多微博大号，热门公众号都争相转载有着百老汇中国第一人之称的王洛勇版的英文《出师表》，讨论热度持续高涨，出了一波背诵出师表热。王洛勇凭《虎啸龙吟》中饰演的诸葛亮，好评如潮。观众们非常喜欢这一新版的有血有肉的诸葛亮。王洛勇饰演诸葛亮好评如潮剧中诸葛亮的形象，鞠躬尽碎死而后已的形象深入人心，观众看到痛处，都舍不得丞相，事实上，剧名就可窥见这部剧的重点：“冢虎”司马懿和“卧龙”诸葛亮，两大旷世奇才惺惺相惜，却又因出于乱世而不能共容。《虎啸龙吟》中王洛勇的演技炸裂，清洁扣人心弦。每一场戏，都把诸葛亮演绎得饱满、生动、令人印象深刻。业内影评人也评论，看得人血脉喷张，真是每个镜头的演技都在燃烧，诸葛亮感觉浑身是戏，是英雄惜英雄的神交，戏剧张力十足。借助历史，司马懿和诸葛亮在剧中相见了，虽然构建了一个平行时空，灵魂交流的同时又具有真是的厮杀，既有画面感，又有一种引导力。更开阔的战局和更复杂的人物心理历程。对外，司马懿与诸葛亮对手戏完美展现了强者对决。因为有孔明这个对手，智商的较量也更猛。同时人物更加揪心复杂，讲后三国的晚年人，气氛更沧桑更悲凉。王洛勇老师的诸葛亮“戏很足”。导演曾说过，这部剧借助了历史，“要讲的就是人性，我们要讲清楚人性里面的爱和美，同时也要讲清人性的欲望和自私这些恶的东西。”英文版出师表走红诸葛亮扮演者王洛勇更是朗诵一版英文版《出师表》，大家被百老汇音乐剧出身的口音折服，这可以堪称是教科书版的演绎。把自古出师表在国人心中的分量，用另外一种语言演绎，不更好地向世界的其它种族人民宣扬我们的文化。王洛勇也在微博说到：“亲爱的朋友们：出师一表真名世，千载谁堪伯仲。戏里戏外诸葛亮都是我最喜欢的角色，这是我朗读的英文版《出师表》，希望我心中的孔明，也是大家喜欢的孔明。”本文来源：网易娱乐责任编辑：陈恺_NK4686"
}