{
    "Title": "美国艾奥瓦州一民居圣诞节失火 屋内4人全部死亡_网易新闻",
    "URL": "http://news.163.com/17/1226/07/D6ILA2ER00018AOQ.html",
    "Source": "Netease",
    "Comment": {
        "Total": 2,
        "Reply": 1,
        "Content": "先看看有没有2代 ",
        "Link": "http://comment.news.163.com/news2_bbs/D6ILA2ER00018AOQ.html"
    },
    "Article": "（原标题：美国艾奥瓦州一民居圣诞节失火屋内4人全部死亡）中新社休斯敦12月25日电美国艾奥瓦州东部城市布卢格拉斯(BlueGrass)的一户民居于25日圣诞节上午发生火灾，造成屋内4人全部死亡。美联社(AP)消息，布卢格拉斯警方报告称，该市牧场上的一户民宅于25日上午发生火灾。消防车在当日12:30抵达出事现场后，发现屋内4人，3人当场遇难，1人逃出火场后，不治身亡。据艾奥瓦州电台(RadioIowa)报道，当地警方召开新闻发布会，称目前警方尚不清楚起火原因。当地消防部门也参加了对这起火灾的调查。布卢格拉斯是位于艾奥瓦州首府德梅因(DesMoines)以东147英里的城市。该市居民约有1500人。本文来源：中国新闻网责任编辑：韩佳鹏_NN9841",
    "PublishTime": "12/26/201707:33:00",
    "KeyWords": "艾奥瓦州,圣诞节,美国,火灾"
}