{
    "Article": "",
    "KeyWords": "网易订阅、rss、新闻、资讯",
    "Source": "Netease",
    "Title": "中国上门推销神盾舰遭巴铁拒绝 点名要中国这款主力舰_网易订阅",
    "Comment": {
        "Link": "http://comment.war.163.com/news_junshi_bbs/D6O73RVV0515DV50.html"
    },
    "URL": "http://dy.163.com/v2/article/detail/D6O73RVV0515DV50.html",
    "PublishTime": "12/28/201711:30:26"
}