{
    "Article": "网易体育12月27日报道：本轮英超2-2战平伯恩利后，穆里尼奥公开表示自己执教曼联以来花费的3亿英镑“还不够用”。对此，穆帅的“宿敌”、阿森纳主帅温格做出了评价，他表示过去21年总有球队比阿森纳更有钱。“我执教阿森纳21年了，我从不会为此而抱怨。每个赛季至少有1支、有时是4支球队比我们更有钱，我已经学会了应对并解决这样的问题。”温格说道。“最重要的是你要尽可能解决这样的处境。是的，曼城比我们有钱，切尔西也比我们有钱，曼联也比我们有钱，但我始终相信我们能找到一条属于自己的成功之路。”对于威尔希尔的续约问题，温格表示：“我相信如果我们能在薪资问题上达成一致，他就会留下了。”温格还确认，蒙雷亚尔、吉鲁和拉姆塞将缺席周四与水晶宫的比赛，其中吉鲁将缺席4-6周之久。本文来源：网易体育作者：Rosa责任编辑：冯昊天_NSJS2656",
    "Source": "Netease",
    "KeyWords": "温格,穆帅,阿森纳,曼联",
    "Title": "3亿不够用?温格怼穆帅:我执教21年 从未抱怨钱不够_网易体育",
    "Comment": {
        "Total": 5389,
        "Content": "复制狗，劳资可不是纳迷，老子是瓜粉，就是来痛打落水狗的！😂 让莱斯特城队的补锅匠情何以堪啊！ 那是，不像隔壁的花钱了，只会摆大巴，只会怨天怨地 确实没忘啊，结果老六踢上欧冠了，你说气人不气人？ 黄畜，跪下……含着 老六能进欧冠也行啊是不是副盟主 对温格是满满尊敬英超大陆化的功臣对足球是有自己理念的professor不是白叫 忘了丁丁是被谁甩卖的了，这又来说好用了！？你把梅西C罗给鸟也白扯，只会被当后卫用。 像我这种球迷不知道会被定义为巴狗还是厂弟，或者是黄狗，反正不喜欢穆鸟那祥林嫂一样的就必须是这几类物种 温格就是老四的命，永远被穆里尼奥压在身下 老大老二老三老四老六都踢欧冠去了，都进淘汰赛了，老五却踢欧联去了，气不气气不气嘛 老说瓜秃开豪车，为什么不想想别人老板为何心甘情愿的签支票，你家穆穆三番两次被车子卷铺盖，足球世界被老东家开除两次的不多吧？你们总笑温格，温老四有那么没体面过吗？ 木雕嘴巴硬，跟着一群粪便也是半斤八两。 把丁丁和撒拉赫的亿元身价，用到变成50万身价 鸟黑估计没几个，像你这种鸟粪真是多，各大门户网站黄狗巴狗鸟粪（排名不分先后）把跟帖区搞得乌烟瘴气的，黄狗巴狗还稍微好一点，大都互喷而已，鸟粪可以攻击它们认为妨碍了鸟的任何人，哪怕是切尔西、曼联的自己人，内维尔要看得懂中文早就被气死了 温格有资格和穆里尼奥比吗？不同档次的比较非得强行对比，有意思吗？丢人不丢人。<br>全球大概只有你们那婊才如此不要脸，雇佣职业刷贴工没办法吹阿森纳，只好天天去骂穆里尼奥。 弗格森时代，阵容也没那么强大，几乎年年冠军。现在曼联阵容真的比曼城差？德甲英超MVP不会用，然后怪没人会组织，只能靠博格巴。还是教练问题吧。穆里尼奥调教防守有一套，进攻真心不行，只能靠球员天赋。 曼联混到了以冠军杯资格为荣的地步了<br>真让人唏嘘啊 温格有资格和穆里尼奥比吗？不同档次的比较非得强行对比，有意思吗？丢人不丢人。<br>全球大概只有你们那婊才如此不要脸，雇佣职业刷贴工没办法吹阿森纳，只好天天去骂穆里尼奥。 楼上那俩白痴一样！哪支球队有身体的前锋定位球、角球不用回防？吉鲁、邋遢？当然，小矮人可以不用，也防不住 木表就是这么不要脸，当初仗着阿布的金元足球嘲笑温格，骂人家失败专家。如今自己花的钱没别人多了就一副怨妇样埋怨曼联钱给得不够，在瓜下面吃了那么多败仗怎么不骂自己也是个失败专家了？无耻之尤 木鸟刚说钱不够花，就被老四一口浓痰吐脸上了…… 没忘！一个在欧冠一个在欧联 曼联混到了以冠军杯资格为荣的地步了<br>真让人唏嘘啊 你会看球球都会笑 关键是阿森纳连欧冠资格都没有 温格于英超的意义根本不是你一个母鸟能比的，如今温格老了，确实思想上有些冥顽，那也是英超旗帜级人物，单论教练怕是也只有佛爵爷在其上，曼城切尔西都属于暴发户，但是瓜迪奥拉真的很牛逼，曼城的英超时代已然开启 让穆鸟也拿温格手里的牌会是什么样子？确实成不了失败专家，因为会被扫地出门，根本没有机会再次失败！ 瓜秃、温婊滚[暴怒][暴怒][暴怒][暴怒][暴怒] 从切尔西到国米到皇马再到切尔西到现在的曼联，一个穆尼尼奥养活了多少媒体，高潮了多少喷子！ 温老四其实挺不容易的。要是没有温老四，娜娜这二十年估计得换十几个教练！ 木就是逼抢，起高球，或者就是靠球员踢到哪算哪，防守纯粹是靠龟缩，关键是他没提高，输了怪这怪那，赢了小人得志。瓜是有变化，以前球风是慢，倒脚多，现在明显就是变快了，而且攻守兼备。 傻逼，穆一期的切尔西比瓜秃早多了，球没看几场尽学会逼逼了 去年曼联老六呵呵这么快就忘了 温老四在弱，也创造了联赛不败夺冠。。。。也没装逼把自己装出个被迫害妄想症。。。也没像个怨妇喋喋不休。。。另外穆养犬就别装曼联球迷了。。。。又要护主，又要立牌坊。。。。真跟主子一个德行。。。。 罪魁祸首还不是瓜迪奥拉？！大搞金元足球，把英超变成了他一个人的商场，非富人不得入场。足球历史的小丑和罪人，伪君子！永远被钉在历史的耻辱柱上！！ 楼上两位看清楚一二楼是谁！两只没有戴面具的巴狗！别上了贱人的当！ 所以早说你们装个鸡毛鸟黑。阿森纳实在无法吹，今年你们这些职业刷贴工只好去骂穆里尼奥去了。 卡拉所是谁？我只知道呀拉锁 瓜接手的曼城犹如一辆较完整的车，驾驶室完好(阿坤、)、发动机变速箱完整(丁丁席光头)、大梁坚固(费鸟)、一个崭新的左前轮(斯特林)。只需要补充的是一个右前轮和一个后保险扛。你觉得需要花很多钱吗？也只有瓜这种有钱人的车才会有备用保险扛 所以我要捂着我的存钱罐。温格说 悲催的教授，又被木鸟黑了…… 瓜可以笑木，也该笑木，但温还真没资格，木根本没把温当对手 瓜可不止是球好看，成绩更好 一个是以夺冠为目标的球队，一个是以盈利为目的的球队，大家目标不一样需求量肯定不一样 温格有资格和穆里尼奥比吗？不同档次的比较非得强行对比，有意思吗？丢人不丢人。<br>全球大概只有你们那婊才如此不要脸，雇佣职业刷贴工没办法吹阿森纳，只好天天去骂穆里尼奥。 有钱能买冠军吗？冠军最重要 温格从来没有拿自己和谁比过，只有某鸟和它的粪便才整天拿来和这个比和那个比 问题是瓜花了钱，球踢的好看，球迷是看球好不好看，花钱是俱乐部的事，老板肯花钱没问题，球迷也开心。 现在是谁在叫3亿不够花啊 丁丁卢卡库萨拉赫，个个抽缩头木🐢脸 呼呼老六打欧冠你们踢欧联[挨揍]要不是为了拿欧联冠军有娜娜在前的份儿吗 保护鸟的重任就交给这些新曼联球迷和鸟粪了。 木鸟就是个婊子，嘴贱的很 二人转时候阿森纳也是土豪呀 支持木鸟的狗比们都是外星人？ 说实话这个话题温格来凑热闹有点自取其辱你一个搞足球经济的教练哎 去年曼联老六呵呵这么快就忘了 他都不知道穆一期这事，你和他计较什么。 瓜可以笑木，也该笑木，但温还真没资格，木根本没把温当对手 前年在车子保级，鸟粪肯定是得了失忆症 鸟粪孤儿死妈 温格就是老四的命，永远被穆里尼奥压在身下 鸟粪果然深得鸟真传……一个输了骂裁判，抓内鬼，怼对手，谈运气，怪队医…………辗转几大豪门，翻来覆去摆着大巴就这么几句话。一个更直接，复制粘贴标点符号都懒得改。 曼联混到了以冠军杯资格为荣的地步了<br>真让人唏嘘啊 确实。阿森纳要是没有温格，凭他们每年的投资，能经常进欧战？做梦 某些曼联球迷双标这么明显，就不用多言了吧 可是阿森纳真心算不上豪门啊。我也不知道谁排出来的。 别扯了希望你明年踢下欧冠 所以老四老四都保不住了 哈哈😄，倒数第一烂5年还咬人，抱紧勇士大腿，骂雷霆，黑火箭，咬马刺，明年继续倒数第一，真为西部丢人。 足球板块他来了个NBA 教授有切尔西的钱，都可以打的佛爵爷跪下，但是教授真是传承足球，而不是花钱！ 穆里尼奥已经没法和瓜迪奥拉比了，他自己都心虚 呵呵 因为请木鸟来就是为拿冠军的 去年谁四大皆空来着？这么容易忘 木鸟刚说钱不够花，就被老四一口浓痰吐脸上了…… 。。一边嘲讽阿森纳欧联，一边抱着欧联沾沾自喜。比欧冠的话，阿森纳连续将近20年进欧冠了，少一年真不足道。而且阿森纳也并没有0冠，社区盾虽然不值钱，但是曼联不是也抱着吹三冠王吗？拿的足总杯比联赛杯只好不差吧?欧冠16强，按奖金的话比欧联冠军不少的。联赛还领先曼联一个身为。。。阿森纳的确只是强队集团的守门员，但是各有各的活法 鸟粪就是这么不要脸，记吃不记打 一楼这么洗白穆鸟不好吧 教授这么多年确实不易 教授的意思是你看我没花什么钱就是第四，不要骂我了。<br>当然真实情况是花了钱他也是第四。 让穆鸟也拿温格手里的牌会是什么样子？确实成不了失败专家，因为会被扫地出门，根本没有机会再次失败！ 温格有资格和穆里尼奥比吗？不同档次的比较非得强行对比，有意思吗？丢人不丢人。<br>全球大概只有你们那婊才如此不要脸，雇佣职业刷贴工没办法吹阿森纳，只好天天去骂穆里尼奥。 教授是每年钱都够用，因为他不花呀。所以娜表越来越惨啊[微笑] 温季就算了吧，10多年没尝过联赛冠军的味道了，木鸟再差，带队成绩和荣誉都是前几名的教练，这赛季被各方黑出烟来，不也是联赛排第二么，欧冠不也小组出线，温季哪儿来的底气说三道四的。 傻逼，穆一期的切尔西比瓜秃早多了，球没看几场尽学会逼逼了 是足总杯，第二年还拿了优胜者杯 温老四可没抱怨过裁判，天气，草皮，赛程。也没说过球员孩子气，更没有捉过鬼和队医 鸟粪总是爱眼瞎，不要一点碧莲 论抱怨，你鸟如果是第二还有谁可能拿第一？怨妇鸟的美名是怎么得来的？黑温格也要拿出合理的证据！ 教授怼傻鸟都脏了教授的嘴 其实从00-01年左右皇马开始组建银河战舰就是金元足球了，只是皇马这种贵族豪门花起钱来大家也不觉得很土罢了。 哈哈 古利特那时候拿的是足总杯还是联赛杯什么的，在联赛中算是中坚力量但不是第一集团，记不太清了，大约吧。 教授前几年不都是盈利的吗？ 那表吹牛从来都没有脸皮，而且对英超了解很差的。所以多次说他们是职业公关号，根本不是球迷<br>阿森纳投入并不低。工资支出也不低。只是因为阿森纳最近十几年成绩差，所以买卖球员那边没怎么赚钱。 不跟你争，你穆牛逼，你穆最吊，你穆大巴天下无敌，好不好，是不是很开心，不跟你们这些没进化完全的人争论 阿森纳进欧冠了？？[微笑] 21楼倒数第一到处咬人，没办法。 温老四其实挺不容易的。要是没有温老四，娜娜这二十年估计得换十几个教练！ 莫耶斯和范加尔相拥而泣，嘟囔着:当年我要有3个亿，保底三冠王 你若是拿孔蒂和穆里尼奥比也算，虽然吨位相差的有点大。别去拿温格比，档次差太多了<br>喜欢这样比的，不是小编号就是那婊职业刷贴工。。。 别他妈说的你很懂一样。曼城夏窗投入2.21亿。切尔西1.8亿。曼联1.45亿，埃佛顿1.49亿。阿森纳就一个拉卡泽特4500。卖人还赚了5500。总投入也就1000万。曼城净投入达1.3亿。曼联1.2亿。切尔西7000万，埃佛顿5400万。你告诉我，阿森纳钱花在哪 作为一个厂迷温黑不管自己怎么黑也都不支持木鸟黑 你厂试试今年欧联能拿回冠军不？ 金元足球从鸟的切尔西开始！并且鸟一直靠金元足球混！ 这些都是鸟的孙子，怎么可能是曼联球迷？ 有三个比你钱多就是你争四的原因？ 罪魁祸首还不是瓜迪奥拉？！大搞金元足球，把英超变成了他一个人的商场，非富人不得入场。足球历史的小丑和罪人，伪君子！永远被钉在历史的耻辱柱上！！ 哈哈😄，倒数第一(索马里山炮)，你说你说抱就抱勇士大腿就抱吧，还有逼脸黑马刺，我能把你家强奸犯的黑历史把你逼脸打出来，老老实实骂骑士。 温格96年执教阿森纳到现在有21年了，凭这个穆3⃣️年就望尘莫及了；穆鸟在英超也混了几个赛季，也来个赛季不败来证明自己。 去年老六今年能踢欧冠，老五不能啊 让莱斯特城队的补锅匠情何以堪啊！ 你们要去装骂穆里尼奥也摆脱去曼城或者切尔西板块。别拿更烂无数档次的温老四来强对比。<br>吨位差太多。有意思吗？<br>喜欢这类强对比的，除了小编号就那婊职业刷贴工了。 所以你没有冠军 金元足球的代言人就是穆一期的切尔西，这个没毛病吧! 二楼，坏人😄 瓜的职业生涯帮助他在教练岗位上多了很多阅历，这点穆永远赶不上了 去年曼联老六呵呵这么快就忘了 瓜可以笑木，也该笑木，但温还真没资格，木根本没把温当对手 那是，最出色的CEO型教练，没有之一 温格的应对方式就是不求上进年年保四欧冠站着死被人疯狂血洗？ 温格就是老四的命，永远被穆里尼奥压在身下 不用夺冠没钱也够用 那是真叫穷 给哥 所以别人争冠你保4⃣️ 都怪俱乐部不给钱买后卫，没钱怎么把大巴摆牢啊 娜娜年年说有一亿，可是钱呢 花第五多的钱排在第四？<br><br>我是支持温格的，多用点小妖吧 温格有资格和穆里尼奥比吗？不同档次的比较非得强行对比，有意思吗？丢人不丢人。<br>全球大概只有你们那婊才如此不要脸，雇佣职业刷贴工没办法吹阿森纳，只好天天去骂穆里尼奥。 怼？你看见了吗？标题🐶 又疯一个 一码归一码，阿森纳这些年是怂。但穆里尼奥花了三亿少赛一轮落后12分还在找借口，你们值得骄傲么？ 就算老六人家有欧冠阿森纳玩偶联 实事求是说温格也不容易 日日日 钱在银行，存了定期😂😂 除了鸟粪，还有舔鸟的？帮帮忙哦 艹<br>艹 那就少逼逼说什么失败专家现今球会要是没预算木鸟也没办法要不怎么羡慕曼城 我和刷贴工具说来说去？你想多了。<br>而且你得清楚，真该谢谢我，阿森纳评论版面被你们职业刷贴器霸屏几年，真没几个人会如我这样，给那么多垃圾流量给你们。 穆鸟的粉丝我也是服了，一套防守反击的战术走遍天下，西甲干不过跑到了英超，英超还是干不过，看看俩人的互怼战绩，打不过就打不过，以后看见就绕道走，搞得全世界都欠你的似的 一楼这么洗白穆鸟不好吧 关键是有个邻居，整容比你好，还比你有钱。。。 去年是欧联冠军，娜娜是四大皆空，心理有点比数行么 鸟粪的智商真心低，反反复复就那几句， 我日5+6、2+10楼的女良！能理解就好 你丢瓜的脸！你知道吗！就这点出息？ 教授解决问题的方式：卖队长哈哈哈哈哈 确实是失败专家啊，木也烂，没什么好说的 傻逼，穆一期的切尔西比瓜秃早多了，球没看几场尽学会逼逼了 你俩谁也别说谁 你把鸟的脸丢到大门口了，天天打鸟的脸还有脸在这里叫。 罪魁祸首还不是瓜迪奥拉？！大搞金元足球，把英超变成了他一个人的商场，非富人不得入场。足球历史的小丑和罪人，伪君子！永远被钉在历史的耻辱柱上！！ 楼上两位看清楚一二楼是谁！两只没有戴面具的巴狗！别上了贱人的当！ ”最已阵”这个梗都快被忘啦 14樓的傻逼說來說去就那幾句話。就一傻屌 那为何曼联今年可以欧冠，而阿森纳不能？为何温格对穆里尼奥总是输？ 阿森纳，遇到穆里尼奥就是个怨妇！温格就是一条老狗，不该出来的时候总是乱叫！ 别打脸！疼啊 黄畜，跪下……含着 温格一直在抱怨买不到人，为啥，没钱！ 温格有资格和穆里尼奥比吗？不同档次的比较非得强行对比，有意思吗？丢人不丢人。<br>全球大概只有你们那婊才如此不要脸，雇佣职业刷贴工没办法吹阿森纳，只好天天去骂穆里尼奥。 求阿森纳高清欧冠奖杯照 鸟粪这素质，你娘被他们日了。 呼唤 哈哈，当年在切龟和皇马的时候咋不说金元足球，曼联这些年砸钱砸的少了？瓜秃把穆鸟能逼疯啊…… 嘿嘿 你又不争冠。肯定不管钱够不够。 让莱斯特城队的补锅匠情何以堪啊！ 反过来说也行啊，为什么其他俱乐部难请瓜、不愿每年投入大量资金引援呢？是人都知道：钱！中立球迷都知道曼城原阵容如何，需要补充的大概是哪些位置，而且也确实投入巨大(全欧两年投入都是第一)，加上瓜这个不错的人调教，出成绩是迟早的事。关键是巴沟护瓜宝污秽的不堪入目 温格有资格和穆里尼奥比吗？不同档次的比较非得强行对比，有意思吗？丢人不丢人。<br>全球大概只有你们那婊才如此不要脸，雇佣职业刷贴工没办法吹阿森纳，只好天天去骂穆里尼奥。 温格有资格和穆里尼奥比吗？不同档次的比较非得强行对比，有意思吗？丢人不丢人。<br>全球大概只有你们那婊才如此不要脸，雇佣职业刷贴工没办法吹阿森纳，只好天天去骂穆里尼奥。 温格说，别人都是找老板要钱买这买那的，我都是自己想办法赚钱去买，然后每年还得给老板发工资分红，我容易吗我！ 别人能打欧冠你排名比人高只能打欧联你好意思吗？ 毕竟是三冠王嘛 那是巴狗吧 三冠。 温格就是老四的命，永远被穆里尼奥压在身下 换别的球队年年只争四，这教练早被炒了，留下温格是因为他能为枪手赚钱。 两条巴沟互相舔 老说瓜秃开豪车，为什么不想想别人老板为何心甘情愿的签支票，你家穆穆三番两次被车子卷铺盖，足球世界被老东家开除两次的不多吧？你们总笑温格，温老四有那么没体面过吗？ 他们不会摆大巴买来也没用 唉，看来狗的智商真的堪忧。。。。这世界上说你家主子的就是阿森纳，巴萨球迷？你特么也得被迫害妄想症了？这特么是病，得治。。。 温格有资格和穆里尼奥比吗？不同档次的比较非得强行对比，有意思吗？丢人不丢人。<br>全球大概只有你们那婊才如此不要脸，雇佣职业刷贴工没办法吹阿森纳，只好天天去骂穆里尼奥。 现在各大门户网站霸屏骂穆里尼奥的，绝大多数都是那婊的职业刷贴工，没成绩，所以拼命挑曼联球迷和曼城球迷撕逼。巴萨球迷没那么无聊。他们数奖杯都忙不过来。 作为一个豪门球队，曼联花大钱买人无可厚非，建议曼联10号买马赛的帕耶特或者J罗，7号买多特的奥巴梅杨。 娜四当然。……夺冠和争四。阵容要求能一样？？ 所以没赛季至少有一只，有时候是四只球队，骑在你头上呀。 拉涅利夺冠那年貌似被温老四双杀啊 傻逼，因为你没有目标 木表就是这么不要脸，当初仗着阿布的金元足球嘲笑温格，骂人家失败专家。如今自己花的钱没别人多了就一副怨妇样埋怨曼联钱给得不够，在瓜下面吃了那么多败仗怎么不骂自己也是个失败专家了？无耻之尤 你完全不懂足球，半桶水也没有，别出来乱评论了！洗洗睡吧 只有你们这些霸屏的那婊职业刷贴工才如此不要脸。<br>温格有资格和穆里尼奥比吗？ 娜娜不肯让路,无奈那季英超联盟宣传需要,其它强队集体让路,如同当年德甲红魔升班夺冠一样的套路 星宿老仙，法力无边。 打欧联又怎样了？排名比不过就拿欧冠说事？ 知道什么叫瞎子么？ 温格是打不过穆，但穆给同一个老东家开除两次，温格有穆一半的刻薄，鸟迷的脸不知道放哪好了 阿森纳有这么多钱给你花吗 😄<br>六冠王球迷比阿森纳球迷多太多了 厉害 温老四其实挺不容易的。要是没有温老四，娜娜这二十年估计得换十几个教练！ 从切尔西到国米到皇马再到切尔西到现在的曼联，一个穆尼尼奥养活了多少媒体，高潮了多少喷子！ 为了一个素未蒙面的偶像，也是可以不要脸的。。。 傻逼，穆一期的切尔西比瓜秃早多了，球没看几场尽学会逼逼了 去年曼联老六呵呵这么快就忘了 果然那些霸屏刷贴骂穆里尼奥的，的确是那婊的职业刷贴工。 罪魁祸首还不是瓜迪奥拉？！大搞金元足球，把英超变成了他一个人的商场，非富人不得入场。足球历史的小丑和罪人，伪君子！永远被钉在历史的耻辱柱上！！ 放心，走不了多远 老头在法甲一样前六名 最佳足球经理：温格<br>😄 在阿森纳有家一样的感觉…熟门熟路的一切尽在掌握，应该拿了很多的冠军吧？ 的确，就这个投入，就这个人员配置，除了温格，谁都玩不转。玩钱不是问题的豪门足球，或许好教练很多，但要玩精打细算的足球，没人玩得过温格，说白了、如果所有球队投入的资金都一样，绝对是温格的球队拿冠军。 是啊这么功勋教练赛季中途还解雇这才情何以堪 喂喂喂,你们这种只想争四的俱乐部就别谈有没有钱了好吗？ 教授…… 结果老六有欧冠踢，老五略过 前年车老十下课那个是谁啊？！😂 阿森纳卖队长是传统，争4⃣️是传统，当初不败夺冠欧冠被切尔西打回家 温格从来没有拿自己和谁比过，只有某鸟和它的粪便才整天拿来和这个比和那个比 巴萨最近几十年最成功俱乐部，巴萨球迷根本无需这样做。<br>全球除了那婊靠职业刷贴忽悠球迷十几年，还有那家俱乐部会如此奇葩。<br>头几年最少温老四还能保证欧冠，他们还能在阿森纳评论版面霸屏刷贴，整版齐刷刷的工具号。这两年没办法吹成绩，只好去到处霸屏骂穆里尼奥去了。 哈哈，木鸟看不起教授，温格也看木鸟不顺眼，这是杠上了。 然而我还能挣钱 要是孔蒂或者瓜迪奥拉喷下也算了。。。温老四还是算了吧。<br>全世界只有那婊才那么不要脸，吨位相差那么大，强对比有意思吗？ 巴沟护瓜宝除了大叫好支威有，其他的根本不做评论，这是区分球迷与牠们最简单、直接的方法。瓜花4.7亿欧最见效的目前就萨内沃克，楼上会看球？瓜的战术这么吊、这么会用人、眼光这么独，还用得着买十几个人？由瓜调教曼城原有球员不就得了！难道瓜买这么多人目的是拿回扣 这能说明什么?欧洲杯有丹麦童话及希腊夺冠,欧冠有波图冷门,五大联赛早已有德甲红魔当年升班即夺冠典型,相比较莱斯特城也只是相同的套路罢了,这些所谓的冷门只是足球市场的客观需要,正因为这些所谓冷门也是在球市一定时间范围内才能发生,象莱斯特城英超夺冠在未来二三十年内英超联赛很难发生了,莱斯特城偶乐英超夺冠后还能保持四强竞争力吗? 温格和穆里尼奥不是同一档次的比较。。。别为了点垃圾流量强行对比。<br>和国足强行和韩国足球比较一样。。。。 问题是瓜帅花了钱拿到好成绩，穆帅花的比别人都，却拿不到冠军 双杀又双叒叕怎样？阿森纳的英超冠军多遥远了?温格就是喜欢💰💰💰当枕头垫着才睡得安稳 补锅匠的冠军没几个人能复制。除了球队不受重视，有发挥，还需要非常好的运气。而且别忘了那年破厂双杀蓝狐 其实吧两个人的追求不一样，教授是居家过日子，穆鸟是投资做生意。 曼城，车子，曼联三家都比你有钱！！所以。。。这就是你年年争四的原因？？？ 其实你是老板 老大老二老三老四老六都踢欧冠去了，都进淘汰赛了，老五却踢欧联去了，气不气气不气嘛 人家怀里紧紧抱着保温杯，心里觉得暖暖的 今年踢着欧冠的是谁？ 成绩呢？要脸吗？ 第一名多出的奖金超过几个500w了[微笑][微笑][微笑] 去年曼联老六呵呵这么快就忘了 靠走偏门进欧冠，还得意的，这些鸟屎哪里有脸？ 对温格是满满尊敬英超大陆化的功臣对足球是有自己理念的professor不是白叫 教授拿死工资，不拿回扣的 老六打欧冠老五打欧联 温格就是老四的命，永远被穆里尼奥压在身下 人家是曼联新球迷 好吧就说踢欧冠，那特么也是范厨师给他创造的机会 你都是花不完！好个球队经理，可惜好久都不是个好教练了 温格和弗格森是同一时代的人。 我开始怀念教授从法甲淘宝小妖的年代了……绝对慧眼识珠啊！ 从球队经营角度，温格很不错的。。。打法也好看，就是对强队不行 真的了就是运气和穆鸟没法比强队一下子全出现了靠这一天啊哈哈哈<br>穆鸟赢拉科摩纳哥就能拿欧冠也真是让人羡慕<br>第二个欧冠还能整火山灰<br>温格真是气死了 金元足球是全部买球星，穆鸟才是这样 莱斯特城老板表示，当时和拉涅利签合同时，关于夺冠的500万镑奖金只是写着玩儿的，没想到真夺冠了！卧槽！ 只准州官放火，不许百姓点灯？4点亿换来英超不败，3亿换来什么？ 最强之人已在阵中 第六名太丢人了傻逼鸟粪自己也极力回避别勉强他们了 木鸟刚说钱不够花，就被老四一口浓痰吐脸上了…… 豪华大巴！！豪华大巴！！！是乃辈想坐就坐的么？老子为英超穷鬼施福利，懂不懂！！懂不懂！！！ 曼联混到了以冠军杯资格为荣的地步了<br>真让人唏嘘啊 你总结很到位，木为曼联增光 瓜迪奥拉搞金元足球？太搞笑了，大巴黎买两个球员就花了四亿欧，曼联买两个球员花了将近两亿欧，曼城可买球员花不了这么多。然而买了这么多，鸟粪还说别人是金元足球。鸟买球员是为了摆成历史第一豪华大巴。 然后英超12346都去参加欧冠小组赛了第五的娜娜比较尴尬哈哈 花再多钱，球场上也只是十一个球员再踢球，但全世界优秀的球员何止十一个？自己不会买人用人就会瞎B,无能！ 是今年老铁[挨揍] 傻逼，穆一期的切尔西比瓜秃早多了，球没看几场尽学会逼逼了 哈哈 没钱就别逼逼 鸟这几年是走下坡不太行了，但是也轮不到温格说话，差远了 罪魁祸首还不是瓜迪奥拉？！大搞金元足球，把英超变成了他一个人的商场，非富人不得入场。足球历史的小丑和罪人，伪君子！永远被钉在历史的耻辱柱上！！ 后面的艰难就是那会儿埋下的种子，淘宝太多，大把眼红，不识人就紧盯温格，教授看上，立刻跳出来加价抢，然后阿森纳就难淘到宝了。当时皇马老佛爷有句话最有代表性，凡是温格看上的，不用试训，直接抢签就是 现在没钱就这些人，阿森纳配置与成绩对等，老板满意[大笑] 一个是广告经理管球队，一个是伙记管球队。 金元足球就是切尔西阿布和穆婊时代开始的，当时阿布可以说是想买谁就出高价，什么克雷斯波，卡瓦略，舍普琴科，巴拉克等等，都是高价买来的，开创了所谓的金元足球 废话，只会抱怨赚太少 我的拿手好戏是卖队长[微笑] 无论多少亿也都只是穆婊大巴的一个零件而已😂😂😂😂😂😂😂 有钱能买冠军吗？冠军最重要 那是，不像隔壁的花钱了，只会摆大巴，只会怨天怨地 最己阵 去年那场3比0一楼肯定选择性失明 看了这么多年球，学会了不那么早下结论，今年看可以确定的第一是，瓜成功的赢得了转会季，开季签了三个边卫，现在看边卫行情直奔6000-8000万，曼联已经只能买到奥利耶这种货色，不愧为顶级设计师；第二个，穆已经有些黔驴技穷了，当年把梦三拉下马，百分夺冠，后期双杀巴萨，三后腰阵型是他针对性战术的巅峰，现在所有的人都知道他的打法。第三个，至于曼城，去年十连胜之后6轮不胜，如果遭遇伤病潮是否能保持，而且，是否已经称霸欧洲还得验证，只能说现在比拜仁时期和巴萨后期，向前的欲望更强，可能跟进攻核心的变成cam有关系。 跟鸟粪谈逻辑？鸟把他们老po干了他们也会找出理由为他们主子开拖 巴沟护瓜宝除了大叫好支威有，其他的根本不做评论，这是区分球迷与牠们最简单、直接的方法。瓜花4.7亿欧最见效的目前就萨内沃克，楼上会看球？瓜的战术这么吊、这么会用人、眼光这么独，还用得着买十几个人？由瓜调教曼城原有球员不就得了！难道瓜买这么多人目的是拿回扣 疯狗压温鸡？不怕传染？ 省吃俭用惯了，习惯了去洗剪吹玩五十块一次的，突然去五星酒店玩1200全套的哪舍得啊 拉科4:0逆转米兰好像不弱吧 说到钱。。。没人怼得过温格，，，鸟被无情嘲讽 三亿可以干啥，一个内马尔！不是5年前了 确实没忘啊，结果老六踢上欧冠了，你说气人不气人？ 温老四其实挺不容易的。要是没有温老四，娜娜这二十年估计得换十几个教练！ 哈哈，谁靠切尔西的金元足球发的家？谁又把切尔西这样豪门带去保级？ 去年曼联老六呵呵这么快就忘了 傻逼，穆一期的切尔西比瓜秃早多了，球没看几场尽学会逼逼了 一个博格巴就创记录了，居然还有脸喷钱花少了 也就温格情怀较重不离开阿森纳！任何一个一流教练会人手俱乐部不投入年年无冠？瓜帅鸟帅肯定不干！谁陪你玩！有几个十年？谁不想在职业生涯包括教练多点荣誉加身？但温格应该改变思路，没冠军你就不能成为顶级教练。该花钱还是花吧。时代不同了，现在3、4千万真买不来好前锋了。 温格就是老四的命，永远被穆里尼奥压在身下 英超金元足球是阿布带的头。。。。 他花的钱可不比瓜少多少，自己无能整天抱怨。来了两年花了差不多三亿英镑 悲催的教授，又被木鸟黑了…… 估计穆鸟灰反驳 七存息。。。 此一时彼一时懂吗？ 瞎说什么大实话[窃笑] 听楼上巴狗挑拨…… 今年老四易主了 木雕嘴巴硬，跟着一群粪便也是半斤八两。 这就是命 那是，不像隔壁的花钱了，只会摆大巴，只会怨天怨地 没有石油就学习曼联拜仁，自己经营。有什么错？最早温格来才100多人 木表就是这么不要脸，当初仗着阿布的金元足球嘲笑温格，骂人家失败专家。如今自己花的钱没别人多了就一副怨妇样埋怨曼联钱给得不够，在瓜下面吃了那么多败仗怎么不骂自己也是个失败专家了？无耻之尤 所以我要捂着我的存钱罐。温格说 罪魁祸首还不是瓜迪奥拉？！大搞金元足球，把英超变成了他一个人的商场，非富人不得入场。足球历史的小丑和罪人，伪君子！永远被钉在历史的耻辱柱上！！ 对对，再来三亿摆大巴 曼联这个大IP是爵爷打造的 娜娜只要第四就满足，吹那个赛季就行 ",
        "Reply": 314,
        "Link": "http://comment.sports.163.com/sports2_bbs/D6MHT5PV00058781.html"
    },
    "PublishTime": "12/27/201720:00:29",
    "URL": "http://sports.163.com/17/1227/20/D6MHT5PV00058781.html"
}