{
    "PublishTime": "12/28/201700:58:49",
    "Source": "Netease",
    "Comment": {
        "Link": "http://comment.news.163.com/news_shehui7_bbs/D6N2VEVM0001875P.html",
        "Total": 70,
        "Reply": 11,
        "Content": "电子车牌呵呵，整个前档玻璃都是杂物堆，还有以后开车就会被监控，去哪里他们都知道。 征收拥堵税才是目的，只想说拥堵是谁规划不合理造成的，为啥需要车主买单？ 拥堵费。重点。要考的 对屁民实时监控，抓坏人完全不管用[狗] 现在他们想知道也能知道 靠！ 浩瀚的宇宙不是微小的人类所能认知的！ 电子车牌呵呵，整个前档玻璃都是杂物堆，还有以后开车就会被监控，去哪里他们都知道。 征收拥堵税才是目的，只想说拥堵是谁规划不合理造成的，为啥需要车主买单？ 2楼亮了[窃笑][窃笑][窃笑] 拥堵费。重点。要考的 现在他们想知道也能知道 对屁民实时监控，抓坏人完全不管用[狗] 小编，标题说省钱，哪省了？ 让你这样很多产品都不用买了。手机屏幕，电视，多少韩国的 流星月亮地球太阳系有发动机么？没有!他们却高速在宇宙中运行!为什么？因为他们的运行轨道本身就是太空高速时空隧道!他们的运行路线一半为去路一半为来路，周而复始地运行着!地球自转公转着，本就没有东西南北上下左右等方位!谁定的？我们的天父啊!目的只有一个，告诉人类我们天父的星座方位!所以九曲桥的方向始终对着东北方!在宇宙一切物质中，永远是子体围绕母体运动，这是恒定的!所以地球自转并围绕太阳公转!因地球是自转公转的，所以根据地球的东西南北是找不到星外文明的星座方位的!只有找到太阳的上下前后东西南北才能准确地给天父星座方位定位!我们天父星座方位在太阳系东北上方第九颗恒星那里!那里以双伴恒星为中心带动周围108颗恒星运动着! 靠！ 浩瀚的宇宙不是微小的人类所能认知的！ "
    },
    "Article": "（原标题：没买车的人注意！4天后，将有这些大变化！不仅是省钱.）随着新一年的临近，国家在2018年也将会推出一系列汽车新政策，这些政策与消费者买车息息相关，小编对此进行了梳理，买卖车的人注意看。明年起至2020年底新能源汽车免征车辆购置税财政部、税务总局、工业和信息化部以及科技部联合发布关于免征新能源汽车车辆购置税的公告，决定自2018年1月1日至2020年12月31日，对购置的新能源汽车免征车辆购置税。对免征车辆购置税的新能源汽车，通过发布《免征车辆购置税的新能源汽车车型目录》实施管理。2017年12月31日之前已列入《目录》的新能源汽车，对其免征车辆购置税政策继续有效。1.6升及以下排量的乘用车购置税将按10%征收根据以上通知要求，自2018年1月1日起，消费者购买1.6升及以下排量的乘用车购置税将恢复10%的税率。在此之前，购置税仍将维持7.5%的税率，符合国家规定的新能源汽车，将享受免征车辆购置税的政策，不受购置税率调整的影响。汽车贷款门槛降低中国人民银行、中国银监会联合发布《关于调整汽车贷款有关政策的通知》，通知宣布自2018年1月1日起，自用传统动力汽车贷款最高发放比例为80%，买车首付最低20%;商用传统动力汽车贷款最高发放比例为70%;新能源车、二手车贷款比例提高中国人民银行、中国银监会宣布自2018年1月1日起调整汽车贷款政策，自用新能源汽车贷款最高发放比例为85%，商用新能源汽车贷款最高发放比例为75%;二手车贷款最高发放比例为70%。2018年北京小客车指标总量降低根据北京市交通委近日发布的2018年北京小客车指标总量和配置比例，2018年小客车指标总量从15万降至10万，其中新能源指标保持6万不变，普通指标由9万个减少至4万个。除去单位指标，北京全年个人普通车指标仅为3.8万个，中签难度或将高于今年。新能源指标数量将首次超过普通车指标。12月26日，北京举行今年最后一期普通小客车指标摇号，中签率约为0.11%再创新低，相当于883人抢一个指标。小排量购置税优惠取消自2018年1月1日起，小排量乘用车购置税将从目前的7.5%，恢复按10%的法定税率征收。伴随购置税减免优惠政策即将落幕，年底小排量轿车或再迎一次购置潮。为了拉动汽车消费，在此前的2015年10月至2016年12月31日，国家曾将1.6L及以下排量乘用车购置税税率由10%下调至5%，一度引发各地购车热潮。今年，小排量车购置税回升至7.5%，而在即将到来的2018年，小排量车购置税优惠将取消，税率也将恢复至10%。按照目前我国汽车购置税的计算方法，车辆购置税金额=新车发票价格÷1.17(增值税)*购置税税率，也就是说，按照目前的7.5%税率，一辆1.6L排量、价格15万元的汽车所需要缴纳的购置税为9615元，而按照2018年的标准则需缴纳12820元，中间相差三千余元。购置税优惠的缩减对车市影响深远。2016年年末，受购置税“减半”倒计时影响，小排量车销售迎来高峰。数据显示，2016年前11个月，小排量乘用车销量达到187.6万辆，同比增长20.5%，占整体乘用车销量的比重超7成。在小排量车型的发力下，2016年全年乘用车销量同比增长14.9%，远超年初预期。虽然此次优惠取消税率恢复常态很难再现当年的车市盛况，但即便只有三千多元的差价，幅度也算可观，对于精打细算的消费者来说，着实是一个让人动心的消息。逐步推行电子车牌从2018年开始将会逐步开始使用电子车牌，先从北京、天津、重庆和河北等地方试点运行。电子车牌还可能会跟将来要征收“拥堵费”相关。在这张电子车牌中包含了车辆的全部信息，购车情况、年检、保险、停车卡违章肇事记录等都将用这一张卡所代替，电子车牌将置于前风挡玻璃之上，具有可识别、可读写等功能。电子车牌具体的实施细节还要等实施之后才能知道，不过电子车牌的推广可以说能够极大的方便了车主，以后对于像套牌车这类的违法案件可以极大的避免。我们以后年检、处理违章等都可以省事不少。交管部门严查严处酒驾醉驾公安部交通管理局日前召开会议，对全力预防重特大道路交通事故进行部署，并从即日起开展整治行动，严查严处酒驾醉驾违法行为。公安部交管局强调，以餐饮娱乐场所周边道路、城郊结合部和县乡道路、重要村镇和集市周边道路为重点路段，以农村红白喜事、赶集赶圩、重大民俗活动等为重点时段，以城市小型客车，农村面包车为重点车辆，严查严处酒驾醉驾违法行为。本文来源：央视财经责任编辑：荀建国_NN7379",
    "Title": "没买车的注意！4天后将有这些大变化 不仅是省钱_网易新闻",
    "URL": "http://news.163.com/17/1228/00/D6N2VEVM0001875P.html",
    "KeyWords": "乘用车,新能源汽车,车牌,小客车"
}