{
    "Article": "",
    "KeyWords": "网易订阅、rss、新闻、资讯",
    "Source": "Netease",
    "Title": "中国海军“钱学森”船和姐妹舰们不简单，意义不亚于航母_网易订阅",
    "Comment": {
        "Link": "http://comment.war.163.com/news_junshi_bbs/D6ORKCJ40515F0DH.html"
    },
    "URL": "http://dy.163.com/v2/article/detail/D6ORKCJ40515F0DH.html",
    "PublishTime": "12/28/201717:28:58"
}