{
    "Comment": {
        "Link": "http://comment.news.163.com/news2_bbs/D6LOGQ2500018AOR.html",
        "Reply": 10,
        "Content": "非遗传承人不可以做遗传下来的东西？那请问非遗传承是拿来看的吗？ 四大发明<br>的火药发明者在地底下打了个颤抖！ 幸亏死的早 文化遗产也要有选择的继承啊，什么天地君亲师之类的，就明显比玩炸药好嘛，老爷子一把年纪了，也是那个年代过来的人，不容易啊，别玩这么危险的东西啊，万一有个闪失，你有个三长两短是国家的损失啊，天天上节目念念稿子，讲讲当年怎么用焰火打鬼子，这才对的起你非遗继承人的称号，对不对？ 哎~ 这个过分了 哈哈…… 非遗传承人不可以做遗传下来的东西？那请问非遗传承是拿来看的吗？ 没事，火药是中华民族集体智慧的结晶 四大发明<br>的火药发明者在地底下打了个颤抖！ 极度恐惧 幸亏死的早 这个过分了 看不懂 哎~ 文化遗产也要有选择的继承啊，什么天地君亲师之类的，就明显比玩炸药好嘛，老爷子一把年纪了，也是那个年代过来的人，不容易啊，别玩这么危险的东西啊，万一有个闪失，你有个三长两短是国家的损失啊，天天上节目念念稿子，讲讲当年怎么用焰火打鬼子，这才对的起你非遗继承人的称号，对不对？ ",
        "Total": 286
    },
    "Article": "（原标题：造烟花非遗传承人被判刑上诉案29日宣判）法制晚报·看法新闻（记者李阳煜）12月29日上午十时，非遗继承人杨风申涉嫌非法制造爆炸物一案将在赵县法院宣判。2016年2月19日，河北省非物质文化遗产传承人杨风申，因涉嫌非法制造爆炸物罪被赵县公安带走，拘留19天。之后县人民法院以非法制造爆炸物罪判处杨风申4年6个月。随后，杨风申向石家庄市中级人民法院提起上诉。杨风申老人家中的一审判决书摄/法制晚报·看法新闻记者黑克经过数月等待，该案将于本周五开庭。杨风申大女儿告诉法制晚报·看法新闻记者，全家人一直都处于非常紧张的状态，就怕最终判处有罪。“因为老人确实不是为自己做的这件事，而且五道古火会已经被评为非物质文化遗产”。家人称他们的最终诉求是判无罪，“老人清清白白一辈子，刚过了80大寿，这么大岁数怕承受不了。”本文来源：法制晚报-看法新闻责任编辑：何雨芳_NN5632",
    "PublishTime": "12/27/201712:36:46",
    "URL": "http://news.163.com/17/1227/12/D6LOGQ2500018AOR.html",
    "Title": "非遗传承人涉非法制造爆炸物获刑 上诉案29日宣判_网易新闻",
    "KeyWords": "非法,法制晚报,非遗传承,上诉案",
    "Source": "Netease"
}