{
    "Article": "网易体育12月29日报道：在圣诞假期中，44岁的卡洛斯回到了巴西圣保罗，他参加了小女儿马丽娜的洗礼仪式。马丽娜出生于7月份，她是卡洛斯与现任妻子玛利亚娜的第二个孩子。在这段婚姻中，还有个名叫曼努艾拉的女儿。在社交网络上，卡洛斯贴出了这次洗礼仪式的照片。卡洛斯和玛利亚娜在牧师两旁，玛利亚娜抱着马丽娜。在照片最右侧戴眼镜的男孩，也是卡洛斯的儿子，他甚至比父亲已经足足高出了一个头来。马丽娜，是卡洛斯第11个孩子。在与前妻阿莱克桑德拉的婚姻中，卡洛斯有了3个孩子：罗贝塔、吉奥瓦娜和小卡洛斯。在离婚后，卡洛斯与不同的女性生了四个孩子，分别名为爱德华多、克里斯托弗、儒尼奥尔和卢卡。在如今这段婚姻中，卡洛斯又有了两个女儿。八月份，卡洛斯又有两个私生子被曝光。当时一名前女友起诉卡洛斯没有按时支付抚养费，卡洛斯承认有两名私生子，并最终还是补发了抚养费。44岁的卡洛斯，迄今为止已经有了11个孩子，简直活活生出了一套首发阵容来。卡洛斯的小女儿如今半岁，他的大孙子佩德罗则还不到两个月大。今年10月12日，卡洛斯女儿吉奥瓦娜生了儿子佩德罗。当时出生只有三个月的马丽娜，“一不小心”就成了小姨。本文来源：网易体育作者：张琳责任编辑：姚成浩_NS4810",
    "URL": "http://sports.163.com/17/1229/12/D6QTQF0J00058781.html",
    "Source": "Netease",
    "KeyWords": "卡洛斯,佩德罗,卢卡,马丽娜",
    "Comment": {
        "Reply": 185,
        "Link": "http://comment.sports.163.com/sports2_bbs/D6QTQF0J00058781.html",
        "Total": 3096,
        "Content": "这特么是卡洛斯 原来巴西没有计生委。今年不是有个计生委对外办的公务员招生吗？几千个考生就招一个。这么热门原来是排到外国专门作富豪人计生工作的。 他破产的那一天你应该是看不到 有钱买单，也没限制，谁会戴那个东西[鄙视] 好的你出生在巴西，在我朝早就捉去阉割了 卡神，给我们中国球迷一个吧，大力金刚腿 猪脑子！足球有混合队吗？ 卡洛斯你要继续加油啊替补阵容人员还不够啊[微笑][微笑] 说点啥好呢 拉丁美洲的性开放是我们东方人不可想象的！大街上随便看见两人在寒暄就可能上过床的！他们把性当做一种日常生活和娱乐！我们目前把这事还看得比较私密。 我就是窃你媳妇救赵的信陵君！赶紧跪下谢恩！ 逻辑错误这么严重？你还是真是脑残！ 穿着三号球衣却特么干着9号的活[微笑] 看来粗的不止是大腿啊[窃笑][窃笑] 卡洛斯是泡妞王.<br><br>巴西队的:夜店活地图.<br><br>找夜店,比百度地图还精准.<br><br>罗纳尔多在泡妞领域已经很强了,但他只服三个人,<br><br>一是卡洛斯,二是阿德里亚诺,三是小罗. 卡神看不出啊，一副老实巴交的模样，竟然也是个多情种啊[大笑][大笑][大笑] 呵呵，还有个怂逼民族，种族技能就是嘴炮和交配，所以制造出了世界第一的数量，还不停的被外族各种花式虐杀 暴力鸟老实人啊 活真好，再生点替补出来。 同时离破产也不远了 马🐴拉多纳虽然才165，但他有1986世界杯🏅🏆，1990世界杯银牌。2个美洲杯冠军。是世界⚽️👑。梅西三个亚军，还不是球王！14年世界杯决赛，进球被吹，心态崩了，被格策绝杀！美洲杯决赛踢飞冠军。现在阿根廷很弱，有些球队，虽然有所谓的球王，凝聚力差。所以取得不了好成绩！ 11个孩子加上大孙子首发11人加一个替补 有这样幽默的吗？傻逼！错了就是错了！ 搞不好普京要给他在克里姆林宫安排个职位。 废话，我穷我也见一个爱一个！ 巴西人嘛 他要是俄罗斯人，普京得请他全家去克里姆林宫吃大餐 卡洛斯曾经因为出轨被老婆赶出过家门，行李直接从别墅二层扔下来[大笑][不屑][微笑] 就服泽.罗布托 要先谢天国计划生育政策为洋人空出了指标 你一定要踢职业足球吗？ 以老卡的基因这个阵容没有门将啊 那些来自非洲的人类的朋友，从出生就会三件事，歌舞，犯罪，交配。拉丁的朋友更厉害啊，除了以上三件还自带两个技能，撒谎和偷懒 哪个能继承60厘米围度的大肌腿啊，再出一个暴力边卫。 感觉普京现在政策不应该是鼓励生育，而是出台法律禁止自己国家人各种作死 卡卡 你就是会打字的植物人！我非常同情你的病情！ 呵呵，巴西球员有几个是老实的？大小罗纳尔多，里瓦尔多，阿德里亚诺，……，精力过剩老婆多 巴西有老实人？ 他要是中国罚的已经倾家荡产上街要饭了 自己为教练，加油再生两个替补人员来。 你去过 呵呵，卡卡！现在娶第几个老婆了？ 猪脑子🧠知道啥叫幽默吗？ 一楼说我有证据，然后点开了隐藏的H盘…… 一楼绝对不太关注卡洛斯，他也是个夜店王子，听说还有性瘾和性怪癖 说不定还有私生子未曝光，教练球探都有了 他不知道套套的存在？ [暴怒][晕][石化] 他破产的那一天你应该是看不到 小姨你妹、那是小姑 呵呵，还有个怂逼民族，种族技能就是嘴炮和交配，所以制造出了世界第一的数量，还不停的被外族各种花式虐杀 好的你出生在巴西，在我朝早就捉去阉割了 卡神，给我们中国球迷一个吧，大力金刚腿 反正生不出门将 板凳深度不够。。 ……我高中的梦想被实现了？？？ 渣渣，张大帅的私生子早已可以组一整个NBA联盟 :-O:-O 首发阵容.核黔艇们,准备好了吗? [大笑][大笑][大笑][大笑] 还不赶紧来中国淘金！赚点奶粉钱。顺便再生俩混血 有贩毒吗 卡洛斯你要继续加油啊替补阵容人员还不够啊[微笑][微笑] 这是打算当教练了？ 你多了一样：喷粪 如果是氵又族人呢？ 看来粗的不止是大腿啊[窃笑][窃笑] 卡神看不出啊，一副老实巴交的模样，竟然也是个多情种啊[大笑][大笑][大笑] 说明他不打老婆，他老婆要是被他踢一脚肯定骨折 为什么不带套 为什么不早说？！ 还差替补 同时离破产也不远了 超生不罚款么 11个孩子加上大孙子首发11人加一个替补 抓起来起诉 罗伯特卡洛斯，实况最佳左后卫，可以当前锋用.. 呵呵，卡卡！现在娶第几个老婆了？ 争取再生11个这样没事就pk卡洛斯当裁判 [大笑][大笑][大笑] 废话，我穷我也见一个爱一个！ 他要是俄罗斯人，普京得请他全家去克里姆林宫吃大餐 种马 卡洛斯曾经因为出轨被老婆赶出过家门，行李直接从别墅二层扔下来[大笑][不屑][微笑] 三条腿都牛逼 我只想对卡洛斯说世界上不是只有伟哥一种产品还有个叫保险套的产品 以老卡的基因这个阵容没有门将啊 那些来自非洲的人类的朋友，从出生就会三件事，歌舞，犯罪，交配。拉丁的朋友更厉害啊，除了以上三件还自带两个技能，撒谎和偷懒 是的，板凳深度不够可不行[窃笑] 卡洛斯不光球踢得好。[大笑][大笑] 卡卡 呵呵，巴西球员有几个是老实的？大小罗纳尔多，里瓦尔多，阿德里亚诺，……，精力过剩老婆多 他要是中国罚的已经倾家荡产上街要饭了 在生几个球童 卧槽，真能生 印度有个老汉有28个妻子105个孩子 都说西罗和大圣魔鬼精肉大腿，那是你没见卡洛斯的大腿，以前一看到卡洛斯我就想起泥蛙的大腿……直咽口水 说不定还有私生子未曝光，教练球探都有了 牛人。这年头还能生这么多 那就是罚死你 牛逼了 他有艾滋没？ 卡洛斯可以做教练 造人委员会主席？ 这下计生委有事干了 自己为教练，加油再生两个替补人员来。 猪脑子！足球有混合队吗？ 干得好 财产够分吗 罗伯头.卡洛斯。任意球很叼 卧槽，卡洛斯场上床上都牛啊！ 穿着三号球衣却特么干着9号的活[微笑] 牛，实在牛 卡洛斯是泡妞王.<br><br>巴西队的:夜店活地图.<br><br>找夜店,比百度地图还精准.<br><br>罗纳尔多在泡妞领域已经很强了,但他只服三个人,<br><br>一是卡洛斯,二是阿德里亚诺,三是小罗. 卡神看不出啊，一副老实巴交的模样，竟然也是个多情种啊[大笑][大笑][大笑] 观众也筹齐了 暴力鸟老实人啊 佩服了 同时离破产也不远了 还有个儿媳妇， 人生赢家 养不起了吧 真实版的生出一个足球队 搞不好普京要给他在克里姆林宫安排个职位。 二楼新闻联播看多了 巴西6号 这二楼哪冒出来的。。惊呆了。。 11个孩子加上大孙子首发11人加一个替补 想干他老婆的举手 他要是俄罗斯人，普京得请他全家去克里姆林宫吃大餐 卡洛斯曾经因为出轨被老婆赶出过家门，行李直接从别墅二层扔下来[大笑][不屑][微笑] 人家背皇马返聘了。每个月有固定工资，破不了产…… 你有个大胆的想法吗？ 就服泽.罗布托 44岁有大孙子了，大写的服啊！[狗] 要先谢天国计划生育政策为洋人空出了指标 尼玛，又黑又白 还有第二梯队，加油啊 哪个能继承60厘米围度的大肌腿啊，再出一个暴力边卫。 感觉普京现在政策不应该是鼓励生育，而是出台法律禁止自己国家人各种作死 板凳深度还不够，加油 大腿粗，睾丸素茂盛，所以。。。 佩服佩服 23人大名单 最喜欢的左后卫之一 老爸当教练 看饮水机的都有了 一楼绝对不太关注卡洛斯，他也是个夜店王子，听说还有性瘾和性怪癖 先想想将来会不会破产 说不定还有私生子未曝光，教练球探都有了 这样子会不会下场三中场是魔笛卡米j罗? 百度(毛卑零），就明白大幂幂为什么会火，不知道被多少个名导给潜了，那里真的是黑，去瞧瞧 俄罗斯所谓的大餐，不吃也罢。 这大腿不是盖的 原来巴西没有计生委。今年不是有个计生委对外办的公务员招生吗？几千个考生就招一个。这么热门原来是排到外国专门作富豪人计生工作的。 二楼到我煞笔智商不适合混网易 自己踢着玩不行吗 有钱买单，也没限制，谁会戴那个东西[鄙视] 还得给一笔巨款 不要欺负老实人！ 原来那是牧师啊，我就说嘛…… 猪脑子！足球有混合队吗？ 说点啥好呢 拉丁美洲的性开放是我们东方人不可想象的！大街上随便看见两人在寒暄就可能上过床的！他们把性当做一种日常生活和娱乐！我们目前把这事还看得比较私密。 没有计划生育吗？ 不离婚的话会过得很滋润，离婚的话就等着去要饭吧。 这要是让韩乔生韩老师来解说，那画面得多喜感！下面我们来介绍一下主队出场阵容，一号门将卡洛斯，四号卡洛斯，中后卫；两个边后卫分别是2号卡洛斯和5号卡洛斯……当年sharp那个梗就又能用了 卡神看不出啊，一副老实巴交的模样，竟然也是个多情种啊[大笑][大笑][大笑] 这伙计从来不买避孕套 梅西就会踢个球而已，有什么了不起的，你们整天吹吹吹的，有什么好吹的！c罗才是真正的天才，天赋异禀，肌肉发达，力量十足，天生就会跳水，你梅西会吗？人家刚正不阿，举报队友越位，梅西不会吧？人家有拳王好基友教授武功，绿荫场上显身手，梅西能打得过吗？人家会哭鼻子要点球，天生的会哭的孩子有奶吃，梅西你哭一个看看？人家天生的浪，号称天下第一第二第三，浪射之王，梅西你浪一个试试，也只能往球网里踢了。o型嘴儿，o型腿儿，o型的屁嘴儿献拳王。任凭你梅西埋头把球踢，我骡昂首显风骚 在中国，现在你有钱，先后娶五个，也可以生十个了！当然后虹旗不倒，彩旗飘扬的观缘很多也许不止十个吧..... 原来这样哦，哈哈哈😄 同时离破产也不远了 850平方公里也就青浦区那么大，能养活那么多人真心不容易 850平方公理，而且是大多数都是平原与雨林的巴西，养活2亿人真心问题不大，按你们的标准，巴西还能再生14亿，毕竟人家的土地，绝大部份都是可以耕种养育人类的 11个孩子加上大孙子首发11人加一个替补 竟然没有计划生育和社会抚养费，差评[喷水][喷水][喷水] 厉害第ㄧ左后卫在职业球员里孩子是不是也第ㄧ多? 还差二个轮换😂😂 地球也是劣币驱逐良币，越低等的种族就越生。 以后你“吃饭”别夹菜，“吃面”别喝汤，“洗澡”别洗头，智障一样的玩意儿，你是怎么平安活到能上网的年龄而没被人打死的？ 巴西人嘛 真没见过男女混合阵容的 他要是俄罗斯人，普京得请他全家去克里姆林宫吃大餐 为什么普京要请他吃大餐啊？ 是个人都能知道恒大首发,当然也知道教练会怎么换人 替他肤色随他和妻子，为什么中间那个那么黑。。。。？？？ 和较真的人说话很尴尬 然而人家活的美滋滋 高速重炮……最牛逼的边后卫了…… 人生赢家 人生赢家，祝贺。 都十一个了 你一定要踢职业足球吗？ 他一记左脚电梯把他媳妇踢到了丈母娘家。 卡洛斯还在我的实况里面打首发 多情的巴西人 小鸡鸡都没了 牛掰 他要是中国人，可想而知。 俄罗斯人口负增长，毛子鼓励生孩子，生的多了总统都请吃饭 我咋总感觉离破产不远了 你去过 说话之前最好照着镜子！ 一楼说我有证据，然后点开了隐藏的H盘…… [石化] 就拜个早年吧 牛逼！ 他不知道套套的存在？ 在国内以前好像可以当村长了吧 这特么是卡洛斯 原来巴西没有计生委。今年不是有个计生委对外办的公务员招生吗？几千个考生就招一个。这么热门原来是排到外国专门作富豪人计生工作的。 其实梅西就会踢个足球而已，有什么了不起的，你们整天吹吹吹的，有什么好吹的？c罗才是真正的天才，天赋一饼。啊不对，是天赋异禀，人家，肌肉发达，力量十足，天生就会跳水，你梅西会吗？人家刚正不阿，举报队友越位，梅西不会吧？人家有拳王好基友教授武功，绿荫场上显身手，梅西能打得过吗？人家会哭鼻子要点球，天生会哭的孩子有奶吃，梅西你哭一个看看？人家天生的浪，号称天下第一第二第三，呃，浪射之王，梅西你浪一个试试，也只能往球网里踢了。o型嘴儿，o型腿儿，o型的屁嘴儿献拳王。任凭你，梅西埋头把球踢，我骡昂首显风骚 姚明好好学 我勒个去，这么多 巴西双卡，完美边后卫的最佳模板！能攻善守，体力爆棚，传中精准，一人通吃一条边！ 人生氵㸒家 其实梅西就会踢个足球而已，有什么了不起的，你们整天吹吹吹的，有什么好吹的？c罗才是真正的天才，天赋一饼。不对，是天赋异禀，人家，肌肉发达，力量十足，天生就会跳水，你梅西会吗？人家刚正不阿，举报队友越位，梅西不会吧？人家有拳王好基友教授武功，绿荫场上显身手，梅西能打得过吗？人家会哭鼻子要点球，天生的会哭的孩子有奶吃，梅西你哭一个看看？人家天生的浪，号称天下第一第二第三，呃，浪射之王，梅西你浪一个试试，也只能往球网里踢了。o型嘴儿，o型腿儿，o型的屁嘴儿献拳王。任凭你，梅西埋头把球踢，我骡昂首显风骚 你刷牙还戴口罩啊 要破产的节奏啊。 不戴套爽啊！ 巴西能跟你们蝗皮比吗？<br>巴西：850多万平方公理，人口2亿，而且巴西的土地绝大部份都是雨林，适合耕种生存<br>你们蝗皮，960万，但绝大多数都是不能养活多少人的沙漠草原，高山。。。真正能养育人也仅仅是东三省、两湖、江浙（浙江杭绍宁嘉地区）等等，象青海西藏新疆内蒙等占了半个以上面积的地方，养活不了几个人。。。。。。。。。。。。。。。 大力抽射名不虚传 射门太猛！ 你洗脚还穿袜子啊 其实梅西就会踢个足球而已，有什么了不起的，你们整天吹吹吹的，有什么好吹的？c罗才是真正的天才，天赋一饼。啊不对，是天赋异禀，人家，肌肉发达，力量十足，天生就会跳水，你梅西会吗？人家刚正不阿，举报队友越位，梅西不会吧？人家有拳王好基友教授武功，绿荫场上显身手，梅西能打得过吗？人家会哭鼻子要点球，天生会哭的孩子有奶吃，梅西你哭一个看看？人家天生的浪，号称天下第一第二第三，呃，浪射之王，梅西你浪一个试试，也只能往球网里踢了。o型嘴儿，o型腿儿，o型的屁嘴儿献拳王。任凭你，梅西埋头把球踢，我骡昂首显风骚 你拉屎还穿内裤啊？ 没有亚洲足球先生的运动员都是鸡毛——郑智，范志毅<br>没有参加过世界杯，奥运会的运动员都是鸡毛——李玮峰<br>没有奥运进球和平局的运动员都是鸡毛——董方卓<br>没有亚冠金靴的运动员都是鸡毛<br>-----郝海东<br>没有亚运，亚洲杯奖牌及亚洲杯决赛进球的运动员都是鸡毛。-------李明<br>没有亚洲杯最佳门将的运动员都是鸡毛<br>------江津，张惠康<br>没有亚洲杯最佳后卫，最佳射手，mvp，最佳球员的运动员都是鸡毛<br>-----贾秀全<br>没有世俱杯进球的运动员都是鸡毛<br>----郑龙<br>没有亚冠决赛进球的运动员都是鸡毛<br>-----郜林<br>没有亚冠的运动员都是鸡毛<br>------广州恒大<br>没有战胜过韩国的运动员都是鸡毛<br>------杨智<br>没有在欧冠进球的运动员都是鸡毛<br>------孙祥<br>没有年薪1.5亿的运动员都是鸡毛<br>-------张呈栋 活真好，再生点替补出来。 腿不是一般的粗 马🐴拉多纳虽然才165，但他有1986世界杯🏅🏆，1990世界杯银牌。2个美洲杯冠军。是世界⚽️👑。梅西三个亚军，还不是球王！14年世界杯决赛，进球被吹，心态崩了，被格策绝杀！美洲杯决赛踢飞冠军。现在阿根廷很弱，有些球队，虽然有所谓的球王，凝聚力差。所以取得不了好成绩！ 没有亚洲足球先生的运动员都是鸡毛——郑智，范志毅<br>没有参加过世界杯，奥运会的运动员都是鸡毛——李玮峰<br>没有奥运进球和平局的运动员都是鸡毛——董方卓<br>没有亚冠金靴的运动员都是鸡毛<br>-----郝海东<br>没有亚运，亚洲杯奖牌及亚洲杯决赛进球的运动员都是鸡毛。-------李明<br>没有亚洲杯最佳门将的运动员都是鸡毛<br>------江津，张惠康<br>没有亚洲杯最佳后卫，最佳射手，mvp，最佳球员的运动员都是鸡毛<br>-----贾秀全<br>没有世俱杯进球的运动员都是鸡毛<br>----郑龙<br>没有亚冠决赛进球的运动员都是鸡毛<br>-----郜林<br>没有亚冠的运动员都是鸡毛<br>------广州恒大<br>没有战胜过韩国的运动员都是鸡毛<br>------杨智<br>没有在欧冠进球的运动员都是鸡毛<br>------孙祥<br>没有年薪1.5亿的运动员都是鸡毛<br>-------张呈栋 种猪 他不知道套套的存在？ 傻逼， "
    },
    "Title": "奇!卡洛斯为第11个孩子洗礼 生出一套首发阵容来_网易体育",
    "PublishTime": "12/29/201712:45:41"
}