{
    "Article": "（原标题：360借壳江南嘉捷上市方案获证监会有条件通过）证监会今天下午发布公告称，江南嘉捷电梯股份有限公司（发行股份购买资产）获有条件通过。证监会对江南嘉捷并购重组提出审核意见，要求其提供补充披露标的资产的董事在报告期内是否发生重大变化、资产涉诉情况及风险管理措施以及资产原企业安全业务的具体情况、分拆过程、分拆的必要性及合理性。此前的文章显示，今日14：48分，周鸿祎在个人微博发布在证监会门前的合影照片，配文称“感谢我们的合作伙伴，感谢我们的团队”。值得注意的是，作为2017年重磅财经事件，360借壳江南嘉捷在今年最后一个交易日上会。新浪认为，周鸿祎此举似乎在证实，360成功借壳江南嘉捷过会。据澎湃新闻，360公司借壳上市迎来关键节点，外界普遍认为，这是在暗示360借壳江南嘉捷上市的方案获得了通过。????12月21日，江南嘉捷开始停牌。收市后发布公告称，重大资产重组通过商务部反垄断审查。澎湃称，江南嘉捷当时便已公告称，12月20日收到证监会通知，证监会上市公司并购重组审核委员会将于近日召开工作会议，对此次重大资产出售、置换及发行股份购买资产暨关联交易事项进行审核。资深媒体人雷建平撰文称，今年11月3日晚间，A股公司江南嘉捷发布重大资产重组报告书称，在本次交易完成后，上市公司实际控制人变更为360董事长周鸿祎。各方同意，江南嘉捷以向360全体股东非公开发行新股的方式，支付上述拟置入资产与拟置换资产的差额部分共计502亿元。雷建平表示，此次交易后，周鸿祎直接持有上市公司12.14%股份，通过奇信志成间接控制48.74%股份，通过天津众信间接控制上市公司2.82%股份。周鸿祎合计控制上市公司63.7%股份，为上市公司实际控制人。360借壳经过回顾去年7月29日，奇虎360完成从美股的私有化退市。作为中概股返乡热潮中最引人瞩目的一家公司，360上市的传言持续发酵，今年稍早已不止一次传出欲借壳上市的消息。直至今年11月2日午夜，360借壳方案才出炉，504亿元资产置入江南嘉捷。江南嘉捷电梯股份有限公司在上交所公告显示，通过重大资产出售、置换及增发股份，奇虎360公司CEO周鸿祎及其实际控制的两家天津公司将合计持有江南嘉捷63.7%的股权。江南嘉捷公布的收购报告书摘要称，经各方协商，此次交易标的股权资产作价约504.2亿元，将向360全体股东非公开发行新股63.67亿股，支付拟置入和置换资产的差额合计约502.3亿元。江南嘉捷公布的重组预案显示，该司拟将所有资产注入嘉捷机电，将嘉捷机电9.71%的股权转让给360全体股东，与其所持360股权的等值部分置换，这一拟置换资产作价1.82亿元。待完成交易后，周鸿祎本人将持有江南嘉捷12.14%的股权，周鸿祎为实际控制人的天津奇信志成将持股占比48.74%，另一家周鸿祎实际控制的公司天津众信将持有2.82%。奇虎360借壳回A，三年承诺业绩共约90亿元。11月6日，360董事长兼CEO周鸿祎对这一业绩回应称，有信心完成今年既定目标；今年上半年360收入53亿元，净利润10亿元，接近全年的一半，下半年收入会高一点。附：360公司全部股东名单本文来源：华尔街见闻责任编辑：姚立伟_NT6056",
    "URL": "http://tech.163.com/17/1229/18/D6RGC3UE00097U7H.html",
    "Source": "Netease",
    "KeyWords": "江南嘉捷,360,证监会,上市",
    "Comment": {
        "Reply": 41,
        "Link": "http://comment.tech.163.com/tech_bbs/D6RGC3UE00097U7H.html",
        "Total": 681,
        "Content": "360除了卫士，其他就是垃圾产品 有钱就是好…,.送送送 权钱交易借壳不公平！！ 麻花疼，里咽洪等，发来贺电 找万达壳吧，怎么BB也没用，脸厚 最终方案报上去再否决，那些把壳炒到天价的游资一个也跑不掉。 又一个贾乐视来了 国外呆不下去了。回国继续骗钱。 几个涨停？ 又来套钱了 从不用360 视而不见突击入股 有又如何？ 360就是流氓公司。 流氓上市了 借尸还魂成功了？ 最多值100亿 老周举杯宣布，团队今年的年终奖是每人两箱茅台 我就想问那位提前买入的机构，有没有内幕交易？ 垃圾公司，回国骗钱了 流氓上市了 360除了卫士，其他就是垃圾产品 最终方案报上去再否决，那些把壳炒到天价的游资一个也跑不掉。 股票都18个涨停板了你这才跟我说有条件通过。 结束了开始了 在美国估值好像才不到300亿，回国就500多亿了. 360牌电梯 泰康人寿表示，我们一直关注二级市场，江南嘉捷只不过是一支股票，不存在内幕交易。 最少能套现几百亿了 最多值100亿 垃圾公司，回国骗钱了 啥叫有条件通过？通过就是通过被 找万达壳吧，怎么BB也没用，脸厚 麻花疼，里咽洪等，发来贺电 专家说，有投资价值，马上暴涨五倍。 从不用360 估计百度也要回来了 几个涨停？ 老周举杯宣布，团队今年的年终奖是每人两箱茅台 暴涨 不是涨了很久了么？ 电梯厂涨疯了 通过了？真好。<br>可怜无定河边骨， 不是不准借壳上市了吗？怎么又来了。 恶意提问抓起来 说不过，能行吗？ 360股吧一片赞颂360是优秀杀软的看的也是无语，个别散户可能之前入股被套，得此好事也不用有奶就是娘啊，人性在股市最易显现 360就是流氓公司。 总是要养狗的 视而不见突击入股 有又如何？ 已经不能再爬了吧 借尸还魂成功了？ 360圈钱了 360刷脸手机什么时候上市？ 不是再美国上市了吗？为什么要回a股？ 组团去美国造车 权钱交易借壳不公平！！ 有钱就是好…,.送送送 又一个贾乐视来了 国外呆不下去了。回国继续骗钱。 明目张胆……无语 呵呵只想呵呵 我就想问那位提前买入的机构，有没有内幕交易？ 美国97亿美元，国内现在已经500亿美元 又来套钱了 "
    },
    "Title": "360借壳江南嘉捷上市方案获证监会有条件通过_网易科技",
    "PublishTime": "12/29/201718:09:53"
}