{
    "Title": "土耳其警方突袭逮捕20人 严防2017年元旦恐袭重演_网易新闻",
    "PublishTime": "12/31/201721:20:00",
    "URL": "http://news.163.com/17/1231/21/D7109S3K000187VE.html",
    "Source": "Netease",
    "KeyWords": "土耳其,逮捕,新年",
    "Comment": {
        "Reply": 5,
        "Content": "恐怖主义 继续斗 路是自己走的。新年了，见到回头钱了，花吧。 南无观世音菩萨 好混乱的国度 恐怖主义 ",
        "Total": 9,
        "Link": "http://comment.news.163.com/news2_bbs/D7109S3K000187VE.html"
    },
    "Article": "（原标题：万人保卫、大量逮捕，土耳其严防2017年元旦恐袭重演）在2018新年钟声即将敲响的时刻，土耳其显得并不那么安宁。据路透社2017年12月31日报道，土耳其警方于30日又逮捕了20人，其中15人是外国国籍，原因是土方怀疑这些人都可能与极端组织“伊斯兰国”有关并策划新年时分在伊斯坦布尔发动袭击。警方公布的一则声明显示，土耳其伊斯坦布尔警方于当地时间周六30日对市内四处可疑地点进行突击检查，一共逮捕了20人，其中15人为外国国籍。但声明中并没有公布这些人的具体国籍。连日来，土耳其警方在全国主要城市实施大规模反恐行动。29日，警方分别在安卡拉和伊斯坦布尔抓捕了29名和46名与极端组织“伊斯兰国”有关联的嫌疑人。警方介绍说，被捕的嫌疑人大部分为外国人，其中一些人策划在新年夜对两大城市实施恐怖袭击。路透社31日报道称，截至目前为止，土耳其全国为了保证元旦期间安全而逮捕的嫌疑人数已经接近200人。31日，土耳其全国预计将增派大规模警力保卫安全，严防2017年元旦发生的恐怖袭击再次重演。据路透社报道，土耳其最大城市伊斯坦布尔当晚将有3.7万名警察上街巡逻，部分地区被禁止举行公众庆祝活动。土耳其首都安卡拉也在新年前夕加强安全防范措施，以防止恐怖袭击事件发生。安卡拉省省长埃尔詹托帕贾29日发表声明说，安卡拉将在新年前夕出动9700余名安全人员执勤，通往安卡拉市区的主要道路上将设置检查点。2017年1月1日凌晨，“伊斯兰国”一名武装人员持枪闯入伊斯坦布尔市中心“雷纳”夜总会，向正在庆祝新年的人群扫射，造成39人死亡、69人受伤。本文来源：澎湃新闻责任编辑：李杭_BJS4645"
}