{
    "Source": "Netease",
    "PublishTime": "12/26/201700:56:55",
    "KeyWords": "孙红雷,娇妻,王骏迪,首晒",
    "Title": "孙红雷娇妻产女后首晒美照 手捧鲜花满脸幸福_网易娱乐",
    "Comment": {
        "Link": "http://comment.ent.163.com/ent2_bbs/D6HU2HBT00038FO9.html",
        "Total": 5439,
        "Content": "主要是孙红雷为了有机会演戏给丁嘉丽各种献殷勤巴结她。出名后冷脸直接甩了丁嘉丽。没人说两个人都是好人。 有钱日娇妻，没钱日郊妻 丁嘉丽含泪:“红雷，女儿要教好！千万别步我后尘！！就此别过…………” 忘了丁嘉丽了吗？男人心不狠不会成功的！ 孙红雷人渣！ 看不上丁嘉丽就别耽误人家那么多年，借着人家资源飞黄腾达了就把人家甩了，这叫忘恩负义，放在古代就是陈世美。 哈哈..... 以前觉得孙红雷还挺红的，自从爆出和丁的事后，感觉不自信了。 丁大姐越来越年轻了 你还记得丁嘉丽吗？ 满屏的丁嘉丽，哈哈哈 渣男孙红磊 没人要我要，跟美女来几炮也比抱着黄脸婆睡一辈子强 一天在一起就要一辈子在一起啊？ 那也不能像三楼说得享受完人家的青春一脚踢了吧，我也就是说说！做事还是要对得起良心！ 恭喜丁嘉丽高龄产妇不容易 丁嘉丽越来越年轻，红雷有福了 那你妈跟别人生下你，你爸什么感觉？ 哪来的脑残粉？别人说谁还得经过你同意？撒泡尿照照镜子吧臭sb 虽然丁嘉丽现在的结果，都是自找的，不过这男人也是渣男 哈哈 就算不要脸，咱偷偷的可以吗？不要这么理直气壮，吃着人家的软饭，还要骂着娘。 呦……都知道丁姐……[微笑] 孩子其实你有好几个哥哥姐姐 丁嘉丽是你妈？张艺谋，冯小刚，李连杰，都甩了老婆，你怎么不说？还有你爸不也甩了你妈吗？你怎么不说呢？ 这样女人我不要啊，但是既然不要人家就别跟人家同居还利用人家资源上位啊。 别人家的事情，搞得好像你在他们身边一起经历似的，傻逼似的人云亦云。 丁嘉丽为你堕胎几次了，你其实早当爹了 你懂得几个意思？如果两个同样漂亮的女孩放在你面前，一个家族显赫，一个普通家庭，都愿意嫁给你，你愿意选哪个？别尼玛装清高，傻逼都知道哪个可以上位，所以孙红雷当时没有错， 孙红雷傻逼，整天不演戏搞娱乐 孙红雷这个渣男 其实也就是丁嘉丽一开始想包个小白脸，没想到这小白脸还挺上进，最后火了。在这过程中大家都各取所需了，没所谓谁抛弃谁吧。。。 曹尼玛，我买的花… 戏子当道，关键还是个爱装逼的丑戏子。服了 只能说丁嘉丽太傻了 1986年，与胡广川结婚；1987年，丁嘉丽生下女儿朵朵，女儿满月时，丁嘉丽与丈夫离婚。<br>1990年，丁嘉丽迎来自己的第二次婚姻，丈夫是一位大学讲师。婚后第二年，丁嘉丽生下儿子果果，儿子满月后，丁嘉丽结束第二次婚姻。<br><br>换成你，这样的女的你要不要 完了，闺女像爹一一 丁什么来着 恭喜 你抱着美女睡几晚美女给你洗衣做饭生儿育女伺候你爹你妈吗？那个美女天热了给你做绿豆汤天冷了给你拿出棉衣吗？那个美女在你有点小病小痛小灾小难时24小时不眠不休陪你身边吗？那个美女把最美好的时光都给了你无怨无悔吗？别忘了你家的黄脸婆曾经也是青春靓丽明眸皓齿满脸胶原蛋白，楼上的不懂珍惜怎配拥有？愿你夜夜做新郎孤独终老……阿门。 你置丁嘉丽于何地？ 眼睛长的像谁？ 丁嘉丽大姐，你委屈了 丁大姐辛苦了 咋说呢！反正丁嘉丽，换我是下不了手，在映像里就没年轻过，谁没利用过人，两厢情愿的 1986年，与胡广川结婚；1987年，丁嘉丽生下女儿朵朵，女儿满月时，丁嘉丽与丈夫离婚。<br>1990年，丁嘉丽迎来自己的第二次婚姻，丈夫是一位大学讲师。婚后第二年，丁嘉丽生下儿子果果，儿子满月后，丁嘉丽结束第二次婚姻。<br><br>换成你，这样的女的你要不要 拜拜就拜拜下一个更乖[喷水][喷水] 我我我… 当年你苦苦追求帮你红了后被你抛弃的大姐还好吗 照你这么说马蓉跟宝强也是两厢情愿。。。。就冲你说谁没利用过人就看出你的道德品质极低。 等你嫁人了，你就不我我我了[大笑] 贱人真多。 哈哈..... 。男人就那样，有钱要变坏。 [羞羞][鄙视][喷水] 你还记得丁嘉丽吗？ 皮[大笑][大笑] 最后还来一句“你觉得我们俩配吗？”大爷的！ 估计女儿像孙红雷很丑 丁嘉丽好扬的 说丁嘉丽有什么用，过过嘴瘾， 😊😊 呵呵 恭喜丁嘉丽高龄产妇不容易 嗯不错 那你妈跟别人生下你，你爸什么感觉？ 嘿嘿嘿。我比你多一个，可以不？ 没人要我要，跟美女来几炮也比抱着黄脸婆睡一辈子强 女儿要是眼睛像他 眼睛想红雷可咋整千万要像妈妈哈哈哈 婚后也这样想的居多吧 y不错 确实这样的太少了！ 孙红雷没靠丁嘉丽火起来，你们还看什么征服，落地请开手机，好先生，极限挑战？你敢说你们喷的这些人看的时候没笑过？没佩服过孙红雷的演技？你们看看他演的电视剧就行了，跟丁嘉丽是私人事儿。不是你们操心的事儿。咸吃萝卜淡操心。 嘿嘿，我也没说二楼什么啊！我的意思是男的结婚有老婆了就一定要好好珍惜，不要想着家花没有野花香！管住自己，陪伴到老的还是黄脸婆……嘿嘿 这样女人我不要啊，但是既然不要人家就别跟人家同居还利用人家资源上位啊。 哎哟喂…… 多大了？ 楼上，月下柳寒烟，夜静一人眠。我想和你嘿嘿嘿 丁嘉丽为你堕胎几次了，你其实早当爹了 恭候多时 求藏头诗一首，恭喜陈哥荣升分总 丁嘉丽呢 什么时候回来 你说的这样的老婆是万里挑一吧。现在找这样的老婆简直是上天摘星、海里捞针啊。太稀缺了。 早把丁嘉丽忘了 孙红雷产女新闻，居然被丁嘉丽刷屏 哪跑出来一只疯狗 为啥都是丁嘉丽？这不是说什么迪生了吗？ 道听途说+自己臆想情景+二逼似的角色带入，然后开始义愤填膺。当事人都没发话呢，一帮看客倒是自己把故事讲开了。 丁嘉丽貌似很大年龄的演员了，跟本文有关系吗？我咋看下面全是丁嘉丽？ 你也发话了，那你是当事人么？你要不是当事人你就是二逼。 说丁嘉丽的都傻逼吧、你们一辈子就处一个对象、你们就没有前女友？处对象就要结婚一辈子？人家分手怎么了、孙红雷怎么的了、怎么这么看不惯你们这帮小2逼呢、至于处对象的时候为对方的付出是应该的、怎么就被你们道德绑架了、恋爱时需要俩人同意、但分手的时候又有几对会双方表决的、真瞧不起你们这帮喷子看不得别人好。 我就知道你们要提丁嘉丽 说实话现在的女人结婚前都这么想，婚后呵呵，反版！ 风光66 说个真事，我15号那天在尖沙咀遇到孙红雷带他老婆，他老婆比他高。他戴了帽子和口罩，他老婆戴了帽子穿了大衣。我朋友走前面，我还追着叫他们看孙红雷。第二天他说生了，真不敢相信啊！ 戏子当道，关键还是个爱装逼的丑戏子。服了 乖乖！一大片的丁嘉丽啊 咋说呢！反正丁嘉丽，换我是下不了手，在映像里就没年轻过，谁没利用过人，两厢情愿的 恭喜，喜得千金 呵呵 会不会🈶️第三次呢[疑问] 忘了丁嘉丽了吗？男人心不狠不会成功的！ 孙红雷人渣！ 这是啥故事？ 经命名后面 现在的人连非处都不娶还会娶结过几次婚的？ 以前觉得孙红雷还挺红的，自从爆出和丁的事后，感觉不自信了。 女体爸[晕]，但愿体妈呀。 闺女确实像爹我闺女就长的[微笑][可怜]跟她爹一样[微笑][微笑][微笑] 渣男孙红磊 女儿？那完蛋了，女斗牛梗可就不好看了 骂人渣的我只能说，吃不到葡萄说葡萄酸， 那你再生个儿子不就得了儿子像你[窃笑] 恭喜丁嘉丽高龄产妇不容易 这么简陋的一束花，孙红雷真吝啬 我是你们的颜王磨皮小鲜肉孙红雷，一起来玩贪玩蓝月吧 自瞎了 在香港养和医院生的 没人要我要，跟美女来几炮也比抱着黄脸婆睡一辈子强 孩子满月就离婚?如果是真的是丁要离的，这种女人畜生不如，后来被孙甩只能说活该 可别像老孙小眼睛以后怎么嫁人，我现在一看牛头梗就想起老孙笑死我了 我是你们的颜王小鲜肉孙红雷，一起来玩贪玩蓝月吧 就算不要脸，咱偷偷的可以吗？不要这么理直气壮，吃着人家的软饭，还要骂着娘。 人不好就活该被人骗被人利用了按一楼这思路是不是觉得孙红雷还在为民除害呀 幸福 这样女人我不要啊，但是既然不要人家就别跟人家同居还利用人家资源上位啊。 不是睾丸癌吗 狗汉奸 咸吃萝卜淡操心 你懂得几个意思？如果两个同样漂亮的女孩放在你面前，一个家族显赫，一个普通家庭，都愿意嫁给你，你愿意选哪个？别尼玛装清高，傻逼都知道哪个可以上位，所以孙红雷当时没有错， 整天娇妻娇妻，小编娇你个妈 15331952197基友☎️联系有需要 ……卧槽评论一群智障吧？？这女的不是丁嘉丽啊…她辛苦个毛恭喜她干嘛？？ 出名了就生娃 哈哈哈 怎么像白百合 老子愿意怎么说就怎么说？不服？来杀了爸爸啊？ 红雷兄枪不错。 你知道的真多 只能说丁嘉丽太傻了 丁嘉丽是你妈？张艺谋，冯小刚，李连杰，都甩了老婆，你怎么不说？还有你爸不也甩了你妈吗？你怎么不说呢？ 1986年，与胡广川结婚；1987年，丁嘉丽生下女儿朵朵，女儿满月时，丁嘉丽与丈夫离婚。<br>1990年，丁嘉丽迎来自己的第二次婚姻，丈夫是一位大学讲师。婚后第二年，丁嘉丽生下儿子果果，儿子满月后，丁嘉丽结束第二次婚姻。<br><br>换成你，这样的女的你要不要 完了，闺女像爹一一 渣男靠的就是傍大姐。 还是你懂 我倒突然有个感慨：如果网易聊天跟帖，都能像三楼这样，收起锋芒嘿嘿一笑，会避免多少盖楼骂仗地域攻击啊？这样多好。 恭喜 成了多大功啊？搞得碧莲都不要了。 别人愿意怎么说怎么说，你不服你杀了楼主23333333 只有我觉得大庭广众下手捧鲜花很丢人吗? 一起打球吧，不要再拒绝我了<br>我还想和你们一起打篮球<br><br>「星光180首届运动季-篮球争霸赛」 我记得有个叫丁嘉丽的？ 有钱日娇妻，没钱日郊妻 。。 小眼戏子生只西女当英雄报道……中国的悲哀。 估计好看不了，眼睛太小。 孙什么蕾 酸的一批 丁嘉丽含泪:“红雷，女儿要教好！千万别步我后尘！！就此别过…………” 恭喜红雷哥 这女儿包熟嘛？ 哎呦，天天抓着人家过去的那些破事不放！有意思！可怜之人必有可恨之处！现在对老婆好！珍惜婚姻！不瞎搞！就好了嘛！都散了吧！ 看看大家评论就知道在招骂呢…… 。。。。 。。。。 社会我强哥，人狠话不多[挨揍] 好， 孙红什么？ 垃圾 白眼狼 恭喜你 。。。 。。。。 祝幸福 这样女人我不要啊，但是既然不要人家就别跟人家同居还利用人家资源上位啊。 幸福的一家 ^_^ 丁嘉丽为你堕胎几次了，你其实早当爹了 我觉得长的丑 眼睛长的像谁？ 贤惠 赞二楼。人要讲良知 孙红雷傻逼，整天不演戏搞娱乐 这孙子真嘚瑟。 牛头梗 狗畜生婊子养狗孙红雷，鳖三龟孙子 离婚了还不能再娶了吗？真是咸吃萝卜！ 什么意思。。求科普 1986年，与胡广川结婚；1987年，丁嘉丽生下女儿朵朵，女儿满月时，丁嘉丽与丈夫离婚。<br>1990年，丁嘉丽迎来自己的第二次婚姻，丈夫是一位大学讲师。婚后第二年，丁嘉丽生下儿子果果，儿子满月后，丁嘉丽结束第二次婚姻。<br><br>换成你，这样的女的你要不要 生男生女都一样，没事。 苦命的老丁看错了人 修先人呢？小便，小公举是男是女。文章也敢如此写，你也是渣了 我觉得这样挺好的如果只为报恩在一起两人都会很痛苦， 恭喜恭喜 你置丁嘉丽于何地？ 低调吧，自己老公什么逼样没逼数吗…… 丁大姐好 丁嘉丽是谁 孙红雷人设崩塌 丁嘉丽你随礼了吗？ 是五十多没错啊，但肯定不是大五十多，哈哈 丁姐姐终于生了 丁嘉丽这不是挺漂亮吗谁说又老又丑的 真的假的呀，是不是同名同姓呀 利用不利用的，谁还不需要提携?黄晓明还靠过李冰冰呢，不然当华谊股东?丁嘉丽最终不要的这点认可吧?既然认可，他不要就不行了？ 哈哈 ～～ 这小子品德有问题 总算是后继🈶️人了…… 这个还是娇妻啊？呵呵 孙红雷肯定是女儿奴 这不一定啊背后开枪了么 就服热评 孙红雷的女儿肯定是小迷糊眼，等着看吧！ 有了女儿是不是想一收工就回家 恭喜丁嘉丽高龄产妇不容易 为啥满屏丁嘉丽？这够他心塞的吧 渣男一个 虽然丁嘉丽现在的结果，都是自找的，不过这男人也是渣男 大把借女人上位的心机男！只能说，女人要现实理智一点，找对象要门当户对，三观一致。那种底层男要来干嘛？精准扶贫吗？ 大部分闺女都随爹 有情有义孙红雷 怎么看起来像白百合 帽子不错，不知道什么牌子的？ 这帮娱星不出轨，不弄个二三婚，在贵圈还真说明混得不好，当然不是说他啦！ 你比孙还不要脸 帅雷雷现在老开心了 这样女人我不要啊，但是既然不要人家就别跟人家同居还利用人家资源上位啊。 恭喜刘华强，你他妈忘了李梅了？ 你到是幸福了，那个老女人怎么办？孙洪雷是不是应该给䃼尝？ 呵呵 生了孩子还这么苗条，羡慕啊，不像我，孕期往横里长。 丁嘉丽看面相都有五十多了 你们的都是娇妻，我们的只是人妻！ 祝孙漂亮的女儿更漂亮 哎呀呀，怎么他生了个女儿啊生个儿子象妈妈还不错，生个孙红雷模样的女儿，20年后哇噻[大笑] 其实也就是丁嘉丽一开始想包个小白脸，没想到这小白脸还挺上进，最后火了。在这过程中大家都各取所需了，没所谓谁抛弃谁吧。。。 曹尼玛，我买的花… 孙红雷这个渣男 哈哈哈哈哈哈，这评论有毒 我就是进来看看评论，果然都是挺丁大姐的[大笑] 1986年，与胡广川结婚；1987年，丁嘉丽生下女儿朵朵，女儿满月时，丁嘉丽与丈夫离婚。<br>1990年，丁嘉丽迎来自己的第二次婚姻，丈夫是一位大学讲师。婚后第二年，丁嘉丽生下儿子果果，儿子满月后，丁嘉丽结束第二次婚姻。<br><br>换成你，这样的女的你要不要 借刀杀人 祝福 忘了丁嘉丽了吗？男人心不狠不会成功的！ 恭喜恭喜 你简直胡说八道、哪按你的年龄推算、她应该比孙红雷大、五十多了 主要是孙红雷为了有机会演戏给丁嘉丽各种献殷勤巴结她。出名后冷脸直接甩了丁嘉丽。没人说两个人都是好人。 丁嘉丽在哭泣 丁姐高龄产妇啊 忘了丁嘉丽了吗？男人心不狠不会成功的！ 据说丁嘉丽为了孙演上角色主动被导演潜结果最终被甩哎一声叹息 丁大姐越来越年轻了 满屏的丁嘉丽，哈哈哈 为什么总是在满月的时候跟丈夫离婚？有没有内幕？ 网易很多的人嘴贱又脑残，自己去看看丁嘉丽访谈，人家说的自己三次结婚又主动离婚，自己和其他男人主动堕胎，孙红雷和她在一起因为她父母反对才分的。 二楼啊二楼 丁嘉丽越来越年轻，红雷有福了 评论简直有毒…… 可能你不信这个，但是如果这样真能解决问题也不失为一个好办法 总是午后低烧，除结核病以外还有啥病会引起午后低烧，好几年了，求大神指点，帮帮我 孩子其实你有好几个哥哥姐姐 不是已经成功了吗 呦……都知道丁姐……[微笑] 白血病也有这个症状，建议你去大医院复诊 不喜欢孙 这样女人我不要啊，但是既然不要人家就别跟人家同居还利用人家资源上位啊。 就是啊，我也觉得这样！ 上了网易才知道孙的过往 你这不是病，去村里找个大仙给你看看，估计你是招鬼了，我同事也是这样，看了就好了，祝你能快点好起来！ 识字不？叫斯嘉丽 你怎么这么清楚，是真的么？ 丁嘉丽大姐，你委屈了 你烧多少度？午后几点开始发烧，晚上几点退烧？身体有慢性炎症和免疫疾病也会午后低热。 幸福 特意摆个pass才能放出来😏 孙红雷前妻是谁？ 丁嘉丽 斯嘉丽约翰逊？ 1986年，与胡广川结婚；1987年，丁嘉丽生下女儿朵朵，女儿满月时，丁嘉丽与丈夫离婚。<br>1990年，丁嘉丽迎来自己的第二次婚姻，丈夫是一位大学讲师。婚后第二年，丁嘉丽生下儿子果果，儿子满月后，丁嘉丽结束第二次婚姻。<br><br>换成你，这样的女的你要不要 恭喜 [微笑][微笑][微笑] 强哥跟他们干吗！ 丁什么来着 寄生虫 孙漂亮送到花花！要幸福哦！ 渣男! 恭喜 好漂亮啊 丁大姐辛苦了 恭喜丁嘉丽高龄产妇不容易 丁大姐你好 人人都有追求幸福的权力 ",
        "Reply": 253
    },
    "Article": "孙红雷老婆网易娱乐12月26日报道12月25日，久未露面的孙红雷娇妻王骏迪产女后首次在微博晒照。因为目前还在月子期间，所以王骏迪头上还戴着帽子，手里捧着一大束玫瑰花，笑容超级甜蜜。12月16日，孙红雷发文表示王骏迪已经产女，母女平安。网友们纷纷表示：“颜嫂辛苦啦，哪天晒晒小公举啊”、“精神很好，期待见到小宝宝”、“红雷买的花？幸福”。本文来源：网易娱乐责任编辑：陈少杰_b6952",
    "URL": "http://ent.163.com/17/1226/00/D6HU2HBT00038FO9.html"
}