{
    "URL": "http://ent.163.com/17/1231/08/D6VL6TC100038FO9.html",
    "Article": "王俊凯与董子健迪丽热巴等人一同上《快乐大本营》王俊凯被董子健带坏在台上互相推撞挪动礼物两人作弊后溜回原位十分开心董子健反指王俊凯是小坏蛋网易娱乐12月31日报道据台湾媒体报道，王俊凯、董子健以及迪丽热巴近来合作出演内地版《解忧杂货店》，3人因年龄相近，在拍摄过程期间就成了好朋友，近来3人一起上综艺节目《快乐大本营》宣传新作品，在玩游戏的环节中，顽皮的王俊凯与董子健为了帮助队员获胜，竟联手一起“做坏事”，让众人笑翻。最新一期播出的《快乐大本营》节目中，董子健、王俊凯以及迪丽热巴合体宣传新作品，在其中一个环节中，每人必须在时间内，以2人3足的方式抢夺礼物，礼物上有标示不同的分数，获得较高分数者获胜。董子健为了帮助队员吴昕及维嘉得分，默默上前将礼物往前挪，王俊凯见状，也随即过去帮忙，两人假装争吵、推撞，实际上是在挪动礼物，一看到主持人靠近，就立刻溜走，调皮模样让人笑翻。后来，董子健发现对手也开始耍手段，将高分的礼物往前挪，他随即又站到面前礼物阻挡，没想到对手却非常聪明的转换策略，挪动了2个更高分的礼物，随后维嘉也出动帮忙，默默将对方的礼物重新推回原位，眼见大家都开始忽视游戏规则，主持人何炅忍不住表示，“这就是王俊凯和董子健开的坏头。”没想到，最先开始耍坏的董子健非常机智的，立刻拍了身旁的王俊凯一下，还恶人先告状指责对方，“你怎么（这样），小坏蛋！”王俊凯只能露出一副无奈的神情，害羞地笑了笑，现场粉丝也忍不住出声为王俊凯打抱不平。影片曝光后，不少粉丝看到两人的逗趣互动，也纷纷留言表示，“明明是小董带坏小坏蛋”、“捣蛋2人组”，引起不少热议。本文来源：网易娱乐责任编辑：李彤_NK4455",
    "KeyWords": "王俊凯,董子健,迪丽热巴",
    "Source": "Netease",
    "Comment": {
        "Reply": 15,
        "Content": "掏糞bi.崽子 现在流行男人女生相 客观的讲，真的欣赏不来王俊凯所谓的帅，这长相放在路人里也就是算个长相普通，哪里帅了？ 湖南卫视里那小子唱的英文歌后面一帮老外伴舞我只想知道后面伴舞的想法：这傻逼英文都说不清楚，还叫老子给伴舞... 这货是谁是干啥的？ 能不当娘炮吗 富士康北门的艺剪坊（清湖形象店）<br>坑爹五步曲————————————坑爹的理发店<br>第一步，装热情——刚一走到门口，几个人围着你上来，那叫一个热情啊。只要你说了一句“洗剪吹”，全部人都散了……（钱少啊）<br>第二步，套关系——那个理发师（我们暂且叫他SB）会主动问你是哪里的人，但不管你说自己是哪里的人，SB都会说“哦，老乡啊”，然后会编出一个跟你同省的城市（最有可能的就是省府），让你放松警惕，开始下手宰你……<br>第三步，故意下套，让你钻——洗完头发，他会问你：“你头发有点弯，要不要梳直？”刚洗完头发，这么乱，当然要梳直啦。你中了，不是中奖，而是中了他的套套。里面的人马上又“热情”起来，两三个人会迫不及待的拿药水给你涂上，这就是钱啊……<br>第四步，“教导”你——等你发现后，店长（暂且就叫GRD吧）说这是你无知，不懂理发店的潜规则（靠，听起来怎么像圈圈里面的事），然后还教师口气的对你说，这次他“好心”告诉你，下次你就不会上当了（来他那里就是买教训的？），FUCK，强盗还讲起理来了！！！<br>第五，威逼胁迫——几个人“围着”你，然后绞尽脑汁给你“想办法、出主意”，押厂牌啊，押手机啊，“陪”你去取钱啊，真感觉自己处在Hongkong电影里<br>同仁们，希望大家记住富士康北门这个店——艺剪坊（清湖形象店）。现在我们被无数的无良商家残害，毒害、欺诈，我们这些“上帝”再也伤不起了，我们不能严惩他们，但至少可以抵制他们。 可能真的是没新闻写了…充值卡又没用完 星二代呀，妈妈是第一经纪人 靠脸吃饭 女的怎么说话像男的？ 你是男的女的？ 能不当娘炮吗 现在这世道男孩子都比女孩子看起来秀气这是咋了？？？？？真映了那句口号:生男生女都一样！！！ 掏糞bi.崽子 现在流行男人女生相 客观的讲，真的欣赏不来王俊凯所谓的帅，这长相放在路人里也就是算个长相普通，哪里帅了？ 湖南卫视里那小子唱的英文歌后面一帮老外伴舞我只想知道后面伴舞的想法：这傻逼英文都说不清楚，还叫老子给伴舞... 这货是谁是干啥的？ 讨论 客观评价 ",
        "Total": 362,
        "Link": "http://comment.ent.163.com/ent2_bbs/D6VL6TC100038FO9.html"
    },
    "PublishTime": "12/31/201708:51:23",
    "Title": "被王俊凯单手一推 董子健弹开三大步娇喊小坏蛋_网易娱乐"
}