{
    "Source": "Netease",
    "PublishTime": "12/26/201700:24:00",
    "KeyWords": "北大西洋,北约,冷战,俄罗斯",
    "Title": "打算重回冷战?外媒:北约拟重建\"北大西洋司令部\"_网易新闻",
    "Comment": {
        "Link": "http://comment.news.163.com/news2_bbs/D6I4PNKJ000187V9.html",
        "Total": 212,
        "Content": "有儿子在不会的 人类自己正在自己作死。 你好，俄狗 经济不行了还拉硬，继续下去鹅毛经济必垮掉。 既然有人要在地球村与民主法制发展观对抗较劲不服输，还要拿着核武维护独裁世袭瞎抖擞，这世界的冷战几乎不可避免，热战也是会打的。人类社会是不会停止不前的，想租挡历史进步的邪俄恐怖分子顽固到底只有死路一条。 俄国欺人太甚 打起来才好！ 饿狗猖獗，还不许人类商量对策？ 哈哈哈 你是日本人的狗，啥时候成人了 当务之急先把肥孙子干了 现在儿子都被拖穷了，外汇都快干了。 有儿子在不会的 我是中国人，不像你们是日本人当年留下的种，见了日本人都喊爹 打起来最后，让你们都去效忠你们的主子 我弟弟信上帝.他认为他的存在就是在帮助上帝拯救人类.每次打完电话他都会说愿上帝保佑你,各种为我祈祷.他很乐意与我谈论信上帝的好处.并全身心投入工作和关爱家人,只因他觉得主耶稣是他学习的榜样--我不认为他们的信仰会造成交流障碍.即使我认真问他:上帝是否存在?而他总会回答:若爱存在,上帝就存在.因为上帝就是创造爱的源头上帝永远住在爱里，上帝爱世界上所有人包括想悔改的罪人想要信耶稣的可以到本地教堂买一本圣经看看每个地方都有教堂的信耶稣此生平安来世得永生有所信仰就会有所敬畏，有所敬畏就会知何事可为与何事不可为，知道了什么事可为什么事不可为，就不会干出背理天意人伦的逆天大错，遵从了天意人伦的法则就会一生安宁幸福这就是大道之法则，也就是爱的法则，神之道！ 你好，俄狗 经济不行了还拉硬，继续下去鹅毛经济必垮掉。 既然有人要在地球村与民主法制发展观对抗较劲不服输，还要拿着核武维护独裁世袭瞎抖擞，这世界的冷战几乎不可避免，热战也是会打的。人类社会是不会停止不前的，想租挡历史进步的邪俄恐怖分子顽固到底只有死路一条。 俄国欺人太甚 打起来才好！ 饿狗猖獗，还不许人类商量对策？ 哈哈哈 你是日本人的狗，啥时候成人了 人类自己正在自己作死。 那美狗呢？？？？ 当务之急先把肥孙子干了 现在儿子都被拖穷了，外汇都快干了。 ",
        "Reply": 16
    },
    "Article": "（原标题：打算重回冷战？外媒：北约拟重建“北大西洋司令部”）【环球时报综合报道】24日，北约秘书长斯托尔滕贝格主动告诉媒体，俄潜艇愈发频繁地在地中海、大西洋等水域活动，活跃程度已相当于冷战时期。北约潜艇部队司令则发出俄可能切断海底电缆的惊人警告。北约的办法是针锋相对——重建冷战后即被关闭的大西洋司令部。虽然俄罗斯强调不会进行军备竞赛，但北约的态度让外界担忧，冷战是否会在相隔30年后卷土重来？因为俄罗斯潜艇活动处于强烈焦虑状态的北约，打算重建冷战后即被关闭的司令部。《法兰克福汇报》24日报道称，据斯托尔滕贝格透露，北约计划成立一个新的欧洲运输及大西洋司令部。美国“商业内幕”网站称，新设司令部的规划11月初已通过审批，明年2月将有更多细节释出。目前的计划是在位于弗吉尼亚州诺福克的美国海军大西洋舰队司令部内设立北约北大西洋司令部。德国N24电视台25日报道说，这个司令部将包括两个指挥中心：一个负责在紧急情况下对北约部队在欧洲境内的调遣。另一个则负责对北约海军在大西洋的行动进行协调，以确保战争情况下欧洲与北美海上通道的安全和畅通。司令部将在2018年2月的北约防长会议上正式确定。与此同时，北约各成员国正加快提升反潜能力。《华盛顿邮报》称，俄罗斯的活动迫使西方恢复冷战后已几乎不再使用的猎杀潜艇技能。通过公开的航空跟踪应答器数据可以发现，近几个月来美国海军派出军机在已知有俄潜艇活动的区域执行任务。“商业内幕”网站说，冷战结束后，在北大西洋、波罗的海和地中海巡逻的猎潜舰数量下降。现在，北约国家开始投入更多海空力量。今年夏天，法国、德国、希腊、意大利、西班牙和土耳其已经签署意向性协议，将开发探测潜艇活动的新型飞机。最近几个月，北约还加大了对抗训练。俄《独立报》称，北约官员发表这样的声明，是因为22日俄罗斯总统普京在国防部扩大会议上宣布了国家军事战略。对于北约秘书长宣称俄海军的优势，俄黑海舰队前司令科莫耶多夫25日回应说，俄海军的活动不可能超过美国。俄新网援引他的话说，美国不仅各种舰只数量超过俄罗斯，而且一直在世界各大洋频繁活动。因此，北约这样做是一个游戏，目的是引发军备竞赛，迫使俄走上这条路。“普京总统已明确表示，俄罗斯不会参与任何军备竞赛。”本文来源：环球时报-环球网。更多精彩，请登录环球网http://www.huanqiu.com作者：青木柳玉鹏甄翔责任编辑：李天奕_NN7528",
    "URL": "http://news.163.com/17/1226/02/D6I4PNKJ000187V9.html"
}