{
    "Source": "Netease",
    "KeyWords": "运输机,运营,巴航,空军",
    "URL": "http://war.163.com/17/1222/11/D68N291A000181KT.html",
    "PublishTime": "12/22/201711:01:17",
    "Comment": {
        "Content": "战术运输机 那ntm还有时间看对你没有意义的新闻？还发没有意义的牢骚?sb东西。 管我鸟事，物价油价房价又涨了生存压力越来越大了 战术运输机 那ntm还有时间看对你没有意义的新闻？还发没有意义的牢骚?sb东西。 管我鸟事，物价油价房价又涨了生存压力越来越大了 ",
        "Total": 29,
        "Link": "http://comment.war.163.com/news_junshi_bbs/D68N291A000181KT.html",
        "Reply": 3
    },
    "Article": "巴航工业KC-390军用运输机巴西航空工业公司20日向巴西空军展示了巴航工业KC-390军用运输与空中加油机的初始运营能力。根据与巴西空军签订的协议，KC-390军用运输机达初始运营能力，意味着该机型已具备投入运营的必要条件。作为获得初始运营能力的一部分，巴航工业从巴西国家民用航空局取得了KC-390临时型号证书。巴航工业防御与安保公司总裁兼首席执行官杰克逊?施奈德（JacksonSchneider）表示：“我们很高兴宣布KC-390项目实现这一重要里程碑。该机型认证程序正在按计划进行，并且进行的一系列测试也非常成功——这些充分证明了该机型成熟的技术平台和运营能力。”截至目前，在一系列测试中，两架KC-390原型机已累积了超过1500个飞行小时。该机型的各个系统也接受了累积超过4万个小时的实验室测试。结构测试即将完成，仅剩下全面疲劳测试。按照计划，巴西民航局将于2018年颁发最终型号认证。此外，该机型还将完成多项军事飞行测试，包括空中加油和货物投放测试，以确保该机型达到最终运营能力，达到军方最终认证的要求。巴航工业计划将于2018年向巴航工业交付首架KC-390军用运输机。本文来源：网易军事责任编辑：康晶_NBJS5415",
    "Title": "巴航工业KC-390军用运输机获得初始运营能力_网易军事"
}