{
    "Comment": {
        "Content": "我咋没看见张一山回的啥? 我居然不知道张一山居然是队长....不过这节目还可以...毕竟都是能闹腾的年轻人.... 西游记主题曲宋喆唱：你挑着单，我骑着马。王宝强：迎来日出，宋喆我家。贾乃亮：敢问璐在何方？pgone：璐在跨下。出轨门又得一分，嫖娼门和吸毒门要加油了￼￼别怪小弟不是人，嫂子确实太迷人！打个新年炮搞的几亿人都知道了一杯敬宝强一杯敬乃亮守着你的善良选择了原谅所以羽凡的绿从此不再漫长帽子不在无处安放～贾，宝，羽、草原三结义，大哥王宝强，二哥陈羽凡，三弟假奶亮—————PGone:呦呦，切克闹，好吃不过饺子，好玩不过嫂子，一边吃嫂子包的饺子，一边玩包饺子的嫂子。。吃着滚烫的饺子，玩着最浪的嫂子！！呦呦，来来来，我说亮哥，你说绿，亮哥，绿，亮哥，绿！！ 不能沉浸在一种情绪里停滞不前. ",
        "Link": "http://comment.ent.163.com/ent2_bbs/D78H5T4A00038FO9.html",
        "Reply": 4,
        "Total": 4
    },
    "KeyWords": "张一山",
    "PublishTime": "01/03/201819:34:06",
    "Title": "专访张一山：不能让自己在一个角色里沉浸_网易娱乐",
    "Source": "Netease",
    "Article": "点击继续查看使用安卓和iPhone最新版本客户端可获得更流畅体验，下载地址：安卓用户点这里iPhone用户点这里本文来源：网易原创责任编辑：杨明_NV5736",
    "URL": "http://ent.163.com/18/0103/19/D78H5T4A00038FO9.html"
}