{
    "Article": "（原标题：中央气象台再发暴雪黄色预警：安徽、江苏等地有大到暴雪）央视网消息：从昨天开始，今年首场大范围雨雪天气拉开帷幕。中央气象台今天继续发布暴雪黄色预警，预计今明两天将是此次降雪最强的时段，陕西、山西、湖北、河南、安徽、江苏等地将有大到暴雪、局地大暴雪。随着西南暖湿气流强势进入我国，从昨天开始，今年的首场大范围雨雪天气拉开帷幕。气象监测显示，青海、甘肃、宁夏、陕西等地率先出现小雪，局地中雪。中央气象台继续发布暴雪黄色预警，预计今明两天，中东部地区的雨雪天气将逐渐增强。中央气象台首席预报员张涛：具体来说，3日的夜间到4日的白天，是整个过程降雪最强的时段，（降雪）最强的地区主要是出现在陕西中南部、河南、安徽的中北部、江苏的北部，还有湖北的北部和西北部地区，都会出现大到暴雪、部分地区大暴雪的天气。鄂湘黔部分地区有冻雨专家表示，降雪过后，上述地区的新增积雪深度将有5～10厘米，局地可达12～18厘米。而在这些地方以南的区域主要以降雨为主，湖北西南部、湖南西北部、贵州东部的部分地区还会有冻雨。气象专家提醒，这轮雨雪的范围之广、强度之强也是隆冬时节罕见，部分地区的日降水量可能会刷新1月的历史纪录。大范围雨雪天气会导致道路湿滑、结冰、能见度降低，部分地区的高速公路、机场等将受到影响，人们要合理安排出行计划，外出时要特别注意交通安全。雨雪加上冷空气多地气温下降明显此外，雨雪全面铺展加上冷空气影响，中东部多地的气温也将持续下滑。预计4到5日，西安、郑州最高气温都将跌至0℃以下，同时长江中下游地区的武汉、合肥、南京、长沙等地也最高气温也将只有2、3℃左右，天气湿冷，要特别注意防寒保暖。本文来源：央视网责任编辑：荀建国_NN7379",
    "URL": "http://news.163.com/18/0103/16/D7874A9D000187VE.html",
    "KeyWords": "暴雪,中央气象台,下雪",
    "PublishTime": "01/03/201816:20:00",
    "Title": "中央气象台再发暴雪黄色预警:安徽江苏等地有暴雪_网易新闻",
    "Comment": {
        "Content": "初雪未到，感冒先行，😁 连雪都不国三海关了。 我们的月亮就是一个鸡蛋，我们的地球系就是一个鸡蛋!我们的太阳系就是一个鸡蛋，我们的天郎双星系就是一个鸡蛋，我们的银河系就是一个鸡蛋!坯胎为中心，蛋黄，蛋清，蛋壳层层立体包围着坯胎!固体地球为中心，大气层，平流层，电离层等等以及最外层真空遂道层层立体包围着固体地球!而月亮飘流在地球最外层空间真空遂道里，就像船儿飘流在大气层和海平面之间的空间是一样的!以此类推至太阳系天郎双星系银河系及任何物质!月亮在地球最外层空间真空遂道里绕着地球自转公转着，地月绕着太阳在太阳系第三层真空遂道里自转公转着，太阳系绕着天郎双星在天郎双星系最外层真空遂道里自转公转着!任何物质皆如此运动，天地人合一，阿门 这傻逼，又换台词了。 又要爆管无数了 ",
        "Link": "http://comment.news.163.com/news2_bbs/D7874A9D000187VE.html",
        "Total": 6,
        "Reply": 5
    },
    "Source": "Netease"
}