{
    "Title": "摩天大楼热!全球最高100楼中近半数在中国_网易新闻",
    "URL": "http://news.163.com/17/1225/16/D6H2P5TL0001899N.html",
    "Source": "Netease",
    "Comment": {
        "Total": 1611,
        "Reply": 73,
        "Content": "解放前不好么？我倒觉得还好 摩天大楼伴随着金融危机，等着瞧吧 在牛的前边放上一把草料，然后牛就会往前走。 中国是丑陋和矛盾的集合体是历史上最破败的人类文明我们能做的就是一起见证荒芜 摩天大楼诅咒 中国泡沫经济破灭前夕疯狂继续 对对对，说中国差就不是智障，说美国好就不是智障，垃圾！ 顶你 物价超欧美 经济衰退的标志 别废话，嫌中国不好赶紧滚出来啊，谁拦着你了？没钱没本事还想移民美国，就你这穷样，就算去了美国你还是个穷B和屌丝！ 假大空，有屁用 比非洲、朝鲜好点 苏联也很强大 是不是有点戴金链的感觉一样？带得越多越...然而摩天大楼再多工资还是一个样 说的不是现在？ 其实真觉得没啥用，英国的就很少，但是一般占地面积达，这样即使是testco都能保证有停车位，并且很容易保证资源不会过度集中，即使边远地区也很发达方便 中国经济一定能在2025年前超越美国，期待这历史的一刻，感恩这伟大的时代 怎么可能崩溃？！经济这么好有统计局在 摩天大楼定律，大陆比崩 服你，股市结构牛！ 你已经滚出去了，说明你嫌弃中锅了 腐败。。。。 那你是被圈养的羊还是被放养的狗到处咬人？ 中国经济崩溃了，你我都回到解放前了 因为英国人有选票，并且也不需要炫耀自己有多伟大！ 人口红利。何况多年下来都变得聪明了。中国经济不会崩溃，会爆发奇迹。 你个孤儿 会改曹换代 一谈到和发达国家比民生就静悄悄了。一谈到比高楼就高潮了 静等中国经济崩溃 跟同胞们有一毛钱的关系吗？去看一下还得收费。 坐等崩溃 中国高楼大部分是面子工程，越自卑越吹嘘，越低人一等越想高人一等 gdp有个屁用，科技领域，医药领域我国属于断层级落后，已经不能用年限衡量了！如果国外对我国一直技术封锁。那这些领域我国将永远受制于人！ 解放前好什么好，没看到过纪录片吗？通货膨胀，老百姓用车拉着钱去买东西，有的穷人还没饭吃，中产阶级过的很苦，油水被蒋宋陈孔官僚资本控制，好么？ 你个智障楼上两位说错了吗 出来了就是嫌弃中国？你这逻辑真有问题，还真不好意思，公司派我来海外拓展业务，并不是我自愿来，过年就回去，国外并没有想的那么好，晚上都不敢出门，在国内凌晨三四点还在外面吃夜宵，这边到了晚上九十点钟街上的店铺全部关门，乌漆嘛黑一片，根本就不敢出去，前几天看新闻附近的几户人家全部被抢劫，搞得人心惶惶，吃的也不习惯，家人都在国内生活的挺好，不像你们这群狼心狗肺的东西，吃里扒外，看着就恶心！ 竟然没有5猫来叫你们去非洲 说明中国强大了 不然咋体现优越性 唯有一声叹息 这是大老美都不玩的了，在这边扎堆上…… 我们承包一切最高、最长、最大记录。 意味着“中国泡沫”将包揽未来全球经济危机中的“因果”近半数。 网易好多轮子，比如楼上两位。。 全球最低社保中国，最低工资在中国，服不服 被圈养的羊主人会把它保护的好好的，大部分的羊觉得主人真的爱自己！ 劳伦斯魔咒 解放前不好么？我倒觉得还好 gdp有个屁用，科技领域，医药领域我国属于断层级落后，已经不能用年限衡量了！如果国外对我国一直技术封锁。那这些领域我国将永远受制于人！ 假大空，有屁用 简单，拦腰截断 意义？ 竟然没有5猫来叫你们去非洲 中国泡沫经济破灭前夕疯狂继续 顶你 物价超欧美 摩天大楼伴随着金融危机，等着瞧吧 经济衰退的标志 反对！是那些类人猿。 不是现在不是蒋宋陈孔了 在牛的前边放上一把草料，然后牛就会往前走。 苏联也很强大 人口红利。何况多年下来都变得聪明了。中国经济不会崩溃，会爆发奇迹。 经济规律，最高的楼盖好后，经济不行了。 呆逼 其实真觉得没啥用，英国的就很少，但是一般占地面积达，这样即使是testco都能保证有停车位，并且很容易保证资源不会过度集中，即使边远地区也很发达方便 坐等崩溃 怎么可能崩溃？！经济这么好有统计局在 摩天大楼定律，大陆比崩 服你，股市结构牛！ 比非洲、朝鲜好点 孝经曰：“天子有诤臣七人，虽无道，不失其天下。” 中国是丑陋和矛盾的集合体是历史上最破败的人类文明我们能做的就是一起见证荒芜 就连合肥目前有恒大518和宝能588在建设的，可想而知，中国其他地方高楼大厦热情有多么高。 那你是被圈养的羊还是被放养的狗到处咬人？ 孝经曰：“天子有诤臣七人，虽无道，不失其天下。” 中国经济崩溃了，你我都回到解放前了 因为英国人有选票，并且也不需要炫耀自己有多伟大！ 我们还有很多第一需要去争！但不包括老百姓的幸福指数！ 腐败。。。。 中国经济一定能在2025年前超越美国，期待这历史的一刻，感恩这伟大的时代 会改曹换代 一谈到和发达国家比民生就静悄悄了。一谈到比高楼就高潮了 如果它们花的是自己的钱，应该不会这样大手大脚吧 还是前好 我去听你这样说，你是为了遭罪才出国的 静等中国经济崩溃 最典型的是成都和武汉 中国经济一定能在2025年前超越美国，期待这历史的一刻，感恩这伟大的时代 这是大老美都不玩的了，在这边扎堆上…… 中国高楼大部分是面子工程，越自卑越吹嘘，越低人一等越想高人一等 不高不是中国楼 坐等崩盘 加国狗奴才，虚伪的垃圾二代 出来了就是嫌弃中国？你这逻辑真有问题，还真不好意思，公司派我来海外拓展业务，并不是我自愿来，过年就回去，国外并没有想的那么好，晚上都不敢出门，在国内凌晨三四点还在外面吃夜宵，这边到了晚上九十点钟街上的店铺全部关门，乌漆嘛黑一片，根本就不敢出去，前几天看新闻附近的几户人家全部被抢劫，搞得人心惶惶，吃的也不习惯，家人都在国内生活的挺好，不像你们这群狼心狗肺的东西，吃里扒外，看着就恶心！ 摩天大楼诅咒 说明中国强大了 说的不是现在？ 是不是有点戴金链的感觉一样？带得越多越...然而摩天大楼再多工资还是一个样 有高楼有地铁才是发达的象征 我们承包一切最高、最长、最大记录。 过去的厂区、厂房都建高楼了 意味着“中国泡沫”将包揽未来全球经济危机中的“因果”近半数。 全球最低社保中国，最低工资在中国，服不服 操你妈的，你这天生畜生 印尼 唯有一声叹息 高楼万丈平地起，盘龙卧虎高山顶，来了咱们的毛主席…… 跟同胞们有一毛钱的关系吗？去看一下还得收费。 不然咋体现优越性 珠三角是因为人口密度太大，没办法 ",
        "Link": "http://comment.news.163.com/news2_bbs/D6H2P5TL0001899N.html"
    },
    "Article": "（原标题：摩天大楼热在中国达到极致：包揽全球最高100楼中近半数）随着城镇化进程的推进以及发展中国家的经济飞速崛起，全球摩天大楼建造的热潮如日中天。过去两年中，全球范围内就有39座高度超过300米的摩天大楼落成。2000年以来，全球摩天大楼建筑数量已经上涨402%。这其中，中国、阿联酋等国家是摩天大楼建造热度最高的地方。中国先来看一下中国的情况，如今不仅是一线城市拥有数量可观的摩天大楼，几乎所有上规模的城市都可以看到高楼的身影。而数据展现出来的画面更是惊人，2012年以来，中国新增了38座高度超过300米的摩天大楼，2018年预计落成的摩天大楼还有16座。而珠三角区域更是成为了摩天大楼“聚居地”，全球前100高的大楼中有20座都在此区域。此外，全球前100高的摩天大楼中有46栋坐落于中国，未来一年这一数字还会上升。中西部地区也正在建设越来越多的摩天大楼。仅在2017年下半年，重庆、成都、西安等地区陆续宣布了多宗新的超高层建筑方案，而成都、长沙、西安、武汉和贵阳等地也均有超400米的超高层建筑在建项目。阿联酋仅仅迪拜一个城市就拥有将近1000座高层建筑，目前在建的超过300米高度的建筑有13处。俄罗斯俄罗斯是欧洲国家中少有的喜欢摩天大楼的国家，2012年以来就有4座超过300米高的摩天大楼在莫斯科落成。美国美国曾经是全球摩天大楼的中心，但最近20年以来，仅有6座超过300米高的摩天大楼在美国落成。纽约目前有30个摩天大楼在建项目。本文来源：财经网责任编辑：徐萌_NN7485",
    "PublishTime": "12/25/201716:59:57",
    "KeyWords": "中国,美国,俄罗斯,阿联酋"
}