{
    "URL": "http://news.163.com/17/1231/10/D6VQEIPE0001875O.html",
    "Article": "（原标题：外媒：俄核轰炸机首巡南太平洋疑似收集澳情报）中新网12月31日电据外媒报道，俄罗斯两架可搭载核弹头的图-95战略轰炸机本月初在印度尼西亚附近的公海执勤，疑似收集澳大利亚军事情报。澳媒30日披露称，澳大利亚达尔文空军基地曾提升戒备状态。资料图：俄罗斯图-95轰炸机(图片来源：路透社)报道称，俄罗斯在印度尼西亚东部巴布亚省的比亚克岛设有空军基地，逾百名俄军事人员和数架军机驻扎。本月初，两架图-95曾在基地停留5天，期间从当地起飞，执行南太平洋的巡航任务，是历来首次。俄国防部称，轰炸机航程逾8小时，在公海上空执勤。俄方强调，俄远程军机一直有在北冰洋、黑海和里海等中立海域定期飞行，所有任务均严格遵循国际航空法。澳大利亚空军向媒体承认，本月曾短暂提升戒备状态，但没明确表示是响应俄方活动，同时表示没有外国军机进入澳领空。有分析人士称，俄罗斯派军机远赴南太平洋，旨在展现远程投射能力，加之澳大利亚是美国主要盟友之一，在北领地设有达尔文和廷德尔空军基地，不排除俄方想“刺探”澳大利亚军情报。还有学者认为，2014年乌克兰危机后，俄罗斯意识到必须加强与亚太地区的政治和经济联系，该地区不仅是全球经济新引擎，也有利于俄罗斯寻求新伙伴，与俄建立多极化的世界政治格局。本文来源：中国新闻网责任编辑：张宪超_NN9310",
    "KeyWords": "轰炸机,太平洋,俄罗斯,澳大利亚",
    "Source": "Netease",
    "Comment": {
        "Reply": 16,
        "Content": "美帝背后搞下，让印度尼西亚驱逐鹅毛，鹅毛在印尼设基地，对中国南方也有威胁 手伸得够长的 你家干爹好威风 我们已经收复的本平静的西沙南沙又重新变成万国舰船博览会，瞅着我们的江海沦为美俄争斗叙利亚 甘尔滋給的 说的太好! 有什么用，只要美元霸权还存在一切都毫无意义。。。。除非飞机船汽车都用电动的，推倒石油的地位 美国是对我们帮助最大的国家，我们在各种黑美国时，其实就跟越南一样忘恩负义 有看头了! 图95熊式战略轰炸机，上世纪六十年代的破玩意还敢拿出来炫耀 靠刷存在感和威胁区域安全建立多极世界？ 还有钱加油嘛 手伸得够长的 有干儿子在，这都不是事 就跟乞丐骑着一破烂自行车四处逛逛，显示自己还能苟活着一样。 美帝背后搞下，让印度尼西亚驱逐鹅毛，鹅毛在印尼设基地，对中国南方也有威胁 手伸得够长的 你家干爹好威风 我们已经收复的本平静的西沙南沙又重新变成万国舰船博览会，瞅着我们的江海沦为美俄争斗叙利亚 手伸得够长的 甘尔滋給的 说的太好! 有什么用，只要美元霸权还存在一切都毫无意义。。。。除非飞机船汽车都用电动的，推倒石油的地位 美国是对我们帮助最大的国家，我们在各种黑美国时，其实就跟越南一样忘恩负义 有看头了! 图95熊式战略轰炸机，上世纪六十年代的破玩意还敢拿出来炫耀 靠刷存在感和威胁区域安全建立多极世界？ 还有钱加油嘛 就这破车只有美帝能比 有干儿子在，这都不是事 就跟乞丐骑着一破烂自行车四处逛逛，显示自己还能苟活着一样。 ",
        "Total": 339,
        "Link": "http://comment.news.163.com/news_guoji2_bbs/D6VQEIPE0001875O.html"
    },
    "PublishTime": "12/31/201710:22:58",
    "Title": "外媒:俄核轰炸机首巡南太平洋 疑似收集澳情报_网易新闻"
}