{
    "Article": "（原标题：16天内11所“双一流”高校领导出现调整，多人校内晋升）南开大学、重庆大学两所高校于2018年1月3日迎来重要人事调整。其中，中国医学科学院院长、北京协和医学院校长曹雪涛出任南开大学校长，重庆大学党委常务副书记张宗益出任重庆大学校长。南开大学原校长龚克、重庆大学原校长周绪红的去向暂未获披露。据澎湃新闻记者统计，从2017年12月19日到2018年1月3日，16天内，已有11所“双一流”高校的党委书记或校长出现了调整。在南开大学和重庆大学之前，中南大学、兰州大学、华中农业大学、北京航空航天大学、北京理工大学、四川大学、华中科技大学、西北农林科技大学、东南大学等9所“双一流”高校迎来了新任党委书记或校长。这批人事调整包括：东南大学党委书记易红任中南大学党委书记，南开大学副校长严纯华任兰州大学校长，华中农业大学副校长高翅任华中农业大学党委书记，江西省鹰潭市委书记曹淑敏任北京航空航天大学党委书记，北京航空航天大学党委书记张军任北京理工大学校长，电子科技大学校长李言荣任四川大学校长，华中科技大学常务副校长邵新宇任华中科技大学党委书记，西北农林科技大学常务副校长吴普特任西北农林科技大学校长，东南大学党委常务副书记左惟任东南大学党委书记。本文来源：澎湃新闻责任编辑：苏泓珵_NBJ9980",
    "URL": "http://news.163.com/18/0104/08/D79UFRO5000187VE.html",
    "KeyWords": "重庆大学,南开大学,校长",
    "PublishTime": "01/04/201808:35:00",
    "Title": "16天11所\"双一流\"高校领导出现调整 多人校内晋升_网易新闻",
    "Comment": {
        "Content": "",
        "Link": "http://comment.news.163.com/news2_bbs/D79UFRO5000187VE.html",
        "Total": 0,
        "Reply": 0
    },
    "Source": "Netease"
}