{
    "Article": "（原标题：朴槿惠狱中过元旦：被安排看爱情片午餐吃半只鸡）朴槿惠海外网1月2日电韩国前总统朴槿惠在狱中迎来了2018年。有韩媒曝光了她的元旦生活，早饭喝的是年糕汤（韩国人元旦必吃美食），而午餐是拘留所提供的过节福利：半只清炖鸡。为了活跃在押人员节日期间的文化生活，拘留所还在当天播放彼得·西格尔导演的爱情电影《初恋五十次》（50FirstDates）。清炖鸡（资料图）据韩国《首尔新闻》报道，与朴槿惠同在狱中度过元旦的还有闺蜜崔顺实、三星电子副会长李在镕、总统秘书室前室长金淇春以及总统府前民政首席秘书禹柄宇等。爱情电影《初恋五十次》朴槿惠去年3月31日被捕后，被收押在首尔拘留所。她原定于10月16日获释，但法院10月13日再次签发拘捕令，朴槿惠的拘留时间被延长6个月，即今年4月才能释放。为抗议法院延期拘捕的裁决，朴槿惠七人律师团于去年10月16日集体辞职。在当天的庭审中，朴槿惠罕见发言，她否认自身嫌疑，称审判于她而言是“政治报复”。她还表示，“对法官的信任已经没有意义，今后就按照法官的意思审吧。”朴槿惠“亲信干政门”案件尚在审理之中，外界预测法院将在今年初进行一审。朴槿惠被检方指控的罪名多达18项，加上干政门案多位被告已获重刑。韩媒认为，检方会在一审时建议法院判决朴槿惠25年以上的监禁。除了干政门之外，朴槿惠还因涉嫌指使国家情报机关“上供”，被韩国检方盯上。去年12月26日，检方亲自上门，要对朴槿惠开展“狱中调查”，但因后者拒不配合，调查无果而终。最近检方决定以新罪名起诉朴槿惠，具体时间尚未确定。由漫画《风斗士》改编的同名电影韩国法务部监狱管理部门表示，朴槿惠七人代理律师集体辞职后，她就拒绝一切探视，在狱中独自度日。虽然牢房内电视、收音机和报纸一应俱全，但她从来不去接触，而是把更多的时间放在读书上。最近，朴槿惠在读韩国作家金周荣的小说《客主》，以及漫画家方雪姬的《风斗士》。这两本书内容有相通之处，分别讲述了主人公克服逆境之后成为名商巨贾、绝世武林高手的励志故事。在此之前，她还读过日本历史小说《德川家康》以及英文版《赖斯》。报道指出，从法务部和警方透露的消息来看，朴槿惠最近的状态明显更加疲惫。有监狱管理部门人士称，“现在朴槿惠的心境很复杂，一方面她迫切地去力证清白，一方面又自觉罪名难洗深感无助。”本文来源：海外网责任编辑：王征_NN7526",
    "Title": "朴槿惠狱中过元旦：被安排看爱情片 午餐吃半只鸡_网易新闻",
    "PublishTime": "01/02/201810:16:38",
    "Source": "Netease",
    "Comment": {
        "Content": "朴槿惠:mad，老娘这么大岁数了，你们给我看爱情片。我不要🐔，我要鸭。 还他妈的是初恋50次 掉毛的凤凰不如🐔啊 韩国最危险的职业－－－－－总统 权力给了谁都一样，关键还是要国家每个人的素质提高。如同婚姻一样，以前说是包办的原因，现在婚姻自由了，离婚却达到了百分之三四十以上。现在社会从小小的职员到国家干部，只要有机会都手很长，国民素质不提高，什么都是浮云 没结过婚还没做过爱吗？你看爱情动作片是为了结婚吗？ 惨惨惨 好可怜的，失去了人生自由， 同情 好损呢，让是要让荒芜已久的的土地焕发出新的生机😀 朴槿惠狱中过元旦“被安排看爱情片”，这不是让真和尚、太监看三级片吗；“午餐吃半只鸡”？你以为人家是相扑运动员呐！这种安排太不厚道了。 还是搞政治这帮人能玩 那部电影我看过，很可爱好玩 不要在整她了～可怜 水深火热 韩国总统，世界上最危险的职业。名不虚传啊，几乎所有韩国总统都没有善终。 爱情片，半只鸡……这不是对朴姐的侮辱吗？都知道她没结过婚。。。。。。。 朴槿惠:mad，老娘这么大岁数了，你们给我看爱情片。我不要🐔，我要鸭。 还他妈的是初恋50次 ！！！！ 老是拿自己都底掉的意识形态来衡量别人，把你高尚的 掉毛的凤凰不如🐔啊 同情 没结过婚还没做过爱吗？你看爱情动作片是为了结婚吗？ 韩国真强大。不服不行。前总统可以审判。 权力给了谁都一样，关键还是要国家每个人的素质提高。如同婚姻一样，以前说是包办的原因，现在婚姻自由了，离婚却达到了百分之三四十以上。现在社会从小小的职员到国家干部，只要有机会都手很长，国民素质不提高，什么都是浮云 惨惨惨 太能吃了，我的个妈呀，能吃半只鸡，就是个饭桶啊 好损呢，让是要让荒芜已久的的土地焕发出新的生机😀 看着初恋50次，自己上庭100次！ 没有鸭？ 满满的讽刺 不要在整她了～可怜 水深火热 韩国总统，世界上最危险的职业。名不虚传啊，几乎所有韩国总统都没有善终。 权力给了谁都一样，关键还是要国家每个人的素质提高。如同婚姻一样，以前说是包办的原因，现在婚姻自由了，离婚却达到了百分之三四十以上。现在社会从小小的职员到国家干部，(=￣ρ￣=)..zzZZ 老狱警有意为之，这是前奏么😍😍😍 将自己嫁给国家的女人…… 水深火热 也许没别的菜呢？ 韩国最危险的职业－－－－－总统 好可怜的，失去了人生自由， 那部电影我看过，很可爱好玩 这小编真会用词儿 朴槿惠狱中过元旦“被安排看爱情片”，这不是让真和尚、太监看三级片吗；“午餐吃半只鸡”？你以为人家是相扑运动员呐！这种安排太不厚道了。 还是搞政治这帮人能玩 风斗士是风魔小次郎那个吗 有意思 爱情片，半只鸡……这不是对朴姐的侮辱吗？都知道她没结过婚。。。。。。。 不是爱情动作片？ 给她放新闻联播 佩服你们敢对灵道下手 ",
        "Reply": 35,
        "Link": "http://comment.news.163.com/news2_bbs/D74USE930001899N.html",
        "Total": 423
    },
    "KeyWords": "朴槿惠,新年,韩国,法院",
    "URL": "http://news.163.com/18/0102/10/D74USE930001899N.html"
}