{
    "Source": "Netease",
    "KeyWords": "圣诞节,埃及,恐怖袭击,耶路撒冷",
    "URL": "http://war.163.com/17/1225/07/D6G3R9DQ000181KN.html",
    "PublishTime": "12/25/201700:33:00",
    "Comment": {
        "Content": "叙利亚冲突的实质是世俗与反世俗的未来之战，从反世俗一边来讲，无论IS还是所谓温和反对派，主要都是逊尼派中的原教旨极端保守派，目的都不是为了叙利亚的民主，都是为了让叙利亚的男人蓄大胡子，女人穿黑罩袍，为了叙利亚不再有圣诞节、复活节这样的异教徒官方节日，为了不再有诸多宗教、教派共存这样不绝对清真的现象，为了不再有罗马竞技场、贝尔神庙这样异教徒的标志。从世俗一边来讲，作为相对比较温和、世俗的什叶派分支的阿拉维派当权，叙利亚在中东是远比沙特、巴林这些美国的“坚定盟友”包容开放得多的国家，各种教派共存，官方节日甚至有圣诞节、复活节，这在沙特等这样的极端保守国家中简直是无法想象的。正因为如此，为巴沙尔而战的，除了阿拉维派，还有其他什叶派，世俗化的逊尼派，以及基督徒，他们共同艰难地对抗着来自全球打着各种旗号，背后有全球最强大国家和集团，以及区内最富裕国家直接间接支持的各种极端教派武装，因为他们晓得自己是没有退路的，情愿在战场上战死，也不要像之前的雅迪兹人那样被灭族 叙利亚冲突的实质是世俗与反世俗的未来之战，从反世俗一边来讲，无论IS还是所谓温和反对派，主要都是逊尼派中的原教旨极端保守派，目的都不是为了叙利亚的民主，都是为了让叙利亚的男人蓄大胡子，女人穿黑罩袍，为了叙利亚不再有圣诞节、复活节这样的异教徒官方节日，为了不再有诸多宗教、教派共存这样不绝对清真的现象，为了不再有罗马竞技场、贝尔神庙这样异教徒的标志。从世俗一边来讲，作为相对比较温和、世俗的什叶派分支的阿拉维派当权，叙利亚在中东是远比沙特、巴林这些美国的“坚定盟友”包容开放得多的国家，各种教派共存，官方节日甚至有圣诞节、复活节，这在沙特等这样的极端保守国家中简直是无法想象的。正因为如此，为巴沙尔而战的，除了阿拉维派，还有其他什叶派，世俗化的逊尼派，以及基督徒，他们共同艰难地对抗着来自全球打着各种旗号，背后有全球最强大国家和集团，以及区内最富裕国家直接间接支持的各种极端教派武装，因为他们晓得自己是没有退路的，情愿在战场上战死，也不要像之前的雅迪兹人那样被灭族 祝大家圣诞快乐! 井底之蛙！ ",
        "Total": 13,
        "Link": "http://comment.war.163.com/news_junshi_bbs/D6G3R9DQ000181KN.html",
        "Reply": 3
    },
    "Article": "（原标题：圣诞节成文明冲突窗口？埃及部署23万军警加强安保）【环球时报综合报道】“恐怖袭击阴影笼罩世界多国。”圣诞节和元旦即将到来，但节日气氛难掩世界对恐怖袭击的担忧，美国、欧洲等西方国家在敏感地区增强安保力量，采取各种防范措施。在中东等伊斯兰国家，由于美国总统特朗普最近宣布承认耶路撒冷为以色列首都，令当地安全形势再度紧张。俄罗斯versia新闻网站称，特朗普宣布承认耶路撒冷为以色列首都给了全球恐怖组织发动袭击一个很好的理由，他们可能采取报复行动，西方是在引火烧身。在许多伊斯兰国家，反恐形势更加紧张。12月23日，IS袭击了巴基斯坦卫理公会教堂。在巴基斯坦，各地都加强了安保措施。俾路支省首府奎达计划在平安夜和圣诞节在39个基督教堂附近部署3000警力。印尼警方22日公布，将在圣诞及元旦假期期间加强保安，并派遣近18万安保人员在公众场所及教堂范围巡视，严防恐袭。马来西亚警察总监哈润担心特朗普的决定会增加圣诞节期间发生恐怖袭击的概率。埃及《消息报》称，埃及部署多达23万的安全人员在各地加强安保，保护重点是境内包括基督教堂在内的宗教场所和西方游客集中的旅游景点。开罗东北部的赫利奥波利斯基督教大教堂将在12月25日举行弥撒，安全人员在教堂大门口设了金属探测装置，并在教堂外部署警车，场面如临大敌。埃及开罗去年发生针对信仰基督教的科普特人教堂的爆炸袭击，导致25人死亡。当地媒体称，今年中东和伊斯兰国家恐袭大幅增加，比西方遭受的恐袭要严重得多，其中一个因素是美国总统特朗普日前宣布承认耶路撒冷是以色列首都，这激怒了全球穆斯林，令今年圣诞节前夕的气氛显得空前紧张。有阿拉伯网友称，特朗普在为不同宗教和文明之间的对峙火上浇油，甚至点燃了宗教和文明冲突的导火索，接下来，恐怖袭击将在全球各地爆发，世界难有宁日。“圣诞节成文明冲突窗口”，德国《法兰克福评论报》25日称，圣诞节在西方被看成是和平的节日。但现在，圣诞节却成了文明冲突的一个工具。各种恐怖组织借圣诞节之机不断发出威胁或实施恐怖袭击，其背景是现在越来越明显的文明冲突。【环球时报驻埃及、德国、加拿大记者黄培昭青木陶短房陈一柳玉鹏】本文来源：环球时报-环球网。更多精彩，请登录环球网http://www.huanqiu.com责任编辑：姚文广_NN1682",
    "Title": "圣诞节成文明冲突窗口？埃及部署23万军警加强安保_网易军事"
}