{
    "Article": "（原标题：女主播受骗后蹲守医托）12月27日下午，湖南省妇幼保健院，21岁女主播彭丽(化名)正在蹲守医托。图/本报记者12月26日下午，湖南省人民医院，两名医托先后忽悠患者去东华医院做人流。图/视频截图花费近8000元，还面临不孕风险，21岁的女主播彭丽(化名)内心近乎绝望。近日，彭丽被两名女子诱导至长沙长海医院做了人流手术，术后身体不适，维权无果后，她一度产生轻生念头。记者多次与其沟通后，她决定跟记者一起蹲守医托，揭露骗局，以免更多患者上当。原本想在公立医院做人流，却被两女子诱导至长沙长海医院做手术，彭丽怀疑自己遇上了医托。12月24日起，在彭丽及其家人的配合下，潇湘晨报记者走访湖南省妇幼保健院、长沙市妇幼保健院和湖南省人民医院，对医托现象进行暗访调查。26日下午，两名医托一唱一和，将记者一行从省人医劝至“长沙东华生殖与不孕医院”(以下简称“东华医院”)做人流，而这家医院与长海医院有一定关联。医托声称手术费只要一千多元，实际花费如何?另外一名刚在该院做完人流手术的20岁女孩给出了答案，她的经历与记者调查的情况如出一辙。女患者身体毁了人生也就绝望了12月23日，单独与长海医院协商未果后，情绪失控的彭丽来到省妇幼门诊大楼，当众斥责医托的恶行：“医托为了利益耽误患者病情，而有的医院把患者当成提款机，坑钱不止还残害身体。”之后，彭丽给记者发来一条信息：“被骗钱事小，身体毁了人生也就绝望了。见我天天在家哭，自责不已的妈妈也偷偷抹泪。不想妈妈再自责难过，也不想这样的医院再去坑害别人，我准备拿刀去医院维权……”担心发生意外，记者一直开导彭丽。经过一晚的思考，彭丽下定决心：“蹲守医院，揭露医托骗局。”省妇幼两中年女子疑似医托，紧盯挂号屏幕24日早上，省妇幼门诊大楼，担心被医托认出的彭丽经伪装后暗中蹲守观察，24岁的姐姐彭雪(化名)在记者的陪同下来到一楼大厅挂号准备“做人流”。8点多，记者挂号之前观察发现，两名三四十岁的中年女子形迹可疑。两人在大厅交谈后分开，其中黄衣女子坐在大厅椅子上四处张望，另一名黑衣背包女子在自助挂号机前徘徊，只要有人挂号，她就会在后面紧盯着屏幕。见两人疑是寻找目标，记者和彭雪起身去挂号。彭丽暗中观察时发现，黑衣女子跟在记者的身后，静静地看屏幕，而黄衣女子的目光也停留在记者两人的身上。不过，记者和彭雪挂完号后去三楼候诊，两人却未跟上去。随后记者发现，在门诊三楼一处显眼位置，省妇幼摆放了易拉架，上面提示：如发现陌生人介绍到外院就诊，请拨打0731-84332128，医托猖獗，谨防上当受骗。记者和彭雪返回一楼大厅，两名中年女子依旧盯着在自助挂号机操作的患者。记者外出几分钟时，黄衣女子趁机靠近彭雪并询问“看什么病”。彭雪正准备回答时，黄衣女子却突然离开，而彭丽暗中观察到，当时黑衣女子给了个手势。两人突然取消行动的原因，记者三人不得而知。24日下午1点多，记者三人来到市妇幼暗访调查。在门诊一楼大厅，记者观察一个小时，未发现可疑人员，随后来到三楼妇女保健中心，刚出电梯就发现一块易拉架，上面提示：近期，医院出现医托现象，部分患者在寻医过程中被骗，提醒广大患者，就医过程一定要谨防医托。之后，记者三人分开蹲守，并未发现有医托上前搭讪或诱骗其他患者。25日一大早，记者三人再次来到省妇幼蹲守，考虑到医托喜欢找孤身一人的年轻女性搭讪，记者和彭丽在暗中观察，彭雪分别在门诊1楼、3楼和5楼候诊。等至11点多，上述两名医托再次出现，不过这一次，她们并未找彭雪搭讪。26日中午12点至1点半，省妇幼的门诊大厅有保安四处巡逻。彭丽分析，可能是之前她来省妇幼揭露过医托的恶行，医托不敢贸然行动。省人医两医托先后诱导去“又快又便宜的医院”26日下午，记者三人来到省人医五楼的妇产科诊区。下午两点左右，大厅坐满了患者，彭雪起身去厕所，途经一处过道时，一名中年女子上前搭讪，记者随后以彭雪男友的身份跟上前观察。交谈中，这名女子十分警惕，眼神飘忽不定，会不时注意过往人员，说话声压得很低。得知彭雪要做人流，女子自称有同样的经历：“我去年怀孕，也做了人流手术，今年又怀上了，所以到省人医检查。”简单套完近乎后，她称省人医只适合产检和生小孩，做人流最好去“省妇幼、计划生育办定点合作的东华医院”。随即，女子列出东华医院的多个好处：省人医检查项目很多，排队十分麻烦，而东华医院当天就能做完;东华医院的人流手术也成熟些，微管吸过后对子宫没什么伤害，更不会影响以后怀孕;费用只要一千多元，好的项目也只要两千多元，费用可自行选择，省人医的检查费就要一千多元……从套近乎、现身说法到介绍治病又快又便宜的医院后，这名女子详细介绍了东华医院的位置：“就在侯家塘北，长沙市第十五中学前面一点，离这里很近。”记者以不熟路线为由要求女子陪同前往，她以有事为由拒绝并反复称“去外面打的，几分钟的路程。你到医院后挂号，专家会跟你讲清楚的”。记者和彭雪从五楼步行下楼梯，另外一名中年女子在四楼跟上并搭讪：“刚在上面没看医生?”“你挂的几点的号?看什么科室?”该女子自称看皮肤科，她也述说自己的看病经历，“我以前怀孕在省人医看过几次就知道，排队检查很麻烦”。“在省人医做人流很麻烦，来一两次都检查不完。侯家塘北有家东华医院，好多患者都知道，那里好像是和省妇幼双向转诊合作医院。你这个情况拖不得，不尽快做人流会对身体有伤害。你下午才挂号，今天肯定做不了检查，没必要在这里等，赶紧去东华医院看一看。”上述女子很“热心”地“建议”。追踪另一女孩也遇医托手术进行一半还要交钱26日下午3点多，根据省人医遇到的两名医托的指引，记者和彭雪赶往东华医院，可刚到门口就犯晕了：医院房顶的牌子写着东华妇产医院，门头悬挂的是东华生殖医院，入口右侧墙上挂的牌匾是长沙东华不孕医院，而院内医生对外名片上写着：长沙东华妇产医院和长沙东华生殖与不孕医院。一楼导诊台挂号后，护士带着记者和彭雪来到二楼一间妇科诊室，她证实上述医托的说法，称东华医院是省妇幼双向转诊合作单位，而接待的刘主任更是称，“医院是省妇幼下面的分支机构，如果是疑难杂症就转到省妇幼，一般做人流的小手术就在我们医院”。简单询问情况后，刘主任示意彭雪要先做检查化验，如果没有宫外孕等特殊情况，加上人流手术的总费用是两三千元。“检查化验半小时出结果，手术十多分钟，没特殊情况不用住院，手术后观察一到两个小时可以离院。”刘主任再三强调：“人流只是小手术，来医院做人流的又不是你一个，年轻的有十五六岁的。”为证实这一说法，她将电脑显示屏旋转至记者面前，“今天(26日)就做了三台人流手术”。“现在人少不用排队。”刘主任一直建议彭雪先做检查化验，记者以需要考虑为由离开医院。在她展示人流手术患者信息时，记者注意到一名20岁的女孩，医院系统显示她于25日做了人流手术。27日，记者联系上这名20岁的女孩。该女孩说，她在省人医五楼候诊时，同样被两名医托一唱一和劝至东华医院做人流，经历与记者调查的如出一辙。“本来B超都做完了，两个中年女子先后搭讪，说省人医做人流不行，东华医院做这方面手术超级好，无痛且手术费用低，心动后就打算先去问问情况。”女孩的男友张军(化名)说，医托详细告诉他们去东华医院的路线。张军说，医生先说只要2000多元，先做检查，然后仅这笔检查费就花去1300元，接下来又一步步称“钱花得越多，产后就没问题。钱花得少，术后会出现小毛病”。张军气愤地说，手术进行一半还要交钱，让人骑虎难下，最终花了六七千元。与张军通话时，记者介绍了彭丽的遭遇，张军沉默了一会，而电话那端传来女孩撕心裂肺的哭声。张军说，为安全起见，他还会带女朋友去公立医院复查。长海医院和东华医院到底有何关联?记者通过国家企业信用信息公示系统查询发现，一名陈姓人员是这两家医院的自然人股东，该股东是长沙长海医院的总经理，同时也是东华医院的监事。本文来源：潇湘晨报责任编辑：黄哲程_B9302",
    "Source": "Netease",
    "KeyWords": "医院,医托,人流手术",
    "Title": "女主播被医托诱骗至医院做人流 与记者蹲守揭骗局_网易新闻",
    "Comment": {
        "Total": 1432,
        "Content": "戴了给整漏啦 谁想流产，还不是性教育跟不上，人流广告倒是都知道 医托还是判重罪吧！ 一个20来岁的单身女青年去挂号准备流产，医托过去搭话，这么年轻如何如何，在这种医院做以后都会留个档案，某某医院又便宜又不会留档，对以后生活和事业还有婚检什么的都没有任何影响……你猜这女的会不会轻信？(PS：以上均为个人臆想，如与实际有任何雷同，纯属巧合) 操！判刑啊！！ 医托是没道德的，但是仔细想想，为什么有人被医托骗？还不是贪便宜。说去别的医院就能便宜些就去？连命都不要了还惦记着钱多钱少。看看被骗的是什么人，做人流的20多岁姑娘们。一个是图省钱。二个是去私人医院不会在记录里留档。看病去公立医院这种常识都不知道还比谁便宜能怪谁？？？？？？？？苍蝇不叮无缝蛋。这个道理不知道么。 把雇佣依托的医院关了 人家是直播造人，还带套？ 如果是食道长东西压迫到神经或别的部位引起的放射痛的话你就不会呵呵了 找不到人，不知道是谁的[大哭] 我咋就没遇到这样的医生呢？以前有点感冒发烧，都去医院，可能运气不错？我们这小地方医院也不大，说实话，要是遇上那种啥都不说就让你做这个那个检查的，老子直接开骂，不服？等他小逼下班堵着揍残他。 避孕产品的广告不让播，人流的广告满天飞 草拟吗 我就想知道，打那个监督电话到底有没有用？！ 神经病，我们上班要追剧的，或者打打牌，看看报纸，睡个觉，那有空管你们这些社会底层的屁事！ 你是在胡扯，不懂装懂。医托只是呆在你医院，又没犯法，有病人来了，就过去搭讪跟他说一些话，也没犯法，你叫公立医院怎么管？私立医院如果胡乱诊断乱做手术，导致严重的后遗症，那就重罚，轻则吊销执照关闭医院，重则判刑，这才是解决问题的根本方法。司法部门不作为才是问题的根本原因。<br>另外说一句，在国外，私立医院比公立医院好。 女主播的孩子是黄鳝的吗？ 咱们国家才不担心青少年怀孕，才不会管性教育，只会担心医院有没有钱赚，利润如何，婴儿奶粉都不管，还管什么青年 法律缺失，道德沦丧…… 有关部门某负责人跑到哪里去了？ 一个人去人流...那个把她肚子搞大的男人呢? 我见过的医生都没有你这种情况，因为我只去公立三甲医院 没事儿别流产。 医托固然该死，但为啥去找便宜的，为啥不去正规医院做人流自己心里煤电避暑？ 这种医托就是把患者骗到莆田系医院里去，做手术一半就要求加钱加项，很无奈的。跟男科专科医院一样，我有朋友就是被骗去了这些医院做手术，真的很害人，真心觉得国家该治理这些骗子医院 你看新闻了？是傻逼吗？患者是图便宜去的？脑子是个好东西，希望你也有。 工作是用电脑的，用久了就会颈椎痛。有次有点严重，痛的很厉害，吞咽也有点困难。去市医院检查（市医院算是我们市最好的医院了），给我看病的医生也是牛B，给病人看病还把烟叼起，我说我颈椎痛，吞咽有点困难。他也不多看看，直接叫我去照胃镜。WTF？智障吗？我说我是颈椎痛啊，他说你不是吞咽困难吗，食道有问题。我没理他，直接去了另一家医院。那里的医生给我看了，说是颈椎变形有点压迫食道，所以才会吞咽困难，给我开了些药，教我了一些颈椎运动。过了一周吧，明显好转。有些医生啊，呵呵。 你以为公立医院的人不知道那个是医托，天天都是那些面孔在拉人，可是为什么不管，一是因为他们不会欠这几个患者，所以懒得理，二是他们知道开这些私人医院的在上面都是有关系的，报警也没什么用三，最主要一点，他们觉得这些患者的死活不关他们医院什么事，大不了出事了，就出来呼吁一下别相信医托。最后就是上面有朋友说了，现在这世道是法律缺失，道德沦丧 这种一步步坑你典型的莆田系医院 女主播恼了！ 衣脱还是其次,最可恨的是背后的黑心依愿及有利方. 又是姓陈的莆田人 应该是医院有罪吧，医托无非就是给你找了家医院，真正伤害患者的是医院！！！ 什么性教育跟不上，他们觉得戴套不爽 不管是谁的，至少她做了一件好事，不像你只会网上喷的键盘侠 有用地，至少有人接哦！然后就没有然后了。。。 问题的关键没几个人看明白:当地卫计委不知道？所以这个舆论导向很有问题。 难道又是莆田系？！ 主播被干了没带套？ 都曝光多少次了，為什麼還會有人相信醫托？ 医托比小偷还可恨，骗谁都不能骗病人的救命钱！ 你难道不也是键盘侠？ 见怪不怪了。国人没有道德已经60多年了 再说了，什么叫把她肚子搞大了的，没准儿还是她搞的人家呢！你讲话负点责任好不好 这究竟是什么国家？地狱简直 世间只有人心恶，万事还须天养人。 谁想流产，还不是性教育跟不上，人流广告倒是都知道 我见过的医生都没有你这种情况，因为我只去公立三甲医院 说实话医托真管不了现行法律根本没有对医托这种职业的相关条款医院能干嘛？ 一个20来岁的单身女青年去挂号准备流产，医托过去搭话，这么年轻如何如何，在这种医院做以后都会留个档案，某某医院又便宜又不会留档，对以后生活和事业还有婚检什么的都没有任何影响……你猜这女的会不会轻信？(PS：以上均为个人臆想，如与实际有任何雷同，纯属巧合) 操！判刑啊！！ 之前带女朋友去医院检查也遇到了这种医托，当时我再外面进去后看见女朋友跟一个4.50岁的女人聊着，我一听那老女人说他女儿也是来检查的，不过这里号排满了，建议我们一起去附近XX医院检查。我一听就不对劲，再想他女儿是做ji的吗？还对医院这么熟悉，天天带女儿过来看病。之后果断走人。 为了利益，都不择手段 人家是直播造人，还带套？ 魏则西白死了吗 啊哈哈墙都不扶就扶你 如果是食道长东西压迫到神经或别的部位引起的放射痛的话你就不会呵呵了 有解决的方法吗？没有就别发上来添堵了！ 我咋就没遇到这样的医生呢？以前有点感冒发烧，都去医院，可能运气不错？我们这小地方医院也不大，说实话，要是遇上那种啥都不说就让你做这个那个检查的，老子直接开骂，不服？等他小逼下班堵着揍残他。 用好避孕套，方便你我他<br><br>流产杀人，不犯法 浮躁的社会，中国社会现状就这样，没办法，你说该怎么管 莆田系医院真的很害人。所以大家要小心妇科男科医院。手术一半要求加钱加项，周边有朋友被骗过。国家真的该治理这些莆田系医院了 现象严重 神经病，我们上班要追剧的，或者打打牌，看看报纸，睡个觉，那有空管你们这些社会底层的屁事！ 医托还是判重罪吧！ 你是在胡扯，不懂装懂。医托只是呆在你医院，又没犯法，有病人来了，就过去搭讪跟他说一些话，也没犯法，你叫公立医院怎么管？私立医院如果胡乱诊断乱做手术，导致严重的后遗症，那就重罚，轻则吊销执照关闭医院，重则判刑，这才是解决问题的根本方法。司法部门不作为才是问题的根本原因。<br>另外说一句，在国外，私立医院比公立医院好。 咱们国家才不担心青少年怀孕，才不会管性教育，只会担心医院有没有钱赚，利润如何，婴儿奶粉都不管，还管什么青年 这两个医托还真是大美人，这么美完全可以去当主播呀。 两个医托简直是相声演员阿。。那么我想说这个女主播智商不够就算了，也长得丑了点吧，一点都不像21岁的，现在主播门槛那么低了吗 在中国，任何一个智力健全的人都不会去私立医院治病。 一个人去人流...那个把她肚子搞大的男人呢? 这种一步步坑你典型的莆田系医院 没事儿别流产。 直接拿刀把他们給剁了 我就看看不说话，不知道现在什么价位； 避孕产品的广告不让播，人流的广告满天飞 这种医托就是把患者骗到莆田系医院里去，做手术一半就要求加钱加项，很无奈的。跟男科专科医院一样，我有朋友就是被骗去了这些医院做手术，真的很害人，真心觉得国家该治理这些骗子医院 故意杀人罪 工作是用电脑的，用久了就会颈椎痛。有次有点严重，痛的很厉害，吞咽也有点困难。去市医院检查（市医院算是我们市最好的医院了），给我看病的医生也是牛B，给病人看病还把烟叼起，我说我颈椎痛，吞咽有点困难。他也不多看看，直接叫我去照胃镜。WTF？智障吗？我说我是颈椎痛啊，他说你不是吞咽困难吗，食道有问题。我没理他，直接去了另一家医院。那里的医生给我看了，说是颈椎变形有点压迫食道，所以才会吞咽困难，给我开了些药，教我了一些颈椎运动。过了一周吧，明显好转。有些医生啊，呵呵。 你以为公立医院的人不知道那个是医托，天天都是那些面孔在拉人，可是为什么不管，一是因为他们不会欠这几个患者，所以懒得理，二是他们知道开这些私人医院的在上面都是有关系的，报警也没什么用三，最主要一点，他们觉得这些患者的死活不关他们医院什么事，大不了出事了，就出来呼吁一下别相信医托。最后就是上面有朋友说了，现在这世道是法律缺失，道德沦丧 女主播的孩子是黄鳝的吗？ 有关部门某负责人跑到哪里去了？ 衣脱还是其次,最可恨的是背后的黑心依愿及有利方. 难道又是莆田系？！ 应该是医院有罪吧，医托无非就是给你找了家医院，真正伤害患者的是医院！！！ 奇怪，专业骗子也会被骗？还是这么低级的骗 主播、医托都是同行，以忽悠，骗为手段，目的都是捞钱！ 什么性教育跟不上，他们觉得戴套不爽 绝望了就把医院给他端了，里面除了患者基本上就没什么好人了。 不管是谁的，至少她做了一件好事，不像你只会网上喷的键盘侠 有用地，至少有人接哦！然后就没有然后了。。。 我就想知道，打那个监督电话到底有没有用？！ 问题的关键没几个人看明白:当地卫计委不知道？所以这个舆论导向很有问题。 有身份证就能直播啊。我也当过后来别人发现我的JJ比他大就把我权限下了 又是姓陈的莆田人 二楼就是女主播的亲生儿子。 都曝光多少次了，為什麼還會有人相信醫托？ 就应该把没底线的医院关了 主播被干了没带套？ 朋友,当心祸从口出. 额(⊙o⊙)…不是说不危及生命的不能做人流了么？ 医托比小偷还可恨，骗谁都不能骗病人的救命钱！ 东华妥妥的 信息量挺大 再说了，什么叫把她肚子搞大了的，没准儿还是她搞的人家呢！你讲话负点责任好不好 世间只有人心恶，万事还须天养人。 21岁就去人流了啊！ 医托固然该死，但为啥去找便宜的，为啥不去正规医院做人流自己心里煤电避暑？ 戴了给整漏啦 你看新闻了？是傻逼吗？患者是图便宜去的？脑子是个好东西，希望你也有。 找不到人，不知道是谁的[大哭] 女主播的孩子是黄鳝的吗？ 女主播恼了！ 彭丽被两名女子诱导至长沙长海医院做了人流手术，你不是傻逼，你特么告诉我不是图便宜拿什么诱导？ 这究竟是什么国家？地狱简直 医托是没道德的，但是仔细想想，为什么有人被医托骗？还不是贪便宜。说去别的医院就能便宜些就去？连命都不要了还惦记着钱多钱少。看看被骗的是什么人，做人流的20多岁姑娘们。一个是图省钱。二个是去私人医院不会在记录里留档。看病去公立医院这种常识都不知道还比谁便宜能怪谁？？？？？？？？苍蝇不叮无缝蛋。这个道理不知道么。 网红也有正能量的。但是，可能国家下一步要封锁直播平台了。 彭丽被两名女子诱导至长沙长海医院做了人流手术，你不是傻逼，你特么告诉我不是图便宜拿什么诱导？你有脑子，主播是你妈还是你爹 彭丽(化名) 不管是谁的，至少她做了一件好事，不像你只会网上喷的键盘侠 草拟吗 法律缺失，道德沦丧…… 你难道不也是键盘侠？ 医托还是严惩吧 医托还存在呢？到底是谁在纵容？ 丛林 活该 把雇佣依托的医院关了 记者不仅拿下网红，有了孩子，还挖到了新闻！一石三鸟 都是造孽。 不知道险恶吧 见怪不怪了。国人没有道德已经60多年了 主播被干了没带套？ 一个人去人流...那个把她肚子搞大的男人呢? 哈哈😄，这女的也是无敌了，不说自己的逼不值钱，还怪人家医院骗你！你挨球的时候为什么不带套，就算不带套，你为什么不吃避孕药， 坑蒙拐骗必天谴,断子绝孙遗千年 现在的医托真的是无孔不入 ",
        "Reply": 88,
        "Link": "http://comment.news.163.com/news2_bbs/D6NQLHBH0001899N.html"
    },
    "PublishTime": "12/28/201707:52:50",
    "URL": "http://news.163.com/17/1228/07/D6NQLHBH0001899N.html"
}