{
    "Comment": {
        "Total": 4572,
        "Reply": 217,
        "Link": "http://comment.news.163.com/news_guoji2_bbs/D75H8O6J0001875O.html",
        "Content": "果然教育过的頂你 我们的北海 我擦！永久？我瞎 看来这帮人到哪都不受欢迎 说中国有错吗， 什么叫甚至中国导游说贝加尔湖曾经是中国的，本宝宝直接告诉你，就是曾经是中国的。咋滴！要不是沙俄趁机签订不平等条约，到现在都是中国的。咋滴！ 坏了，赶紧看看我在哪里有没有房产。 说的直白就是孬种，太恶心了 鲲鹏展翅地，苏武牧羊土。 好好保护好，别给我们嚯嚯了… 这个傻逼，贝加尔湖跟满族有什么关系，是匈奴女真的发源地 俄罗斯应该归还中国的土地，比如海参崴 那匈奴，女真去哪里了？满族就是女真的后裔。反正不是汉人的居住地，汉人地没法种是不要的。 快醒醒吧！别做扩张梦了！当年苏武分明是“使节”呀！“使节”你懂吗？ 不是中国的，我们只有70年！ 说地的时候说是一家人地域的时候又是另一种结论我真搞不懂可爱的易友们了 等你把房子建好了，当地政府出来收房子了，俄毛的本性难移。 女真与和族的发源地！ 本来是中国的土地！现在被强盗占有！竟然还宣传说是强盗的地方！ 我们现在真正的传统文化没剩多少了，打着传统文化的旗号忽悠人的却大有人在。 万一普京突然一天说每亩十元回购？怎么办？不信就试试，普京还有啥干不出来的。 以前确实是中国的，叫捕鱼儿海 买个毛，以后拿回来就是了…… 每月还贷3000，住着我的产权40年公寓，美滋滋！😁 卖国贼都是这么想的… 我的天，我一直以为贝加尔是中国的！哈哈哈哈 满族人不是中国人吗 贝加尔湖本来就是中国，自古就是华夏的地盘，只是近代被晚清政府给卖了 一楼这种傻逼怎么没见俄罗斯人说阿拉斯加是他们的，墨西哥人说加利福尼亚新墨西哥是他们的，德国人说欧洲是他们的，英国人说全世界都是他们的啊 这就像强盗抢别人东西，失主一靠近被抢的东西，强盗就开始紧张了一样。 二楼无知。满族祖居地只不过吉林、宁一部分。贝加尔湖附近，唐朝就打下来了；元朝更不用讲 别说这话，明朝以前北京就是边疆了 中华的牛逼不是武力侵略，而是同化。<br>用我们强大的文化特性来同化全世界各个种族和肤色，不出百年世界都是大中华的！<br>现在已经开始了。 骨子里，俄罗斯并不希望中国的繁荣富强！ 被奴役习惯了，还童话呢 俄远东19州2017年人口比1995年少了60%，全跑回 楼猪SB。纯的。 普京：现在缺钱，不缺钱了就由不得他们了 那是你的地方吗，是满族人的。 呵呵，你来告诉我X国有哪些文化，端午？韩国抢注了，古烟花？最后一个古烟花传人已经决定不再做了，唐诗宋词？基本没人会做了，铸剑？那是管制刀具，就连汉服穿到街上都会被人行注目礼，你跟我讲X过文化？？？？哈哈哈哈哈 本来就是中国的 我只关心永久 刚伐了你们几棵树就破坏生态了，至于么？小题大做，我们把自己都快挖空了都没说什么，真没见识。 大惊小怪，这么冷的地方请我去还不高兴去呢！[鄙视] 尼玛，本来就是咱们地方还要花钱买，真觉得悲哀 海参威 本来也是中国的啊 拿回来就不用买啦？ 曾经拥有 二楼说对了 蒙古国还说自古中国就是蒙古的呢 很对！打死那些开发商 中华的牛逼不是武力侵略，而是同化。<br>用我们强大的文化特性来同化全世界各个种族和肤色，不出百年世界都是大中华的！<br>现在已经开始了。 对， 果然是湾湾的顶你 楼上有点道理。人类进化论说人类起源于非洲。 楼上蠢货，每一次世界大战后都疯狂的瓜分领土，强者为王，历史的边界是不断书写的。 这可是一个不错的选择，环境真棒，还有永久产权房。 好美，净土 前段时间和俄罗斯外教聊到贝加尔湖，她说她并不知道以前贝加尔以前是谁的，但她知道现在是俄罗斯的 花钱买房子去囚犯流放的地方？ 他们爷爷的爷爷是强道，他们的爷爷是强道，至今，他们还是强道嘴脸。 苏武牧羊地没错，可是苏武并非在汉地牧羊啊 伟大力量在民间！曾经被政府割让的土地，让咱们民众买回来！ 贝加尔湖本来就是中国的，大家要把中国精神发扬光大，上有政策，下有对策。十年以后贝加尔湖就回到中国的怀抱了。 现在还有啥传统文化了？有多少年轻人愿意继承传统文化？我倒觉得弯弯那传统文化意味比这边更重点 满族人不是中国人吗？ 楼猪SB。纯的。 不用买，买不起了，而且还不是终生 是的 果然教育过的頂你 岳飞是民族英雄吗？ 是被它们抢了，不是卖了 贝加尔，源自蒙古语，是自然湖的意思。 鲲鹏展翅地，苏武牧羊土。 是的，同化五胡，同化蒙古，同化鞑子 没有毛病 本来就是中国的 收复失地，实现伟大复兴！ 我们现在真正的传统文化没剩多少了，打着传统文化的旗号忽悠人的却大有人在。 万一普京突然一天说每亩十元回购？怎么办？不信就试试，普京还有啥干不出来的。 买个毛，以后拿回来就是了…… 要求撤销清政府、建国初期所有不平等条约 拿回来你还买得起吗？买的起了也不会让你世袭啊！ 什么?山海关外自古是华夏的吗? 希望国人到了那也能保护好那的环境。 那是你的地方吗，是满族人的。 贝加尔湖本来就是中国，自古就是华夏的地盘，只是近代被晚清政府给卖了 呵呵，苏武牧羊在北国，在异邦。 看来中国以前丢的领土，要慢慢的买回来啊。还是咱国家聪明，防止别人蚕食所以产权有年限。 地产同化？ 可是我们开始穿西装，开始过圣诞节了 说来说去还得感谢大清。 看拳头谁的硬。 非洲人还说全世界都是儿孙 因为只有湾湾的地图才可以配得上是中国地图，因为只有蒋公才配的上是千古，因为只有蒋公才没有让过一寸土地，因为只有湾湾的地图到现在都是枫叶而不是你现在的母鸡 卧槽，通篇文章也没说最重要的价格，我都动心了 不是民国政府背锅算好了。 果然教育过的頂你 宇宙都是我们的！我们老祖宗盘古开的天地、古书上可清清楚楚写着呢。 说的直白就是孬种，太恶心了 现在是谁的就是谁的，如果非要往前倒谁的都不是，归单细胞 不花一兵一卒，把人家地盘慢慢的吸收过来 科科，真不要脸 用华为的真脑残。 宇宙都是我们的！我们老祖宗盘古开的天地、古书上可清清楚楚写着呢。 这个傻逼，贝加尔湖跟满族有什么关系，是匈奴女真的发源地 蒙古国还说自古中国就是蒙古的呢 不是中国的，我们只有70年！ 中华的牛逼不是武力侵略，而是同化。<br>用我们强大的文化特性来同化全世界各个种族和肤色，不出百年世界都是大中华的！<br>现在已经开始了。 二楼你是傻逼吗？ 还是不要拿回来了，不然还不知道污染成什么鸟样。 以前确实是中国的，叫捕鱼儿海 当然有错，首先是女真人的，后来女真人卖给罗刹人了，新中国也认了，现在凭啥说是中国的？ 说中国有错吗， 宇宙都是我们的！我们老祖宗盘古开的天地、古书上可清清楚楚写着呢。 当年的越南，韩国，朝鲜，蒙古全是中国的，那又怎么样，管得住吗 一楼这种傻逼怎么没见俄罗斯人说阿拉斯加是他们的，墨西哥人说加利福尼亚新墨西哥是他们的，德国人说欧洲是他们的，英国人说全世界都是他们的啊 去这些不讲法制的国家投资，还不如去我们新、西、兰，祝你们好运吧。 贝加尔湖中国古称北海，曾为中国北方部族主要活动地区，清朝曾短期控制该地，《尼布楚条约》后，将这块地区划归俄罗斯帝国。贝加尔湖地区是伊尔库次克少数民族聚居地，其中以蒙古族的支系布力亚特人口居多。 俄国会越来越缺钱的，不但缺钱，还会缺人。西伯利亚早晚会是中国的。 晚清的遗老遗少，现在还管控天下的言论 满族人不是中国人吗 拿回来了就不用买了？拿回来价高还只有70年你信不信 骨子里，俄罗斯并不希望中国的繁荣富强！ 贝加尔的历史很简单确实是俄国人近代数百年来一直垦荒发展出来的 匈奴人是夏民北逸所建国之后裔，后传是鲜卑、柔然、蒙古，满族是黑水靺鞨后裔 捕鱼儿海指的是呼伦贝尔的贝尔湖，位于其西北方的鄂嫩河是成吉思汗的发迹地 宇宙都是我们的！我们老祖宗盘古开的天地、古书上可清清楚楚写着呢。 阿q精神放光芒 匈奴人是夏民北逸所建国之后裔，后传是鲜卑、柔然、蒙古，是他们控制贝加尔湖地区等地区，满族是黑水靺鞨后裔，他们主要位于乌苏里江、松花江地区域。 那现在有能力把它买回来而不是打回来也不错啊。 华夏？你们去看华夏地图吧就知道是不是中国的了 说地的时候说是一家人搞地域的时候又是另一种结论我真搞不懂可爱的易友们了 真有不要脸的。。。贝加尔湖从没属于中国古代朝代。。汉代时贝加尔湖是匈奴人的地盘后来是鲜卑人突厥人蒙古人。。。。。 本来就是中国的 贝加尔湖本来就是中国，自古就是华夏的地盘，只是近代被晚清政府给卖了 买个毛，以后拿回来就是了…… 该杀的东西到处得瑟买楼 去拿回来啊。本来的东西多了去了。 走哪都不遵守规矩，破坏规则，破坏环境，真是让人讨厌。 普京：现在缺钱，不缺钱了就由不得他们了 满族不是中国五十六个民族之一吗？ 英国人还说自古全世界都是日不落帝国的 那是你的地方吗，是满族人的。 吃着中国人的赚着中国人的还TM嫌弃中国人真TM无耻！ 人家都说，只是你没看到。凡是祖上阔过的，对比今夕，都会意淫。 新加坡、西班牙和兰州? 德国：要不是被猪队友拖后腿现在这些地方都是我的 贝加尔湖是中国的 怪不得俄罗斯穷，发展旅游业都不让。 狗屁满族人的,就是汉人的,在汉朝的版图上叫北海. 说地的时候说是一家人地域的时候又是另一种结论我真搞不懂可爱的易友们了 满族人不是中国人吗 莫斯科也是你家的。 我华夏大地的地盘还真大 蒙古人说：都是我们的 就怕同化了包头人 本来是中国的土地！现在被强盗占有！竟然还宣传说是强盗的地方！ 不是，是鞑子。 麻痹的，我今晚看新文连播信心满满的，你这不是打脸吧 这次怎么不自古以来了？ 等你把房子建好了，当地政府出来收房子了，俄毛的本性难移。 女真与和族的发源地！ 可以想像如果不管的话，这些土豪能把一个洁净优美的地方祸害成什么样，所以在这事上支持当地居民！ 蒙古人还分一半出去，满人还只能在这里了 你这是野蛮抢劫，它们文明的做法是先把修房子的中国人活埋了，然后因为找不到房子的所有者，应老百姓的要求没收 说中国有错吗， 贝加尔湖本来就是中国，自古就是华夏的地盘，只是近代被晚清政府给卖了 一楼这种傻逼怎么没见俄罗斯人说阿拉斯加是他们的，墨西哥人说加利福尼亚新墨西哥是他们的，德国人说欧洲是他们的，英国人说全世界都是他们的啊 满足个屁苏武霍去病都去过那时候中国东北还没有满族呢还是原始人呢 宇宙都是我们的！我们老祖宗盘古开的天地、古书上可清清楚楚写着呢。 可以想像如果不管的话，这些土豪能把一个洁净优美的地方祸害成什么样，所以在这事上支持当地居民！ 你TM脑子什么时候坏掉的？ 一楼也有一楼的难处，叫我怎么表达嘛 俄远东19州2017年人口比1995年少了60%，全跑回 看来俄国人真没有什么商业头脑，前苏联在经济上输给欧美不奇怪，环保问题是很重要，但完全可以用法律来约束。。 成吉思汗只要是民族英雄，那就是咱的 古女真，金女真与建安满族是一回事，匈奴确实世居与此而日本人的后贝加尔湖起源说也有大量文献与文物；三者在时空中的关系有待考证 果然教育过的頂你 俄国真的是有机会不会把握，你这样会一直穷下去。先把济经发展起了，在投资各种工业、社会上多鼓动生育孩子，没有人你经济动力能有多大，本身俄国就没有什么特别先进的赚钱产业，在加上各国的封锁，你这样下去，不挎掉就会爆发。多搞开发，多赚钱，多投资，多生育（合理的搞）。虽说山青水秀好，但你不用有什么用，那也是一样浪费，重要的是你要搞开发建设啊，没钱你怎么建。没有钱自己的特长重工业也会受影响，这是一盘全盘战略游戏，搞好权衡。 苏武是在匈奴牧羊 我的天，我一直以为贝加尔是中国的！哈哈哈哈 不对不对，这里要杀光满足人的可多得是 你这不是变相说，满族人不是中国人吗？ 哈哈，满世界买地买楼，外汇危矣！ 可以想像如果不管的话，这些土豪能把一个洁净优美的地方祸害成什么样，所以在这事上支持当地居民！ 在国内你可以随便拿房子吗？ 鲲鹏展翅地，苏武牧羊土。 中国和种族不是同一个概念，你答非所问了。 很好，中国很快就把全球土地都买了 不用慌张，他们盖了楼也不会住的，他们的目的是炒房，真有傻子买了才怪呢，你没看见都是卖的吗？ 看来俄国人很穷！他们本可以自己盖房办旅社出租给中国人嘛！ 蒙古人的 可以想像如果不管的话，这些土豪能把一个洁净优美的地方祸害成什么样，所以在这事上支持当地居民！ 女真就是满族还骂别人，真的脑瘫 买个毛，以后拿回来就是了…… 和族是啥族？哪个朝代的？ 这个傻逼，贝加尔湖跟满族有什么关系，是匈奴女真的发源地 每月还贷3000，住着我的产权40年公寓，美滋滋！😁 满族人不是中国人吗 俄国人就是恶心哪本来就是我们的从我们手里强走的我们用睁大光明的买怎么了 那是你的地方吗，是满族人的。 可以想像如果不管的话，这些土豪能把一个洁净优美的地方祸害成什么样，所以在这事上支持当地居民！ 中华的牛逼不是武力侵略，而是同化。<br>用我们强大的文化特性来同化全世界各个种族和肤色，不出百年世界都是大中华的！<br>现在已经开始了。 等于说是蒙古的。 你们不是说满族是侵略者,是殖民者吗? 本来就是中国的 环球屎报怎么发这种会引起大家攻击俄罗斯的新闻了？还是想让中国人对俄罗斯有愧疚偿还心态？ 普京应该限购！ 把俄罗斯房价炒起来！ 又要被割了… 俄罗斯应该归还中国的土地，比如海参崴 尼玛本来是我们的地！ 就是中国的 满族不是灭族了么？文字呢？语言呢？ 房地产征服大计？哈哈。人家要是耍赖，没收你就得了 我<br>靠<br>！<br>满人真不行！<br>老是丢土地 草泥马，那是我们中国人的地方 被奴役习惯了，还童话呢 鹅毛变吊毛 文明社会，从理性发贴开始。谢绝地域攻击。 抢了我们东西不还我们花钱买还都不行！说的我好像有钱买似的 元朝疆域里的领土都是我们不可分割的一部分包括四大汗国 这就是我们的高明之处，我不知道用英文俄文怎么写，反正汉语是贝加尔，贝乃钱币也，加饵，是诱饵的意思，就是说用金钱做诱饵，一句话，买呗！说得不好，千万别喷 我们的“北海”到鼓楼站下车就到！ 呵呵，你来告诉我X国有哪些文化，端午？韩国抢注了，古烟花？最后一个古烟花传人已经决定不再做了，唐诗宋词？基本没人会做了，铸剑？那是管制刀具，就连汉服穿到街上都会被人行注目礼，你跟我讲X过文化？？？？哈哈哈哈哈 心理承受力欠佳。 不能占着茅坑不拉屎，资源共享嘛 满族不是中国的？ 要不限制一下每年接待的旅游人数，或者出些对当地民生和环境还有经营相关的规定。如果风光不再，安静也没有了那就相当于特点消失了~ 鲲鹏展翅地，苏武牧羊土。 宇宙的探索是离不开我的话的，只有把围绕地球公转的一切物质包括气体计算在地球体积之内才能找到地球真正的边和角，那是反引力汇聚地，是真正的真空隧道，宇宙高速路，太阳系内的动脉!把围绕太阳公转的一切物质包括气体计算在太阳体积之内才能找到恒星与恒星的边和角，那是恒星与恒星之间的真空高速隧道，找到真空隧道以近光速超光速飞行那不是个事!宇宙飞行器也不能按照飞机的二维结构原理制造，飞机是不能高速自转的，但只有高速自转才能产生真空电磁场，以近光速飞行，未来的宇宙飞行器必须按地球原理制造，八层以上结构，你看地球高速自转着前进，我们人坐在地球上有啥不适感觉吗？ 西游记看了几十遍，一直不知道北海龙王住哪里的 快醒醒吧！别做扩张梦了！当年苏武分明是“使节”呀！“使节”你懂吗？ 利斯特维扬卡这个地方确实不错 本来就是中国的 我只想知道房价怎样 广西人，你别搞混了！你们过去称“北海”的现在叫“北部湾”了！ 卖国贼都是这么想的… 那你是钓鱼岛人么？你是藏南人么？你是兴安岭人么？你是外蒙人么？ 那他们也得钱了啊，又不是白送 真羡慕你们这些人说的本来就是中国的说的像自己的一样 中华的牛逼不是武力侵略，而是同化。<br>用我们强大的文化特性来同化全世界各个种族和肤色，不出百年世界都是大中华的！<br>现在已经开始了。 二楼无知。满族祖居地只不过吉林、宁一部分。贝加尔湖附近，唐朝就打下来了；元朝更不用讲 这就像强盗抢别人东西，失主一靠近被抢的东西，强盗就开始紧张了一样。 呵呵 跟贴被火星网友带走啦~ 你以后就呆在家里，不，你家也是属于国家的，也不是你的 国内买不起啊！ 好了好了，二号病人，该吃药了 我们的北海 把俄罗斯房价也炒起来！ 对，匈牙利自古以来也是我国不可分割的一部分 那是你的地方吗，是满族人的。 小编，那个城堡确定不是瑞士西庸城堡？稿费拿的太容易了。。。 我擦！永久？我瞎 看来这帮人到哪都不受欢迎 坏了，赶紧看看我在哪里有没有房产。 什么叫甚至中国导游说贝加尔湖曾经是中国的，本宝宝直接告诉你，就是曾经是中国的。咋滴！要不是沙俄趁机签订不平等条约，到现在都是中国的。咋滴！ 普京：你们真特么的猪队友啊！让他们买让他们建等建成了我不还是一句话的事情不就成咱们的了！ 好好保护好，别给我们嚯嚯了… 永久产权我去 幸亏一直在人家那边！ 中国人要买下世界看来真不是一句玩笑话儿了 女真与和族的发源地！ 收回来就好了 把失去的土地买回来！ 中华的牛逼不是武力侵略，而是同化。<br>用我们强大的文化特性来同化全世界各个种族和肤色，不出百年世界都是大中华的！<br>现在已经开始了。 一个电影让小丑鱼遭殃，一首歌曲又影响了一个自然景观，唉，说什么好呢，能不能少些欲望 到哪里就污染到哪里 了解了 中国的牛逼不是武力侵略，而是同化。<br>用我们强大的文化特性来同化全世界各个种族和肤色，不出百年世界都是中国的！<br>现在已经开始了。 mc 他们有人要走邪路？ 卧槽😱早知道就买去了现在做实业已经倒闭了欠一屁股债 哈哈哈你这傻逼挺逗的 不是你们汉人的 本来就是共和国的 迟早都是70年产权··是不是老大哥·· 中国的 苏武放羊的地方 本来就是中国的 "
    },
    "Title": "贝加尔湖畔居民给普京写信:别再让中国人买地建楼_网易新闻",
    "KeyWords": "普京,贝加尔湖畔,中国,俄罗斯",
    "Article": "（原标题：贝加尔湖畔小镇居民给普京写信：别再让中国人买地建楼）“俄民众请愿制止中国在贝加尔湖地区的扩张”，俄罗斯《莫斯科共青团员报》2017年12月31日报道称，俄罗斯部分民众近日发起一项请愿，要求政府禁止中国人在贝加尔湖地区买地建楼，目前已有5.4万人签名。俄民众此前还曾就中企在贝加尔湖取水发起过请愿。一名曾在贝加尔湖从事旅游业的人士1日接受环环采访时表示，游客潮给贝加尔湖的旅游业带来一些乱象，在当地引起一些不满情绪，而且西伯利亚人口稀少，大量外国人到来给一些人带来心理冲击。不过该人士同时说，当地人整体上对待游客比较友好。利斯特维扬卡小镇。来源：国际在线据《莫斯科共青团员报》报道，该请愿由贝加尔湖畔的旅游镇利斯特维扬卡的民众发起，这封写给总统普京的请愿信称，利斯特维扬卡镇10%的土地已归中国人所有，再过5至10年，该镇或将变成一个“中国省份”。现在整个镇都张贴着中文和韩文商品广告，中国导游甚至称，贝加尔湖曾是中国的。该请愿要求政府制止中国人在贝加尔湖地区买地建楼。《莫斯科共青团员报》的另一篇报道说，反对中国人购地的利斯特维扬卡镇居民克拉夫克利表示，该镇最好地段的不动产，特别是靠近湖边的房屋往往被中国人买走，中国人给出的价格远高于俄罗斯买家。贝加尔湖畔城镇中的中文广告《莫斯科共青团员报》称，2017年9月起，利斯特维扬卡镇居民向地区政府和议会反映，希望解决贝加尔湖畔旅游设施建设造成生态破坏的问题。一座建筑离贝加尔湖面不到15米，产生的污水或直接排入湖中，这一问题引起俄罗斯官方重视，经过调查，发现这一地块的所有人是俄公民，而“背后”拥有者是中国人。后来，伊尔库茨克州检察院将两处在利斯特维扬卡镇的中国建筑鉴定为非法。此后，当地民众的抗议仍在持续，一些人认为，不少中国人在当地购买“个人居住用地”，过后却把地块用来建设旅馆等商用设施。据“西伯利亚新闻”网站报道，利斯特维扬卡镇所在的伊尔库茨克州州长列夫琴科宣布，已建立联合工作组，将于2018年1月开始彻查中国公民在贝加尔湖畔非法用地问题。列夫琴科表示，联邦法律并没有禁止买卖利斯特维扬卡镇土地，但当地政府需要采取措施遏止这一趋势。根据该网站报道，伊尔库茨克州共有20处有外资背景的旅游基础设施项目。中文卖房信息俄罗斯“otr在线”网称，俄国家杜马议员、“贝加尔湖”党派间工作小组主席谢尔盖·坚呼吁，鉴于未来可能有多达百万的中国游客前往贝加尔湖，俄官方应更严格地控制中国人前往该地区，并制止中国人大量购买当地土地的行为，“拥有近14亿人口的中国就在我们旁边，应对此做出某些反应”。谢尔盖·坚同时认为，利斯特维扬卡镇发生的情况显而易见，但没有必要因此恐慌。对俄罗斯来说，中国是东方伙伴，俄中两国有许多合作项目。不过，一些中国商人违反俄法律的行为必须制止。在贝加尔湖地区，导游和司机等都是中国人，这也不对，应当由俄罗斯人从事这些工作。贝加尔湖风光一名曾在贝加尔湖从事旅游业并曾在利斯特维扬卡镇长期居住的人士告诉环环，贝加尔湖近年来吸引了越来越多的中国人前往，每年旅游旺季时，小镇上的中国游客“显得比当地居民还多”。2016年他返回中国时，利斯特维扬卡镇的酒店很少。该人士说，旅游业的兴旺引起市场上，尤其是中国旅游机构之间的无序竞争，而且喜好安静的俄当地人对纷至沓来的喧嚣不太容易接受。中国是俄罗斯主要的外国游客来源国，俄卫星新闻网称，莫斯科体育和旅游局第一副局长孔达兰采夫1日表示，预计元旦期间莫斯科接待的外国游客中，大部分是来自中国的游客。常驻俄罗斯的资深媒体人汪嘉波对环环表示，贝加尔湖旅游镇的请愿是个别现象，俄整体对中国游客持欢迎态度。但面对中国游客增长，俄方存在接待能力没跟上、酒店不足的情况。而中国一些小公司经营赴俄旅游时，也存在不规范之举。汪嘉波表示，俄罗斯人一向非常注重保护自然资源，利斯特维扬卡镇居民请愿，其中一个原因正是出于环保。他们未必是针对中国人或中国游客，可能是想以此表达对当地政府管理和旅游乱象的不满。本文来源：环球网责任编辑：范姜国一_NN9138",
    "URL": "http://news.163.com/18/0102/15/D75H8O6J0001875O.html",
    "PublishTime": "01/02/201815:37:56",
    "Source": "Netease"
}