{
    "URL": "http://news.163.com/17/1227/15/D6M2C5RM0001899N.html",
    "Comment": {
        "Total": 8,
        "Reply": 5,
        "Link": "http://comment.news.163.com/news2_bbs/D6M2C5RM0001899N.html",
        "Content": "邪恶者必受审判和刑罚，一个也逃不掉! 向伊朗地震灾区百姓表示慰问！愿逝者安息，伤者早日康复。祈福平安，重振家园。 [可怜][可怜][可怜][可怜] 拍摄过程中发生地震,好在我们今天在洱源,没什么影响.感谢致电慰问的诸位,为地震灾民们祈祷! 邪恶者必受审判和刑罚，一个也逃不掉! 流星月亮地球太阳系有发动机么？没有!他们却高速在宇宙中运行!为什么？因为他们的运行轨道本身就是太空高速时空隧道!他们的运行路线一半为去路一半为来路，周而复始地运行着!地球自转公转着，本就没有东西南北上下左右等方位!谁定的？我们的天父啊!目的只有一个，告诉人类我们天父的星座方位!所以九曲桥的方向始终对着东北方!在宇宙一切物质中，永远是子体围绕母体运动，这是恒定的!所以地球自转并围绕太阳公转!因地球是自转公转的，所以根据地球的东西南北是找不到星外文明的星座方位的!只有找到太阳的上下前后东西南北才能准确地给天父星座方位定位!我们天父星座方位在太阳系东北上方第九颗恒星那里!那里以双伴恒星为中心带动周围108颗恒星运动着! 向伊朗地震灾区百姓表示慰问！愿逝者安息，伤者早日康复。祈福平安，重振家园。 "
    },
    "Article": "（原标题：伊朗北部发生4.2级地震致1人死50多人伤）海外网12月27日电据今日俄罗斯报道，伊朗北部发生4.2级地震，造成1人死亡，50多人受伤。本文来源：海外网责任编辑：张海桐_NN9053",
    "KeyWords": "地震,伊朗,俄罗斯",
    "Source": "Netease",
    "Title": "伊朗北部发生4.2级地震 造成1人死亡50多人受伤_网易新闻",
    "PublishTime": "12/27/201715:29:03"
}