{
    "Title": "皇马欲签巴萨小将小布斯克茨 红蓝军会放人吗?_网易体育",
    "PublishTime": "01/01/201811:04:18",
    "URL": "http://sports.163.com/18/0101/11/D72F700C00058781.html",
    "Source": "Netease",
    "KeyWords": "布斯克茨,巴萨,皇马,红蓝军",
    "Comment": {
        "Reply": 14,
        "Content": "现在的新闻全靠编20岁的小将离开巴萨加盟皇马他有这么强大的心理承受能力吗 记住，不给某人喂饼就是坐板凳！ 还有365天就要跨年了，回想起去年跨年，仿佛就在昨天，在这里提前祝各位球迷朋友2019新年快乐！​​​ 问题，打都没打出来，他去皇马做啥？巴萨中场确认都竞争不过，皇马中场一大票当打之年顶级中场在，他除非和巴萨有仇，否则绝对不会跑皇马去看一个和自己风格还不搭边的饮水机！在巴萨看饮水机至少从小就熟悉巴萨风格！ 现在的新闻全靠编20岁的小将离开巴萨加盟皇马他有这么强大的心理承受能力吗 Uefamadrid 记住，不给某人回扣就是坐板凳！（10倍溢价再差也自然好） 记住，不给某人喂饼就是坐板凳！ 还有365天就要跨年了，回想起去年跨年，仿佛就在昨天，在这里提前祝各位球迷朋友2019新年快乐！​​​ 问题，打都没打出来，他去皇马做啥？巴萨中场确认都竞争不过，皇马中场一大票当打之年顶级中场在，他除非和巴萨有仇，否则绝对不会跑皇马去看一个和自己风格还不搭边的饮水机！在巴萨看饮水机至少从小就熟悉巴萨风格！ 这种新闻也是够可爱的，小编，你这工作怎么来的！我也想来，太简单了 在足球领域没有绝对的!皇马巴萨踢得是不同风格! 只有进入18人名单，坐在替补席上，才有资格看饮水机；像这种客场没资格出征，主场坐观众席看球的球员，怎么看饮水机？ 记住，不给某人回扣就是坐板凳！（10倍溢价再差也自然好） 这小伙有点像贝克汉姆啊 自由球员,不需要巴萨同意 现在小编真好当。 我就是个傻逼，整天就知道看新闻，尤其是体育新闻 ",
        "Total": 185,
        "Link": "http://comment.sports.163.com/sports2_bbs/D72F700C00058781.html"
    },
    "Article": "根据《阿斯报》的消息，皇马希望签下巴萨的小将奥里奥尔-布斯克茨。奥里奥尔-布斯克茨和巴萨一线队的中场大将布斯克茨没有亲属关系，小布斯克茨的合同将于明夏到期，而他本人还没有和巴萨完成续约。这意味着小布斯克茨对转会皇马的大门保持敞开状态，《阿斯报》表示皇马方面仍在挖掘西班牙本土的年轻球员。小布斯克茨即将年满20周岁，他是西班牙U19的国脚。在国王杯对阵穆尔西亚的比赛中，小布斯克茨完成了代表巴萨一线队的首秀。然而，这也是他代表巴萨一线队的唯一一次亮相，由于巴萨对他的续约事宜保持很冷静的状态，还有几支西甲和英超球队对小布斯克茨很感兴趣。本文来源：肆客足球App责任编辑：刘頔_NS4812"
}