{
    "Title": "不容易!诺伊尔终于扔掉拐杖了 双手抱头表情轻松_网易体育",
    "PublishTime": "01/01/201810:48:17",
    "URL": "http://sports.163.com/18/0101/10/D72E9LK400058781.html",
    "Source": "Netease",
    "KeyWords": "诺伊尔,拜仁",
    "Comment": {
        "Reply": 31,
        "Content": "然而连续四年被西甲三强轮 纳粹鬼子 举手狂魔，别人一进球就举手。可怜兰帕德的进球，他捞出来就往外踢。 这种二楼就和智障一样，人家说球员，你说球队。意大利世界杯都进不去，照你的理论，布冯岂不是个辣鸡 特尔施特根看完新闻扔掉了手中的手机 二楼本来就是智障。 海因克斯：冬窗即将开启欢迎土豪报价 健康的小新独一档，单手挡出c罗三米的劲射，单手压住罗伊斯的贴地死角球，这些真的只有在足球小将里才能看到 有时觉得，真对不起乌尔赖希。 还有365天就要跨年了，回想起去年跨年，仿佛就在昨天，在这里提前祝各位球迷朋友2019新年快乐！​​​ 拜仁还有他的位置吗 别开玩笑了，世界第一门将没人要？ 直接变中后卫实现个人梦想 前锋，后腰，总有小新的位置[窃笑][窃笑] 那么是门将的原因吗？ 目前世界第一门将德赫亚还有争议吗？没有德赫亚曼联第三肯定保不住 举手狂魔，别人一进球就举手。可怜兰帕德的进球，他捞出来就往外踢。 前锋位置已经虚位已待[微笑] 又不是他一个人的锅 然而连续四年被西甲三强轮 不抱头容易 健康的小新独一档，单手挡出c罗三米的劲射，单手压住罗伊斯的贴地死角球，这些真的只有在足球小将里才能看到 怪他咯 有时觉得，真对不起乌尔赖希。 拜仁还有他的位置吗 一个门将为啥伤的这么重 别开玩笑了，世界第一门将没人要？ 前锋，后腰，总有小新的位置[窃笑][窃笑] 那么是门将的原因吗？ 目前世界第一门将德赫亚还有争议吗？没有德赫亚曼联第三肯定保不住 纳粹鬼子 希望尽快回到之前的竞技水平。。德国需要你 德国首发已被抢走 愿早日康复 特尔施特根看完新闻扔掉了手中的手机 卧槽，猝不及防啊 七喜 去年就没什么太大的争议，一直觉得德赫亚是世界第一门将了。 一般重伤要恢复状态很难很难，以前多少被重伤毁了的一流 守门的不是诺伊尔？ 还有365天就要跨年了，回想起去年跨年，仿佛就在昨天，在这里提前祝各位球迷朋友2019新年快乐！​​​ 拄着拐杖的诺伊尔都比大红军那两个门将看着靠谱 海因克斯：冬窗即将开启欢迎土豪报价 二楼本来就是智障。 ",
        "Total": 326,
        "Link": "http://comment.sports.163.com/sports2_bbs/D72E9LK400058781.html"
    },
    "Article": "目前正值德甲冬歇期，拜仁方面有好消息传来，队长诺伊尔已经可以尝试丢掉拐杖在跑步机上走路了。诺伊尔本周六在INS上传了不借助拐杖进行康复训练的视频。视频中诺伊尔在Alter-G跑步机上进行慢走训练，他双手抱头，表情轻松，值得开心的是他已经扔掉了陪伴自己几个月的拐杖。据了解，Alter-G跑步机是专业的康复机器，可以把人的体重减到零重力。诺伊尔的脚目前还不能完全负担他的体重，在生活中任然需要借助拐杖走路。这是诺伊尔进行的第一次康复训练，他也在INS上配文“第一步”。诺伊尔在三周前接受“BILDamSonntag”采访时谈到：“在我看来，参加世界杯不存在任何阻碍。”不过诺伊尔脚部的伤势一直令人担忧，他在今年8月接受了保守治疗后，9月份脚部再次受伤，而这已经是他脚部第三次受伤。鲁梅尼格透露他可能会在明年年初回归，从视频来看，诺伊尔的恢复情况有了大的进展。本文来源：肆客足球App责任编辑：刘頔_NS4812"
}