{
    "Comment": {
        "Content": "美国占领华尔街运动死亡三十多人，被抓六千多人，也不见美国总统多么关心，😂😄 美国占领华尔街运动死亡三十多人，被抓六千多人，也不见美国总统多么关心。 欧盟那些国家都死了吗？2逼法国混蛋德国，关键时候不使劲了。。。 你美爹真是高尚 老美又在背后策划搞伊朗，真是到处搞祸害，真可恶。 支持……伊朗……滴人民！ 战斗民族不要啰嗦，打下来美国战机再说！ 抓住一个造谣的！ 美国火上浇油 华为智障啊，伊朗人民觉醒了跟美帝有毛个关系？ 一樓是為了領🐶糧而來 又为你白屁股爹辩护。逮捕70多人是干嘛的/?国民警卫队的装甲车和机枪是假的？民主国家还杀抗议群众逮捕群众。闹笑话了。 你的消息来源哪里？ 请问到哪里可以免费领华为啊？ 一楼，真搞破坏的是俄罗斯，而且还有人帮助俄罗斯提夜壶（夜🐯） 真TM会造谣总共只是逮捕了70个人这个运动虽然不小但还是被某些人夸大太多了并且根本就没死人！ 你这长着一个比特犬脑袋的，滚到美国去 一樓活著也是浪費空氣。 华为狗砸 参照中国的，春秋与战国时代。。春秋时代，有几十个诸侯国；到了战国时代，只剩下战国7雄了，再到后来，就只剩下一个秦国了。。这就是弱肉强食的时代。<br><br>二战前的世界，非洲只有3个独立国家，亚洲只有2个，这就是弱肉强食的殖民时代。<br><br>二战后的世界，是在美国的强力主导下，才使世界秩序，变成了大国小国，都在联合国里获得合法权利，弱肉强食的殖民时代，才得以终结。<br><br>现在全世界，有200个以上的国家，除了几个大国，几乎都是小国。<br><br>这些小国实际上，都在美国的保护之下，无论再小，也不用惧怕强邻，因为没有比美国，再强大的国家了。伊拉克胆敢侵略科威特，美国就敢把它揍的满地找牙的吐出来。<br><br>今天的世界，在美国的带领下，又进步了。。美国不但不允许大国，侵略与吞并小国；更进一步不允许，一个国家内，有压迫与屠杀的事情发生。。如果有这种事情发生，美国就会支持被压迫与被屠杀者反抗。。极端情况下，美国直接出兵打击，屠杀同胞的恶棍。<br><br>在阿富汗，伊拉克，利比亚，叙利亚等地区，美国都是这么干的。<br><br>昨天；美国用武力，结束了人类历史上，延续了数百年的殖民时代。开辟了大国与小国之间的平等时代。<br><br>今天：美国同样用武力，要结束人类历史上；；延续了数千年的，一国之内，人压迫人，人欺负人，人屠杀人，的丑恶现象。。要开辟的就是；人与人，与生俱来，都是平等的，新时代。 死亡三十多人，逮捕6000多人。哪看到的？故事会都不敢这么写。逮捕70多个人是真事，但傻逼粉红造谣是张口就来是吧？ 老妹霸气，好！ 看看人家伊朗 美国占领华尔街运动死亡三十多人，被抓六千多人，也不见美国总统多么关心，😂😄 美国占领华尔街运动死亡三十多人，被抓六千多人，也不见美国总统多么关心。 欧盟那些国家都死了吗？2逼法国混蛋德国，关键时候不使劲了。。。 你美爹真是高尚 老美又在背后策划搞伊朗，真是到处搞祸害，真可恶。 支持……伊朗……滴人民！ 你的消息来源哪里？ 叙利亚可以借助伊朗军事力量抗衡IS美国势力捣乱，联合组成叙俄伊对抗联盟。 看看人家伊朗 抓住一个造谣的！ 美国火上浇油 华为狗砸 美国抓的都是恐怖分子，至于这30多个死的嘛是被这恐怖分子杀的。美狗日杂们认为呢？ 伊朗现在可是温和改革派在执政，真不知美国究竟在想些什么，难道希望并帮助强硬保守派上台？美国应该改变观念了，要化敌为友，改善与伊朗的关系，帮助伊朗发展经济解决困难，使温和改革派得到伊朗国民更多的拥护和支持，助力伊朗走向更加民主，逐步向完全民主转型。 就算只有总统，从地缘和国家利益，伊朗俄罗斯依然反美，那是你们美狗又会怎么喷？ 这不好说 显然，智障的是二楼。跟沙特相比，自游和名主甩它几条街。 一樓是為了領🐶糧而來 华为智障啊，伊朗人民觉醒了跟美帝有毛个关系？ 美国佬就是始做甬折 一看你名字就知道是美杂 请问到哪里可以免费领华为啊？ 一楼，真搞破坏的是俄罗斯，而且还有人帮助俄罗斯提夜壶（夜🐯） 真TM会造谣总共只是逮捕了70个人这个运动虽然不小但还是被某些人夸大太多了并且根本就没死人！ 傻逼，你咋不去你美爹那里呀 你这长着一个比特犬脑袋的，滚到美国去 一樓活著也是浪費空氣。 战斗民族不要啰嗦，打下来美国战机再说！ 参照中国的，春秋与战国时代。。春秋时代，有几十个诸侯国；到了战国时代，只剩下战国7雄了，再到后来，就只剩下一个秦国了。。这就是弱肉强食的时代。<br><br>二战前的世界，非洲只有3个独立国家，亚洲只有2个，这就是弱肉强食的殖民时代。<br><br>二战后的世界，是在美国的强力主导下，才使世界秩序，变成了大国小国，都在联合国里获得合法权利，弱肉强食的殖民时代，才得以终结。<br><br>现在全世界，有200个以上的国家，除了几个大国，几乎都是小国。<br><br>这些小国实际上，都在美国的保护之下，无论再小，也不用惧怕强邻，因为没有比美国，再强大的国家了。伊拉克胆敢侵略科威特，美国就敢把它揍的满地找牙的吐出来。<br><br>今天的世界，在美国的带领下，又进步了。。美国不但不允许大国，侵略与吞并小国；更进一步不允许，一个国家内，有压迫与屠杀的事情发生。。如果有这种事情发生，美国就会支持被压迫与被屠杀者反抗。。极端情况下，美国直接出兵打击，屠杀同胞的恶棍。<br><br>在阿富汗，伊拉克，利比亚，叙利亚等地区，美国都是这么干的。<br><br>昨天；美国用武力，结束了人类历史上，延续了数百年的殖民时代。开辟了大国与小国之间的平等时代。<br><br>今天：美国同样用武力，要结束人类历史上；；延续了数千年的，一国之内，人压迫人，人欺负人，人屠杀人，的丑恶现象。。要开辟的就是；人与人，与生俱来，都是平等的，新时代。 死亡三十多人，逮捕6000多人。哪看到的？故事会都不敢这么写。逮捕70多个人是真事，但傻逼粉红造谣是张口就来是吧？ 老妹霸气，好！ 你美爹不是很民主么，咋还抓人 怎么回事，这里幸灾乐祸的这么多?真是有钱能使鬼推磨。 ",
        "Link": "http://comment.news.163.com/news_guoji2_bbs/D77FG6SR0001875O.html",
        "Reply": 34,
        "Total": 505
    },
    "KeyWords": "美国,伊朗,示威,特朗普",
    "PublishTime": "01/03/201809:45:32",
    "Title": "美国:密切关注伊朗局势 包括制裁在内的各种选项_网易新闻",
    "Source": "Netease",
    "Article": "（原标题：美国：正在密切关注伊朗局势）当地时间2日，美国国务院新闻发言人诺尔特表示，美国正在密切关注伊朗局势，其中包括制裁在内的各种选项，对伊朗政府对抗议者采取行为进行回应。根据美国《华尔街日报》报道称，特朗普政府正游说全球其他国家支持伊朗人进行和平抗议的权利，如果伊朗政府强力镇压国内广泛的抗议活动，特朗普政府准备实施新的制裁。针对伊朗局势，中国外交部发言人耿爽在1月2日的例行记者会上就表示，中方注意到有关近期伊朗国内情况的报道。中方希望伊朗保持稳定，实现发展。本文来源：央视作者：魏雪娇责任编辑：李天奕_NN7528",
    "URL": "http://news.163.com/18/0103/09/D77FG6SR0001875O.html"
}