{
    "Comment": {
        "Total": 12795,
        "Reply": 909,
        "Link": "http://comment.news.163.com/news2_bbs/D7570DUE000187VE.html",
        "Content": "这种制度必须保证戏子是民众崇拜的对象，这样人才不会思考，才不会对上面产生疑问引起不好的结果 你怎么知道人家没成果，你有啥成果？ 3楼你也没成果，你咋不是教授呢？ 才42岁和我同一年了，比我还小几个月呢，唉好人有时不长命祸害有时一千年，我们七六年出生的人好像也没有什么特别多的科学家，影视明星到是太多了，赵薇林心如黄晓明太多太多了都是七六年的，撒贝宁也是 什么病都不说，很不正常。另外这个年龄级别去世上新闻也不正常。新闻越短事越大，网易定律。 这样的人才该被关注被纪念，可悲的是这几天新闻全是某个戏子出轨。 照你这个说法，有一个人已经92了还没嗝屁，那肯定是个十恶不赦的大坏蛋了！ 唉！天妒英材啊！…… 孔子活了73，孟子活了84，其实人本身的基因并没有改善，只是现在医学发达了，治好了以前不能治的病，所以“人工”促成了人类的长寿 总感觉不正常，这么年轻怎么就突发疾病了啊，这个级别的专家不是经常查体啊 这个女人76年出生，95年毕业！19岁大学毕业了，过了5年后成了搏士了！那个小学二年级未续完就玩小球的那个邓哑瓶，后在短短的两年里拿到了国内外名校的毕业及博士证书！计有~清华北大南通交大哈佛剑桥斯福坦等共12个名校的证书，被世人耻笑谓文盲搏士邓哑瓶! 国家自然科学基金面上项目：用于高效光能收集的超薄纳米器件及其光电性能调控（项目负责人）<br>•国家自然科学基金（青年基金）：超薄金属薄膜及其微纳结构的可控制备与光学特性（项目负责人）<br>•上海市自然科学基金：超薄半导体纳米腔的光吸收增强研究及其可控制备（项目负责人）<br>•教育部重点实验室开放课题：金属周期性纳米结构表面等离子体色散特性研究。<br>只见项目没见成果 我老公也是博士，猝死刚走三个月。是因为学历高，操心多吗？ 42岁当上教授的确不容易 天妒英才。 死了之后才第一次听说有这人，说明生前没有经常出来吹牛逼；仅这一点就值得尊重。搞科研的不一定能有成果，这很正常；天天出成果的那才不正常，不是吹牛逼就是骗经费的；之因为科研难出成果所以每出一个成果才应该被珍视被铭记。而每一个踏踏实实去搞科研的，不管能不能出成果都应该被尊重；当然，那些整天吹牛逼骗经费的败类除外。 舔朝平均寿命绝对不是它们新闻里报的数字，要远低 王者农药钻石算不算 好人都短命，谁解释一下 天才英年早逝，就剩戏子在那折腾 逝者安息！ 哀悼！ 低智商的傻逼 英年早逝，是中国科技界一大损失。江教授一路走好。 才41啊 你知道人家没成果吗？没成果能成为教授吗？死喷子 楼上两位精英有什么成果？ ctmd还想着延退 咋了，你花钱有她厉害？几十亿说没就没了，你花的完？ 不多说，为6楼点赞👍 你还别说现在很多教授是狗屁不通！ 估计人类的平均寿命并未提高，甚至有可能在减小！ 估计做材料中毒了。 那复旦死那么多人怎么就她上网易了 你这驴子发狂了？李，张，赵与你有何血海深仇？…… 因乳腺癌病逝的于娟教授也是复旦的，去世时年仅33岁，真的要注意健康，在奋斗的路上，不要忘记聆听自己身体的声音，健康警示发出后，必须停下来休养！ 你看过复旦出啥科研成果了？ 好人不长命，叹息！ 没有任何留洋经历和重要成果，42怎么当上教授的 喷的成果 前面走得太顺了，一朝不幸却成了大不幸，可惜了，走好 哎，惊闻噩耗，母校的教授一路走好 我愿意拿李双江，张国立，赵本山等人的命，换她一条命[微笑][微笑] 一群傻逼连度娘都不会吗，这女的就是混的，最大的成果就是思政优秀工作者，材料领域国内本来就很差，复旦在国内都排不上号，一个土博士，不到四十成教授。。。 什么情况？ 学识高、颜值好、面相善。可惜了！ 复旦能有啥成果?最大的成果大概是郭广昌，拿下上海城隍庙刷白 材料科学几乎是中国的最大短板，就是这短板使中国的汽车发动机和航空发动机始终上不去，这教授这么年轻，又没有国外名校留学经历，能有啥成果？很可能是一个现行制度下的伪学者！ 英年早逝，可惜！老天眼瞎，为何不死贪官？？？ 到处都是毒，还想寿命高？ 对不起，我确实无知，也没把无知当光荣，确实不了解咸宁，你大学毕业知识不错，知道青岛的历史，大学毕业二十年就是厉害👍 生生死死就如日出日落！ 复印大学 一路走好 好可惜啊！默哀 你怎么知道人家没成果，你有啥成果？ 英年早逝，是中国科技界一大损失。江教授一路走好。 可惜了，还那么年轻 必须的666随机率高到你不敢想象！🙄🙄🙄🙄🙄🙄天朝嘛如你所愿 当一个键盘下喷嘴很容易。你以为德国美国法国日本会将材料科技产品技术卖给中国吗？你给高于市场十倍的价格都不卖！！！意大利生产喷墨打印的陶瓷地砖产品，全球只有三家公司做到这种技术，广东佛山有一家。人家只卖地砖给你，这设备技术打死都不让你接触。你自己在后面慢慢捉摸仿制吧。高科技技术是哪一个国家都严禁泄露给对手，尤其中国人这么聪明善于模仿仿制的。所以中国这十年的科技重大成果的背后，有材料科学界的国人在默默拼命奋斗向前。在此，再次向这位江教授致敬。她他一大批默默无闻的科学界专才支撑起中国各项重大工程的腾飞。你好好修为做人吧，当喷子容易，做一个正常善良的人其实也不太难。好好修行。 这样的人才该被关注被纪念，可悲的是这几天新闻全是某个戏子出轨。 江江江，别人私事，走好走 一个科研人员走了就走了吧，国家只有戏子才能演出盛世 请问这个人死了关我们屁事？ 可惜了 教师生老病死的很多，为何报她 死就死了呗，每时每刻都有人死去…… 怎么会这样？惋惜！ 喷子的最大优点是看不到自己的短，更不愿看到别人的长 确实好年轻，又这么有才 恩立项有经费了购买技术再攻关结果攻不下来扑街 天妒英才。 舔朝平均寿命绝对不是它们新闻里报的数字，要远低 江江，长江前浪推后浪 复旦大学风水不行 我就不理解为什么好好的教授还要去当什么副部长？ 喷子的最大优点是看不到自己的短，更不愿看到别人的长 太可惜了！ 积劳成疾，人在长时间压力下生活很容易得病啊！哎！ 才41啊 不把寿命报高一些怎么延迟退休！ 佛祖保佑 太拼了？歇歇吧 没有任何留洋经历和重要成果，42怎么当上教授的 科技人才、江教授一路走好。 哎!一声叹息! 可惜，可叹 是老师出嫁好不好 一路走好 英年早逝，是中国科技界一大损失。江教授一路走好。 应该有重大材料研究成果，不过不方便透露，年纪轻轻就走了国家一大损失，为什么有关部门不对这些有突出贡献的科学家提供一年两次以上体检 这么年轻就是实验室负责人。这可不是随便一个博士就能做到的。 别谦虚，尺有所短，寸有所长，君子和而不同。 同龄人年轻轻轻，可惜了 可惜了 跟我们有j.8毛关系？ 你该多看看新闻联播补补脑，还有你肯定相信母产多少斤吧哈哈哈哈哈哈哈哈 你看过复旦出啥科研成果了？ 一路走好，天堂没有病痛！ 估计人类的平均寿命并未提高，甚至有可能在减小！ 有能力有颜值， 可惜！可惜！ 现在80岁以上的人很常见，寿命提升是必然的。 42 马拉个币的小编，回去重读语文去！ 你怎么知道人家没成果，你有啥成果？ 寿命高的都是当官的 有什么卓越贡献？又不是名星？死了还要报道一下 英年早逝 可惜了，把你的教授给我就好了，一路走好，逝者安息～ 人死了，有人重于泰山，有人轻于鸿毛。随便挑一百万人都可以当清洁工，但要在十年内一百万人里面诞生一位钱学森钱三强就很难。中国能有深海深潜器蛟龙号，如果没有绝好的材料根本无法承受这么大的压强。而这种材料是西方强国禁止出售给中国提供的。我们高铁铁轨铁轮能承受这么高速运动，钢轨材料也是高科技的成果，也不是西方随便给予的。都是我们科学家兢兢业业的奋斗成果。所以这位42岁就英年早逝可科学家，真是国家一大损失。 清洁工去世知这个有什么不一样吗？ 你个傻逼回家玩你妈去 天朝嘛如你所愿🙄🙄🙄🙄🙄🙄 扫大街的就别管科研的事了吧[不屑]教授都是靠学术论文和发表文章算科研能力的，以为跟你们每天样的算刷多少马桶相提并论？[不屑] 可惜，一路走好 对不起，姑且称呼你为你真强，冒犯你这位毕业二十多年的大大学生了，我要忙了，再次表示对你这位毕业二十多年大大学生的道歉。 舔朝平均寿命绝对不是它们新闻里报的数字，要远低 英年早逝！可惜，一路走好 什么病 太可惜了！祝福～ 是比我强，大学毕业呀！真牛逼！好吓人呀！ 可惜可惜！ 我远拿你户口本上的人，换我家宠物狗多活一年 国家该关注一下科技工作者的身体了 他喷了一万条 一路走好！ 重庆怎么有你这样的垃圾 为什么不提得什么病而去逝的? 英年早逝，是中国科技界一大损失。江教授一路走好。 真的好可惜，一路走好！ 麻痹，明星死了才不该报道，一个韩国人自杀都能上头条，她为啥不能？ 唉！可惜一个人才 事实上，你家户口本上的人，都在我家狗笼子里😄～ 一路好走，好人一生平安 谁知道什么病？ 喷子 关我屁事 估计人类的平均寿命并未提高，甚至有可能在减小！ 可惜了，这个年龄女人玩起来最爽，我20岁时玩了3个40岁以上的女人 每天死的人多了。环卫工人因病逝世很少见诸报端的。 只查到立项，没查到具体成果 挖槽，这蛮漂亮的啊，可惜了 缺爱的女人容易病魔缠身 可惜了 …… 没成果？你以为这些年中国高铁飞机航舰是无中生有来的？告诉你，这是因为中国的材料工程技术取得突破性的成果。 没有任何留洋经历和重要成果，42怎么当上教授的 二环以内平均水平高 什么“还这样”？不比你强？但愿你说大话不心虚！ 你看过复旦出啥科研成果了？ 我愿意拿李双江，张国立，赵本山等人的命，换她一条命[微笑][微笑] 真是天妒英才，愿逝者安息 哀悼！天妒英才！ nn 一路走好！ 有时候国内与国外研究方向不一样，即便去了国外回来研究，也得从新开始，有的学科就没有必要出国。这个得根据具体学科的情况，并不是你说的这样子？话说你也是博士？留过学？居然还说这样的话？ 到底是41还是42 可惜可惜了，一路走好 搞出什么新材料了吗就tm评教授了[喷水] 舔朝平均寿命绝对不是它们新闻里报的数字，要远低 你怎么知道人家没成果，你有啥成果？ 顶2楼4楼 所以说工作是重要，但生活也要，不然一生就完了 庄子的逍遥游大家可以一读 哟，复旦的呀，现在还用魅族呢，卡不卡呀 这样的人才该被关注被纪念，可悲的是这几天新闻全是某个戏子出轨。 可惜了 可惜啊，还是老人家说得好，身体是革命的本钱，人没了，除非你是大名人，以后谁记得你啊 阿弥陀佛 公布七十多，它们动辄一百多不幸辞世，明白吗？ 他的成果就是质疑别人的成果然后满嘴喷粪 有问题！ 好年轻，可惜了 透支了， 英年早逝啊！ 首长可是越活越长 中国科技被美国锁定了。只要美国的保密工作做得好，中国科技就不会进步。 你要去哪？去美国查找核潜艇飞机发动机技术的科研论文吗？你肯定差不到核心技术，别浪费时间了！ 社会压力大，为了生活失去健康！国家的衣食住行让多少人付出了生命的代价。GDP提高了，生活质量呢？居民健康呢？ 二楼就是不折不扣的小市民，一肚子草包，生怕别人看不起，使劲往身子外面糊上驴粪蛋！今朝一个不小心，说漏了嘴，一根稻草从驴粪蛋里刺棱了出来，众人皆叹，继而哈哈大笑！ 二楼X都用不起？ 人才的陨落，真正干活的教授早逝，不正经的教授却在搞大人家的肚子。 你怎么知道她比清洁工有成绩？ 唉，可惜了人材啊！ 太可惜了，走好！ 估计人类的平均寿命并未提高，甚至有可能在减小！ 安息 什么病？ 真是可惜 我代表全体90后发来贺电 没有任何留洋经历和重要成果，42怎么当上教授的 我去..你知道啥叫科研论文吧？ 太可惜了！ 让我想到了三体 问可以，别设置条件，开口就说人家没成果，他很了解吗？他是教授评审委员会主任吧😄 说你傻逼肯定没问题，就这比较就看出你这脑子里装的全是屎 天堂没有疲劳！您安息吧[大哭] 可惜 走好 还有个北航骚扰门的，我觉得也许那才是人才的本来面目吧，庙堂之高，扶梯难窥…… 敌对势力做怪 现在用手机看人真是可笑。 一路走好！ 承担7个科学基金项目负责人，代表性论文16篇，5项专利，可惜了 你也就能代表代表自己了像是你这种社会底层的垃圾人渣真是或者浪费国家资源趁早死了算了 太可惜了！ 哎，惊闻噩耗，母校的教授一路走好 sb才用手机区分 为了补社保亏空，什么招都要用上。 他连jb都没还想有成果？？ 什么原因死的也没说 人才英年早逝 又一位英年早逝的才女，一路走好 同期大学毕业，活着真好！愿逝者安息！ 英年早逝 不是针对某个人，中国的叫兽，只为骗钱，至于成果，毛…… 太年轻了可惜 你怎么知道人家没成果，你有啥成果？ 党委研究生 痛失国宝，苍天罪大悪极。 令人惋惜 成功过 新楼启用后复旦风水差，一流教授专家相继离世.....复旦无大家了 这样的人才该被关注被纪念，可悲的是这几天新闻全是某个戏子出轨。 一个有学问的人走了，可惜了。 天朝的价值观扭曲 好可惜！ 30岁时就是博士了[大哭] 可惜，天妒英才。 可惜 还有日本妓女 精英人才的悲剧(╥ω╥`) 好人都短命，谁解释一下 乳腺癌？ 天才英年早逝，就剩戏子在那折腾 逝者安息 走好 才41啊 英年早逝，甚是可惜。 可能又是乳腺癌。可怕。 什么原因？ 好年轻，怎么死的？ 可惜 这教授很厉害么？怎么会上新闻 好年轻的美女教授，可惜了！ 英年早逝，科学家 材料学，一国发展之根本，而不是政客，明星和商人之类可比，可惜风华正茂的年纪就去了。 可惜了祝一路走好 没有任何留洋经历和重要成果，42怎么当上教授的 做到早查体，早冶疗，走的太可惜。 这样的新闻不如不播。死因不说，成就不说，你新闻个屁啊！逝者安息🙏 好吧 什么病没说 假洋鬼子，非得留洋才算有成果 这么年轻什么病？可惜了！一路走好！ 才女天妒红颜，一路走好！ 中国现在变味，戏子走了登几个星期，老英雄走了，科学走了，登几十个字。戏子离婚登半年，戏子强国？ 啥也没捐献麽？ 学业功成名就人没了可惜 说的好像您有什么成果一样 天妒英才 戏子当道！科学家英年早逝却无人关注！悲哀！ 节哀顺变！人总有一死是天注定！愿活着的人能好好珍惜当今。我的爱人也是离我而去了，这些年一直当娘当爹的把女儿扯养成人在广州定居在，希望你能关注我。朋友们别愤，拜托 天朝报道的76岁叫预期人均寿命至于………… 孔子活了73，孟子活了84，其实人本身的基因并没有改善，只是现在医学发达了，治好了以前不能治的病，所以“人工”促成了人类的长寿 搞材料的都短命啊，工作压力大不说接触的还全是剧毒高危化学品。 走好 只是吸食人血的畜牲的寿命增加了。 说得好，适应于任何行业。不过这位教授是挡位红人，荣誉全来自思政工作，她未必愿意你的提议。 英年早逝 我老公也是博士，猝死刚走三个月。是因为学历高，操心多吗？ 加班加得太狠了！ 好人不长命 可惜了，科学家！ 舔朝平均寿命绝对不是它们新闻里报的数字，要远低 在剑桥就认识了浙江某大学过来瞎逼玩一年的教授 孔子活了73，孟子活了84，其实人本身的基因并没有改善，只是现在医学发达了，治好了以前不能治的病，所以“人工”促成了人类的长寿 隔着玻璃戏子和女的一搂最少登报一星期，机场走两步三天头条 你怎么知道人家没成果，你有啥成果？ 喷你马勒戈壁。就特么一个废物。 其实他才41周岁 平均寿命每100年减一岁。 这种事虽然让人觉得很惋惜，但怎么会上新闻呢！想不通！ 42岁死的人多了，她算老几。 炒茅台就够了 我们不能保护好科学家，是全体国民的悲哀。 我认识的已死的有十个人不超过55岁，最小的14岁，白血病，还有个17岁，鼻咽癌。好几个都是三十多岁。 是王道可惜了，爱惜自己的身体才 fhokvf 这话说的确实不乍的！她是不算老几，一个女人在42的年龄有如此高的成就，在全球第一人口大国又能找得到几个？我是由衷的佩服！愿她家人节哀顺变，逝者一路走好 估计人类的平均寿命并未提高，甚至有可能在减小！ 肯定是劳累过度了 没意思，然而是必要条件，出去瞎逼玩一年都行 去世和逝世有什么区别？ 这么年轻应该是癌症吧哎可惜了 科学人才怎么太早了吧！？那些贪官改早点见阎王！ 没有任何留洋经历和重要成果，42怎么当上教授的 累死的，致敬 活着也没什么价值连自己生命都维护不好的人活着没意义 大学里很多搞政工的领导都喜欢去评个教授职称 只当教授干专业多好，非当个机巴付部长，天天白天开会，晚上搞科研，活活累死。大学立刻取消行政编，教授治校，远离政治，专心学术吧! 可惜了啊！ 是浙江海宁吧，我就在海宁，怎么没听说啊，否则去医院看看她也好啊[大哭] 骂得好 我去，我们宁海人好吗 属于金童玉女型的～ 走好！ 复旦能有啥成果?最大的成果大概是郭广昌，拿下上海城隍庙刷白 可惜了 好年轻啊 "
    },
    "Title": "42岁复旦大学材料科学系教授江素华因病逝世_网易新闻",
    "KeyWords": "复旦大学,材料科学,江素华,教授",
    "Article": "（原标题：42岁复旦大学材料科学系教授江素华因病逝世）江素华2018年1月2日，澎湃新闻从江素华教授亲属及同事处获悉，复旦大学党委研究生工作部副部长、材料科学系教授江素华因病于2018年1月1日在浙江宁海逝世。江素华出生于1976年11月30日，现年42岁。公开信息显示，江素华在1995年至2005年先后获得复旦大学材料科学系物理专业理学学士、材料物理与化学专业工学博士学位。复旦大学毕业后，江素华留校任教，从事微纳电子/光电子材料与器件方面的教学与研究，历任讲师、副教授、教授，并担任NMC-n&kTechnology薄膜光学测量联合实验室负责人等职。本文来源：澎湃新闻责任编辑：王征_NN7526",
    "URL": "http://news.163.com/18/0102/12/D7570DUE000187VE.html",
    "PublishTime": "01/02/201812:23:00",
    "Source": "Netease"
}