{
    "URL": "http://news.163.com/17/1228/12/D6OB4TMV0001899N.html",
    "Comment": {
        "Reply": 33,
        "Content": "万一醉汉呕吐，被呕吐物堵住气管，误吸呕吐物，我想知道小伙子要赔多少钱？还记得郑州某小区电梯内，医生劝老头别吸烟，然后老头猝死，结果人道主义赔偿2万的事情吗？<br><br>这小伙，一看就不是易友，不逛网易的，不讹你我都觉得可惜了！ 小伙子，老dotaer告诉你一个真理:猥琐发育，别浪！ 不管你怎么看不上一楼，但他说的是事实。 煞笔，他这是嘲讽，有真实案例在 什么醉汉！低素质攻城人口，赶出城市去！ 中国好青年。 地铁里面吸烟，是犯罪。万一着火了，这么多人的生命怎么办？ 这个小伙是真男人，用实际行动证明了自己，你呢？什么叫键盘侠你知道不？还没羞没臊的跑这说风凉话 牛逼了！ 公共室内场合吸烟应该严惩不贷，控烟管理办法以及条例不应该只是摆设 喝了酒的人容易脑溢血，害怕小伙子被讹 你不是傻逼？别人做了好事，你们逮着不良个案逼逼？是不是人？ 深圳这个傻逼看来是第一次上网。 .... 这个老头要是死了你事大了 尊老爱老的好孩子。 没打架这没道理啊 小伙子，老dotaer告诉你一个真理:猥琐发育，别浪！ 直接扔地铁铁轨 首先为文中的帅哥点赞，其次....再为他捏把冷汗！！！另外好心做事被讹的事情不算个案吧？社会环境如此... 要么掐灭你的烟头,要么掐灭你的委员! 两个人渣。 中国好青年。 什么醉汉！低素质攻城人口，赶出城市去！ 地铁里面吸烟，是犯罪。万一着火了，这么多人的生命怎么办？ 这个小伙是真男人，用实际行动证明了自己，你呢？什么叫键盘侠你知道不？还没羞没臊的跑这说风凉话 红色电影教育出来的80后还是有爱心的 真是。 公共室内场合吸烟应该严惩不贷，控烟管理办法以及条例不应该只是摆设 万一醉汉呕吐，被呕吐物堵住气管，误吸呕吐物，明天你就上头条了 为啥给老头打马赛克不给小伙打？？？有意思有意思！下次别给老赖上黑名单啊，把债主上黑名单啊！ 老头要是倒地上，小伙子这辈子可能都完了。 一楼说的是实话，也是为好人着想 万一醉汉呕吐，被呕吐物堵住气管，误吸呕吐物，我想知道小伙子要赔多少钱？还记得郑州某小区电梯内，医生劝老头别吸烟，然后老头猝死，结果人道主义赔偿2万的事情吗？<br><br>这小伙，一看就不是易友，不逛网易的，不讹你我都觉得可惜了！ 万一猝死了怪谁 好样的！ 我觉得是大好事，不该有这么多人说他 不管你怎么看不上一楼，但他说的是事实。 深圳这个傻逼看来是第一次上网。 你不是傻逼？别人做了好事，你们逮着不良个案逼逼？是不是人？ 牛逼了！ 这个老头要是死了你事大了 喝了酒的人容易脑溢血，害怕小伙子被讹 徒手掐烟头，我有点不信，点燃的烟头温度高至几百摄氏度。 公共场合请掐灭烟头 掐个烟头不徒手还要用家伙吗？ .... 尊老爱老的好孩子。 ",
        "Total": 347,
        "Link": "http://comment.news.163.com/news2_bbs/D6OB4TMV0001899N.html"
    },
    "Title": "醉汉地铁内吸烟 小伙徒手掐灭烟头还送对方到车站_网易新闻",
    "Source": "Netease",
    "KeyWords": "地铁,吸烟,车站",
    "PublishTime": "12/28/201712:40:51",
    "Article": "（原标题：大连地铁内两醉汉吸烟，一小伙徒手掐灭烟头还陪护送至高铁站）小伙上前制止醉汉在地铁内吸烟。图片来自网络“纯爷们，点个赞!”“小伙子真棒，有正义感而且有胆量。”……近日在网上一则新闻广为流传，数百名网友为一位小伙的正义行为点赞：12月22日，在地铁1号线上有人醉酒在车厢内吸烟，一位小伙上前徒手掐灭烟头。12月27日，记者几经周折联系到当事人才得知，这位小伙是辽宁大连地铁运营有限公司员工，当晚不但阻止了对方抽烟的行为，还陪着醉汉直到大连北站购买返程票后送进车站。醉汉地铁内吸烟小伙正义出手刘宇是大连地铁运营有限公司机电分公司安全门专业的员工，27日上午，记者联系到他时，他仍对当天的事情记忆犹新。“我也没想到这事在网上传播得这么广，其实没什么。”刘宇就是当天在车上徒手掐灭烟头的年轻人。刘宇告诉记者，当天下午三点半，他下班后在地铁1号线学苑广场站上车，这时车厢里很多人都围在一旁，车厢里空出一大块地方，刘宇上前一看，两名醉汉满身酒气在车厢里又喊又叫，还掏出香烟来毫不顾忌地抽了起来。见这两人醉得厉害，周围人都躲开了，刘宇见状便走上前去。“我和他们说地铁里不能抽烟，那位喝多了的大叔还一劲儿地推我。”刘宇说，那两人年纪在五十岁上下，压根没理会他，见刘宇上来，还推了他好几把。“我一看就直接上去把香烟抢过来，用手把烟头掐掉了。”刘宇生怕两人闹事，还守在两人身边一再安抚。起初，两人并不领情，对刘宇恶语相加，几次想要继续抽烟。“一位大叔说要坐地铁去北站，没人告诉他地铁该咋坐，没听说地铁不让抽烟。”刘宇耐心地劝导两人，一路还陪着他们直到大连北站。全程陪护又买车票又送站从学苑广场站到大连北站站，全程要三四十分钟，一路上刘宇陪着两人聊天。“他们是丹东人，好像是船员刚刚下船，喝了不少酒，从旅顺坐地铁12号线过来，准备坐高铁回家。”刘宇的耐心也赢得了两人的认可，在他的劝导下，两人终于放弃吸烟。谁知出了车厢，两人又要点烟，刘宇连忙拦下，又帮助两人购买车票。在得知此情况后，刘宇联系大连北站两名站务员，一同将两位醉酒大叔送到高铁站，“其中一人忘记带身份证了。”刘宇又帮他联系家人，问到身份证号码，办理临时身份证，才买到车票。刘宇一直将两人送到高铁站检票口，一直看到两人进入候车大厅才离开。当天傍晚，在新浪微博上就有网友将此事发布到网络中，刘宇的行为引来网友一片称赞，记者注意到该信息赢得了490余位网友的点赞，上百人评论。有网友表示，刘宇当时劝了一路，为他的耐心点赞。“为这位小伙子点赞，现在这样勇敢站出来的人越来越少了。”一位网友留言道。同时，很多网友都谴责在地铁里抽烟的行为。有网友表示，封闭空间吸烟，不仅仅是素质低的问题.如果车内引燃物品着火，车又在行驶状态，那是很危险的。也有网友建议，地铁应该设黑名单，这种抽烟的以后拒绝乘坐。本文来源：半岛晨报责任编辑：黄哲程_B9302"
}