{
    "PublishTime": "01/02/201801:49:19",
    "Comment": {
        "Total": 977,
        "Link": "http://comment.news.163.com/news2_bbs/D741S2OJ00018AOP.html",
        "Reply": 61,
        "Content": "差不多反正都是会动的机械[喷水] 🚗👨被钓鱼了！✔ 西安遍地都是黑车，何差这一辆。你去看看，火车站还有几个大的汽车站，黑压压的，看见出站的就纠缠 出租好像都是这样吧！！！ 连交警也敢忽悠。 良心价格了，你还证实[鄙视][鄙视][鄙视] 黑车有时确实爆发很多问题，但是你也不看看西安出租的操蛋样！拼车，拒载，不打表…… 这证那证，都不如精神病证好使 出租车司机王八蛋太多，被换假钞的不少 没毛病啊，我也是司机，开的电梯[大笑][大笑][大笑] 滴滴都合法了，带条黄鱼挣点油钱，有关部门还想从中捞一票，也太不象话了吧！ 一头蠢猪，来自江苏。 年底了，人家也要年终奖 证件齐全，跑不出河南 网易就是挑起地域黑的败类 我一朋友，部队转业，以前是修飞机的，前不久才考到驾照。上次打我电话，说车子在路上坏了，我跑去一看，小毛病一下就修好了，顺便调侃一下他，你呀飞机都能修，汽车咋不会修呢。<br>朋友说：这可不一样，隔行如隔山呀 我上学时被黑车坑过，把我丢在高速上。车上有大汉，打又打不过，只能认怂 难道当地不让跑滴滴的？ 就是，谁说电梯维修证不能开车，兄弟应该去支援那位可怜的司机。 这是黑车，无所谓了，滴滴有些地方一样抓。 风马牛不相及 大家好！我系pgone！接下来我给大家来一段rap祝大家新年快乐。哟哟哟，好吃不过那饺子，好玩不过这嫂子。我陪着嫂子包饺子，包完了饺子玩嫂子。吃着最烫的饺子，玩着最浪的嫂子。吃着嫂子包的饺子<br>玩着包饺子的嫂子。那嫂子包的饺子最好吃，这包饺子的嫂子最好玩。这好玩的嫂子不让我吃饺子。那我就不吃饺子好好玩嫂子 就是，楼上说得对，我有一次酒驾被抓（当时尚未入刑），我一直怀疑酒厂和jingcha是不是勾结在一起？ 这些🐶出来摇尾巴抢钱了大家唔好荷包夹尾巴做人 我们老家的出租车也是这样。我很惊讶，现在出租车行业的管理怎么成了这个鸟样？ 江苏逃犯开套牌车刚到河南地界，就被警察抓住了。脑残，快点感谢河南警察与天眼 这辆轿车还是河南牌照。驾驶河南牌照且没营运资质的私家车载客获利已成事实。针对文中这句话，怎么感觉像见了从古代穿越过来一样稀奇呐！总感觉强调是河南牌照？难道本地车就可以在禁停区停车？难道本地车就可以非法运行？不知是小编无知？还是网易污耻！ 西安的出租车真是特么的日了狗了！远了不拉，近了不拉，堵车的地方不拉，去的地方回来拉不到人也不拉，一个个特么的绝毛了！ 顺风车 但是他们交份子钱，所以有人保护。 牛逼呀！！ 出租好像都是这样吧！！！ 挂着滴滴 🚗👨被钓鱼了！✔ 良心价格了，你还证实[鄙视][鄙视][鄙视] 黑车有时确实爆发很多问题，但是你也不看看西安出租的操蛋样！拼车，拒载，不打表…… 连交警也敢忽悠。 哪里的出租车都是一个逼样。反正我现在出行都是专车。 出租车司机王八蛋太多，被换假钞的不少 没毛病啊，我也是司机，开的电梯[大笑][大笑][大笑] 就是，谁说电梯维修证不能开车，兄弟应该去支援那位可怜的司机。 一头蠢猪，来自江苏。 黑出租几乎都是这帮人的亲戚朋友的也不见他们查 去年路过西安，从西安北站打车到城南客运站，百度地图上查的一条直线也就几十块钱，结果出租车司机说是走高速快些，就拉我从绕城高速过去，车费加过路费收了我150 难道当地不让跑滴滴的？ 胆也太大了 我只有航空母舰驾驶证，所以从来不开车，遵纪守法。 苛税猛于虎 就是，楼上说得对，我有一次酒驾被抓（当时尚未入刑），我一直怀疑酒厂和jingcha是不是勾结在一起？ 这证那证，都不如精神病证好使 江苏逃犯开套牌车刚到河南地界，就被警察抓住了。脑残，快点感谢河南警察与天眼 可以考电梯维修证 西安的出租车真是特么的日了狗了！远了不拉，近了不拉，堵车的地方不拉，去的地方回来拉不到人也不拉，一个个特么的绝毛了！ 但是他们交份子钱，所以有人保护。 哈哈 西安遍地都是黑车，何差这一辆。你去看看，火车站还有几个大的汽车站，黑压压的，看见出站的就纠缠 我现在天天上班25km，拉一个顺风车，心理压力好大 现在管得这么严，为何要到车站面前才停车下人？可以早一点下啊。 请给这个司机发个非正常人类的图标给她 合肥表示现在几乎没有，至少我没碰到 好，往死的罚。 滴滴都合法了，带条黄鱼挣点油钱，有关部门还想从中捞一票，也太不象话了吧！ 年底了，人家也要年终奖 证件齐全，跑不出河南 是是 网易就是挑起地域黑的败类 我一朋友，部队转业，以前是修飞机的，前不久才考到驾照。上次打我电话，说车子在路上坏了，我跑去一看，小毛病一下就修好了，顺便调侃一下他，你呀飞机都能修，汽车咋不会修呢。<br>朋友说：这可不一样，隔行如隔山呀 我上学时被黑车坑过，把我丢在高速上。车上有大汉，打又打不过，只能认怂 干嘛要坐黑车？出了事找谁呀。 滴滴顺风车是不是也那个违法营运？但是我看到一直强调河南…小编对河南有偏见？？ 看来小编也是地域🐶🐶🐶 外地牌照是一定会查的！ 我们老家的出租车也是这样。我很惊讶，现在出租车行业的管理怎么成了这个鸟样？ 说实话，知道有被抓的风险，被抓了就不要怨。 这是黑车，无所谓了，滴滴有些地方一样抓。 大家好！我系pgone！接下来我给大家来一段rap祝大家新年快乐。哟哟哟，好吃不过那饺子，好玩不过这嫂子。我陪着嫂子包饺子，包完了饺子玩嫂子。吃着最烫的饺子，玩着最浪的嫂子。吃着嫂子包的饺子<br>玩着包饺子的嫂子。那嫂子包的饺子最好吃，这包饺子的嫂子最好玩。这好玩的嫂子不让我吃饺子。那我就不吃饺子好好玩嫂子 这辆轿车还是河南牌照。驾驶河南牌照且没营运资质的私家车载客获利已成事实。针对文中这句话，怎么感觉像见了从古代穿越过来一样稀奇呐！总感觉强调是河南牌照？难道本地车就可以在禁停区停车？难道本地车就可以非法运行？不知是小编无知？还是网易污耻！ 看到大家评论我就放心了！ 你不如拿出飞机驾照 去火车站坐火车，挂着城南城北城西。。这样的牌子，方向不对拒载 差不多反正都是会动的机械[喷水] 估计碰上钓鱼的了 这些🐶出来摇尾巴抢钱了大家唔好荷包夹尾巴做人 呵呵呵 麻痹 黑车应该抓，没啥说的 考电梯维修证就可以,当然考电梯安装证一起的话,可以维修. 老子以后开车带朋友的朋友一定要先请他吃顿饭，不熟不好带 风马牛不相及 顺风车 敲竹杠 "
    },
    "Article": "（原标题：司机拿出电梯维修资格证）华商报讯无论什么理由，这名司机都涉嫌非法营运。昨日上午10时许，西安火车站运政稽查人员在解放路一禁停区内发现一辆白色轿车违规下客，这辆轿车还是河南牌照。通过观察，乘客和司机并不熟悉。稽查人员上前盘查后，乘客证实她是在龙首村上的这辆车，到西安火车站的车费是12元，她之前和司机不认识。而在询问司机时，他一会儿说自己是因心烦才出来拉人的，一会儿又说自己是来西安旅游，顺便挣路费的。但无论他如何狡辩，驾驶河南牌照且没营运资质的私家车载客获利已成事实。稽查人员问他是否取得营运从业资格证时，更奇葩的事发生了，他直接拿出了一本电梯维修的《特种行业从业资格证》。目前，该车涉嫌非法营运已经被运政人员依法暂扣，司机将面临最低一万元的行政处罚。本文来源：华商网-华商报责任编辑：杨强_NN6027",
    "Source": "Netease",
    "Title": "河南牌照轿车在西安被查 司机拿出电梯维修资格证_网易新闻",
    "KeyWords": "维修,电梯,稽查,西安火车站",
    "URL": "http://news.163.com/18/0102/01/D741S2OJ00018AOP.html"
}