{
    "Article": "（原标题：大陆女游客赴台跨年遭男子辱骂：\"死阿陆\"安静点）视频截图海外网1月2日电2017年12月31日跨年夜，一男子在台北捷运上看一旁交谈的大陆游客不顺眼，竟辱骂其“426”(“死阿陆”，对大陆人的蔑称)，行为形同霸凌。该男子的行为随后引来台湾网友的声讨，认为其“丢台湾人的脸”。据台媒报道，迎接新年的到来本是一件开心的事，但跨年夜时，台北捷运却有一名男子疑似情绪不佳，见一旁交谈的大陆游客不顺眼，直接开呛，“426(“死阿陆”，对大陆人的蔑称)，可以安静一点吗?”之后列车进站，乘客上车后，这名男子还不罢休，再飙骂不雅字句，夸张行径全程被一旁的学生乘客用手机拍下，并向台媒投诉。消息发布后，许多台湾网友对男子进行口诛笔伐，称其“丢台湾人的脸!”还引起了网友对“为何旁边没有台湾人阻止”的讨论。视频截图拍摄视频的王姓学生称，31日晚，台北市举办跨年倒数活动，结束后搭捷运返家时，捷运站一名等列车的男子，竟只是因为听到两名年轻女大陆游客在交谈，就开始辱骂她们，女游客进到车厢内后，他还继续跟到里面骂道，“靠夭啦，可不可以安静一点”，声音大到惊动其他乘客，男子甚至还脱口骂三字经。这名学生表示，两名大陆游客听到男子破口大骂并没有回应，只是默默地走到其他位置，他觉得男子的行为形同霸凌，实在为这两名陆客感到无辜，捷运车厢内并非只有大陆游客在交谈，也有其他乘客在聊天，男子只是因对方是大陆人，就破口谩骂，这种行为相当不理性，十分丢台湾人的脸。本文来源：海外网责任编辑：谷莹_NN6577",
    "Title": "大陆女游客赴台跨年遭男子辱骂：\"死阿陆\" 安静点_网易新闻",
    "PublishTime": "01/02/201810:31:15",
    "Source": "Netease",
    "Comment": {
        "Content": "天津算是几线城市？ 我在深圳的时候有两个群体喜欢在公汽跟地铁上大声说话，特吵！一个是做安利的！另一个是老铁！ 免签。。。 顶个屁公共场合只要不是大声喧哗影响他人轻声交谈有何不可？不见得别人不讲话你就不能讲话啊！ 没你说的这么大，中国和世界平均水平接近吧，和美国30年以上差距，无论科技教育素质。 为什么一定要是我的问题？我还有能力影响一个国家的素质？😄 三楼典型狗杂 大陆就让五楼这种张口狗杂闭口狗杂的狗杂拉低素质了，不然怎么全世界不待见？在国内它要敢当人面这样说话，看有人不撕烂它的狗嘴，打折它的狗腿！ 仔细看完文章再喷，跪久了起不来了？ 今天早上六点半，广佛地铁，一个大叔和一个大妈，为了抢一个座位，对骂了八个站，什么难听的话都骂出来了，难以置信， 三观够正！顶你 免签撤侨的时候别蹭中国的飞机船跑路啊，坐着护照走啊 别玻璃心。国人真该检点一下，很多人在公共场合大声嚷嚷，真的很讨厌 拍视频的也说了，车厢里并不是只有大陆人在交谈，其他台湾人也有交谈的，骂人者就是针对大陆人。 台北也就信义区像点样子，其他基本上还停留在台北二十年前的样子！！！我一台湾朋友来大陆十几年了，回台湾之后又回来说他走的时候什么样回去的时候还是什么样，而大陆半年不来样子就不一样了！！ 全世界都不待见暴发户 人民内部矛盾！咱们国家某些地方尤其台湾，内部矛盾日益尖锐！ 讨论单个人素质高低没意义，要看整体，我们还落后一百年 骂得好，没毛病 今天做地铁2号线听见2个台湾妹子在聊天是不是也要上去骂她们 你们湾湾现在算个屁。。 每个地方都有那么几颗老鼠屎，只是多少而已。 如果台湾电车像日本电车一样大家都不说话，那就怪不得别人骂。<br>如果台湾电车大家都能说话，当时就该打他。 去哪不好，去这种四线城市 看看谁发表的文章:海外网，一个专于街道新闻，小道消息，花边新闻的网站，善于挑拨是非，在海峡两岸拉仇恨。 说实话国内很多人素质很高，外国人素质也就那样，不要总是看高别人，看低自己。不要总是人云亦云，多出去走走。 高声说话就是不礼貌，把什么地方都当你家的了。骂人不对，必须看前后因。 交谈就是素质低？ 呆丸郎有种令人忍俊不禁的优越感😂😂😂 老兄，我本人就很讨厌在公众场合大声喧哗的人。 如果嗓门比报站音还大了，这就别怪别人脾气怪 素质低该骂 英国也叫彬彬有礼？你喝醉了吧，我去过的发达国家没有比英国人素质更糟糕的。 海外网就是人民日报海外版，成立于2012年，这你就豁然开朗了吧。 台北是世界十大跨年胜地多出去走走别被墙傻了 同意2楼，这个网就是找点小新闻，专门干点挑拨离间赚取点击率的垃圾网站。 说实话，我们国人也该检点一下，很多人在公共场合不注意形象，公交车上，地铁上，都是大声嚷嚷，很讨厌 我说的意思就是别人对你素质低想想自己做了什么惹人厌的事，还有你说别的哪个国家国民素质比英国高就算了，美国？抱歉，一个移民国家和老牌绅士传统比？只能说后天返英结束圣诞假了。有时间有钱别老出去走走，多出去待一待才能发现差距 能不能不去这种乡下地方跨年[狗] 这名学生表示，两名大陆游客听到男子破口大骂并没有回应，只是默默地走到其他位置，他觉得男子的行为形同霸凌，实在为这两名陆客感到无辜，捷运车厢内并非只有大陆游客在交谈，也有其他乘客在聊天，男子只是因对方是大陆人，就破口谩骂，这种行为相当不理性，十分丢台湾人的脸。 你怎么知道是大声嚷嚷？对你这种连真实情况都没了解就开始贬国人的垃圾，只能对你说一句，你看轻国人就是看轻了自己 那就是你自己的问题了 在公交地铁上高谈阔论的人确实讨厌 去台湾跨年的都是傻逼 简单的个两个人吵架都让你当个事儿发表，浪费时间 现在的狗媒专事在p民中间拉仇恨，相互挤怼，让双方大吵大骂消耗能量以转移对特权阶层的同仇敌忾，来达到它们同治的稳固！其心可诛！ 最基本的文明都没有还谈素质 台湾最美的是人……渣！！！ 这叫辱骂？这是痛骂，该骂，没毛病，不守社会公德，每个人都有权利骂 大陆人就是那样，喜欢大嗓门在公众场合喧闹！ 喷子嘛，不会看文章的，只要盯着中国人骂就是了 键盘侠而已，真是后者，一楼你还不是灰溜溜夹着屁股走了，还打？你敢吗？给你一百个胆，小心被人打残了跑回来。 潍坊出来的见识确实不一样，自己长那么难看怪父母，是不是后悔生在潍坊？ 你好！台湾的朋友！能否问下台湾那边怎么报道这件事？事情的真相是怎样的？谢谢！ 三观不正的网友是不是都在网易了啊？怎么那么多，无语，是非都分不清了，我真怀疑你们某些人真的是有素质的人吗？(如果你觉得声音大，你完全可以用别的方法提醒他人，并不需要这样才能体验台湾人的文明，尤其是那些为台湾男子站台的网易“十八”) 中国一线城市顶个屁用，人均收入人均GDP排名世界第83位仅8000美元，台北哪怕你把她算作8线城市，但她的人均GDP排名世界33位，人均23000美元！你吃了几天饱饱的潲水就膨胀不得了了，肚子里的猪屎还没屙干净就冒充城里人了。 我看到的台灣的報導(聯合新聞網)也是指出這男人口出惡言辱罵兩個大陸姑娘，真心抱歉啊。 他不说话凭啥我就不能说话，有法律么。就算我素质差你骂人素质好了吗该动手时别客气 纠正如下：中国人均8k刀，台湾23000刀，中国一线基本都过了20000刀。另：希望你在美国打工之余，多学英语，了解世界 同意<br>和平桶一，已经不可能；；； 真是一顆老鼠屎，壞了一鍋粥。<br>用這樣的字眼辱罵對方，只是讓所有人都知道這男人的水準有多低。無言........😒 同意 同意。只要不影响别人就行。 我们的猪圈最干净，我们能吃饱了，我们还能上网，这难道不值得自豪。 中国一线城市顶个屁用，人均收入人均GDP排名世界第83位仅8000美元，台北哪怕你把她算作8线城市，但她的人均GDP排名世界33位，人均23000美元！你吃了几天饱饱的潲水就膨胀不得了了，肚子里的猪屎还没屙干净就冒充城里人了。 台湾也就只有网友能声讨了，现场没人出来声讨 这家伙，看戏不拍台高；；；；<br>小日本，就希望中国打起来；；； 明白人! 跑去受汪汪的气也是犯贱 谁说电车不可以说话是不能吵闹而已 简单的个两个人吵架都让你当个事儿发表，浪费时间 没必要吧他骂你你也骂他呗你是去旅游的你要是主动打人……犯不着跟狗计较 很糟糕；；<br>一帮对台砖家，应该拉出去埋了；；；<br>20年来，一直误判形势；；； 你们只是觉得你们没有影响到肉 台湾人素质还不错的，对大陆也没那么敌视。 天空飘来几个字，你丫煞笔啊 上次去杭州玩，遇到几个台湾人和韩国人的团，耳朵都要炸了。他们素质不见得好到哪里去。而且据说素质最好的白皮猪，世界杯也是在草地上吐痰的。做人不能太矫情。下了车谁也不认识谁，包容点就好，有些人去一些地方会变得很兴奋，话很多，声音很大，难道还能炸掉你耳朵？总归都是动物，天性而已，日本人小心翼翼的活着，规矩的很，在白皮猪里面依旧上不了台面。所有的标准没必要跟着外界走。OK？ 同意<br>和平統一，已经不可能；；；<br>一帮对台砖家，应该拉出去埋了；；； 二个女游客怎么打？ 全世界都不待见暴发户 国人素质确实堪忧啊 二楼的意识是：养不教父之过。<br>你又给P找了个爹。现在父母双全了。 你们湾湾现在算个屁。。 如果台湾电车像日本电车一样大家都不说话，那就怪不得别人骂。<br>如果台湾电车大家都能说话，当时就该打他。 看照片就是那种中年失败男的丧脸 看看谁发表的文章:海外网，一个专于街道新闻，小道消息，花边新闻的网站，善于挑拨是非，在海峡两岸拉仇恨。 自己回顾下自己的回帖，素质？配吗？就差没用咆哮体了吧？ 等打下台湾再去旅游 正解[窃笑] 当奴才赚半圆也是天性、 SB看清楚在说话：捷运车厢内并非只有大陆游客在交谈，也有其他乘客在聊天，男子只是因对方是大陆人，就破口谩骂 丢大陆人的脸 三观够正！顶你 湾湾大都欺软怕硬，台北也就相当于大陆三线城市，座井观天那来的底气妄自尊大，连那些以前最瞧不起大陆的当红艺人都厚颜跑到大陆捞金，直言台湾落伍了，我们才是老土。 这位易友说的不错，即便地铁聊天有过错，提醒的方式应该注意，才是真正的有素质。张口谩骂的方式对待外来游客，这位台湾同胞是不自信，没素质的表现。至于国人的素质，这些年国内游客在境外表现的种种新闻发了不少，大家都很注意了。我见过的绝大多数都是很好的，我们没必要妄自菲薄，小题大做的批判到素质层面，动不动就上升到国家民族的高度，今天的中国人应该有这份自信。 很糟糕；；<br>一帮对台砖家，应该拉出去埋了；；；<br>20年来，一直误判形势；；； 他说的是实话[可怜][可怜] 两面都不咋地！骂人肯定不对，而且带上地域歧视，本身智商情商都堪忧！但也希望在公共场合尽量少喧哗，特别是地铁上大声放视频的，喊着接电话的！其实低素质的人全世界都一样，我们尽量不是其中一员就好！ 说实话，我们国人也该检点一下，很多人在公共场合不注意形象，公交车上，地铁上，都是大声嚷嚷，很讨厌 建议学学手语，还能防止老年痴呆。 这家伙，看戏不拍台高；；；；<br>小日本，就希望中国打起来；；； 你能不能不要那么自卑？都还没定论自己先检讨，真是继承了几千年中华文明的好糟粕 哪里有问题？我没骂人没说脏话，正确表达自己思想和世界观。毫无毛病可言。 能不能不去这种乡下地方跨年[狗] 现在我们内地发展不错啊，干嘛还跑去台湾 小小台湾，荣誉感还强是吧 你连你先人都骂 其实，该检点的是谁？大家都心里明白，为什么中国人免签这么少，为什么中国人到哪都受歧视？打个比方，你父母在村里有头有脸，你的孩子也会得到相应的尊重。。 应该直接把这弹丸之地轰平，对一群二逼还讲什么一锅两痣 傻逼現在還去，自取其辱 你们只是觉得你们没有影响到人 在公交地铁上高谈阔论的人确实讨厌 赶回台湾 现在的狗媒专事在p民中间拉仇恨，相互挤怼，让双方大吵大骂消耗能量以转移对特权阶层的同仇敌忾，来达到它们同治的稳固！其心可诛！ 看看，弯弯的态度 估计说话太大声了，也不完全怪台湾男。大陆人在外的确高谈阔论是常态 今天骂的有多狂，武统后就哭的有多惨 没事，其实站在台湾的角度来说我本人也能理解一部分台湾同胞为何会如此反感陆客。不过台湾以及绝大多数台湾同胞(包括诸位网易里的台湾易友)给我的印象都非常好，很有素质，很有礼貌！😃 成都人是中国里的法国人，素质高低立判。 二楼仅仅签个名，真另类 在日本的电车上看到一群叽叽喳喳的国人学生，有一位女同学坐着还抱着一位同学，车上所有人都看她们，应该到日本旅游的，我在旁边感觉太丢国人的脸了！还有旅游国人到日本的居民区叽叽喳喳长时间照相，还进人家院子里照，去年进人家院子里照像刚刚被媒体曝光还继续干这事，这都是我亲眼所见！还有前段时间国人在日本电车上打电话被打的事儿，还有留学生闯红灯被撞死的事……国人名声在外并不好！ 你让那两个年轻女孩去打那个满口粗话，举止粗鲁的台巴子？你疯了你？ 还有傻逼去台湾啊 真是一顆老鼠屎，壞了一鍋粥。<br>用這樣的字眼辱罵對方，只是讓所有人都知道這男人的水準有多低。無言........😒 说实话，看看网易上屁民的素质，大致上能了解到整个国家的情况，自身层次高的，接触的都是有点经济实力的，当然觉得中国人素质尚可，因为接触不到底层屌丝，有空去三本学校看看，或者去那些网吧里转转，就能发现很多赚不到钱的年轻人有多愤世嫉俗 要谈素质先考虑一下我们的人口基数，再思考一下国外已经发展多少年，我们真正开始发现经济才多少年，近代中国都在解决温饱问题跟国外有可比性吗？中国人也真可怜，总是要拿自己的弱项去比别人的强项，然后心态开始扭曲。这件事本来就是那个台湾人排在导致的，哪里都有素质高低的人。 呵呵，台湾还是很值得一去的，别觉得乡下是贬义词 那是两厢情愿的事别说的好像真是死皮赖脸的<br>那那些国人在外被X的事咋不提了呢 楼上的别洗地了，素质低就是素质低，不要说出国，在国内旅游都可以深切体会到。有一次排队上船，有一队傻逼站错地方，站在了出口，他们居然一声喊，一起往正常队伍的那边挤，根本不看那边有好多孩子。幸亏一群武警用盾牌和警棍制止了他们。 你是在说8X吗 公众场合，不要喧闹，小学生都懂的道理。你还狡辩啥？ 边上俩女的一直叨B叨B叨B叨的！！！！<br>语速还巨你妈快！！！！从吃什么聊到男朋友再聊房价再聊他姐结婚再聊到买衣服！！！都快持续一个小时了！！！！！！没完没了了！！！！！！擦！这1000只鸭子叫的我脑袋疼！！ 本是同根生，相煎何太急。都是华人，说的是同一种语言，用的是同一种文字，传播也是同一种文化，有什么不一样吗？ 人口众多，实际上按比例算不比发达国家高，只是绝对数量多造成的误导。 三观够正！顶你 骂的好！这样的情况越多越好！湾湾快回家喽！ 骂你大陆人又怎样？你大陆有什么本事？还不是怕美国？敢对台湾开炮吗？就只会吹牛！ 素质很重要 免签撤侨的时候别蹭中国的飞机船跑路啊，坐着护照走啊 网易的不能算，网易的都是日本特科派的，以前美狗基地的时候网易素质绝对可以，可惜那批美狗撤了，说是美狗他们不拿钱的，现在日本佬雇来，靠发帖赚钱的人有多少素质。 全世界都不待见暴发户 大陆人也不是什么好东西都别把人说的那么高尚恶心的新闻 你们湾湾现在算个屁。。 骂得好 呆湾也有傻子 让他们永久安静怎么样？ 干人木A，蓝叫厚你噶 如果你上了车别人都在说话，那你说话就是理所当然，如果别人都保持安静，你就得保持安静！ 看看谁发表的文章:海外网，一个专于街道新闻，小道消息，花边新闻的网站，善于挑拨是非，在海峡两岸拉仇恨。 我们有些人的素质就是太低，在公共场合大声说话 台湾乡下地方，素质低不能怪它 大陆人现在到哪里都不受待见，难道没有反思过吗？ 台湾人声音也很大的 你这种贬自己人的垃圾，只能对你说一句，哪国人都有大噪门，但把自己国家所有人都贬，只能说你把自己也看轻了，把自己当成了低等人 别争了，中国人不是素质不好，只是习惯了热闹没顾及到周围环境罢了，一时半会估计难改变，慢慢来吧 呵呵，活该谁叫你去找骂 话说偷马桶盖的时候你可没这么激动 在中国著名的西北沙漠中的月牙泉，游客密麻麻排队坐车出来，中间有许多劣等中国垃圾抽烟，凑一个中国看来是有气质，衣着靓丽的中国三十多岁的妇女耳朵边，小声，小声，尽量最小声地说，咱们中国人真无文明教养，吸烟熏别人，本以为得到这外表高等妇女共鸣的，结果是被她狠狠在精神上掴一巴掌，她大声凶巴巴地说，你是中国人吗？？？？？---------------------------啊，中国人，仁慈而万能的主啊，中国人，是的-----------------------世界名言：再饮一杯恒河水，来生仍做印度人！印度的恒河，是世界上最脏的河，但印度人认为它是圣水，生喝！-----------------------不敢说中国，说印度，可以吧，不被打了吧！！！呸 你说跑到台湾去找骂，贱不贱？ 你们特别希望不带湾湾吧那样就有喷点了 骂得好 很简单，喧闹你就骂喧闹的人，一棍子抡倒一船人是错是对，小学生都懂的道理，你还狡辩啥？ 如果台湾电车像日本电车一样大家都不说话，那就怪不得别人骂。<br>如果台湾电车大家都能说话，当时就该打他。 我们有君子之风：打不还手，骂不还口。 能不能不去这种乡下地方跨年[狗] 说实话，我们国人也该检点一下，很多人在公共场合不注意形象，公交车上，地铁上，都是大声嚷嚷，很讨厌 我个人对法国，台湾，香港，日本，韩国，没好感，旅游不会选择！ 你很贱 没办法，谁让你去台湾旅游啊，不能说你活该，只能说不亏你 一楼说出了国人听力有问题。当局要重视了。 你好！台湾的朋友！能否问下台湾那边怎么报道这件事？事情的真相是怎样的？谢谢！ 这就是现实台巴子看大陆人就是一坨屎他可惜很多人跪舔湾湾 讲地域，是一种什么问题。。就是本身文化有(或者为受)局限了。。有没有人骂英国佬，“死大不列颠人”、、人家才叫象模象样。。学着点……另外，经济跟文化不是同等作用的东西(因为有人想奂置或代用) 简单的个两个人吵架都让你当个事儿发表，浪费时间 死阿台你才要安静点 没毛病 ----------后生们，身在福中要知福，现在有房给你们了，小夫妻可以天天时时睡在一起了，可以尽情做那事了。1970年代，上海外滩公园叫交媾园，男人和女人脱光全身在里面做男人和女人那事，单位发睡老婆票，这是戏谑话，内容是，单位在外面旅社订一个房间，给夫妻出去做那事，因为不得占时间太久，由工会安排时间，给一张票做证明，旅馆才放那个人进去，规定到什么时候必须走人，到另一对夫妻。于是人们将这工会安排的证明叫睡老婆票，那时发七百多种票证，包括豆腐票，大白菜票。还有一种叫配种房，职工结婚，单位安排一间小房间，女方怀孕了，就搬出来，男女各回男女集体宿舍住，于是职工戏谑地将这房叫配种房。------------因为没有房，再小也不有。----------外滩公园成为交媾公园，还是资本主义复辟了，男人和女人自愿做那事，无事了，才有，1977年前不敢。----------不信问1959年前出生的人，--------------不问后生的，如有一个小孩，晚上看电影回来，看见路边二个男人和女的滚在一起，问，爸爸妈妈，他们在做什么啊？爸爸妈妈十分尴尬，不知如何回答，只说，碰到这种事，一定不要去看人家，不然被人家用石头砸过来的。---------工厂二个女职工发生争吵，年青的讽刺年老的是荡妇，证据是，拿睡老婆票去旅社同老公睡时，床很响，时旅社多是木板楼，做工非常粗的木床，那么大的男人和女人，因为吃不够，好不容易得吃一次，于是很用力，床于是发出响声，如果是现在的水泥房，封闭得非常好，门口也是非常严密，那种响声人根本听不到，但那时不是，不但旁边房间，走廊人听到，甚至楼上楼下也听到。这个年老的女职工被抓了软肋，她脸红红的，说你也有年老结婚的一天的，到时不怪我也在大庭广众之一讲你----------------但她的报复计划落空了，这年轻女人结婚时，资本主义已复辟了，职工少穷一点了，夫妻虽然暂时还没有房，但可以自己私下租旅社房间了，更重要的是，可以在野外做，不是犯法了，睡老婆票和许多票证一起退出历史舞台了。1990年代，资本主义复辟得更多了，住房私有化了，配种房也没有存在的必要了，也湮灭了。------------------人们从心底里，感谢改革开放，实际上是感谢资本主义，帝国主义列强，美国，台湾港澳新加坡东南亚资本家。 免签。。。 人的素质和经济条件有一定关系，但教育才最关键。你好像自我感觉很满意，很牛逼哄哄的样子。😄 首先你得具备旅游的条件<br>比如去香港要签证的去日本要年薪10万以上 素质低该骂 去外滩夸？ 大陆人就是那样，喜欢大嗓门在公众场合喧闹！ 把自己搞的像日本人一样还学人家歧视大陆。傻逼佬 人家说了其他人也在交谈，这个男的就是骚扰！如果是几个大陆男的在那交谈他连屁都不敢放！ 在中国著名的西北沙漠中的月牙泉，游客密麻麻排队坐车出来，中间有许多劣等中国垃圾抽烟，凑一个中国看来是有气质，衣着靓丽的中国三十多岁的妇女耳朵边，小声，小声，尽量最小声地说，咱们中国人真无文明教养，吸烟熏别人，本以为得到这外表高等妇女共鸣的，结果是被她狠狠在精神上掴一巴掌，她大声凶巴巴地说，你是中国人吗？？？？？---------------------------啊，中国人，仁慈而万能的主啊，中国人，是的-----------------------世界名言：再饮一杯恒河水，来生仍做印度人！印度的恒河，是世界上最脏的河，但印度人认为它是圣水，生喝！-----------------------不敢说中国，说印度，可以吧，不被打了吧！！！呸 最好死那里别回来 一个人说你不好不一定不好，一群人说你不好你就是不好 蔡英文都那样子了，还去台湾找骂，贱民一个！ 死台湾人 你这种假洋鬼子也配讨论我们中国人的事情？ 如果声音过大，确实很讨厌！正常交谈，属于自由。这个度，不好把握，各人标准不同。所以，有人就有矛盾。放开二肽！！！N胎！！！ 很低分都能上大学，教育资源已经过剩了！！ 在公交地铁上高谈阔论的人确实讨厌 那你去呆湾ttp上看看再说呗，你这么一厢情愿好嘛！ 干嘛去台湾 这种台湾佬，有本事来大陆，保证打不死你。 飞机上还有的人大声吹牛逼，烦死了！嗓门又大！ 我听不懂， 百分百变态男！ 你既然一说平均，就把三线城市以下的都算上了，中国二线城市里的本地人素质不输外国 骂得好，叫你去 巴子一天不打浑身难受 去做头等舱，保证吵不到你 怎么，不是五千年文明嘛，就文明的叫人看不起啊 和内地比差远了 全世界都不待见暴发户 在中国著名的西北沙漠中的月牙泉，游客密麻麻排队坐车出来，中间有许多劣等中国垃圾抽烟，凑一个中国看来是有气质，衣着靓丽的中国三十多岁的妇女耳朵边，小声，小声，尽量最小声地说，咱们中国人真无文明教养，吸烟熏别人，本以为得到这外表高等妇女共鸣的，结果是被她狠狠在精神上掴一巴掌，她大声凶巴巴地说，你是中国人吗？？？？？---------------------------啊，中国人，仁慈而万能的主啊，中国人，是的-----------------------世界名言：再饮一杯恒河水，来生仍做印度人！印度的恒河，是世界上最脏的河，但印度人认为它是圣水，生喝！-----------------------不敢说中国，说印度，可以吧，不被打了吧！！！呸 我去你大妈，你去过美国吗。这排名你排的吗？美国人的素质在发达国家中等，中国在全世界中等。差距还是很明显。 有些大陆游客却是素质低下让人生厌 如果台湾电车像日本电车一样大家都不说话，那就怪不得别人骂。<br>如果台湾电车大家都能说话，当时就该打他。 垃圾去倒数，被骂是应该的。 去哪不好，去这种四线城市 看看谁发表的文章:海外网，一个专于街道新闻，小道消息，花边新闻的网站，善于挑拨是非，在海峡两岸拉仇恨。 哪里都有垃圾人，喜闻乐见 你们湾湾现在算个屁。。 我能说活该麽？？ 觉得没啥，我们大陆不也是各种地域黑吗？ 三观够正！顶你 整体而言，中国人平均素质跟跟欧美日人口平均素质差距还是比较大的。 那是首都 湾湾都是垃圾 台北是世界十大跨年胜地多出去走走别被墙傻了 同意2楼，这个网就是找点小新闻，专门干点挑拨离间赚取点击率的垃圾网站。 说实话，我们国人也该检点一下，很多人在公共场合不注意形象，公交车上，地铁上，都是大声嚷嚷，很讨厌 台湾教育资源过剩，是个人都可以接受到教育，受过教育的人素质普遍都高。反而是你们那些穷地方教育资源严重短缺甚至要靠人慈悲为怀给你们建希望小学，教育资源的严重短缺导致你们受教育严重不足素质低下还狗眼看人低，满嘴朝鲜人评论韩国人的口气，活脱脱无知无畏的乡巴佬 即使我坐头等舱，那她吵到别人就不被人讨厌了？ 能不能不去这种乡下地方跨年[狗] 话说强龙不压地头蛇 骂的好，上次在飞机上，我后面一对夫妻，从头说到尾，声音大的快吵死了。 以前去台服玩游戏，一个湾湾知道我是大陆的说了句阿六仔，和他的一起的个人说了句，要有礼貌……[微笑][微笑][微笑] 你哪儿来的数数据？我反倒觉得好多中国人出国的时候不说素质有多好至少还是很克制的，北美人我认识不少也见过不少，也是林子大了什么鸟都有...咱自己的国，说不出来多好，但是也别这么自卑 在中国著名的西北沙漠中的月牙泉，游客密麻麻排队坐车出来，中间有许多劣等中国垃圾抽烟，凑一个中国看来是有气质，衣着靓丽的中国三十多岁的妇女耳朵边，小声，小声，尽量最小声地说，咱们中国人真无文明教养，吸烟熏别人，本以为得到这外表高等妇女共鸣的，结果是被她狠狠在精神上掴一巴掌，她大声凶巴巴地说，你是中国人吗？？？？？---------------------------啊，中国人，仁慈而万能的主啊，中国人，是的-----------------------世界名言：再饮一杯恒河水，来生仍做印度人！印度的恒河，是世界上最脏的河，但印度人认为它是圣水，生喝！-----------------------不敢说中国，说印度，可以吧，不被打了吧！！！呸 台湾有什么好的？台北都快成三线城市了 贱人遭贱骂! 就事论事，2个女性之间交谈怎么可能哇啦哇啦！地铁不能说话了？ 简单的个两个人吵架都让你当个事儿发表，浪费时间 要谈素质先考虑一下我们的人口基数，再思考一下国外已经发展多少年，我们真正开始发现经济才多少年，近代中国都在解决温饱问题跟国外有可比性吗？中国人也真可怜，总是要拿自己的弱项去比别人的强项，然后心态开始扭曲。这件事本来就是那个台湾人排在导致的，哪里都有素质高低的人。 一个字该 人家说了其他人也在交谈，这个男的就是骚扰！如果是几个大陆男的在那交谈他连屁都不敢放！ 巴子两天不打上房揭瓦 怎么说呢，我最希望的就是国家发展不断壮大，到那个时候台湾人还会有什么声音? 哎，典型花钱去找骂的… 会叫的狗都胆小 挺好的坏习惯到哪里都会被讨厌 别说事实人家喷子跟你说事实还怎么拿钱啊 痴汉系列？[色色][色色][色色] 台湾骂死啊陆 普遍存在的可卑的、自卑的地域自豪感 活该挨骂！讲话大声、随地吐痰、电梯不靠右边站立、不排队、厕所里吸烟、随意坐博爱座椅、丢人不说还嫌人家辱骂你？活该 一边欢迎暴发户一边到处贴着中文的“不要随地吐痰”很光荣咯……原来不要脸还有这种神操作…… 你父母教的真好，把你素质教这么高，你父母是不是教你见面打招呼就是草泥马，吃饭的时候说开屎啦。😄，难怪素质这么高。 去哪不好，去这种四线城市 大陆人确实农民多，不懂得这些，大家忍忍吧，全世界都在忍 双方都有问题，首先这个台湾人大声骂人肯定不对，如果心情不佳可以沟通一下小点声，另外，我对公交地铁上面大声聊天的也很反感，如果赶上我心情不好，我也想骂。。 台湾乱成啥了还去台湾。 素质低挨骂活该 你是在说98年吗？ 一个女人顶三千只鸭。 素质高！ 一楼看起来经常大嗓门在公众场合喧闹，自己什么德性自己最清楚 大哥，多看看新闻呀 sb美爹叫你回家 傻逼才跑到台湾去哎骂，而且别人挨骂你们瞎操心啥？你说你是不是脑子被驴提了？ 不好意思，你一说日本电车我的思绪就飞出去了[狗][狗] 全世界都不待见暴发户 是你开的飞机吧，你这样清楚 出过国吗土由 台湾佬小气的要命！ 你们湾湾现在算个屁。。 如果台湾电车像日本电车一样大家都不说话，那就怪不得别人骂。<br>如果台湾电车大家都能说话，当时就该打他。 内陆人都不要去那地方，没素质的地方有啥牛的 一般分两种，比暴发户有钱的算不待见，不如暴发户的是酸。 我觉得自己素质不算低，但我不会像楼上那样纵容你这种傻逼。面对面我会抽的你满地找牙。就在网上我也要骂到你喷血而亡，中国人的素质就是被你这样的垃圾拉低的。有爹生没娘教的傻逼！ 有视频就发视频嘛，光靠图说话你想怎么说就怎么说喽 全世界各国最差游客排名都是美国第一 全世界都欢迎暴发户，全世界都不待见穷的只剩下信仰和品味的人。。。小三小蜜二代二奶要移民美弟，分分钟的事，只有天天跟X卫兵一样在网上高喊美人希的往往被人家拒之门外 你这种贬自己人的垃圾，只能对你说一句，哪国人都有大噪门，但把自己国家所有人都贬，只能说你把自己也看轻了，把自己当成了低等人 看能不能人肉出这个二货，隔海干爆这货 台湾人在日本电车上声音是最大的，都是大陆人背锅。另外日本电车也是可以说话的，来几个高中女生，喝多的朋友，唠家常的老太太，你遇见了就知道了。只能说相对安静很多。 整天挑拨是非，无聊 就这件事而言，不需要再“如果”了，当时车上有其他人在说话。 去呆湾找骂，活该 台北是世界十大跨年胜地多出去走走别被墙傻了 哈哈哈。窝里凶。有种到大陆来喊一下试试呢， 四楼和个煞笔一样，最没有城市特点的城市就是深圳了，说起深圳代名词就是山寨货，人口杂，暴发户 能不能不去这种乡下地方跨年[狗] 详细说说啊 大陆烧包，都不去让台湾比印度还穷，就老实了 自己要去的，活该啊！ 鄞州区在输掉拆迁官司的情况下，在长丰中交地块上非法拆毁我家园，损失惨重，无家可归，报案三年多不立案，房、地证都还在手上，没有赔偿，现在它们高价卖给开发商，目无法纪、无法无天、天理何在！！求顶 你这就是中国人的正常素质，每个中国人都认为自己素质不低，你完全把中国人素质反应出来了。可以继续喷，我还扛得住，😄。如果没动力了我喷你几句给你祝祝兴？ 自己说自己实话，然而一点干货都没，就会使劲喷 免签。。。 在国外，每次看到大声嚷嚷的中国游客，都替他们丢人。 这种鬼岛穷乡僻壤的地方，去那干嘛 大陆人就是那样，喜欢大嗓门在公众场合喧闹！ 就那点文化程度，能说出来什么干货！ 这就是汉奸流氓 个人觉得台湾挺好玩的，物价也不高。吃得东西很实惠。有的时候觉得国内的旅游胜地真是宰人啊。当然对有钱人来说不是啥。 台湾佬都是垃圾 免签。。。 搜一下韩寒，所谓大国文化。 弯弯说的对，为弯弯点个赞 咋不揍她，干她死 以为黑社会双花红棍有女打手！ 一看你就没坐过台湾电车，在上面不说话，真的以为你是哑巴。 到现在你还相信这种鬼话劳驾翻墙出去看看台巴子只有一小部分当年老一辈逃到台湾的外省人还讲究温良恭俭让 脏话还是实话你心里没点笔数吗？还谈素质？素质一词和你有关么？ 以为黑社会双花红棍有女打手！ 去过两次台湾，总的来说不行，特别是有些台湾人总以为台湾发达，瞧不起外面的人 那俩游客也应该自己检讨一下有的是好地方为啥非要去那种乡下地方过元旦 花花世界真的只能用来形容国内。有的地方确实比国外华丽。可问题是很多公共服务让纳税人上火。这是最头疼的。 骂两女的怪有劲 去年去东京玩一个周五晚上地铁上都是下班的班族高谈阔论热闹的很根本不像一些喷子所谓日本人的地铁都很安静 台巴子就是欺软怕硬。 把台湾当成第二个小日本不就好了吗？没事去小日本干啥子？找骂？ 感觉台湾人已经很礼貌了 说不说话在其次，关键是湾湾压根儿就没有把大陆人放在眼里。 环滁皆山也... 全世界都不待见暴发户 是你开的飞机吧，你这样清楚 骂的好！！最好打一顿！！最烦这些公共场合大声喧哗！抽烟！随地吐痰的王八蛋！！！ 签定此男日本当年留下的野种！ 一帮屌丝喷子总是认为外国人就是对的，国人被打被骂那都是自找的，毫无人性原则的喷子 你们湾湾现在算个屁。。 有个过程，很多时候无关素质，日本很多年前有个事件很有名，大概是一对日本人去美国旅游，看人家后院有意思，过去拍照结果引起冲突，当时社会讨论很激烈……慢慢的会好的 如果台湾电车像日本电车一样大家都不说话，那就怪不得别人骂。<br>如果台湾电车大家都能说话，当时就该打他。 这傻逼，劳资想打死他 看看谁发表的文章:海外网，一个专于街道新闻，小道消息，花边新闻的网站，善于挑拨是非，在海峡两岸拉仇恨。 环球时报参考消息央视网人民网人民日报新华网铁血网太行军事网CCAV澎湃新闻网华尔街见闻中新网国际在线……政事儿政知局观察者网长安节知事...海外网瞎嗑倒 打脸不要太疼 笑:-D 倒数陪女朋友去了台北101看烟花，当地人都是提前56个小时到观看烟花最佳位置坐着吃东西等到12点，很佩服他们，整齐有序，散场时候也主动带走垃圾，但是也有个别情况存在，这一点的我们真的需学习。 深圳一打工仔也敢跑网上说别人穷了 全世界都欢迎暴发户，全世界都不待见穷的只剩下信仰和品味的人。。。小三小蜜二代二奶要移民美弟，分分钟的事，只有天天跟X卫兵一样在网上高喊美人希的往往被人家拒之门外 素质低该骂 他骂你你打他啊 你看他喷的是跪湾湾的人，还是说台湾现在不行的人！！ 被骂了一点声音都没要是在国内试试 你没看文章么？人家也在聊天，而且又没说聊的很大声… 台北是世界十大跨年胜地多出去走走别被墙傻了 这是任务，职责所在 干死他 去年去东京玩一个周五晚上地铁上都是下班的班族高谈阔论热闹的很根本不像一些喷子所谓日本人的地铁都很安静 能不能不去这种乡下地方跨年[狗] 说实话，我们国人也该检点一下，很多人在公共场合不注意形象，公交车上，地铁上，都是大声嚷嚷，很讨厌 我看该骂！他马勒戈壁拿着钱去给别人送别人都骂你，那你能不能长点骨气？能不能不那么下贱？大陆容不下你？自己找的！ 跪弯弯发就该挨喷 可以去台湾？ 在公交地铁上高谈阔论的人确实讨厌 英国也叫彬彬有礼？你喝醉了吧，我去过的发达国家没有比英国人素质更糟糕的。 简单的个两个人吵架都让你当个事儿发表，浪费时间 以为黑社会双花红棍有女打手！ 傻逼？ 他不代表台湾同胞，大部分台湾同胞是好的！台湾人礼貌，儒雅。 这是事实 所以说它乡下地方有什么问题？我们乡下地方就是物价也不高吃得东西很实惠没有高楼大厦啊。 ",
        "Reply": 1248,
        "Link": "http://comment.news.163.com/news_shehui7_bbs/D74VN65Q0001875P.html",
        "Total": 17846
    },
    "KeyWords": "捷运,台湾人,大陆人,霸凌",
    "URL": "http://news.163.com/18/0102/10/D74VN65Q0001875P.html"
}