{
    "PublishTime": "12/30/201709:30:58",
    "Source": "Netease",
    "Comment": {
        "Content": "心都凉了。中国护照是不是国家发行的。为什么回国你们都不承认呢？ 成都首套房子还要涨20%的利息……控TMMP 脑残。 不管办的下来，办不下来，都是开发商或者中介在操作，已经和购房者没关系了。剩下的是开发商和银行之间的业务了。<br><br>因为，你在付首付的时候，已经把各种贷款需要的手续交给开发商了，他们会审核，如果你一了就不符合贷款要求，那么首付也不会收你的。既然收了，说明就符合，下不来，是银行的问题了。之后按合同办事儿就可以了。 都去炒房，没人开工厂，工人都失业，难道等着工人阶级闹革命，不是自己作死吗。 国内的银行开户，办事人员说只认外国护照、中国人只认居民身份证。他们还说“只要你是中国人你就应该有居民身份证。如果你没有居民身份证，那你就不是中国人”。 户口本也是国家发行的，你去住宾馆，可以用么？ 中国护照算不算中国人的身份证，为什么在国内银行、车票、住宿都不承认？ 别想那么多了，明年跳楼潮开始 说的太对了。我也觉得这些人是有些脑残。不仅把孩子的前途耽误了、而且自己浪费了不少精力和那些王八蛋扯皮。但他们说“不要只看阴暗面、相信将来会变好的”。还这么脑残。 说好的按需分配呢？ 不要自我安慰了，今后几年的惨烈会超乎你的想象 办不下来就得全款了，如果没能凑齐，那么就等着违约吧 新盘的话只要不是你自己征信出现问题，一般都会办下来！ 想得美 不会，你不仅会赔掉首付还会被银行追责 房子是不会降价的，贵国政府会控制的！北京房价跟三线城市一个价格，人们都去北京买房了！ 怎么调也不能便宜了刚需，刚需从一个侧面来讲就是稳固房价持久的基石！ 这个难啊，开发商也等钱用。还是你自己想办法，把祖宗三代的钱拿出来。 跟贴被火星网友带走啦~ 你是斗不过房地产开发商的，别天真 穷日子富过 有点闲钱，就不能生产点化妆品、内存条，死乞白赖的炒地皮和国家过不去。 会不会银行的钱进入民间借贷公司？ 含住，无讲话，，，， 经济要破灭 早期出国规定必须临时注销户口才能领到出境卡，而这些人现在回国时因为没有居民身份证，银行、买车票、住宿等等出示中国护照都不被承认，遇到很多不便、寸步难行。但是没有户口就没有身份证。恢复户口由于年数已久很多手续遇到互相扯皮推卸责任等，落不了户拿不到居民身份证，有的奔波了十几年至今得不到居民身份证，拿着护照在国内银行、住宿、买车票又不不被承认、不给办手续。不知这种事情一直要扯皮到什么年月。国家没有相关政策来解决吗？他们可都是爱国人士在外几十年都没有放弃中国国籍的人。 只是贷款的方向以后会倾斜，对于刚需和共租房的可能好贷款，炒房的用银行的钱做杠杆的会很难了，拭目以待吧！ 這是人生中最大的悲哀！ 继续加大限制房产 事实是什么你还不清楚吗！ 现在看他们确实脑残，入了外国籍就不会这么辛苦了。 违约交一部分违约金，房产公司也得退首付，这套房他还得另找买家，房产公司也不愿意这样的。 我都等一年了，一月8号签到合同 你们大城市安规矩来。小城市不这样，怎么办看开发的意思了 买个车吧车牌还要摇号。太不方便。你把汽油、车税和停车场的价格涨几倍、自然就有很多人不开车了。 想多了，成都这边首套房利息涨20% 正在办理房贷中，如果办理不下来，开发商会退回已交的首期吗 不算，如果你说算的话，你这张脸应该也算身份证了 以退为进的套路 谁能把宇宙第一房价降下来才服谁 户口本是身份证吗？你出入境过海关拿户口本试试。在中国、外国护照就是身份证得到承认，为何中国护照就不是身份证了？ 那你说中国护照是干嘛用的？ 淡淡地 中国一线二线城市房价已经高得离谱了，它透支着这些城市的未来发展，这里面包含巨大金融风险，银行是最先知道的，所以他们根本就不敢象过去那样放贷。 别贷给他们，没钱买滚回老家，我们辛苦建设了几十年的城市让他们轻松享受，太不公平了👸 说的对 心都凉了。中国护照是不是国家发行的。为什么回国你们都不承认呢？ 脑残。 不会，转纯商贷 不管办的下来，办不下来，都是开发商或者中介在操作，已经和购房者没关系了。剩下的是开发商和银行之间的业务了。<br><br>因为，你在付首付的时候，已经把各种贷款需要的手续交给开发商了，他们会审核，如果你一了就不符合贷款要求，那么首付也不会收你的。既然收了，说明就符合，下不来，是银行的问题了。之后按合同办事儿就可以了。 都去炒房，没人开工厂，工人都失业，难道等着工人阶级闹革命，不是自己作死吗。 国内的银行开户，办事人员说只认外国护照、中国人只认居民身份证。他们还说“只要你是中国人你就应该有居民身份证。如果你没有居民身份证，那你就不是中国人”。 小时候我很害怕喷子，大人们告诉我喷子没有感情，他们是冷血动物，但事实并非如此，在喷人的瞬间，他们如同新生。 房子价值市场说了算，银行不给贷款或者是高首付，高利率，只能买不起房子的继续租房。 中国护照算不算中国人的身份证，为什么在国内银行、车票、住宿都不承认？ 别想那么多了，明年跳楼潮开始 说的太对了。我也觉得这些人是有些脑残。不仅把孩子的前途耽误了、而且自己浪费了不少精力和那些王八蛋扯皮。但他们说“不要只看阴暗面、相信将来会变好的”。还这么脑残。 说好的按需分配呢？ 谁能把宇宙第一房价降下来才服谁 你是斗不过房地产开发商的，别天真 想得美 主要是当年没考虑周全，4楼说的这类人，没被考虑进来，国人拿身份证办理，外国人拿护照，是国人但只有护照处在了盲区，现在好很多了，去银行，买票啥的，都可以用护照了。 不会，你不仅会赔掉首付还会被银行追责 房子是不会降价的，贵国政府会控制的！北京房价跟三线城市一个价格，人们都去北京买房了！ 刹不住的冲动啊。 怎么调也不能便宜了刚需，刚需从一个侧面来讲就是稳固房价持久的基石！ 这个难啊，开发商也等钱用。还是你自己想办法，把祖宗三代的钱拿出来。 经济要破灭 户口本也是国家发行的，你去住宾馆，可以用么？ 我们这里听同事说公积金不让贷款了 这样的，早点拿到钱哦 只想着怎么压需求（购房人），不想着加供给（造房子），就是让房价不要跌，这样政府好能继续卖地 货币安置 想多了老哥 会不会银行的钱进入民间借贷公司？ 科科 含住，无讲话，，，， 说白了就是通货膨胀 我的整整一年了，16年12月的合同。公积金还没贷下来，18年继续。 成都首套房子还要涨20%的利息……控TMMP 這是人生中最大的悲哀！ 继续加大限制房产 事实是什么你还不清楚吗！ 贷款批不下来？这让刚需群众怎么办？ 现在看他们确实脑残，入了外国籍就不会这么辛苦了。 以退为进的套路 违约交一部分违约金，房产公司也得退首付，这套房他还得另找买家，房产公司也不愿意这样的。 我都等一年了，一月8号签到合同 你们大城市安规矩来。小城市不这样，怎么办看开发的意思了 银行最好别在这块搞太大的动作，无论你怎么动，都会动一部分人的利益，而无论你动谁的蛋糕，都会被网友骂的狗血喷头，房价调控，交给zf 买个车吧车牌还要摇号。太不方便。你把汽油、车税和停车场的价格涨几倍、自然就有很多人不开车了。 想多了，成都这边首套房利息涨20% 全民加杠杆，全民对赌！ 业绩还可以呀 有点闲钱，就不能生产点化妆品、内存条，死乞白赖的炒地皮和国家过不去。 正在办理房贷中，如果办理不下来，开发商会退回已交的首期吗 不算，如果你说算的话，你这张脸应该也算身份证了 办不下来就得全款了，如果没能凑齐，那么就等着违约吧 小学小学需要，要不在老家自己建。那赶紧办理才行…… 城里买房住高楼，不合算啊！ 户口本是身份证吗？你出入境过海关拿户口本试试。在中国、外国护照就是身份证得到承认，为何中国护照就不是身份证了？ 淡淡地 中国一线二线城市房价已经高得离谱了，它透支着这些城市的未来发展，这里面包含巨大金融风险，银行是最先知道的，所以他们根本就不敢象过去那样放贷。 别贷给他们，没钱买滚回老家，我们辛苦建设了几十年的城市让他们轻松享受，太不公平了👸 新盘的话只要不是你自己征信出现问题，一般都会办下来！ 想得美 八月份下的贷款，利率5.145！！ en 问题是公积金不够用了 正在办理房贷中，如果办理不下来，开发商会退回已交的首期吗 跟贴被火星网友带走啦~ 办不下来就得全款了，如果没能凑齐，那么就等着违约吧 穷日子富过 不告你违约都好了 首付基本可以支付违约金！ 这可怎么办啊。 ",
        "Link": "http://comment.news.163.com/news_guonei8_bbs/D6T52LBP0001875N.html",
        "Total": 1999,
        "Reply": 71
    },
    "Article": "（原标题：房贷变局：放款排队等半年！前三季余额仅增1.96万亿近腰斩）临近年底，个人住房贷款（以下简称房贷）额度出现了前所未有的紧张，“放款时间普遍延长至半年或以上，部分银行的分（支）行出现了停贷，有些客户因贷款长时间审批不下来，甚至去银监局投诉银行。”一位接受21世纪经济报道记者采访的机构人士表示。2017年，中国宏观层面大力防范金融风险，抑制房地产泡沫，楼市经历了前所未有的严厉调控，房住不炒、租购并举的精神已深入人心。在这一背景下，银行的“香饽饽”业务——个人住房贷款亦受到了严控，房贷降杠杆大势所趋。央行数据显示，2017年前三季度，个人房贷余额21.1万亿，同比增长26.2%，2016年全年这一增速为35％；余额仅增加1.96万亿，2016年同期余额增加为3.63万亿。从四季度额度愈发紧张的状态看，预计全年个人房贷增速将继续下滑，新增额度显著减少。多位银行业人士预计，房地产降杠杆、去金融属性不是一日之功，2018年房贷额度紧张也将是常态。这给多年来依赖房地产贷款的商业银行带来了挑战，倒逼银行业务转型。放款等半年中国银行长沙某支行个贷经理小李，最近加班次数越来越多，有时忙得连上洗手间都一路小跑。让她神经紧绷的，是手里的放款审批材料。“不知道2018年的政策和额度情况，我们能做的，就是尽快把手里的资料全部审完，只等额度下来批款。”2017年12月28日，她对21世纪经济报道记者表示。小李透露，2017年好多银行都在抢额度，部分支行上半年就已停贷。“大家都在传，2018年额度还会很紧张。”“广州工行没有停贷这么夸张。”中国工商银行广州某支行网点经理小周告诉记者，额度是有的，不过相对往年比较紧张。额度紧张导致放款时间大幅延长。多家银行个贷经理表示，以往提交资料到最后放款，正常是一个月左右。但现在，“放款排队半年很正常。”小周说。2017年12月28日，长沙一位IT工程师小杰向记者发来他申请贷款的时间节点图：2016年8月份申请，2017年1月面签成功，但直到6月份银行才批款。融360报告显示，其统计的533家银行分（支）行中停贷银行分（支）行数由1月份的9家骤增至11月的56家。其中超9成表示受额度紧张影响，暂停受理新增房贷业务，消化已受理业务；不到1成表示因为内部业务方向调整，部分地区暂停房贷业务。2017年以来，个人房贷余额增速明显下跌。据央行《2017年三季度金融机构贷款投向统计报告》，2017年前三季度，个人住房贷款余额21.1万亿，同比增长26.2%，相比2016年35%、今年一季度35.7%的增速下降了约10个点。“房地产贷款增速继续回落。”央行表示。一线城市成为严控重点，房贷余额更是降速明显。央行上海总部数据显示，2017年11月份，房贷余额同比增长14.5%，增幅比2016年同期下降28.4个百分点。12月15日，央行营管部（北京）发布报告显示，个人房贷余额9646.5亿元，同比增长17.7%，增幅比2016年同期低25.3个百分点；余额比年初增加1348亿元，比2016年同期少增约1000亿。值得关注的是，2017年前三季度，个人房贷与住户部门中长期贷款这两个往年接近的数据，出现了缺口拉大的现象，个人房贷余额增加1.96万亿，中长期贷款增加则达4.2万亿。有银行业人士分析认为，不排除一些资金通过非房贷的方式进入了房地产。由于央行房贷数据以季度或年度形式公布，四季度的数据尚未出炉。不过总体来说，新增房贷下跌趋势已成。中国农业银行有关人士表示，今年对个人住房贷款的投放进行总量调控，预计2017年新增房贷不会超过2016年；中国建设银行方面也表示，今年的房贷增量不会超过2016年，总体将有所收紧。2017年12月20日，建行广东省分行行长刘军在中国住房租赁高峰论坛上透露，2017年四季度，建行广东分行住房按揭贷款只有27亿，排队审批的有上百亿。“不只是建设银行，所有银行都在紧缩房贷。”刘军预计，这种情况2018年还将持续。房贷降杠杆买房贷款难、房贷大幅下跌的背后，是中国宏观经济防范金融风险、抑制房地产泡沫的要求。过去多年，房地产一直是商业银行的主流业务之一。“银行喜欢房地产行业，链条长，收益大，从1998到2017年，银行给房地产持续造血、输血。”一家大型国有银行内部人士说，该行广东分行现存8000亿贷款中，5000亿与房地产相关。但房地产发展过猛，房价上涨太快，会造成泡沫，带来风险。民生证券指出，因2014年“930新政”，房地产市场迎来2015-2016年的大牛市，其间居民购房贷款余额同比增速从15%升至35%；个人购房杠杆率（个人购房贷款余额/GDP）从2011年的15%升至2016年的25%。2016年，以个人住房贷款为主的住户部门中长期贷款约占新增贷款总量的45%，这一比例明显高于往年。民生证券认为，2016年个人购房杠杆率上涨过快，存在结构性风险。2016年底，房地产开启新一轮调控，货币政策转为稳健中性，居民房贷转为降杠杆。前述银行人士说，2017年以来，央行、银监会不断要求银行降杠杆、防风险，房地产要去金融属性。其中，居民房贷降杠杆、收紧个人房贷成为重点。实际上，央行2017年一直在对房贷进行调控。央行营管部主任周学东年初预计，个人房贷占新增贷款的比例2017年会下降到30%以内，相对于2016年45%左右的占比来说，将是明显下降。周学东还透露，一二线热点城市的房贷结构问题尤其突出。从2017年1月开始，央行营管部在MPA评估中加入个人房贷增长这一因子，对北京地区全部银行严控个人房贷新增额占全部新增贷款的比重，并将全年调控目标确定为25%左右。民生证券宏观固收组组长张瑜指出，在调控下，2017年个人房贷余额增速同比回落，第三季度末为21.1万亿，增速回落至25%；个人购房杠杆率维持在25%左右，开始企稳。考虑到2018年房地产调控和货币政策基调不变，张瑜认为，房贷杠杆率会持续下滑。一方面，是银行主动控制个人房贷的发放节奏；另一方面，是居民购房需求在限购、限贷等政策打压下有所回落。在房地产的开发贷方面，也可以看出房地产降杠杆的趋势，单纯的地产开发贷余额在下降。2016年12月末，地产开发贷款余额1.45万亿；截至2017年9月末，地产开发贷款余额1.4万亿。多家地产商表示，开发贷一般年初就确定了总额，银行到年底就很少放款了。银行调结构个人房贷受到严控，房地产去除泡沫化风险，让过去依赖房地产的商业银行开始考虑转型。刘军指出，房地产的四限政策增加了整个交易的摩擦系数，让交易无法达成，让房地产资产冻结、去除金融属性，对银行来说，必须重构过去依赖房地产开发贷和个人房贷的盈利模式。在中国住房政策转向租购并举之下，刘军认为对银行而言最大的机会是住房租赁，建行正在身体力行，把要买房、到建行变成要租房、到建行，要存房到建行。据21世纪经济报道记者梳理，面对房企等机构房东和租户，建行推出了“CCB建融家园”融资租赁、租房平台、按居贷，不仅提供租房平台，还提供租赁金融产品。其他商业银行对租赁领域的资金支持也明显提速。中信银行透露，未来三年，将为房企碧桂园提供300亿元长租住宅保障性基金，此外中信集团也将整合旗下中信银行、中信证券、中信信托等金融资源，为碧桂园提供综合化金融服务，双方合作产品将包括但不仅限于ABS、REITs等。中国银行厦门分行则在2017年11月2日，与厦门市国土资源局合作，推进住房租赁市场建设；12月5日，工商银行广东省分行营业部将为广州市城市建设投资集团有限公司提供200亿元授信资金，支持建设公租房、廉租房、人才公寓等。与此同时，房地产市场进入存量时代，绝大部分房企开始转型，由开发转向开发+运营，对银行而言，也要去匹配房企的新业务。平安银行行长胡跃飞认为，过去十多年，住房的自住和投资需求集中爆发，造就了中国房地产业的黄金时期，这一时期，增量需求推动市场发展，各大房企的经营链相对简单，主要是把房子盖好和卖好。而当供给、需求达到阶段平衡点之时，市场进入了存量时代，经营链变成了生产+销售+运营，这给所有房企和金融机构带来了挑战，以及机遇。所谓挑战，是持有一定重资产的房企，资源布局和财务模式都将发生改变，要更加善用金融手段；所谓机遇，是因为存量经营在我国还处于初级阶段，巨大的市场蛋糕将逐渐形成。胡跃飞认为，坚持“房子是用来住的，不是用来炒的”这一定位，不是缩小房地产的市场空间，而是在改变行业的价值创造模式，由单极思维转向多极思维，单元空间转向多元空间，存量经营的价值空间正在开启，有望改变未来市场的格局。他透露，目前平安集团正在积极开展住房租赁金融服务体系的研发和构建，后期平安希望联合各大房企，推动多主体供给、多渠道保障，租购并举的住房制度早日建立。本文来源：21世纪经济报道责任编辑：张宪超_NN9310",
    "URL": "http://news.163.com/17/1230/09/D6T52LBP0001875N.html",
    "Title": "房贷放款排队等半年 前三季余额增1.96万亿近腰斩_网易新闻",
    "KeyWords": "房贷,贷款,政策,央行"
}