{
    "Article": "网易娱乐1月2日报道据音乐博主叁叁肆计划爆料，歌手李志在跨年演唱会的不插电环节原本准备了九首歌，最后由于篇幅删了三首，分别是《苍井空》《忽然》《结婚》。而第二天苍井空就在社交平台上宣布自己结婚的消息。网友纷纷表示：“预言家上线！”本文来源：网易娱乐责任编辑：杨明_NV5736",
    "Title": "神预言?李志演唱会临时删三首歌 竟与苍井空有关_网易娱乐",
    "PublishTime": "01/02/201815:40:50",
    "Source": "Netease",
    "Comment": {
        "Content": "李志的歌删的删禁的禁以后没几首能唱了！ 还是张杰牛鼻代表作《夜空下最亮的星》舞曲版 逼哥还需要炒作吗？ 不管你信不信，反正我是不信🤨 我差点都信了 足球运动员退役叫挂靴，苍老师更像是一个文人，因为她退役只能用“封笔”！ 李志真他妈的会炒作自己 看看国内娱乐圈还是苍老师最纯洁 打开硬盘再看下苍老师的作品，就当给她闹洞房了。 断断续续去了5年跨年，还是最怀念义乌的那首梵高先生 社会我逼哥 祝福老师！ 你还有硬盘吗。我想看 推荐《他们》 哈哈 逼哥牛逼 历史会铭记----《黄昏》 这个图是哪部作品？？ 这逼歌还行，编曲团队厉害，就是唱功真的太差了 不要紧的—全球代言人 他自己炒自己，他是做音乐中最好的产品经理。 连续两年去了李逼跨年，今年郑均不如去年的崔老头子 神一样的李志[微笑] 为了表示对苍老师的敬意，婚前再最后撸你一次。撸完删种，立贴为证。 李志是谁？祝福苍老师 谁接盘啦？[窃笑] 苍老师的电影是不是都有码 求分享 😒😒不要说舅舅，连姥姥都服你 这逼歌还行，编曲团队厉害，就是唱功真的太差了 李志的歌删的删禁的禁以后没几首能唱了！ 断断续续去了5年跨年，还是最怀念义乌的那首梵高先生 B哥，你自己决定 忽然 足球运动员退役叫挂靴，苍老师更像是一个文人，因为她退役只能用“封笔”！ 李志真他妈的会炒作自己 看看国内娱乐圈还是苍老师最纯洁 宇宙的探索是离不开我的话的，只有把围绕地球公转的一切物质包括气体计算在地球体积之内才能找到地球真正的边和角，那是反引力汇聚地，是真正的真空隧道，宇宙高速路，太阳系内的动脉!把围绕太阳公转的一切物质包括气体计算在太阳体积之内才能找到恒星与恒星的边和角，那是恒星与恒星之间的真空高速隧道，找到真空隧道以近光速超光速飞行那不是个事!宇宙飞行器也不能按照飞机的二维结构原理制造，飞机是不能高速自转的，但只有高速自转才能产生真空电磁场，以近光速飞行，未来的宇宙飞行器必须按地球原理制造，八层以上结构，你看地球高速自转着前进，我们人坐在地球上有啥不适感觉吗？ 社会我逼哥 哈哈 还是张杰牛鼻代表作《夜空下最亮的星》舞曲版 这个图是哪部作品？？ 票瞬间空，[喷水] 联手我多保底十冠！ 他们呢？ 连续两年去了李逼跨年，今年郑均不如去年的崔老头子 叫做：蓬门今始为君开 为了表示对苍老师的敬意，婚前再最后撸你一次。撸完删种，立贴为证。 李志是谁？祝福苍老师 谁接盘啦？[窃笑] （多做好事，必有好报）美攻朝中收台战略对冲平衡（加快发展繁重工作替代性智能机器，不用延迟退休）公司上市后业绩异常下降，依法赔偿遏制骗钱（当务之急大小限减持和再融资要挂钩分红或回购，违则重罚，促进长期良好经营，缓解套现压力）尽快开征股指期货的印花税，才能降低杠杆及高频风险，限制其乱影响股市（基金只有盈利才收管理费，真正为投资者服务）连续2天涨跌停就限仓交易，共同受益，利国利民！ 李志？？？这么牛逼吗？？？ 我逼哥还是厉害👍 历史会铭记----《黄昏》 推荐《他们》 逼哥还需要炒作吗？ 不管你信不信，反正我是不信🤨 我差点都信了 此歌手特色就是随意哼唱 打开硬盘再看下苍老师的作品，就当给她闹洞房了。 重温旧梦 祝福老师！ 你还有硬盘吗。我想看 广场 能够于苍井空连上吗 苍老师的电影是不是都有码 我逼哥 逼哥牛逼 不要紧的—全球代言人 他自己炒自己，他是做音乐中最好的产品经理。 逼哥牛逼 【了凡四训】与【玉历宝钞】是两部改善你人生的好电影，看完后对你的人生将大有助益！两部电影均可在哔哩哔哩视频网站上搜索到。<br><br>请你审视一下现在拥有的，这是我们的福报，身体，财富，婚姻，事业，子女等等。我们应该珍惜福报，并且创造福报。但邪淫却可以将这一切从你手里迅速夺走，留下一个多病的身体，让你一生贫贱，有的甚至为此丧失性命。这绝非危言耸听。为什么近些年性犯罪频发?就是因为色情东西随处可见，人们像中了色魔一样，邪念剧增。走在街上，越来越多的女孩子穿着暴露，称之为性感。越来越多的青年人满脸疙瘩，眼神呆滞，眼睛清淤。去医院看看，挂男科的越来越多，而且低龄化。什么前列腺炎，精索静脉曲张。甚至尿毒症。大学里测1000米，居然会有人晕倒，呕吐，猝死。这些背后都与邪淫直接有关。若你精气充足，根本不可能有这些乱七八糟的毛病。你以为看看色情电影没问题?殊不知意念一动，身体里的精华都已泄出，长期下去，身体各器官的先天之本让你挥霍掉，就会急速衰败，引发病症。邪淫的后遗症绝非一处，两处，而是全身各处的衰败。这还不够恐怖吗?单举一例，当你满口烂牙，满嘴臭气的时候，就够你受的。牙疼不是病，疼起来要人命。更别说年纪轻轻得了牙周炎，牙齿脱落了。到时候吃饭都是问题。让你食不甘味。再好的美味你也没心思吃。老年人为什么爱得病?归根到底肾气不足。而邪淫足以将这个进程提前个十年二十年。想什么呢?找死呢。咸丰为什么是短命皇帝?长期纵欲，一边纵，一边吃补药，这就是作死啊。同治喜欢嫖妓，得了什么花柳病，二十多岁杆屁了。光绪多年患有遗精病，而且调治不愈。一直以来给人的感觉就是病秧子。这就是清朝末代的皇帝，为什么他们后来根本没有子嗣?这样作，还生个屁啊。所以千万不要邪淫，不要以为你是在享受，迟早要你加倍奉还!想想你现在的境遇，哪里不如意，身体哪里不好。反省一下你有没有手淫，意淫，嫖妓，一夜情,婚外情，婚前性行为等邪淫行为，天网恢恢，疏而不漏，一个都甭想逃。你就是再牛，能逃过天道?(邪淫是指除正式结婚夫妻正常性生活之外的一切性行为！) 哈哈哈哈哈逼哥[大笑] 怎么说人家也结婚了 《回答》有点过了，没必要。 哥，不约表妹，浓眉喝两杯 求分享 神一样的李志[微笑] ",
        "Reply": 50,
        "Link": "http://comment.ent.163.com/ent2_bbs/D75HE2FG00038FO9.html",
        "Total": 837
    },
    "KeyWords": "苍井空,演唱会,李志,预言",
    "URL": "http://ent.163.com/18/0102/15/D75HE2FG00038FO9.html"
}