{
    "Source": "Netease",
    "Title": "这名\"空降\"湖南的副部 曾在建筑工地干了4年_网易新闻",
    "Comment": {
        "Link": "http://comment.news.163.com/news2_bbs/D6JQS2M70001899N.html",
        "Content": "廉洁奉公为人民立新功。 廉洁奉公为人民立新功。 一直在法眼之下，进步很快 ",
        "Reply": 2,
        "Total": 103
    },
    "URL": "http://news.163.com/17/1226/18/D6JQS2M70001899N.html",
    "PublishTime": "12/26/201718:39:27",
    "Article": "（原标题：空降湖南的副部曾在建筑工地干了4年）最新消息，国务院三峡办副主任陈飞“空降”湖南，出任省政府党组成员。12月25日上午，湖南省政府召开党组（扩大）会议，省长许达哲主持会议，陈飞以省政府党组成员的身份出席，排序在副省长隋忠诚之后，省政府秘书长王群之前。长安街知事上周介绍过，湖南省副省长杨光荣已转任安徽省副省长。陈飞陈飞出生于1963年11月，江苏南通人，在水利水电工程领域工作了近30年，曾是全国闻名的“三峡少帅”。陈飞本科就读于武汉水利电力学院水利水电工程建筑专业。在上世纪80年代，水利水电是很热门的专业。毕业那年，葛洲坝工程局到学院里招人。但同学们都四下活动，想去研究院或者设计单位，没人愿意去条件艰苦的施工单位，学院就动员学生干部做出表率。陈飞是所有被动员的学生干部中惟一“响应组织号召”而做出表率的人，他给母亲写了封信，表达了想去基层锻炼的愿望。彼时，他的父母都因援藏远在拉萨，并不愿意陈飞去葛洲坝，希望他去上海或者江苏，将来退休后一家团聚。1986年8月，陈飞背着父母到葛洲坝报到，并写了一封信，阐述他的理由：“我可能更适合建筑施工单位。”陈飞的解释短期内并没有获得父母的谅解，“他们一年没搭理我。”在一线建筑工地上，陈飞待了四年，干过施工、技术、调度、质检等几乎所有的基础工作。当年的“老水电”回忆：“又矮又瘦的一个孩子（陈飞），天天抱着一堆图纸、仪器，跟在老工程师屁股后面。”一些年长的工人甚至直接对他呼来喝去。陈飞自己也说：“在工地上戴个安全帽，晒得黑乎乎的，分不清谁是工人、谁是技术人员。”陈飞（右）在工地1993年，三峡工程动工兴建，时任葛洲坝集团一公司副经理的陈飞，受命来到三峡工地。他带领以青年为主体的500多名职工组成青年突击队，每天工作十多个小时，基本没有休息日，完成了最艰巨的中堡岛工程，在质量、安全、进度等10个单项评比中名列第一。崭露头角的陈飞很快被任命为三峡指挥部副指挥长。1997年11月8日，三峡工程进行截流，陈飞作为三峡指挥部副指挥长现场指挥大江合龙。“压力肯定是有的，但是我有信心。”陈飞坦言。为了不出半点纰漏，他在认真组织技术班子研究制订最优截流方案的同时，甚至在一个月前就开始“彩排”，他把参加截流的1000多台大型机械设备安排得井井有条，并连续组织了两次现场抛洒石料的“实战演习”。“假如装石料的卡车爆胎了怎么办？诸如此类每一个可能发生的微小细节我们都做了充足的预案。”那段时间，陈飞手里的预案足足有数百页。事后有媒体报道，陈飞甚至把合龙之日的车次、施工进展、抛投力量精确到了误差不超过几秒。截流当日，整个过程“安全、正点、有序”，仅用6个半小时，在世界水电建设史上，打破了四项世界纪录：截流水深60米，流量8300立方米每秒，日抛投土石19.44万方和小时投抛强度1.04万方。从此，陈飞“三峡少帅”的外号开始叫响，并荣获1999年的中国青年五四奖章。2001年10月，陈飞被中组部、国家电力公司选派到云南挂职锻炼，任临沧地委副书记，分管工、青、妇工作。2002年6月，他调任云南省发展计划委员会副主任，分管产业（工业）处、基础（交通、能源）处、重点项目稽察办工作。他利用自己的水利水电、企业管理知识背景，对云南省的电力发展，特别是对境内金沙江、澜沧江、怒江“三江”丰富水能资源的科学规划和加快开发，提出大量行之有效的思路、措施和办法。2003年12月，陈飞回到国企系统，出任中国国电集团公司副总经理。到2010年1月，他重回“三峡”，出任中国长江三峡集团公司董事、总经理，晋升副部级。2014年4月，陈飞离开三峡集团，转任国务院三峡工程建设委员会办公室副主任。陈飞简历陈飞，男，1963年生，江苏南通人。汉族，1985年11月加入中国共产党，1986年7月参加工作，?高级工程师。武汉水利电力学院水利水电工程建筑专业本科毕业，中国人民大学产业经济专业硕士毕业。历任葛洲坝工程局浇筑分局、三公司、一公司技术员、助理工程师、工程师；葛洲坝工程局办公室副科级、正科级秘书;葛洲坝工程局第一工程公司副经理、经理、第一工程公司三峡工程施工指挥部副指挥长、指挥长；中国葛州坝水利水电工程集团公司副总经理、党委常委、党委副书记、三峡工程施工指挥部副指挥长、指挥长、党委书记、葛洲坝股份公司董事；广西龙滩水电开发有限公司总经理；云南省临沧地委副书记(挂职);云南省计委副主任、党组成员(挂职)；2003年12月至2010年1月，任中国国电集团公司副总经理、党组成员(2006年10月至2008年2月兼任国电电力发展股份有限公司党组书记、总经理)；2010年1月任中国长江三峡集团公司董事、总经理、党组成员；2014年4月任国务院三峡工程建设委员会办公室副主任；2017年12月任湖南省政府党组成员。本文来源：长安街知事作者：高楼责任编辑：李杭_BJS4645",
    "KeyWords": "官员,副部级,工地"
}