{
    "URL": "http://ent.163.com/17/1228/10/D6O52C0R00038FO9.html",
    "Comment": {
        "Reply": 811,
        "Content": "你那帅气的儿子好可怜，以后头都抬不起来，还保护你个锤子 孩子跟这逼会被带坏…… 这女人怎么还不去死 小王，去解释一下 学生：老师，您教的都是一些没用的东西，<br><br>老师：我不许侣们这样说记己。 其实我觉得她挺可怜的，马蓉一个女人背负了中国所有直男和正义人士的口诛笔伐，你们把所有最恶毒的话和怨气都指向她，你们还想让她怎么样呢，她是做错了，婚内出轨，转移财产对于一段婚姻来说是最不可宽恕的，是个坏女人，但是也没到潘金莲那样谋害亲夫的地步，况且这也只是他们三个人之间的恩怨，却被舆论无限放大，人哪能没有过错呢，唉。 她这么说，其实也证明了她在害怕，她在怕什么呢？ 那我可以认为这孩子不是宝强的 不仅保护你，晚上还啪啪啪 当然保护妈妈了，妈才是亲妈，爹又不是亲爹 你那帅气的儿子还不知道妈妈做了什么呢 好样的，将来讨个跟妈妈一样的老婆 你这样说话证明你是垃圾，马蓉是你妈吗？ 男盗女娼。。。 死逼 请让你儿子知道一下你和宋喆的事儿，再看儿子怎么说 帅气？我好像知道了点什么？宝强不哭☺️☺️ 人家吃的好喝的好，沒事旅遊滑雪，一樓不用操心，管好你的生活，靜靜的看他們的表演。 此女至贱无敌 谁知道谁的儿子[微笑] 有奶就是娘！温室大的孩子，以后钱用光了谁给钱就谁好了。🤾🏼‍♂️🏌🏼‍♀️ 小孩一般都不明事理，等他长大就懂了… 到时候宋喆就出来了[被黑][被黑][被黑] 天底下真有这么不要脸的人，巨然还赶出来装逼:找死啊！ 告示<br>因会长职位空缺，导致本会各方面工作出现不同程度混乱。经研究，即日起由前任会长姚小笛大美妞同志代理主持本会各项日常工作，直至新会长上任为止。即日始五个工作日内，凡对以上所述有意见者，请及时以书面或口头形式向本会总部人事部反映。同时也欢迎各方仁人志士竞选本会会长。<br>姚笛国际后援会<br>2017年12月28日 不要侮辱马 到底是谁的儿子，大家想知道。 我怀疑你是宋喆的小号… 其实马蓉影起的公愤并不是单纯的出轨，是她出轨了还那么猖狂的抢财产，还和宋喆那样的理直气壮，这种态度让所有人愤怒 如果一楼说得是事实，那我同意你的观点，该离就离呗，追求自由多高尚，但是你偷偷转移财产，就不是有脸的人该干的事了 其实爱已不在，追求自己幸福是正常的。王宝强不是好鸟，婚后也骗了好几个大学生，这种人本身素质不高，离开他是正确选择 孩子还小何必这样欺骗呢？ 宝强平时工作忙，<br>马蓉独自守空房。<br>外表风光心里凉，<br>空虚寂寞枕边藏。<br>宋喆嘴上说帮忙，<br>假公济私为洞房。<br>世人都在防老王，<br>不想老宋翻了墙。 我只想说，孩子，是会长大的，15岁以后，一旦周围的人知道这是🐎婊子的儿子......😄 就是想利用孩子保护自己 又想挨操了，到时候截图给你娃看，看他爸他妈得有多不要脸 拿这么小的孩子来搏同情，也只有小马你了 我看也是拿小孩做当剑牌，现在说太晚了、马容去死吧 很想知道她的儿女长大了翻出来这两年的新闻质问她的时候，她该怎么回答 这个世界除了马蓉父亲，和不懂事的儿子，还有贱人宋喆，不会再有其他男人相信马蓉的鬼话了 看来非得弄死宝强才足以撼动你的眼球了 等你自己的老婆被别人上了你就知道了！对了你这样子的估计也没老婆 你帅气的儿子总有一天会以你为耻…… 上海的三观异与常人[疑问][疑问] 你有病是吧，我只是在讨论出轨的问题，没有涉及马蓉啊，你得相思病了，整天想着马蓉，呵呵，不好意思我不喜欢马蓉 这只证明了大部分人还是有良知有道德有底线的，不会因为你有钱就不骂你。潘金莲是害命，马婊是谋财。一个谋财一个害命，都是谋害亲夫，方式不一样而已。而因为王是公众人物，所以这个行为不只是对他们的婚姻来说不可饶恕，对全社会都是一个极坏的影响，拉低道德底线，毁了多少人的三观。 让孩子告诉你会更好 开始混扯了？？我哪里是你意淫的“天经地义”了？？少点意淫！！不过话说回来了，不让上海人意淫还真是违反自然规律了！！ 老子不维护谁！但我见不得企图把马蓉洗白的垃圾！！！你论马蓉没事，比这比那的，你这傻逼什么居心？？论恶劣，成龙最多就是抢劫，而你马蓉是杀人灭尸！你把杀人拉到和抢劫一个样，你TMD不是想洗地你是什么居心？？？？！！！ 还有宋喆父亲 不想老宋翻了墙？<br>何不事先对镜望。<br>穷生可娶宰相女，<br>王八难做卖油郎。 我也要保护你[羞羞] 你出国过吗？呵呵，坐井观天啊，欧美女性地位高多了，就算克林顿骑基，美国人有说克林顿没错吗？克林顿有觉得自己理直气壮吗？在你们眼里天经地义的事，在美国就会被弹劾，要的不是绝对的干净，要的就是三观正 儿子永远是妈妈的儿子，网友们真操心！ 这女人怎么还不去死 其实我觉得她挺可怜的，马蓉一个女人背负了中国所有直男和正义人士的口诛笔伐，你们把所有最恶毒的话和怨气都指向她，你们还想让她怎么样呢，她是做错了，婚内出轨，转移财产对于一段婚姻来说是最不可宽恕的，是个坏女人，但是也没到潘金莲那样谋害亲夫的地步，况且这也只是他们三个人之间的恩怨，却被舆论无限放大，人哪能没有过错呢，唉。 哈哈够无耻的拿孩子打亲情牌，你这婊子不够资格受孩子保护，而是将你五马分尸！ 傻吊，婚内出轨说成是追求幸福，转移别人资产的原因是别人素质不高。要离开你特么别婚内出轨啊，不能离了婚再去找？别人素质不高，你过的不爽，你可以离婚，婚后财产一人一半谁会这样骂你？把别人钱都搞完加上婚内出轨说成是正确选择的只有你了。 那我可以认为这孩子不是宝强的 不好意思，请问马蓉杀谁了？杀人？ 你儿子知道你丢人，以后会恨你。丢人别让别人知道，尤其是地球人都知道你给他父亲带绿帽 你那帅气的儿子还不知道妈妈做了什么呢 谁都不行，就喜欢你[大笑][大笑][大笑] 老子评论碍你了？要评论好好评论先开口骂人别怪老子骂你，老子现在不骂马蓉成龙就骂你个贱种 不想老宋翻了墙？<br>何不事先对镜望。<br>穷生可娶宰相女，<br>王八难做卖油郎。 抛弃亲骨肉给说得那么轻飘飘？ 不想老宋翻了墙？<br>何不事先对镜望。<br>穷生可娶宰相女，<br>王八难做卖油郎。 这是谁干出来的？ 看着就不像 快吐了，这东西能闭嘴吗？我要是她，宁愿让我老公一巴掌拍死我 帅气儿子的爸爸是谁？ 这么说吧，如果成龙老婆辛苦赚钱，成龙啥啥不会就爱在家跟老婆的女经纪人上床，还转移了老婆的财产，当然，过程是如马婊那样相当恶心恶劣的，你说这样的成龙够不够让人唾弃的，观众眼睛不瞎，如果成龙真是这样的成龙，早被唾沫淹死了，但是抱歉，现在恶心的主角是这位叫马蓉的，令人发指的恶心。多说一句，成龙的那点破事，同样挨骂，但成龙起码名利都是自己拼回来的，和马婊坐享其成还不知足利用别人的感情挖墙角是两码事好吗 抛弃亲生女儿严重，还是转移老公财产严重，这是一个问题吗 你和马婊是一家 孩子要是知道他爸怎么对他妈的，怎么不顾孩子名节的。以后提刀都有可能。 看来非得弄死宝强才足以撼动你的眼球了 马未都说的没错，单纯出轨问题不大，现在社会出轨的人多了去了，但如果有阴谋，那问题大了去了。潘金莲能古今通晓，也是同样的道理，把武大郎都弄死了，你说严重不严重？ 不想老宋翻了墙？<br>何不事先对镜望。<br>穷生可娶宰相女，<br>王八难做卖油郎。 8楼这种就是中国低素质，低智商男人的代表，吵个架都吵不明白，一直在秀自己的三观和智商下限 成龙是不是抛弃还是另说，没人会真的愿意这么对待自己的孩子，特别是自己又有条件的，问题是马荣洗白的感觉就是避重就轻，说了那么多为什么就是不否认跟宋狗的关系呢！拿证据就可以证明清白了，比博同情省事多了。 告示<br>因会长职位空缺，导致本会各方面工作出现不同程度混乱。经研究，即日起由前任会长姚小笛大美妞同志代理主持本会各项日常工作，直至新会长上任为止。即日始五个工作日内，凡对以上所述有意见者，请及时以书面或口头形式向本会总部人事部反映。同时也欢迎各方仁人志士竞选本会会长。<br>姚笛国际后援会<br>2017年12月28日 长大了还会保护你除非他瞎他聋 偷情，留私生子，不管亲生骨肉，被你说得那么轻飘飘，呵呵，家里红旗不倒是因为成龙的老婆阿娇忍了，这不是成龙的人品好，成龙那个时候都准备和老婆离婚，老婆不同意好吗？马蓉不是东西，成龙一样猪狗不如，当然，有人会理解成龙，因为鱼爱鱼，虾爱虾，乌龟爱王八嘛，理解理解 我也见不得别人给马婊洗白，这个没什么好比的，这样的比较就好像别人杀了人所以你就能杀人。而单论男女出轨，因为性别问题，不可能一视同仁，所以你也不需要那么义愤填膺说什么搞双标，因为这个本来就是双标，且是不可改变的，除非科技发达到可以随意改变性别。人成龙有没有关心过自己的女儿，有没有抛弃子女我不知道，但是子女可以通过法律途径简单明了的获得抚养费，也就不存在抛弃，因为法律不允许，除非没钱给抚养费烂命一条那种，而成龙也不可能没财产让法院执行。而王的问题能吗？资产转移的就好像现在的假药停，你能让假药停回来还钱么？债务关系和父子关系不同，债务关系你跑别的国家可以不承认，父子关系可不能，你跑什么国家都会要求你尽抚养义务，都可以告你。说的简单点，钱没了就是没了，子女你抛弃也抛弃不了。 这么说吧，如果成龙老婆辛苦赚钱，成龙啥啥不会就爱在家跟老婆的女经纪人上床，还转移了老婆的财产，当然，过程是如马婊那样相当恶心恶劣的，你说这样的成龙够不够让人唾弃的，观众眼睛不瞎，如果成龙真是这样的成龙，早被唾沫淹死了，但是抱歉，现在恶心的主角是这位叫马蓉的，令人发指的恶心。多说一句，成龙的那点破事，同样挨骂，但成龙起码名利都是自己拼回来的，和马婊坐享其成还不知足利用别人的感情挖墙角是两码事好吗 其实爱已不在，追求自己幸福是正常的。王宝强不是好鸟，婚后也骗了好几个大学生，这种人本身素质不高，离开他是正确选择 哎哟我去 宝强平时工作忙，<br>马蓉独自守空房。<br>外表风光心里凉，<br>空虚寂寞枕边藏。<br>宋喆嘴上说帮忙，<br>假公济私为洞房。<br>世人都在防老王，<br>不想老宋翻了墙。 档人财路如杀人父母，这话听过吗？这都转移资产了，要怎么说呢 实事求是如果一切都如传言，马蓉确实非常非常坏，我只是因为有人同情成龙才发言的，成龙能这样对亲骨肉也是够可以的了，无论她的出生是不是他的意愿，对孩子负责，是道德义务，也是法律义务，不管孩子在任何社会都是恶劣行为，有人居然同情成龙，我也是呵呵了，脚下的泡是自己走的，管不住老二，不怪他自己怪谁 宝强这么丑，唉～～～～ 这种女人就应该浸猪笼 你这人是不是神经病啊，歇斯底里的，回归家里红旗不倒这是他老婆的好，不是成龙的好好吗？你始终不敢面对成龙对亲生骨肉的不管不顾啊？不过你这种人也是不知道负责任的，理解理解 那是因为你儿子不知道你是个什么货！ 楼上，同感，身为女性，真的感觉马蓉不要脸。没感情了，离婚寻找爱情无可厚非，但是既不离婚享受着人家的财产，又勾搭别的男人找刺激。出轨的人，不管男女，都是渣，还谈什么无怨无悔的付出，真是尴尬死 他那帅气的宋爹去哪了？？？ 这个世界除了马蓉父亲，和不懂事的儿子，还有贱人宋喆，不会再有其他男人相信马蓉的鬼话了 给你戴绿帽子了么？不是你的家事你就别鸡冻 可怜的帅气儿子不知道马逼到处乱搞 不想老宋翻了墙？<br>何不事先对镜望。<br>穷生可娶宰相女，<br>王八难做卖油郎。 这女人在学张柏芝吗？ 谁有马蓉出轨啪啪视屏 傻逼，一个是玩暧昧被女的算计了，把孩子生下来要挟上位，然后回归家庭红旗不倒！一个是给老公带了绿帽还不算还要生野种转移家产和奸夫享乐！！尼玛的，你那点脑水能分辨吗？？一个是偷窃，一个是杀人！被你这傻逼的道德拉倒一个水平线上了？？？！！！尼玛的你要给马蓉洗地也要点逼脸啊！！！！ 我觉得抛弃孩子的一样坏 你跟多少男人乱搞了，那么理直气壮地为马婊摇旗呐喊。 说出这种话来真替帅气的儿子担心，希望不要被保护到床上去 马婊皮真厚 哪管你屁事孙子 毛病，是一码事吗，有人认为成龙对待孩子的所作所为很好很棒吗，但是现在在讲马婊，大家眼睛不瞎 人不要脸天下无敌 儿子不懂事，等懂事了留在马婊身边会抬不起头做人的。 其实我觉得她挺可怜的，马蓉一个女人背负了中国所有直男和正义人士的口诛笔伐，你们把所有最恶毒的话和怨气都指向她，你们还想让她怎么样呢，她是做错了，婚内出轨，转移财产对于一段婚姻来说是最不可宽恕的，是个坏女人，但是也没到潘金莲那样谋害亲夫的地步，况且这也只是他们三个人之间的恩怨，却被舆论无限放大，人哪能没有过错呢，唉。 那我可以认为这孩子不是宝强的 不要宝宝的钱养孩子就算你本事 这还不是最可怕的，最可怕的是儿子长大以后……[被黑] 你那帅气的儿子还不知道妈妈做了什么呢 抛弃亲骨肉给说得那么轻飘飘？ 科科 娃啥都不懂! 死逼 等她的儿子长大了，会明白你做过潘金莲的故事。 你这样只会让他长大明白之后更痛苦 二楼这个逗比，整天嫉妒王宝强干过马蓉 查查宝宝和他妹妹的车祸案件！ 马蓉，你让儿子抬不起头来了 成龙有关心过她女儿？再怎么说她女儿都是无姑的，你个垃圾维护垃级还这么费心，这两垃圾我谁都不维护，成龙和马蓉一样都垃圾，背着对象偷吃都可耻，出轨后干的事不完全相同但都同样恶劣 已经开始利用孩子将来报复父亲的感觉自认为聪明的女人是最傻的女人 他爸是谁？ 儿子长大后就知道什么样的妈妈了！ 那孩子长大了也会跟他妈妈一样喜欢跟别的男人乱搞。 其实爱已不在，追求自己幸福是正常的。王宝强不是好鸟，婚后也骗了好几个大学生，这种人本身素质不高，离开他是正确选择 可怜的孩子 因为他们都希望自己老婆包得严严实实，但是别人的老婆都一丝不挂，随便他们干，所以他们保护成龙，因为他们都是一路货 呵呵 大了知道他妈妈是如此的淫荡，死的心恶心有了！ 恬不知耻，也就你家小孩你骗的了，问题以后呢，怕就怕这种不要脸还洋洋得意的，把道德败坏当成个性自由，对社会的破坏力太大了！ 其實你再曬也是個不守婦道紅杏出牆的女人。 他爹是谁？ 赛金莲—马蓉 马婊又耐不住寂寞了 无耻之极 看他、宋喆、王宝强、小姑娘的长相，可能就明白了。 有毒，千万别搜 我的至爱蓉蓉！ 等以后反过来还草你呢 一楼说的很有道理，其实很多人只是在发泄。 王宝强：尼玛你说这话什么意思，我不能搞出帅气的儿子，难道我不能让我手下上吗！ 有毒，千万别搜 成龙也一直被骂好不好，不过男权社会是事实，不管是男是女扪心问问自己，如果女儿常常换男友你会怎么想？如果儿子常常换女友你又会怎么想？ 你认不认可有个一毛钱关系呀 等他长大娶一个和他妈一样的女人，可好？ 百度(毛卑零），就明白大幂幂为什么会火，不知道被多少个名导给潜了，那里真的是黑，去瞧瞧 那孩子再大一点就知道他妈妈喜欢跟男人乱搞。求那孩子的心理阴影面积。 只能说你有一个傻儿子 估计一楼被骗了吧！懂不懂什么叫普世价值观 看来非得弄死宝强才足以撼动你的眼球了 自我安慰！ 老子不维护谁！但我见不得企图把马蓉洗白的垃圾！！！你论马蓉没事，比这比那的，你这傻逼什么居心？？论恶劣，成龙最多就是抢劫，而你马蓉是杀人灭尸！你把杀人拉到和抢劫一个样，你TMD不是想洗地你是什么居心？？？？！！！ 可以参加爸爸去哪，寻找真爸 你在偷情，孩子在门口保护着？别再伤害你的孩子好好！ 你这话说的过分了， 这女人怎么还不去死 其实我觉得她挺可怜的，马蓉一个女人背负了中国所有直男和正义人士的口诛笔伐，你们把所有最恶毒的话和怨气都指向她，你们还想让她怎么样呢，她是做错了，婚内出轨，转移财产对于一段婚姻来说是最不可宽恕的，是个坏女人，但是也没到潘金莲那样谋害亲夫的地步，况且这也只是他们三个人之间的恩怨，却被舆论无限放大，人哪能没有过错呢，唉。 一些有文化高学历的人，去追星一个小学没毕业的，更没有才，又沒有颜的王宝强，不知道他们怎么对得起自己读了二十年的书，怎么对得起自己父母辛苦供养，怎么对得起自己加班到深夜？说真的，我真不明白。我觉得可能是骨子里的奴颜卑膝，他们粉丝应该连马蓉都不如，至少马蓉是看上了钱，而粉丝是花钱给王宝强当狗。 保护你麻痹 永远鄙视你这个烂婊子 宝强，你觉得自己帅吗？ 手抖，赞错了你 你那帅气的儿子还不知道妈妈做了什么呢 马蓉婊子，你儿子保护你，应该打王宝强还是打宋喆？ 等儿子大了会不会揍你👊？ 为你的出轨站岗放哨? 儿子要是知道你做了什么，第一个唾弃你 马蓉婊子，你儿子知道你婚内出轨吗？ 贱婢骚货娘们还不死？ 一楼大城市的思维可能比我们超前 马蓉确实错，但事情过去这么久了，王宝强马蓉你们家事私下解决不行么？不行找法院找警察，老拿到网上热炒，我一路人看得很烦，今天上来多说几句，以后不想看到你们家事炒来炒去 粉丝都是狗 一个人能做到这种也是醉了，还有脸活着！！！ 长大了看你怎么吹！ 拿小孩打感情牌。[不屑] 马蓉儿子身穿厚厚的滑雪服，动作娴熟地在滑板上滑雪，十分帅气……儿子长大以后马蓉怎么解释她的故事呢？ 等儿子了解你以后，不知会说什么？那一天会来的 孩子会长大的！会知道一切马婊子 一些有文化高学历的人，去追星一个小学没毕业的，更没有才，又沒有颜的王宝强，不知道他们怎么对得起自己读了二十年的书，怎么对得起自己父母辛苦供养，怎么对得起自己加班到深夜？说真的，我真不明白。我觉得可能是骨子里的奴颜卑膝，他们粉丝应该连马蓉都不如，至少马蓉是看上了钱，而粉丝是花钱给王宝强当狗。 不要拿孩子炒作了，真是作孽 那她离婚就可以了，出轨某夺家产这算什么？ 别再拿孩子做挡箭牌了 拿着宝强的钱，逼不要逼脸。死不出好死 这女的真是不折不扣的sb！ 马蓉的水军似乎想要证明的一个逻辑就是别人杀人了，我也可以杀人 要不是宝强，你能这么享受生活？！无耻！无下线！呸！！！ 还不知道爸爸是谁呢 网易什么时候这么有正义感了？天天在黑马蓉。宝强不花钱我都不信。 其实爱已不在，追求自己幸福是正常的。王宝强不是好鸟，婚后也骗了好几个大学生，这种人本身素质不高，离开他是正确选择 屁话！你这傻逼意淫逻辑还吠的欢了啊！！男的进男厕所，女的去女澡堂！！你怎么不喊是双标？？都尼玛的那么简单的一刀切？？那这世界很简单！！成龙不对但可以理解！马蓉出轨还转移财产能一样看待？？成龙能控制对方不生孩子？？马蓉一样？？再者说，几百万年的基因遗传，说变就能变？？骨子里的东西！！！ 如果只是出轨，窝支持马蓉 宝强平时工作忙，<br>马蓉独自守空房。<br>外表风光心里凉，<br>空虚寂寞枕边藏。<br>宋喆嘴上说帮忙，<br>假公济私为洞房。<br>世人都在防老王，<br>不想老宋翻了墙。 下一步是不是要磕头下跪以求被原谅呢…… 再好的孩子让你带着，就废了 不要再出来丢人了等你儿子长大知道你跟别人通奸合谋转移他爸的财产看他还保不保护你，贱人 马蓉表字有人顶 找全在感 感觉故意要让孩子疏远爸爸 看来非得弄死宝强才足以撼动你的眼球了 马金莲，你的屁股都不要了 对比了一下，还是翟欣欣比较恶心！ 这小杂种什么时候瞎的 都是些什么人啊，很多老爷们嘴里骂蓉儿，心里恨的是她出轨对象咋不是我呢？ 其实马蓉干的事情很多男人在干呢，问问律师就知道了，只是男人干这种事情很多人装聋作哑，女人干了他们就义愤填膺，也就是他们不是来维护正义的，而是来维护男权秩序的，仅此而已 这女人怎么还不去死 我也觉得皇上不急太监不急，王宝强要是真男人，随便花点钱请黑道，搞死经纪人分分钟的事。何必要家丑外扬，博取网友们同情，给孩子脸上抹黑。要是没钱没势的底层屌丝，不得已这么做我可以理解。 其实我觉得她挺可怜的，马蓉一个女人背负了中国所有直男和正义人士的口诛笔伐，你们把所有最恶毒的话和怨气都指向她，你们还想让她怎么样呢，她是做错了，婚内出轨，转移财产对于一段婚姻来说是最不可宽恕的，是个坏女人，但是也没到潘金莲那样谋害亲夫的地步，况且这也只是他们三个人之间的恩怨，却被舆论无限放大，人哪能没有过错呢，唉。 孩子都是单纯的，希望你以后好好养孩子成人长大 不爱爸爸爱叔叔 通奸离婚就算了，霸占钱财太缺德 不明真相的孩子！ 帅气的儿子要知道它妈是当今潘金莲也许会从十八楼跳下 无耻 别人也在做就等于她可以理所当然的做？ 死逼 孩子懂事了你就知道了 每个人多多少少都有问题，但有些问是不能原谅的……王宝强老婆做的这事，放在谁身上都受不了，包括码表的水军……竟然还有人替马婊子说话，想证明自己恼。残，不要通过这种极端的方式表达！ 何洁，马蓉，快对婊 拿小孩子出来洗白你怕是有病吧？不停把小孩暴露在大众眼前，你干的那点破事会伴随他一生！ 你那帅气的儿子还不知道妈妈做了什么呢 男小三多帅，看看你们自己，连大宝都懒得擦，肥胖，油腻，秃顶，还没内涵，难怪老婆要出轨，活该！ 脑子进水了吧你，还有3000万光棍娶不到老婆呢，这么漂亮的熟女死了多可惜啊。 成龙人家花自己的钱好吧 这三观是吃屎长大的？ 童言无忌，说着玩玩 反正都是一路货色，有什么好争的呢？ 虽然出轨该骂，可你也要看她老公是干嘛的？演员懂吗，免不了也会跟别的女性肌肤之亲，这种情况老婆出轨我倒是觉得勉强扯平了啊。 等他大了会恶心你做的事 丟人还不够吗？想把儿子也拿进来丢人！ 这话说的，故意制造车祸，这比潘金莲狠的多吧，只不过王宝强命大，祸不该死 这层炸出了一帮女权主义的sb。 流星月亮地球太阳系有发动机么？没有!他们却高速在宇宙中运行!为什么？因为他们的运行轨道本身就是太空高速时空隧道!他们的运行路线一半为去路一半为来路，周而复始地运行着!地球自转公转着，本就没有东西南北上下左右等方位!谁定的？我们的天父啊!目的只有一个，告诉人类我们天父的星座方位!所以九曲桥的方向始终对着东北方!在宇宙一切物质中，永远是子体围绕母体运动，这是恒定的!所以地球自转并围绕太阳公转!因地球是自转公转的，所以根据地球的东西南北是找不到星外文明的星座方位的!只有找到太阳的上下前后东西南北才能准确地给天父星座方位定位!我们天父星座方位在太阳系东北上方第九颗恒星那里!那里以双伴恒星为中心带动周围108颗恒星运动着! 我对这事件了解不多，请问有人知道这孩子是王宝强亲生的吗？ 不一样！！男人出轨自古有之！成龙出轨，道德上可以谴责但不产生严重的社会道德问题！而女人生野种还要转移财产，如果任其逍遥，道德断崖又起！！以后连夫妻都要互相防备？？试问这样的社会后果谁愿看到？？ 水军……这么来自上海…… 不要侮辱马 实在是搞不懂马蓉的脑袋里装的是什么、世界上的奇葩果然都无比强悍 你儿子长得越帅，我越担心你会让你儿子进入你的身体，毕竟你那么风骚～ 不想老宋翻了墙，<br>俘获宝强美娇娘。<br>娇娘老宋躺在床，<br>日日笙歌工作忙。 那么帅气，一点都不像王宝强。。。 人家发个儿子滑雪的相片，你们比王宝强还着急！ 已经没词去形容这个玩意儿了……咋就没好汉替天行道？ 虽然是小了点，同样不能侮辱。 其实爱已不在，追求自己幸福是正常的。王宝强不是好鸟，婚后也骗了好几个大学生，这种人本身素质不高，离开他是正确选择 是不是也骗了你？ 宝强平时工作忙，<br>马蓉独自守空房。<br>外表风光心里凉，<br>空虚寂寞枕边藏。<br>宋喆嘴上说帮忙，<br>假公济私为洞房。<br>世人都在防老王，<br>不想老宋翻了墙。 妈妈,你是我的爸爸 拿这么小的孩子来搏同情，也只有小马你了 臭傻逼，吃屎长大的吗？ 你儿子知道他是个野种吗 贱女人 两人都不是什么好鸟，否则也进不了一家门。 宋小宝 看来非得弄死宝强才足以撼动你的眼球了 等他大了就明白了！你别急！！时间会告诉你答案！！！ 抛弃亲骨肉不恶劣吗？ 你的儿子长大了希望也越到一个你这样的老婆，让你也感受一下好不好 老宋：我儿子冷不冷 滚犊子，你敢背叛姚笛？不怕我易友们削你？ 你这一生做的值得说的事就是创造了两个生命，你的三观廉耻都扫地了，一般人被喷成这样不抑郁也装抑郁了，唯有你还这么跳晒滋润，真的是人间少有，你的脸皮不知道什么做的防子弹肯定没问题[骷髅] 可能而知，肯定给孩子灌输过仇恨王宝强的思想。， 我想该傻逼 你儿子知道你是黑木耳吗 其实我觉得她挺可怜的，马蓉一个女人背负了中国所有直男和正义人士的口诛笔伐，你们把所有最恶毒的话和怨气都指向她，你们还想让她怎么样呢，她是做错了，婚内出轨，转移财产对于一段婚姻来说是最不可宽恕的，是个坏女人，但是也没到潘金莲那样谋害亲夫的地步，况且这也只是他们三个人之间的恩怨，却被舆论无限放大，人哪能没有过错呢，唉。 一楼看来也是个马蓉呀 我从未见过有如此厚颜无耻之人 我反对这么亲事 你那帅气的儿子还不知道妈妈做了什么呢 张:你说什么? 放过你和宋哲的孩子吧 我从未见过有如此厚颜无耻之人 死逼 小孩儿不知道你经常背着他爹3p 恶心 在床上相互添的时候有没有想到会有今天 站着说话不腰疼 你怎么面对长大的孩子 有这样的妈，小孩的三观也很难正 一群王八强养的王八正在叫。 哎孩子谁带和谁亲 孩子要是知道他爸怎么对他妈的，怎么不顾孩子名节的。以后提刀都有可能。 怎么保护？戴套吗？ 小孩一般都不明事理，等他长大就懂了… 拿这么小的孩子出来恶心，只有她了 他孩子要是知道一百年前他爸可以将他妈浸猪笼，长大以后出家为僧消除来母亲罪孽都是有可能的。 张白汁比她早 好意思的！拿个孩子做洗白工具！[鄙视] 告示<br>因会长职位空缺，导致本会各方面工作出现不同程度混乱。经研究，即日起由前任会长姚小笛大美妞同志代理主持本会各项日常工作，直至新会长上任为止。即日始五个工作日内，凡对以上所述有意见者，请及时以书面或口头形式向本会总部人事部反映。同时也欢迎各方仁人志士竞选本会会长。<br>姚笛国际后援会<br>2017年12月28日 长大后知道，妈除了爸，还喜欢被别人操 真有脸啊！都这样了，还不低调，最后一定死的很惨！ 楼上看来是选择原谅色了？很同情你 出轨卷钱跑还特么有理了，还有特么脑残洗 娱乐圈呵呵呵出轨转移财产的马蓉不是好东西，王宝强也不是 大美妞稳的一批……昨天还真以为你伤心了要离开呢[微笑] 马蓉：儿子长大以后找一个像妈妈这样的媳妇好不好啊？<br>儿子：...... 其实爱已不在，追求自己幸福是正常的。王宝强不是好鸟，婚后也骗了好几个大学生，这种人本身素质不高，离开他是正确选择 马容要坚强，寻找自己的幸福没有错，我顶你。 拿这么小的孩子来搏同情，也只有小马你了 给小孩洗脑等他长大了结婚了可千万不能找一个跟他妈妈一样的媳妇 以后你儿子长大了会因为这句话羞愧一辈子吧？ 都超潘金莲了，你儿子长大了怎么来面对马蓉这个名字？？？ 吉喆怒怼:草泥马！ 一楼你从哪听说的这些事？能详细点吗。 就是想利用孩子保护自己 马蓉这样的会意识到自己做错？这是不可能的。我们看到的只是事后姿态强硬的的反诉，以及丑态百出的各种转移资产。所以对这样的人，认为道德谴责对他们还有约束是太天真了。 这下大家知道张柏芝是怎样控制儿子的了吧？ 看来非得弄死宝强才足以撼动你的眼球了 绿色世界 那帅气的儿子，还不知道对妈妈做了什么呢 以后好好教教孩子怎么防戴绿帽 那是因为你那天真无邪的孩子还不知道他妈是个什么物种 ",
        "Total": 18137,
        "Link": "http://comment.ent.163.com/ent2_bbs/D6O52C0R00038FO9.html"
    },
    "Title": "马蓉晒儿子滑雪视频:我帅气的儿子说永远保护妈妈_网易娱乐",
    "Source": "Netease",
    "KeyWords": "马蓉,滑雪",
    "PublishTime": "12/28/201710:54:36",
    "Article": "视频截图截图网易娱乐12月28日报道12月28日，马蓉小号发文：“我帅气的儿子说他会永远保护妈妈和妹妹，哈哈，你永远是妈和妹妹的骄傲，我们永远爱你。”并晒出儿子滑雪小视频。视频中马蓉儿子身穿厚厚的滑雪服，动作娴熟地在滑板上滑雪，十分帅气。近日，马蓉也在微博大号上发文再次表明立场，此次又在小号上发文，称儿子说会永远保护妈妈和妹妹，满满的骄傲之情。几个小时后，有媒体再次打开马蓉的主页，发现该条微博已经被删除。本文来源：网易娱乐责任编辑：李彤_NK4455"
}