{
    "PublishTime": "01/01/201808:22:49",
    "Comment": {
        "Total": 1648,
        "Link": "http://comment.news.163.com/news_guonei8_bbs/D725VA980001875N.html",
        "Reply": 60,
        "Content": "祝祖国繁荣昌盛，不怕一切来犯之敌！祝各位易友新年快乐！ 祝伟大的祖国永远繁荣昌盛 支持党中央决定 祝福我的祖国！ 愿祖国安好！ 支持 点赞！ 就是个帅 祝愿祖国越来越强盛！ 祝伟大的祖国繁荣富强。 祝福我的祖国！ 威武雄壮，扬我军威国威！ 祝福我的祖国！❤️❤️❤️ 为人民解放军点赞 祝福伟大的祖国！ 庄严神圣 祝祖国繁荣昌盛！ 好啊！ 祖国繁荣富强 新年快乐 祖国加油！ 祝祖国更加繁荣昌盛 坚决支持拥护！习总英明！ 向人民解放军仪仗队致敬，祖国繁荣昌盛，人民群众幸福快乐 向人民子弟兵致敬，祝伟大祖国越走越强。 致敬，人民子弟兵 加油中国 我为中国人骄傲。 祝我的祖国繁荣昌盛！ 祖国万岁！ 祖国万岁！ 有国才有家祝伟大的祖国繁荣昌盛， 祝福伟大的祖国繁荣昌盛！！！ 祝福祖国永远繁荣昌盛！ 祝祖国繁荣昌盛 威武之师，祝祖国繁荣昌盛、国泰民安！ 祝祖国欣欣向荣，繁荣昌盛。 祝福祖国母亲 为祖国骄傲自豪！ 祝祖国欣欣向荣，繁荣昌盛。 祝祖国繁荣昌盛，不怕一切来犯之敌！祝各位易友新年快乐！ 👍点赞 点赞！ 祝福伟大的祖国！ 祝福我的祖国！ 点赞！ 点赞！ 祖国万岁 全民欢喜 威武之師 祝愿祖国越来越强盛！ 祝伟大的祖国繁荣富强。 祝福我的祖国！ 威武雄壮，扬我军威国威！ 祝祖国欣欣向荣，繁荣昌盛。 祖国万岁 一个字：好帅 点赞！ 威武！ 新年快乐 祖国繁荣富强 祖国加油！ 点赞！ 坚决支持拥护！习总英明！ 向人民解放军仪仗队致敬，祖国繁荣昌盛，人民群众幸福快乐 向人民子弟兵致敬，祝伟大祖国越走越强。 祖国万岁 利器！ 威武之师，祝祖国繁荣昌盛、国泰民安！ 我为中国人骄傲。 加油 祖国万岁！ 有国才有家祝伟大的祖国繁荣昌盛， 祝福伟大的祖国繁荣昌盛！！！ 祝福祖国永远繁荣昌盛！ 威武！ 威武庄严 祝福祖国母亲 为祖国骄傲自豪！ 祝祖国欣欣向荣，繁荣昌盛。 祝伟大的祖国永远繁荣昌盛 愿祖国安好！ 看到心情激动澎湃，祖国越来越强大 祝祖国更加繁荣昌盛 祝网易小伙伴新年快乐，181818181818 祝祖国繁荣昌盛！ 支持 庄严神圣 祝我的祖国繁荣昌盛！ 祖国万岁！ 就是个帅 加油中国 致敬，人民子弟兵 祝福我的祖国！❤️❤️❤️ 支持党中央决定 祝祖国繁荣昌盛 祝祖国繁荣昌盛 好啊！ 新年快乐 为人民解放军点赞 "
    },
    "Article": "（原标题：天安门广场数万人齐唱国歌五星红旗冉冉升起）#endText.video-infoa{text-decoration:none;color:#000;}#endText.video-infoa:hover{color:#d34747;}#endText.video-listli{overflow:hidden;float:left;list-style:none;width:132px;height:118px;position:relative;margin:8px3px0px0px;}#entText.video-lista,#endText.video-lista:visited{text-decoration:none;color:#fff;}#endText.video-list.overlay{text-align:left;padding:0px6px;background-color:#313131;font-size:12px;width:120px;position:absolute;bottom:0px;left:0px;height:26px;line-height:26px;overflow:hidden;color:#fff;}#endText.video-list.on{border-bottom:8pxsolid#c4282b;}#endText.video-list.play{width:20px;height:20px;background:url(http://img1.cache.netease.com/video/img14/zhuzhan/play.png);position:absolute;right:12px;top:62px;opacity:0.7;color:#fff;filter:alpha(opacity=70);_background:none;_filter:progid:DXImageTransform.Microsoft.AlphaImageLoader(src=\"http://img1.cache.netease.com/video/img14/zhuzhan/play.png\");}#endText.video-lista:hover.play{opacity:1;filter:alpha(opacity=100);_filter:progid:DXImageTransform.Microsoft.AlphaImageLoader(src=\"http://img1.cache.netease.com/video/img14/zhuzhan/play.png\");}if(/(iPhone|iPad|iPod|Android|NETEASEBOBO|blackberry|bbd+)/ig.test(navigator.userAgent)||/safari|chrome|firefox/i.test(navigator.userAgent)&&navigator.plugins&&!navigator.plugins[\"ShockwaveFlash\"]){varstr1='<videocontrols=\"controls\"preload=\"auto\"width=\"100%\"poster=\"http://vimg3.ws.126.net/image/snapshot/2018/1/G/A/VD64C1OGA.jpg\"style=\"max-height:100%\">';varstr2='<sourcetype=\"video/mp4\"src=\"http://flv.bn.netease.com/videolib3/1801/01/OcUXJ5877/SD/OcUXJ5877-mobile.mp4\">您的浏览器暂时无法播放此视频.</video>';document.getElementById(\"FPlayer1404863609673\").parentNode.innerHTML=str1+str2;}人民解放军仪仗队和军乐团执行升国旗仪式（来源：）window.NTES&&function(d){varf=function(c){varb=c.getAttribute(\"flashvars\"),a=c.getAttribute(\"repovideourl\").replace(\".flv\",\"-mobile.mp4\");h=d(c.parentNode.parentNode.parentNode),g='<embedsrc=\"http://v.163.com/swf/video/NetEaseFlvPlayerV3.swf\"flashvars=\"'+b+'\"allowfullscreen=\"true\"allowscriptaccess=\"always\"quality=\"high\"wmode=\"opaque\"width=\"100%\"height=\"100%\"type=\"application/x-shockwave-flash\"/>';if(/(iPhone|iPad|iPod|Android|NETEASEBOBO|blackberry|bbd+)/ig.test(navigator.userAgent)){g='<videocontrols=\"controls\"preload=\"auto\"width=\"100%\"height=\"100%\"><sourcetype=\"video/mp4\"src=\"'+a+'\">您的浏览器暂时无法播放此视频.</video>';}h.$(\".video\")[0].innerHTML=g;},e=function(b){vara=d(b.parentNode.parentNode.parentNode);a.$(\"li\").removeCss(\"on\"),b.addCss(\"on\"),a.$(\".video-title\")[0].innerHTML=\"string\"==typeofb.textContent?b.textContent:b.innerText,a.$(\".video-title\")[0].setAttribute(\"href\",b.getAttribute(\"url\")),a.$(\".video-from\")[0].innerHTML=\"（来源：\"+b.getAttribute(\"source\")+\"）\",f(b);};window.continuePlay=function(){vara,b=d(d(\".video-list.on\")[0].nextSibling);3==b.nodeType&&(b=d(b.nextSibling));if(b&&d(\".video-innerinput\")[0].checked){e(b);}},function(){vara={init:function(){if(d(\".video-listli\")[0]){d(d(\".video-listli\")[0]).addCss(\"on\"),this.eventBind();}},eventBind:function(){d(\".video-listli\").addEvent(\"click\",function(b){e(d(this)),b.preventDefault();});}};a.init();}();}(NTES);日前，经党中央批准，自2018年1月1日起由人民解放军担负国旗护卫和礼炮鸣放任务。2018年1月1日7时36分，天安门广场升国旗仪式，首次由人民解放军仪仗队和军乐团执行。本文来源：央视责任编辑：谷莹_NN6577",
    "Source": "Netease",
    "Title": "天安门升旗仪式首次由解放军仪仗队和军乐团执行_网易新闻",
    "KeyWords": "解放军,仪仗队,军乐团,天安门",
    "URL": "http://news.163.com/18/0101/08/D725VA980001875N.html"
}