{
    "URL": "http://ent.163.com/17/1231/21/D70V8JRT00038FO9.html",
    "Title": "汪峰跨年酿“车祸现场”网友吐槽：证明他是真唱_网易娱乐",
    "KeyWords": "汪峰,湖南卫视,演唱会,车祸",
    "Article": "汪峰嗨唱湖南卫视跨年演唱会现场汪峰参加湖南卫视跨年演唱会现场网易娱乐12月31日报道12月31日，湖南卫视跨年演唱会直播现场。汪峰连唱五首，但演唱效果似乎并不完美，出现了忘词，音不准等问题。其中一句歌词竟有四五个字都唱错。有网友就此调侃道：汪峰用这样的方式告诉我们，他在真唱！另，网传汪峰会参加湖南卫视《歌手2》，听过他在跨年舞台上的演出后，也有网友“质疑”：“汪峰老师去《歌手2》不会一轮游吗？”本文来源：网易娱乐责任编辑：张楠_NK4501",
    "Source": "Netease",
    "PublishTime": "12/31/201721:06:19",
    "Comment": {
        "Link": "http://comment.ent.163.com/ent2_bbs/D70V8JRT00038FO9.html",
        "Reply": 510,
        "Content": "汪峰就是个渣男！太可恶了！害的前面俩女儿从小没有亲妈真心疼爱，没有一个完整的家，三个孩子三个妈，人品差到了极点！却反倒出来装圣人似的，如此不念旧情、喜新厌旧、绝情刻薄！太不是人、太不要脸、太可耻！汪章俩王八蛋是要招到报应的！…… 杨幂靠的电音，音准实在差太多时，用电音可很好的掩盖，就像今晚杨洋的第一首假唱，也是用的电音 各种走音，破音，好尴尬 我可以真唱！破音、忘词、走调……总之不影响我是真唱，我是真唱歌手谢谢大家。 从前啊,有一个渣男,与歌手筠子在一起,却偷偷劈腿主持人齐丹，导致筠子自杀!渣男跟齐丹也不长,一年后就离婚！同年渣男搭上16岁嫩模葛荟婕.渣男不提结婚,却执意让未成年嫩模为自己产子，嫩模刚产子,渣男又劈腿圈外人康作如抛弃了嫩模!渣男后来跟康作如也生下了一女,婴儿才八个月时，渣男继续劈腿，搭上卖淫女章子怡。渣男再次抛妻弃女,离婚康作如,跟章破鞋搞到了一起!渣男不怕戴绿帽,章国妓这辆破公交总算有人肯开回家了!娱乐圈两个极品烂货终于找到了彼此，天生一对贱人!俩破鞋天天被骂还装阔装不在乎,实则穷得连个婚礼都没办没名没份就苟合到了一起，在世人一片唾骂声中捣鼓出个三女,三女小名叫”睡不醒”,跟她妈一样真能睡啊,章家后鸡有人了!这个渣男他是谁?他就是汪峰!三个孩子三个妈，为了真爱过家家!铁打的女儿流水的妈，怒射的生命向阳花!女儿越多越彷徨，大家叫他劈腿王！ 章子怡太紧。 汪皮裤是因为那事被国际脏吓尿了吧...😂 苍老湿 子怡是不和人上床了你在唱歌总想老婆为啥给我戴绿帽子呢 汪峰的现场最好别看，否则你会太失望 统计了一下普通网友最多调侃汪峰章子怡，骂章子怡汪峰的全是匿名网友，请问这是一个什么组织阿。背后老大是谁 谁谁都是老师 汪峰的歌本来就难唱录音棚里当然无所谓现场的话失误就太正常了各大歌手类节目都是后期修音后给观众看现场能唱的跟CD机一样的华语乐坛屈指可数实力如张学友也有失误的时候别说汪峰了搞摇滚的本来就不容易保持状态何况年纪也不小了写的歌还都是挺高的 后台跟他握手都消毒去了 如果一個人行得正，坐得直，哪怕別人的污言穢語呢？如果一個人形象好，怎么能被所謂的“流言”擊中呢？公众人物要有公众道德！如果因为公众人物自毁形象做下流卑鄙的事而受到惩罚,这是咎由自取！怎么能怪别人呢? 国际沙滩上抠B老手 结果就是惨遭淘汰了 总比假唱的好 明明可以靠创作扬名立万，却偏偏去亮如破锣一般的嗓子 传说国际脏的前美国男友得艾滋病了，这下尴尬了！ 主要是担心艾滋… 都没人去听崔健的？还是支持一下原创歌手吧 还有朴树，朴树从来不假唱，歌全是自己作词作曲，现场不照样很好听，而且每场演唱会都会有那么一首歌觉得自己唱的不好听重唱的，试问还有哪些歌手这样？ 假唱了那么多次,真唱一次你们粉丝就这么感恩戴德? 从前啊,有一个渣男,与歌手筠子在一起,却偷偷劈腿主持人齐丹，导致筠子自杀!渣男跟齐丹也不长,一年后就离婚！同年渣男搭上16岁嫩模葛荟婕.渣男不提结婚,却执意让未成年嫩模为自己产子，嫩模刚产子,渣男又劈腿圈外人康作如抛弃了嫩模!渣男后来跟康作如也生下了一女,婴儿才八个月时，渣男继续劈腿，搭上卖淫女章子怡。渣男再次抛妻弃女,离婚康作如,跟章破鞋搞到了一起!渣男不怕戴绿帽,章国妓这辆破公交总算有人肯开回家了!娱乐圈两个极品烂货终于找到了彼此，天生一对贱人!俩破鞋天天被骂还装阔装不在乎,实则穷得连个婚礼都没办没名没份就苟合到了一起，在世人一片唾骂声中捣鼓出个三女,三女小名叫”睡不醒”,跟她妈一样真能睡啊,章家后鸡有人了!这个渣男他是谁?他就是汪峰!三个孩子三个妈，为了真爱过家家!铁打的女儿流水的妈，怒射的生命向阳花!女儿越多越彷徨，大家叫他劈腿王！ 诈捐骗募脏货，当了贼还招摇，出来就是过街老鼠，人人喊打。 土鳖，筠子的事是矮大紧干的，瞎78造什么谣。 潜伏期十年 看了他老婆演的片子，总结能成为国际张的原因是她有悖于中国的人伦价值，片里演出了骚浪！外国人黑中国的最好方式就是捧张。 众所周知的事实<br>你外星来的？ 皮裤:这次感冒了 哎，这社会怎么了。真唱不是应该的吗？现如今都要拿出来说了 作曲厉害就做幕后去，让专业的来唱！ 你去过录音棚就知道了，哪句不好，随便修随便补，现在的技术随便你弄，声音也可以ps，各种微调，不然你以为杨幂怎么唱下来爱的供养？ 真唱就好。 老师这个词现在到底说褒义还是贬义？ 哈哈章就是厉害，不愧是国际型的 汪峰现场就是垃圾 这些导师在指导别人头头是道，自己却都做不到！脸呢！ 汪峰就是老师，人家的音乐造诣在那摆着呢，你说说现在还有几个能一直坚持创作的歌手？ 筠子早跟矮大紧分了<br>自杀时是汪峰女朋友<br>从一个劈腿王到另一个劈腿王 汪峰现场一直都很烂，录音棚歌手。但是以你的标准，只要不是假唱都可以，那张学友陈奕迅他们演唱会都不用唱的多好了，随便过过好了，反正都真唱。 怎么垃圾了？唱成这样不错了！乔丹科比还有手凉的时候，郭德纲还有笑场的时候，朱军报时还有错的时候，央视主持也有结巴的时候，老虎也会打盹，一不小心鱼也会淹死，苍蝇会被熏死……差不多得了！ 子怡和那米国老猴子VV正在沙滩上抠B抠的正欢着呢 一听就是底气不足，被榨干了，😄 我们几个创作型歌手。你数数。好好拿脚指头数 说真的，虽然不怎么喜欢他，但确实是真唱！这点还是值的肯定的，总比那些个谁谁谁好多了！还是支持下！ 生娃，劈腿，离婚，再和下一个生娃，劈腿，离婚。。。缺德事都做了那么多还怕人骂？一个男人三个孩，三个孩三个妈，三个妈都不同姓，还需要说什么？ 实话实说，你为人十分恶毒，可是你家也有女性呀 原普陀狗骂完章子怡骂汪峰了 孙子你又来讨骂了？ 汪峰：女儿太多来不及干！汪半壁脏半圈给女儿们留点脸吧！她们前世作孽今生落得你们这样的爹妈！ 曾经看过一个月坛十大车祸现场的视频，在里面汪峰好像排第一，总之看下来超级搞笑。百度好像可以搜到。 实话实说，你为人十分恶毒，可是你家也有女性呀 从前啊,有一个渣男,与歌手筠子在一起,却偷偷劈腿主持人齐丹，导致筠子自杀!渣男跟齐丹也不长,一年后就离婚！同年渣男搭上16岁嫩模葛荟婕.渣男不提结婚,却执意让未成年嫩模为自己产子，嫩模刚产子,渣男又劈腿圈外人康作如抛弃了嫩模!渣男后来跟康作如也生下了一女,婴儿才八个月时，渣男继续劈腿，搭上卖淫女章子怡。渣男再次抛妻弃女,离婚康作如,跟章破鞋搞到了一起!渣男不怕戴绿帽,章国妓这辆破公交总算有人肯开回家了!娱乐圈两个极品烂货终于找到了彼此，天生一对贱人!俩破鞋天天被骂还装阔装不在乎,实则穷得连个婚礼都没办没名没份就苟合到了一起，在世人一片唾骂声中捣鼓出个三女,三女小名叫”睡不醒”,跟她妈一样真能睡啊,章家后鸡有人了!这个渣男他是谁?他就是汪峰!三个孩子三个妈，为了真爱过家家!铁打的女儿流水的妈，怒射的生命向阳花!女儿越多越彷徨，大家叫他劈腿王！ 是汪峰恶毒吧！<br>事情都是他做的 实话实说，你为人十分恶毒，可是你家也有女性呀 其实本身可以跟旭日阳刚合作，他负责搞创作旭日阳刚负责演唱，<br>人家唱功和嗓音天赋明显强太多，春天里要不是旭日阳刚翻唱谁知道？<br>可惜汪半壁目光短浅，人家翻唱一下都很大意见，没有大局观啊！ 剪头发的也自称老师，真的是恶心 他都车祸好几回了～ 吓尿了@~~ 是个人都是老师 唱不了就别唱了，何必为难自己 赚积分。 比那些假唱的要好多了 谁谁都是老师 港卵，侬出来 汪峰的作品有的确实不错但现场演唱实在不敢恭维确实要加深一下功底了 我专门去看了下视频，感觉还好啊，除了存在，其他都还可以啊。而且本来他的歌就难度很高 哈哈，粉丝出来洗地吧，继续喷我吧！现场水平就是个不行，还他妈的一直舔！ 汪峰，子怡加油 你是其中一个吗？ 实话实说啥仇？ 汪峰现场算不错的，谁都有唱不好的时候，毕竟他是流行歌手，不是唱歌剧的。有点瑕疵没关系 老师这个词现在到底说褒义还是贬义？ 汪峰真的不错，估计是现场耳机的原因导致发音问题，其他人也出现了同样的状况，现场音响与耳机有问题。永远支持汪峰，子怡，你们真的很棒！ 半壁江山如此 天啊，你是跟国妓脏有多大仇啊 假唱了那么多次,真唱一次你们粉丝就这么感恩戴德? 齐丹是大女儿葛荟婕是二女儿康作如三女儿章子怡四女儿小苹果五女儿汪璟怡女儿醒醒七女儿. 你这人太恶毒，肯定是猪狗生下来的，不对，猪狗都生不下来你这样的垃圾，当心你女儿问你呢 你太恶毒了。 我以为就我觉得他跨年晚会唱得太糟 搖滚只服黄家驹 汪峰唱歌还是可以的 哎，这社会怎么了。真唱不是应该的吗？现如今都要拿出来说了 网友：汪峰喜欢干女儿！<br>难怪只生女儿！<br>汪峰：女儿太多来不及干！<br><br>汪半壁脏半圈<br>给女儿们留点脸吧！<br>她们前世作孽<br>今生落得你们这样的爹妈！ 网易真不是一个正常人能来的地方，信口雌黄 皮裤汪vs国际章 众所周知的事实<br>你外星来的？ 不是黑扑树汪峰和他的歌难度不同不能做比较现场听过崔健真心牛逼音乐节六七首歌没出现忘词，走音什么。只能说是态度演出前对这个节目不是很重视吧 传说国际脏的前美国男友得艾滋病了，这下尴尬了！ 苍老师呢？ 还不如调教调教让国际章出来卖唱了…… 汪峰现场就是垃圾 四川卫视的跨年演唱会的by2才叫真唱功，边唱边跳，真唱实力！ 实话实说，你为人十分恶毒，可是你家也有女性呀 请问先森，要托尼老师给你整个什么发型啊？ 凯文老师去哪儿了？ 一贯如此 你这人太恶毒，肯定是猪狗生下来的，不对，猪狗都生不下来你这样的垃圾，当心你女儿问你呢 实话实说，你为人十分恶毒，可是你家也有女性呀 代表性欲强，所以是褒义词了 自己毁自己的人 唉，去发廊各种老师，还是英文的，感觉巨恶心，没个英文名在美发界都不好混 我们几个创作型歌手。你数数。好好拿脚指头数 说真的，虽然不怎么喜欢他，但确实是真唱！这点还是值的肯定的，总比那些个谁谁谁好多了！还是支持下！ 他的歌不是那么容易唱的，很正常 汪峰的现场一坨屎 你妈是 你这逼这就是强词夺理了。1楼说比假唱好，又没说汪峰唱的好 章子怡挖了你家祖坟了？ 汪半壁就这屌水平 人家有很多歌传播度非常高这是事实，王菲周杰伦也曾在现场走音，能说明什么？按你的智障说法都不要混了！印象中也只有学友这样的，不曾走过音.. 从前啊,有一个渣男,与歌手筠子在一起,却偷偷劈腿主持人齐丹，导致筠子自杀!渣男跟齐丹也不长,一年后就离婚！同年渣男搭上16岁嫩模葛荟婕.渣男不提结婚,却执意让未成年嫩模为自己产子，嫩模刚产子,渣男又劈腿圈外人康作如抛弃了嫩模!渣男后来跟康作如也生下了一女,婴儿才八个月时，渣男继续劈腿，搭上卖淫女章子怡。渣男再次抛妻弃女,离婚康作如,跟章破鞋搞到了一起!渣男不怕戴绿帽,章国妓这辆破公交总算有人肯开回家了!娱乐圈两个极品烂货终于找到了彼此，天生一对贱人!俩破鞋天天被骂还装阔装不在乎,实则穷得连个婚礼都没办没名没份就苟合到了一起，在世人一片唾骂声中捣鼓出个三女,三女小名叫”睡不醒”,跟她妈一样真能睡啊,章家后鸡有人了!这个渣男他是谁?他就是汪峰!三个孩子三个妈，为了真爱过家家!铁打的女儿流水的妈，怒射的生命向阳花!女儿越多越彷徨，大家叫他劈腿王！ 看看现在有几个真唱的，队了实力唱将敢真唱以外，你看看今年各大卫视晚会假唱的有多少，而且假的不能再假了，所以还是要支持真唱 这年头谁个人就是老师，剪头的也叫老师，这些个娱乐演员叫老师？有教师资格证吗？ 汪狗坏事做绝<br>就别怕别人说 后台跟他握手都消毒去了 王菲有脸，就唱那一回，不像皮裤频繁跑调还频繁表演 说真的，虽然不怎么喜欢他，但确实是真唱！这点还是值的肯定的，总比那些个谁谁谁好多了！还是支持下！ 假唱无耻，词作者还能忘记歌词那就是下流无耻了！ 当年？还是今日？ 谁谁都是老师 既然你诈捐骗子章官鸡注册了基金、当然要把基金账目晒出来给人看的了、不然、你让人家海外友人给你捐几千万的美元、难道人家是给你诈捐章捐钱买坟墓呢。 病发了 汪峰现场一直车祸，烟酒嗓子废了 别跟我争了，我去过筠子家。 就这水平还好意思说自己是半壁江山[狗] 艾滋袭来 人家拍了让世界听见，还真当了几天老师 汪峰现场一直都很烂，录音棚歌手。但是以你的标准，只要不是假唱都可以，那张学友陈奕迅他们演唱会都不用唱的多好了，随便过过好了，反正都真唱。 你是其中一个吗？ 总比假唱的好 录的时候开电音不怕全是痕迹？修才是可以修的听不出来 汪峰最牛逼的是自己的歌只有别人才能唱红！！ 原来只要真唱就能不要职业道德，不用用心对待每场上台表演的机会。真TM的无耻的， 这样还有什这么多人帮他说好。我也是醉了……唱歌唱几次都不行还有人买他的涨。说脑残。会不会过份了、演唱会也是这样。如果要说他好只能说写词部分人喜欢。其它有什么让这么多人汪汪大叫 皮裤汪哭晕在🚽 没事挖人祖坟最吸引眼球 不管你怎么说汪峰，你骂一个小孩终究是不对的 没办法拿嗓子吼了这么久了也快废了叫他老师还是可以的毕竟有实力在过他还创作了很多好歌。 土鳖，筠子的事是矮大紧干的，瞎78造什么谣。 忘词的多了 我们几个创作型歌手。你数数。好好拿脚指头数 没人注意谭维维歌曲字幕的乌龙吗，要搁过去，台长不枪毙也得关起来。 这是真唱 看了他老婆演的片子，总结能成为国际张的原因是她有悖于中国的人伦价值，片里演出了骚浪！外国人黑中国的最好方式就是捧张。 他隔壁的会唱歌？ 你在说王菲吗？ 国际章前男友得艾滋病了，皮裤汪吓得直哆嗦[大笑] 不是老师的都爱听人喊老师，以显得有文化；真是老师的，不爱听人喊老师，以免显酸腐味 底气不足让子怡在床上叫 你去过棚子么，音准再怎么差只要不是现场伴奏，单独一条音轨随便修好么 真唱必须唱错？这是哪个大王规定的？ 晒也不晒给你看，你是什么玩意 你去过录音棚就知道了，哪句不好，随便修随便补，现在的技术随便你弄，声音也可以ps，各种微调，不然你以为杨幂怎么唱下来爱的供养？ 你还真不懂。流浪歌手中不乏有实力的。但是并非有实力有才华的就一定能崭露歌坛... 大哥，唱现场时，很多不准的地方，你想分辨时，电音就瞬间美化了一下，不就掩盖了。另外，后期修音没有那么万能，音准差太多的话也是修不了的 老师这个词现在到底说褒义还是贬义？ 汪峰现场就是垃圾 你妈是 这对破鞋天天晒女儿洗白，就别怪别人评头论足！客观评价醒丑确实丑炸天！ 用惯了大家伙儿..... 穷的婚礼都没办？你出钱可好，脑残吗？挖人家祖坟，骂人家儿女，你也是猪粪一堆！ 2017年起开始贬义的 新年好！祝你<br>2018万事顺遂大吉大利！ 这事真的忘记唱词还是在考验大家呢？ 就是捞钱去的，唱歌也是做样子。 一听就是底气不足，被榨干了，😄 汪峰的歌基本都是其他歌手唱得都比他这个原唱好，说明汪峰只适合写歌不适合唱，至少现在唱不动了，唱成这样子再出来就是骗钱了 猪粪是你祖宗！ 诈捐章被那米国老猴子在沙滩上脱光了抠B、那米国猴子VV那抠过章妓女B的艾滋病毒的脏手、诈捐章一定是艾滋病的携带者。 现场也要看状态，真唱不可能这么完美，因为你们听假唱已经习惯了。能自编自唱的真不是吹的，唱得不好也可以写歌，至少写了很多传唱度很高的歌，绝大部分歌手都是一首成名曲混了一辈子 比咱唱得好😂 高音不如年轻的时候了，当年现场唱小鸟的毫不费力 汪峰就是个渣男！太可恶了！害的前面俩女儿从小没有亲妈真心疼爱，没有一个完整的家，三个孩子三个妈，人品差到了极点！却反倒出来装圣人似的，如此不念旧情、喜新厌旧、绝情刻薄！太不是人、太不要脸、太可耻！汪章俩王八蛋是要招到报应的！…… 厉害了我的哥 楼上的就是在浙江卫视综艺节目给诈捐骗子发微信扔鞋的那个吧、 真唱应该是歌手必须有的现在给弄的真唱就是遮羞布了悲哀 汪峰一只在车祸。。。 楼上的就是在浙江卫视综艺节目给诈捐骗子发微信扔鞋的那个吧、楼上的是诈捐章和汪王八组织的吧 不要紧的，我们都不要紧，绿牛，小贾，小汪，深情拥抱，都过去了，我们不要紧的！ 这几天闹心闹得等着血检结果的！ 子怡牛逼 半壁江山 超大吸力，四面八方不跑烟。 车祸王不是盖得 现在对歌手的要求都这么低了吗，真唱就行，老子唱歌也真唱 网友：汪峰喜欢干女儿！<br>难怪只生女儿！<br>齐丹是大女儿葛荟婕是二女儿康作如三女儿章子怡四女儿<br>小苹果五女儿汪璟怡6女儿醒醒七女儿<br>汪峰：女儿太多来不及干！<br><br>汪半壁脏半圈<br>给你的女儿们留点脸吧！<br>她们前世作孽<br>今生落得你们这样的爹妈！ 总比假唱的好 有贬有褒，恰到好处 汪峰还是很牛的，中央音乐学院不是谁都进的去的 😳😳😳 汪峰带着女儿和四女儿章子怡结婚、又和四女儿章子怡又生了一个女儿、这个你怎么算？ 老师就和“客官”一样，毫无感情也不认识却要假装尊敬“这位客官里边请” 不褒也不贬，反正当你不知道该怎么称呼时，就喊老师没错 确实唱功大不如当年。 齐丹是大女儿葛荟婕是二女儿康作如三女儿章子怡四女儿小苹果五女儿汪璟怡女儿醒醒七女儿. 我听了张惠妹的也是，破音，跑调，但是总比假唱的好 作为唯一的摇滚歌手，熬个四五轮还是没问题的 放松点好 烂货一个！！ 他们两口子都是垃圾，这是实话 对不要紧的。 当今的演艺圈太多的萨顶顶 网友：汪峰喜欢干女儿！难怪只生女儿！汪峰：女儿太多来不及干！ 哎，这社会怎么了。真唱不是应该的吗？现如今都要拿出来说了 说自己半壁江山恬不知耻！！！ 这么看来，他去歌手，是真的了 好好发帖，争取2019年把手机换了， 牛逼，哪里都能找到正能量 统计了一下普通网友最多调侃汪峰章子怡，骂章子怡汪峰的全是匿名网友，请问这是一个什么组织阿。背后老大是谁 老师这个词现在到底说褒义还是贬义？ 楼上的就是给诈捐骗子发微信扔鞋的那个吧、楼上的是诈捐章和汪王八组织的呢、你背后的老大是那个沙滩抠B的艾滋病米国猴子吧。 很多歌手根本唱不了现场……上气不接下气…… 这是最大的讽刺 沙滩上脱光了当众抠B、老流氓 不会一轮游的歌手现场音响效果特别好以及后期修音你听不出的 真唱也是恶心的流氓 唱的什么玩意 看来这半壁江山都要沦陷了～～～ 汪峰现场一直都很烂，录音棚歌手。但是以你的标准，只要不是假唱都可以，那张学友陈奕迅他们演唱会都不用唱的多好了，随便过过好了，反正都真唱。 怎么垃圾了？唱成这样不错了！乔丹科比还有手凉的时候，郭德纲还有笑场的时候，朱军报时还有错的时候，央视主持也有结巴的时候，老虎也会打盹，一不小心鱼也会淹死，苍蝇会被熏死……差不多得了！ 一听就是底气不足，被榨干了，😄 虽有瑕疵，但是真唱，不是愚弄观众的表演唱 从前啊,有一个渣男,与歌手筠子在一起,却偷偷劈腿主持人齐丹，导致筠子自杀!渣男跟齐丹也不长,一年后就离婚！同年渣男搭上16岁嫩模葛荟婕.渣男不提结婚,却执意让未成年嫩模为自己产子，嫩模刚产子,渣男又劈腿圈外人康作如抛弃了嫩模!渣男后来跟康作如也生下了一女,婴儿才八个月时，渣男继续劈腿，搭上卖淫女章子怡。渣男再次抛妻弃女,离婚康作如,跟章破鞋搞到了一起!渣男不怕戴绿帽,章国妓这辆破公交总算有人肯开回家了!娱乐圈两个极品烂货终于找到了彼此，天生一对贱人!俩破鞋天天被骂还装阔装不在乎,实则穷得连个婚礼都没办没名没份就苟合到了一起，在世人一片唾骂声中捣鼓出个三女,三女小名叫”睡不醒”,跟她妈一样真能睡啊,章家后鸡有人了!这个渣男他是谁?他就是汪峰!三个孩子三个妈，为了真爱过家家!铁打的女儿流水的妈，怒射的生命向阳花!女儿越多越彷徨，大家叫他劈腿王！ 说真的，虽然不怎么喜欢他，但确实是真唱！这点还是值的肯定的，总比那些个谁谁谁好多了！还是支持下！ 这中气不足了啊，汪半壁这唱功婚后锐减啊 对啊，现在只要是个演戏的或者唱歌的就叫老师，够得上这两个字吗，听得都烦了 现场唱的歌手，很多都会遇到这种问题，没什么可使劲儿喷的。汪峰至少是音乐科班出身，音乐学院毕业，比起那些个靠选秀上来的歌手，音乐专业素质应该好很多，没必要抓着点儿小问题就不停的喷吧。 某大淫棍多说的就是老师 得艾滋病了吗 汪峰容易吗，精心策划的走音想上个头条没想到又被李小璐抢了… 艾滋病来势汹汹 老铁不看新闻啊[狗]国际章的前男友跟老外男友都艾滋挂了皮裤汪估计吓尿了 老师只认陈老师，苍老师。 吓的，没听说艾滋吗？😂 曼城昨晚还踢平，怎么骂才合适 太多戏子玷污了这个职业 娱乐圈半壁江山瑟瑟发抖惴惴不安 他主要是创作 章的前两个艾滋男友，一个初恋高枫艾滋走了，一个艾滋犹太佬情况不明。半逼捡到烫手的山芋，自身难保。 田馥甄现场就很好 汪峰现在一直都是这么烂，没什么大惊小怪的 子怡还是厉害啊 车祸界终身成就奖 现在真唱唱的烂都能赞美了？奇葩 那次去大宝剑，看妹子还不错一时兴起问多少钱。说三百块钱。结果完事了准备结账有人突然来了几个大金链子纹身大汉，说是三百一下[石化]最后没办法，交钱走人。这九百块钱劳资就当买了个教训！[挨揍][挨揍] 公厕当老婆，有艾滋也不奇怪，暗病很多。 这年头演唱车祸都会获得表扬的机会。我们得知道，歌手的本职是歌唱，演员本职是演好戏。假唱肯定得骂。真唱唱不好也是失职 子怡在沙滩被老外扒开内内闻P眼～ [窃笑] 他的这种唱法，嗓子已经提前透支了。 今天在艾滋病检查科碰到了 撒贝灵已经吓尿[喷水]李白欲哭无泪[狗] 他…没见过…这样…唱的… 老师这个词在娱乐圈都被叫臭了 他是靠唱歌吃饭的你的工作也差不多得了你也得到处挨骂这些艺人拿着这么多钱凭什么对不起自己的职业 人渣穿破鞋嘚瑟，原来诈捐货俩任前男友都是艾滋，吓尿了？ 基本功太重要了韩红迪玛西就很稳定 现在对歌手的要求可真低 多好的歌手，榨干净了。。 国际章 汪皮裤是因为那事被国际脏吓尿了吧...😂 张大大老师，，金星老师 艾滋,炒作和谐的一家，还能活几年？ 怎么垃圾了？唱成这样不错了！乔丹科比还有手凉的时候，郭德纲还有笑场的时候，朱军报时还有错的时候，央视主持也有结巴的时候，老虎也会打盹，一不小心鱼也会淹死，苍蝇会被熏死……差不多得了！ 血样送检了，等结果呢 皮裤身体都软了？本来作品就是农业摇滚，这下都摇不动了 支持屁垃圾 可是作为歌手真唱是起码的基本功标准，走音是很严重的事情，如果他是演员来客串唱首歌什么样都是可以理解的，职业歌手还是练好基本功吧， 主要是HIV潜伏期，身子虚 嗯。对的 无论如何，真唱没得黑。宁看真唱的失误，不看假唱的完美。 老师这个词现在到底说褒义还是贬义？ 这年头，提到老师想到校长；提到老湿想到想到薄纱下的两点一洞；提到老人想到昔日的老师。 汪峰本来就是音乐才能出众但是嗓子不行啊。不然为啥他的歌都是别人唱火的？？太多歌了，他唱功确实比较一般。但是作词作曲很棒 半壁江山 好样的 真实现演 找诈捐骗募贼货，又有艾滋风险，汪渣脑袋被门夹坏了，绿毛龟就想上头条博眼球。 撒贝宁 一听就是底气不足，被榨干了，😄 被小章夹的没底气了借我用几天呗保证小章爽死了 抛开音乐之外的事情，能够达到汪峰在音乐上的造诣又有几个，假唱好听，比如去弄个好音响，听CD好了！ 说真的，虽然不怎么喜欢他，但确实是真唱！这点还是值的肯定的，总比那些个谁谁谁好多了！还是支持下！ 看搁谁身上，比如苍老师就是褒义 Tony老师 汪峰就是垃圾 汪峰唱旳全是自己作词作曲编曲旳作品，新时代旳标记是今年新专辑果岭里29号中旳一首，非常好听，老歌新歌经典串烧，不错。一个唱了二十多年高音摇滚旳音质人，撇开他的创作才华不谈，到了快五十高龄，能坚持真唱实属不易，好过流量小鲜肉和假唱旳。 不管现在唱的如何毕竟辉煌过。现在再不好是真实的。喜欢真实的他。 从前啊,有一个渣男,与歌手筠子在一起,却偷偷劈腿主持人齐丹，导致筠子自杀!渣男跟齐丹也不长,一年后就离婚！同年渣男搭上16岁嫩模葛荟婕.渣男不提结婚,却执意让未成年嫩模为自己产子，嫩模刚产子,渣男又劈腿圈外人康作如抛弃了嫩模!渣男后来跟康作如也生下了一女,婴儿才八个月时，渣男继续劈腿，搭上卖淫女章子怡。渣男再次抛妻弃女,离婚康作如,跟章破鞋搞到了一起!渣男不怕戴绿帽,章国妓这辆破公交总算有人肯开回家了!娱乐圈两个极品烂货终于找到了彼此，天生一对贱人!俩破鞋天天被骂还装阔装不在乎,实则穷得连个婚礼都没办没名没份就苟合到了一起，在世人一片唾骂声中捣鼓出个三女,三女小名叫”睡不醒”,跟她妈一样真能睡啊,章家后鸡有人了!这个渣男他是谁?他就是汪峰!三个孩子三个妈，为了真爱过家家!铁打的女儿流水的妈，怒射的生命向阳花!女儿越多越彷徨，大家叫他劈腿王！ 国际章也就适配皮裤汪，俩垃圾 汪峰的现场一直这样嗓子已经废了 哎，不行了 现在评价歌手唱功标准就是不是假唱就好？？他live就辣鸡，还好意思当好声音导师和去我是歌手参赛。 真可怜，这个酸，新年新兆头，你开的不错。 邓紫棋的现场，真的不错 皮裤压力很大 学生考试，一百分只考了10分。别人批评他他自己狡辩：至少证明我没有作弊呀!别人都是作弊来的高分!于是父母亲人分分夸奖他好孩子! 一个歌手，不假唱是职业道德，但是不假唱不代表就可以唱得那么烂！唱得烂就用这种借口开脱，很荒谬！鄙视假唱的歌手，也鄙视真唱频频出事故的歌手，该反省一下自己的真唱能力水平是否已经退步了！ 汪老师是不是要去医院看看潜伏期好久呢 各种走音，破音，好尴尬 没看 老霉现场稳如狗[狗] 总比假唱的好 老师这个词现在到底说褒义还是贬义？ 老湿 他女人多，可是也可能会有合适的和他做家人。再说听众们不是他的女眷也不感兴趣😷 哈哈哈哈哈 潜伏期十年 绝对真唱!! 很多人还是认他的，一些年轻歌手，创作风格也学他，他其实算实力的不是纯偶像🤩的好吧 皮裤:这次感冒了 是个中性词，就像我们工厂里见谁都喊师傅一样。 半壁江山[喷水][喷水][喷水] 四眼短腿汪之迷之气短 跑偏了 现场稳如狗的去看霉霉吧[喷水]稳的一批cd品质 大陆流行音乐到现在都没一个，50岁依然，有多个时代的听众都耳熟能详还可以现场看的男神～ 皮裤汪还当过某节目导师呢。另外脑残粉的解释永远是笑话。 被国际章榨干了 唱歌靠吼 没看，汪大师现场怎么养👀 这些导师在指导别人头头是道，自己却都做不到！脸呢！ 活出生命live，而且还是慈善演唱会 被国际章玩坏了？ 皮裤估计艾滋病犯了 你这是多大的怨气 还不如现场说些与子怡的生活事来的好 皮裤的词曲真没得说，唱歌是真扯淡 垃圾 唱成这样，还不如假唱呢。 自从和脏在一起后他的车祸现场还少吗？ ",
        "Total": 8965
    }
}