{
    "Article": "（原标题：业绩抢眼苹果CEO库克今年收入过亿！）*本文来自华尔街见闻（微信ID：wallstreetcn），编辑方凌。作为全球最会赚钱的企业，苹果CEO库克的身价也水涨船高。苹果公司周三公布的一份股东委托书显示，截止2017年9月30日的2017财年，库克共获得现金奖励933万美元，比去年同期暴涨近74%。加上306万美元的工资以及44万美元的其他津贴，2017财年库克一共获得了1283万美元的工资加奖金，较2016财年的875万美元大涨47%。如果再加上今年8月库克获得的8920万美元股票激励，那么也就意味着库克今年一共可以“带回家”近1.02亿美元的收入。不仅是库克，苹果的5位执行官每人也获得了310万美元的现金奖励，较2016财年的179万美元的上涨幅度同样是74%。除了到手的奖金，苹果给库克的福利还包括私人飞机。声明中表示，出于安全角度考虑，自2017年开始董事会要求库克在所有的商务旅程和私人行程中都使用私人飞机。据统计，2017年库克使用私人飞机的费用为93109美元。要求CEO在个人旅行中也是用私人飞机的做法在大型公司中并不鲜见，比如通用电气的前CEOJeffImmelt就是如此。高管收入大增，对应的是过去一年苹果交出的出色财务表现。2017财年，苹果公司的净销售收入和运营收入分别达到2292亿美元和613亿美元，股价增长36.7%。2017财年的每一季度，营收增速同比都有增加，同时每股营收增速也达到了11%。2017财年苹果股价走势图（图片来源：雅虎财经）除了推出十周年版本的iPhoneX，苹果服务业务的营收也大幅增长。声明指出，仅仅是苹果服务业务部分，规模就已经堪比一家净销售收入为300亿美元的财富100强企业。全天候科技提到，市场调研机构HIS报告称，iPhoneX上市三周就占全部iPhone基础活跃使用量的2%，创下iPhone诞生以来的最好成绩；iPhoneX在今年四季度的销量可以达到3100万，这推动了苹果的季度利润创下历史最高纪录。iPhoneX上市三周就占全部iPhone基础活跃使用量的2%，创下iPhone诞生以来的最好成绩；iPhoneX在今年四季度的销量可以达到3100万，这推动了苹果的季度利润创下历史最高纪录。本文来源：华尔街见闻责任编辑：王凤枝_NT2541",
    "Source": "Netease",
    "KeyWords": "库克,私人飞机,苹果,iphone",
    "Title": "苹果CEO库克今年收入过亿美元 还有私人飞机福利_网易科技",
    "Comment": {
        "Total": 18,
        "Content": "库克基佬你还我流畅度 一切向钱看！ 苦菊菊花保养svip 说苹果手机好，那是盲从心理在起作用。实际上苹果手机既难看又难用。<br>你把粪坑里的石头捞起来洗干净放在檀木盒子，对外宣称这是上古时代的陨石，人们会用放大镜仔细观察石头的每一条裂纹，并发出嗤嗤的惊叹，大口呼吸这块石头带来远古的味道，为大自然的鬼斧神工所折服。<br>今天的苹果手机就是粪坑里的石头，人们被盛装石头的檀木盒子迷惑了。因为在人们的惯性思维里，檀木盒子盛装的一定是好东西 一切向钱看！ 苹果现在这么坑用户 狗屁克 说苹果手机好，那是盲从心理在起作用。实际上苹果手机既难看又难用。<br>你把粪坑里的石头捞起来洗干净放在檀木盒子，对外宣称这是上古时代的陨石，人们会用放大镜仔细观察石头的每一条裂纹，并发出嗤嗤的惊叹，大口呼吸这块石头带来远古的味道，为大自然的鬼斧神工所折服。<br>今天的苹果手机就是粪坑里的石头，人们被盛装石头的檀木盒子迷惑了。因为在人们的惯性思维里，檀木盒子盛装的一定是好东西 库克是多节约。。。，还要董事会要求他做私人飞机 电池封装在机器内部，表示电池技术已经很成熟了，基本上可以做到和手机等同寿命。如果你的电池3个月就要换，电池就属于易损件，就应该做成外置式，方便用户更换。这是工业设计的最基本原则 呵呵无知也要有个度！苹果的系统界面美观度安全度流畅度等方面都是目前最好的！也只有你这样无知的人才不知道苹果的优势！而且苹果手机的外形也是走的极简路线令人赏心悦目的！ 库克基佬你还我流畅度 苦菊菊花保养svip ",
        "Reply": 9,
        "Link": "http://comment.tech.163.com/tech_bbs/D6O2NVSA00097U7T.html"
    },
    "PublishTime": "12/28/201710:13:59",
    "URL": "http://tech.163.com/17/1228/10/D6O2NVSA00097U7T.html"
}