{
    "Source": "Netease",
    "KeyWords": "离婚,离家出走,教育",
    "URL": "http://news.163.com/17/1225/04/D6FNJOOS0001875P.html",
    "PublishTime": "12/25/201704:25:31",
    "Comment": {
        "Content": "根源在哪里？看！<br>“但女儿还不到1岁，家徒四壁的境况便迫使她随丈夫外出打工，公婆自然而然承担起照顾襁褓中的杨敏的责任。” 我们的政府，把太多属于自己的份内责任推给社会，导致居民负担沉重。西方国家重视的医疗、住房和教育等民生问题，都成了搂钱的工具，我们的孩子也成了新增的消费者，没有受到多少福利和免费学前教育的惠及。 我发现广东上海人，喜欢把事往坏了想，埋汰人能让你们得到快感？ 2楼你是新北京人吧？见识真够低的。 这种小偷小摸连坑带骗的女孩子不会饿死的，放心吧，说真话这就是养了个孽障。。 这时候口德很重要 一楼这句话有错？我有个叔的儿女都是我奶奶带大的，现在一个个好吃懒做，三女两儿每一个都有盗窃前科，书也没读多少，虽然说这些对我奶奶不敬，但她确实教出了帮败家孙儿女！ 12岁离家出走流落社会，倘若是在农村给人家当个媳妇也算平安，要是在城市里...无法想像。 为了避免有的网友们方向失误，我不得不抢先发帖。 和孩子多点时间沟通，多陪陪她，多了解她的世界方能切入并引导 留守儿童的悲哀 父亲太不负责任！ 12年一点消息也没有，而且走的时候才12岁……没有户口，没有生份证，没有钱。会偷。<br>走后从来没有一点消息。<br><br>说实话，可能凶多吉少。 留守儿童的悲剧 要抓个逃犯，天涯海角都能给揪出来。<br>要找个丢失的儿童，去报个案还得是失踪24小时以后。 我儿子小时候我们条件很好，我们告诉他需要买什么和爸爸妈妈说，我们都会给钱的，8岁那年他从鞋柜抽屉里偷拿三毛钱，要买一种我们反对玩的皮筋，结果被我打的一天没上学，他现在还记得当初我要把他从阳台上扔下去，长大后告诉我们，那次吓坏了，从那以后，再没敢拿过别人东西。可有些撒谎偷盗的孩子还真是天性，怎么都不改，我大学一同班女同学，什么都偷，包括咸菜，寝室其她五个女孩都被偷遍了，赃物被辅导员从柜子里面搜出来，那得多丢人吧，可人家跟没发生什么事似的，该干嘛干嘛，后来继续偷。。。小侄女一同班同学，她妈妈和我嫂子是一个学校老师，两家也住同一栋楼，两口子老实本分，家庭条件也不错，孩子却偷盗成性，有次去我嫂子家玩，偷了她1300元，那年才10岁啊，她妈妈一边哭一边说着这些年来，跟她谈心满足她，没用，教育她没用，打她还没用，所有方法用遍了，就是改不了。我们都跟着流泪了，那个孩子就像看外人一般无动于衷，所以，什么遗传啊教育啊之类的，天性如此孩子的，没有办法改变。 坏人在文明社会会变得有爱心，好人在丛林社会中会变成野兽，这样简单的道理真的很难理解吗？我的天啊， 对有些人来说，偷不容易改的，再怎么打都改不了的。这么小就走了这么久，别等了，没身份证，没接受教育，能做什么啊 事实绝对不可能励志的。12岁的孩子，什么能力没有，变坏或做鸡都算一种不错的结局了，怕就怕真的人间蒸发了 说的有道理,很中肯,退一步讲,棍棒教育不对,但偷东西也应该受到体罚,教育,商榷,,,,,,; 不要以你的价值观衡量整个世界 看看，一楼就是不看完新闻内容的悲剧。<br>根源在哪里？看！<br>“但女儿还不到1岁，家徒四壁的境况便迫使她随丈夫外出打工，公婆自然而然承担起照顾襁褓中的杨敏的责任。” 最高学历一个字：打 一楼那里错了，请指正！ 养不教父之过 父母爷爷奶奶和小孩自己都大有问题。有些人真的不应该生小孩的。 我家非典时囤的板蓝根每天当茶喝，才喝了一小半，还有几十吨 你提醒了我们，需要多关爱弱智群体 说白了还是人权问题把人当牲口 民工潮，造成多少家庭夫妻分居，多少留守儿童翘首期盼，看似简单的家庭问题，其实是社会问题的延伸，没有人重视农民工的情感问题，全球第二大经济体在在人全、平等等方面估计是倒数第二。 对于这种坏小孩，不打再讲理已经不会改了！废掉了！ 我也这么想的 ：我要宣布一件事情，大家还记得2011年的抢盐的事情吗？我家里的盐在今天，就是今天，终于吃完了，吃完了呀！我的个亲娘啊！终于给吃完了。​​​ 我不是宿命论,但有的孩子,是怎么都教育不出来的,有的即使农村穷人的孩子,从无管教,自己也能学习很好,成才。甚至还能上清华,,,, 性格使然，爷爷奶奶带的多了，几个成賊的？性格以及家庭教育的缺失，早期发现苗头没及时制止，然后就这样子了。和打不打没关系，不打偷的更厉害 [惊讶][微笑] 确实，所以孩子十岁前最好自己带，少挣点钱都可以，塞翁失马，焉知祸福 孩子教育问题确实是个大问题，特别是现在社会。因为不是每个家长都是教育专家。 所以现在疏解人口，都回家挺好，有本事的人在哪都能赚到钱，回家也要发展盖房子，装修，赚的也不少，剩下的还多。非要生一堆孩子扔农村，两口子都去大城市，其实能剩下多少钱，都是虚荣和无知。要么别生，要么生了就好好教养。 说什么好呢？我诅咒万恶的旧社会。 孩子的问题，家长就是始作俑者：开始啥都不管，管的时候就是依靠暴力。还有社会管理部门，想到的只有刮钱，除了计划生育，对新婚夫妇的正确育儿做过什么宣传和教育？对留守儿童做过多少工作？经费都哪里去了？做父母的一定记住，孩子有问题了千万不要一味粗暴教育，孩子爱撒谎大多是由于粗暴教育造成的，导致孩子做了错事有实话不敢说，只有抱着侥幸撒谎这一条路可走。 希望这位女孩能够看到这篇文章或者，我想十二年了，你的父亲已经去世，并且在去世之前已经知道自己教育方法错了，而且一直没有放弃在找你，可以看的出你的父母还是十分的爱你的，可惜到死都没见上你一面真是让人敢到唏嘘，可能你现在感觉不到，但是总有一天你会敢觉到亲情，子女不管你到多大的岁数但是在父母的眼中永远都是小孩，都是他们最疼爱的人，快回家吧！ 从小喜欢偷，长大也是好吃赖做，如果没死，估计做鸡了。 现在管这样严还敢这样说 说的有道理,很中肯,退一步讲,棍棒教育不对,但偷东西也应该受到体罚,教育,打是亲,骂是爱,不管不教是伤害,商榷,,,,,,; 隔辈人带孩子太容易溺爱！！！！ 因为长期喝板蓝根，二楼已经变成蓝精灵了…… 这样的孩子确实该打 孩子小偷小摸就是从大人身上学的。在超市经常看到老人带着孩子来闲逛，小偷小摸超市的东西，什么拿块糖给孩子塞嘴里，拿个水果给孩子吃，拿块面包给孩子吃，估计逛好了中饭也吃好了。老人还很得意，觉得自己特别会带孩子。 根源在哪里？看！<br>“但女儿还不到1岁，家徒四壁的境况便迫使她随丈夫外出打工，公婆自然而然承担起照顾襁褓中的杨敏的责任。” 开始没底线的跟帖骂了吗？那你说当初抗议萨德的第一个报道是不是吉利大妈在超市门口拉长幅抗议的。？那你自己说的，没有底下实验，你生活的很幸福，那么你为什么不敢互相祝福一下呢？既然你能跟着贴到处骂，那你在这里给大家说一下，你敢这样祝福吗？？<br><br>按楼上这样的想法，那么它子子孙孙都按现在的生活环境活下去，和她一样的思想活下去应该是她的愿望，毕竟他一直在强调它现在的正确度，幸福度。那么这个楼的其他几位，我们不要再反驳它了，我们一起祝福它吧，祝福它的子子孙孙都这样生活下去。这样对她也好对你们也好，毕竟社会总需要剥削层与被剥削层的。 他还是爱孩子，只是教育方式太暴力了 哎。。。 坏孩子如果父母舍不得打骂教育，就让法律或别人去教吧，那样会更惨……作为父母你选择哪种？ 谁骂你？羡慕你才是真的，。天朝很多人为了钱丧失了人性，难怪在世界上不受待见，因为天朝有钱有势就可以为所欲为，，。 六岁才接过去的，接过去可能经常就是毒打，也问过妈妈为什么不帮她，她问这句话可能当时心里很孤独，感觉自己是捡来的没人爱，当时离家出走可能已经下定决心了，像这样的孩子性格比普通孩子要强的，有时候决定的事情不容易改变的，，哎 许多问题，表象上看是个人问题，深入一些看是家庭问题，其实本质上看是社会问题。政府不去引导着力解决社会问题，其实也是一种失责。 看哭了， 丫头有什么好大的，真的搞不懂 它们倒数第二谁到谁第一啊？ 所以说，可怜之人必有可恨之处，好好想想吧，你的利润都被谁拿走了？<br>别把自己想得那么牛逼，就你一个底层的人，难道美国和日本都能专门去拿走你的利润？你一年能制造多少利润可以吸引这些国家来那你的利润？ 还有狗这个字用的好，标准，精确，尖锐，而且大气可以笼盖全国。你说的确实是真的，日本狗是可以呗阉割的，日本法律是可以限制给狗做结扎，限制它的生育的。当然还有更好的狗，就是在被限制了生育权的时候还在大声的谄媚这真是一条好狗 一楼说出的是结果！有什么错？这种结果也是大概率的！和一楼的世界观有什么关系！原因都看的明白！ 养不教父之过 从小喜欢偷，长大也是好吃赖做，如果没死，估计做鸡了。 好吧，我的生活环境也让我提出来质疑----4楼到底要说什么，没看懂 外面的世界很凶险耶[骷髅][骷髅][骷髅] 新闻也说了，老人把另外几个兄弟姐妹的孩子带的很好，他们才把孩子交给老人带的。 做了比做鸡更可怕事 要抓个逃犯，天涯海角都能给揪出来。<br>要找个丢失的儿童，去报个案还得是失踪24小时以后。 根源就是穷的吃不起饭还要生孩子！有能力养活自己再要孩子能怎样！还不是愚昧。现在还有多少农村孩子被扔在家里，父母大城市流连，一年也给不了家里几个钱，就是舍不得回家，耐不住清贫。孩子有学不好好上，早早混社会，结婚。这种孩子的父母就不配生孩子。教育出一个有出息或者懂事的孩子和离家打工多赚千八百哪个重要。没能力就别生，生了就好好想想怎么养好。 12岁小女孩子难以想象会遇到什么样的危险，那个时候遇到危险电话都没有 民工潮，造成多少家庭夫妻分居，多少留守儿童翘首期盼，看似简单的家庭问题，其实是社会问题的延伸，没有人重视农民工的情感问题，全球第二大经济体在在人全、平等等方面估计是倒数第二。 活着就一定会找到，就怕出了意外。 12年一点消息也没有，而且走的时候才12岁……没有户口，没有生份证，没有钱。会偷。<br>走后从来没有一点消息。<br><br>说实话，可能凶多吉少。 一楼其实说得很现实。 傻逼父母！12岁的女孩出去也就是羊入虎口，早就凶多吉少了。傻逼父母就没报警吗[暴怒][暴怒][暴怒] 不要以你的价值观衡量整个世界 活该 看看，一楼就是不看完新闻内容的悲剧。<br>根源在哪里？看！<br>“但女儿还不到1岁，家徒四壁的境况便迫使她随丈夫外出打工，公婆自然而然承担起照顾襁褓中的杨敏的责任。” 所以说孩子尽量别给爷爷奶奶带，现在很容易惯坏了，到大了根本改不回来，思维行为基本定型了，错的事都认为是对的。爷爷奶奶惯坏了就像文中说的，一句说不带了就退回来。 这对父母到现在面对媒体还不顾女儿的颜面把女儿小时候的劣迹讲出来这下子全国人民都知道他们当初打走女儿是多么有道理多么情有可原了这位母亲你觉得这样做女儿即便看到后会回来吗 骨子里带出来的， 她是否还在世是个未知数，想想12岁孩子离家出走是多危险的事，一般情况再怎么恨父亲那母亲呢？就是离家出走了几个月还是想给家人联系一下的吧，长大了也不回去看？ 我家的盐被正负征收了，说是淹腊肉用。 管教孩子要在学龄前严格些，孩子大了，就管不过来了，犟嘴、与父母对打、自杀、离家出走就很正常了 可怜之人也有可恨之处。唉。可悲也可气 不知所云！你不发言是对的，能藏拙啊！说的什么乱七八糟的…… 贫贱夫妻百事哀 你自己做的孽，不会那么轻易融化。 有些人生下就有病,和教育没有关系,比分自闭症,没心没肺的,生活在自己的世界,父母都认不了 对于这种坏小孩，不打再讲理已经不会改了！废掉了！ 一楼三观不正，建议回炉重炼。 有钱人啊，买板蓝根当时都花了上亿吧，还在保质期内吧…哈，吹牛也不打打草稿 ：我要宣布一件事情，大家还记得2011年的抢盐的事情吗？我家里的盐在今天，就是今天，终于吃完了，吃完了呀！我的个亲娘啊！终于给吃完了。​​​ 一楼的错就在于和你一样，不看清文章就乱喷！从小的教育环境很重要，孩子的爷爷奶奶宠惯孩子，造成这种行为没有及时有效得到制止。12岁的孩子，放在你们是那个年龄没人管，也一样没什么好习性！ 我有个同学小时候到我家玩，偷了我家里60元，那个时候父亲一个月的工资才90多元，我家里发现后找到他的家里把钱要回来了，他爸爸暴揍了他一顿。毕业后我这个同学就没有音信了，最近这段时间听同学说他进去好久了，因盗窃数额巨大。天性如此的孩子是教育不好的，盗窃是会上瘾的。 我儿子小时候我们条件很好，我们告诉他需要买什么和爸爸妈妈说，我们都会给钱的，8岁那年他从鞋柜抽屉里偷拿三毛钱，要买一种我们反对玩的皮筋，结果被我打的一天没上学，他现在还记得当初我要把他从阳台上扔下去，长大后告诉我们，那次吓坏了，从那以后，再没敢拿过别人东西。可有些撒谎偷盗的孩子还真是天性，怎么都不改，我大学一同班女同学，什么都偷，包括咸菜，寝室其她五个女孩都被偷遍了，赃物被辅导员从柜子里面搜出来，那得多丢人吧，可人家跟没发生什么事似的，该干嘛干嘛，后来继续偷。。。小侄女一同班同学，她妈妈和我嫂子是一个学校老师，两家也住同一栋楼，两口子老实本分，家庭条件也不错，孩子却偷盗成性，有次去我嫂子家玩，偷了她1300元，那年才10岁啊，她妈妈一边哭一边说着这些年来，跟她谈心满足她，没用，教育她没用，打她还没用，所有方法用遍了，就是改不了。我们都跟着流泪了，那个孩子就像看外人一般无动于衷，所以，什么遗传啊教育啊之类的，天性如此孩子的，没有办法改变。 只可惜它们根本就没有什么果佳涉汇证福的概念 我家非典时囤的板蓝根每天当茶喝，才喝了一小半，还有几十吨 尼玛确实在流浪看着你就知道尼玛太脏，没人骑 吃饭睡觉拉屎，属于动物本能，跟性格扯不上关系。<br>自闭症成因还没有定论，也说不上先天的，而且几率非常之低，属于特例，就跟连体婴一样，不具有代表性。<br>正常人都是教育出来的，而且受到多方面的影响，父母、爷爷奶奶，凡是接触到的都会产生影响。<br>小孩子基本上就是在模仿，不知不觉中模仿，模仿最亲近的人。<br>古语云三岁知老，大多数情况下，三岁前照顾孩子的人对孩子影响最大。 我们的政府，把太多属于自己的份内责任推给社会，导致居民负担沉重。西方国家重视的医疗、住房和教育等民生问题，都成了搂钱的工具，我们的孩子也成了新增的消费者，没有受到多少福利和免费学前教育的惠及。 悲催的孩子 知道是吹牛，你还较真 孩子的问题，家长就是始作俑者：开始啥都不管，管的时候就是依靠暴力。还有社会管理部门，想到的只有刮钱，除了计划生育，对新婚夫妇的正确育儿做过什么宣传和教育？对留守儿童做过多少工作？经费都哪里去了？做父母的一定记住，孩子有问题了千万不要一味粗暴教育，孩子爱撒谎大多是由于粗暴教育造成的，导致孩子做了错事有实话不敢说，只有抱着侥幸撒谎这一条路可走。 希望这位女孩能够看到这篇文章或者，我想十二年了，你的父亲已经去世，并且在去世之前已经知道自己教育方法错了，而且一直没有放弃在找你，可以看的出你的父母还是十分的爱你的，可惜到死都没见上你一面真是让人敢到唏嘘，可能你现在感觉不到，但是总有一天你会敢觉到亲情，子女不管你到多大的岁数但是在父母的眼中永远都是小孩，都是他们最疼爱的人，快回家吧！ 没你说得这么悬，最多被拐卖到山区给人当老婆，又或者被骗去做小姐。，，命一般不会轻易没有的，被杀的女的，基本是劫财劫色，感情纠纷，这种小女孩，，谁去杀她？ SB逻辑现在还有多少人缺吃少穿的无非是想过更好的生活到城市有机会而已你这种光棍别瞎BB 12岁就在外面有房子住，还被警察酥酥开道回家。。。。。。。。。。。。说实话，这得有多天棒 有因毕有果，小孩子根本不懂事，子不教父之过。 很可能凶多吉少了，才12岁，能独立生活么？<br>唉~ 什么劣迹十来岁的孩子很多都有过类似的调皮经历大多数后来都能改掉 没有教不好的孩子，只有不会教育的父母 这是根本问题，估计几百万这种家庭，悲剧的多了，怪谁呢 可怜之人必有可恨之处，反之也对。这种帖子没什么好争论的，环境造就人。 朝鲜排倒数第一，你懂得。 我们的政府，把太多属于自己的份内责任推给社会，导致居民负担沉重。西方国家重视的医疗、住房和教育等民生问题，都成了搂钱的工具，我们的孩子也成了新增的消费者，没有受到多少福利和免费学前教育的惠及。 根源在哪里？看！<br>“但女儿还不到1岁，家徒四壁的境况便迫使她随丈夫外出打工，公婆自然而然承担起照顾襁褓中的杨敏的责任。” 一桩悲剧 其实现在还是有很多黑户的，真的 这种小偷小摸连坑带骗的女孩子不会饿死的，放心吧，说真话这就是养了个孽障。。 说的太对了！ 分分钟举出两个，沙特富不富？女人不能开车不能工作不能集会，叙利亚让打成那个样了还有人权可言？ 你自己做的孽，不会那么轻易融化。 这种东西走便走了，死便死了，找她做甚！最烦这种打亲情牌悔悟性的内容，都是用来教育2B的。 极大的可能性要么被拐，要么遭遇不幸 这女孩很可能已经死了，如果活着，应该会跟她妈联系的。 如果找到女孩了，那是相当感人的结局，毕竟12年没有见到亲人了。 12岁在中国，这种可能性很大，因为…… 12年一点消息也没有，而且走的时候才12岁……没有户口，没有生份证，没有钱。会偷。<br>走后从来没有一点消息。<br><br>说实话，可能凶多吉少。 没有教不好的孩子，只有不会教育的父母 穷就不能生？那原始人都不能生。朝不保夕的动物更不能生，整个生物就此绝种 你在国外啊，国外也吃盐？？ 其实就是个教育问题，小孩子对诱惑抵抗能力差这个是肯定的，做错事要他们知道后果，不能简单了事。如果小孩从小对是非判断的教育到位的，他还是知道什么是对什么是错，就算是一时贪玩或者起贪念做了错事比如偷钱偷玩具什么的，严厉警告他还是会听，知道自己错的。但是对于从小就娇惯，什么都宠着的小孩就不行了，他们只会按自己意愿行事没有是非对错的概念的，可以说他们的性格早早就已经定型，要改很难，结果就是依了老话小时偷针，大时偷金 根源就是穷的吃不起饭还要生孩子！有能力养活自己再要孩子能怎样！还不是愚昧。现在还有多少农村孩子被扔在家里，父母大城市流连，一年也给不了家里几个钱，就是舍不得回家，耐不住清贫。孩子有学不好好上，早早混社会，结婚。这种孩子的父母就不配生孩子。教育出一个有出息或者懂事的孩子和离家打工多赚千八百哪个重要。没能力就别生，生了就好好想想怎么养好。 这大妈用自身完美阐述了优越性国家爱国者人才的标准与素质 打是正确的，要是真的任由其发展后果更加严重 民工潮，造成多少家庭夫妻分居，多少留守儿童翘首期盼，看似简单的家庭问题，其实是社会问题的延伸，没有人重视农民工的情感问题，全球第二大经济体在在人全、平等等方面估计是倒数第二。 有这样个亲戚，跟家里赌气毕业后不跟家里联系了，这两年她父母都没了也联系不上 初中时候，就初一班上一同学也是偷，只偷钱，只偷熟悉的人，本宿舍的，隔壁宿舍的。。。<br>就一个月就被查到，就教育了下，记大过处分。初中后没联系。现在大学毕业10年了，听别的同学说，他好好的读大专后，毕业没几个月就失联10年了。。。 不要以你的价值观衡量整个世界 好久不见了老朋友！！！<br>这只是千千万万的留守儿童中的一个，真不知道这一茬童年被扭曲了的孩子长大以后会把社会改变成什么样，不过最艰难的还是父母，正是这些人撑起了那滴着血的鸡地屁，真不知道，这样的鸡地屁要它干什么。jilinShiziuxigou 晚了 这种一般是老人纵容出来的，贪小便宜，看到路边有什么拿什么，去外面也习惯了顺手牵羊的习惯，才导致孩子这样，从小给孩子一种思想，有便宜不贪心里就不舒服 赶紧上等着你啊，找倪萍老师，这个栏目印象最深刻的一句话：我腿不好就不站起来了。。。 我居然也有过类似想法(不是做）。当年我爸也是暴脾气，小时候小打天天有大打三六九，有时真想哪天离家出走了，等他去世了也不回去。。。 还在不在了都难说，这样的孩子很容易吃亏的 你提醒了我们，需要多关爱弱智群体 这种孩子还要他干嘛，不孝 对于这种坏小孩，不打再讲理已经不会改了！废掉了！ 没死也肯定被卖 你能告诉我谁是第一？ 什么离家出走，这他妈是失踪了，警察干什么的，媒体也是狗屎 这样的父母真应该被强制做绝育手术，不得生育孩子！！ 贫贱夫妻百事哀！ ：我要宣布一件事情，大家还记得2011年的抢盐的事情吗？我家里的盐在今天，就是今天，终于吃完了，吃完了呀！我的个亲娘啊！终于给吃完了。​​​ 我的女儿今年上六年级，从小就跟我们，但是也是这样说假话和偷钱，但是还没外人反应她偷别人的钱，只是抓到了偷父母的，就在上个星期六还偷了她妈的一千多块钱请同学去吃玩了一天！全花完了，一个小孩子心怎么这么大呀！我们做点小生意早上4、5点要起床送货，她妈妈得忙到晩上九点多才能回家吃饭！所以每天都会有货款一两万块钱在包里，她专等着我不在房间里，她妈去洗澡的时候去包里拿，平时也没数钱，她就是拿了我们也不知道，这次还是她同学说出来我们才发现的，以前不知道的还不知道有多少钱了！谁会想到出了个家贼，但是我还是舍不得打她，我觉的小孩小的时候可以打打，但是现在长大我就没对她动手过了，只是好好的跟她说，她也说了会改，但是我们也得防着她，现在我跟她妈无论什么时候必须有一个人在房间里，不给她机会，但是觉得没有用，还是感觉她的假话很多，也很贪玩，也不是很缺钱花，我现在就是她妈每天早上给7块钱她吃早餐、我每个星期只给30块钱的零花钱，但是前天早上去补课完了直接跟同学在外面玩到晚上九点多还没回来，打电话不接，发信息不回，我真的想重重的揍一顿，直接打死算了！现在的孩子怎么那么难教了，已经好话说尽了，道理说完了，还是这样！我妹妹的小孩也刚初一，也是说谎偷钱买了个手机，她爸妈要把手机收起来怕影响学习，她死都不给，对她父母说如果你们把手机收走，我就离家出走，直接上楼顶跳楼！你们说怎么办？ 我儿子小时候我们条件很好，我们告诉他需要买什么和爸爸妈妈说，我们都会给钱的，8岁那年他从鞋柜抽屉里偷拿三毛钱，要买一种我们反对玩的皮筋，结果被我打的一天没上学，他现在还记得当初我要把他从阳台上扔下去，长大后告诉我们，那次吓坏了，从那以后，再没敢拿过别人东西。可有些撒谎偷盗的孩子还真是天性，怎么都不改，我大学一同班女同学，什么都偷，包括咸菜，寝室其她五个女孩都被偷遍了，赃物被辅导员从柜子里面搜出来，那得多丢人吧，可人家跟没发生什么事似的，该干嘛干嘛，后来继续偷。。。小侄女一同班同学，她妈妈和我嫂子是一个学校老师，两家也住同一栋楼，两口子老实本分，家庭条件也不错，孩子却偷盗成性，有次去我嫂子家玩，偷了她1300元，那年才10岁啊，她妈妈一边哭一边说着这些年来，跟她谈心满足她，没用，教育她没用，打她还没用，所有方法用遍了，就是改不了。我们都跟着流泪了，那个孩子就像看外人一般无动于衷，所以，什么遗传啊教育啊之类的，天性如此孩子的，没有办法改变。 还在不在了都难说，这样的孩子很容易吃亏的 你提到了天性，我真的不能不去挺你！不是棍棒教育好不好，也不是说服教育好不好的问题，有些人从小就缺乏同情心，别人好不好坏不坏他完全不在意。有时候真的怀疑基因突变了…… 不是没有这种可能性，做这种职业后没脸回去了 12年一点消息也没有，而且走的时候才12岁……没有户口，没有生份证，没有钱。会偷。<br>走后从来没有一点消息。 真不敢想象，可怜的孩子 叛逆行为！ 那么这个人的品性是怎么来的呢？那么点的孩子她有什么需求，无非就是个吃，我家孩子小时候吃啥随便，要钱就给一元两元算什么，一次在单位玩，摘了花池子里的花，同事看见了吓唬说：谁让你采的花？罚钱！孩子问：多少钱？“十元”“行，你等着我跟我爸要去”那个同事当时就没电了光顾着乐了。知道小孩子馋是什么滋味吗？孩子需要营养，神经非常灵敏，那滋味根本无法抗拒。如果连孩子最起码的需求都不能满足，孩子犯错走歪路一点不稀奇。 说不定已经上岸，找了个“老实人”嫁了..... 希望这位女孩能够看到这篇文章或者，我想十二年了，你的父亲已经去世，并且在去世之前已经知道自己教育方法错了，而且一直没有放弃在找你，可以看的出你的父母还是十分的爱你的，可惜到死都没见上你一面真是让人敢到唏嘘，可能你现在感觉不到，但是总有一天你会敢觉到亲情，子女不管你到多大的岁数但是在父母的眼中永远都是小孩，都是他们最疼爱的人，快回家吧！ 从小看大，一个人的品性是不会随着年龄增长改变的。一楼说的没错 从小喜欢偷，长大也是好吃赖做，如果没死，估计做鸡了。 呵呵你的人全平等哪个第一？呵呵米国的屎都是香的你还不去跪舔你的人全你的平等 唉！！！悲哀的一生！！來生不再有親情！！ 邪恶国家的收入分配取决于劳动复杂度，劳动强度，劳动环境恶劣度，而优越性国度的收入分配只取决于一个条件：与权力的距离 我就想问这些年来她的身份户口怎么处理的，没有身份证寸步难行吧 3楼·你活着的目的只是为了传宗接代吗？· 根源在哪里？看！<br>“但女儿还不到1岁，家徒四壁的境况便迫使她随丈夫外出打工，公婆自然而然承担起照顾襁褓中的杨敏的责任。” 人死了，才悔悟有什么用 她妈不跟丈夫出去打工，在家照顾肯定就不一样的结果 2楼你是新北京人吧？见识真够低的。 带到身边还偷钱，为什么不给她些钱，那真是不会做父母！ 农村人只会生，不会养，打骂就是教育，出了事不反思自己，而去怨恨社会 凶多吉少啊！12年了，现在也24岁了，应该懂事了。 为了避免有的网友们方向失误，我不得不抢先发帖。 也许已经不在人世了吧！现在到处都没女孩被奸杀的。拐卖的 跟贴被火星网友带走啦~ 根源在于，一个美丽的谎言 未必，虽然大多数父母最爱的是自己的孩子，但也有很多渣渣父母把孩子当成自己喜欢的一个物品，而不是人。煽情的话最难听，理性才是一切。 隔辈人带孩子的很普遍 即便父母在身边，一样会有很多孩子走上歧途， 除了农村和小城市，哪里不是大杂烩？ 三楼有病吧 悲哀，悲剧 肾脏负担不起了 疼不疼爱人家自然知道，用不着你这个没挨过棍棒的外人劝说 是不是“只有穷成B样的父母”，才能生出你这样没有教养，自命不凡的人 说的真好 坏人在文明社会会变得有爱心，好人在丛林社会中会变成野兽，这样简单的道理真的很难理解吗？我的天啊， 傻逼，哼唧个蛋。这对夫妻不是老了没人照顾会想起女儿？ 民工潮，造成多少家庭夫妻分居，多少留守儿童翘首期盼，看似简单的家庭问题，其实是社会问题的延伸，没有人重视农民工的情感问题，全球第二大经济体在在人全、平等等方面估计是倒数第二。 12年一点消息也没有，而且走的时候才12岁……没有户口，没有生份证，没有钱。会偷。<br>走后从来没有一点消息。<br><br>说实话，可能凶多吉少。 不要以你的价值观衡量整个世界 难过，回来吧孩子！ 看看，一楼就是不看完新闻内容的悲剧。<br>根源在哪里？看！<br>“但女儿还不到1岁，家徒四壁的境况便迫使她随丈夫外出打工，公婆自然而然承担起照顾襁褓中的杨敏的责任。” 就这样的情况，还有人敢说你不配生育呢。中国到底有多少恶魔啊 农民工就是贱民啊，还是最下等的那种！ 再抢啊。 我非典的时候抢到的盐，还没吃完[窃笑] 是啊也许早死了就是被这个爹打死的。 确实，就怕没人养老，我只想说活该 所以现在疏解人口，都回家挺好，有本事的人在哪都能赚到钱，回家也要发展盖房子，装修，赚的也不少，剩下的还多。非要生一堆孩子扔农村，两口子都去大城市，其实能剩下多少钱，都是虚荣和无知。要么别生，要么生了就好好教养。 父母爷爷奶奶和小孩自己都大有问题。有些人真的不应该生小孩的。 赚的钱不够啊，奶粉要钱啊哥。生在这片土地怎么办？ 如果找到女孩了，那是相当感人的结局，毕竟12年没有见到亲人了。 这女孩就是滚刀肉。 这也是大陆解放后的一大进步吧。 如果我没有猜错的话这个爷爷奶奶可能有偷盗的嗜好，起了不好的榜样。 希望大家能在朋友圈转发这篇文章，让女孩能看到，快点回家看看妈妈！ 秀智商还是什么，你和我朋友一样劝也不行，我朋友至今还有100多箱放家里 十多岁的女儿出走后方才觉悟其错误的教育方式，这学费太昂贵 ：我要宣布一件事情，大家还记得2011年的抢盐的事情吗？我家里的盐在今天，就是今天，终于吃完了，吃完了呀！我的个亲娘啊！终于给吃完了。​​​ 佩服佩服，吉尼斯纪录，你家制造。 如果还在的话。。伤心 你还小吧，这个世界哪有什么公平可言，不管哪个国家都一样 支持1楼4楼 我是十六岁离家出走的，因为在家经常被母亲打骂，我是读不好书，却从没干过坏事。她骂的那些话是我认为世上最难听最恶毒的话！她从没给过我好脸色！她的眼里只有她的儿子。离开家的那天是1995年的9月5日，虽然之后在外面打工的日子过得很苦，甚至经常身无分文，饥寒交迫，可我却从未想过回去，也从没想过她。我觉得能离开她不再被她打骂又获得了自由是最大的幸福！谁知道一年之后我去广东的大姐家又碰到她和父亲，她还是没变！骂！拿起高压锅盖打我。把我锁在房间里准备将我带回家乡。我想到回家之后的生活极度恐惧，趁他们出去玩时在姐姐家翻箱倒柜找到了备用钥匙和一叠钱，从里面拿了一百块又开始了逃亡之路。我只记得那天带着那一百元钱转了几趟车在夜里十点多到了深圳布吉，又是身无分文了。幸亏是夏天，晚上不会冷，我漫无目的的走在路上，那时布吉夜里不像现在这么繁华，人也不多。不知道什么时候就走到一个高架桥洞下，大概有一百米长的样子。走进去几步，发现对面有两个男人沿着洞口一左一右准备走过来。开始也没觉的有什么不妥，但当我走进去几步时发现他们有些奇怪，我停他们也停，我走他们也走。我忽然感觉到了危险 方式方法的重要性 专家放屁，只是你没碰到不听话的人罢了，你碰到了一样的没办法。有的人父母都是教书的，能教育别人的孩子，可就是自己的孩子教育不好，成不了好人，有的人父母一样都不懂教育，又没在儿子的身边，跟一个又蠢又聋的人长大，现在是研究生，还准备考博士，这是为什么，请专家告诉我吧？ 养不教父之过 希望这位女孩能够看到这篇文章或者，我想十二年了，你的父亲已经去世，并且在去世之前已经知道自己教育方法错了，而且一直没有放弃在找你，可以看的出你的父母还是十分的爱你的，可惜到死都没见上你一面真是让人敢到唏嘘，可能你现在感觉不到，但是总有一天你会敢觉到亲情，子女不管你到多大的岁数但是在父母的眼中永远都是小孩，都是他们最疼爱的人，快回家吧！ 虽然也是我心理的想法，但我觉得你这样说得会不会太直白了？他的家人肯定难以接受！ 从小喜欢偷，长大也是好吃赖做，如果没死，估计做鸡了。 一楼,你鸡弟弟你还好吗？ 说白了还是人权问题把人当牲口 好久不见了老朋友！！！<br>这只是千千万万的留守儿童中的一个，真不知道这一茬童年被扭曲了的孩子长大以后会把社会改变成什么样，不过最艰难的还是父母，正是这些人撑起了那滴着血的鸡地屁，真不知道，这样的鸡地屁要它干什么。jilinShiziuxigou 穷成那B样就不要生孩子，没能力教育好孩子的人都没资格生孩子。 外国鬼子不要骗人！ 希望这位女孩能够看到这篇文章或者，我想十二年了，你的父亲已经去世，并且在去世之前已经知道自己教育方法错了，而且一直没有放弃在找你，可以看的出你的父母还是十分的爱你的，可惜到死都没见上你一面真是让人敢到唏嘘，可能你现在感觉不到，但是总有一天你会敢觉到亲情，子女不管你到多大的岁数但是在父母的眼中永远都是小孩，都是他们最疼爱的人，快回家吧！ 唉！ 永远的遗憾，弥补不了的父爱 不要以你的价值观衡量整个世界 一楼真他妈恶毒 盐有两年保质期你知道吗。 留守儿童的悲哀 12岁离家出走流落社会，倘若是在农村给人家当个媳妇也算平安，要是在城市里...无法想像。 说白了还是人权问题把人当牲口 说句不好听的，老人带养的时候把底子打得太差。 12年一点消息也没有，而且走的时候才12岁……没有户口，没有生份证，没有钱。会偷。<br>走后从来没有一点消息。<br><br>说实话，可能凶多吉少。 祝贺你 活不活着都是一回事 外国鬼子不要骗人！ 民工潮，造成多少家庭夫妻分居，多少留守儿童翘首期盼，看似简单的家庭问题，其实是社会问题的延伸，没有人重视农民工的情感问题，全球第二大经济体在在人全、平等等方面估计是倒数第二。 干什么 众所周知，成年人的犯罪人格往往跟小时候的经历和不当教育有极大的关系。这对父母虐待儿童，伤害的不仅是孩子一个人，一辈子，还有很大可能为社会养成一个潜在的仇视者和罪犯。而现行法律制度在制裁犯罪时，却对犯罪形成的环境置之不理。这也是犯罪层出不穷的重要原因。所以我一直赞同，在处罚罪犯的同时，对罪犯施加不当教育的父母，家庭，甚至学校都要按责任大小，一并处罚。除病要除根。 中国人生孩就是为了养老，至于怎么教育成长，跟他们无关。 外国盐！ 现在就吃完了，这么快啊，当饭吃的吗。。。。。。 一声叹息！可怜天下父母心 最高学历一个字：打 简单说，今天想起女儿了，无非是发现到自己老了无人赡养。 低级美狗 或许你的女人已经被你逼死了。 警察局顶住压力没有直接抓其丈夫，点个赞 你还小 一楼不算恶毒，用脑子想想，12岁的女孩，有偷盗习惯，屡教不改。她出走以后，能和什么人混？ 虽然父亲的教育方式太过简单和粗暴，但是这个女孩做的也够决绝的了。12年，有什么怨恨是不能化解的，不知道你决绝的意志能否戒除自己撒谎和偷窃的习惯。如果戒除了，那么你应该感谢你父亲对你的严厉教育；如果没有，那么你父亲对你的粗暴就没有错误，因为你已经不可救药了。你可以怨恨父亲的粗暴，同时更应该检讨自己撒谎、偷窃的恶劣习惯。 我也这么想的 农村夫妻在90年代只生一个女儿，这不科学啊。。。。。 那问题来了，农民不好好在家里生活，带孩子，去城市里干啥呢？ 悲剧，孩子，快回家…… 这样的孩子确实该打 中国人对家暴是默许的，这种三观跟世界主流文明是相反的。 你家这么快就吃完了？？？<br>我家里的才吃了一半！！！ 唉😔 外国鬼子不要骗人！ 同感，这家长也是，多引导一下啊 确实，所以孩子十岁前最好自己带，少挣点钱都可以，塞翁失马，焉知祸福 打得好。 孩子教育问题确实是个大问题，特别是现在社会。因为不是每个家长都是教育专家。 性格使然，爷爷奶奶带的多了，几个成賊的？性格以及家庭教育的缺失，早期发现苗头没及时制止，然后就这样子了。和打不打没关系，不打偷的更厉害 唏嘘 对有些人来说，偷不容易改的，再怎么打都改不了的。这么小就走了这么久，别等了，没身份证，没接受教育，能做什么啊 隔辈人带孩子太容易溺爱！！！！ 从小喜欢偷，长大也是好吃赖做，如果没死，估计做鸡了。 外国盐吃完了吗！ 太对了。留守孩子教育问题是我们国家的一件大事！ ：我要宣布一件事情，大家还记得2011年的抢盐的事情吗？我家里的盐在今天，就是今天，终于吃完了，吃完了呀！我的个亲娘啊！终于给吃完了。​​​ 孩子真的不能给老人带！除非是很有学识和修养的。 12年前12岁离家出走，如果还活着，现在也才24岁，还体验不到亲情的可贵！这个年纪的年轻人只会觉得亲情是一种束缚！ 可怜啊 写的好，支持你！ 留守儿童的问题比当年知青下乡的问题还要严重。 中华糟粕：棍棒底下出孝子 何必当初 现在还好多了，90年代那一波，有多少“失恋”的、、、找不到身份的**太多了，，也许N年后这些会 暴力教育很可怕。因人而异。 有这种爹，不要也罢，支持这个女孩。 居然没喝死你。 还真有傻冒抢盐？ 无奈 可能凶多吉少了！ 民工潮，造成多少家庭夫妻分居，多少留守儿童翘首期盼，看似简单的家庭问题，其实是社会问题的延伸，没有人重视农民工的情感问题，全球第二大经济体在在人全、平等等方面估计是倒数第二。 不要以你的价值观衡量整个世界 违法的肯能性大，或者嫁到了什么地方 一楼在现身说法 啊啊啊啊啊啊 就是日本海啸核电站事故那次？ 看哭了，感觉看到自己... 当初干嘛那样做呢？ 有人说说谎是不好的，可孩子的成长标志之一就是说谎，而且成人的世界更是谎言的世界...对与错在成败面前是不堪一击的，这是一个功利世界 全球范围，幸福感倒数，基尼指数大的排的上号，货币贬值率倒数… 我家非典时囤的板蓝根每天当茶喝，才喝了一小半，还有几十吨 民工潮的危害远不仅如此，夫妻两地分居造就了中国一大特色群体“性压抑”群体。忽视了人的本能而导致更多的社会问题出现，可惜没有学者对此做出过相关的研究！ 还真有傻帽信了一楼？ 想想你的智商就是硬伤 中国家庭的教育方式………… 。。。。 ：我要宣布一件事情，大家还记得2011年的抢盐的事情吗？我家里的盐在今天，就是今天，终于吃完了，吃完了呀！我的个亲娘啊！终于给吃完了。​​​ 活该 别他妈出来就是了 12岁就跑了呀！去倪萍办的节目等着我找吧。这都是让工人下岗，让农民废弃农田上岗造的孽呀，这20年前这一轮资本家没都是丧尽天良的，希望苍天长眼让他们晚年绝望！ 这个该打 吃完还得买啊，多买便宜 孩子不一定还在人间，另外，警察干什么去了？ 不是有天眼嘛. 幸好有倒数第一 4楼号搞笑，哈哈。。。 希望这位女孩能够看到这篇文章或者，我想十二年了，你的父亲已经去世，并且在去世之前已经知道自己教育方法错了，而且一直没有放弃在找你，可以看的出你的父母还是十分的爱你的，可惜到死都没见上你一面真是让人敢到唏嘘，可能你现在感觉不到，但是总有一天你会敢觉到亲情，子女不管你到多大的岁数但是在父母的眼中永远都是小孩，都是他们最疼爱的人，快回家吧！ 哈哈哈，恭喜哦 从小喜欢偷，长大也是好吃赖做，如果没死，估计做鸡了。 12岁会不会被拐卖 因为长期喝板蓝根，二楼已经变成蓝精灵了…… 总是要到无法回头，才想回头 那是你家屯的太多了，我家老早吃完了。那时我妈妈总问我要不要屯点，她看别人都买了，我说盐这东西不会缺的，叫她别买。后来她偷偷的买了一箱吧，好像没几年就吃完了。 恭喜恭喜！ 真应该挂了，因为太小了，偷东西被抓了，打死丢垃圾堆没人知道，现在身份证查那么严，12年没有身份证不可能活下来，当鸡都当不了 这么小，估计凶多吉少， 估计不是在牢里头就是死了 打，解决不了问题。 这女儿不值日本的一辆自行车，更不值美国的一匹马。 ",
        "Total": 6481,
        "Link": "http://comment.news.163.com/news_shehui7_bbs/D6FNJOOS0001875P.html",
        "Reply": 392
    },
    "Article": "（原标题：殴打致女儿离家出走12年父亲已去女儿还未归）两个月前，杨和平突发脑溢血去世，弥留之际，他拉住妻子苏女士的手，想说话，但已经吐不出字句来，苏女士看到丈夫的口型，判断应该是在喊“敏”。“敏”是夫妻俩唯一女儿的名，她在父亲杨和平多次的暴力殴打教育之后，已离家出走12年至今未归。而在女儿离开的12年间，这个不善表达的中年男子，也从一个曾经动辄殴打教育的“恶父”，变为棍棒教育的劝诫者。女儿小时候的照片，苏女士一直保存在手机里葬礼那天，女儿杨敏毫无意外没能出现在葬礼现场，她可能甚至不知道父亲病逝的消息。料理完丈夫的后事，苏女士从箱底找出女儿9岁时的一张照片，按照丈夫生前遗愿，继续寻女之路，但她很快又陷入迷茫，“我该去哪里找？这些年，有关她的什么信息都没有。”苏女士和丈夫杨和平生前的合影最后的“遗言”“我亲爱的孩子？杨敏，你离家已十二年了，这十二年的时间爸爸妈妈从没放弃寻找你，一直惦记你牵挂你，不知你在外过得怎样，在上月你爸因急病已去世，在临终时一直呼唤着你的名字，我答应无论怎样要把你找回来，你爸才放手闭眼。”丈夫去世后，苏女士按照丈夫生前遗愿，托朋友写了一篇寻人贴发到网上，希望离家12年的女儿小敏能够回来。她在贴文中写到：“当初是因为爸爸的粗暴无知不会用你能接受的方式教育你，无数次打骂逼得你离开了家，对你的伤害是无法弥补的，知道你一定还很恨我们，但在我们的心中你永远都是爸妈的心肝宝贝……我无法请求你原谅爸妈对你的伤害，只想你回来用我的余生来弥补对你的亏欠，孩子回来吧！”10月18日，蓬安县天成乡木角坑村，杨和平突发脑溢血去世，弥留之际，他拉住苏女士的手，想说话，但已吐不出字句来，苏女士根据丈夫的口型判断，应该是在喊“敏”，这是她们平日里对女儿杨敏的称呼。只不过，女儿已离家出走了12年。“老杨，你是不是还在挂牵敏儿嘛？”苏女士感觉到，丈夫握着自己的手动了一下。“你安心的去，我一定会去把她找回来，爸爸妈妈这么大年龄了，我也会把他们照顾好，你安安心心的走，不要留下啥子遗憾。”她紧接着说：“我不会像你，顾什么面子，我一定会把女儿找回来，让她受到更好的教育，你放心。”苏女士的话刚说完，丈夫似乎点了点头，紧接着，握着她的那只手也松了下来。“她（女儿）当初离家出走，很大一部分原因，是恨她爸爸经常打她。”苏女士的声音有些颤抖，在短暂的沉默后，她又吐露一句，“她今年应该24岁了”。很长一段时间里，这个女人都苦恼地夹杂在这对父女之间，一边是看到丈夫手持棍棒落在女儿身上时的心痛，另一边，她不明白女儿的撒谎、偷盗恶习为何屡教不改。苏女士有些后悔，当初将女儿留在老家交由公婆照管，多年的隔代教育掺杂着太多的溺爱，导致诸多恶习附着在女儿身上挥之不去，当她和丈夫选择重回女儿身边并寄望女儿能够改掉恶习时，但丈夫的粗暴教育方式又适得其反，并最终导致女儿的离家出走。父亲的“面子”1993年夏天，苏女士回到蓬安县天成乡木角坑村生下女儿，但女儿还不到1岁，家徒四壁的境况便迫使她随丈夫外出打工，公婆自然而然承担起照顾襁褓中的杨敏的责任。这种情况在当时的农村并不鲜见。于两位老人而言，照顾孩子亦并非难事，在此之前，她们也帮其他几个儿女带过孩子，从未出过差错。在村里那栋破败的老屋里，两位老人带着襁褓中的杨敏，用自己的方式照顾教育了11年。只不过，并不那么美好的未来，早已在这平凡的生活中埋下伏笔。出于经济条件考虑，苏女士和丈夫一般每两年回一次家看女儿。期间，在女儿长到五六岁时，曾有人提醒回村看女儿的苏女士，她应该自己回来带孩子，老人对孩子太过溺爱，养成很多不良习惯，其中就包括偷盗。这是苏女士印象中，女儿的第一次“偷盗”行为。具体情况是，婆婆李素清让女儿杨敏去村里小卖部买烟酒，本来说好的赊账，但女儿却递给老板一张百元钞票。事后证明，钱是杨敏从大伯家偷偷拿出来的，尽管奶奶最终让女儿将钱还给了大伯，但对孙女的这次错误行为并未放在心上，反而觉得孙女这么小便能独自一人到小卖部买烟酒，是一件很“能干”事。直到2004年临近暑假的一天，在外打工的苏女士突然接到婆婆李素清打来的电话：“你们自己回来照管孩子，我实在没得精力管她，也管不住了”。“主要就是她（女儿）调皮，有时候到同学家去住上几天，也不跟家里人说。”苏女士也意识到事情的严重性，如果任由女儿的个性发展下去，未来可能就毁了。她赶在9月1日秋季开学前，回到蓬安县城租下房子，将女儿接到蓬安县城的学校读书。不久，在沿海打工的丈夫也回到蓬安县城，一起照管女儿。苏女士和丈夫希望，新的环境，或许能让女儿有所改变，更重要的是，他们可以一直陪在女儿身边对其进行引导教育。但女儿并没有向夫妻俩预料的方向改变，女儿还是经常在家里偷偷拿钱到外面玩，甚至私自卖掉邻居的自行车、偷一位开副食店朋友的钱……每一次犯错，杨和平都会拿起棍子对女儿一顿暴打。李素清描述儿子教育孙女的情形说，“打得凶，有一次直接把人（孙女）从楼上顺着楼梯踢到楼下去”。“他就是个爱面子的人，女儿每次犯错，都会让他觉得很没面子，他也不晓得该怎么教育，只有用棍子打，希望她变好。”苏女士说，在蓬安县城租房照顾女儿的一年时间内，街头有关女儿“偷盗”的舆论越来越多，丈夫受不了别人异样的“眼光”，曾搬过一次家，后来，甚至跟她提过离婚，“女儿知道这个事情，我跟她讲了，即使离婚，我也会带着她（女儿）一起生活”。2005年6月的一天，在经历多次被父亲殴打的经历后，杨敏给苏女士留下一张纸条后离家出走：“妈妈，我确确实实没法在这个家，你一定要保重身体，你是我最喜欢的妈妈”。苏女士看到纸条后，发疯似的在县城到处寻女儿，她一直等到女儿农历6月的生日，但有过多次离家出走经历的女儿，未能向往常一样，被找成功回来。变身“劝诫者”因为一直没有女儿的音讯，杨和平带着妻子返回福建的建筑工地上继续打工生涯，最初，他像个小孩子一样跟女儿置气，“她愿意回来就回来，不回来就算了。”但苏女士察觉到，随着女儿离家出走的时间线逐渐拉长，丈夫曾经的粗暴脾气棱角也正在被消磨，他反思当初对女儿的粗暴教育方式，也许真的错了，并开始以“劝诫者”的身份去劝导那些像曾经的他一样的父母，教育孩子，要注意方式。在福建打工期间，苏女士和丈夫租住的民房基本上都是农民工，寒暑假，常有工友将孩子从老家接到城里来玩。“孩子哪有不调皮的呢？当孩子犯了错，做父母对孩子的教育方式基本上都是打。”苏女士说，家长用棍棒教育孩子的场景，在工友身边也经常发生，大家也并未觉得有何不妥，但丈夫杨和平似乎从工友的身上看到了自己曾经的影子，“他（丈夫）会上去把棍棒从家长手里抢过来，劝‘你们莫这样子教育孩子，应该说服教育，我现在是后悔都来不及了’”。苏女士说，类似的劝诫情况不止一次发生，只有小学文化的丈夫虽讲不出大道理，但会将自己教育孩子导致的悲剧讲给其他父母听。有时候，和朋友一起吃饭，酒过三巡，有人借着丈夫的酒劲劝他，“你们现在还年轻，再生一个孩子嘛。”但丈夫并不接话，沉默良久后摆摆手：“能把她（女儿）找回来，就是最好的了”。“他还是爱孩子，只是教育方式太暴力了。”姐夫一家的亲情悲剧，让妹妹苏利华感到不安，10年前，她结束了多年的打工生涯，回南充老家谋了一份差事，尽管工资不高，但可以照顾6岁的女儿，她不希望隔代溺爱教育导致的家庭悲剧在女儿身上重演。有时候，女儿犯错，苏利华也会忍不住用棍子打女儿，但姐夫杨和平经常劝她，教育孩子不应该使用暴力，应该多给孩子讲道理，“他说他就干了一件让他后悔一辈子的事情，现在已经无法弥补”。苏女士想起2003年春节回家，夫妻俩坐车到蓬安县城时，一名穿着皮衣的孩子从身旁跑过，丈夫一直盯着小孩子看：“这件皮衣不错，穿在我们敏儿（女儿）身上也应该很好看。”丈夫随后拉着她到附近衣服店，给女儿买了一件同款的皮衣后，才心满意足地到车站坐上回老家的最后一班大巴车。“女儿后来的变化，我们当父母的，有很大的责任。”对于女儿离家出走12年的事实，苏女士不知道该埋怨谁。她叹了一口气，“他（杨和平）这个人就是暴脾气，有啥子也不善于表达，尤其是在对孩子的教育上，对孩子的爱说不出来，孩子犯了错，只晓得靠打来粗暴地教育。”苏女士女儿杨敏小时候的照片母亲的等待两个月前，杨和平的遗体老家下葬，作为独生女儿的杨敏，没有出现在葬礼现场，她可能甚至都不知道父亲病逝的消息。在南充城区的一个老旧居民小区内，苏女士独自经营着丈夫生前开办的足疗店。没客人的时候，她会忍不住掏出手机打开相册仔细端详，照片里是一名八九岁的小女孩，圆圆的脸蛋，穿着粉红色体恤衫，规规矩矩站在一块幕布前方，右手撑着油纸伞，左手握着花束？？“这就是我女儿（杨敏），她9岁那年去相馆照的，她现在应该24岁了。”今年47岁的苏女士想象不出女儿现在的模样，毕竟，她错过了女儿人生成长过程中最重要的12年。她有时候会想，如果有一天，女儿突然站在自己面前，自己会不会犹豫，“呀，这就是我失踪了12年的女儿”。女儿最后一次出现在杨家人的视线里，是2005年底，那年她12岁。苏女士说，当时，在外面犯错的女儿被警察用警车送回家，但女儿只在家里待了一夜，便找奶奶要了20元钱称“要回南充杨家巷拿一些衣物”。老人也未多想，但女儿离开后就再未回来。苏女士错过了最后这次与女儿碰面的机会，等她回到家时，女儿已经离开了两个小时。苏女士琢磨，女儿既然跟奶奶提到过杨家巷，说不定会一直在杨家巷居住。即便相隔12年年，杨家巷这个地名也一直烙在她的心底，这些年，她没事便去杨家巷寻找，期待某一刻与女儿不期而遇，偶尔听人说起曾在南充城里某街道见到一个和她女儿年龄相仿的摆地摊女孩，她也会忍不住去看看。但女儿，就像突然从这个世界上蒸发了一样，未留下任何痕迹。20日下午，成都商报记者前往苏女士老家，其婆婆李素清拄着双拐站在院子里，她说自己在照顾孙女的11年里，从来没有溺爱过孙女，孙女犯错后自己也会对其进行教育，她不知道孙女为何会变成后来的样子。老人希望，消失12年的孙女，可以尽快回来。杨敏离家出走前，曾问过苏女士：“妈妈，为什么爸爸打我打得凶的时候，你都不出来劝一下？”苏女士不知道如何作答。在这个只有小学文化的女人的潜意识里，如果自己当面劝阻丈夫教育女儿，可能会让女儿认识不到错误，反而会觉得做错事后总会有人站出来保护她。女儿一次次犯错的经历，曾让苏女士想过或许可以找心理医生找女儿聊聊，但她最终不知道该去哪里找心理医生。她试图找女儿谈心，“敏儿，你说说看，你到底想要什么？”“妈妈，我也不知道。”女儿的回答，让苏女士一时无语。苏女士觉得，女儿不愿意回家，是因为怕她的爸爸，更准确的说，这种怕，已经转化成一种恨。“我们会一直等她回来，不管她现在怎么样，她永远都是我的女儿。”苏女士不知道，丈夫的去世，能否化解女儿心中的怨恨。专家观点四川警察学院心理学副教授、心理咨询室主任陈华说，在家庭教育中，溺爱型教育和棍棒式的专制型教育，都是常见的不健康教育方式，但在苏女士女儿的人生成长过程中，这两种教育方式都有体现，唯独缺乏科学的民主式教育，这是孩子在成长过程中身心健康受损、是非观念不分的重要原因。作为爷爷奶奶，在发现孙女去拿别人的钱的情况时，不该放任不管，而是首先应该了解孙女拿钱的需求是什么，如果是为了吃零食，应该告诉她，如果以后要吃零食，爷爷奶奶可以带着去买，但拿别人的东西肯定是不正确的，拿别人的东西，首先应该征求别人的意见。作为父亲，应该对孩子进行科学的民主教育，简单粗暴地对孩子施以棍棒教育，这是不尊重孩子人格独立，对孩子的自尊心也会造成很大的影响。本文来源：成都商报作者：王超责任编辑：李天奕_NN7528",
    "Title": "女儿不堪殴打离家出走12年 父亲已去世女儿仍未归_网易新闻"
}