{
    "URL": "http://sports.163.com/17/1231/08/D6VJJ7DC00058781.html",
    "Article": "网易体育12月31日报道：都说虎父无犬子，在齐达内大儿子恩佐身上，这句话似乎并没有应验。西甲保级队阿拉维斯官方宣布，与恩佐完成了解约，恩佐在效力该队仅仅半年后就被放弃。恩佐的下一站，是瑞士超级联赛中游球队洛桑。22岁的恩佐，上赛季还是皇马B队队长。在上赛季中，恩佐曾为一队踢了一场国王杯，并且打进了一球。今年夏天，恩佐离开皇马B队加盟阿拉维斯，他希望得到更多的比赛机会。但在阿拉维斯，恩佐基本被弃用。半个赛季过去了，恩佐一共只踢了两场比赛。阿拉维斯在西甲目前排名倒数第四，该队半年用了四名主帅，但没有任何主帅信任恩佐。在阿拉维斯这种弱旅队内都找不到机会，恩佐最终接受了解约。恩佐的下一站，将是瑞士超级联赛球队洛桑。在19轮联赛过后，洛桑在瑞士联赛中排名第五位，并没能跻身欧战区。恩佐是重新证明自己，还是就此泯然众人矣？时间很快会给我们带来答案。本文来源：网易体育作者：张琳责任编辑：朱楷正_NS4807",
    "KeyWords": "保级队,西甲,阿拉维斯",
    "Source": "Netease",
    "Comment": {
        "Reply": 151,
        "Content": "扯淡的一楼，皇马是个人就能去踢几脚？以恩佐的能力可以当队长？ 南方多傻逼 呵呵，1楼sb了 虎父犬子 你是不是弱智？你以为齐达内是谁？西班牙国王还是西班牙首相？人家凭什么给你齐达内面子？就这么一个离了老子就是个废物的家伙，没有他老子齐达内，就凭他这样连在西甲保级队都没法立足的能力能在皇马B队做队长？怪不得人家说网易弱智多，还有那么多点赞的， 只要是人的世界，必然有人情关系的存在，但某锅显然是极致的境界，这也是不争的事实。 没你爹你现在只能卖烤串或者喊麦 胡扯淡，没关系怎么进的皇马二队？ 是IBM总裁， 极乐世界 4楼舔你麻痹，西方有地位的都是什么家族，一个姓有关系的都报团了，你告诉我西方不靠关系? 说得好<br>看来比尔盖茨第一张单子也是凭空得来的<br>他那高盛高管老娘一点力都没出。 兄弟，你看球费电啊 西方哪个国家我没去过？ 再怎么样，也是儿子，给个实习岗位总可以吧！ 本泽马：你能不能小点声。。🤫 里弗斯 你说的是西蒙尼的儿子吧 呵呵，你真的不用在这瞎几把舔，齐家老大能在皇马b当队长因为什么你心里没有点b数吗 像一楼这么天真的孩子不多了你以为美国大学的推荐信是干嘛的？ 这在某些地方早就进国家队了 从甲级联赛到超级联赛，这不是进步嘛[挨揍][挨揍][挨揍] 里弗斯:呵呵 这就是西方，老子再有本事，小子也无所荫营。西方人分得倍儿清。 一锅饭里有几粒老鼠屎，和一锅老鼠屎里有几粒饭，肯定是有区别的。2楼非要坚持认为没有区别，只不过是自欺欺人罢了 调侃下怎么了？关你啥事啊？张嘴闭嘴说人家是喷子，你就不是？吗呗，反正网络，谁认识谁啊 老土表还一口一个西方，去过吗？这句话说的多涝啊 中东人 差不多，实际上就是黑白混血，白的比较多罢了 里弗斯：恩佐，你太可惜了。你要是我儿子，就算你是个踢球的，我也能你想法子让你来NBA首发 有些人靠”一步一个脚印”达到目前的位置，有些人是靠老子的资本起点比别人高，但良性循环的地方终究能把良和次区分开来，而乌七八糟的地方还是靠背景和关系继续”发扬光大”。 他老子都要走了 体育界没几个老子英雄儿好汉的例子，马尔蒂尼父子算是很少见得了 就你们这种喷子出来干什么？明明是齐达内儿子的事，扯到巴萨干什么？ 这种连射门都躲的人也配做守门员？真给齐达内丢脸 再帮你补一句：他还在一线队上过一场国王杯呢，这个更具有说服力 舔的真好，当初齐祖带的梯队解散，齐祖只留了自己儿子，而且直接带去b队当队长，不然你以为恩佐的水平当的上b队队长？还跟着一队踢国王杯，要不是齐祖儿子他连b队都进不了，没记错的话齐祖还有个儿子在皇马当门将，就是当初球来了结果门将竟然躲了的那个，要不是齐祖早就呵呵了 那为啥又要走？ 二队当队长，他这能力凭什么？一楼不想想 更可怕的是齐祖家老二，那门守的，到国内估计只能踢城市联赛 你这也舔？ 今年欧冠决赛带他去不带J罗 齐达内是阿尔及利亚人 少来了关系论全世界都一个卵样子 齐达内的儿子很差,根本就达不到保级队的要求.<br>但是齐达内能把他弄进皇马二队,还给他当队长.<br>这就是关系.比中国搞得更过分. 确实是 齐祖皇马退役时进球留在了49粒，今天齐达内进了第50粒，时光匆匆，恍如隔世，竟然到了他球迷的儿子看他儿子踢球的时候了 这就是西方，老子再有本事，小子也无所荫营。西方人分得倍儿清。 U23啊这要是在某国属于抢手货了当然保质期只有一年 呵呵 没你爹你现在只能卖烤串或者喊麦 胡扯淡，没关系怎么进的皇马二队？ 傻逼，东方人你看郝海东范志毅孩子进国安申花国家队了？齐达内几个孩子混皇马二队都是靠老齐 哎哟喂，皇马和巴萨为什么就不是我能调侃的？呵呵，这两支俱乐部难道是你亲儿子，不让人调侃呀？真是搞笑。现在曼城那么多狗，我照样调侃。说点其它球队的好，就扣你鸟粪的帽子，还老拿曼联大巴怼你，真是臭不要脸的曼城狗太多了。您呢，大过年也不要学那些狗。 那是中国。 高准翼怎么进的国家队啊？心里没逼数吗 就是，没关系怎么踢的国王杯 老土表还一口一个西方，去过吗？这句话说的多涝啊 彻底凉了，落地成盒 本泽马：你能不能小点声。。🤫 呵呵，你真的不用在这瞎几把舔，齐家老大能在皇马b当队长因为什么你心里没有点b数吗 虎父犬子 那为啥不进一队？看看贝卢斯科尼的米兰，如果天朝的球队是包子的，你看对手会不会发抖。 说得好，马JACK是什么毕业的而且是什么学历，可以到大学做老师（应该是大学吧）......呵呵 我从不来就不会这样说，我也不是喷子，你知道皇马和巴萨的关系吗？就来调侃，皇马和巴萨的关系是你们能调侃的？ 来自于欧洲的五大联赛,其中包括英超,意甲,西甲,法甲和德甲. 要不是齐秃驴的面子上哪个球队要他？ 为了造神，这个神是齐达内，皇马必然夺得本赛季的西甲与欧冠冠军 22岁还没踢上顶级联赛，这确实差了点，很多知名球星17、18岁都是顶级联赛主力了。大器晚成的还是少了点 他就是一只崇洋媚外的🐶而已<br>看看里皮在尤文期间，把转会生意都交小里皮了。来恒大又开了个意大利养老院。意大利就是一个裙带关系泛滥成灾的国度 说得好<br>看来比尔盖茨第一张单子也是凭空得来的<br>他那高盛高管老娘一点力都没出。 齐达内看完卢卡的守门后决定叫卡瓦哈尔来当他的守门员教练 他老子都要走了 齐达内的高度估计他儿子很难得到 机会给足，只怪自己没本事。 他爹也快了 建议小伙别灰心、来恒大狠狠锤炼几年 齐达内再厉害，也不能把手伸像整个西甲吧?你看看在皇马，给过他俩儿子多少机会。。废材就是废材 他爹也快了 沒關係，趕快返皇馬當救兵 为什么中超不出手？ 是IBM总裁， 那为啥又要走？ 下一站天王 二队当队长，他这能力凭什么？一楼不想想 更可怕的是齐祖家老二，那门守的，到国内估计只能踢城市联赛 你在中国混的多失败呀屌丝，赶紧偷渡刷盘子去吧 来中超说不定火了 皇马二队队长还倍儿清，瞎几把舔 守门员儿子太丢齐祖的脸了 讲真，这要是在鸡国，思佐能不在一队？ 胡逼扯，他老爹也是打工，这样的水平弄进皇马B队已经很照顾了；实在没本事，他打工的爹也没办法 踢球不像其它工作，这么多人盯着，任人唯亲是行不通的 没吃过猪肉就不能见见猪跑了？ 恩佐少小成名，他在刚出生时就因父亲是齐达内而被寄予厚望 当年我对我女朋友说，以后给我生个足球队吧，如今现实不得不让我低头，齐达内正完成着我的心愿 还长发飘飘 南方多傻逼 这就是西方，老子再有本事，小子也无所荫营。西方人分得倍儿清。 一楼舔错地方了，哈哈 兄弟，你看球费电啊 如果不是他爸，他能得到这么多机会来锻炼吗？要给机会大部分凭实力进nba的都能打出来，可是别人有机会吗 惊！齐达内已被球队解约 你是不是弱智？你以为齐达内是谁？西班牙国王还是西班牙首相？人家凭什么给你齐达内面子？就这么一个离了老子就是个废物的家伙，没有他老子齐达内，就凭他这样连在西甲保级队都没法立足的能力能在皇马B队做队长？怪不得人家说网易弱智多，还有那么多点赞的， 胡扯淡，没关系怎么进的皇马二队？ 4楼舔你麻痹，西方有地位的都是什么家族，一个姓有关系的都报团了，你告诉我西方不靠关系? 真是老子英雄儿子狗熊，从贝利，贝肯鲍尔到克鲁伊夫，没想到齐达内的儿子也未能。。。 小李也没太给他爸丢脸 你赶紧去西方吧，你能出头的 一楼舔到后门去了 这么说林良铭他老爸也是皇马名宿咯 老土表还一口一个西方，去过吗？这句话说的多涝啊 再怎么样，也是儿子，给个实习岗位总可以吧！ 还能经常到一队训练，进欧冠B名单 一锅饭里有几粒老鼠屎，和一锅老鼠屎里有几粒饭，肯定是有区别的。2楼非要坚持认为没有区别，只不过是自欺欺人罢了 里弗斯：恩佐，你太可惜了。你要是我儿子，就算你是个踢球的，我也能你想法子让你来NBA首发 你说的是西蒙尼的儿子吧 学学里弗斯 居然没入选U22/U20各梯队国家队，这不科学！ 怎么当的队长，怎么进的一线队 我告诉一楼，全世界到哪里都靠关系，美国公司大部分人都是靠内部人员refer进去的，美国人亲口承认的，只是比中国好那么一点点 从甲级联赛到超级联赛，这不是进步嘛[挨揍][挨揍][挨揍] 里弗斯:呵呵 小里弗斯是因为在高中篮球领域就小有名气，有一定的实力，也被理所应当的带到了nba,前几个赛季也看得出来他突破很有天赋，但比赛经验太少，老坑爹，但人家不像恩佐，老爸给了位置还不努力上位，小里弗斯这赛季首发表现不说很好也算是配的上首发，篮子也准了，突破一如既往的快，得分也上去了，恩佐我们皇马球迷有数 小里弗斯长叹一口气 你这得自卑到什么程度啊<br>觉得自己家的什么都不好 不适合踢足球。 Cm03-04时，恩佐可是虎的一比啊。。。。 哟，您北京胡同里天天胡吹的傻逼就少了？ 就这俩宝贝儿子，智商掏出来加一块都没齐秃高，所以说齐秃真该去查查到底是不是亲生的了 体育界没几个老子英雄儿好汉的例子，马尔蒂尼父子算是很少见得了 不知道马尔蒂尼的小孩怎么样了我记得舒梅切尔的在曼城提过一段时间 这种连射门都躲的人也配做守门员？真给齐达内丢脸 自己看看恩佐年薪多少上海土鳖一口一个飞舞自己什么东西没个b数？ 不是去年拿了欧冠冠军么，咋的，打回原型了 我也觉得是西甲比英超更好看. 一个保级队都不要的球员怎么当上b队队长的！ 来皇马吧 玄学没参透😂 让我想起了里弗斯父子 好像已经欧冠在手了。。 你这也舔？ 今年欧冠决赛带他去不带J罗 少来了关系论全世界都一个卵样子 齐达内的儿子很差,根本就达不到保级队的要求.<br>但是齐达内能把他弄进皇马二队,还给他当队长.<br>这就是关系.比中国搞得更过分. 一楼那SB也太恶心了，丢人到家了。 哈哈理解垃圾废物一个 那就到二队为止吧…… 然后怎么又做队长。 一多半球员都是大一就去联盟的，有什么可说的，大学优秀跟现在又有一毛钱关系？他爹手下给这么多机会也不过这水平！全联盟的主控他排倒数五个之内！要是两三年前不在他爹手下他球都打不上，说他爹护犊子还不服！我呵呵你大爷 扯淡的一楼，皇马是个人就能去踢几脚？以恩佐的能力可以当队长？ 这就是西方，老子再有本事，小子也无所荫营。西方人分得倍儿清。 全世界人情关系都一样。 没老爸的天赋，已22岁了，只能是个平凡的职业球员，再过几年就要退役了。 里弗斯这赛季进步很多了[微笑] 里弗斯:呵呵 这种事情也尼玛吹西方，这玩意做不了假，在中国也是这样，蔡振华的儿子没本事也不能在任何队踢主力啊 我就想知道这109个点赞的傻逼脑子里都是屎吗？ 胡扯淡，没关系怎么进的皇马二队？ 本来就不咋地！他爹靠关系当初把他放皇马！ 1楼都凭想象，只要世界上有人的地方想上位，都得靠人提携，不然鬼用你？我用谁不是用？ 极乐世界 小里弗斯：球队得分王都不行？ 没齐达内他儿子水平能在皇马b队当队长？ 给一楼点赞的那些二逼 1楼吹得厉害，要是他不叫齐达内，中甲他都踢不上 小里弗斯最近打的不错啊他在大学本来就是非常优秀的而且只上了一年大学就去NBA了挺好的人家主场都认可他了你还在这呵个毛线 我想看1楼怎么回 照你这样说二队还有个中国人也是托关系进来的？ 二楼说的对，这垃圾的能力感觉连中超都踢不了，进皇马二队。还有西甲保级队，都是给他爹得面子 里弗斯 奥斯丁里弗斯怎么说 菜真滑：你胡说！ 像一楼这么天真的孩子不多了你以为美国大学的推荐信是干嘛的？ 来来来，你告诉我他是怎么当上皇马b队队长的 这在某些地方早就进国家队了 哈哈笑死我了你去都没去过就在这逼逼 老土表还一口一个西方，去过吗？这句话说的多涝啊 只要是人的世界，必然有人情关系的存在，但某锅显然是极致的境界，这也是不争的事实。 西方哪个国家我没去过？ 有些人靠”一步一个脚印”达到目前的位置，有些人是靠老子的资本起点比别人高，但良性循环的地方终究能把良和次区分开来，而乌七八糟的地方还是靠背景和关系继续”发扬光大”。 少来了关系论全世界都一个卵样子 哟哟纯爷们来了大家欢迎 中东人 可以去西班牙人 再帮你补一句：他还在一线队上过一场国王杯呢，这个更具有说服力 舔的真好，当初齐祖带的梯队解散，齐祖只留了自己儿子，而且直接带去b队当队长，不然你以为恩佐的水平当的上b队队长？还跟着一队踢国王杯，要不是齐祖儿子他连b队都进不了，没记错的话齐祖还有个儿子在皇马当门将，就是当初球来了结果门将竟然躲了的那个，要不是齐祖早就呵呵了 真的搞笑，西方的关系有时比国内还厉害。没见过世面别出来丢人吧😂 一楼你舔欧洲，舔上瘾了吧。这球队又不是齐祖的，干嘛要重用他儿子？ 頂級足球運動員本來就是萬裏挑一的，即是職業生涯沒有成功也是人之常情，不比黑來黑去 相对而言，来网易混过的，或者混了一段时间的，思辨能力明显好过上腾讯的。 父亲太厉害，儿子大多一般 齐达内是阿尔及利亚人 差不多，实际上就是黑白混血，白的比较多罢了 布什:嘎嘎嘎嘎 确实是 管理层是皇马球迷 ",
        "Total": 2452,
        "Link": "http://comment.sports.163.com/sports2_bbs/D6VJJ7DC00058781.html"
    },
    "PublishTime": "12/31/201708:23:10",
    "Title": "彻底凉了!齐祖长子遭西甲保级队解约 下一站瑞士_网易体育"
}