{
    "Title": "车辆违停被贴罚单 收费员为收费悄悄撕掉:怕找麻烦_网易新闻",
    "URL": "http://news.163.com/17/1226/07/D6ILADNA0001875P.html",
    "Source": "Netease",
    "Comment": {
        "Total": 1973,
        "Reply": 101,
        "Content": "楼上是傻逼吗 这是诈骗啊 精彩 有希望了 收费员违法收费如何处理？ 这应该拘留收费员了吧？ 违法收费，没事？ 双重收费!都不负责!无法律吗？专家叫兽? 中国交警很富有，随便去街上走走就<br>能拿到一大堆罚单，而苦逼的车主在城里怎么也找不到停车位，更别谈免费停车场了，这是谁的错？ 一家人，别搞的太僵 饺子配酒，婊子配狗 嗯..是吧，不确定，楼下说说 你觉得穿着正式着装的收费员的行为只是个人行为？路边的停车位，大众怎么确定它是停车位？你说公安局长找警察穿警服把人打了，这是不是个人行为？<br>店里的服务员把衣服卖给你，然后店主找你让你赔钱，因为你没有经过他的同意穿了他的衣服。<br>你服不？ 如果一个团队整体病了，它会逐渐溃败，每个个体既是受害者，也是作恶者。 据了解，该女收费员两个月前才到岗从事街边非机动车车位收费工作，对于其乱收费，并擅自撕掉交警部门开具的违法通知书的行为，相关部门已对她进行了严肃的批评教育。<br><br>呵呵，权力机关犯罪成本如此之低，还扯蛋什么法制，qnmlgb 收费员应该陪罚款。 你也收，我也收，就怕你不来停！ 呵呵，这行为涉及到多重违法行为了 有点像，楼下确认一下 交警按章执法应该是无责的，收费员属于诈骗应该退停车费赔违停罚金取消收费员资格，车主轻信非机动车收费员不查验收费资质抱着缴费就能停车的侥幸心理，罚分也应该自认倒霉 真是绝佳的组合！ 他们是一对好搭档 守法公民呵呵 喂，小李啊，那收费员是局长的小姨子⋯ 交警可以乱收费，你怎么和他比。 违法收费，还有妨碍公务，然而是狼狈为奸 好搭档，接着再来 有一种婊子配狗的感觉。 屁民真不容易，是人是鬼都来刮一层膏 你是说表子配狗？ 这双簧唱的好 要钱不要脸 不拘留吗，撕个封条都拘留 处处是坑，收的停车费和违章罚款都用到哪里了，能公示吗？真是刮地三尺 违法停车，罚钱，但违法收费，屁事没有，甚至连骗到的钱都不需要退还！ 停车收费乱象丛生，但是谁管了？交了钱被罚、车被盗被撞都经常见 中度脑残，须住院🏥 你管收钱，我管罚钱，双赢 将来一个地方围绕一台违停车辆多家收费罚款，而且亮出手中权利争吵不休，然后车主一脸懵逼。 黑社会收了保护费尚且保安全 楼上是傻逼吗 不收钱就是占道违停，收了钱就是占道停车收费。一帮杀千刀，有那么一天等着 交警可以乱收费，你怎么和他比。 你这喷的也够狠的 网易喷子够真多 哈哈 珠联璧合啊这是！绝了！ 这钱肯定要收费人员出呀，否则以后怎么按要求停车？要求是啥，收费停车场，穿着衣服的收费员都收费了，这理论上是政府认可的行为吧？然后还被罚款？这事政府做得太没水准。 这特么算不算钓鱼执法 交警按章执法应该是无责的，收费员属于诈骗应该退停车费赔违停罚金取消收费员资格，车主轻信非机动车收费员不查验收费资质抱着缴费就能停车的侥幸心理，罚分也应该自认倒霉 中度脑残，须住院🏥 处处是坑，收的停车费和违章罚款都用到哪里了，能公示吗？真是刮地三尺 服伱 狗日的车场收费员没一个好东西，见钱就见亲爹似的。老子祝福中国所有的车场收费员不得好死，断子绝孙 麻痹停哪里都有乱收费的！ 违法停车，罚钱，但违法收费，屁事没有，甚至连骗到的钱都不需要退还！ 放屁，非法收费政府部门不管？那个领导的亲戚？ 怎么说都是人家有理 配合的天衣无缝 咱绵阳不仅城市规划差、路窄、车位少、道路标识也很奇葩，外地人来了分分钟让你绕个大圈子，现在还学成都限号，一限就是24小时，我TM有几个汉语声母想打出来 嗬嗬嗬嗬。 哈哈 没毛病 据了解，该女收费员两个月前才到岗从事街边非机动车车位收费工作，对于其乱收费，并擅自撕掉交警部门开具的违法通知书的行为，相关部门已对她进行了严肃的批评教育。<br><br>呵呵，权力机关犯罪成本如此之低，还扯蛋什么法制，qnmlgb 好搭档，接着再来 喂，小李啊，那收费员是局长的小姨子⋯ 收费员违法收费如何处理？ CNM748，别误会，我从不说脏话 像以前的移动公司，接打都双向收费 一家人，别搞的太僵 …… 你觉得穿着正式着装的收费员的行为只是个人行为？路边的停车位，大众怎么确定它是停车位？你说公安局长找警察穿警服把人打了，这是不是个人行为？<br>店里的服务员把衣服卖给你，然后店主找你让你赔钱，因为你没有经过他的同意穿了他的衣服。<br>你服不？ 蠢货，收费是收费，罚款是罚款，两回事，你就收你的停车费，你管交警罚款干嘛？怕车主找麻烦？找什么麻烦？贴罚单去交罚款呗。 收费员应该陪罚款。 二头赚钱？ 你说的是民事诉讼，行政诉讼是举证责任倒置 配合的天衣无缝 有点像，楼下确认一下 不算。停车费和贴罚单没关系，只有弱智的蠢货才会觉得交了停车费就不会被贴罚单。 有一种婊子配狗的感觉。 黑社会收了保护费尚且保安全 精彩 无良，无德。 这应该属于诈骗吧 一张罚单贴两次，车主哭晕在厕所 我国法律是谁主张谁举证，如果你认为是上级单位指使非机动车收费员违规收机动车的停车费，请拿出证据，否则没用 文章说了严肃的批评教育 收了费该怎么办？有收费的权利吗？算不算骗？退款了事吗？为啥不管？ 哈哈，大家都赚钱，坑死消费者 。。。 狗狗躺枪 👍 这是诈骗啊 😏脸能当钱花吗 你管收钱，我管罚钱，双赢 这就是收费员的错了 我靠（｀Δ´）！傻球 违法收费，没事？ 让我嘴型！gnmlgb 反正是先收钱再说！ 呵呵，这行为涉及到多重违法行为了 …… 你们是没去过我大南宁吧，随便一个好吃懒做的垃圾往路边一站就敢收停车费。 …… …… 他们是一对好搭档 守法公民呵呵 违法收费，还有妨碍公务，然而是狼狈为奸 你是说表子配狗？ 不拘留吗，撕个封条都拘留 饺子配酒，婊子配狗 收费员也是官方认可的既然收费就合法 违法停车怎么不教育呢 据了解，该女收费员两个月前才到岗从事街边非机动车车位收费工作，对于其乱收费，并擅自撕掉交警部门开具的违法通知书的行为，相关部门已对她进行了严肃的批评教育。<br><br>呵呵，权力机关犯罪成本如此之低，还扯蛋什么法制，qnmlgb 收费再罚款，哈哈 这双簧唱的好 …… 每次都是尼玛才来的 双重收费!都不负责!无法律吗？专家叫兽? 中国交警很富有，随便去街上走走就<br>能拿到一大堆罚单，而苦逼的车主在城里怎么也找不到停车位，更别谈免费停车场了，这是谁的错？ 停车收费乱象丛生，但是谁管了？交了钱被罚、车被盗被撞都经常见 划重点！人行道 如果一个团队整体病了，它会逐渐溃败，每个个体既是受害者，也是作恶者。 标题要改成争抢财神爷… 将来一个地方围绕一台违停车辆多家收费罚款，而且亮出手中权利争吵不休，然后车主一脸懵逼。 有希望了 你也收，我也收，就怕你不来停！ 真是绝佳的组合！ 非法经营该拘 屁民真不容易，是人是鬼都来刮一层膏 厉害了 为什么就是你们能收 笑话 这个律师是吃屎长大的吗？停车的时候有人收费，难道这不就意味着可以停车吗？难道还要车主自己去鉴定停车违法不？傻逼律师怎么活到现在的 要钱不要脸 编故事继续编， 麻痹 问题根源是解决停车难的问题 有希望了 [被黑] 这应该拘留收费员了吧？ 🚗就是肉 ",
        "Link": "http://comment.news.163.com/news_shehui7_bbs/D6ILADNA0001875P.html"
    },
    "Article": "（原标题：车辆违停被贴罚单收费员为收费竟悄悄撕掉）15日上午，绵阳车主杨女士收到一条短信，称其在绵阳金柱园电信大厦楼下乱停乱放被处罚。让杨女士想不通的是，她明明交了停车费，为何还会被处罚呢？杨女士仔细回想，短信通知上的时间点，她确实在电信大厦楼下停放过车辆，不过自己当时给收费员交了停车费，而且车辆上也没有被贴违法告知单，为何还会被交警处理呢？她决定去现场问个究竟。当杨女士来到现场时，绵阳交警直属一大队的民警也正在现场，并在和收费员进行交流。原来，当天10时40分许，民警在辖区范围内巡察纠违，在金柱园附近的电信大厦楼下，民警发现有车辆违法停车，于是给这些车辆贴上了违法告知单。10时54分，民警返回金柱园电信大厦时，发现违法停放车辆未作丝毫移动，但贴在车辆车窗上的违法告知单却不翼而飞。感到疑惑的民警暗中观察，发现“罚单”竟被管理这一区域非机动车位的女收费员撕掉。交警介绍，经询问，收费员承认，她收取了那些违停车主的停车费用，见交警贴出罚单，害怕车主找她麻烦，于是就将罚单全撕了下来。后在民警的要求下，女收费员将她擅自撕下的罚单拿出来，重新贴在了违停车辆上。绵阳交警直属一大队民警介绍，事发路段为人行道，并不属于机动车临时停放点。那么，非机动车收费员为何要收取机动车的停车费呢？对此，当事女收费员辩称，因为这里是非机动车停车位，那些驾驶员非要停在此处，汽车占用了很多地方，于是自己也就应该收费。律师：车主若造成损失可要求赔偿收费员撕掉罚单，对车主会造成什么影响呢？绵阳交警直属一大队民警介绍，此处本来就是非机动车停放点，机动车则属于违法停放，收费员撕掉了违法告知单，并不能消除车主的违法行为。而目前并无相关法律可以追究收费员的责任。四川蜀仁律师事务所律师姜波表示，此处不能收取机动车停车费，收费员害怕车主找麻烦撕毁违法告知单的行为，如果给车主造成了损失则要赔偿，如果没有导致损失，就不和停车人产生法律关系。不过，此处本来就是非机动车停放点，机动车主就属于违法停放，不能以不知法作为违法的辩解。目前，交警部门已经将此事告知城北街道办事处。据了解，该女收费员两个月前才到岗从事街边非机动车车位收费工作，对于其乱收费，并擅自撕掉交警部门开具的违法通知书的行为，相关部门已对她进行了严肃的批评教育。本文来源：成都商报作者：汤小均责任编辑：姬雪莹_NN6784",
    "PublishTime": "12/26/201707:43:11",
    "KeyWords": "罚单,违法,违停,停车"
}