{
    "Source": "Netease",
    "KeyWords": "常委,河南省委,官员变动",
    "URL": "http://news.163.com/17/1224/16/D6EFH96U0001899N.html",
    "PublishTime": "12/24/201716:45:06",
    "Comment": {
        "Content": "",
        "Total": 12,
        "Link": "http://comment.news.163.com/news2_bbs/D6EFH96U0001899N.html",
        "Reply": 0
    },
    "Article": "（原标题：中原大省副部一进一出，省厅地市干部密集调整）近日，河南省领导干部进行了一轮密集调整，其中包括2名副部级干部的“一进一出”以及大量厅级干部的任免，多个地级市市长、市委书记经历大调整。长安街知事此前介绍过，曾任山东省委常委的孙守刚目前已任河南省委常委、统战部部长，而前任陶明伦则转任安徽省委常委、省委秘书长。公开资料显示，孙守刚系山东本土人，曾任山东省政府驻北京办事处主任，济宁市委书记等职务，2010年11月任山东省委宣传部部长，仅1个月后“入常”，近日已出任河南省委常委。而另一位从河南调任安徽的官员陶明伦则是土生土长的河南人，曾任共青团河南省委副书记、书记，后主政商丘，先后担任商丘市副书记、市长、市委书记，于2015年4月担任河南省委常委，目前已专任安徽省委常委、省委秘书长。除了两位副部级干部的变动，还有大量厅级干部近日密集调整。21日，河南省委组织部公示了9名拟任职干部，其中包括漯河、许昌、濮阳、焦作、开封五地干部市委副书记拟提拔，具体情况如下——王勇，现任漯河市委副书记、政法委书记（2004年2月任副厅级），拟作为省社会科学院党委书记人选；王忠梅，现任许昌市委副书记（2008年11月任副厅级），拟作为省委省直机关工作委员会常务副书记（正厅级）人选。李刚，现任濮阳市委副书记（2008年7月任副厅级），拟作为省委、省政府信访局党组书记（正厅级）人选；姜继鼎，现任焦作市委副书记、秘书长（2006年12月任副厅级），拟作为省旅游局局长、党组书记人选；黄道功，现任开封市委副书记、统战部部长（2006年6月任副厅级），拟作为省科学院党委书记人选。除上述五地级市干部提拔外，其他地市的官员调整情况如下——马冰任南阳市人民政府副市长；此前曾担任郑州市副市长，市公安局党委书记、局长的杨俊杰已任新乡市政府党组成员、市公安局党委书记；洛阳市委原常委、组织部长陈向平任商丘市委副书记；郑州市委原常委，郑州航空港经济综合实验区（郑州新郑综合保税区）党工委原书记（正市厅级）张延明任河南省商务厅党组书记，其原职务由郑州航空港实验区管委会原主任马健接替；河南省委组织部原副部长朱是西任驻马店代市长；郭渊为驻马店市人民政府副市长、驻马店市公安局局长；驻马店市委原常委、副市长张昕接替张雷明任河南省安监局局长、党组书记；张雷明任平顶山市代市长，摆向阳、刘文海任副市长；平顶山市原市长周斌已出任该市市委书记；平顶山市委原书记胡荃任郑州市人大常委会党组书记；曾任平顶山市委常委、汝州市委书记=高建军近日已任开封市委副书记；开封市原市长侯红近日已任开封市委书记；开封市委原书记吉炳伟任河南省委副秘书长；此前担任河南省政府副秘书长、办公厅党组成员，省政府研究室党组书记、主任的郭浩任鹤壁市代市长；鹤壁市原市长唐远游调任河南省质监局局长、党组书记；曾任新乡市委常委、常务副市长的刘尚进任漯河市委副书记，原任漯河市市长、市政府党组书记的蒿慧杰近日已任漯河市委书记；此前担任河南省卫生和计划生育委员会副主任、党组副书记的阚全程任河南省卫生计生委党组书记。本文来源：长安街知事责任编辑：张海桐_NN9053",
    "Title": "中原大省副部“一进一出” 省厅地市干部密集调整_网易新闻"
}