{
    "PublishTime": "12/27/201710:58:32",
    "Source": "Netease",
    "Comment": {
        "Link": "http://comment.war.163.com/news_junshi_bbs/D6LISR10000181KT.html",
        "Total": 3,
        "Reply": 3,
        "Content": "旧金山:昨天21纽约:前一天日期的23点 的确像五角大楼! 旧金山:昨天21纽约:今天零点 "
    },
    "Article": "（原标题：因为这个原因，纽约旧金山费城三大城集体起诉五角大楼！）【环球网综合报道】俄新社12月17日援引美国NBC电视台报道称，由于很多被禁止持有武器的的军人未被列入联邦调查局的国家调查系统，美国三大城市纽约、旧金山和费城26日向弗吉尼亚州联邦法院起诉美国国防部。报道称，这些城市认为美国防部没有将大量被取消持枪资格的军人记录列入联邦调查局关于持枪许可和枪支买卖的国家调查系统，“这导致一名前空军人员购买了步枪并于11月5日在得州一座教堂内枪杀26人。”报道称，执法人员需要依靠联邦调查数据库对持枪申请进行背景调查，并监控武器买卖。11月5日圣安东尼奥附近的萨瑟兰斯普林斯教堂枪击案造成25人死亡，约有20人受伤。26岁的凯利用半自动武器向人们扫射，在与当地居民互射和汽车追逐后自杀。凯利2016年4月在得克萨斯州购买了一支RugerAR-556半自动步枪。此前他被美国空军开除，并因对妻子和继子施暴和用上膛武器威胁家庭成员接受军事法庭审判。本文来源：环球时报-环球网。更多精彩，请登录环球网http://www.huanqiu.com责任编辑：姚文广_NN1682",
    "Title": "为这事纽约旧金山费城三大城集体起诉五角大楼_网易军事",
    "URL": "http://war.163.com/17/1227/10/D6LISR10000181KT.html",
    "KeyWords": "旧金山,五角大楼,费城,纽约"
}