{
    "Article": "（原标题：云南大学、郑州大学、新疆大学公布一流大学三步走建设方案）2017年9月21日，教育部公布了外界期待已久的“双一流”建设高校名单和“双一流”建设学科名单。近期，包括北大、清华、人大、复旦、上海交大、南开、北师大在内的多所大学公布了各自的一流大学建设方案。根据教育部公布的名单显示，进入“双一流”大学建设名单的高校一共有42所，其中A类36所，B类6所。在42所一流大学建设高校中，39所为原“985工程”高校，而云南大学、郑州大学、新疆大学三所“211工程”高校顺利突围，与其他39所高校一同位列一流高校建设名单，受到媒体广泛关注。澎湃新闻记者查询发现，云南大学、郑州大学、新疆大学已于近期公布了各自的一流大学建设方案，并且都以三步走的方式设定了近期、中期以及远期建设目标。云南大学：立足西南边疆，面向南亚东南亚云南大学官网2017年12月28日公布的《云南大学一流大学建设方案》共分“建设目标”“建设基础”“建设内容”和“建设预期”四个部分。根据方案，云南大学的建设总目标是建设成为一所立足祖国西南边疆，面向南亚东南亚的综合性、国际性、研究型世界一流大学。围绕这个目标，云南大学在方案中设定了三步走的方针：到2020年，学校综合实力明显增强，若干学科跻身世界一流学科行列，建成全国一流综合性研究型大学。到2030年，学校综合实力和办学水平显著提升，初步建成立足祖国西南边疆，面向南亚东南亚的综合性、国际性、研究型世界一流大学。到本世纪中叶，学校在人才培养、科学研究和国际影响力等领域享有卓越的声誉，建成世界一流大学。在学科建设方面，云南大学的建设方案提到，将重点建设民族学一级学科、高原山地生态与地球环境学科群、边疆治理与地缘政治学科群、生命与分子科学学科群和天文学一级学科等五个居于国内前列、具备冲击世界一流的学科（群）。郑州大学：3个一流学科近期将实现突破郑州大学也于2017年12月31日在官网公布了该校长达37页的一流大学建设方案，分为“建设背景”“建设基础”“建设目标”“建设内容”“预期建设成效”“组织保障”六个部分。根据方案，郑州大学建设的总体目标是到本世纪中叶建成世界一流综合性研究型大学。在阶段目标方面，郑州大学将2017至2020年定为总体布局阶段，立足河南，面向全国，放眼世界，建成国家一流大学。2020至2035年，郑州大学定位为全面建设阶段，建成国际知名的综合性大学，争取进入世界一流大学行列。2035年至本世纪中叶，郑州大学的定位为快速发展冲刺阶段，将将建成世界一流大学。对于一流学科的布局和建设，郑州大学在规划中表示，将布局建设肿瘤防治与转化医学、绿色催化、资源材料、中原历史文化、工程安全与防灾和绿色高效农业6个一流学科。其中，对于肿瘤防治与转化医学、绿色催化、资源材料3个一流学科，郑州大学的方案表示将在近期实现突破，到2020年学科水平大幅提升。新疆大学：成为中亚地区最具影响力的一流大学新疆大学也在2017年12月28日通过官网公布了一份41页的一流大学建设方案。根据方案，新疆大学的总体目标是坚持社会主义办学方向，扎根中国大地、着眼新疆大学实际，以人才培养为核心，以学科建设为基础，推动学校向世界一流大学迈进。在阶段目标方面，新疆大学在方案中表示，到2020年，力争5到6个学科进入国内一流学科行列，学校办学实力明显增强，基本建成西部先进、中亚一流、国际知名的高水平大学。到2035年，若干学科进入世界一流学科行列，学校整体水平达到国内一流，成为中亚地区最具影响力的一流大学。到本世纪中叶（即2050年），更多学科进入世界一流学科行列，若干学科进入世界一流学科前列，基本建成中国特色的世界一流大学。对于学科建设，新疆大学也有自己的特色。在方案中，新疆大学表示将学科建设口径范围凝练为丝路经济文化与西北边疆治理、新疆优势特色资源与科学、新疆信息化与可再生能源技术三个学科群。本文来源：澎湃新闻责任编辑：谷莹_NN6577",
    "Title": "这三所\"211工程\"高校公布一流大学三步走建设方案_网易新闻",
    "PublishTime": "01/02/201809:44:17",
    "Source": "Netease",
    "Comment": {
        "Content": "完全是其他因素，与学术一点关系没有 我建议：1，请武书连排名。2，宣布排名第一。3，开表彰会，要经费。 一步到位。楼上你适合做校长 我建议：1，请武书连排名。2，宣布排名第一。3，开表彰会，要钱。 三步走... 挽尊 完全是其他因素，与学术一点关系没有 文明社会，从理性发贴开始。谢绝地域攻击。 我建议：1，请武书连排名。2，宣布排名第一。3，开表彰会，要钱。 吹牛逼 学校创建文明校园建设的三大工程 三级公路改建总体施工组织设计这方案在鲁文建筑服务网里面有,你可以去那下载来参考 我建议：1，请武书连排名。2，宣布排名第一。3，开表彰会，要经费。 一步到位。楼上你适合做校长 ",
        "Reply": 10,
        "Link": "http://comment.news.163.com/news_guonei8_bbs/D74T16RN0001875N.html",
        "Total": 23
    },
    "KeyWords": "211工程,大学,郑州大学,新疆大学",
    "URL": "http://news.163.com/18/0102/09/D74T16RN0001875N.html"
}