{
    "Title": "跨年明星假唱齐上热搜 网友：不是车祸就是假唱？_网易娱乐",
    "PublishTime": "12/31/201723:20:51",
    "URL": "http://ent.163.com/17/1231/23/D716UUCC00038FO9.html",
    "Source": "Netease",
    "KeyWords": "车祸,演唱会,湖南卫视",
    "Comment": {
        "Reply": 55,
        "Content": "老了，不爱看了！爱咋唱就咋唱吧 为了证明不是假唱，只有跑调了 全tm是湖南的晚会 关键有的台音响效果调音师都不行，没钱寸步难行啊 自娱自乐的国家，没有任何音乐能出口的 刘宪华和小猪的串烧+热舞不错，看的热血沸腾啊。 跨年晚会只看江苏卫视，没有对比就没有伤害！ 谁说吴昕是假唱，根本就不是吴昕唱的！ 一个比一个唱的难听五音不全也敢出来露脸今天真听吐了 烦得壁都开 大家好，欢迎收看本卫视的跨年假唱会！ 傻逼，中国的歌手能真唱的有几个啊 对对，现在跑调是证明真唱的唯一办法了 …… 不喜欢就别看 关晓彤肯定假唱！话筒都不在嘴巴都可以唱！一看就转台了 请听江苏卫视跨年 田馥甄是真唱 有啥看头。无聊 昨天看了，都是真唱 唱的好的说假唱，唱的不好的说难听，还真是一张嘴翻来覆去想怎么说就怎么说 李易峰绝对真唱惨不忍睹，我喜欢这样的真实 真唱基本上都会有走音和瑕疵部分，但我们还是喜欢，江苏卫视真是良心卫视 大家好！我系pgone！接下来我给大家来一段rap祝大家新年快乐。哟哟哟，好吃不过那饺子，好玩不过这嫂子。我陪着嫂子包饺子，包完了饺子玩嫂子。吃着最烫的饺子，玩着最浪的嫂子。吃着嫂子包的饺子<br>玩着包饺子的嫂子。那嫂子包的饺子最好吃，这包饺子的嫂子最好玩。这好玩的嫂子不让我吃饺子。那我就不吃饺子好好玩嫂子 你这句话真的然并卵！ 那边去的是歌手这边来的是演员不奇怪 江苏卫视最真诚，舞美人真。 浙江卫视的貌似真唱多 只有我一个人对这个腿感兴趣吗 李宗盛的真唱让人动容…… 打开手机，随机听几首老歌，看了下书，睡觉，管你什么唱！ 我真是好卵烦关晓彤！！ 这就是真实水平呀<br>靠录音棚弄出好的效果<br>不假唱就只能车祸了2选1了<br>就和他们演技一样只有脸外形没有演技<br>炒作就能红为什么要演技？ 真正实力派 给我看到的感觉就是假唱....... 我就是看大腿去的 华晨宇肯定真唱 你应该很孤单吧，一个人缓慢的翻着评论，看着评论，而这一秒，你正好看到了我的评论，这一秒你是属于我的，你好，陌生人，祝你元旦快乐 老了，不爱看了！爱咋唱就咋唱吧 跨年晚会只看江苏卫视，没有对比就没有伤害！ 全tm是湖南的晚会 …… 谁说吴昕是假唱，根本就不是吴昕唱的！ 傻逼，中国的歌手能真唱的有几个啊 对对，现在跑调是证明真唱的唯一办法了 都是些臭傻逼，看迷笛跨年多好 关晓彤肯定假唱！话筒都不在嘴巴都可以唱！一看就转台了 关晓彤跟鹿晗撒娇的样子像个大老爷们欺负人家小姑娘 田馥甄是真唱 李宗盛的真唱让人动容…… 唱的好的说假唱，唱的不好的说难听，还真是一张嘴翻来覆去想怎么说就怎么说 真唱基本上都会有走音和瑕疵部分，但我们还是喜欢，江苏卫视真是良心卫视 大家好！我系pgone！接下来我给大家来一段rap祝大家新年快乐。哟哟哟，好吃不过那饺子，好玩不过这嫂子。我陪着嫂子包饺子，包完了饺子玩嫂子。吃着最烫的饺子，玩着最浪的嫂子。吃着嫂子包的饺子<br>玩着包饺子的嫂子。那嫂子包的饺子最好吃，这包饺子的嫂子最好玩。这好玩的嫂子不让我吃饺子。那我就不吃饺子好好玩嫂子 打开手机，随机听几首老歌，看了下书，睡觉，管你什么唱！ 只有我一个人对这个腿感兴趣吗 扎心了，兄弟 自娱自乐的国家，没有任何音乐能出口的 那边去的是歌手这边来的是演员不奇怪 这就是真实水平呀<br>靠录音棚弄出好的效果<br>不假唱就只能车祸了2选1了<br>就和他们演技一样只有脸外形没有演技<br>炒作就能红为什么要演技？ 真正实力派 不假唱难道还真唱？有这个实力真唱吗 华晨宇肯定真唱 你应该很孤单吧，一个人缓慢的翻着评论，看着评论，而这一秒，你正好看到了我的评论，这一秒你是属于我的，你好，陌生人，祝你元旦快乐 为了证明不是假唱，只有跑调了 江苏卫视最真诚，舞美人真。 假唱太多了，所以唱的好听的大家就第一反应假唱咯。说白了还不是之前一些明星带坏了风气 刘宪华和小猪的串烧+热舞不错，看的热血沸腾啊。 吴昕会唱歌？ 烦得壁都开 我也好烦她，自带烦人气场[微笑] 不喜欢就别看 我对关晓彤的裙子感兴趣 华仔去湖南跨年了吗？ 昨天看了，都是真唱 李易峰绝对真唱惨不忍睹，我喜欢这样的真实 不是 我觉得小凯是假唱。因为他有个转身，嘴巴是闭着的，但却有歌声出来了…… 太不尊重观众了 大家好，欢迎收看本卫视的跨年假唱会！ 没看国内的，看日本的红白歌会，发现也有假唱，就觉得假唱其实也没什么。 有啥看头。无聊 你这句话真的然并卵！ 我真是好卵烦关晓彤！！ 是人是鬼都往上跑，真的烦这些人 浙江卫视的貌似真唱多 我就是看大腿去的 是不是假唱大家对比一下江苏卫视就知道了，不多说，湖南卫视太坑了 [微笑]老纪大傻子棒棒哒 关键有的台音响效果调音师都不行，没钱寸步难行啊 请听江苏卫视跨年 给我看到的感觉就是假唱....... 一个比一个唱的难听五音不全也敢出来露脸今天真听吐了 看来看去就觉得谭维维和张艺兴可以，小伙子台风真好，跳舞惊到我了 ",
        "Total": 806,
        "Link": "http://comment.ent.163.com/ent2_bbs/D716UUCC00038FO9.html"
    },
    "Article": "跨年晚会明星假唱齐上热搜关晓彤湖南卫视跨年演唱会表演现场胡一天湖南卫视跨年演唱会表演现场吴昕湖南卫视跨年演唱会表演现场网易娱乐12月31日报道湖南卫视跨年演唱会正在直播中。众多歌手悉数登台带来了精彩的表演，但有许多网友发现，不少演出片段都看起来有些违和，一时间针对多位歌手是否假唱的质疑登上了热搜榜。关晓彤、胡一天、白敬亭、吴昕等不是歌手出身的嘉宾，在湖南卫视跨年晚会上也献唱了歌曲。但是刚一唱完，就被网友质疑演出看起来很违和，怀疑是假唱，评论众说纷纭。不过，在演出中也有货真价实真唱的嘉宾。比如开场就唱跑调的汪峰，还有与陈翔合作《亲爱的你》但是表现不怎么理想的纪凌尘，用“实力”证明了自己是真唱。同时，还有网友评论TFBOYS和刘宪华不俗的表现，也是真唱。对此网友评论道：“演唱会假唱太多，自己仿佛成了打假博主”、“现场一言难尽，不是车祸就是假唱。”本文来源：网易娱乐责任编辑：张楠_NK4501"
}