{
    "URL": "http://tech.163.com/17/1227/14/D6LUCREN00097U7R.html",
    "Comment": {
        "Total": 6516,
        "Reply": 266,
        "Link": "http://comment.tech.163.com/tech_bbs/D6LUCREN00097U7R.html",
        "Content": "王者荣耀的策划真该死个妈先 [狗] 王者荣耀和滴滴有啥因果关系 亏的是你的钱么？是未成年人的钱是他们父母的血汗钱都被你骗走了你好意思比比你亏钱？腾讯最垃圾的五百强不要逼脸马化腾 跟贴被火星网友带走啦~ 腾讯狗比还我儿子游戏钱 现在一天赚四千万吧？ 我觉得就很好，其实很多能成才的孩子，以后给人类改变生活的，巨大进步的都跟玩游戏没关系，沉迷游戏的孩子你还指望他能改变人类?与其压抑天性不让他玩倒不如让他玩去或许还有什么奇迹 一个用孩子未来供养起来的大坏人，一个赌上了中国未来国运并有可能没落国家的人有多少钱也是一个罪大恶极之人 小孩子的心智跟成年人的一样吗？中国不禁烟，为啥禁止小孩子抽烟？ 没人逼你家孩子玩啊[鄙视]。父母管教很重要。 卖东莞 不是每个孩子和大人都有那么好的自制力，腾讯不倒，中国下一代真没希望了，国家该醒醒了 小学生的钱啊 马化腾:还好我一天能赚小学生一个亿，不然我亏死<br>马云:我不后悔，元旦在撒十个亿出去😃 好像有点道理，这个贪钱，开除了，下一个肯定也会贪。索性不管了，让他贪个够 腾讯麻花藤不倒闭，天理不容啊 应该算是彻底垄断 滴滴现在优惠不在了、现在是坐收利润 何必跟喷子较真 我觉得腾讯倒了保证还有后继者，想着赚钱的公司很多，腾讯不做他们也会做。 马化腾你自己的孩子玩腾讯的游戏吗？为什么要做这种有伤国本的玩意？ 两军交战，粮草先行。 你们的合并坑了太多的人包括车主和乘客，在国外会被发起反垄断调查的 哪个国家也没有禁止针对学生开发游戏到了天朝就要喷？这时候不和美利坚接轨了？ 滴滴司机真可怜！一天亏几个亿！ 协议垄断＠发改委，你丫管不管 有一儿一女吧！ 老马，你不想想你一秒钟赚的钱比我一辈子都多！ 现在是收割季节了！ 抵制腾讯，人人有责。 亏4000万不叫钱，去叫王者农药的策划发个极品皮肤1亿搞定[窃笑][窃笑][窃笑][窃笑][窃笑] 麻话筒平均每天赚2个亿，4000万小意思了…… 现在把亏的都赚回去了，就当广告投放了 现在打车好贵了 电子商务是任何一个国家都有的，但是并不是每个国家网游都是针对儿童的，腾讯游戏玩家，最少百分之五六十是15岁以下儿童，小学生最少占百分之三十。<br>我想问下楼上圣贤，哪个国家的游戏儿童玩家占比有这么大。 滴滴贵了我也用，出租车那个态度接受不了。 这下好了，自己孩子没出息可以怪马化腾了[大笑]。 毒贩也说是我要你吸的？自己管不住自己怪我卖？ 国外不禁止对未成年人开发游戏。但会对未成年人玩游戏做出限制。比如时间段限制，付费限制。<br>这个不仅仅是家庭的责任，游戏公司应该承担起社会责任，国家应该担负立法和监督的责任。 你怎么不说阿里不倒！你家的败家女人就不收手呢 现在王者荣耀一天一个亿 马化腾，你早晚毁在王者农药上，人作孽不可活，头顶三尺有神灵，你说说这祸害了多少人！ 我记得有个视频，tx代理了使命召唤，马化腾说他5岁儿子也爱玩这个[窃笑] 同样的路程，本来8块。现在快12块了。 都是你们玩的游戏 腾讯真的算彻底垄断，人家中石油至少还有中石化中海油，移动还有电信联通，阿里至少还有京东，亚马逊等太多购物网站app，支付宝还有applepay和微信支付，但腾讯的qq，微信算是彻底垄断中国的社交媒体，社交媒体应该也是当下中国彻底没有外国企业进入的领域了吧，所以脸书推特等真的应该引入竞争，不然真的要弊大于利， 腾讯水军断子绝孙 百度搜索呢？ 妈的，的的好贵 现在一天赚四千万吧？ 还是次出租车划算 不是每个孩子和大人都有那么好的自制力，腾讯不倒，中国下一代真没希望了，国家该醒醒了 钱不嫌多，一天赚十个亿也不愿意有一个项目亏4000万 没人逼你家孩子玩啊[鄙视]。父母管教很重要。 不管就是渎职，举报你 国家居然不调查垄断，这在欧美早就用反垄断法拆分了 赚小孩子的钱 应该算是彻底垄断 答非所问，今天心情好教一教你。<br>王者荣耀2.5亿用户，百分之三十就是七千五百万，小学生提供九千万，也就是说除了一年级，其他的小学生百分百都在玩王者，看看你身边的小学生吧，再用你的猪脑子好好算一算。 小意思 这应当也是小黄车和小红车的结果吗？ yy 腾讯养出了一个微信支付，阿里呢？ 中腾讯毒的除了小学生，还有中学生、大学生，甚至国家工作人员也偷偷玩！[不屑] 一个用孩子未来供养起来的大坏人，一个赌上了中国未来国运并有可能没落国家的人有多少钱也是一个罪大恶极之人 抵制腾讯，人人有责。 反垄断审查在中国就是个笑话 两个恶心的人，但现在还真离不开他俩 亏4000万不叫钱，去叫王者农药的策划发个极品皮肤1亿搞定[窃笑][窃笑][窃笑][窃笑][窃笑] 垃圾公司，竟然只为了挣钱，国外的公司都是想着怎么给普通人省钱，哪怕亏本都行 协议垄断＠发改委，你丫管不管 现在的CF就是采用的这个策略在圈钱！妈的！没法玩了！ 二楼的论断像极前阵子讨论女子被强奸的案例，别人为什么强奸你？肯定是你穿的少，喜欢晚归？别人为什么就打你，肯定你做不好。不去反思行暴的，首先指责受害的。 滴滴现在优惠不在了、现在是坐收利润 优惠在的，早8－10高峰有补贴，上海一天接满24单有100块奖励。（司机说平均一小时2单） 呵呵，遐想？洗地也没必要这样洗。看到深圳Ip就知道来洗地 这就是没有竞争的结局 麻话筒平均每天赚2个亿，4000万小意思了…… 现在收货的季节啦 我被马花疼骗去很多Q币 先把你手机应用卸掉一半再说话 现在打车好贵了 是啊，出租车还贵。甚至顺风车现在价格也高了很多 根本就没有什么完全意义上的竞争，从一开始网约车市场就是完全按照资本的意愿在进行操作。一场棋局从第一个落子开始就注定了最终的结局。惨烈的烧钱战，一方面起到了极大强化两方战斗人马的能力，迅速消灭了其它中小竞争对手，另一方面喝阻了更多人想下场尝试的欲望。大战过后，江湖一统，再无对手 厉害 钱砸出去了，股权增值了，砸个几十亿，换来的是几百亿的市值…得了便宜还卖乖 不玩王者农药你让那帮不爱学习的小孩玩什么？又有什么玩的起的？说实话中国人大多数太需要在虚拟找点存在感了，不然在这丑陋的现实中很多人早就爆发了。 今年这山寨头子的新闻真多 社会不抵制吸毒、杀人、强奸、盗窃。靠家庭教育就能抵制？你那是什么逻辑？ 呵呵 马云同意和你合并你现在就拉拢一群臭鱼烂虾抵抗马云？ 最主要是法律居然允许合并 看看 老司机皮肤伺候众位大神！ 抬高了价格，也做不起滴滴咯 ！！ 腾讯不带理就没游戏了？ 同样的路程，本来8块。现在快12块了。 傻呵呵 小学生这么有钱？ 麻花藤咋还没死 腾讯麻花藤不倒闭，天理不容啊 自控能力低，玩什么都容易上瘾，不玩游戏看小说也会上瘾，也要禁止出版小说？聪明，有目标懂自控的孩子，就算喜欢玩游戏也一样会成才，而且一般游戏也玩得比别人好。 🀄️ 马化腾是削尖脑袋赚钱，马云总体来说还在考虑怎么带来便利再赚钱，两个人差距太大 腾讯狗比还我儿子游戏钱 家长不管教，怪我咯？这逻辑真屌 家长的问题 比出租车贵了 小孩子的心智跟成年人的一样吗？中国不禁烟，为啥禁止小孩子抽烟？ 没人逼你家孩子玩啊[鄙视]。父母管教很重要。 🈶️ 一个用孩子未来供养起来的大坏人，一个赌上了中国未来国运并有可能没落国家的人有多少钱也是一个罪大恶极之人 问题是现在滴滴是阿里系的选手 阿里兴腾讯亡中华兴 是，我真恨它，还有把互联网推广的那个人！我不反对互联网，它是社会进步的工具，你他妈跳出来什么意思？ 腾讯才是最特么坑的，腾讯游戏我至少刷了几千块钱，没任何反馈用户！ 昨天老公出轨，虽然知道他是酒后乱性，但是我还是好伤心，我一整天没说话，晚上睡觉，看他睡在我旁边，心里特别恨他讨厌他，半夜他醒后，我脱掉衣服，骑到他身上，强入，特别痛，但我咬牙坚持，眼泪都快出来了，我恨他。恨他为什么去外边找女人，就因为我是个男的吗？ 滴滴是阿里的？？？？ 你是智障吗？你有想过孩子没有游戏，没有动画片，没有零食的童年生活吗？不要以居高临下的态度贬低孩子的精神需求。过度游戏的总是少数，绝大多数都健康成长为有用之才了，这少数人的责任归于其父母，而这绝大多少人因为有了游戏而有了一个更快乐的童年。。另外，小学生贡献额不足5%，腾讯的游戏绝大多数是面向成年人的。。 浙江出汉奸，浙江出狗屎！ 毒贩也说是我要你吸的？自己管不住自己怪我卖？ 8⃣️ 其实政府对于未成年人的烟酒控制也是睁一只眼闭一只眼，游戏就更放纵了。政府喜欢抓成年人的嫖娼问题 哪个国家也没有禁止针对学生开发游戏到了天朝就要喷？这时候不和美利坚接轨了？ 现在滴滴已经是阿里系的了[羞羞] 滴滴司机真可怜！一天亏几个亿！ 小学生玩网游不比吸毒差，这些傻b还说腾讯没问题？ 🎫 投资叫亏？ 没有竞争，垄断就来了 坑害小学生中学生的毒品！！！ 赚了 滴滴现在优惠不在了、现在是坐收利润 你的孩子受到伤害了你就理解了，狗屎的老乡也是狗屎吗？ 亏4000万不叫钱，去叫王者农药的策划发个极品皮肤1亿搞定[窃笑][窃笑][窃笑][窃笑][窃笑] 多卖点皮肤就有了 现在把亏的都赚回去了，就当广告投放了 小学生的钱啊 现在打车好贵了 两头杀，车主乘客，投资人希望看到漂亮的报表，并不在乎竭泽而渔和zz风险 哈哈 这两大行业霸主怎么说合并就合并呢，没人管？ 国外分级的游戏也是，过一段小学生就开始吃鸡了 花疼也是实在人，明说自己的角色是地头蛇，强龙都打不过的特色郭嘉地头蛇 权贵知法犯法你们怎么不学那？不敢吧！哈哈哈 腾讯游戏，没钱玩尼麻痹。马化腾留 出了个老蒋 马化腾，你早晚毁在王者农药上，人作孽不可活，头顶三尺有神灵，你说说这祸害了多少人！ 这下好了，自己孩子没出息可以怪马化腾了[大笑]。 为什么网吧不允许未成年人进入？每个人都是从孩童过来的，有没有自制力没点逼数？ 得了吧，游戏成才的比例绝对不高，成混混的多的是 今天打了一个快车。司机手机显示14.89，我的显示19.27。一单抽23%左右，现在赚翻了吧！ 现在王者荣耀一天一个亿 王者荣耀一天挣一个亿！而且还是小学生的早餐钱！这种企业迟早要死的 美团打车要开始和滴滴争夺天下了 |-| 美国的游戏和日本的游戏都是有很严格的年龄限制的，不是谁注册个账号就能玩的 王者荣耀和滴滴有啥因果关系 腾讯麻花藤不倒闭，天理不容啊 麻话筒平均每天赚2个亿，4000万小意思了…… 你一个王者农药每天赚1亿 现在顺风车主便宜了很多 一个用孩子未来供养起来的大坏人，一个赌上了中国未来国运并有可能没落国家的人有多少钱也是一个罪大恶极之人 生活在电视刚刚兴起的那代人和网络刚刚兴起的那代人都曾经被认为是会被毁掉的两代人，结果呢，国家该是怎么发展还是怎么发展 没人逼你家孩子玩啊[鄙视]。父母管教很重要。 玩游戏成瘾的大部分是混混，谁也不想自己的孩子变成混混 电子商务是任何一个国家都有的，但是并不是每个国家网游都是针对儿童的，腾讯游戏玩家，最少百分之五六十是15岁以下儿童，小学生最少占百分之三十。<br>我想问下楼上圣贤，哪个国家的游戏儿童玩家占比有这么大。 不是每个孩子和大人都有那么好的自制力，腾讯不倒，中国下一代真没希望了，国家该醒醒了 你依然可以正常招手打车啊 只有loser才怪这怪那，天天给你看圣贤书你就能成圣贤了？ 百分五六十是儿童玩家这数据是哪儿来的 规模都是钱烧出来的 呵呵 还是垄断赚钱 这是竞争的结果，没滴滴以前50起步，还不打表 需要极品皮肤？搞一个28的皮肤打一折，你买不买 王者荣耀用户画像你自己去看看14岁以下占3%本科学历49.5腾讯黑点不少但相信腾讯是小学生养的是真傻消费主力明显是青年人你家小孩充钱你不管的？网上是有偷偷用父母手机充钱的新闻能占万分之零点几？整容主播和各种游戏厂商都等着呢充到腾讯游戏的又有多少？等腾讯没的时候网易盛大巨人开心的不得了因为终于他们也有机会做大你眼中的小学生游戏 游戏本身无罪，有罪的是经营着眼里只有钱 存在就是为了被颠覆，说不准哪天两家公司都被跨界取代了呢。 谁逼你用滴滴了？你照样可以招手打车啊 他不过百分之十股份而已 共享单车也将是这样的结果 亏4000万不叫钱，去叫王者农药的策划发个极品皮肤1亿搞定[窃笑][窃笑][窃笑][窃笑][窃笑] 这么多钱啊 得了吧，上次亚马逊被美国法院判赔。<br>内容是孩子拿大人的卡在亚马逊消费，亚马逊付有监管责任，全额退款。<br>感觉奴隶做惯了，你都不知道站起来了。竟然以为国外游戏都是可以随便玩的，这么和你说吧，Cs和红警这么老的游戏现在还是要买正版光盘的，别以为随便下载玩的。 网易游戏也是赚钱大头 有本事不用微信QQ？ 打了个滴滴，车费29，结果附近还没有车，正好来了辆出租，到地方付了车费23，不知不觉中滴滴已经比出租还贵了 哪个国家也没有禁止针对学生开发游戏到了天朝就要喷？这时候不和美利坚接轨了？ 马云搞个社交软件出来，我支持马云 现在是收割季节了！ 腾讯不是什么科技互联网公司，对中国没有科技文明的贡献，低端复制代码山寨别人，要不是有保护san，腾讯活不到今天，罪名山寨或垄断就能倒闭 滴滴现在优惠不在了、现在是坐收利润 还没人和他抢 倒不了，腾讯有天然的客户入口，加上腾讯聚集大批人才，平均月薪3w以上 你说说让哪个接手会更好？？？就说互联网这些大佬，你选个给我看看 买买买 抛个0.01的股票就套現4个亿了， 你可真是猪 现在打车好贵了 滴滴不是企鹅的，也不是阿里的。但更偏向阿里。 呵呵，读初中时，那时候正好传奇很火，许多成绩好的沉迷在上面，记得年级前十有个沉迷之后初中都没毕业。 现在王者荣耀一天一个亿 傻逼腾讯，只知道抄袭 阿里 不用后继者，本身中国网游公司就已很多，就是玩哪家的的问题而已 这下好了，自己孩子没出息可以怪马化腾了[大笑]。 支付宝就是社交 好久没玩游戏了，玩王者荣耀，怎么玩都玩不上瘾，主要是玩不进去，感觉不好玩啊！ 这叫啥，这逻辑，贩毒应该合法了，没人逼你吸毒阿 智商堪忧 搞个游戏哗哗挣钱，对国家人民没一点用处 周围环境都是谈论王者，你小孩不会？ 厉害 期待微信支付宝的补贴大战 也可以发起一个同一个生日的你的募捐。很快能找回损失 消费者苦见其成。[不屑][可怜] 王者荣耀的策划真该死个妈先 合并后又把优步吃掉了！ 滴滴贵了我也用，出租车那个态度接受不了。 腾讯麻花藤不倒闭，天理不容啊 可以举报垄断么？太坑了 福利给老百姓就是亏 没人逼你家孩子玩啊[鄙视]。父母管教很重要。 [微笑][微笑]马🐴：我都快亏成首富了 一个用孩子未来供养起来的大坏人，一个赌上了中国未来国运并有可能没落国家的人有多少钱也是一个罪大恶极之人 老马，你不想想你一秒钟赚的钱比我一辈子都多！ 马化腾:还好我一天能赚小学生一个亿，不然我亏死<br>马云:我不后悔，元旦在撒十个亿出去😃 他的是女儿 来使不能斩，送钱的。 哪里赚这么少，光一个王者荣耀一天赚多少 然后再跟UBER再打一仗 那亏得不叫钱，你去让程序猿来打一把新枪，或者让设计再画几个皮肤，那些钱那些钱分分钟就回来了 日本狗马云卖假货一天一个亿[大笑] 价格恢复正常了 明明是不斩来使！ 我家的主要开支是房贷 马化腾你自己的孩子玩腾讯的游戏吗？为什么要做这种有伤国本的玩意？ 亏4000万不叫钱，去叫王者农药的策划发个极品皮肤1亿搞定[窃笑][窃笑][窃笑][窃笑][窃笑] 你们的合并坑了太多的人包括车主和乘客，在国外会被发起反垄断调查的 坐等美团出来竞争 有一儿一女吧！ 这不算垄断吧！还有出租车可以选择，而且滴滴价格跟出租车也差不了多少 马化腾倒闭了你拿支付宝发消息？ 倒闭吧，专出坑钱的游戏，幸好我一直玩网易，不然又要上腾讯的当 恶心 不是还有招手即停的出租车吗？ 管事的就不该批准 希望你们继续打架 滴滴现在优惠不在了、现在是坐收利润 亏的是你的钱么？是未成年人的钱是他们父母的血汗钱都被你骗走了你好意思比比你亏钱？腾讯最垃圾的五百强不要逼脸马化腾 直冲100万qb 两军交战，粮草先行。 王者荣耀分分钟赚回来了 这话就说得不对了：孩子也不能在一个封闭的环境中长大。<br>孩子的未来，要管束好、教育好孩子还是得靠家长。<br>以前还有说看电视不好的呢，这不是很封闭么？ 麻话筒平均每天赚2个亿，4000万小意思了…… 日本狗🐶马云卖假货每天赚一个亿[大笑][大笑][大笑] 现在打车好贵了 卖东莞 他女儿绝对是无限玩家 现在网约车比的士还贵 麻花疼：想让我倒闭？信不信我用笔抄死你 麻花腾一毛不拔 。。。 马：4000万算鸡毛，全国小学生好几亿，兜里钱都是我滴 多卖几个皮肤、多冲几个会员就回来了 美团是他喂大的，竞争个毛，一撤资美团分分钟倒闭了，美团已经做了一次白眼狼现在只能跟着企鹅混，敢独立分分钟被打垮 问一下易友:怎么投诉拼多多 那么点 我感觉这2个人一路货色，马云马化腾都是差不多。做得这么大，最后的目标都是一致的。经常看到评论有人说马化腾坑钱...还有马云坑钱。这2位只是一个坑玩家的钱，一个坑女人的钱.现在普通家庭成员一般会有一个爱玩游戏的小孩一个爱买买买的妻子😊...如果老公也是个玩家的话就巨难受了吧！ 腾讯倒了还有千千万万个腾讯 2楼：马云坑女人什么钱？他有东西给你的，你老婆不上网买东西也会上街买东西，鞋子衣服不怕多是女人的共有特性，而马化腾的游戏就不一样，整日整夜地玩，不仅化了钱，还伤了眼睛和身体，误了学业。 你知道全国出租司机自己营运证的亏了多少？ 那就是说这两家操纵市场了？！ 游戏毁了多少孩子 现在王者荣耀一天一个亿 我记得有个视频，tx代理了使命召唤，马化腾说他5岁儿子也爱玩这个[窃笑] 农药一天一个亿，四千万算什么啊 打车这种事，方便和安全最重要。以前在路边等车太坑了。叫车不用等。 😃😃 避免恶性竞争，这样就垄断了！ 腾讯麻花藤不倒闭，天理不容啊 市场占有率第一和第二的企业说合并就合并？ 呵呵 早点亏死这个毒瘤王八 没事王者荣耀每天有1⃣️个亿赚 占有市场，挖掘市场，收割市场 Hugh 这几天还行，优惠券比较多，可能跟一些类似美团打车之类的竞争有关系，估计过一阵又不行了 一个用孩子未来供养起来的大坏人，一个赌上了中国未来国运并有可能没落国家的人有多少钱也是一个罪大恶极之人 我不喷企鹅🐧，因为我还在用QQ，微信。他也不是垄断。 还不是羊毛出在羊身上 几行代码就赚回来了，还那么小气 1楼这类键盘侠，最喜欢站在道德制高点说事情。既然已经存在了好的商业模式，为什么不可以用。如果觉得违法，那就打官司。不要刻意的标新立异。一味地用道德说事的人，心里都有鬼。 独角兽 谁在初期打广告烧用户不亏？ 打不打垮那个你就不要操心了，开好你的taxi就好了 一个用孩子未来供养起来的大坏人，一个赌上了中国未来国运并有可能没落国家的人有多少钱也是一个罪大恶极之人 Msn和skype,旺旺怎么喷 然而现在消费者却矇了 这就是有组织的的垄断市场 能让马化腾投大本钱肯定是利润超好的行业。 大陆这种环境，让麻花藤觉得自己很牛逼，很有商业头脑。如果是在发达国家，这种抄袭，应该已经赔的内裤都没了吧。<br><br>ICQ----OICQ 骗小孩子的钱起家了，现在还在继续骗，有多少孩子不好好读书，跪倒在你的农药下，马化腾，你要祸害这个社会多久，会有报应的！！[暴怒][暴怒][暴怒] 有腾讯无创新！ 这个一开始我就不觉得能赚多少钱还有共享单车有钱就烧呗就当回馈社会了 想把出租车打垮，继续来阿，看你们有多少钱。 现在打车好贵了 一个用孩子未来供养起来的大坏人，一个赌上了中国未来国运并有可能没落国家的人有多少钱也是一个罪大恶极之人 现在日收入多少不说说？？ 呵呵 马化腾的微信里有个彩票！变相的赌博，游戏全是坑钱，不知道害了多少人。 ☺☺ 并购就是为了更好的垄断 一个用孩子未来供养起来的大坏人，一个赌上了中国未来国运并有可能没落国家的人有多少钱也是一个罪大恶极之人 反垄断法何在，这就是竞争的好处，合并之后一家独大， 没赚到算亏，😄 😊😊 基本不打滴滴了 然后进狠狠赚 资本无敌 当初一天发50块，打车都不要钱，还充300送300现在好了。。。 "
    },
    "Article": "（原标题：马化腾解开滴滴快的合并迷云：和阿里竞争一天亏4000万）#endText.video-infoa{text-decoration:none;color:#000;}#endText.video-infoa:hover{color:#d34747;}#endText.video-listli{overflow:hidden;float:left;list-style:none;width:132px;height:118px;position:relative;margin:8px3px0px0px;}#entText.video-lista,#endText.video-lista:visited{text-decoration:none;color:#fff;}#endText.video-list.overlay{text-align:left;padding:0px6px;background-color:#313131;font-size:12px;width:120px;position:absolute;bottom:0px;left:0px;height:26px;line-height:26px;overflow:hidden;color:#fff;}#endText.video-list.on{border-bottom:8pxsolid#c4282b;}#endText.video-list.play{width:20px;height:20px;background:url(http://img1.cache.netease.com/video/img14/zhuzhan/play.png);position:absolute;right:12px;top:62px;opacity:0.7;color:#fff;filter:alpha(opacity=70);_background:none;_filter:progid:DXImageTransform.Microsoft.AlphaImageLoader(src=\"http://img1.cache.netease.com/video/img14/zhuzhan/play.png\");}#endText.video-lista:hover.play{opacity:1;filter:alpha(opacity=100);_filter:progid:DXImageTransform.Microsoft.AlphaImageLoader(src=\"http://img1.cache.netease.com/video/img14/zhuzhan/play.png\");}if(/(iPhone|iPad|iPod|Android|NETEASEBOBO|blackberry|bb\\d+)/ig.test(navigator.userAgent)||/safari|chrome|firefox/i.test(navigator.userAgent)&&navigator.plugins&&!navigator.plugins[\"ShockwaveFlash\"]){varstr1='<videocontrols=\"controls\"preload=\"auto\"width=\"100%\"poster=\"http://vimg3.ws.126.net/image/snapshot/2017/12/G/B/VD5O4L1GB.jpg\"style=\"max-height:100%\">';varstr2='<sourcetype=\"video/mp4\"src=\"http://flv.bn.netease.com/videolib3/1712/27/yXMfH5412/SD/yXMfH5412-mobile.mp4\">您的浏览器暂时无法播放此视频.</video>';document.getElementById(\"FPlayer1404863609673\").parentNode.innerHTML=str1+str2;}马化腾忆网约车大战:和阿里竞争一天亏4千万（来源：网易科技频道）window.NTES&&function(d){varf=function(c){varb=c.getAttribute(\"flashvars\"),a=c.getAttribute(\"repovideourl\").replace(\".flv\",\"-mobile.mp4\");h=d(c.parentNode.parentNode.parentNode),g='<embedsrc=\"http://v.163.com/swf/video/NetEaseFlvPlayerV3.swf\"flashvars=\"'+b+'\"allowfullscreen=\"true\"allowscriptaccess=\"always\"quality=\"high\"wmode=\"opaque\"width=\"100%\"height=\"100%\"type=\"application/x-shockwave-flash\"/>';if(/(iPhone|iPad|iPod|Android|NETEASEBOBO|blackberry|bb\\d+)/ig.test(navigator.userAgent)){g='<videocontrols=\"controls\"preload=\"auto\"width=\"100%\"height=\"100%\"><sourcetype=\"video/mp4\"src=\"'+a+'\">您的浏览器暂时无法播放此视频.</video>';}h.$(\".video\")[0].innerHTML=g;},e=function(b){vara=d(b.parentNode.parentNode.parentNode);a.$(\"li\").removeCss(\"on\"),b.addCss(\"on\"),a.$(\".video-title\")[0].innerHTML=\"string\"==typeofb.textContent?b.textContent:b.innerText,a.$(\".video-title\")[0].setAttribute(\"href\",b.getAttribute(\"url\")),a.$(\".video-from\")[0].innerHTML=\"（来源：\"+b.getAttribute(\"source\")+\"）\",f(b);};window.continuePlay=function(){vara,b=d(d(\".video-list.on\")[0].nextSibling);3==b.nodeType&&(b=d(b.nextSibling));if(b&&d(\".video-innerinput\")[0].checked){e(b);}},function(){vara={init:function(){if(d(\".video-listli\")[0]){d(d(\".video-listli\")[0]).addCss(\"on\"),this.eventBind();}},eventBind:function(){d(\".video-listli\").addEvent(\"click\",function(b){e(d(this)),b.preventDefault();});}};a.init();}();}(NTES);站长之家（Chinaz.com）12月27日消息：2014年初，阿里滴滴双方开始掀起第一轮的补贴大战，从2月开始，5月双方同时停止补贴。随后，在双方都上线专车业务后，对车主和用户的补贴上开始陷入力度更大的补贴竞争。为了争夺市场份额，快的和滴滴都是蛮拼的，双方依靠各自的金主，并不退让，这场争战肯定还会持续很久。有媒体报道，在几个月两家公司为了争夺市场烧掉了二三十亿元人民币。不过这场“烧钱大战”在2015年2月14戛然而止，滴滴快的突然宣布合并。他们“闪婚”背后原因是什么呢?马化腾之前在香港大学的演讲解开了历史谜云，原来两家公司都烧钱烧不起了，最高一天亏4000万元。马化腾谈到滴滴快的称，我支持滴滴，马云支持快的，我们就像打仗，最高一天亏4000万，谁也不敢收手，一收手就前功尽弃了。后来跟马云沟通，最后在很多资本的撮合下合并了。当然双方合并后，一个直接的影响是，可以结束补贴上的直接竞争。对于这个结果，作为投资人乐见其成。本文来源：站长之家责任编辑：白鑫_NT4464",
    "KeyWords": "马化腾,滴滴,阿里,马云",
    "Source": "Netease",
    "Title": "马化腾忆网约车大战：和阿里竞争一天亏4千万_网易科技",
    "PublishTime": "12/27/201714:19:31"
}