{
    "Comment": {
        "Content": "坐高铁不用抢了吧？每年这个时候都会焦虑！ 还是那几趟车，有毛用？现在不找黄牛或者在购票软件上额外花钱基本买不到票… 我就想问，CGD选座除了把一家人分开之外，还有其他什么意义？ 打折机票一年到头都有，只是这种飞机要么在夜里飞，两头都不方面，要么早上很早就起飞，很难赶上的那种飞机 真的吗？过年还能买到打折机票？ 之前坐过早上6点50广州飞哈尔滨的飞机。真是惨，半夜4点出门打的，不是，是提前一天跟的士约好4点出门，不然你出来根本没有的士。。。 啥时候能不用那个抢字 从济南到成都的火车卧铺七百多，要坐38个小时。如果坐高铁更贵！所以每次回家我都是提前订机票，也才700多 一天到晚弘扬这个梦，那么梦……能买到火车票就像是做梦 可不可以说还是买票难..... 4楼：早上很早起飞的飞机，你得在半夜打车，很多地方半夜打车去机场都宰人的 哇春节快到了，要回家过年的小伙子女士们，该抢火车票了，如果抢晚了，就抓瞎了！ 坐高铁不用抢了吧？每年这个时候都会焦虑！ 还是那几趟车，有毛用？现在不找黄牛或者在购票软件上额外花钱基本买不到票… 我机票已经买了 我还是坐飞机吧 火车票不好买 抢票喽!抢票喽!今年你抢了吗? 加钱抢购吧大家 真的吗？过年还能买到打折机票？ 之前坐过早上6点50广州飞哈尔滨的飞机。真是惨，半夜4点出门打的，不是，是提前一天跟的士约好4点出门，不然你出来根本没有的士。。。 啥时候能不用那个抢字 从济南到成都的火车卧铺七百多，要坐38个小时。如果坐高铁更贵！所以每次回家我都是提前订机票，也才700多 抢nmp 那是肯定火车不是直达的啊一般到武汉就换车头了进川藏的车都是普遍很慢，绝对不让飞机划算 卡里了 一天到晚弘扬这个梦，那么梦……能买到火车票就像是做梦 春运还七百，做梦吧！ 国行 问一下各位老铁，跳站买票可行吗，比如我买上海到武汉的票从苏州能进站上车吗。 试试人生日历哦,今年它改版了,抢票还是可以的 春运也不是第一年，为什么年年一票难求？ 提前买，可以的，能买到腊月二十七左右4折到5折的机票。 我就想问，CGD选座除了把一家人分开之外，还有其他什么意义？ 什么 选座？你选座的时候别人把票抢走了 试试连续换乘 春节抢票攻略,赶紧收藏啦 我去 有座就不错了还选位置》？ 连续抢了五天广州到重庆的没抢到，<br>什么逻辑！ 可以的，我以前买过，能在中间的站点上车，但是是好几年前的事了，现在有没有新规定不知道 可不可以说还是买票难..... 前几年都只能买到除夕当天的票，其余的都是秒抢 自己开车回去也行 明显不是高峰期 越是节假日需要上班的行业，越是和抢票无缘，现在连班都没排出来，看别人抢抢就好了。 够绕的 哇春节快到了，要回家过年的小伙子女士们，该抢火车票了，如果抢晚了，就抓瞎了！ 700多请问在哪订的 4楼：早上很早起飞的飞机，你得在半夜打车，很多地方半夜打车去机场都宰人的 ",
        "Link": "http://comment.tech.163.com/tech_bbs/D77ENJBB00097U7R.html",
        "Reply": 41,
        "Total": 429
    },
    "KeyWords": "春运,选座,抢票,火车票",
    "PublishTime": "01/03/201809:32:06",
    "Title": "春运火车票正式开抢！手机抢票选座攻略看这里_网易科技",
    "Source": "Netease",
    "Article": "（原标题：春运火车票今起正式开抢！手机抢票在线选座，最新攻略看这里）据中国铁路总公司编制的“2018年铁路春运购票日历”，2018年春运自2月1日开始，3月12日结束。今天，春运首日火车票正式开始预售。今年春运，包括积分兑换车票、自主选座、接续换乘、网络订餐等等，一系列铁路便民措施，你需要早知道。?抢票日期要牢记！日前，中国铁路总公司通过其官方微博发布了“2018年铁路春运购票日历”。根据这份日历，2018年春运，网络、电话订票预售期为30天，车站窗口、代售点和自动售票机预售期为28天。按照提前30天的时间安排，今天开始可以通过网络和电话预订2018年春运第一天（2月1日）的火车票，若到车站窗口、代售点或自动售票机购买，则需等到1月5日才可买到春运首日火车票。由于春节法定假日为除夕到正月初六，近年来，每年除夕前夕以及初六前后都是春运客流高峰，除夕和初六当天的车票往往最为紧俏。按照30天的预售期推算，今年除夕（2月15日）当天的火车票，将在1月17日起开售，正月初六（2月21日）的火车票，将在1月23日起开售。攒积分可兑换车票今年春运，对于广大旅客来说，铁路部门日前推出的“攒积分兑换车票”活动需要留意。据悉，去年12月20日起，铁路部门推出“铁路畅行”常旅客会员服务。会员购买车票将获得相应乘车积分，积分按照其所购车票票价进行累积。如旅客购买100元车票，将可获得100×5=500的积分。积分首次达到10000分以上，即获得积分兑换资格。每100积分相当于1元钱。旅客可用积分兑换铁路部门指定车次的列车车票，使用所兑换车票的乘车人可以是会员本人，也可以是其指定的受让人。兑换车票可以办理挂失补票、改签（不能办理变更到站）。一般不能办理退票，但遇不可抗力或铁路责任，可办理退票手续，所用积分返回会员账户，并重新计算有效期。积分有效期为12个月。车票信息实时掌握今年春运，对于选择网络购票的旅客来说，用手机抢票将变得更为便利。从去年11月23日起，中国铁路客户服务中心12306网站微信支付功能已经上线运行。持有微信账户的旅客在12306网站及手机客户端购买火车票时，可在支付页面选择“微信支付”按钮进入微信支付页面进行支付。此前，旅客通过12306网站或手机客户端购票，支付渠道有中国工商银行、中国农业银行、中国银行、中国建设银行、招商银行、邮储银行、中国银联、中铁银通卡及支付宝等。移动互联网时代，购买火车票增加微信支付渠道之后，旅客使用手机抢票，无疑将更加方便。除了微信支付，从去年12月26日起，12306新增微信通知方式。用户在“铁路12306”小程序或“铁路12306”微信公众号中登陆12306账号，绑定微信号，并关注“铁路12306”公众号后，即可在微信内接收购票、改签、退票等行程通知。12306表示，列车运行调整和手机号码核验仍通过短信发送。这些便利要知道除了积分兑换车票、微信接受购票信息等措施，近半年来，铁路部门推出的其他一些服务新举措也将让你的春运行程变得更为方便。在线选座去年10月开始，铁路部门推出动车组列车“自主选座”服务，凡是乘坐C、D、G字头的动车组列车，均可在网上自主选座，坐火车终于有了“在线选座”的便利。接续换乘同样在去年10月份，和“自主选座”同步上线的还有一项便民服务——接续换乘。通俗地说，旅客通过12306网站或手机客户端购票，当遇到出发地和目的地之间的列车无票或没有直接到达的列车时，旅客可选择“接续换乘”功能，售票系统将向旅客展示途中换乘一次的部分列车余票情况，如果旅客选择购买，可以一次完成两段行程车票的支付。网络订餐此外，对于“吃货”来说，从去年7月17日开始，铁路部门在上海、天津、南京等全国27个主要高铁客运站，推出动车组列车互联网订餐服务。点点手机，不仅可以选高铁列车上的餐车盒饭，也可以订沿途社会品牌的餐食，并享受送餐上车服务。这些攻略要了解本文来源：新华社微信公众号责任编辑：侯维铖_NT4124",
    "URL": "http://tech.163.com/18/0103/09/D77ENJBB00097U7R.html"
}