{
    "Source": "Netease",
    "KeyWords": "rm,韩国,收视率,收视",
    "Title": "《RM》不能停播的理由？一张图令韩国网友服了_网易娱乐",
    "PublishTime": "12/25/201706:36:30",
    "URL": "http://ent.163.com/17/1225/06/D6FV3JOQ00038FO9.html",
    "Article": "《RM》近日收视率回升《RM》全球排名挤进前十网易娱乐12月25日报道据台湾媒体报道，韩国综艺节目《RunningMan》原本宣布于2月停播，不过后来6位成员刘在锡、哈哈、金钟国、宋智孝、李光洙[、池锡辰等主持群便决定“跑下去”，并加入新血梁世灿、全昭旻，为了粉丝守住节目，虽然在复播后，低迷的收视成为关注焦点，不过近日有网友PO出一张图表，成功解释“《RM》不能停播的理由”。美国新闻网《商业内幕》（BusinessInsider）曾分析全球节目在网上分享、社群网站上的分享、提及以及观看次数，冠军由《冰与火之歌：权力游戏》夺下，《阴尸路》、《美少女的谎言》分别是2、3名，而《RunningMan》则夺下第9名，不仅排名挤进前10名，更是成为唯一上榜的韩国节目。其实《RM》的高人气，从2月来台举办见面会的票房，便可略知一二，主持群仅在南港展览馆举办一场，便吸金超过台币3000万元（约660万人民币），稳坐票房冠军宝座，打败人气偶像男团WANNAONE的2600万元（约572万人民币），以及“国民老公”孔刘2200万元（约484万人民币）。且近日靠着惧高的Haha体验纳维斯峡谷秋千，让节目收视率久违地出现10%以上的数字，收视明显提升，加上在全球人气居高不下，也难怪电视台不愿放弃了。本文来源：网易娱乐责任编辑：陈少杰_b6952",
    "Comment": {
        "Content": "真心喜欢他们几个，比中国版好看太多，人家是真搞笑真拼命真敬业真感情 梁世灿、全昭旻～本来对这两个人的加入很是反感，买了资源快看完了，发现梁世灿是真心适合这个节目，能接替Gary的样子。全昭旻，我不说自己感觉，老成员都有想把她捶死的感觉，真心厌恶 因为第二季开始独立运作了，之前韩国团队帮忙的。 外国人更喜欢RM 你可以不点进来看啊？进来看还评论这不是犯贱？？ 跑男第一季还行还信了之后就尴尬了 现在有些人啊自己不想看的也不准别人看，我不喜欢看韩剧日剧也不会骂喜欢看的人是傻X。 从哪里能看RM 完全相反，就喜欢妹子发疯，梁总是欺负光洙感觉不喜欢！ 韩国明星唯一不反感的就是RunningMan这些人了 我确实看这个节目很久了。一三年开始到现在 有一集是金钟国在泥浆池把刘在石的脑袋放进去了，刘在石头出来，嘴里还喷泥浆，估计在中国做不到这个😂😂😂 自然不能停播就是因为rm才知道的韩国综艺 我是死忠党，近几期都挺有意思的，毕竟追了好几年，真放不下 下载个韩剧TV就可以，不仅running还需所有的韩剧！ 改版吧，现在越来越无趣了。当当初10年和11年的时候，创意无限 好了伤疤忘了疼，萨德就这样过去了么 人家奖励10万就感觉是很多钱了，，，，相当于人民币5000啊。他们可都是综艺达人啊。所以网上流传刘在石一季不及邓超一集。 停了浙江卫视怎么抄，不能停。 七年了，穷尽了，最起码以前辉煌过 池石镇刘在石金钟国GaryHAHA宋智孝李光洙宋仲基我心中runningman一直在 看什么推荐什么，心里没点b数啊 不错的节目 希望能一直播下去 中国的跑男也好可以吧，昨天看了几分钟郑凯，王祖蓝组的一个新的节目，我除了尴尬还是尴尬，真的觉得不知道他们在干嘛。没有笑，只有苦笑 说好的7012 喜欢十年前看的韩国的《情书》这个节目 没看见CCA-V呢，我还以为十几亿起码也有个第二名 韩国综艺已经成熟到一定程度了，中国的都是业余的 因为你，我喜欢上了寂寞，喜欢上了思念。时光流转，寂寞在苦苦的侵蚀着我的心，同时把你深深的刻在我的心里，挥之不去！ 咱们确实钱多，没办法的事情 国内的能不能叫停勾心斗角演技差 宋智孝一个小姑娘居然这么放的开，玩起游戏来不顾形象，敢拼敢做的性格让人佩服，国内几个女明星能做到啊 至从狗哥走了后，就好久没看了， 不懂韩文，看字也觉得很精彩啊！中国的实在烂得看不下去~~~ 怎么屏蔽煞笔棒子的新闻？看到让人反胃想吐！太恶心了🙄🙄 572万人民币？这不是中国乡村剧团的出场价么 台湾综艺已经被干死了，TVB也已经活在回忆里了，还好韩国人不说中文。。 你要是懂韩文的话，中国版的觉得会更烂。 你去看看极限挑战 没有CCTV？ 13年才是巅峰，各种专辑，期期都很经典 换人就不想看了 现在国内还可以看吗 梁世灿、全昭旻～本来对这两个人的加入很是反感，买了资源快看完了，发现梁世灿是真心适合这个节目，能接替Gary的样子。全昭旻，我不说自己感觉，老成员都有想把她捶死的感觉，真心厌恶 看什么推荐什么，心里没点b数啊 这个叫什么文的，真心烦，每次非常的做作，很想出镜头，每次有她的镜头一直快进快进，这个人真的有问题，不适合这种团体的综艺节目，这个女的太自私了。 我的看法有点不同，刚进来时候他们都买捧梁压全，就像王鼻子这么水，但是是刘在石公司的，而梁也因为他的哥哥。而全当时进去是没有任何通告的状态。所以刘在石好多次说她不好。但是现在全的风格反而比梁更有个性。梁全程是排钟国马屁，对光洙是各种不尊重，而全反而没有对成员的针对。 七年之痒哦 b站搜下都是 可以看 我确实看这个节目很久了。一三年开始到现在 ..........我看都不敢看了,我怕看着看着就断了 我是死忠党，近几期都挺有意思的，毕竟追了好几年，真放不下 咱们确实钱多，没办法的事情 七年了，穷尽了，最起码以前辉煌过 572万人民币？这不是中国乡村剧团的出场价么 中国的跑男也好可以吧，昨天看了几分钟郑凯，王祖蓝组的一个新的节目，我除了尴尬还是尴尬，真的觉得不知道他们在干嘛。没有笑，只有苦笑 喜欢十年前看的韩国的《情书》这个节目 累啥又不是看不懂 从头开始看到改版，非常非常喜欢 没有CCTV？ 不懂韩文，看字也觉得很精彩啊！中国的实在烂得看不下去~~~ 改版吧，现在越来越无趣了。当当初10年和11年的时候，创意无限 因为第二季开始独立运作了，之前韩国团队帮忙的。 qq 怎么屏蔽煞笔棒子的新闻？看到让人反胃想吐！太恶心了🙄🙄 说好的7012 人家每周都播还基本(这里是基本二字很重要)玩的不重样，可以看出来制作他们非常敬业 谁能告诉我现在哪个平台还有看？？？？ 这是要综艺又要进入中国市场的节奏？？ 真心喜欢他们几个，比中国版好看太多，人家是真搞笑真拼命真敬业真感情 一直在看，每一期都看，最新的一期，圣诞鬼怪也挺好玩的，哈哈哈，笑死了 外国人更喜欢RM 网友到底是谁～到底是哪个国家的 跑男第一季还行还信了之后就尴尬了 在哪儿可以看呀不是禁看韩国综艺了吗 有一集是金钟国在泥浆池把刘在石的脑袋放进去了，刘在石头出来，嘴里还喷泥浆，估计在中国做不到这个😂😂😂 人家奖励10万就感觉是很多钱了，，，，相当于人民币5000啊。他们可都是综艺达人啊。所以网上流传刘在石一季不及邓超一集。 不明觉厉 从哪里能看RM 这节目还得看字幕。。不累吗。 比心 至从狗哥走了后，就好久没看了， 好了伤疤忘了疼，萨德就这样过去了么 下载个韩剧TV就可以看了！ 希望能一直播下去 当肥皂剧看还是不错的 池石镇刘在石金钟国GaryHAHA宋智孝李光洙宋仲基我心中runningman一直在 韩国综艺已经成熟到一定程度了，中国的都是业余的 请问哪里可以直接看 真心不喜欢全昭旻 你要是懂韩文的话，中国版的觉得会更烂。 下载个韩剧TV就可以，不仅running还需所有的韩剧！ 哪里现在可以看，我已经快一年没看了 我是通过跑跑男的韩版的，但是看完韩版的以后你在看跑男，就会觉得除了演员不一样，不用看字幕外其他游戏设定基本一样，还没别人搞笑 中国综艺一言难尽 换人就不想看了 没了誰日子也得过 综艺节目目的都是这个，但是演员的态度，职业程度不一样 rm最近感觉不是无趣，而是导演非要一集搞定，剪的七零八落的，不明白怎么想的 没有新闻联播呢？ 你可以不点进来看啊？进来看还评论这不是犯贱？？ 加了个微信号，那个人总发，应该不会是骗子吧 完全相反，就喜欢妹子发疯，梁总是欺负光洙感觉不喜欢！ 韩国明星唯一不反感的就是RunningMan这些人了 那又怎么样呢人家靠海外赚钱中国版的一人出场费就秒杀韩版的全部你来告诉我中国版为什么要努力你不努力钱拿的比韩国哪些玩命的多请问为什么要努力 和无限挑战比比？ 池石镇刘在石金钟国GaryHAHA宋智孝李光洙宋仲基我心中runningman一直在 昨晚突然发现了宋智孝的种子，身材嘛一般，不过片子挺劲爆的 改版吧，现在越来越无趣了。当当初10年和11年的时候，创意无限 你去看看极限挑战 666 停了浙江卫视怎么抄，不能停。 就RM七年播的量按浙江卫视十期一季的速度够播20年！ 池石镇现在走无记忆无体力路线？ 看过一点，俩女的用仿真qiang开玩笑在我们这那个节目敢？ 喜欢这节目 淘宝9.8～要么加我微信5块，哈哈 RUNNINGMAN❤️ 韩国综艺已经成熟到一定程度了，中国的都是业余的 艺人放得开 现在从哪能看到。 求哪个网站可以看，心累，追了6年了，今年已经快半年没看了 池石镇刘在石金钟国GaryHAHA宋智孝李光洙宋仲基我心中runningman一直在 七年了，穷尽了，最起码以前辉煌过 快点快点 所以一楼是个傻逼 梁世灿、全昭旻～本来对这两个人的加入很是反感，买了资源快看完了，发现梁世灿是真心适合这个节目，能接替Gary的样子。全昭旻，我不说自己感觉，老成员都有想把她捶死的感觉，真心厌恶 怎么屏蔽煞笔棒子的新闻？看到让人反胃想吐！太恶心了🙄🙄 国内的，跟过家家似的 中国的RM简直是演戏。根本不是真心娱乐大众。 超级不喜欢全 你不总看这类新闻自然不会推送给你谁的问题 请问哪里可以买资源看啊 溜达溜达 韩剧tv或者b站 最近是好看了 真心喜欢他们几个，比中国版好看太多，人家是真搞笑真拼命真敬业真感情 你还有理了？ 骗小孩的节目 在哪里可以看 一楼从内到外散发着弱者的气息 国内都是看剧本演戏！虽然我没看过韩国的 B站免费啊，关注UP主“一只南音呀”，每期都有。 自然不能停播就是因为rm才知道的韩国综艺 怎么消灭这样的傻逼 都这么多年了，你还想要怎么创新，已经很难了，脑袋都想秃了，13，14年是巅峰，虽然很想支持国产，不过你们都懂的…… 《新声音》《大本营》呢？ B站关注UP主“一只南音呀”，每周都更新。 浙江版国内团队还是很用心的，会插花抄[微笑] 根本上说是人的问题，为了利益不择手段，颠倒黑白，糊弄观众 阴尸录，不就是walkingdead吗，小编是台湾的吧 哪里现在可以看，我已经快一年没看了 韩国的娱乐节目确实好看一些，但对韩国人和朝鲜族十分恶心厌恶。 台湾综艺已经被干死了，TVB也已经活在回忆里了，还好韩国人不说中文。。 你想钱想疯了吧，网上随便搜都有了 中国的是真尴尬 bilibili 去下载韩剧tv 梁世灿、全昭旻～本来对这两个人的加入很是反感，买了资源快看完了，发现梁世灿是真心适合这个节目，能接替Gary的样子。全昭旻，我不说自己感觉，老成员都有想把她捶死的感觉，真心厌恶 啊撒，加油 上一次的那个手机软件广告，打的让人措手不及啊？中国快手 中国的真人秀节目剧本的痕迹太明显了，没意思。就极限挑战的第一季好一点，里面的人经常不按套路和规则出牌有点看头。 RealMadrid? 喜欢看心理测试的那几期，都很搞笑。 哪里现在可以看，我已经快一年没看了 这是多老的新闻呀 国内的能不能叫停勾心斗角演技差 一切的問題都是人的問題，都是制度的問題，都是意識形態的問題 感觉你的生活不如意，说出来大伙帮帮忙 韩国综艺已经成熟到一定程度了，中国的都是业余的 哪里可以看到啊，哪里可以看到啊，找不到资源好久了，跪求资源 坚持住啊 一筐猪最搞笑 七年了，穷尽了，最起码以前辉煌过 人家是在认真做事业！我们只会买版权，然后请一些所谓大牌来玩票而已！ 改版吧，现在越来越无趣了。当当初10年和11年的时候，创意无限 一直坚守，从未放弃，RM继续跑下去！ 哦吕姐 同感 女咯的 真心喜欢他们几个，比中国版好看太多，人家是真搞笑真拼命真敬业真感情 只不过是韩服可以买人物而国服是要升级才能拿就这样而已啊 宋智孝之前不是説走了嗎 加了个微信号，那个人总发，应该不会是骗子吧 饿了我 我加了一个微信号，他每周都发资源，还不错 以前期期看。。真的很喜欢 不错的节目 梁世暂没有融入他每期都是固定套数损光洙，哈钟国。全算是融入了，虽然有些无厘头 13年才是巅峰，各种专辑，期期都很经典 而且他们玩起来是真玩 没看见CCA-V呢，我还以为十几亿起码也有个第二名 因为你，我喜欢上了寂寞，喜欢上了思念。时光流转，寂寞在苦苦的侵蚀着我的心，同时把你深深的刻在我的心里，挥之不去！ 怎么屏蔽煞笔棒子的新闻？看到让人反胃想吐！太恶心了🙄🙄 宋智孝一个小姑娘居然这么放的开，玩起游戏来不顾形象，敢拼敢做的性格让人佩服，国内几个女明星能做到啊 狗哥走了后再也没看过了 再过100年～韩国综艺节目移动支付是韩国人创造的！原因马云姓马，韩国历史上曾有马韩，马云其实是韩国人！ 呵呵哒 今年日本媒体报道出第几个第一了。。 大sb，阮经天属于三观较正的台湾艺人了。上央视的真人秀节目能是台独？ 哪里看… 不能停播啊，每周一唯一的期待！ 都没 [惊讶][大笑] 概括的很对 本来 ",
        "Reply": 154,
        "Link": "http://comment.ent.163.com/ent2_bbs/D6FV3JOQ00038FO9.html",
        "Total": 1788
    }
}