{
    "Title": "97年张雪迎汇报演出演绎交际花 表现成熟颇具风情_网易娱乐",
    "URL": "http://ent.163.com/17/1229/00/D6PJ1N5H00038FO9.html",
    "Source": "Netease",
    "Article": "张雪迎中戏汇报演出演绎交际花陈白露张雪迎中戏汇报演出演绎交际花陈白露张雪迎中戏汇报演出演绎交际花陈白露网易娱乐12月29日报道12月28日晚，张雪迎粉丝后援会通过微博曝光一段张雪迎中戏汇报演出、挑战上世纪有名的交际花陈白露的演出片段。并称赞道：“在《日出》中我们看到了一个不一样的张雪迎，也看到了全新的陈白露。而她也在不断挑战新的角色，我们为你打call。”视频中，张雪迎身穿红色亮片抹胸长裙，头发盘在脑后，在片中被深爱着她的男子表白，她却无动于衷，各种刁钻为难，演绎出了陈白露的高傲与风情。此视频曝光后，惹得众网友纷纷围观并留言点赞，称：“挑战自己才是最完美的，张演员棒棒的哟！”“为张演员疯狂打call，一直不断挑战自己，很努力！”“精堪的演技终会放光彩。”本文来源：网易娱乐责任编辑：陈少杰_b6952",
    "PublishTime": "12/29/201700:18:09",
    "Comment": {
        "Total": 339,
        "Content": "对他没印象。 呵呵 她的戏路蛮宽的可塑性强一定会大火 本色出演 我觉得张雪迎挺好演技在同年龄人中算佼佼者了很谦虚 呵呵什么 长得一般了点 长得不错~但是..她是谁？ 这么大岁数了还出来 老板，还有没有胡萝卜？老板：吃的用的？用的，老板：没有了……没有了。。。。。。 有点汤唯的感觉 不是很适合，脸太嫩了，适合妹妹，初恋，那种清纯角色 有演技。风骚啊。 刘嘉玲演起来更好 说实在的，张雪迎这么好的姑娘没人夸，欧阳娜娜演成那样一堆人夸！ 呵呵什么 对他没印象。 呵呵 她的戏路蛮宽的可塑性强一定会大火 本色出演 是有点 我觉得张雪迎挺好演技在同年龄人中算佼佼者了很谦虚 说实在的，张雪迎这么好的姑娘没人夸，欧阳娜娜演成那样一堆人夸！ 长得一般了点 长得不错~但是..她是谁？ 这么大岁数了还出来 10 这些小姑娘演闺女的，我就觉得我的体育老师里的那个不知道叫啥的演的好。 老板，还有没有胡萝卜？老板：吃的用的？用的，老板：没有了……没有了。。。。。。 有点汤唯的感觉 有演技最重要 说实在的，张雪迎这么好的姑娘没人夸，欧阳娜娜演成那样一堆人夸！ 有演技。风骚啊。 不知道被多老板和导演艹过了本色出演 刘嘉玲演起来更好 不是很适合，脸太嫩了，适合妹妹，初恋，那种清纯角色 ",
        "Reply": 21,
        "Link": "http://comment.ent.163.com/ent2_bbs/D6PJ1N5H00038FO9.html"
    },
    "KeyWords": "张雪迎,交际花,陈白露,中戏"
}