{
    "Article": "网易娱乐12月29日报道近日，刘昊然身着蓝色长款羽绒服搭配棒球帽，全副武装现身机场，青春无敌。现场也有众多粉丝接机，更是有几位激动的粉丝无法控制自己的爱意，叫着刘昊然的名字疯狂表白。然而，刘昊然行色匆匆戴着耳机不予理会，估计是担心打扰机场其他路人，直至走出几步，又回头跟粉丝打招呼，可谓相当暖心了。有趣的是，刘昊然快步走出机场后，又有粉丝向刘昊然送上一厚摞书。网友也是调侃道：“是想昊然弟弟去考研吗哈哈哈”。本文来源：网易娱乐责任编辑：张悦_NBJS5410",
    "URL": "http://ent.163.com/17/1229/14/D6R4B7S500038FO9.html",
    "Source": "Netease",
    "KeyWords": "刘昊然,机场,泥石流,表白",
    "Comment": {
        "Reply": 9,
        "Link": "http://comment.ent.163.com/ent2_bbs/D6R4B7S500038FO9.html",
        "Total": 10,
        "Content": "沙发 亲自和她说 这煞笔，是谁？后面拍照女的是真丑🙄 老白写的这个不错 继续努力 后面的土肥圆，哈哈 哈哈哈哈 加油小哥哥 我靠，包成这样都能认得出来 "
    },
    "Title": "饭圈泥石流！刘昊然现身机场遭迷妹送书示爱_网易娱乐",
    "PublishTime": "12/29/201714:39:42"
}