{
    "URL": "http://war.163.com/17/1228/08/D6NR5F1J000181KN.html",
    "Comment": {
        "Reply": 4,
        "Content": "可能是被我的遥控器干扰。 我都跳到这两天也不好用。 可能是被我的遥控器干扰。 俄罗斯空天军万岁。 安格拉是什么鬼？ ",
        "Total": 9,
        "Link": "http://comment.war.163.com/news_junshi_bbs/D6NR5F1J000181KN.html"
    },
    "Title": "首枚俄制安格拉卫星升空后失联 或已失灵_网易军事",
    "Source": "Netease",
    "KeyWords": "安格拉,卫星,失联,俄罗斯",
    "PublishTime": "12/28/201707:58:00",
    "Article": "（原标题：首枚俄制安格拉卫星升空后失联或已失灵）【环球网综合报道记者朱梦颖】11月气象卫星发射失败之后，俄罗斯航天事业再次遭遇挫折。德国《法兰克福环视报》27日报道称，俄罗斯太空总署发言人当日表示，该国26日发射的首枚俄制安格拉通讯卫星(AngoSat-1)已与地面失联，目前仍未到达指定轨道位置。俄罗斯卫星通讯社消息称，俄罗斯“能源”火箭航天公司27日在其网站上发布消息称：“AngoSat-1号卫星在预定时间内进入既定轨道并发出信号，但一段时间后遥测信号中断。”另据香港东网消息，俄罗斯消息人士称：“AngoSat-1号卫星升空后，围绕地球轨迹运行时仍运作正常，但随后便失去联系。遥感勘测数据也并未送返，估计卫星或已失灵。”不过，有关人士认为这一情况较为普遍，或可与失联卫星重新取得联系。美国的太空监测系统则显示，卫星仍在指定轨道之中。当地时间12月26日晚，搭载了安格拉通讯卫星的、乌克兰制“泽尼特”运载火箭发射器升空。该枚通讯卫星旨在改善非洲西南部安格拉的卫星通信、互联网接入及电视广播服务。本文来源：环球时报-环球网。更多精彩，请登录环球网http://www.huanqiu.com责任编辑：姚文广_NN1682"
}