{
    "Article": "（原标题：关于12月17日海南航空HU7440航班事件的情况说明）关于12月17日海南航空HU7440航班事件的情况说明女子飞机上昏厥抢救无效身亡家属:航空延误时间12月17日，厦门市民小符的母亲符明云女士，在搭乘海南航空HU7440航班的途中昏厥，最终不幸去世。小符难以接受这样的事实，“从此以后，我再也没有妈妈了”。小符等家属认为航空公司延误了抢救时间。海南航空则回应，正在和家属沟通并协助后续处理，对恶意诋毁将追责。本文来源：海南航空责任编辑：程钢_NN7377",
    "Title": "旅客空中昏迷被送医后死亡 海航:处置过程符合规范_网易新闻",
    "PublishTime": "01/02/201814:45:48",
    "Source": "Netease",
    "Comment": {
        "Content": "你再也没有妈妈了，你要为你妈好，不要让她坐飞机啊 这就是上天堂了！ 走哪讹哪 航空公司也难做 开启死哪讹哪模式。 无良媒体又要开始狂欢了 意思看来海航的钱不好讹啊！ 那部飞机不吉利了，死者应该赔偿航空公司损失 符合规范就不要讹人了 飞机经停南昌，所有乘客都应该先下飞机，航班乘务组不应因为乘客身体虚弱允许其呆在飞机上，更不能允许顾客以这样虚弱的状态开始第二段航程，机组的失责是显而易见的，最起码，在乘客已经在第一段航程中犯病并被紧急救治的情况下，到达南昌后应和乘客沟通，并联系机场地面工作人员，由地面的医护人员来检查并照顾乘客身体状况。如果乘客坚持要飞第二段航程，也应先下机休息，重新起飞前，机组人员应再次和乘客确认身体状况，这才是负责人的做法。就简单得说，如果是机组人员的妈妈，在妈妈已经犯或一次病的情况下，你们会允许自己的妈妈这样冒险吗 这就是典型的死哪讹哪心理 这不能怪人家航空公司吧？ 快死的人一定要定飞机票上飞机...商机啊！ 可以讹一下…… 治得了病救不了命。有些事真没办法 哎可怜 本來就符合規範 家属节哀，但支持HU 那当然，理由多了去了，你逃不掉[不屑]横竖就是赔 怎么叫不耽误啊！ 我相信航空公司 不管怎么说人是在飞机上没的，多少总得赔一部分吧。 就算无责任也是要赔的 你也不看海航姓啥 以后建议全程用执法记录仪跟拍，两台以上，没记录就败诉，这下两边都有利 强行让其下机，途中心脏病犯了死了是不是也得负责任？ 死哪讹哪 典型的电动车撞汽车汽车最少10%··· 想讹啊？ 死哪讹哪 华为盘🐶 赔钱，莫说那么多。彪悍的人生不需要解释。 不知道可以饿几万？ 哪里有钱死哪里！ 不是返航了吗？那是打算叫飞机在医院降落吗？ 新闻很短！ 只要真心尽力就好！ 什么病？ 符合规范就不要讹人了 这就是典型的死哪讹哪心理 哎可怜 想讹啊？ 还是人有问题还是法律有问题还是几个狗屁律师有问题还是狗日法官有问题 本來就符合規範 那部飞机不吉利了，死者应该赔偿航空公司损失 麻痹的都不能评论了。 那当然，理由多了去了，你逃不掉[不屑]横竖就是赔 治得了病救不了命。有些事真没办法 以后建议全程用执法记录仪跟拍，两台以上，没记录就败诉，这下两边都有利 强行让其下机，途中心脏病犯了死了是不是也得负责任？ 还是高铁，动车好 我不信。 飞机经停南昌，所有乘客都应该先下飞机，航班乘务组不应因为乘客身体虚弱允许其呆在飞机上，更不能允许顾客以这样虚弱的状态开始第二段航程，机组的失责是显而易见的，最起码，在乘客已经在第一段航程中犯病并被紧急救治的情况下，到达南昌后应和乘客沟通，并联系机场地面工作人员，由地面的医护人员来检查并照顾乘客身体状况。如果乘客坚持要飞第二段航程，也应先下机休息，重新起飞前，机组人员应再次和乘客确认身体状况，这才是负责人的做法。就简单得说，如果是机组人员的妈妈，在妈妈已经犯或一次病的情况下，你们会允许自己的妈妈这样冒险吗 华为盘🐶 就算无责任也是要赔的 不知道可以饿几万？ 哪里有钱死哪里！ 不是返航了吗？那是打算叫飞机在医院降落吗？ 你再也没有妈妈了，你要为你妈好，不要让她坐飞机啊 只要真心尽力就好！ 这就是上天堂了！ 走哪讹哪 航空公司也难做 开启死哪讹哪模式。 意思看来海航的钱不好讹啊！ 快死的人一定要定飞机票上飞机...商机啊！ 这种事情每年都发生.希望今年是最后一次 尸检啊 海航啊，懂了 家属节哀，但支持HU 怎么叫不耽误啊！ 我相信航空公司 不管怎么说人是在飞机上没的，多少总得赔一部分吧。 赔钱，莫说那么多。彪悍的人生不需要解释。 你也不看海航姓啥 可以讹一下…… 死哪讹哪 典型的电动车撞汽车汽车最少10%··· 无良媒体又要开始狂欢了 死哪讹哪 这个没啥好黑，应该有赔偿吧 没有跟帖？ 中或赢 海航，呵呵 支威希 航空公司这次绝对破产，哈哈 这不能怪人家航空公司吧？ 没有细节，就知道一说明 ",
        "Reply": 53,
        "Link": "http://comment.news.163.com/news_shehui7_bbs/D75E994J0001875P.html",
        "Total": 589
    },
    "KeyWords": "旅客,昏迷,海航,航班",
    "URL": "http://news.163.com/18/0102/14/D75E994J0001875P.html"
}