{
    "Source": "Netease",
    "KeyWords": "普吉,溺水,泰国,中国",
    "Title": "中国男子与女友游泰国普吉 入住酒店前溺水身亡_网易新闻",
    "PublishTime": "12/25/201709:24:00",
    "URL": "http://news.163.com/17/1225/09/D6G93NIN00018AOQ.html",
    "Article": "（原标题：中国男子与女友游泰国普吉入住酒店前溺水身亡）中新网12月25日电据泰国《世界日报》报道，一名中国男子ANHUIFENG(音译，26岁)于当地时间23日早上7时，和女友抵达泰国普吉府甲涂县芭东海滩。入住酒店前两人先去玩水，男子不幸溺水身亡。因AN先生与女友订的酒店要中午12时才能登记入住，于是两人决定入住前先下海玩玩水。不幸的是，当天早上8时许，AN先生发生了溺水事故，最终抢救无效身亡。目前警方已联系AN先生的姐姐，择日将送AN先生的遗体回中国。据悉，AN先生与女友原本打算先在芭东住上两天，再前往普吉府直辖县卡隆海滩玩两天，而后再去清迈府玩5天，可惜第一站还没入住就发生了意外。本文来源：中国新闻网责任编辑：邵小波_NN2479",
    "Comment": {
        "Content": "去趟普吉岛比去海南三亚便宜多了再说也没人宰你 这新闻的目的是想赖酒店不给入住？ 你要找的是60公斤那种么？ 不和我语文话的人打交道，太绕[微笑] 哎..要注意安全...要注意人身安全 应该是胆子太粗走太远了不知道一浪拍下来就把你拖往前好几米然后越和浪对着干越回不到浅滩直到精疲力尽最后呛死别问我这么知道第一次去海岛玩差点回不来还好我机智随波逐流回到了沙滩 可不，你去甘肃，还有贵的酒店呢 有钱人的度假 100%扯，经常看到的是一群小孩不会游泳，救人全溺水 淹死的都是会水的 肢体语言懂不懂？ 东南亚旅游相对国内便宜多了吃的也放心日本小贵但是你买点东西带回来也就把差价找回来了。韩国最好别去旅游没什么玩的还贵 有文化 问下大家，想去泰国可是我不会英语，又不想跟团去，咋整？ 最喜欢海边但对大海有恐惧 我是外地的，刚来苏州，不小心被蜈蚣虫咬了口，不久伤口开始肿胀。吃药打针都没得用，看到没办法了，正好遇到个道士。道士说：我遇到的乃是百年蜈蚣精，要治好的话还得要去寻找它的天敌。所以问大家，苏州木渎附近哪里有鸡？ 建议去福建福州 比三亚便宜 下海淹死属于意外了 曼谷的前台很多会说中文 还有个方法更灵验，可以治本，就是：把肿胀的部位整体割掉… 应该是遇上了离岸流，这种东西很危险，一定要大力科普一下，去海边玩的朋友一定都要知道。现在仍不懂的人赶快搜索一下补补课，不用谢。 五年前我去泰国普吉岛，也是在芭东海滩，差点淹死。过程去下，早上浪比较小，感觉人多安全，不知不觉胆子大了不知怎么回事，距离岸越来越远，最后发现脚已无法落地，惊恐之下连忙往回游，根本回不来浪开始大，你不论如何游就是回不去。我的外边或者说附近仅仅只有一个人，我连忙呼喊救命，老外到我身边小心拉着我回到了安全处。至今想起来心有余悸。这次还是蜜月期间旅行。哎 海滩还是东南亚的好 东北老乡在我特么更不敢去了[可怜][可怜] 东南亚恐怕也就泰国最便宜，听说新加坡一碗米饭几十块玩不起。 靠谱多了 老话说：远怕水，近怕鬼。<br>远怕水是指在陌生的地方，对水域情况不了解，此时要格外小心。<br>近怕鬼是指人容易对熟悉的地方心生恐惧，因为知道哪里出过事、哪里埋过人，容易疑神疑鬼。<br><br>东南亚一带海滩的特点是海滩整体比较陡，往里走不多远水就很深，不像黄海渤海，坡度很缓。 东南亚的海完全不比其他地方差，如果综合考虑路程长短购物便捷饮食习惯，东南亚几乎就是首选，不仅仅是因为便宜 香港街 农贸市场呀[狗][狗] 去就是啦。有手机翻译软件。淘宝可订接送和包车一日游。 dddd 韩国的那次，几百人下去了，都回来了，关键是要有常识 没水性带个游泳圈不丢人～ 下一个出国翻译官，去哪都没问题 很多浅海都有暗流，就算水性好的也要小心 别酸泰国真不贵，比很多国内游都便宜 哦明白了，去那些东南亚好像真的淹死人很多，原来是这个原因，就海南的海已经比较陡了 水性不好一定要穿救生衣再下海玩！ 这么严重？去医院吧，别信那些偏方。 那是你没看见贵的地方，贵的酒店餐厅能和上海北京拼一下 会中文的很多，而且很多都是东北老乡，别怕，只管去 泰国比三亚靠谱 派出所旁边找，那里安全又舒适 他被咬的地方可能是老二。肿得实在受不了的话，就撸撸。一样解毒 几十？这价格只能吃到给鸡吃的，简称鸡饭 哪里有 浮潜更要注意安全!! 在泰国不讹酒店？太不适应这个结果了，这要是在中国，律师必须“讨个说法”！ 敢问被咬的可是不可描述的地方[狗] 比三亚便宜 才去三亚玩在一个人比较少浪比较大的海边喇叭一直放着小心暗流不要下水还是有人一直下水玩外国人中国人都有还是胆子大 因为外国水深火热，新闻必须多报道 哎..要注意安全...要注意人身安全 香港街，花苑街 这要几十年修为的鸡才行 有钱人的度假 泰国我们这3800……海参崴560…… 别酸泰国真不贵，比很多国内游都便宜 嫖个娼让你说的那么高雅[惊讶] 淹死的都是会水的 711和全家便利店都可以用微信和支付宝，啥也不用说，会掏手机就行。 去沃尔玛就有，一斤8-20元不等，去买吧 问下大家，想去泰国可是我不会英语，又不想跟团去，咋整？ 有文化 大象踩死一个，又淹死一个，泰国不能去啊 说你傻逼不知道有人给我点赞么 最喜欢海边但对大海有恐惧 可怜啊！ 江边长大的告诉你。游泳池水位到脖子没问题，下河我是到腰部就不会往前走了。 可不，你去甘肃，还有贵的酒店呢 老司机 我去国内旅游从不报团。 巴东其实还好啊不是很大浪。这是往海里走了多远。而且是不是不在游泳区里 五年前我去泰国普吉岛，也是在芭东海滩，差点淹死。过程去下，早上浪比较小，感觉人多安全，不知不觉胆子大了不知怎么回事，距离岸越来越远，最后发现脚已无法落地，惊恐之下连忙往回游，根本回不来浪开始大，你不论如何游就是回不去。我的外边或者说附近仅仅只有一个人，我连忙呼喊救命，老外到我身边小心拉着我回到了安全处。至今想起来心有余悸。这次还是蜜月期间旅行。哎 现在亚洲也就泰国能去玩了 淹死的都是会水的，懂这句话的意思吗？文盲瞎乱用 养鸡场里有很多鸡 以为自己水下小白龙，下去被浪越带越远咯 没跟团，没住酒店…<br>试试看政府给不给赔偿吧…<br>nozuonodie 东北老乡在我特么更不敢去了[可怜][可怜] KFC 靠谱多了 不要怕我已经去过了。把灰机坐掉了，国内是显示登记时间，曼谷显示的是起飞时间。其他没遇到什么问题。出发前我们把什么酒店订单啊，这些全打印了，要不就是手机图片。全程不说话给东西他们自己看。 东莞 澳大利亚不是公布在泰国旅游出现意外几率最高 老话说：远怕水，近怕鬼。<br>远怕水是指在陌生的地方，对水域情况不了解，此时要格外小心。<br>近怕鬼是指人容易对熟悉的地方心生恐惧，因为知道哪里出过事、哪里埋过人，容易疑神疑鬼。<br><br>东南亚一带海滩的特点是海滩整体比较陡，往里走不多远水就很深，不像黄海渤海，坡度很缓。 完了，女的玩的心情全没了 你这是黑甘肃么 海水的浮力大，在游泳池能游200米，海里能游2公里～ 谁家的二代，死的太亏了，才20多岁 农贸市场呀[狗][狗] 去就是啦。有手机翻译软件。淘宝可订接送和包车一日游。 dddd 外出旅游，买足保险 曼谷的前台很多会说中文 下一个出国翻译官，去哪都没问题 没水性带个游泳圈不丢人～ 酒店有责任，索赔，你为什么不拦着？ 大部分能说英语，很少人会中文。英文不是很好。点错了一次菜。愧对我高中英语老师。回去温习下英语，我觉得我还是有能用到的一天。 菜市场 炮打多了腿软 我是外地的，刚来苏州，不小心被蜈蚣虫咬了口，不久伤口开始肿胀。吃药打针都没得用，看到没办法了，正好遇到个道士。道士说：我遇到的乃是百年蜈蚣精，要治好的话还得要去寻找它的天敌。所以问大家，苏州木渎附近哪里有鸡？ 如果是华为脑残喷，人在公共海滩，关酒店P事。 二线城市的表示不去了，继续吸雾霾 会中文的很多，而且很多都是东北老乡，别怕，只管去 泰国比三亚靠谱 一楼多出去看看很多国家比海南、云南便宜！ 花苑街 为什么外国老是淹死人啊？ 哦明白了，去那些东南亚好像真的淹死人很多，原来是这个原因，就海南的海已经比较陡了 几十？这价格只能吃到给鸡吃的，简称鸡饭 自己的命要自己爰惜游泳很危险的腿一抽筋心脏病都会淹死没命了多可惜 我是外地的，刚来苏州，不小心被蜈蚣虫咬了口，不久伤口开始肿胀。吃药打针都没得用，看到没办法了，正好遇到个道士。道士说：我遇到的乃是百年蜈蚣精，要治好的话还得要去寻找它的天敌。所以问大家，苏州木渎附近哪里有鸡？ 你自己不就是老司鸡么 这个微信附近的鸡啊…… 你要找的是60公斤那种么？ 这个要找专业的，普通人不晓得。我可以提供专业咨询电话：幼幼灵 送医院了没有？只要给医院打过一个电话就有门儿 不和我语文话的人打交道，太绕[微笑] 这样新闻就别播放了，每天每个城市都会有车祸和死亡，再播放有什么意思呢。 很久了吧，现在哪里还有7天2000的！上次去泰国7天8000不算购物的。整体来说也比国内便宜了 泰国去不得 这新闻的目的是想赖酒店不给入住？ 很正常不作死就不会死 最喜欢海边但对大海有恐惧 真是倒霉的家伙！ 建议去福建福州 下海淹死属于意外了 你妈就是 我是外地的，刚来宁波，不小心被蜈蚣虫咬了口，不久伤口开始肿胀。吃药打针都没得用，看到没办法了，正好遇到个道士。道士说：我遇到的乃是百年蜈蚣精，要治好的话还得要去寻找它的天敌。所以问大家，宁波海曙区附近哪里有鸡？ 应该是遇上了离岸流，这种东西很危险，一定要大力科普一下，去海边玩的朋友一定都要知道。现在仍不懂的人赶快搜索一下补补课，不用谢。 比如同在南边的三亚。 他广西的去越南北部玩，路费应该比去惠州还便宜 在国外不好使 还有个方法更灵验，可以治本，就是：把肿胀的部位整体割掉… 他被咬的地方可能是老二。肿得实在受不了的话，就撸撸。一样解毒 是的 吃不贵，住也不贵，妹子便宜， 这怎么讹？求解？ 今年去了3次了。还行，不错。 我怎么只听过：远不赌，近不嫖呢？ 木渎菜场 木渎中学前一个路口转左然后走600米转右直行300米有🐔卖 深圳很多鸡，公交鸡！ 这回告大海？ 香港街 老话说：远怕水，近怕鬼。<br>远怕水是指在陌生的地方，对水域情况不了解，此时要格外小心。<br>近怕鬼是指人容易对熟悉的地方心生恐惧，因为知道哪里出过事、哪里埋过人，容易疑神疑鬼。<br><br>东南亚一带海滩的特点是海滩整体比较陡，往里走不多远水就很深，不像黄海渤海，坡度很缓。 一样，喜欢大海，但是对大海深深敬畏！ 小心仙人跳，近了熟悉情况。 应该是，然后旅游团，沙滩主人都得来一遭 韩国的那次，几百人下去了，都回来了，关键是要有常识 我也在海边游泳被海浪卷进大海游不出来，然后马上求救，后来实在没劲了突然想到学游泳时练的漂，我翻身一下就浮起来了漂在海里，不一会同事游过来扔个游泳圈。 别酸泰国真不贵，比很多国内游都便宜 菜市场 很多浅海都有暗流，就算水性好的也要小心 花苑街 有钱人的度假 水中放炮，功夫好高难度姿势的一般不会哑炮。但是，一旦炮响之后，爆炸产生的威力和兴奋感足以让炮手腿脚抽筋、瞬间毙命！ 其实去哪并不贵，关键是看你吃撒住撒 这么严重？去医院吧，别信那些偏方。 没活动开，估计水性也一般 性价比超高的但得守规矩人家不让下海的地儿千万不能下 派出所旁边找，那里安全又舒适 亏大了，这次真的没办法讹了，若在本国，，，，，， 不幸啊，竖着进去横着出来。 问下大家，想去泰国可是我不会英语，又不想跟团去，咋整？ 哪里有 木渎花苑街西头那里有你想要的 苏州有那么多鸡精[窃笑][窃笑] 没水性带个游泳圈不丢人～ 那里被咬了？是脚吗？ ：我要宣布一件事情，大家还记得2011年的抢盐的事情吗？我家里的盐在今天，就是今天，终于吃完了，吃完了呀！我的个亲娘啊！终于给吃完了。​​​ 应该是胆子太粗走太远了不知道一浪拍下来就把你拖往前好几米然后越和浪对着干越回不到浅滩直到精疲力尽最后呛死别问我这么知道第一次去海岛玩差点回不来还好我机智随波逐流回到了沙滩 媒体开始集中抵制泰国了，估计又什么要涨价了吧 不会水性别游那么出 去趟普吉岛比去海南三亚便宜多了再说也没人宰你 哎！ 芭东的海滩。海浪很大。也很少看见急救人员。会不会水。带不带游泳圈都不建议往深处走。 傻逼这个点的浪是很大的不穿救生衣就是找死 香港街 淹死的都是会水的 恭喜。空下来地方可以屯醋屯板蓝根了。 青楼巷 前年。。自己去呀，我懂一些越南话，精通泰国。。 别酸泰国真不贵，比很多国内游都便宜 灵岩山上有。 当心蜈蚣毒解了又得鸡瘟 我靠，服了！！就服你！ 水性好也要注意，海里面根本游不动，以前我就差点把小命留在马尔代夫了 这个需要泰国的海滩管理部门负责了吧，发扬大陆人民走哪讹哪的优良传统 我是外地的，刚来苏州，不小心被蜈蚣虫咬了口，不久伤口开始肿胀。吃药打针都没得用，看到没办法了，正好遇到个道士。道士说：我遇到的乃是百年蜈蚣精，要治好的话还得要去寻找它的天敌。所以问大家，苏州木渎附近哪里有鸡？ 你千万别学游泳！ 太兴奋了 水性不好一定要穿救生衣再下海玩！ 如果不购物，泰国玩下来比海南便宜而且海更美一些（一年里又去海南又去普吉的飘过） 有钱人的度假 告谁？讹谁？ 情葬大海 意外 澳门街 吴中湄长路东环徐家浜 关键比国内好玩，服务好，这踏马就尴尬了 木渎就是个娱乐圈唉！ 你广西去越南说不定比去广东还近。。。 利害 我是外地的，刚来苏州，不小心被蜈蚣虫咬了口，不久伤口开始肿胀。吃药打针都没得用，看到没办法了，正好遇到个道士。道士说：我遇到的乃是百年蜈蚣精，要治好的话还得要去寻找它的天敌。所以问大家，苏州木渎附近哪里有鸡？ ",
        "Reply": 167,
        "Link": "http://comment.news.163.com/news2_bbs/D6G93NIN00018AOQ.html",
        "Total": 1197
    }
}