{
    "Comment": {
        "Content": "勇敢的人耶[鄙视][鄙视][鄙视] 注意自身安全 好胆识...安全第一..... 这伙计还活着吗？ 有本事你跑啊[大笑] 好胆识...安全第一..... 等等没有观众?放几个村名吧 这伙计还活着吗？ 勇敢的人耶[鄙视][鄙视][鄙视] 注意自身安全 常在河边走 不作不死 只能中午走 ",
        "Link": "http://comment.news.163.com/news2_bbs/D7874CMC000187VE.html",
        "Reply": 9,
        "Total": 46
    },
    "KeyWords": "悬崖村,走钢梯,直播",
    "PublishTime": "01/03/201816:25:00",
    "Title": "四川\"悬崖村飞人\"辟谣\"无防护直播走钢梯\":未直播_网易新闻",
    "Source": "Netease",
    "Article": "（原标题：四川“悬崖村飞人”辟谣“无防护直播走钢梯”：从未直播过）法制晚报·看法新闻消息，自有着“高空极限运动第一人”吴咏宁在长沙坠亡后，极限挑战视频、直播一度被各大平台封禁关停。近日，有媒体报道称，四川凉山有“悬崖村飞人”称号的莫色拉博，全程无防护直播走钢梯。1月2日，莫色拉博告诉法制晚报·看法新闻记者，他无防护走钢梯一共有两次，并且没有直播。莫色拉博第一次走钢梯莫色拉博今年24岁，是土生土长的悬崖村人，他从小就喜欢高空、攀岩，并且身体素质较好，是村里的“运动健将”，在修建钢梯时，拉博主动请缨，冒险完成了观景台的打孔任务，观景台因而取名拉博站。钢梯修成后，拉博只用18分钟就能从山上的勒尔社跑到山下的牛觉社，因这“飞一般的速度”，被当地村民称为“悬崖村飞人”，也因此，他被旅游公司相中，成为当地第一个被旅游公司正式聘用的员工。五个月前，拉博开始接触直播，他上传的悬崖村视频迅速走红网络，他觉得可以通过网络把悬崖村推出去，便开启了直播，用他的镜头打开了悬崖村通向外界的另一条路。现在拉博是村里当红的“大主播”，拥有粉丝12.5万，但他初心未改，依然想用自己的双手建设好家乡。莫色拉博第二次走钢梯对话：这种事情怎么可能直播呢？法制晚报·看法新闻：有媒体报道你无防护直播走钢梯，是真的吗？莫色拉博：如果真的直播在上面走的话，真是脑子有病了。我一共就走过两次，那时候也没有直播，这种事情怎么可能直播呢？很危险的。法制晚报·看法新闻：两次走钢梯都是在什么时候？莫色拉博：第一次是在钢梯还没完全修好的时候，我和一个朋友在拉博站那聊天，朋友说谁能上去走一圈，然后我觉得也没什么难度就去试了试。当时我朋友帮我拍了段视频，可能是一直生活在悬崖上的原因吧，当时并没有觉得有多危险。第二次是在几个月以后吧，我的一些小伙伴知道这个事以后都想看看，然后我就去又走了一次。法制晚报·看法新闻：后来为什么不走了？莫色拉博：因为有朋友把视频发到网上，被我们村书记看到了，他把我叫过去很严厉地批了一顿，并且告诉我很危险，我就再也没走过了。并且我朋友发了这段视频到网上，很多网友的评论也不好，我也不想走了。法制晚报·看法新闻：台子有多高？莫色拉博：从峡谷底下算的话400米左右吧，算是在钢梯的中间部分。法制晚报·看法新闻：这么危险，你怎么就敢尝试呢？莫色拉博：可能和生活环境有关系，我从小在这里生活，熟悉这里的一草一木，并且我也经常爬上爬下的，这已经是我生活的一部分，所以不觉得有多危险。法制晚报·看法新闻：听说这个观景台的名字是用你的名字命名的？莫色拉博：对，当时在修建钢梯的时候因为这个地方比较陡峭危险，不好打孔，我就爬到崖顶上用绳子把我吊下来，一手拿着打孔机打的孔，后来这个观景台命名的时候就用了我的名字，并且村里很多难修、危险的路段，都是我去勘测的。法制晚报·看法新闻：你是怎么做起直播的？莫色拉博：五个月以前吧，刚接触直播觉得挺有意思，就上传了几段视频，每段都上了热搜。我觉得这是一种让外界了解悬崖村的方式，就开了直播，我就偶尔播一下，也没有什么固定的时间。法制晚报·看法新闻：听说你还是你们村的飞人？莫色拉博：我自己的身体素质比较好，刚修好钢梯那会就试了试，18分钟能从山上的勒尔社跑到山下的牛觉社，算是村里最快的了，所以才有了这个称号。法制晚报·看法新闻：现在都在做什么工作？莫色拉博：平时在公司上班，没事的时候就直播。法制晚报·看法新闻：以后有什么打算？莫色拉博：也没什么想法吧，就是还想待在村里，把村子建设好，我最近在训练一些攀岩、滑索的项目。等村子发展成一个景点，我就可以用我的技能照顾前来游玩的游客，保护他们的安全。本文来源：澎湃新闻责任编辑：荀建国_NN7379",
    "URL": "http://news.163.com/18/0103/16/D7874CMC000187VE.html"
}