{
    "Title": "菲律宾妇女组织谴责日本干涉菲设立\"慰安妇\"铜像_网易新闻",
    "PublishTime": "12/31/201721:25:42",
    "URL": "http://news.163.com/17/1231/21/D710C2PF0001899N.html",
    "Source": "Netease",
    "KeyWords": "菲律宾,慰安妇,日本",
    "Comment": {
        "Reply": 8,
        "Content": "中国连这个纪录片都很少人看 菲人！<br>去干了小日本！ 随着时间流逝，那些受害者一个个走了，这些事情就越来越无力和苍白 小日本多管闲事 小日本就没安生过～少了那一顿打～就是不长记性。 日本现在也有合法的红灯区。有人去解救这些贩卖自己身体的女性么？？没有。为什么呢？？因为其在日本国内是合法的。那在战争期间，在日本统治地域出现此类行为，是否也同样符合日本法律呢？？那些遍布世界的红灯区是否有人去维护那些女性的合法权益呢？？ 小日本多管闲事 随着时间流逝，那些受害者一个个走了，这些事情就越来越无力和苍白 竟然可以评论。 打死也不敢[大笑] 中国连这个纪录片都很少人看 菲人！<br>去干了小日本！ ",
        "Total": 65,
        "Link": "http://comment.news.163.com/news2_bbs/D710C2PF0001899N.html"
    },
    "Article": "（原标题：菲律宾妇女组织谴责日本干涉菲设立“慰安妇”铜像）新华社马尼拉12月31日电菲律宾两大妇女维权组织30日发表联合声明，谴责日本驻菲大使馆近日针对马尼拉设立“慰安妇”铜像的言行，希望菲政府坚持立场，维护国家尊严。“加芙列拉”和“菲律宾妇女联盟”是菲国内长期致力于为“慰安妇”争取权益的民间妇女组织。两大组织在联合声明中谴责日本政府及日驻菲使馆近日有关菲设立“慰安妇”铜像的言行。两大组织指出，日本不应因其不满菲律宾设立“慰安妇”铜像而威胁菲律宾。两大组织表示，菲律宾设立“慰安妇”铜像，是为避免遭受帝国主义侵略的历史重演，是菲律宾的主权行为。8日，菲律宾国家历史委员会与马尼拉市政府举行为二战“慰安妇”铜像揭幕的仪式。铜像位于马尼拉市著名的罗哈斯大道上，距离日本驻菲使馆约3公里。据菲律宾媒体报道，日本驻菲使馆曾向菲律宾政府表示，日方对菲方设立“慰安妇”铜像的做法“感到遗憾”。有马尼拉市政府官员透露，已有日本驻菲使馆官员暗示，美国旧金山市设立二战“慰安妇”雕像后，日本大阪市解除了与旧金山市的友好城市关系。菲媒体分析，日方此举意在威胁马尼拉市政府，目前马尼拉市与日本横滨市为友好城市。1941年12月，日军进攻菲律宾吕宋岛。占领菲律宾期间，日军强征约1000名菲律宾妇女充当“慰安妇”。菲律宾目前有70名“慰安妇”受害者在世。本文来源：新华网作者：袁梦晨责任编辑：李杭_BJS4645"
}