{
    "URL": "http://tech.163.com/17/1227/16/D6M61DR600097U7R.html",
    "Comment": {
        "Total": 53,
        "Reply": 7,
        "Link": "http://comment.tech.163.com/tech_bbs/D6M61DR600097U7R.html",
        "Content": "周处长对公益诉讼的理解这么狭隘，感觉说不通啊。药品可以公益诉讼，那也是吃药的那一部分人的利益，为什么就可以了呢？ 是什么单位，屁民管得着吗？收到的钱干么要退，就不退押金，屁民能怎样？ 押金放消协联合会就解决了问题！ 消鞋是什么单位？？？ 只有砸摩拜ofo，毁公物，才能体现愤怒，愤怒了才能逼出相关部门！ 周处长对公益诉讼的理解这么狭隘，感觉说不通啊。药品可以公益诉讼，那也是吃药的那一部分人的利益，为什么就可以了呢？ 吃药也不是所有人都吃同一种药吧 是什么单位，屁民管得着吗？收到的钱干么要退，就不退押金，屁民能怎样？ 押金放消协联合会就解决了问题！ 如果共享单车乱停放，直接无视压上去。 只有砸摩拜ofo，毁公物，才能体现愤怒，愤怒了才能逼出相关部门！ 消鞋是什么单位？？？ "
    },
    "Article": "（原标题：广东检方：“共享单车”押金追讨不符合检察机关公益诉讼条件）中新网广州12月27日电(索有为蔡敏婕)广东省人民检察院26日举行有关公益诉讼的主题新闻发布会，就记者针对广东省消协提起小鸣单车公益诉讼一案提问时，该院民事行政检察处处长周虹称，由于“共享单车”押金追讨只涉及特定消费者的私益，不符合民事诉讼法规定的检察机关可以提起或者支持提起民事公益诉讼的条件。近年来，中国内地“共享单车”快速发展，在满足公众出行需求、缓解城市交通拥堵、构建绿色出行体系等方面发挥了积极作用，但同时也出现了“共享单车”乱停乱放、随意丢弃、用户押金不能及时返还、企业责任主体不到位等问题。近期，多家共享单车企业相继倒闭，大量用户押金难以退回，引起社会广泛关注。广东省消费者委员会日前就“小鸣单车”拖欠消费者押金、资金账户管理不规范等系列问题，以其经营管理方——广州悦骑信息科技有限公司作为被告，向广州市中级人民法院提起民事诉讼。提出判令被告立即停止拖延退还消费者押金的行为，对消费者押金实施专款专用、即租即押、即还即退、第三方监管等措施并向消费者完整披露等诉求。据悉，广州市中级人民法院已受理此案件。周虹说，广东省消协提起小鸣单车公益诉讼一案，为广大消费者追讨共享单车押金，做法值得肯定，但此案只涉及特定消费者的私益，并不符合民事诉讼法规定的检察机关可以提起或者支持提起民事公益诉讼的条件。周虹解释说，公共利益是检察机关提起公益诉讼制度设计的出发点也是制度运行的落脚点。公权力的行使必须在法律规定的范围之内。检察机关必须严格依照法律规定履行职责，仅对食品药品安全领域侵害众多不特定消费者合法权益的案件提起或者支持提起民事公益诉讼。本文来源：中国新闻网责任编辑：王凤枝_NT2541",
    "KeyWords": "共享单车,公益,中级人民法院",
    "Source": "Netease",
    "Title": "消协起诉追讨共享单车押金不符合公益诉讼条件_网易科技",
    "PublishTime": "12/27/201716:33:05"
}