{
    "Title": "CIA前局长:我们没想到能通过网络影响美国大选_网易新闻",
    "URL": "http://news.163.com/17/1225/22/D6HMIM8J0001899N.html",
    "Source": "Netease",
    "Comment": {
        "Total": 127,
        "Reply": 13,
        "Content": "美国一直是通过媒体影响别国大选的，没想到还能通过网络 所以说现在他们在叙利亚演戏给全世界看——你看我们都快干上了。 他们天天在做的事，他们居然没想到。奇葩 幻想无极限 老毛子即使沦为二流国家，他的间谍机构也是一流的！ 水很深，但是看这个总统的风风火火，肯定很多人支持 美国情报干不过俄国，我信。但是，无论谁个当美国总统，哪怕普京去当，都改变不了美国作为自由国家典型这一特征，而且必须依法维护美国国家利益。 美情报机构、媒体在2016年美国大选前几乎全部被希拉里绝对控制，三场竞选辩论演讲主持人也毫不掩饰的公开偏袒希拉里一边...美驻华大使甚至无理的要求参选人川普退选......<br>希拉里失败，情报机构颜面扫地，所谓“俄罗斯操控美大选”纯粹是自欺欺人。 俄狗的工资原来是“打击恐怖主义专项资金”呵呵 是不是傻 不仅你们没想到，连我也没想到 幻想无极限 所以说现在他们在叙利亚演戏给全世界看——你看我们都快干上了。 我们也没想到克林顿和莱温斯基搞在一起 老毛子即使沦为二流国家，他的间谍机构也是一流的！ 老毛子厉害👍 幼想无极限 美国一直是通过媒体影响别国大选的，没想到还能通过网络 他们天天在做的事，他们居然没想到。奇葩 水很深，但是看这个总统的风风火火，肯定很多人支持 美国情报干不过俄国，我信。但是，无论谁个当美国总统，哪怕普京去当，都改变不了美国作为自由国家典型这一特征，而且必须依法维护美国国家利益。 美情报机构、媒体在2016年美国大选前几乎全部被希拉里绝对控制，三场竞选辩论演讲主持人也毫不掩饰的公开偏袒希拉里一边...美驻华大使甚至无理的要求参选人川普退选......<br>希拉里失败，情报机构颜面扫地，所谓“俄罗斯操控美大选”纯粹是自欺欺人。 俄狗的工资原来是“打击恐怖主义专项资金”呵呵 ",
        "Link": "http://comment.news.163.com/news2_bbs/D6HMIM8J0001899N.html"
    },
    "Article": "（原标题：网络影响美大选?CIA前局长:没想到还有这种操作）Politico新闻网站截图。海外网12月25日电近日，美国中央情报局（CIA）前任代理局长迈克尔·莫雷尔(MichaelMorell)在接受采访时表示，对于俄罗斯影响2016年美国大选的调查，从多方面来说这都是美国情报界的失败。美国中央情报局（CIA）前任代理局长迈克尔·莫雷尔近日接受了美国政治新闻网站Politico的采访，他指出，“显然我们没有想到还可能通过脸书、推特和邮件等网络社交平台来影响大选”，“美国情报人员也没有提前意识到相关的资金是以打击恐怖主义的名义汇入的。”莫雷尔还表示，在美国从事间谍活动的政治从来没有像现在这样激烈过。美国总统特朗普公开抨击中情局，并在整整一年后仍然不断质疑他们的结论。迈克尔·莫雷尔(MichaelMorell)迈克尔·莫雷尔(MichaelMorell)是前美国中央情报局副局长，在中情局任职达30余年之久。2012年曾经立下赫赫战功的美国中央情报局（CIA）局长彼得雷乌斯因婚外情事件宣布辞职后，莫雷尔任中情局代理局长。2013年6月12日迈克尔·莫雷尔宣布辞职。自特朗普上任以来，相关的“通俄门”指控一直令他深感困扰。美国情报机构认为俄罗斯干预美国大选致使特朗普从中获益，但特朗普多次通过个人社交平台推特(Twitter)发声，否认与俄罗斯有任何勾结，并斥责相关报道为“假新闻”。对于美国指控俄罗斯干预美大选的问题，俄罗斯方面坚决否认。俄罗斯外长拉夫罗夫此前表示，对于俄罗斯在美国和欧洲干预选举的指控是“幻想”。拉夫罗夫还曾表示，没有任何一项证据能够证明，俄罗斯干预美国以及欧洲各国的选举，甚至有人指控俄罗斯在南非决定部长任命事宜。“一般来说，幻想都是没有极限的。”本文来源：海外网作者：张敏责任编辑：李杭_BJS4645",
    "PublishTime": "12/25/201722:45:56",
    "KeyWords": "大选,美国,俄罗斯"
}