{
    "Source": "Netease",
    "PublishTime": "12/26/201712:36:53",
    "KeyWords": "内马尔,德比,国脚,马塞洛",
    "Title": "巴西一周观察:暴力鸟国家德比首秀惊艳 内马尔费鸟送妙传_网易体育",
    "Comment": {
        "Link": "http://comment.sports.163.com/sports2_bbs/D6J646SL00058781.html",
        "Total": 24,
        "Content": "这。。你是来黑C罗的？ 输赢不论，巴萨后场依旧不稳。<br>要不是我罗轮空了腿。还真就不一定怎么回事。 马塞洛：为什么总拿我当背景 呀，ks三三九！！网易体育都将推出巴西国脚当轮表现的“红黑榜”，每周定期追踪巴西国脚们的实时状态红榜，凯时！ 嗯嗯 三个马塞洛防不住一个马塞洛 这。。你是来黑C罗的？ 输赢不论，巴萨后场依旧不稳。<br>要不是我罗轮空了腿。还真就不一定怎么回事。 啦啦啦 嘿嘿 ",
        "Reply": 8
    },
    "Article": "网易体育12月26日报道：随着2018年俄罗斯世界杯的临近，各大豪门之中，谁能问鼎大力神杯越来越引发人们的猜想。新赛季之中，国脚们的表现可以看作是诸强世界杯前景的“风向标”。作为世界杯夺冠次数最多的球队，巴西队各大国脚的表现是球迷眼中的焦点。随着新赛季各大联赛的全面开战，每轮过后，网易体育都将推出巴西国脚当轮表现的“红黑榜”，每周定期追踪巴西国脚们的实时状态。红榜：内马尔（★★★★☆）不吹不黑，内少上周一场的闪亮程度确实不及小老弟姆巴佩，但他仍是球队无可争议的核心，127次触球及92次传球，包括3次关键传球，参与本队全部3球，包括为尤里送出的直接助攻。菲尔米诺（★★★★☆）利物浦的巴西双枪仍然都保持着不错的状态，但相对而言，面对阿森纳的高比分平局中，菲米的直接贡献更大，打满全场的他完成传射，所进一球更是帮助球队保住一分的关键入球。费尔南迪尼奥（★★★★）32岁的费鸟仍然是曼城单后腰位置上雷打不动的主力，127次触球，传球成功率87.9%，两次射门，两次关键传球，精准斜传助攻阿圭罗头槌破僵局，5次抢到头槌及3次解围都是全队最高，得此良腰，难怪蓝月亮本赛季坚挺如斯。保利尼奥（★★★★）以29岁的年龄迎来西甲国家德比首演，保利尼奥没有浪费首发的机会，全场完成比肩梅西的4次射门，近距离头槌攻门造成卡瓦哈尔禁区内手球送出红点套餐，为巴萨奠定胜局，还有一次近距离头槌外加一次凌空爆射迫使纳瓦斯作出神扑，全场3次争到头球以及4次被犯规都是全队最高。达尼洛（★★★★）前皇马边卫上周两次出战，联赛杯对阵莱斯特城，因曼加拉的受伤，第10分钟由右路移镇中卫位置，打满120分钟，完成13次长传、10次解围、4次铲球及3次拦截，俨然是防线灵魂；联赛面对伯恩茅斯，他则是第80分钟替补出战，自己中场反抢成功后快下，接应斯特林的分球低射破门，斩获个人本赛季第一球。黑榜：马塞洛（★★☆）一场国家德比的失利，作为输球一方的皇马球员，基本都成为黑榜候选，相对而言，马塞洛仍是银河战舰防线发挥最好的一位，他好歹还有4次关键传球送出，但在防守端的表现令人失望，巴萨打进的第三球，正是梅西正是在边路强吃他之后送出助攻。蒂亚戈-席尔瓦（★★）眼见巴黎将在主场实现零封之局，后防中坚弟媳的手球送给对手打入安慰球的机会，这位老将在防守端的表现也略微令人失望，0抢断，0头槌，好在他的送点没有让球队丢分，倒是不会影响这位老将开心过节的好心情。米兰达（★★）又是一位后防老将，巴西队防线的年龄似乎有点……国米客场不敌弱旅萨索洛，米兰达1拦截、1解围、0头球，没在对方破门前对法尔西内利施以任何限制，提前被换下，如果不是中卫第一备选为拉诺基亚，米兰达的主力位置恐要不保。本文来源：网易体育作者：远风责任编辑：姚成浩_NS4810",
    "URL": "http://sports.163.com/17/1226/12/D6J646SL00058781.html"
}