{
    "PublishTime": "12/29/201710:06:31",
    "KeyWords": "奥斯卡,巴萨,库蒂尼奥",
    "Source": "Netease",
    "URL": "http://sports.163.com/17/1229/10/D6QKN11D00058781.html",
    "Comment": {
        "Link": "http://comment.sports.163.com/sports2_bbs/D6QKN11D00058781.html",
        "Total": 3696,
        "Content": "毕竟2017恒大4冠王，卢瑟 在欧洲混不下去的，来中超一趟，就又能被欧洲豪门看上了😂 巴萨买性价比高的还相信，买奥斯卡这种价格的门都没有 上港的存在不是冠军就是让恒大四大皆空，明年继续努力 又要来中超淘宝了？话说淘宝这玩意，淘到假冒伪劣是正常的！淘到正品那是踩到狗屎了！不要自信每次的运气都这么好！ 逻辑哪错了？ 真以为个个都是保利尼奥啊？ 如果不是，那标题是不是就成了巴萨因为无法支付奥斯卡的薪水而作罢 因为梅西上一场的那一脚闷得不够狠、不够水平，巴萨决定引入奥斯卡。 然而恒大拿了联赛冠军，码头工四大皆空[喷水] 胜似冠军，只剩嘴硬。哈哈，loser怎么会有联赛冠军？哦，对，伤肛不是loser，伤肛是四冠王！平均冠军！停赛冠军！人品冠军！胜似冠军！ 奥斯卡无论是球技还是态度都差保利尼奥一大截！ 猴迷又开始挠人了 平均冠军！停赛冠军！人品冠军！三冠王！佩服佩服！只算上赛季？上上赛季呢，上上上赛季呢？呵呵！！！<br>祝贺伤肛人品队！！！！再加上胜似冠军！成功接班国安，成为狄云队四冠王，天下无敌！！佩服佩服！ 平均冠军 上港球迷都这德行？ 恒大球迷嘴碎，水军挑事劣迹斑斑，全国球迷都知道啦，自己看看这篇新闻里的回帖 没办法，拿不到冠军说存在为了冠军那不是自扇耳光吗 这名单没一个靠谱的。 买费基尔，其他都是坑 别跟上港比有钱！！！<br>信不信把你巴萨也买了？ 2017双线双杀恒大还是很爽的，希望明年申花也双杀恒大，我支持任何中超球队除了恒大 1.0上港太年轻，也从来没有叫过争冠，一直是说争取前三。2.0版你确定被恒大打趴下来了？被上港狂干两次满地找牙，足协老爹罚了上港半个赛季半身不遂，这么快就忘了？ 讲道理C罗要去了上港，武磊还是绝对主力，C罗最多和吕文君竞争一个替补，争取进18人大名单 天河主场被干爆的这么快就忘记了？ 上岗两个亚军等于一个冠军，上岗第一 上港眼里只有恒大，格局决定一切 江苏人都这么弱智啊哈哈哈 呵呵，双线淘汰恒大 继续忽悠！ 击败冠军胜似冠军，这话感觉前几年都听过 所以明年联赛上港也要扼杀掉恒大啊，没毛病 在中国都不是大腿去了巴萨能上场吗，还不如买个浩克当替补 活捉一只丧戆卵 里昂的那个队长费基尔还可以的。当然奥斯卡也不错，而且还不到27岁，职业球员最黄金的年龄，不太舍得他走。当然真走了上港也可以马上就让孔卡回来上位，接着再找人呗 偷冠军？偷谁的冠军？反正不能是上港的吧？上港有冠军？ 马卡报也开始编故事了。 你说不过东北人嘀！爱吹逼少干正事的..... 巴萨这是买上瘾了[喷水] 可怜，这是有多恨恒大啊 猴崽能记得什么？ 胜似冠军，只剩嘴硬。哈哈 被恒大虐了几年，也只能在这逞口舌之快了 首先我不是江苏人，其次江苏人是你爹 老总失踪也是冠军....哈哈哈哈哈 何来打趴之言？请你大声的告诉我，联赛和亚冠被打趴的是谁？ 2015和2017，两个赛季是上港想跟恒大争霸的赛季，上港组建了孔卡、吉安、达维1.0版争冠阵容，结果被恒大打趴的跪下来，2017上港组建了奥斯卡、胡尔克、埃尔克森的2.0版争冠阵容，结果联赛依然是被恒大打趴的跪下来，，上港收获“三大皆空”。三亚冠军从来就没有好下场，2018丧港继续四大皆凶 逼逼啥，在我永远争第一的国安面前就是渣渣。 巴萨是会员制俱乐部，买不了 尝到甜头了 呵呵 巴萨皇马是买不来的 浩克太独，巴萨肯定送不要～奥斯卡打打卡还是有希望的 因为C罗晚上经常去你妈家影响了状态？ 逻辑哪错了？ 🙉记性不好 梅西退役后巴萨就沉沦了，实力不错的蛋酥都多少场没进大名单了.这样买球员不是自家青训出身那和皇马买球员有什么分别，还是很怀念梦三，主力全青训出身.普约尔哈维小白布教授梅西佩刀 奥斯卡这个纯编的 亚瑟好 国有资产流失2400万。 性价比太低了 当时巴萨买保利尼奥的时候，多少码头工人大义凛然的说免费送保利尼奥为重钞做广告，现在到奥斯卡了，码头工人你们好意思开价不？ 胜似冠军，只剩嘴硬。哈哈，loser怎么会有联赛冠军？哦，对，伤肛不是loser，伤肛是四冠王！平均冠军！停赛冠军！人品冠军！胜似冠军！ 2017双线双杀恒大还是很爽的，希望明年申花也双杀恒大，我支持任何中超球队除了恒大 我也这么想楼主英明[大笑] 别忘了洗内裤一会啊。还有，别忘了把亚军奖牌捡回来 有可能嚒，我是不信 吼子们下赛季准备骂谁呢？这赛季骂了一年上港下赛季我猜吼子们准备骂权健了！疯吼子每一年都要逮着一个对手使劲骂，真是群辣鸡吼子！ 买费基尔，其他都是坑 别跟上港比有钱！！！<br>信不信把你巴萨也买了？ 七言诗阳春凌霄岩张耘华春光诗社阳春日报凌霄溶洞天下雄.内生乾坤风云涌;恰似飞龙腾气象，万层钟乳滴神功！嫦娥出浴水底月，银川叠盏落九重;更留底河载仙客，世间壮景尽所容！广东省阳春市凌霄岩风景区由玉溪三洞、玉溪二洞和凌霄岩组成，游览完领略溶洞之天下雄（山之天下雄为泰山）！<br><br><br>七言诗南岭国家森林公园夏日游张耘华2017年仲夏于韶关南岭氧吧天下凉，心旷神怡时间长；天外瀑布九重落，宛如九龙下岭央；旁林绿荫接青天，潭吟轻涛风静赏；美景迷人君再来，风调雨顺国运昌！南岭国家森林公园位于广东省韶关市乳源县境内，韶关市南岭国家森林公园一日游！ 上岗什么单位？央企？ 工兵前腰巴萨买去干啥用？ 给他个奥斯卡吧…… 里昂的那个队长费基尔还可以的。当然奥斯卡也不错，而且还不到27岁，职业球员最黄金的年龄，不太舍得他走。当然真走了上港也可以马上就让孔卡回来上位，接着再找人呗 讲道理梅西要是去了国安，稀哲还是绝对主力，梅西最多和杨智竞争一个替补，争取进18人大名单 中超快成巴萨最大供应商 孔卡不行了 卢瑟球迷都像你们这样 江苏人都这么弱智啊哈哈哈 想多了 今天我确实sb，和sb说话，它们会用丰富的sb经验，把我拉到sb一个层次，然后用sb理论，让我感觉很sb， 别闹，两个国家队都进不去不行，扎哈为到时可以年龄不应许啊~ 肯定是亚瑟好用。转死它们。 这自信。。。利物浦联赛第几？巴萨第几？足球虽然是圆的，硬实力也很重要。 2400万欧元折合人民币一亿八千七百二十万元！ 不管引援与否,感觉拿个欧冠席位还是应该可以做得到的 上港的海森其实是性价比最高的，可惜一转眼就被巴西大牌生生淹没了，但瑞典人还拒回中超，就已经有钱无需回来。 就是这样一支队天河爆你们菊花。。恒大是多不堪 顶多2000W 讲道理C罗要去了上港，武磊还是绝对主力，C罗最多和吕文君竞争一个替补，争取进18人大名单 天河主场被干爆的这么快就忘记了？ 你说不过东北人嘀！爱吹逼少干正事的..... 真不觉得现在的巴萨能踢得过利物浦 奥斯卡就是坑，没了浩克屁都不是 别闹了，浩克如果来了巴萨，那真的是世界无敌球队了，关键浩克的工资巴萨不愿给，工资都逼近梅西、苏牙了。奥斯卡赶紧走，这货球商不行，传球视野大局观和创造力都很差 当孔卡是什么啊，说来就来，找到下家再送走？ 果然上岗球迷，就奥斯卡那德行和技术，，能进巴萨？<br>我觉得武球王倒是可以啊，， 内蒙古这个傻逼强行解释一波哈哈 胜似冠军，只剩嘴硬。哈哈，loser怎么会有联赛冠军？哦，对，伤肛不是loser，伤肛是四冠王！平均冠军！停赛冠军！人品冠军！胜似冠军！ 吼子们下赛季准备骂谁呢？这赛季骂了一年上港下赛季我猜吼子们准备骂权健了！疯吼子每一年都要逮着一个对手使劲骂，真是群辣鸡吼子！ 别道德婊了，如果所有豪门都是自己青训，小球会还怎么生存？豪门买球员，才是良性发展 平均冠军！停赛冠军！人品冠军！三冠王！佩服佩服！只算上赛季？上上赛季呢，上上上赛季呢？呵呵！！！<br>祝贺伤肛人品队！！！！再加上胜似冠军！成功接班国安，成为狄云队四冠王，天下无敌！！佩服佩服！ 2015和2017，两个赛季是上港想跟恒大争霸的赛季，上港组建了孔卡、吉安、达维1.0版争冠阵容，结果被恒大打趴的跪下来，2017上港组建了奥斯卡、胡尔克、埃尔克森的2.0版争冠阵容，结果联赛依然是被恒大打趴的跪下来，，上港收获“三大皆空”。三亚冠军从来就没有好下场，2018丧港继续四大皆凶 巴萨本来在转会策略上就不地道，利物浦不放人并没有太大错，但是库蒂尼奥如果真的这样做确实不是很地道 标题:惊，郑智拿到广州户口!专家:中超人才顶10个博士 卢瑟球迷都像你们这样 在欧洲混不下去的，来中超一趟，就又能被欧洲豪门看上了😂 没有中国比利的运动员都是鸡毛<br>————————容志行 没有亚洲足球先生的运动员都是鸡毛——郑智，范志毅<br>没有参加过世界杯，奥运会的运动员都是鸡毛——李玮峰<br>没有奥运进球和平局的运动员都是鸡毛——董方卓<br>没有亚冠金靴的运动员都是鸡毛<br>-----郝海东<br>没有亚运，亚洲杯奖牌及亚洲杯决赛进球的运动员都是鸡毛。-------李明<br>没有亚洲杯最佳门将的运动员都是鸡毛<br>------江津，张惠康<br>没有亚洲杯最佳后卫，最佳射手，mvp，最佳球员的运动员都是鸡毛<br>-----贾秀全<br>没有世俱杯进球的运动员都是鸡毛<br>----郑龙<br>没有亚冠决赛进球的运动员都是鸡毛<br>-----郜林<br>没有亚冠的运动员都是鸡毛<br>------广州恒大<br>没有战胜过韩国的运动员都是鸡毛<br>------杨智<br>没有在欧冠进球的运动员都是鸡毛<br>------孙祥<br>没有年薪1.5亿的运动员都是鸡毛<br>-------张呈栋 记性不好的太多了！好像刚有人忘了皇马也不被巴塞轰了个3：0！利物浦也曾被热剌打了个4：0！可利物浦仍骑在热剌头上啊！豪门大比分输球司空见惯，可怜的是一支两年花了60个亿的球队却一冠难求，那就只能怨自己不争气了！ 又要来中超淘宝了？话说淘宝这玩意，淘到假冒伪劣是正常的！淘到正品那是踩到狗屎了！不要自信每次的运气都这么好！ 爆了就是冠军？ 标题:惊，郑智拿到广州户口!专家:中超人才顶10个博士 奥斯卡上港柱梁攻防中枢也。足协杯天河一战独进二元正鼎胜局，特别单骑突进恒大阵中如入无人之境，杀的恒大无人敢挡中门轰毁恒大帅帐。奥斯卡一仗打得四冠亡20强灰飞烟灭，皮带无地自容斯帅下课，球员鬼哭狼嚎，球迷落荒而逃。 胜似冠军，只剩嘴硬。哈哈。 缺泛凝聚力的上海上港不就是个典范嘛！一冠难求，只好迁居三亚。 巨大优势？便宜是不？ 买了就粉转黑！！！因为这个家伙没有职业道德 巴萨，J马要不？ 自媒体：震惊！奥斯卡转会巴萨，原俱乐部负责大部分薪水。 平均冠军 奥斯卡还是算了吧 巴萨看上的就是中超看上的，抢！ 巴萨最好别惹上港，信不信国企5亿欧咂梅西 胜似冠军，只剩嘴硬。哈哈，loser怎么会有联赛冠军？哦，对，伤肛不是loser，伤肛是四冠王！平均冠军！停赛冠军！人品冠军！胜似冠军！ 你去上港武磊就要踢替补了！巴萨应该挖你啊！有你的嘴巴萨年年拿欧冠那是妥妥的，毕竟哪个对手不怕你那满嘴的唾沫星子 奥斯卡无论是球技还是态度都差保利尼奥一大截！ 别跟上港比有钱！！！<br>信不信把你巴萨也买了？ 奥斯卡不行 马🐴拉多纳虽然才165，但他有1986世界杯🏅🏆，1990世界杯银牌。2个美洲杯冠军。是世界⚽️👑。梅西三个亚军，还不是球王！14年世界杯决赛，进球被吹，心态崩了，被格策绝杀！美洲杯决赛踢飞冠军。现在阿根廷很弱，有些球队，虽然有所谓的球王，凝聚力差。所以取得不了好成绩！ 2017双线双杀恒大还是很爽的，希望明年申花也双杀恒大，我支持任何中超球队除了恒大 可能性较小 讲道理C罗要去了上港，武磊还是绝对主力，C罗最多和吕文君竞争一个替补，争取进18人大名单 胜似冠军，只剩嘴硬。哈哈 对！ 没有亚洲足球先生的运动员都是鸡毛——郑智，范志毅<br>没有参加过世界杯，奥运会的运动员都是鸡毛——李玮峰<br>没有奥运进球和平局的运动员都是鸡毛——董方卓<br>没有亚冠金靴的运动员都是鸡毛<br>-----郝海东<br>没有亚运，亚洲杯奖牌及亚洲杯决赛进球的运动员都是鸡毛。-------李明<br>没有亚洲杯最佳门将的运动员都是鸡毛<br>------江津，张惠康<br>没有亚洲杯最佳后卫，最佳射手，mvp，最佳球员的运动员都是鸡毛<br>-----贾秀全<br>没有世俱杯进球的运动员都是鸡毛<br>----郑龙<br>没有亚冠决赛进球的运动员都是鸡毛<br>-----郜林<br>没有亚冠的运动员都是鸡毛<br>------广州恒大<br>没有战胜过韩国的运动员都是鸡毛<br>------杨智<br>没有在欧冠进球的运动员都是鸡毛<br>------孙祥<br>没有年薪1.5亿的运动员都是鸡毛<br>-------张呈栋 呵呵，双线淘汰恒大 猴迷又开始挠人了 上港球迷都这德行？ 击败冠军胜似冠军，这话感觉前几年都听过 一个偷冠军，一个被偷冠军......用不着告诉，全世界都知道，否则花果山老总也不会失踪..... 你这样说马云👨要给你发个奖了啊 非也，上港联赛关键时刻丢分了，长春亚泰那场，赢了就超恒大，可惜就是输了，关键时刻上港掉链子了，恒大这赛季有惊无险。幸运加点！ 所以明年联赛上港也要扼杀掉恒大啊，没毛病 对对对，我们真没啥～就是感叹下干得挺爽啊。第一次先口了一遍，然后送上门来了四发，最后后庭也没保住，全都干爆了～ 奥斯卡算了吧！传球都传不出去 你这样说马云👨要给你发个奖了啊 对！ 活捉一只丧戆卵 古广明，赵达裕被曾雪麟废了！ 巴萨付不起这么高的工资，算了吧 别急一旦开始了就收不住了 古广明 天河主场被干爆的这么快就忘记了？ 奥斯卡恐怕去了得把中超名声拉回暴力鸟去之前的水平! 购买了亚瑟，妲己知道吗。 巴萨这是买上瘾了[喷水] 那你连卵都不是了 说到人品，上港比恒大强了一万倍。恒大这样的骗子俱乐部，也就是在中国会被广大球迷津津乐道：许家印好聪明呀！！两次颁奖直接上自己的品牌球衣，争取最大曝光广告效应！！ 没有亚洲足球先生的运动员都是鸡毛——郑智，范志毅<br>没有参加过世界杯，奥运会的运动员都是鸡毛——李玮峰<br>没有奥运进球和平局的运动员都是鸡毛——董方卓<br>没有亚冠金靴的运动员都是鸡毛<br>-----郝海东<br>没有亚运，亚洲杯奖牌及亚洲杯决赛进球的运动员都是鸡毛。-------李明<br>没有亚洲杯最佳门将的运动员都是鸡毛<br>------江津，张惠康<br>没有亚洲杯最佳后卫，最佳射手，mvp，最佳球员的运动员都是鸡毛<br>-----贾秀全<br>没有世俱杯进球的运动员都是鸡毛<br>----郑龙<br>没有亚冠决赛进球的运动员都是鸡毛<br>-----郜林<br>没有亚冠的运动员都是鸡毛<br>------广州恒大<br>没有战胜过韩国的运动员都是鸡毛<br>------杨智<br>没有在欧冠进球的运动员都是鸡毛<br>------孙祥<br>没有年薪1.5亿的运动员都是鸡毛<br>-------张呈栋 百度(毛卑零），就明白大幂幂为什么会火，不知道被多少个名导给潜了，那里真的是黑，去瞧瞧 胜似冠军，只剩嘴硬。哈哈 反正不是自己的钱，买西班牙都行 272去啊，打脸皇马 记性不好的太多了！好像刚有人忘了皇马也不被巴塞轰了个3：0！利物浦也曾被热剌打了个4：0！可利物浦仍骑在热剌头上啊！豪门大比分输球司空见惯，可怜的是一支两年花了60个亿的球队却一冠难求，那就只能怨自己不争气了！ 一个中甲冠军球队比亚冠冠军球队还狂妄！不知道哪里来的自信，3年60亿换不来一个荣誉！可悲可悲！ 2015和2017，两个赛季是上港想跟恒大争霸的赛季，上港组建了孔卡、吉安、达维1.0版争冠阵容，结果被恒大打趴的跪下来，2017上港组建了奥斯卡、胡尔克、埃尔克森的2.0版争冠阵容，结果联赛依然是被恒大打趴的跪下来，，上港收获“三大皆空”。三亚冠军从来就没有好下场，2018丧港继续四大皆凶 巴萨买性价比高的还相信，买奥斯卡这种价格的门都没有 奥斯卡?哈哈哈哈 上港有没有洗钱 可以 干了三场球不用这么狂！人家这么多冠军，你们又有什么呢？ 马🐴拉多纳虽然才165，但他有1986世界杯🏅🏆，1990世界杯银牌。2个美洲杯冠军。是世界⚽️👑。梅西三个亚军，还不是球王！14年世界杯决赛，进球被吹，心态崩了，被格策绝杀！美洲杯决赛踢飞冠军。现在阿根廷很弱，有些球队，虽然有所谓的球王，凝聚力差。所以取得不了好成绩！ 所以说，欧足联FIFA真不如巴猋懂球 又要来中超淘宝了？话说淘宝这玩意，淘到假冒伪劣是正常的！淘到正品那是踩到狗屎了！不要自信每次的运气都这么好！ 别，不要以为有保利尼奥就以为中超是个金矿。。 冠军是谁，傻B 这是我看武磊被黑得最惨的一次 奥斯卡，巴萨买不贵。 有点意思 他水平配不上巴萨 何来打趴之言？请你大声的告诉我，联赛和亚冠被打趴的是谁？ 说得好，敢和恒大比高低，死都不知道怎么死的！ 一直没觉得奥斯卡有多好 依旧觉得冬季无引援 至于你信不信，反正我不信。 然並卵<br>三亞王 别跟上港比有钱！！！<br>信不信把你巴萨也买了？ 8000千万你能买个费基尔试试，还不超过5000万 郜武二人已经离不开外援了，没有外援在身边这俩人根本心里没底，还指望他们进球。对比下武磊的俱乐部和国家队单刀就明白了，私心太重，两个人很少互相传球，就怕对方盖过自己！ 赢了场球不用这么狂！人家这么多冠军，你们又有什么呢？ 我个人觉得胡尔克可以去皇马 里昂的那个队长费基尔还可以的。当然奥斯卡也不错，而且还不到27岁，职业球员最黄金的年龄，不太舍得他走。当然真走了上港也可以马上就让孔卡回来上位，接着再找人呗 可以卖 呵呵 人家上岗是平均冠军！ 讲道理，佩佩去了土超贝西队球队为他制定战术打进欧冠淘汰赛，别说中超就是去了意甲任何一只球队都会重新配置人员配合C罗制定战术。 埃尔切：我们认为奥斯卡奖应该更名为佩佩奖。 ✌️️✌️️✌️️ 奥斯卡这个名字就适合巴萨好吧 库蒂尼奥和费吉尔撸来一个就行了，保级队想什么欧冠，联赛冠军，先保级再说👅👅👅 不去天猫店买，质量很难保障啊！ ✌️ 不不不我们干了他们三场。 郜武二人已经离不开外援了，没有外援在身边这俩人根本心里没底，还指望他们进球。对比下武磊的俱乐部和国家队单刀就明白了，私心太重，两个人很少互相传球，就怕对方盖过自己！ 马🐴拉多纳虽然才165，但他有1986世界杯🏅🏆，1990世界杯银牌。2个美洲杯冠军。是世界⚽️👑。梅西三个亚军，还不是球王！14年世界杯决赛，进球被吹，心态崩了，被格策绝杀！美洲杯决赛踢飞冠军。现在阿根廷很弱，有些球队，虽然有所谓的球王，凝聚力差。所以取得不了好成绩！ 这个影响真的扯平。我们的确没临时走一个，我们是没走，足协不给上 讲道理C罗要去了上港，武磊还是绝对主力，C罗最多和吕文君竞争一个替补，争取进18人大名单 天河主场被干爆的这么快就忘记了？ 是是是，我们没啥～但是干得爽啊。第一次先是口了一遍，然后送上门来了四发，到最后后庭都没保住，全给干爆了～ 巴萨又要p图了！ 平均冠军！停赛冠军！人品冠军！三冠王！佩服佩服！只算上赛季？上上赛季呢，上上上赛季呢？呵呵！！！<br>祝贺伤肛人品队！！！！再加上胜似冠军！成功接班国安，成为狄云队四冠王，天下无敌！！佩服佩服！ 不好意思，会员制俱乐部，再有钱也买不了 巴萨掏空中超！！！ 买亚瑟啊，怎么出装啊。 无脑文章 梅西垃圾 巴萨会员制，可以卖吗？ 找丁丁 优势就是在中超联赛踢过球 一个逃到中超捞金的怂货这跟保利尼奥可不一样！来了就是个祸害 亚军， 2015和2017，两个赛季是上港想跟恒大争霸的赛季，上港组建了孔卡、吉安、达维1.0版争冠阵容，结果被恒大打趴的跪下来，2017上港组建了奥斯卡、胡尔克、埃尔克森的2.0版争冠阵容，结果联赛依然是被恒大打趴的跪下来，，上港收获“三大皆空”。三亚冠军从来就没有好下场，2018丧港继续四大皆凶 1.0上港太年轻，也从来没有叫过争冠，一直是说争取前三。2.0版你确定被恒大打趴下来了？被上港狂干两次满地找牙，足协老爹罚了上港半个赛季半身不遂，这么快就忘了？ 你老妈的逼很松，我插进去，没感觉， 保利尼奥在中超都可以当巴西队长<br>况且奥斯卡到底为什么要参加世界杯？<br>在这里世外桃源不好吗？哈哈 讲道理你个死巴畜不挨骂不舒服 小编，我刚接到巴萨的邀请！快联系报道我！ 又要来中超淘宝了？话说淘宝这玩意，淘到假冒伪劣是正常的！淘到正品那是踩到狗屎了！不要自信每次的运气都这么好！ 巴萨是马卡报开的吧？ 你不是你老爸生的 码头工又来代表全国球迷了 欧冠怎么进的心里有数 别瞎扯！巴萨是会员制俱乐部，不属于任何个人或公司，再有钱也不能买。 淘到伪劣产品正常，也亏不了多少，便宜哈，淘到正品就赚大发了 巴萨怎么可能支付2400万欧元年薪给他，怎么可能 2017双线双杀恒大还是很爽的，希望明年申花也双杀恒大，我支持任何中超球队除了恒大 大傻逼，大弱智 你不用跑的比老虎快，跑的比同伴快就行了 以为有钱就可以买得什么东西一样，丢人现眼 你聊爸爸找鸡，得艾滋病 你好像是奥斯卡肚子里的蛔虫哦，这么清楚他的想法？每一个球员都渴望踢世界杯！ 你的父亲是狗🐶 这个真没人信 奥斯卡不像暴力鸟那么渴望去大球会，人家踢过切尔西了。想大幅降薪门都没有 别跟上港比有钱！！！<br>信不信把你巴萨也买了？ 这笑话好！！ 奥斯卡不行 1.0上港太年轻，也从来没有叫过争冠，一直是说争取前三。2.0版你确定被恒大打趴下来了？被上港狂干两次满地找牙，足协老爹罚了上港半个赛季半身不遂，这么快就忘了？ 讲道理C罗要去了上港，武磊还是绝对主力，C罗最多和吕文君竞争一个替补，争取进18人大名单 2400万年薪，吹吧！可能有这么高吗？ 感觉奥斯卡在上岗都没作用，去了巴萨能行么[喷水] 不信。现在投资国外资产审查很严，尤其国企。 呵呵，双线淘汰恒大 奥斯卡的巨大优势是什么？中超球员？？ 厄齐尔在巴萨养老混日子？ 上岗两个亚军等于一个冠军，上岗第一 奥斯卡这货不行，买球员技术先放一边，首先要看职业态度，他跟保利尼奥差不少。 世界杯想不想参加？ 码头早报的吧？ 现在已经没有国安的消息了 保利尼奥那是正品，奥斯卡可是赝品啊 奥斯卡是切尔西15年英超夺冠主力，保利尼奥呢？两人位置不同，跑来吹正品赝品不觉得幼稚吗？ 擦，你这一波黑的我竟然哑口无言。。。 然后拿冠军了，包括平均冠军 马卡阿斯，世体每体，厕纸报。 你妈得宫颈癌，b烂掉了 这这这哈哈哈哈 还真买不了，巴萨皇马是会员制俱乐部，再多钱也买不了人家的俱乐部 把巴西球星都救活，阿根廷怎么办？ 巴萨要买，奥斯卡肯定降薪！ 中场已经人满为患了，还买替补干嘛？ 上岗球迷应该是2500万亲自送走 2015和2017，两个赛季是上港想跟恒大争霸的赛季，上港组建了孔卡、吉安、达维1.0版争冠阵容，结果被恒大打趴的跪下来，2017上港组建了奥斯卡、胡尔克、埃尔克森的2.0版争冠阵容，结果联赛依然是被恒大打趴的跪下来，，上港收获“三大皆空”。三亚冠军从来就没有好下场，2018丧港继续四大皆凶 老总失踪也是冠军....哈哈哈哈哈 恒大球迷嘴碎，水军挑事劣迹斑斑，全国球迷都知道啦，自己看看这篇新闻里的回帖 就怕上港不放人，奥斯卡本身估计降价都想去巴萨，毕竟一千个亚冠也比不上一个欧冠啊，而且去巴萨踢球的话入选国家队踢世界杯的希望大增。既有欧冠又有世界杯的话，差不多功成名就了。 下班领香蕉 奥斯卡拿过金像奖吗？ 那个，上岗有🏆吗 巴沟你是不是狗屎啊 怎么不来买张莫斯 巴萨要这种废柴干嘛 不是人人都是钱多人傻！ 你女儿会被老师猥亵 我也是支持除了恒大以外的任何球队，希望明年所有的球队都能双杀恒大，不让恒大干爹队有机可乘，也让这些水军闭嘴🤐。 我怎么记得2017是上港把恒大打趴下二回呢？选择性失忆？ 如果不是，那标题是不是就成了巴萨因为无法支付奥斯卡的薪水而作罢 因为梅西上一场的那一脚闷得不够狠、不够水平，巴萨决定引入奥斯卡。 巴萨这是尝到甜头啦 2017双线双杀恒大还是很爽的，希望明年申花也双杀恒大，我支持任何中超球队除了恒大 他有个巨大优势—在中超踢球 平均冠军！停赛冠军！人品冠军！三冠王！佩服佩服！再加上胜似冠军！只算上赛季？上上赛季呢，上上上赛季呢？呵呵！！！<br>祝贺伤肛人品队！！！！成功接班国安，成为狄云队四冠王，天下无敌！！佩服佩服！ 希望厄齐尔来 巴沟你再喷一句，老子找人暴打你，你等着 奥斯卡根本就不值 伤肛娘炮都是文盲，人家说的是联赛！ 你被强拆的把脑子打坏了？ 厄齐尔可以 从中超挖人上瘾了 别跟上港比有钱！！！<br>信不信把你巴萨也买了？ 黄畜说不过就开喷了，不过说实话以目前C罗的能力还不一定能竞争得过吕文君 不是每次淘宝都能赚的。奥斯卡？呵呵，只会射人的辣鸡。中超连人都过不了，还去西甲？ 可能难，他面相不如吕文君凶，镇不住啊，多数踢预备了 傻逼弱智250，三八变态大傻逼 签我吧，便宜。 讲道理C罗要去了上港，武磊还是绝对主力，C罗最多和吕文君竞争一个替补，争取进18人大名单 你老婆会出轨的 是吗？冠军是谁的 上赛季两队打了6次，最后是几胜几负啊，我记不清了，谁被打趴了，我也不怎么记得了，只知道恒大亚冠，足协杯双冠王 来过中国？ 来来来我要做保利尼奥第二[大笑][大笑] 就算奥斯卡能够成功，问题是他为什么要降薪去巴萨？ 呵呵 奥斯卡球品不行，就算他再高手，跟上港一堆废材踢学得更坏。也不可能降薪水去巴萨。 讲道理梅西要是去了国安，稀哲还是绝对主力，梅西最多和杨智竞争一个替补，争取进18人大名单[窃笑] 他在讽刺上岗 呵。谁给你的自信？ 你老爸得肺癌不知身亡 是是是，总裁垃圾，比不过老板，满意了吧 巴萨在淘宝买假货上瘾了啊买个后腰结果是个前锋这次是怎么打算的 这个中超遛猴王奥斯卡一般般耶[狗][狗][狗] 一直觉得吕文君有大部分中超球队主力的实力，在上港替补有些屈才 暴力鸟都主动降薪了，如果这事是真的话，我不信奥斯卡不会主动降薪去巴萨 好像巴萨是会员制，买不了，除非你把整个巴萨罗那市买了 拉莫斯终于有了旗鼓相当的犯规对手 这球员名字起的废鸡儿 年年双杀，年年无冠！支持！ 2015和2017，两个赛季是上港想跟恒大争霸的赛季，上港组建了孔卡、吉安、达维1.0版争冠阵容，结果被恒大打趴的跪下来，2017上港组建了奥斯卡、胡尔克、埃尔克森的2.0版争冠阵容，结果联赛依然是被恒大打趴的跪下来，，上港收获“三大皆空”。三亚冠军从来就没有好下场，2018丧港继续四大皆凶 ",
        "Reply": 302
    },
    "Article": "网易体育12月29日报道：在这个冬天，巴萨最想要的前场新援是库蒂尼奥。但如果利物浦始终不放人的话，巴萨将不得不启动B计划。《马卡报》指出，如果无缘库蒂尼奥，巴萨将更倾向于引进一名有资格踢欧冠淘汰赛的球员。在该报列出的四人候选名单上，上海上港球员奥斯卡的名字赫然在列！今年夏天，巴萨从广州恒大挖走了保利尼奥，巴西人如今已经是巴萨的绝对主力了，他在国家德比中有着超一流的发挥。现在，巴萨又要来中超挖角了？在上海上港，奥斯卡是前腰位置上的核心球员。在来到上海之前，奥斯卡则在切尔西和巴西队中都踢过绝对主力。但《马卡报》也承认，巴萨就算买得起奥斯卡，也很可能养不起他。上海上港为奥斯卡支付了6100万欧元转会费，考虑到巴萨为库蒂尼奥报价超过1亿欧元，红蓝军团在转会费投入上并不缺钱。关键在于，巴萨无法承担奥斯卡的高额年薪，他在上港年入2400万欧元。2400万欧元是个什么概念？在巴萨，这将是仅次于梅西的第二高薪。如果奥斯卡不大幅度降薪的话，巴萨将无法负担他的薪水。《马卡报》还给出了另外三个能踢欧冠的候选人，厄齐尔相对身价最低，毕竟他和阿森纳的合同只剩下了半年。不过厄齐尔年薪也达到了900万欧元，而且他已经29岁了，巴萨担心又买来个图兰式养老混日子的球员。巴萨已经接触了格雷米奥的亚瑟，并为他估价2500万欧元。不过《世界体育报》昨天指出，就算巴萨收购了亚瑟，也更倾向于将他回租格雷米奥一年。另一个人选是里昂队长费基尔，他本赛季出场22次打进15球，他甚至复刻过梅西的晾球衣庆祝方式。费基尔的身价，将不会超过5000万欧元。本文来源：网易体育作者：张琳责任编辑：姚成浩_NS4810",
    "Title": "奥斯卡跻身巴萨冬季引援名单 他有一个巨大优势!_网易体育"
}