{
    "Source": "Netease",
    "KeyWords": "无人机,飞行,盲降,增雨",
    "URL": "http://news.163.com/17/1224/12/D6E1S5UN000187VE.html",
    "PublishTime": "12/24/201712:40:00",
    "Comment": {
        "Content": "为啥不下雨，值得研究，，全国干旱，湖水都干，河流也干旱，，那里来的雨，，为啥呢 这不是前两天军事演习的图片吗，还有人说飞机丑，这怎么又成降雨了。 人工降雨吧 你在你们县搞人工降雨，我们怎么办？我们这儿也需要雨啊！ 好！<br>中国航空事业加油！ 科技改变环境，也许可以考虑人工减雨，防治洪涝灾害。 中国日报中国航天空气动力技术研究院彩虹系列美国新闻周刊缅甸巴基斯坦佐治亚理工研究工程师原子能捕食者无人机以色列航空航天工业先锋无人机 做得好，我的国 ",
        "Total": 8,
        "Link": "http://comment.news.163.com/news2_bbs/D6E1S5UN000187VE.html",
        "Reply": 8
    },
    "Article": "（原标题：国内首次无人机人工增雨试验获成功）无人机带着播撒器飞向天空近日，中国航天科技集团有限公司四院中天火箭公司首次利用无人机成功进行人工增雨作业。这是国内首次利用无人机在复杂天气情况下，进入云中播撒作业实现降水，标志着无人机技术有望更广泛地运用于人工影响天气工作中。无人机增雨是一种全新的作业模式，无人机系统搭载机载播撒系统，可直接进入云层中播撒作业。据了解，本次试验的无人机最大荷载50公斤，每次飞行的有效时间达到125至250分钟，具备盲降能力，在加装特殊设备后，空管部门可实时监控和指挥。相比过去的对空射击、有人机等手段，无人机增雨具有飞行高度高、作业时间长，应对复杂天气能力强等优点。中天火箭公司积极开拓新领域，研发出适用于该型无人机的机载播撒器，成为新的人工影响天气作业手段，为防灾减灾作出更大贡献。本文来源：中国航天报责任编辑：范姜国一_NN9138",
    "Title": "中国首次无人机人工增雨试验成功 可进入云层作业_网易新闻"
}