{
    "Article": "（原标题：广西九旬老人病重住大棚，镇政府：当地忌讳老人在女儿家过世）#endText.video-infoa{text-decoration:none;color:#000;}#endText.video-infoa:hover{color:#d34747;}#endText.video-listli{overflow:hidden;float:left;list-style:none;width:132px;height:118px;position:relative;margin:8px3px0px0px;}#entText.video-lista,#endText.video-lista:visited{text-decoration:none;color:#fff;}#endText.video-list.overlay{text-align:left;padding:0px6px;background-color:#313131;font-size:12px;width:120px;position:absolute;bottom:0px;left:0px;height:26px;line-height:26px;overflow:hidden;color:#fff;}#endText.video-list.on{border-bottom:8pxsolid#c4282b;}#endText.video-list.play{width:20px;height:20px;background:url(http://img1.cache.netease.com/video/img14/zhuzhan/play.png);position:absolute;right:12px;top:62px;opacity:0.7;color:#fff;filter:alpha(opacity=70);_background:none;_filter:progid:DXImageTransform.Microsoft.AlphaImageLoader(src=\"http://img1.cache.netease.com/video/img14/zhuzhan/play.png\");}#endText.video-lista:hover.play{opacity:1;filter:alpha(opacity=100);_filter:progid:DXImageTransform.Microsoft.AlphaImageLoader(src=\"http://img1.cache.netease.com/video/img14/zhuzhan/play.png\");}if(/(iPhone|iPad|iPod|Android|NETEASEBOBO|blackberry|bb\\d+)/ig.test(navigator.userAgent)||/safari|chrome|firefox/i.test(navigator.userAgent)&&navigator.plugins&&!navigator.plugins[\"ShockwaveFlash\"]){varstr1='<videocontrols=\"controls\"preload=\"auto\"width=\"100%\"poster=\"http://vimg3.ws.126.net/image/snapshot/2018/1/G/I/VD689P6GI.jpg\"style=\"max-height:100%\">';varstr2='<sourcetype=\"video/mp4\"src=\"http://flv.bn.netease.com/videolib3/1801/02/hJjNg7662/SD/hJjNg7662-mobile.mp4\">您的浏览器暂时无法播放此视频.</video>';document.getElementById(\"FPlayer1404863609673\").parentNode.innerHTML=str1+str2;}广西九旬老人病重住大棚，镇政府：当地忌讳老人在女儿家过世（来源：~）window.NTES&&function(d){varf=function(c){varb=c.getAttribute(\"flashvars\"),a=c.getAttribute(\"repovideourl\").replace(\".flv\",\"-mobile.mp4\");h=d(c.parentNode.parentNode.parentNode),g='<embedsrc=\"http://v.163.com/swf/video/NetEaseFlvPlayerV3.swf\"flashvars=\"'+b+'\"allowfullscreen=\"true\"allowscriptaccess=\"always\"quality=\"high\"wmode=\"opaque\"width=\"100%\"height=\"100%\"type=\"application/x-shockwave-flash\"/>';if(/(iPhone|iPad|iPod|Android|NETEASEBOBO|blackberry|bb\\d+)/ig.test(navigator.userAgent)){g='<videocontrols=\"controls\"preload=\"auto\"width=\"100%\"height=\"100%\"><sourcetype=\"video/mp4\"src=\"'+a+'\">您的浏览器暂时无法播放此视频.</video>';}h.$(\".video\")[0].innerHTML=g;},e=function(b){vara=d(b.parentNode.parentNode.parentNode);a.$(\"li\").removeCss(\"on\"),b.addCss(\"on\"),a.$(\".video-title\")[0].innerHTML=\"string\"==typeofb.textContent?b.textContent:b.innerText,a.$(\".video-title\")[0].setAttribute(\"href\",b.getAttribute(\"url\")),a.$(\".video-from\")[0].innerHTML=\"（来源：\"+b.getAttribute(\"source\")+\"）\",f(b);};window.continuePlay=function(){vara,b=d(d(\".video-list.on\")[0].nextSibling);3==b.nodeType&&(b=d(b.nextSibling));if(b&&d(\".video-innerinput\")[0].checked){e(b);}},function(){vara={init:function(){if(d(\".video-listli\")[0]){d(d(\".video-listli\")[0]).addCss(\"on\"),this.eventBind();}},eventBind:function(){d(\".video-listli\").addEvent(\"click\",function(b){e(d(this)),b.preventDefault();});}};a.init();}();}(NTES);针对“广西南宁市横县一老人住大棚疑遭亲人遗弃”一事，1月2日，澎湃新闻从横县县委宣传部工作人员处证实，经了解，上述事件发生在该县南乡镇。南乡镇政府工作人员表示，根据当地风俗，比较忌讳老人在女儿家过世，此前老人无法进食，遂被其女儿安排住进大棚。在老人住大棚期间，其女儿有照顾老人，不存在网传遗弃行为。目前，老人已被家属接回家。澎湃新闻获得的两段视频显示，在一处菜地边，盖有一间简易大棚，大棚内睡着一位老人。和外人交流时，老人声音微弱，疑身体欠佳。对于上述事件，横县县委宣传部工作人员向澎湃新闻表示，经了解，该县南乡镇政府与县民政部门得知有一名老人住简易大棚的情况后，立刻接老人到镇卫生院检查与治疗，并与老人的女儿商量老人的赡养问题。南乡镇政府工作人员告诉澎湃新闻，上述事件发生于该镇大沙村，视频中的老人姓黄，老人确实住过大棚，但网传内容部分失实，有夸张成分。拍摄相关视频的人因存在歪曲事实等行为，已被批评教育。网络流传的一份南乡镇政府于2017年12月29日发布的通报显示，涉事老人姓黄，1924年11月出生，有两个女儿和一个干女儿。妻子去年过世后，老人和干女儿陈某某生活在一起，并由陈某某代领老人每月1891元的补助金。然而，老人病情加重，陈某某一家不愿老人在家里离世，就在菜地搭棚给老人居住。2017年12月28日，当地村民黄某某发现后，气愤之下拍摄了相关视频。南乡镇政府工作人员向澎湃新闻证实，上述网传通报属实。该工作人员表示，此前，老人无法进食，根据当地风俗，比较忌讳老人在女儿家过世，于是老人住进了大棚。在老人住大棚期间，老人的女儿每天都有照顾老人的生活起居，不存在遗弃现象。目前，老人已在镇卫生院做过检查，身体无大碍，后被家属接回家照顾赡养。98岁老太凌晨穿寿衣拿白布站树边警察吓出一身汗现代快报讯近日，发生在连云港赣榆区青口镇的一件事，听起来让人心酸。现代快报记者了解到，一名98岁老太因长期一人独居产生厌世心里，深夜穿着\"送老衣\"，拿着白布条颤颤巍巍的来到一棵小树边，欲寻短见，幸亏被巡逻民警及时发现。本文来源：澎湃新闻责任编辑：范姜国一_NN9138",
    "Title": "9旬老人病重却住大棚 官方:忌讳老人在女儿家过世_网易新闻",
    "PublishTime": "01/02/201820:27:00",
    "Source": "Netease",
    "Comment": {
        "Content": "我退休了就准备好药，到了不能自理的那天就痛快吃了去球，都是一个孩子别麻烦了 当地风俗？ 应该全国都是这种情况本来没有禁忌，老人寿终正寝都算喜丧，只是这女儿如此对待老人，别怪她老了她孩子也这么对待她 90岁那是神仙啊！不供家中？ 幺姑爷（爸爸的妹夫）前段时间去世了，医生建议拉回家，我们亲眼守着他断气，整整两天才彻底断气，但是安排他在自家堂屋里躺着，看到这种等死的视频，很难过。 没人仔细看文章吗？这个是老人的干女儿我想问问老人两个亲女儿呢？？ 他们当地的习俗是老人要死就得自己到外边死去？那当地小孩出生后怎么不扔外头让孩子自己到处爬着找食儿吃呢？ 看来当地的女儿家都不会老也不会死！ 我想起网上经常有女的嫁出去了，不能回娘家过年的习俗，突然觉得这都什么年代了，还有这些乱七八糟的习俗也是见了鬼了 我老家那边的风俗是要回村里去世，我爷爷前一个月出世，当时在医院住院，住了三天医生说:不留你们了，带回家去吧。我爷爷97年，脑萎缩，半个脑都萎缩空了，第一天住院能吃能喝能跑步，第二天就不能走了，能吃一点，那时他就吵着要回家，喉咙有痰都咳不出来，我爸爸拿了安宫牛黄丸给他吃都吞不下，我姑妈骗他说:你不吃这个就不带你回家。我爷爷死劲才吞下去，第三天早上医院说:可以回家了，没有必要再抢救，送我爷爷回老家，幸好还能住人。我爷爷不吃不喝扛了7天，喝水都喝不了，要呛到，只能用棉签沾湿擦嘴唇口腔。我们客家农村讲究要在祠堂断气，快不行了赶紧抱到祠堂去，这样才算归宗。进祠堂我们也有讲究，年纪低于65去世的不能进祠堂，在外面断气了不能进祠堂，只能在祠堂另一个侧门的走廊里。我村有个老人，在医院抢救，医生说送回家吧，迟了一步，半路断气了，没能进祠堂，过了头七以后他托梦给他儿子说他进不了家里去，大门的门神拦着他不让他进，说他不是这里人！后来他儿子请了仙公烧了东西才好的。这东西到底信不信，邪不？ 估计自己都是做父母的人了，怎么这样对待自己的父亲？难道不怕自己老了自己的孩子也效仿？ 就算有这样的风俗，把老人送到医院也好啊 我们老家一般也没有死的女儿家的，即使没儿子，还有侄子，因为一个门不能有两家去世的人出，一般女儿家还有公公婆婆，自己不忌讳，就怕婆家人不答应，我只是阐述习俗，不代表我的个人关点，不喜勿喷 中国的陋习很多，这只是其中之一，大家别做圣人姨， 真有钱不能送那种真正带护理的高级养护机构（不是那种滥竽充数的养老院）？ 哎，人老了命运就不在自己手里了，想想都可怕！！ 我邻居家的老人就被这样对待的[喷水]，可我周围人说他是因为存折都给了女儿儿媳才不让他回家，他天天在大街骂儿媳不孝顺，最终老在了菜园上的小屋里，他怎么不找他儿子女儿解决呢[疑问] 不管怎么说，感谢这位拍视频的人。你让我们了解了世界上竟然有这样的女儿！ 家里真事，一个远房亲戚，生了三个女人，老人是抗美援朝回来的英雄，和老伴都90多了，女婿都很有钱，谁也不服谁，老人过世了，三个女儿谁也不想带她们的母亲回家管，都说给钱，然后约定一个人养4个月，结果到老二家，直接把老母亲锁在地下室里，老人半夜喝水爬起来直接摔死了。 竟然是干女儿，两个亲女都不见了，不觉得这里面有七窍吗 🈶️的时候养人不如养狗狗没有思想你对它好它就会报荅你，而人则不同:。 回娘家不能同床，规矩多泥，都是狗屁 钱都给了干女儿，亲女儿肯定不愿意出来了。不患寡而患不均 他们当地人都死在外面的？ 没听说有这样的风俗，即使有，也是歪风邪气，应当移风易俗！领取老人的养老金，却将老人弃置户外，在这个寒冷的冬天，老人的处境恶劣可想而知！ 礼义廉耻孝悌忠信？ 家里亲戚癌症晚期住院，老两口在老家有啥事都是闺女女婿的，儿子事业有成，老太太给孙子带到上高中回老家了。儿子一年过年回来呆四五天还都在应酬，老两口都说儿子媳妇好。去年老太住院一个月忙前忙后都是女儿女婿，出院了儿子回来瞧一眼。现在老爷子癌症晚期住院了，在老家医院非得弄北京化疗啥的，还都不管又是女婿跟着来北京伺候，媳妇一个星期上医院待五分钟，儿子也是来也匆匆去也匆匆。医生说这一个疗程完了回家养着第二个疗程再来，媳妇宁愿花钱让他住院。 歪风邪气 很多这种的也是，好事想着女儿，拿钱伺候找儿媳妇，说什么传统，老话还说十年看婆十年看媳呐，有些事情说不清的 看了很心酸，拍视频的人是有良知的 记者问一位打理教堂地下墓穴的工作人员，“每天面对一堆堆白骨，你不害怕吗”，工作人员微笑着说“这有什么害怕的，我只不过比他们多一层皮肉而已，最终，我们都是一样的”。 请尊重地方的风俗。 我们那边老人过世没任何禁忌。寿终正寝为喜丧 他妈的最讨厌的回老婆娘家不能同房，想打炮都难1[窃笑][窃笑][窃笑]老丈人高州荷花的， 没觉得干女儿哪里做错了啊？<br>干女儿只是一种口头协议，我们这里也只是嘴上叫叫，没有血缘关系，没有抚养赡养关系，作为干女儿，在干妈去世后，让干爹跟自己生活，自己不错的了，要供应三餐，还要服侍，还要看病，别跟我说干女儿是看上1000多的补助金了，够吗？？<br>每个地区的民俗不一样，当地政府都说了，说明当地是很忌讳这一点的，我们这里也是，除非女儿在家，招的上门女婿，女婿家一般是不允许做这事的，而且，亲家公亲家母也不允许，这是触霉头的。<br>比如说，儿子入赘出去了，父母死了，客气点的无所谓，按风俗习惯的，儿媳妇都不会披麻戴孝，也就是重孝。<br>好歹人家也搭了大棚，也去照顾，并非不理不问，要说骂的话，就骂他的两个女儿了，都没有哥哥兄弟，把老父亲丢给干妹妹《或者干姐姐》，这有点不道德。<br>当然，还有一种可能，就是如果老人将家产让干女儿继承，那么她照顾老人理所当然，不过回想一下，也不可能，毕竟自己有两个亲生女儿。<br>不要说封建，不要说恶习，选举投票也讲究少数服从多数，既然当地有这个风俗，就遵守当地的民意，就好比过年了放爆竹一样，有人反对，有人赞成，这也是遗留下来的风俗啊，你可以抵制，你不能强制别人抵制。<br>个人观点，勿喷。 我们那，老人死了，不能死在老二家，老大，老小都可以。说不清楚为什么 这样的狗屁，不取缔还打算申请非物质文化遗产吗？ 干女儿 我老家也有这样风俗！这个女儿也是没办法，即使再孝可夫家人会不同意！父母不能死在女儿家，这样认为不吉利，夫家会家破人亡！理解这个女儿，但是应该照顾好父母，不能让父母临死挨冻！ 现在都独生子女了照这说法以后岳父岳母都不能尽孝了吗？ 那两个亲女儿呢？ 家有二老如有二宝，父母是儿女的活菩萨。。。祝天下的老父亲老母亲身体健康，长命百岁！ 等于空空空空空空空空空 人心是怎么一步步变坏。 你的后代也一定会这样对你 老人有病，就去治 我退休了就准备好药，到了不能自理的那天就痛快吃了去球，都是一个孩子别麻烦了 可怜 时代不同了，男女都一样（常见于纸布制品）<br>实在不行了，男女都一样（常见于表演台词）<br>你觉得哪句话实际？？ 二楼定律 借口罢了，每个人都有老的那一天，被人推到那个恐惧的棚子里，回想自己的一生，感谢拍摄者让我们真的涨了见识。认识了，也清醒了很多！ 歪风邪气 习俗就是借口 估计没钱送 幺姑爷（爸爸的妹夫）前段时间去世了，医生建议拉回家，我们亲眼守着他断气，整整两天才彻底断气，但是安排他在自家堂屋里躺着，看到这种等死的视频，很难过。 独生子女怎么办？ 没人仔细看文章吗？这个是老人的干女儿我想问问老人两个亲女儿呢？？ 不管怎么说，感谢这位拍视频的人。你让我们了解了世界上竟然有这样的女儿！ 我想起网上经常有女的嫁出去了，不能回娘家过年的习俗，突然觉得这都什么年代了，还有这些乱七八糟的习俗也是见了鬼了 让病重老人有尊严的离世是基本的人性关怀！ 就算有这样的风俗，把老人送到医院也好啊 道德绑架 中国的陋习很多，这只是其中之一，大家别做圣人姨， 我婶婶就是这样，我奶奶归他们家管，养老金给他们领，他们却不怎么管我奶奶 妈的，这个棺方太不要脸了，当我们都是傻逼 真有钱不能送那种真正带护理的高级养护机构（不是那种滥竽充数的养老院）？ 哎，人老了命运就不在自己手里了，想想都可怕！！ 我邻居家的老人就被这样对待的[喷水]，可我周围人说他是因为存折都给了女儿儿媳才不让他回家，他天天在大街骂儿媳不孝顺，最终老在了菜园上的小屋里，他怎么不找他儿子女儿解决呢[疑问] 闽南地区老人临终会移至祖厝 有这习俗。就算在家死后要算命先生看下的 家里真事，一个远房亲戚，生了三个女人，老人是抗美援朝回来的英雄，和老伴都90多了，女婿都很有钱，谁也不服谁，老人过世了，三个女儿谁也不想带她们的母亲回家管，都说给钱，然后约定一个人养4个月，结果到老二家，直接把老母亲锁在地下室里，老人半夜喝水爬起来直接摔死了。 应该全国都是这种情况本来没有禁忌，老人寿终正寝都算喜丧，只是这女儿如此对待老人，别怪她老了她孩子也这么对待她 竟然是干女儿，两个亲女都不见了，不觉得这里面有七窍吗 还不如养只狗🐶 我老家那边的风俗是要回村里去世，我爷爷前一个月出世，当时在医院住院，住了三天医生说:不留你们了，带回家去吧。我爷爷97年，脑萎缩，半个脑都萎缩空了，第一天住院能吃能喝能跑步，第二天就不能走了，能吃一点，那时他就吵着要回家，喉咙有痰都咳不出来，我爸爸拿了安宫牛黄丸给他吃都吞不下，我姑妈骗他说:你不吃这个就不带你回家。我爷爷死劲才吞下去，第三天早上医院说:可以回家了，没有必要再抢救，送我爷爷回老家，幸好还能住人。我爷爷不吃不喝扛了7天，喝水都喝不了，要呛到，只能用棉签沾湿擦嘴唇口腔。我们客家农村讲究要在祠堂断气，快不行了赶紧抱到祠堂去，这样才算归宗。进祠堂我们也有讲究，年纪低于65去世的不能进祠堂，在外面断气了不能进祠堂，只能在祠堂另一个侧门的走廊里。我村有个老人，在医院抢救，医生说送回家吧，迟了一步，半路断气了，没能进祠堂，过了头七以后他托梦给他儿子说他进不了家里去，大门的门神拦着他不让他进，说他不是这里人！后来他儿子请了仙公烧了东西才好的。这东西到底信不信，邪不？ 我来给这位老人做个法事<br><br>天灵灵，地灵灵，妖魔鬼怪快显形<br>天兵天将我来请，太上老君急急如令<br>一请高圆圆，二请佟丽娅<br>三请迪莉热吧，四请杨天宝<br>五请老干妈，六请董明珠<br>七请章子怡，八请林志玲<br>九请娜扎，十请小编 也不知道为什么会有这样的习俗 钱都给了干女儿，亲女儿肯定不愿意出来了。不患寡而患不均 这个拍视频的被批评教育了，没拘留算他命大 没听说有这样的风俗，即使有，也是歪风邪气，应当移风易俗！领取老人的养老金，却将老人弃置户外，在这个寒冷的冬天，老人的处境恶劣可想而知！ 愚昧 家里亲戚癌症晚期住院，老两口在老家有啥事都是闺女女婿的，儿子事业有成，老太太给孙子带到上高中回老家了。儿子一年过年回来呆四五天还都在应酬，老两口都说儿子媳妇好。去年老太住院一个月忙前忙后都是女儿女婿，出院了儿子回来瞧一眼。现在老爷子癌症晚期住院了，在老家医院非得弄北京化疗啥的，还都不管又是女婿跟着来北京伺候，媳妇一个星期上医院待五分钟，儿子也是来也匆匆去也匆匆。医生说这一个疗程完了回家养着第二个疗程再来，媳妇宁愿花钱让他住院。 越有钱越抠啊 还有地方女儿嫁出去生小孩儿也不能在娘家生。封建迷信太多，不过现在都要去医院了，不然户口都上不了，也算间接解决了一种 很多这种的也是，好事想着女儿，拿钱伺候找儿媳妇，说什么传统，老话还说十年看婆十年看媳呐，有些事情说不清的 有不少二手房听说家里死过人都有便宜点 为啥要批评教育拍视频的人。是他应受表彰才对。 抗美援朝是英雄？ 我们那边老人过世没任何禁忌。寿终正寝为喜丧 对于房子，老话说：借死不借生！ 没觉得干女儿哪里做错了啊？<br>干女儿只是一种口头协议，我们这里也只是嘴上叫叫，没有血缘关系，没有抚养赡养关系，作为干女儿，在干妈去世后，让干爹跟自己生活，自己不错的了，要供应三餐，还要服侍，还要看病，别跟我说干女儿是看上1000多的补助金了，够吗？？<br>每个地区的民俗不一样，当地政府都说了，说明当地是很忌讳这一点的，我们这里也是，除非女儿在家，招的上门女婿，女婿家一般是不允许做这事的，而且，亲家公亲家母也不允许，这是触霉头的。<br>比如说，儿子入赘出去了，父母死了，客气点的无所谓，按风俗习惯的，儿媳妇都不会披麻戴孝，也就是重孝。<br>好歹人家也搭了大棚，也去照顾，并非不理不问，要说骂的话，就骂他的两个女儿了，都没有哥哥兄弟，把老父亲丢给干妹妹《或者干姐姐》，这有点不道德。<br>当然，还有一种可能，就是如果老人将家产让干女儿继承，那么她照顾老人理所当然，不过回想一下，也不可能，毕竟自己有两个亲生女儿。<br>不要说封建，不要说恶习，选举投票也讲究少数服从多数，既然当地有这个风俗，就遵守当地的民意，就好比过年了放爆竹一样，有人反对，有人赞成，这也是遗留下来的风俗啊，你可以抵制，你不能强制别人抵制。<br>个人观点，勿喷。 这个解释真是不能太人性合理了 要是我就把老人领回家，养老金谁爱领谁领，反正谁家也不差老人一口饭，看着老人遭罪多可怜 既然有钱为什么都不愿意请个保姆？ 🈶️的时候养人不如养狗狗没有思想你对它好它就会报荅你，而人则不同:。 现在都独生子女了照这说法以后岳父岳母都不能尽孝了吗？ 家有二老如有二宝，父母是儿女的活菩萨。。。祝天下的老父亲老母亲身体健康，长命百岁！ 他妈的最讨厌的回老婆娘家不能同房，想打炮都难1[窃笑][窃笑][窃笑]老丈人高州荷花的， 对，我也想知道，莫非亲女儿都死了，为什么不心疼自己的父母？ 以前老家也有很多陋习，至少现在他们都会说什么年代了！有所育，当报之 你说得你这么伟大，你怎么不把老人院那些将近寿终的老人到你家等待正寝呢？ 在农村老人家年纪大，走了村里人都会过来吃斋饭，添福气，相反如果年纪轻轻就走了，这种白事大家都很忌讳参加的。 当地风俗？ 我觉得吧，这样的女儿就应该回炉重造！ 估计自己都是做父母的人了，怎么这样对待自己的父亲？难道不怕自己老了自己的孩子也效仿？ 应该全国都是这种情况本来没有禁忌，老人寿终正寝都算喜丧，只是这女儿如此对待老人，别怪她老了她孩子也这么对待她 90岁那是神仙啊！不供家中？ 他们当地的习俗是老人要死就得自己到外边死去？那当地小孩出生后怎么不扔外头让孩子自己到处爬着找食儿吃呢？ 这么个棚子冬天能过？为什么不是女儿一家住棚老人住家里？ 要这种女人干什么 中华美德就是这么传承的 不管怎么说，感谢这位拍视频的人。你让我们了解了世界上竟然有这样的女儿！ 越穷的地方事越多， 我想起网上经常有女的嫁出去了，不能回娘家过年的习俗，突然觉得这都什么年代了，还有这些乱七八糟的习俗也是见了鬼了 不孝子孙！ 我们老家一般也没有死的女儿家的，即使没儿子，还有侄子，因为一个门不能有两家去世的人出，一般女儿家还有公公婆婆，自己不忌讳，就怕婆家人不答应，我只是阐述习俗，不代表我的个人关点，不喜勿喷 滑天下之大稽啊，朋友们！ 这个怎么说，其它地方还为了配阴婚呢 天操人成功的躲过了勤劳善良，勇敢正直，等一些美好的词语 这官方回复得有多流氓 他们可没想过自己会老 中国人，还是人吗？ 丧尽天良，什么狗东西，查查这几个女婿钱怎么赚的，弄死他们 可是拍摄相关视频的人因存在歪曲事实等行为，已被批评教育。搞笑不？ 这官方回复得有多流氓 家里真事，一个远房亲戚，生了三个女人，老人是抗美援朝回来的英雄，和老伴都90多了，女婿都很有钱，谁也不服谁，老人过世了，三个女儿谁也不想带她们的母亲回家管，都说给钱，然后约定一个人养4个月，结果到老二家，直接把老母亲锁在地下室里，老人半夜喝水爬起来直接摔死了。 广西南宁横县 那两个亲女儿呢？ 不算说要治理歪风邪气吗？不会是放了个屁？ 回娘家不能同床，规矩多泥，都是狗屁 我们这里是在外死的人不回家（不放家里），直接在外收尸。 没听说有这样的风俗，即使有，也是歪风邪气，应当移风易俗！领取老人的养老金，却将老人弃置户外，在这个寒冷的冬天，老人的处境恶劣可想而知！ 看来当地的女儿家都不会老也不会死！ +1 封建迷信害死人 嗯，我们老家也是这么说。女看娘家灯，后人断了根..... 记者问一位打理教堂地下墓穴的工作人员，“每天面对一堆堆白骨，你不害怕吗”，工作人员微笑着说“这有什么害怕的，我只不过比他们多一层皮肉而已，最终，我们都是一样的”。 我们那边老人过世没任何禁忌。寿终正寝为喜丧 无论怎么走的，自己父母有啥忌讳 我老家也有这样风俗！这个女儿也是没办法，即使再孝可夫家人会不同意！父母不能死在女儿家，这样认为不吉利，夫家会家破人亡！理解这个女儿，但是应该照顾好父母，不能让父母临死挨冻！ 90多，是喜事 我们老家也有这样的忌讳。除非没儿子也没侄子才可以在女儿家过世，不然是大忌。还有一大忌是出嫁的女儿去娘家坟地祭祖，女儿去就是绝后的意思。这就是农村为啥非要个儿子的原因，。一是传宗接代。二是送终。个人发表的风俗对本文章不做评价。不喜勿喷. 这样的狗屁，不取缔还打算申请非物质文化遗产吗？ 这官方回复得有多流氓 看了很心酸，拍视频的人是有良知的 老有所依，老有所养。嗨，想想都害怕 干女儿 歪风邪气应该取缔 没有敬老院? 还是不愿管，所以说生的多没用，生一个能教好就不错了。 人心是怎么一步步变坏。 他们当地人都死在外面的？ 等于空空空空空空空空空 请尊重地方的风俗。 我们村有这样的好几年了俩儿子不管老人女儿管过年了女儿觉得老人在她家过年自己兄弟脸上挂不住送回来了结果当晚老人睡了一晚柴禾垛以后还是他女儿管着 不管怎么说，感谢这位拍视频的人。你让我们了解了世界上竟然有这样的女儿！ 礼义廉耻孝悌忠信？ ",
        "Reply": 107,
        "Link": "http://comment.news.163.com/news2_bbs/D762H0C7000187VE.html",
        "Total": 1394
    },
    "KeyWords": "老人,镇政府,女儿",
    "URL": "http://news.163.com/18/0102/20/D762H0C7000187VE.html"
}