{
    "Article": "（原标题：乌克兰阻挠保加利亚维修俄制战机？保防长发飙称有黑幕）参考消息网12月27日报道据路透社12月20日报道称，保加利亚国防部长20日表示，由于乌克兰机械进出口公司提出异议，保政府将被迫暂停与俄罗斯米格飞机制造公司商谈战斗机检修项目。该项目原计划耗资8130万列弗（约合4930万美元）。报道称，保加利亚国防部长克拉西米尔·卡拉卡恰诺夫告诉记者，就在不久前，保政府刚刚请求米格公司检修和维护15架老旧的米格战机，并准备就此与米格公司签订为期4年的合同。图为保加利亚空军装备的米格-29战斗机卡拉卡恰诺夫认为，乌克兰机械进出口公司向保加利亚反垄断部门提出异议，等于是在“破坏”保国防部与米格公司签订直接合同的计划。英媒称，保加利亚濒临黑海，是欧盟和北约成员国。保政府认为米格公司是唯一能够为其提供可靠技术支持的厂商，所以没有邀请其他厂商参与竞争。卡拉卡恰诺夫说:“乌克兰机械进出口公司没有相关执照，没有能力进行此类检修。事实上，这家乌克兰企业的所作所为是企图破坏保加利亚国防部的决定。为检修飞机，国防部决定直接与米格公司进行谈判。”他在新闻发布会上说：“我们尚未发现这一行径究竟出于政治目的还是经济目的，是不是国防部决定不与中间人合作使一些人感到意外，因而心怀不满。”自从2014年乌克兰内战爆发以来，乌克兰与俄罗斯的关系一直处于低谷。保加利亚国防部发表声明称，乌克兰企业此举妨碍了保加利亚军机维护计划。由于此事发生的时机接近年底，保国防部需要等到三四个月以后才能再次为检修计划争取国家预算。保加利亚认为有必要继续保证苏联时代采购的军机的作战能力，因为此前采购8架新战机的计划已经搁浅。新的采购流程几乎要从头再来，启动时间可能在明年某个时候。（编译/刘子彦）本文来源：参考消息网责任编辑：姚文广_NN1682",
    "Source": "Netease",
    "KeyWords": "保加利亚,乌克兰,战机,国防部",
    "Title": "乌克兰阻挠保加利亚维修俄制战机？保称有黑幕_网易军事",
    "Comment": {
        "Total": 760,
        "Content": "这太假了，保加利亚是北约国家，苏制战机差不多退完了， 俄🐶，你发神马飙啊？ 不再获得无偿援助的国家将有越南、突尼斯、哥伦比亚、黎巴嫩、菲律宾和乌克兰等。。我说老菲怎么转郭嘉了呢 你个SB双黄玩砸了。 越南反华时，找出的借口不只“7大恨”。 人家本来就不想修，俄国人逼着要修飞机，现在有人抗议正好不修了。 米格29人家蛾拉屎都当靶机。还有修的必要吗。 钱让俄狗挣了去要造多少核弹来危害世界啊！！！ 大饥荒，人为的！ 乌克兰一家公司提出异议，另外个郭嘉的国防布就立马取消了合同意向。是啥黑幕？乌克兰一家公司有这么大能量？参考消息你能说清楚点吗？ 不能说的更清楚了！这乌克兰一家公司现在就能代表皿煮，背后是美国，保加利亚政府得罪不起！ 美帝把核武器消减了，俄罗斯的不就也消减了么~~~光指责俄罗斯，不说美帝，都是无节操的双标狗~~~ 天花病毒杀土著人，谁敢骂？ 明白了，皿煮就是你的敌人啊，难怪你这么慌 仔细看全文了吗 对于你这两个傻逼，不知道你们在这里讨论斯大林是暴君跟我们有什么关系？<br>请记住，苏联是中美合作搞垮的~~~现在是中俄合作对抗邪恶的美国~~~ 俄人身上有异味是真的吗 这新闻太假了，保加利亚是北约国家，苏制战机差不多退完了， 俄国是有历史沉淀的国家。 为了特权，不惜一切，哪怕是领土和民族灵魂！<br>否则，很难解释卖国黄恶的所作所为。<br>就连一向沉稳的默克尔都忍不住送地图表达内心的不解和鄙视！ 我说的是文学艺术上的。 天下乌鸦一般黑 乌克兰的武器生产和维修基本上都已经不能保证，还有什么好阻止别人的？ 话说从苏联分裂出来后，乌克兰怎么减少了这么多人口？ 参考在给它爹洗地。 野儿猫更厉害 介绍大家看看2017年的根据真实事件改编影片（苦难的收获）看完心情会很沉重的屎大淋就是个暴君不把乌克兰人民当个人这就是为什么乌克兰抓到机会要脱离俄罗斯2013年是1933年乌克兰大饥荒事件80周年，乌克兰共和国首都基辅，民众举行仪式纪念乌克兰大饥荒事件，追悼遇难的数百万同胞。乌克兰大饥荒是出现在斯大林农业集体化背景下的灾难，据不同的统计数字，有240万至1500万人死于这一事件 美国驻日本占领军像日本的女人们问候新年好，感谢这一年来日本女性的殷勤伺候，感谢日本男人们辛苦的看门端尿壶，送纸巾！更是感谢这些年生下的儿子们这么孝心，你们虽然身在中国，但是我们想着你们！在新的一年里，我驻日本占领军会再接再厉，也希望日本女人能多喊几句亚麻跌……————大不列颠.美跌.驻日韩占领军 想当年两颗大蘑菇炸死了多少日本人啊？ 大饥荒的时候，闹独立的西乌还属于波兰。<br>因此，那一段历史属于现在要求回归俄罗斯的东乌。<br><br>故事发生地的东乌，要求回归俄罗斯，而当时不是苏联的西乌，拿这件事说事。<br>斯大林是格鲁吉亚人，俄罗斯被斯大林折腾死的人口，远多于东乌被斯达林折腾死的人口。<br>怨有头债有主，西乌人要想扇动仇恨，也应该是找格鲁吉亚。<br>讲苦大、讲仇深，俄罗斯人才是最大的苦主，当时都不在苏联的西乌人凑什么热闹？ 是鹅 跪求指明黑幕何在？就看到乌克兰抗议，然后买卖取消了，作者杜撰的黑幕在什么地方啊？ 对于这种有史有据的观点，我总会留下，不时的在与人讨论中拿出例证，怼回一切歪曲历史者 为了特权，不惜一切，哪怕是领土和民族灵魂！<br>否则，很难解释卖国黄恶的所作所为。 为了特权，不惜一切，哪怕是领土和民族灵魂！<br>否则，很难解释卖国黄恶的所作所为。<br>就连一向沉稳的默克尔都忍不住送地图表达内心的不解和鄙视！ 这就是西乌版的“7大恨”。 保加利亚不是北约盟国！！美国佬的F35.F15.F16.F18！法国佬的阵风，幻影！北约一起搞的EF2000！再不济瑞典的鹰狮！还修什么米格机！！！！ 你个SB是不是双簧玩砸了。 参考消息现在已经成了娱乐小报代言人。 保加利亚最大的敌人是俄罗斯，让敌人来修自己的飞机，很奇怪。 这太假了，保加利亚是北约国家，苏制战机差不多退完了， 美国驻日本占领军像日本的女人们问候新年好，感谢这一年来日本女性的殷勤伺候，感谢日本男人们辛苦的看门端尿壶，送纸巾！更是感谢这些年生下的儿子们这么孝心，你们虽然身在中国，但是我们想着你们！在新的一年里，我驻日本占领军会再接再厉，也希望日本女人能多喊几句亚麻跌……————大不列颠.美跌.驻日韩占领军 说白了就是取消优惠了呗，价格贵了，其它商家就会受益 你个SB双黄玩砸了。 越南反华时，找出的借口不只“7大恨”。 人家本来就不想修，俄国人逼着要修飞机，现在有人抗议正好不修了。 钱让俄狗挣了去要造多少核弹来危害世界啊！！！ 大饥荒的时候，闹独立的西乌还属于波兰。<br>因此，那一段历史属于现在要求回归俄罗斯的东乌。<br><br>故事发生地的东乌，要求回归俄罗斯，而当时不是苏联的西乌，拿这件事说事。<br>斯大林是格鲁吉亚人，俄罗斯被斯大林折腾死的人口，远多于东乌被斯达林折腾死的人口。<br>怨有头债有主，西乌人要想扇动仇恨，也应该是找格鲁吉亚。<br>讲苦大、讲仇深，俄罗斯人才是最大的苦主，当时都不在苏联的西乌人凑什么热闹？ 乌克兰一家公司提出异议，另外个郭嘉的国防布就立马取消了合同意向。是啥黑幕？乌克兰一家公司有这么大能量？参考消息你能说清楚点吗？ 不能说的更清楚了！这乌克兰一家公司现在就能代表皿煮，背后是美国，保加利亚政府得罪不起！ 天花病毒杀土著人，谁敢骂？ 俄人身上有异味是真的吗 这新闻太假了，保加利亚是北约国家，苏制战机差不多退完了， 是鹅 我说的是文学艺术上的。 保加利亚 这就跟“七大恨”一样，是为反叛做动员。 话说从苏联分裂出来后，乌克兰怎么减少了这么多人口？ 跪求指明黑幕何在？就看到乌克兰抗议，然后买卖取消了，作者杜撰的黑幕在什么地方啊？ 俄国是有历史沉淀的国家。 对于这种有史有据的观点，我总会留下，不时的在与人讨论中拿出例证，怼回一切歪曲历史者 有5000年的历史 野儿猫更厉害 不再获得无偿援助的国家将有越南、突尼斯、哥伦比亚、黎巴嫩、菲律宾和乌克兰等。。我说老菲怎么转郭嘉了呢 为了特权，不惜一切，哪怕是领土和民族灵魂！<br>否则，很难解释卖国黄恶的所作所为。 一口一个饥荒一口一个大饥荒，你他妈映射谁呢？关外的小子，当心项上人头不保 斯大林是暴君跟我们有什么关系？斯大林想搞中国，中国就跟美国合作把苏联搞垮了啊！现在是美国想搞垮中国啊，当然是中国跟俄罗斯合作对付美国了~~~~ 你个SB是不是双簧玩砸了。 我分析，欧盟是高度市场经济体系，保维修飞机只邀请俄国一家公司，违反市场规则。乌克兰举报，保被迫停止与俄合同，否则被欧盟处罚。背后原因估计是美国欧盟指使乌克兰控告，不得罪人，毕竟乌不是欧盟北约国家。但保确实不地道，已经加入北约欧盟，军事大单交给敌方要不得。 保加利亚最大的敌人是俄罗斯，让敌人来修自己的飞机，很奇怪。 要和你 乌克兰的武器生产和维修基本上都已经不能保证，还有什么好阻止别人的？ 俄🐶，你发神马飙啊？ 美国驻日本占领军像日本的女人们问候新年好，感谢这一年来日本女性的殷勤伺候，感谢日本男人们辛苦的看门端尿壶，送纸巾！更是感谢这些年生下的儿子们这么孝心，你们虽然身在中国，但是我们想着你们！在新的一年里，我驻日本占领军会再接再厉，也希望日本女人能多喊几句亚麻跌……————大不列颠.美跌.驻日韩占领军 好好好 仔细看全文了吗 对于你这两个傻逼，不知道你们在这里讨论斯大林是暴君跟我们有什么关系？<br>请记住，苏联是中美合作搞垮的~~~现在是中俄合作对抗邪恶的美国~~~ 为了特权，不惜一切，哪怕是领土和民族灵魂！<br>否则，很难解释卖国黄恶的所作所为。<br>就连一向沉稳的默克尔都忍不住送地图表达内心的不解和鄙视！ 大饥荒，人为的！ 天下乌鸦一般黑 参考消息现在已经成了娱乐小报代言人。 介绍大家看看2017年的根据真实事件改编影片（苦难的收获）看完心情会很沉重的屎大淋就是个暴君不把乌克兰人民当个人这就是为什么乌克兰抓到机会要脱离俄罗斯2013年是1933年乌克兰大饥荒事件80周年，乌克兰共和国首都基辅，民众举行仪式纪念乌克兰大饥荒事件，追悼遇难的数百万同胞。乌克兰大饥荒是出现在斯大林农业集体化背景下的灾难，据不同的统计数字，有240万至1500万人死于这一事件 不再获得无偿援助的国家将有越南、突尼斯、哥伦比亚、黎巴嫩、菲律宾和乌克兰等。。我说老菲怎么转郭嘉了呢 想当年两颗大蘑菇炸死了多少日本人啊？ 保加利亚不是北约盟国吗！美国佬的F35,F16.F15..F18,法国佬的阵风.幻影.欧洲一起搞的EF2000，再不济不还有瑞典的鹰狮！还修什么米格机！！！ 米格29人家蛾拉屎都当靶机。还有修的必要吗。 其实我们对越南的政策从来就是荒唐的失败的 保加利亚不是北约盟国！！美国佬的F35.F15.F16.F18！法国佬的阵风，幻影！北约一起搞的EF2000！再不济瑞典的鹰狮！还修什么米格机！！！！ 参考在给它爹洗地。 为了特权，不惜一切，哪怕是领土和民族灵魂！<br>否则，很难解释卖国黄恶的所作所为。<br>就连一向沉稳的默克尔都忍不住送地图表达内心的不解和鄙视！ 乌克兰厂商认为保加利亚国防部没有招标，没有给米格之外其他商家竞标的机会 美帝把核武器消减了，俄罗斯的不就也消减了么~~~光指责俄罗斯，不说美帝，都是无节操的双标狗~~~ 保加利亚的国防受限于乌克兰？？ 明白了，皿煮就是你的敌人啊，难怪你这么慌 ",
        "Reply": 55,
        "Link": "http://comment.war.163.com/news_junshi_bbs/D6LH5GJ6000181KT.html"
    },
    "PublishTime": "12/27/201710:28:19",
    "URL": "http://war.163.com/17/1227/10/D6LH5GJ6000181KT.html"
}