{
    "Title": "阿根廷一周观察:迪巴拉双响炮终复苏 二弟Kun集体萎!_网易体育",
    "PublishTime": "01/01/201809:46:42",
    "URL": "http://sports.163.com/18/0101/09/D72AOSVI000587PJ.html",
    "Source": "Netease",
    "KeyWords": "迪巴拉,阿根廷,伊卡尔迪,奥塔门迪",
    "Comment": {
        "Reply": 2,
        "Content": "还有365天就要跨年了，回想起去年跨年，仿佛就在昨天，皇马球迷在这里提前祝各队球迷朋友2019新年快乐！​​​ 迪巴拉去找瓜秃吧、瓜秃正在找新大腿昵....心疼我瓜不群 还有365天就要跨年了，回想起去年跨年，仿佛就在昨天，皇马球迷在这里提前祝各队球迷朋友2019新年快乐！​​​ 迪巴拉去找瓜秃吧、瓜秃正在找新大腿昵....心疼我瓜不群 ",
        "Total": 84,
        "Link": "http://comment.sports.163.com/sports2_bbs/D72AOSVI000587PJ.html"
    },
    "Article": "网易体育1月1日报道：随着2018年俄罗斯世界杯的临近，各大豪门之中，谁能问鼎大力神杯越来越引发人们的猜想。新赛季之中，国脚们的表现可以看作是诸强世界杯前景的“风向标”。作为最会打大赛的国家队之一，阿根廷各大国脚的表现是球迷眼中的焦点。随着新赛季各大联赛的全面开战，每轮过后，网易体育都将推出阿根廷国脚当轮表现的“红黑榜”，每周定期追踪阿根廷国脚们的实时状态。本周五大联赛中，只有意甲和英超有比赛，红黑榜人选因此全都出自于这两大联赛中。红榜迪巴拉（★★★★★）终于在意甲中重返主力阵容的迪巴拉，也终于打开了自己的进球账户。尤文本轮表现得并不出色，迪巴拉靠个人能力帮助斑马军团取得了胜利。用并不擅长的右脚，迪巴拉在比赛终盘阶段梅开二度。他的第二个进球相当精彩，在五名维罗纳球员的包夹中，迪巴拉长途奔袭卧射破门。但愿在这次梅开二度之后，迪巴拉能够重新征服阿莱格里。奥塔门迪（★★★★）曼城的连胜被水晶宫终结，但奥塔门迪的表现仍然极为出色。在上周的两场比赛中，曼城全都没有丢球。面对水晶宫时，奥塔门迪3次铲球、2次拦截、10次解围。在Whoscored的赛后评分中，奥塔门迪得到了全队最高的7.88分。如今的奥塔门迪，是足坛最佳中卫的强力竞争者。奥塔门迪有着出色的单防能力，他的传导球能力同样非常出色。只要能改正毛躁下脚的问题，奥塔门迪还能再提升一个境界。黑榜伊卡尔迪（★）在四轮不胜之后，国米似乎又没了争冠希望。身为国米攻击核心，伊卡尔迪在面对拉齐奥时基本隐身。伊卡尔迪全场只有两次射门，而且没有射正过球门。在Whoscored的赛后评分中，伊卡尔迪被打出了全队最低的5.96分。伊卡尔迪哑火，国米步履蹒跚。如今，伊卡尔迪的未来还是个问号。伊卡尔迪暂停和国米的续约谈判，他等待着来自皇马的召唤。伊卡尔迪的这种态度，很可能会给球队氛围带来毁灭性影响。阿圭罗（★★）曼城水银泻地般的进攻不见踪影，阿圭罗要承担一定的责任。在上周两场比赛中，曼城一共只打进1球，阿圭罗连续交上了两张白卷。面对纽卡，阿圭罗5次射门只射正1次。面对水晶宫，阿圭罗3场射门又只有1次射正。好不容易打破进球荒的阿圭罗，似乎又丢了射门靴。热苏斯的重伤，对于阿圭罗而言是个机会。但对于曼城而言，这却是个巨大的考验。如果阿圭罗不能尽快找回状态的话，曼城的冬季征程可就麻烦了。本文来源：网易体育作者：张琳责任编辑：刘頔_NS4812"
}