{
    "URL": "http://news.163.com/18/0101/17/D735QVRA0001875P.html",
    "Title": "神课程！大学开设推拿按摩课 老师给学生推拿按脚_网易新闻",
    "KeyWords": "按摩课,老师,推拿,教授",
    "Article": "（原标题：厉害了我的按摩课！老师给学生推拿）#endText.video-infoa{text-decoration:none;color:#000;}#endText.video-infoa:hover{color:#d34747;}#endText.video-listli{overflow:hidden;float:left;list-style:none;width:132px;height:118px;position:relative;margin:8px3px0px0px;}#entText.video-lista,#endText.video-lista:visited{text-decoration:none;color:#fff;}#endText.video-list.overlay{text-align:left;padding:0px6px;background-color:#313131;font-size:12px;width:120px;position:absolute;bottom:0px;left:0px;height:26px;line-height:26px;overflow:hidden;color:#fff;}#endText.video-list.on{border-bottom:8pxsolid#c4282b;}#endText.video-list.play{width:20px;height:20px;background:url(http://img1.cache.netease.com/video/img14/zhuzhan/play.png);position:absolute;right:12px;top:62px;opacity:0.7;color:#fff;filter:alpha(opacity=70);_background:none;_filter:progid:DXImageTransform.Microsoft.AlphaImageLoader(src=\"http://img1.cache.netease.com/video/img14/zhuzhan/play.png\");}#endText.video-lista:hover.play{opacity:1;filter:alpha(opacity=100);_filter:progid:DXImageTransform.Microsoft.AlphaImageLoader(src=\"http://img1.cache.netease.com/video/img14/zhuzhan/play.png\");}if(/(iPhone|iPad|iPod|Android|NETEASEBOBO|blackberry|bbd+)/ig.test(navigator.userAgent)||/safari|chrome|firefox/i.test(navigator.userAgent)&&navigator.plugins&&!navigator.plugins[\"ShockwaveFlash\"]){varstr1='<videocontrols=\"controls\"preload=\"auto\"width=\"100%\"poster=\"http://vimg3.ws.126.net/image/snapshot/2018/1/N/9/VU659LUN9.jpg\"style=\"max-height:100%\">';varstr2='<sourcetype=\"video/mp4\"src=\"http://flv.bn.netease.com/videolib3/1801/01/BDcUZ6944/SD/BDcUZ6944-mobile.mp4\">您的浏览器暂时无法播放此视频.</video>';document.getElementById(\"FPlayer1404863609673\").parentNode.innerHTML=str1+str2;}厉害了我的按摩课！老师给学生推拿（来源：original）window.NTES&&function(d){varf=function(c){varb=c.getAttribute(\"flashvars\"),a=c.getAttribute(\"repovideourl\").replace(\".flv\",\"-mobile.mp4\");h=d(c.parentNode.parentNode.parentNode),g='<embedsrc=\"http://v.163.com/swf/video/NetEaseFlvPlayerV3.swf\"flashvars=\"'+b+'\"allowfullscreen=\"true\"allowscriptaccess=\"always\"quality=\"high\"wmode=\"opaque\"width=\"100%\"height=\"100%\"type=\"application/x-shockwave-flash\"/>';if(/(iPhone|iPad|iPod|Android|NETEASEBOBO|blackberry|bbd+)/ig.test(navigator.userAgent)){g='<videocontrols=\"controls\"preload=\"auto\"width=\"100%\"height=\"100%\"><sourcetype=\"video/mp4\"src=\"'+a+'\">您的浏览器暂时无法播放此视频.</video>';}h.$(\".video\")[0].innerHTML=g;},e=function(b){vara=d(b.parentNode.parentNode.parentNode);a.$(\"li\").removeCss(\"on\"),b.addCss(\"on\"),a.$(\".video-title\")[0].innerHTML=\"string\"==typeofb.textContent?b.textContent:b.innerText,a.$(\".video-title\")[0].setAttribute(\"href\",b.getAttribute(\"url\")),a.$(\".video-from\")[0].innerHTML=\"（来源：\"+b.getAttribute(\"source\")+\"）\",f(b);};window.continuePlay=function(){vara,b=d(d(\".video-list.on\")[0].nextSibling);3==b.nodeType&&(b=d(b.nextSibling));if(b&&d(\".video-innerinput\")[0].checked){e(b);}},function(){vara={init:function(){if(d(\".video-listli\")[0]){d(d(\".video-listli\")[0]).addCss(\"on\"),this.eventBind();}},eventBind:function(){d(\".video-listli\").addEvent(\"click\",function(b){e(d(this)),b.preventDefault();});}};a.init();}();}(NTES);新疆石河子大学开设了推拿按摩课，老师于中杰称这是为了让同学们解除一般的创伤痛苦。学生们表示这种课十分实用，老师也是手把手教学。本文来源：梨视频责任编辑：范姜国一_NN9138",
    "Source": "Netease",
    "PublishTime": "01/01/201817:39:42",
    "Comment": {
        "Link": "http://comment.news.163.com/news_shehui7_bbs/D735QVRA0001875P.html",
        "Reply": 15,
        "Content": "垃圾人读的垃圾大学 按摩怎么考试呢？ 如果正真能学到技能也可以，就怕是忽悠 不会是哪个推拿师找不到工作，刚好又跟学校领导认识，于是开了这么一门课吧？ 啧啧，大学还有一门选修课叫《性健康与性文化》… 满分，果然很教育！！！ 猥亵女生，有了新途径。 学推拿要找个好老师哟我也是刚学好的祝你学业有成 男生小鲜肉也可以猥亵 想想就鸡动 大学生现在学的真多 男生小鲜肉也可以猥亵 满分，果然很教育！！！ 这个毕业了立马能创业！ 主要是为了有的人以后开足疗店打基础，增加再就业，创造gdp 这是什么专业？ 按摩怎么考试呢？ 学推拿要找个好老师哟我也是刚学好的祝你学业有成 不会是哪个推拿师找不到工作，刚好又跟学校领导认识，于是开了这么一门课吧？ 垃圾人读的垃圾大学 啧啧，大学还有一门选修课叫《性健康与性文化》… 如果正真能学到技能也可以，就怕是忽悠 猥亵女生，有了新途径。 没说什么专业，学习推拿按摩，老师示范，这算什么新闻。 想想就鸡动 ",
        "Total": 215
    }
}