{
    "Title": "怕与中企合作?印公司担忧安全审查 更换合作伙伴_网易新闻",
    "URL": "http://news.163.com/17/1226/01/D6I1HP2O000187V9.html",
    "Source": "Netease",
    "Comment": {
        "Total": 7,
        "Reply": 4,
        "Content": "实际损失的是那家中国企业印度该竞标还是竞标只是换了个德国合作。n单那家中国企业就出局了嘛的环球啥水平？ 还我藏南！ 实际损失的是那家中国企业印度该竞标还是竞标只是换了个德国合作。n单那家中国企业就出局了嘛的环球啥水平？ 哈哈,我们要合作! 呵呵小胆吧 ",
        "Link": "http://comment.news.163.com/news2_bbs/D6I1HP2O000187V9.html"
    },
    "Article": "（原标题：怕与中企合作？印基建公司担忧政府安全审查难过更换合作伙伴）【环球时报报道】据印度《孟买镜报》25日报道，印度信实基建公司出于对政府层层安全审查的担忧，将与之合作竞标孟买“维苏瓦-班德拉跨海联络线”项目的一家中国企业换成一家意大利企业。报道称，对与中企合作难过安全审查的担忧，在印度并非个例。据悉，包括信实公司在内，共有五家企业参与该跨海联络线项目竞标，项目预计将于明年开工。目前，信实公司已经向“马哈拉施特拉邦道路发展公司”就相关变更进行了通报，该公司联合管理主任曼德皮表示，“信实此举很可能是出于对中国企业参与该项目会招致中央政府层层安全审查的担忧，不得不将此前合作的中企换成意大利的阿斯塔尔迪公司”。“马哈拉施特拉邦道路发展公司”首席工程师山卡尔也表示，“在孟买港口间跨海联络线项目上，中企面临印度政府安全审查的问题，所以出于该原因信实更换了合作伙伴”。《孟买镜报》称，此前许多与中国企业合作的印度公司都遭到印度内政部与国防部方面的严格安全审查。中印此前经历了洞朗对峙，印度国防部门、特别是总部设在孟买的西部海军司令部对中企在孟买附近海域的活动十分警惕。西部海军司令部官员多次声称，中企一直在搜集相关情报并传回中国，其中包括印度的防务信息。不过报道称，同时竞标这个项目的其他印度基建公司也有换搭档的情况。印度斯坦建筑公司的负责人表示，竞标前更换合作伙伴比较常见。本文来源：环球时报-环球网。更多精彩，请登录环球网http://www.huanqiu.com作者：文朱责任编辑：李天奕_NN7528",
    "PublishTime": "12/26/201700:24:00",
    "KeyWords": "中企,印度,孟买,公司"
}