{
    "PublishTime": "12/31/201711:43:55",
    "Comment": {
        "Total": 610,
        "Reply": 85,
        "Link": "http://comment.news.163.com/news_shehui7_bbs/D6VV2QA10001875P.html",
        "Content": "安全带系了吗？ 直播你火化 都最后一天了，心痛啊！ 车祸猛于虎啊 两个🚗座12个人？ 路上捷达和威驰我是能躲多远躲多远！ 我生活在一个动物园里吗？ 简直可怕 有直播吗？ 一天两起车祸,看着心疼.各位司机开车请慢点开 十次事故九次快，还有一次没系安全带。 如果是朗逸的话估计都没事 新宝来上树了都。人没事。。。。 傻逼 开这么快干嘛 那条路限速60是有道理的。 禁车 开个神车很陶醉？ 我回帖就是想告诉大家，北京像楼上这么没人味儿的不多！祝善良的人平安幸福！ 开慢点不好吗 我是阿城的被抢救的人就在我旁边的病房有五个当时就不行了送来两个其中有一个小姑娘骨盆碎了算是最幸运的一个小男孩当时就转送哈尔滨了直吐血都是二十多岁的大学生准备包车去雪乡玩唉看着都可怜 那四个死者永远定格在2017了 直播你鸡妈鸭爹元旦升天？ 真惨… 真是可怜啊 一台是面包车，至少7座。 发现个问题：开快车的几乎都不是好车！ 这忌辰日子选的好 直播+天佑喊麦，更能体现这则新闻，没准拿个普利策大奖 开个破车，有翅膀都能飞。就是这个神奇的地方 大过年的开车的朋友自己小心些，还是安全为主，喜欢喝上一口的朋友开车最好也不好喝了。在家不动车在喝，有的东西是开不得玩笑的！ 哈五路限速80国道，两个收费站，来回70元，全路都是测速。负责这个路段的交警有责任，光知道罚款你应该负责的管理哪去了 这个破逼地方，我老公去年就在这撞车，掉沟里了，后怕，我老公直行那傻逼拐弯看都没看我老公就直接过去了！ 一楼你妈妈炸了 新聞真短 冬天路滑，小心驾驶啊！ 多大仇多大恨啊，撞成这样，怼命吗？ 直播尼玛！生命面前没有调侃 嗯。 车祸猛如虎啊. 宏光君败北了？ 早上就喝了？ 直播你火化 本次车祸是在练习弯道超车！ 会开车和会在雪路开车并不划等号。 唉，每年快过年的总有这些事儿 兄弟哪看出来是宏光的？ 以后出行要安全第一。 一脚迈入鬼门关，倒也躲过了2018年的所谓消费升级，不用为涨价发愁了。 警示不明显，总出事故 这是迎面撞上来了么，心痛啊 真是可怜 唉为什么飞一样的开 直播+天佑喊麦，更能体现这则新闻，没准拿个普利策大奖 难怪堵爆了 哈五路限速80国道，两个收费站，来回70元，全路都是测速。负责这个路段的交警有责任，光知道罚款你应该负责的管理哪去了 严重的交通事故。 这个破逼地方，我老公去年就在这撞车，掉沟里了，后怕，我老公直行那傻逼拐弯看都没看我老公就直接过去了！ 雪天路滑，注意安全，减速慢行 只能说你见识太少。 走了好远的路，不过这些现场维持施工的人员你们辛苦了 冬天路滑，小心驾驶啊！ 直播尼玛！生命面前没有调侃 拉那么多人还开那么快干你大爷啊。 车祸猛于虎啊 哎逝者已逝，伤者安慰。 简直可怕 路上捷达和威驰我是能躲多远躲多远！ 简直可怕 一天两起车祸,看着心疼.各位司机开车请慢点开 十次事故九次快，还有一次没系安全带。 我是阿城的被抢救的人就在我旁边的病房有五个当时就不行了送来两个其中有一个小姑娘骨盆碎了算是最幸运的一个小男孩当时就转送哈尔滨了直吐血都是二十多岁的大学生准备包车去雪乡玩唉看着都可怜 禁车 真的希望一楼是个好东西！ 发现个问题：开快车的几乎都不是好车！ 开面包的都很霸道 有直播吗？ 妈的，今下午遇一面包车转弯占道超车，害老子一个急刹，防抱车直接介入，差点碰车！ 过不去的2018 逝者安息🙏 面包车撞得都折起来了，这得开多快啊 拉那么多人还开那么快干你大爷啊。 车是安全运输到目的地的工具，不是竞速工具。 哈五路不是高速，但是不到100公里却有两个收费站，而且全程不是封闭道路，上下道，调头的车都很多 一楼你妈妈炸了 直播你鸡妈鸭爹元旦升天？ 安全带系了吗？ 年底了 都最后一天了，心痛啊！ 真是可怜啊 每年的年关都是事故多发点，又有多少0家庭破碎 两个🚗座12个人？ 宇宙的探索是离不开我的话的，只有把围绕地球公转的一切物质包括气体计算在地球体积之内才能找到地球真正的边和角，那是反引力汇聚地，是真正的真空隧道，宇宙高速路，太阳系内的动脉!把围绕太阳公转的一切物质包括气体计算在太阳体积之内才能找到恒星与恒星的边和角，那是恒星与恒星之间的真空高速隧道，找到真空隧道以近光速超光速飞行那不是个事!宇宙飞行器也不能按照飞机的二维结构原理制造，飞机是不能高速自转的，但只有高速自转才能产生真空电磁场，以近光速飞行，未来的宇宙飞行器必须按地球原理制造，八层以上结构，你看地球高速自转着前进，我们人坐在地球上有啥不适感觉吗？ 我生活在一个动物园里吗？ 有直播吗？ 说过不去就过不去。不信吗？ 如果是朗逸的话估计都没事 这得有多快 新宝来上树了都。人没事。。。。 又有傻逼民科东拼西凑出来装逼了，狗屁不通 这种人都撞死吧 生死就在一瞬间 悲催 开这么快干嘛 那条路限速60是有道理的。 开个神车很陶醉？ 我回帖就是想告诉大家，北京像楼上这么没人味儿的不多！祝善良的人平安幸福！ 多大仇多大恨啊，撞成这样，怼命吗？ 开慢点不好吗 那四个死者永远定格在2017了 没过去2017年 真惨… 一台是面包车，至少7座。 我是生活在一个动物园里吗？ 事故原因超载！ 这忌辰日子选的好 有希望了 开个破车，有翅膀都能飞。就是这个神奇的地方 大过年的开车的朋友自己小心些，还是安全为主，喜欢喝上一口的朋友开车最好也不好喝了。在家不动车在喝，有的东西是开不得玩笑的！ 新聞真短 没用，车都飞了。一辆面包车，车顶都撞树上了，开得太快了，可怜 今天是2017年最后一天，希望大家都平安出行。新年不要有不幸发生。 年关将至…出行安全最重要 傻逼 "
    },
    "Title": "哈尔滨发生两车相撞事故 已造成4人遇难8人受伤_网易新闻",
    "Source": "Netease",
    "KeyWords": "遇难,哈尔滨,面包车,事故,交通出行",
    "URL": "http://news.163.com/17/1231/11/D6VV2QA10001875P.html",
    "Article": "（原标题：突发！今天早上，哈尔滨发生两车相撞事故，4人遇难8人受伤！）#endText.video-infoa{text-decoration:none;color:#000;}#endText.video-infoa:hover{color:#d34747;}#endText.video-listli{overflow:hidden;float:left;list-style:none;width:132px;height:118px;position:relative;margin:8px3px0px0px;}#entText.video-lista,#endText.video-lista:visited{text-decoration:none;color:#fff;}#endText.video-list.overlay{text-align:left;padding:0px6px;background-color:#313131;font-size:12px;width:120px;position:absolute;bottom:0px;left:0px;height:26px;line-height:26px;overflow:hidden;color:#fff;}#endText.video-list.on{border-bottom:8pxsolid#c4282b;}#endText.video-list.play{width:20px;height:20px;background:url(http://img1.cache.netease.com/video/img14/zhuzhan/play.png);position:absolute;right:12px;top:62px;opacity:0.7;color:#fff;filter:alpha(opacity=70);_background:none;_filter:progid:DXImageTransform.Microsoft.AlphaImageLoader(src=\"http://img1.cache.netease.com/video/img14/zhuzhan/play.png\");}#endText.video-lista:hover.play{opacity:1;filter:alpha(opacity=100);_filter:progid:DXImageTransform.Microsoft.AlphaImageLoader(src=\"http://img1.cache.netease.com/video/img14/zhuzhan/play.png\");}if(/(iPhone|iPad|iPod|Android|NETEASEBOBO|blackberry|bbd+)/ig.test(navigator.userAgent)||/safari|chrome|firefox/i.test(navigator.userAgent)&&navigator.plugins&&!navigator.plugins[\"ShockwaveFlash\"]){varstr1='<videocontrols=\"controls\"preload=\"auto\"width=\"100%\"poster=\"http://vimg3.ws.126.net/image/snapshot/2017/12/M/Q/VD6252HMQ.jpg\"style=\"max-height:100%\">';varstr2='<sourcetype=\"video/mp4\"src=\"http://flv.bn.netease.com/videolib3/1712/31/uTIto1459/SD/uTIto1459-mobile.mp4\">您的浏览器暂时无法播放此视频.</video>';document.getElementById(\"FPlayer1404863609673\").parentNode.innerHTML=str1+str2;}哈尔滨发生两车相撞事故，4人遇难8人受伤！（来源：~）window.NTES&&function(d){varf=function(c){varb=c.getAttribute(\"flashvars\"),a=c.getAttribute(\"repovideourl\").replace(\".flv\",\"-mobile.mp4\");h=d(c.parentNode.parentNode.parentNode),g='<embedsrc=\"http://v.163.com/swf/video/NetEaseFlvPlayerV3.swf\"flashvars=\"'+b+'\"allowfullscreen=\"true\"allowscriptaccess=\"always\"quality=\"high\"wmode=\"opaque\"width=\"100%\"height=\"100%\"type=\"application/x-shockwave-flash\"/>';if(/(iPhone|iPad|iPod|Android|NETEASEBOBO|blackberry|bbd+)/ig.test(navigator.userAgent)){g='<videocontrols=\"controls\"preload=\"auto\"width=\"100%\"height=\"100%\"><sourcetype=\"video/mp4\"src=\"'+a+'\">您的浏览器暂时无法播放此视频.</video>';}h.$(\".video\")[0].innerHTML=g;},e=function(b){vara=d(b.parentNode.parentNode.parentNode);a.$(\"li\").removeCss(\"on\"),b.addCss(\"on\"),a.$(\".video-title\")[0].innerHTML=\"string\"==typeofb.textContent?b.textContent:b.innerText,a.$(\".video-title\")[0].setAttribute(\"href\",b.getAttribute(\"url\")),a.$(\".video-from\")[0].innerHTML=\"（来源：\"+b.getAttribute(\"source\")+\"）\",f(b);};window.continuePlay=function(){vara,b=d(d(\".video-list.on\")[0].nextSibling);3==b.nodeType&&(b=d(b.nextSibling));if(b&&d(\".video-innerinput\")[0].checked){e(b);}},function(){vara={init:function(){if(d(\".video-listli\")[0]){d(d(\".video-listli\")[0]).addCss(\"on\"),this.eventBind();}},eventBind:function(){d(\".video-listli\").addEvent(\"click\",function(b){e(d(this)),b.preventDefault();});}};a.init();}();}(NTES);31日早上，在哈尔滨市哈五路过周家收费站约3公里处，一辆白色捷达车和一辆面包车，两辆私家车相撞。据了解，目前已有4人遇难，另有8人受伤。事故依据现场目击者描述，具体事故原因及责任有待相关部门进一步调查。本文来源：新闻夜航责任编辑：张宪超_NN9310"
}