{
    "Article": "网易娱乐12月29日报道12月29日，针对近日来网络上关于邹市明伤情及与前经纪公司纠纷的诸多传闻，邹市明工作室上传其正在接受治疗的照片称“明哥仍在住院治疗，主治医师正商讨下一步治疗方案，感谢大家的关心和支持。”随后冉莹颖转发并发声：“明哥身体大于一切，谣言止于智者，法律自有公道。”本文来源：网易娱乐责任编辑：张悦_NBJS5410",
    "URL": "http://ent.163.com/17/1229/14/D6R41F4700038FO9.html",
    "Source": "Netease",
    "KeyWords": "邹市明,冉莹颖,法律",
    "Comment": {
        "Reply": 65,
        "Link": "http://comment.ent.163.com/ent2_bbs/D6R41F4700038FO9.html",
        "Total": 1557,
        "Content": "他被他的撒比老婆彻底毁了 娱乐板块才是你们俩的归宿，别费心往体育板块送了 记得假不死的老婆也这么说过，哈哈 两个傻逼现在丢人现眼 人家又没有说谁是谣言，可能说的是自己啊。 早日康复 冉瑩穎加油💪挺住，堅強的女人。 好的是 皱市明如果没结婚，现在几亿身家，想怎么玩怎么玩，要多潇洒有多潇洒，现在摊上这么个老婆，后半生几乎无乐趣可言了！ 吃这口饭的，谁没点难言之隐 染淫瘾揍失明 把你老公撮瞎吧，让我们眼见为实 能不能不报道这俩戏精 她老婆这句话说对了，她的谣言我们幸好没有信，看来我们还是智者啊。 吃瓜群众洗洗睡 这是报道他老婆说的话，难道他老婆是运动员？再说他们一家没参与过电视台的娱乐节目吗？ 跟贴被火星网友带走啦~ 加油 这次配图不对，没有看见大腿 以后就骑着你的瞎老公卖肉去吧！ 凭啥他就要大于一切？就可以利用善良欺骗别人的理由？ 邹市明是运动员，新闻不放在体育版，却放在娱乐版，为什么？把运动员的病，拿来娱乐吗？还指责别人病得太轻！！！！！H易这类新闻的小编老编老板真是狼心狗肺，冷血，没人性，都会有报应 他老婆敲诈吗 不说。都忘记他是奥运冠军了 这样的老婆。老公能赚到钱的时候还好。赚不到钱的时候过一两年就完蛋。 他老婆炒作么？ 🐔别叫了 果然毁在她老婆上，想不到不是身体而是嘴[不屑] za 继续炒吧 拳王与经济公司之间的撕逼战火将燃至跨年 继续为国家争光 冉瑩穎加油💪挺住，堅強的女人，都會好起來的，因為你有堅實的後盾（老公和兒子） 毁在他老婆 邹市明奥运冠军的好形象全被她老婆败光了 一对SB 哦过xotoxt 完蛋什么？几亿身价都是她的，离婚还要分一半给老公，她才不傻！ 对邹市明没什么恶感，他老婆真是把他玩的死死的 她的意思她最聪明，别人都是傻逼 善者不辩，辩者不善 这老婆要毁了全家人的未来。 tofizfi 这老婆要毁了全家人的未来。 这都什么跟什么， 她的意思她最聪明，别人都是傻逼 能不能不报道这俩戏精 邹市明是运动员，新闻不放在体育版，却放在娱乐版，为什么？把运动员的病，拿来娱乐吗？还指责别人病得太轻！！！！！H易这类新闻的小编老编老板真是狼心狗肺，冷血，没人性，都会有报应 itssriidz 染淫瘾揍失明 谣言止于智者原作流言止于智者.用词不同,意思一样.出处是《荀子·大略》:流丸止于瓯臾,流言止于智者.没有根据的话,传到有头脑的人那里就不能再流传了.形容谣言经不起分析. 拳王与经济公司之间的撕逼战火将燃至跨年 不过是趁着这个由头退下来进娱乐圈圈钱罢了 他老婆敲诈吗 这个女人真让人恶心 otdtotdo 会有人给钱的怎么看着像是要饭 这件事到底怎么突发的 不说。都忘记他是奥运冠军了 这样的老婆。老公能赚到钱的时候还好。赚不到钱的时候过一两年就完蛋。 善者不辩，辩者不善 完蛋什么？几亿身价都是她的，离婚还要分一半给老公，她才不傻！ 毁在他老婆 他被他的撒比老婆彻底毁了 todisrto 呵呵 两个傻逼现在丢人现眼 人家又没有说谁是谣言，可能说的是自己啊。 冉瑩穎加油💪挺住，堅強的女人。 皱市明如果没结婚，现在几亿身家，想怎么玩怎么玩，要多潇洒有多潇洒，现在摊上这么个老婆，后半生几乎无乐趣可言了！ 眼睛真出问题了吗 这是报道他老婆说的话，难道他老婆是运动员？再说他们一家没参与过电视台的娱乐节目吗？ 跟贴被火星网友带走啦~ 他老婆比较会赚钱 邹市明是运动员，新闻不放在体育版，却放在娱乐版，为什么？把运动员的病，拿来娱乐吗？还指责别人病得太轻！！！！！H易这类新闻的小编老编老板真是狼心狗肺，冷血，没人性，都会有报应 你的脑残粉是智者 ⊙∀⊙！ 他老婆炒作么？ za 继续炒吧 这次配图不对，没有看见大腿 前几天全是谩骂质疑的文章，这是得罪了经纪公司，经纪公司的水军干的！这几天开始洗白是自己找水军干的！ 冉瑩穎加油💪挺住，堅強的女人，都會好起來的，因為你有堅實的後盾（老公和兒子） 邹市明奥运冠军的好形象全被她老婆败光了 一对SB 他两儿子很可爱 哦过xotoxt 对于娱乐板块而言没有智者～ 娱乐板块才是你们俩的归宿，别费心往体育板块送了 果然毁在她老婆上，想不到不是身体而是嘴[不屑] 他也没对不起你们的地方 🐔别叫了 早日康复 好的是 记得假不死的老婆也这么说过，哈哈 吃这口饭的，谁没点难言之隐 把你老公撮瞎吧，让我们眼见为实 继续为国家争光 她老婆这句话说对了，她的谣言我们幸好没有信，看来我们还是智者啊。 吃瓜群众洗洗睡 聊天止于呵呵 这两大傻逼 加油 沙发 各位观众就行行好，放过老邹把 对邹市明没什么恶感，他老婆真是把他玩的死死的 以后就骑着你的瞎老公卖肉去吧！ 凭啥他就要大于一切？就可以利用善良欺骗别人的理由？ "
    },
    "Title": "邹市明被指夸大伤情 冉莹颖回应：谣言止于智者_网易娱乐",
    "PublishTime": "12/29/201714:34:21"
}