{
    "Article": "（原标题：北京人力社保局：本月起正式实施城乡统一居民医保制度）今年1月1日起，本市正式实施城乡统一的居民医保制度。昨日，记者从市人力社保局了解到，截至1月1日零时，在面向城乡居民参保住院患者和急诊患者不间断服务的情况下，800多家原新农合定点医疗机构完成信息系统升级及切换。同时，近9成参保登记居民已完成缴费。北京市人力社保局给出数据，截至1月1日下午16：00全市843家定点医疗机构共接诊城乡居民门诊患者98201人次,其中原新农合参保人员31482人次、原城镇居民参保人员66719人次,共发生医保内医疗费用744.8万元，城乡居民医保基金支付208.19万元。标志着本市统一的城乡居民医保制度全面顺利实施。目前，为农村居民制作的社保卡全部发放至各街道乡镇社保所，已陆续发放到农村居民手中。在已完成参保登记的337.6万城乡居民中，约有86.8%的参保人员完成了首批银行扣款，部分在校学生的参保登记仍在进行之中。本文来源：法制晚报-看法新闻责任编辑：苏泓珵_NBJ9980",
    "URL": "http://news.163.com/18/0103/14/D77U50SC00018AOR.html",
    "KeyWords": "社保局,医保,人力,新农合",
    "PublishTime": "01/03/201814:01:31",
    "Title": "北京人力社保局:本月实施城乡统一居民医保制度_网易新闻",
    "Comment": {
        "Content": "我是外地人，麻烦把我的税退给我，或者打回我的原籍 呵呵 公平正在慢慢走来 我是外地人，麻烦把我的税退给我，或者打回我的原籍 逐步取消双轨制 盼望早日实现全民免费医疗。 公平正在慢慢走来 呵呵 呵呵 想得美，想要高工资，你还有脸要税？赚的多赚的少你自己心里不清楚？贪得无厌，回老家你交的少抓紧？ ",
        "Link": "http://comment.news.163.com/news2_bbs/D77U50SC00018AOR.html",
        "Total": 21,
        "Reply": 7
    },
    "Source": "Netease"
}