{
    "Article": "（原标题：旅行社负责人称冰岛大巴事故34位团员接受体检并已抵酒店）事发现场。当地时间27日上午，一辆载有40多名中国游客的大巴在冰岛南部维克镇附近发生车祸，目前已造成1人死亡、多人不同程度受伤。事故大巴上的游客为在英国留学的中国留学生。伦敦时间12月28日凌晨2点，英国提提卡卡旅行社负责人方刚告诉记者说，目前已有34位团员经医院检查后平安抵达酒店。27日事发当天，该公司已经安排工作人员前往冰岛。他没有透露12位伤者的伤势。此前，英媒天空新闻台报道说，事发时大巴车上有乘客46人，因追尾造成大巴侧翻，当时2人被压在车体下，1人在事发当时罹难，12日人由三架直升机送往当地医院。本文来源：央视新闻责任编辑：程钢_NN7377",
    "Source": "Netease",
    "KeyWords": "大巴,冰岛,旅行社,团员",
    "Title": "旅行社负责人：冰岛大巴事故中34位团员已抵达酒店_网易新闻",
    "Comment": {
        "Total": 14,
        "Content": "情况不糟就好！ 冷都冷死了零下几十℃我是受不了的 这么冷有啥好玩的，找刺激？ 一定是战狗救援的 冰島去看北極光的，你們太沒見識了 ",
        "Reply": 5,
        "Link": "http://comment.news.163.com/news_shehui7_bbs/D6O8IRIP0001875P.html"
    },
    "PublishTime": "12/28/201711:56:02",
    "URL": "http://news.163.com/17/1228/11/D6O8IRIP0001875P.html"
}