{
    "URL": "http://ent.163.com/17/1228/17/D6OR6UAK00038FO9.html",
    "Comment": {
        "Reply": 0,
        "Content": "",
        "Total": 0,
        "Link": "http://comment.ent.163.com/ent2_bbs/D6OR6UAK00038FO9.html"
    },
    "Title": "江宏杰晒泳池照福原爱入镜 超小只爱酱可爱比心_网易娱乐",
    "Source": "Netease",
    "KeyWords": "福原爱,江宏杰,泳池,可爱",
    "PublishTime": "12/28/201717:21:35",
    "Article": "网易娱乐12月28日报道12月28日，江宏杰微博晒出一片游泳池，并配文：“好饭店，找亮点，哈哈哈。”并艾特福原爱。不少网友表示，“小心跪搓衣板。嗯，看来要被反手扣杀的不是女儿，是你。”本文来源：网易娱乐责任编辑：陈恺_NK4686"
}