{
    "PublishTime": "01/02/201808:05:44",
    "Comment": {
        "Total": 42,
        "Link": "http://comment.news.163.com/news_guoji2_bbs/D74NCOH00001875O.html",
        "Reply": 14,
        "Content": "牛逼了，出来后就是游击队 《监狱风云》 太乱了 力王。 各位易友，要是你们越狱，出来第一件事，是干什么 牛逼了，出来后就是游击队 挽尊 成功越狱如同重新获得生命，可怕的事就在后面。 巴西就缺杜尔特 老老实实呆着不好。 太乱了 米帅去了吧 巴中要出名了 奇怪，巴西的监狱那么不好管理？ 战斗力爆表。 上网 《监狱风云》 "
    },
    "Article": "（原标题：巴西中部发生监狱暴动至少9死14伤77人越狱）图片来源巴西环球网根据巴西环球网报道，当地时间1日下午，巴西中部戈亚斯州都会区一所监狱发生暴动，造成至少9人死亡，14人受伤及106人趁乱越狱，其中29名越狱囚犯在当天下午即被重新逮捕。暴动开始时，囚犯燃烧了囚室中的床褥等，但着火点很快被狱警扑灭。1日下午4时许，暴动基本被警方控制，并有直升机巡逻以对监狱进行监控。目前，有部分被关押囚犯的家属来到该监狱门口希望了解自己亲属的状况。本文来源：央视新闻责任编辑：程钢_NN7377",
    "Source": "Netease",
    "Title": "巴西中部一监狱发生暴动 致至少9死14伤77人越狱_网易新闻",
    "KeyWords": "巴西,越狱,逮捕",
    "URL": "http://news.163.com/18/0102/08/D74NCOH00001875O.html"
}