{
    "Article": "（原标题：Collisioncourse:Uber'sterrible2017）网易科技讯12月30日消息，据《卫报》报道，这一年，Uber可谓负面新闻不断：内部被曝存在性骚扰和性别歧视问题，创始人与大股东陷入争斗，被控窃取Waymo的无人驾驶汽车技术，隐瞒一年多以前的大规模数据泄露事件……在纽约时报年度盘点中，该公司也进入了2017年最糟糕科技公司榜单。Uber一直以来都在飞速行驶。在它从旧金山黑车服务进化到估值接近700亿美元的全球打车服务巨头的征途中，该创业公司在无视交通规则的CEO特拉维斯·卡兰尼克（TravisKalanick）的掌舵下似乎畅行无阻。然而，过去一年不断浮出水面的丑闻、过失和刑事调查表明，Uber的掌舵者显然不是《速度与激情》（TheFastandtheFurious）男主角多米尼克·托雷托（DominicToretto）那样的飙车能手，而更像是玩《马里奥赛车》（MarioKart）的学步小孩。下面一起来回顾一下Uber动荡不安的2017年。2017年1月19日Uber被指控在司机的收入上对他们实施误导，最终支付2000万美元和解相关的联邦调查。2017年1月28日“峰时定价在肯尼迪机场已经关闭。”——Uber纽约市账号@Uber_NYC引发#DeleteUber运动的推文在纽约出租车司机停工抗议美国总统特朗普的旅行禁令期间，Uber停止峰时定价的决定引起了一场声势浩大的#DeleteUber（删除Uber）运动，因为该举这被认为是为了抵消司机抗议的影响，同时借机推广自身的应用。。据称，该公司因此该运动损失数十万名用户。2017年2月2日迫于来自#DeleteUber运动的压力，Uber创始人、时任CEO特拉维斯·卡兰尼克退出特朗普的经济顾问委员会。2017年2月19日“永远迅速行动”——Uber核心企业价值观之一Uber前工程师苏珊·福勒（SusanFowler）发表博文，披露该公司内部广泛存在性骚扰和性别歧视问题。该博文引发轩然大波，新闻媒体纷纷刊文描述Uber的“毒性”工作环境。Uber随后对它的企业文化展开调查。2017年2月23日“盗用这项技术，等同于从饮料公司那里窃取秘密配方。”——WaymoUber遭到谷歌旗下无人驾驶汽车部门Waymo的起诉，被控通过精心策划窃取Waymo的无人驾驶汽车技术。该案件对Uber的未来构成存亡性威胁。2017年2月27日Uber顶级工程高管阿米特·辛格尔（AmitSinghal）因为在任期间没通报一起性骚扰投诉引咎辞职。2017年3月1日“有的人不想要为自己的事情负责。”——特拉维斯·卡兰尼克卡兰尼克在车上训斥Uber司机被拍了下来。该高管随后公开致歉，并宣布计划寻求“领导力方面的帮助。”2017年3月3日据《纽约时报》报道，Uber有一项名为Greyball的秘密工具，它专门用来在Uber非法运营的城市规避监管机构。2017年3月19日“我不能再继续下去了。”——Uber总裁杰夫·琼斯（JeffJones）Uber总裁杰夫·琼斯入职仅仅六个月便宣布离开公司，称公司的价值观与自己的“不符”。2017年3月24日科技网站theInformation报道称，据Uber的一位女经理说，在2014年，这家公司曾组织了一场韩国首尔三陪KTV的旅行。当时参加这场旅行的人员包括了卡兰尼克和其他的一些高管。。2017年3月28日“我们认识到公司相对缺乏多元化。”——UberUber发布它的第一份多元化报告，揭露公司员工组成中男性白人占大多数的工作环境。2017年3月30日据《纽约时报》报道，被控从Waymo那里窃取商业机密的Uber高管安东尼·莱万多夫斯基（AnthonyLevandowski），动用他的美国宪法第五修正案权利来避免自证其罪。2017年4月12日Uber公共政策和公关主管蕾切尔·惠茨通（RachelWhetstone）辞职。2017年4月13日theInformation称，Uber通过一个名为“Hell”的秘密项目来暗中监视其在打车服务市场的劲敌Lyft。2017年4月24日“我听说你一直在违反我们的部分规定。”——苹果CEO蒂姆·库克（TimCook）《纽约时报》报道称，Uber在它的iOS应用中违反苹果的隐私规定，促使蒂姆·库克亲自出面斥责卡兰尼克。2017年5月4日美国司法部对Uber规避和欺骗监管部门的Greyball软件发起刑事侦查。2017年5月12日负责审理Waymo和Uber案件的联邦法官建议联邦检察官就Uber涉嫌窃取商业机密展开刑事侦查。2017年5月23日“我们法庭见。”——纽约出租车司机联盟Uber承认少付纽约市出租车司机数千万美元的报酬。2017年5月27日卡兰尼克的母亲在一起划船事故中不幸遇难。2017年5月30日Uber解雇被控从Waymo那里窃取1.4万份机密商业文件的高管安东尼·莱万多夫斯基。2017年6月6日在完成对性骚扰和公司内部文化的调查后，Uber解雇20名员工。2017年6月7日Uber解雇其中一位高管埃里克·亚历山大（EricAlexander），原因是据媒体报道，他拿走被一名Uber司机强奸的印度乘客的医疗记录，据称是为了让人对她的账号产生怀疑。2017年6月13日“如果说我们将要变成Uber2.0，那我也需要变成卡兰尼克2.0。”——特拉维斯·卡兰尼克Uber举行全体会议来讨论公司文化改造问题。卡兰尼克宣布他将无限期休假。“我需要以与我们对Uber的要求一样的标准来要求我自己。”——大卫·邦德曼（DavidBonderman）在公司全体会议期间发出性别歧视言论以后，董事会成员大卫·邦德曼引咎辞职。2017年6月15日Uber遭到印度乘客起诉，因为一名Uber高管拿走其医疗记录。2017年6月21日“我对Uber的喜爱胜过世上的任何东西。”——特拉维斯·卡兰尼克在大股东的施压之下，卡兰尼克辞去CEO职务。2017年8月3日据华尔街日报报道，Uber在新加坡向司机出租存在火灾隐患的汽车，尽管它知道那些汽车曾因为严重的安全隐患被召回。2017年8月10日“经营管理严重不善以及其它的不端行为。”——投资者诉讼Uber大股东BenchmarkCapital起诉卡兰尼克，控告该前CEO在为董事会增加额外席位的时候存在欺诈行为。2017年8月27日“我将竭尽所能去奋斗。”——达拉·科斯罗萨西（DaraKhosrowshahi）Expedia前CEO达拉·科斯罗萨西被Uber董事会选定为新任CEO。2017年9月8日据华尔街日报报道，Uber被曝因为展开暗中监视头号竞争对手Lyft的“Hell”项目而遭到美国联邦调查局（FBI）的调查。2017年9月22日“坏名声要付出高昂代价。”——达拉·科斯罗萨西由于缺乏企业责任，Uber在伦敦失去运营许可证。该公司正在就该决定提起上诉。2017年10月2日在失去伦敦运营许可证的动乱之中，Uber英国业务负责人乔·伯特伦（JoBertram）辞职。2017年11月21日“这一切都不该发生。”——达拉·科斯罗萨西Uber承认，它隐瞒了2016年10月发生的一起数据泄露事件。该事件导致5700万Uber顾客和司机数据泄露。该公司向黑客支付了10万美元的赎金，以让后者摧毁那些信息和保守秘密。Uber的首席安全观乔·苏利文（JoeSullivan）和安全与执法法务主管克雷格·克拉克（CraigClark）被解雇。2017年11月28日“在这个案件中，我不再能够相信Uber律师的话了。”——法官威廉·阿尔萨普（WilliamAlsup）负责审理Waymo商业机密失窃案件的联邦法官斥责Uber及其律师隐瞒证据。Uber的一位前员工证实了Uber的一个秘密团队的存在，该团队负责监视竞争对手和阻碍法律调查。2017年12月20日欧洲法院裁定Uber是一家出租车公司，迫使它要遵守更加严厉的法规。该创业公司可谓大受打击。（乐邦）本文来源：网易科技报道责任编辑：王凤枝_NT2541",
    "PublishTime": "12/30/201707:02:46",
    "URL": "http://tech.163.com/17/1230/07/D6SSJ9RI00097U7R.html",
    "Comment": {
        "Content": "可以 滴滴垃圾 还没有添加任何评论，快去APP中抢沙发吧 我和小伙伴们都惊呆了 优步比滴滴。 中国大地不容你傻爷 改用美团吧。 垄断不好。 呵呵 优步比滴滴。 可以 也行将就用。 滴滴垃圾 吃吃吃 星球差距的真实性？<br>在近玩帝国时代2,发现运气好,资源多,没有发生战乱很容易升级到帝国时代,运气差的手背的,有的只升级到城堡时代,有的连封建时代没升到就亡国了<br>回望现实世界<br>300年前欧洲文艺复兴进入工业社会,唯物主义诞生,探索宇宙开始启蒙。而中国还停留在农业社会,处于迷信时代,说明文明.科技差距是存在的<br>在把望远镜朝向太空<br>天上有2000亿个星系.银河系活了80亿年，太阳和地球才出生是事实<br>依据上面几点,由此推测<br>由于运气,资源多或少,战乱,发展快慢等原因,星系文明等级差1亿年是很正常的(而人类整个历史只有1万年),也就是说地球刚打开潘多拉魔盒或脑洞大开时,别星系的人早已发展成究极状态<br><br>科普：<br>宇宙有多大<br>直径900亿光年，以光速前行，需900亿年才能到头<br><br>物质有多小<br>假设把一颗1立方毫米铁粒的三维图像放大到太阳那么大,肉眼看到的原子核也只有1立方毫米大<br>如果有足够压力,整个地球的物质多能塞进一个原子里<br><br>物质的神奇<br>以身体为例.细胞构成身体不同的系统,如动力系统,感官系统<br>而电脑,传感器,人工智能,则是依靠电流来实现<br><br>物质属性神奇应用<br>震动(声音)<br>电磁（发电机→电流→电灯→电报→电脑→数控→人工智能→智能社会）<br>粒子相互作用力(分子聚分→TNT炸弹，核子聚分→核弹，电子移动→电流)<br>相互作用力构建了宇宙万物，否则众分子聚不成一个细胞，也聚不成一个星球<br><br>科技带来了什么<br>800年前,蒙古凭着马与弓箭的发明征服整个欧亚大陆,10万军队屠了90%中国人<br>300年前,欧洲凭着船与枪的发明,称霸了地球，原住民几乎见不到<br>现在宇宙处于生命大爆发时代<br>今天，机枪,核弹,生化武器毁地球分秒的事<br>今天工业革命,自动化革命,生产力是以前的10000倍不是梦想<br>人工智能杀人制造灵敏样样优，而人类就是个渣<br><br>历史明智<br>太阳系很大，宇宙很大，利益体很多。斗不是出路，利益合理分配，共存共赢，共甘共苦。各兄弟，各家庭，各部落，各种族，各国家，各星球，各星球群，各星系，各星系群，各集团，各阶级,才会和谐昌盛，才不会被宇宙淘汰，在400万亿亿星球中才有一席之地<br><br>内斗耗光资源，耗光时间，而在宇宙很遥远且完全陌生的星系，正在联盟成更大更强的组织<br><br>提升全人类意识，需你我共同努力(因婴孩‘白纸’时时在出生) 富士康北门的艺剪坊（清湖形象店）<br>坑爹五步曲————————————坑爹的理发店<br>第一步，装热情——刚一走到门口，几个人围着你上来，那叫一个热情啊。只要你说了一句“洗剪吹”，全部人都散了……（钱少啊）<br>第二步，套关系——那个理发师（我们暂且叫他SB）会主动问你是哪里的人，但不管你说自己是哪里的人，SB都会说“哦，老乡啊”，然后会编出一个跟你同省的城市（最有可能的就是省府），让你放松警惕，开始下手宰你……<br>第三步，故意下套，让你钻——洗完头发，他会问你：“你头发有点弯，要不要梳直？”刚洗完头发，这么乱，当然要梳直啦。你中了，不是中奖，而是中了他的套套。里面的人马上又“热情”起来，两三个人会迫不及待的拿药水给你涂上，这就是钱啊……<br>第四步，“教导”你——等你发现后，店长（暂且就叫GRD吧）说这是你无知，不懂理发店的潜规则（靠，听起来怎么像圈圈里面的事），然后还教师口气的对你说，这次他“好心”告诉你，下次你就不会上当了（来他那里就是买教训的？），FUCK，强盗还讲起理来了！！！<br>第五，威逼胁迫——几个人“围着”你，然后绞尽脑汁给你“想办法、出主意”，押厂牌啊，押手机啊，“陪”你去取钱啊，真感觉自己处在Hongkong电影里<br>同仁们，希望大家记住富士康北门这个店——艺剪坊（清湖形象店）。现在我们被无数的无良商家残害，毒害、欺诈，我们这些“上帝”再也伤不起了，我们不能严惩他们，但至少可以抵制他们。 ",
        "Link": "http://comment.tech.163.com/tech_bbs/D6SSJ9RI00097U7R.html",
        "Total": 50,
        "Reply": 14
    },
    "Source": "Netease",
    "Title": "Uber动荡不安的2017：昔日最大独角兽麻烦真太多_网易科技",
    "KeyWords": "uber,独角兽,无人驾驶汽车,出租车司机"
}