{
    "Article": "（原标题：又现奇葩婚闹！2箱生粉劈头盖脸砸向新郎新娘，安全隐患全然不知）#endText.video-infoa{text-decoration:none;color:#000;}#endText.video-infoa:hover{color:#d34747;}#endText.video-listli{overflow:hidden;float:left;list-style:none;width:132px;height:118px;position:relative;margin:8px3px0px0px;}#entText.video-lista,#endText.video-lista:visited{text-decoration:none;color:#fff;}#endText.video-list.overlay{text-align:left;padding:0px6px;background-color:#313131;font-size:12px;width:120px;position:absolute;bottom:0px;left:0px;height:26px;line-height:26px;overflow:hidden;color:#fff;}#endText.video-list.on{border-bottom:8pxsolid#c4282b;}#endText.video-list.play{width:20px;height:20px;background:url(http://img1.cache.netease.com/video/img14/zhuzhan/play.png);position:absolute;right:12px;top:62px;opacity:0.7;color:#fff;filter:alpha(opacity=70);_background:none;_filter:progid:DXImageTransform.Microsoft.AlphaImageLoader(src=\"http://img1.cache.netease.com/video/img14/zhuzhan/play.png\");}#endText.video-lista:hover.play{opacity:1;filter:alpha(opacity=100);_filter:progid:DXImageTransform.Microsoft.AlphaImageLoader(src=\"http://img1.cache.netease.com/video/img14/zhuzhan/play.png\");}if(/(iPhone|iPad|iPod|Android|NETEASEBOBO|blackberry|bbd+)/ig.test(navigator.userAgent)||/safari|chrome|firefox/i.test(navigator.userAgent)&&navigator.plugins&&!navigator.plugins[\"ShockwaveFlash\"]){varstr1='<videocontrols=\"controls\"preload=\"auto\"width=\"100%\"poster=\"http://vimg3.ws.126.net/image/snapshot/2017/12/K/5/VU5Q5TEK5.jpg\"style=\"max-height:100%\">';varstr2='<sourcetype=\"video/mp4\"src=\"http://flv.bn.netease.com/videolib3/1712/28/JjRMx3839/SD/JjRMx3839-mobile.mp4\">您的浏览器暂时无法播放此视频.</video>';document.getElementById(\"FPlayer1404863609673\").parentNode.innerHTML=str1+str2;}恶俗!他搬2箱生粉,劈头盖脸砸新娘（来源：original）window.NTES&&function(d){varf=function(c){varb=c.getAttribute(\"flashvars\"),a=c.getAttribute(\"repovideourl\").replace(\".flv\",\"-mobile.mp4\");h=d(c.parentNode.parentNode.parentNode),g='<embedsrc=\"http://v.163.com/swf/video/NetEaseFlvPlayerV3.swf\"flashvars=\"'+b+'\"allowfullscreen=\"true\"allowscriptaccess=\"always\"quality=\"high\"wmode=\"opaque\"width=\"100%\"height=\"100%\"type=\"application/x-shockwave-flash\"/>';if(/(iPhone|iPad|iPod|Android|NETEASEBOBO|blackberry|bbd+)/ig.test(navigator.userAgent)){g='<videocontrols=\"controls\"preload=\"auto\"width=\"100%\"height=\"100%\"><sourcetype=\"video/mp4\"src=\"'+a+'\">您的浏览器暂时无法播放此视频.</video>';}h.$(\".video\")[0].innerHTML=g;},e=function(b){vara=d(b.parentNode.parentNode.parentNode);a.$(\"li\").removeCss(\"on\"),b.addCss(\"on\"),a.$(\".video-title\")[0].innerHTML=\"string\"==typeofb.textContent?b.textContent:b.innerText,a.$(\".video-title\")[0].setAttribute(\"href\",b.getAttribute(\"url\")),a.$(\".video-from\")[0].innerHTML=\"（来源：\"+b.getAttribute(\"source\")+\"）\",f(b);};window.continuePlay=function(){vara,b=d(d(\".video-list.on\")[0].nextSibling);3==b.nodeType&&(b=d(b.nextSibling));if(b&&d(\".video-innerinput\")[0].checked){e(b);}},function(){vara={init:function(){if(d(\".video-listli\")[0]){d(d(\".video-listli\")[0]).addCss(\"on\"),this.eventBind();}},eventBind:function(){d(\".video-listli\").addEvent(\"click\",function(b){e(d(this)),b.preventDefault();});}};a.init();}();}(NTES);【又现奇葩婚闹！2箱生粉劈头盖脸砸向新郎新娘，安全隐患全然不知】近日，广东肇庆又见恶俗婚闹！迎亲时，两男子抬起两箱生粉，劈头盖脸倒在新郎新娘脸上，一时间，新郎新娘被生粉覆盖，空气里弥漫的都是生粉，而围观者在一旁起哄嬉笑蜀黍提示：生粉属于粉尘类的一种。粉尘爆炸跟汽油爆炸差不多，汽油是气体分子挥发到空气中，达到一定的浓度遇明火就爆炸。粉尘爆炸，是非常细小的粉尘颗粒，扩散到空气中，当积累到一定浓度时，也会像汽油一样遇火爆炸。本文来源：一手Video责任编辑：程钢_NN7377",
    "Source": "Netease",
    "KeyWords": "爆炸,生粉,新郎,新娘",
    "Title": "又现奇葩婚闹！男子迎亲时将2箱生粉砸向新郎新娘_网易新闻",
    "Comment": {
        "Total": 1382,
        "Content": "阴暗的嫉妒心态，见不得人好。 难道你觉得没有安全隐患？局部达到爆炸极限后只要有火源立刻玩完~ 有机物会燃烧，就会爆炸 一般这种新闻下面没有地域黑，要是现实是北方，地域黑才多呢 这肯定是东北人 现在结得起婚的叫穷人？[微笑] 她妈有病？？ 都叫沙尘爆了，你问会不会爆？ 你是sb吗？ 他们自己是不知道什么叫愚昧野蛮落后的 傻逼，爆炸了就等死吧 什么是爆炸，爆炸就是快速、瞬间的燃烧，可燃物一般接触空气的面积比较少，氧气的供应不够充足，因此燃烧速度不快，当可燃物是粉末并与空气充分混合的时候，燃烧就是瞬间的事了，这就形成了爆炸 别瞎说实话 这还真不如换成干粉灭火器安全，方便，还精准。 沙尘爆就没有粉尘？只不过是土粉，成粉不同的粉尘而已 你去面粉厂里抽支烟试试呢，要不是最后烧的屎都找不到，算你没烧干净，其实这个实验很好实验，你就抓一把面粉洒向明火，就可以看到是什么情况了，视频中的情况，如果是在洞房里，80%会爆了，我不知道这些人都是些什么人呀，新娘前男友吗？说是男方兄弟，我怎么看也没有一点点兄弟的样子呀，我结婚时最多的就是语言上讲讲黄段子，调戏一下伴娘，新娘没人敢动呀，还是就是劝新娘来陪酒，之类的，大家有说有笑也开心呀，还有男方家的人呢，没有一个婶子姑姑，姐姐之类的吗？就让他们这么闹呀，这男人脾气就这么好吗？我看还到一个视频，拿干粉灭火器，把新郎喷进ICU的，真的这年头，结个婚不杀个人助助兴，都不好意思说结婚了吗？我在江苏从来没有看到过这么过份呀，如果结婚时，我朋友兄弟把我这些弄，我要不把他屎打出来，算他拉的干净！ 一楼怕是个傻子吧 地域黑大军还有30秒抵达现场！ 你读书是少，空气中粉尘密度达到一定爆炸极限，遇明火的确会爆炸。。。 现在结婚不弄个人进医院都得重结 越穷的地方越婚闹 真想知道这些人怀着什么样的情绪做这些事的？<br>是嫉妒这拱白菜的猪呢？<br>还是想掐一把白菜？ 面粉都能炸吧。 新郎淡定的拿出烟分了一圈~~心里想，谁点谁傻逼~~ 越穷的地方陋习越多这个好像是定理，在广东看看广州佛山深圳东莞珠海有这么搞的吗？ 上次那个煞笔明星结婚就这样搞 现在结婚不杀个人都不好意思说结了 四个字狐朋狗友 淀粉属于可燃性粉尘，在空气中漂浮达到一定浓度后遇明火易燃易爆，一楼少喷多读书 那要要看是什么粉尘吧，沙尘爆算不算粉尘，会爆吗 一楼确实读书少 2014年，苏州，铝粉尘爆，榨！威力如何，自己去搜！ 要是我，直接捅死这个白衣男子，这样才像结婚吗 一楼自己说了，读书少，唉没文化真可怕 穷则愚 脑子是个好东西 什么样的朋友就有什么样的新郎，估计新郎也这么闹过别人家婚礼。 爆炸有前提条件的，这是在户外开放空间，空气中粉尘密度很难达到爆炸阈值，哪那么容易爆炸。。。 只有穷地方人才能玩出这样恶俗的把戏 一楼说的不错，他的确读书少 妈的，广东也沦陷了？还以为只有我大山东有低俗婚闹呢。 生粉是谷物淀粉，能爆炸？我读书少不要骗我 面粉厂爆炸的新闻也不在少数 真她妈脑子进屎了 面粉厂爆炸新闻自己百度去。文盲真多 不用密闭空间参考台湾演唱会 对，精准拂姘 阴暗的嫉妒心态，见不得人好。 难道你觉得没有安全隐患？局部达到爆炸极限后只要有火源立刻玩完~ 傻逼，会爆炸的懂不懂啊，跟新娘新郎什么仇什么怨 1楼就是撒生粉的那货 现在结得起婚的叫穷人？[微笑] 一楼说的不错，他的确读书少 那个算是爆燃。。 无知者无畏，驴都知道害怕 傻逼，爆炸了就等死吧 你书读的确实少，去百度一下粉尘爆炸是什么再来这边现无知~ 粉尘在空气中达到一定的密度，是很容易爆炸的。 你就不怕那灭火器一个不小心把新人给憋死？？ 那是封闭空间会爆炸，大路上开放空间不会的。 一旦有明火，就等着进ICU一起度假吧！ 这还真不如换成干粉灭火器安全，方便，还精准。 兄弟，来根烟！ 不用密闭空间参考台湾演唱会 南方人未开化 你去面粉厂里抽支烟试试呢，要不是最后烧的屎都找不到，算你没烧干净，其实这个实验很好实验，你就抓一把面粉洒向明火，就可以看到是什么情况了，视频中的情况，如果是在洞房里，80%会爆了，我不知道这些人都是些什么人呀，新娘前男友吗？说是男方兄弟，我怎么看也没有一点点兄弟的样子呀，我结婚时最多的就是语言上讲讲黄段子，调戏一下伴娘，新娘没人敢动呀，还是就是劝新娘来陪酒，之类的，大家有说有笑也开心呀，还有男方家的人呢，没有一个婶子姑姑，姐姐之类的吗？就让他们这么闹呀，这男人脾气就这么好吗？我看还到一个视频，拿干粉灭火器，把新郎喷进ICU的，真的这年头，结个婚不杀个人助助兴，都不好意思说结婚了吗？我在江苏从来没有看到过这么过份呀，如果结婚时，我朋友兄弟把我这些弄，我要不把他屎打出来，算他拉的干净！ 扔个烟头就好 越是没文化没教养欠发达地区的，这种婚闹就越厉害越野蛮。 这种傻逼，怎么没炸死呢？真是不公平。 一楼没事在自己屋里试试，老人家说的好：实践是检验真理的唯一标准 最厉害的一次是哈尔滨亚麻厂粉尘大爆炸吧。<br>那次可是震惊全国啊。 你读书真的少 就没有人扔个烟头？ 为什么没有拿刀捅新郎新娘的婚闹呢，看捅多少刀才会倒阿。 同归于尽的意思？ 不用密闭空间参考台湾演唱会 看来你很喜欢拿屎说事。呵呵，我赞成你的观点！ 尘爆 低俗的风俗习惯 新郎淡定的拿出烟分了一圈~~心里想，谁点谁傻逼~~ 越穷的地方陋习越多这个好像是定理，在广东看看广州佛山深圳东莞珠海有这么搞的吗？ 现在结婚不杀个人都不好意思说结了 一楼的确是读书少，大家不要骂他，人家自己也承认知识不足了。 你读书是少，空气中粉尘密度达到一定爆炸极限，遇明火的确会爆炸。。。 终于把仇报了！ 上次有个新郎就被干粉灭火器给干进了ICU! 想多了，室外通风的环境下是不会爆炸的 穷则愚 什么样的朋友就有什么样的新郎，估计新郎也这么闹过别人家婚礼。 爆炸有前提条件的，这是在户外开放空间，空气中粉尘密度很难达到爆炸阈值，哪那么容易爆炸。。。 粉尘爆炸没听说过吗？！ 农村贱民才会玩这种把戏。 只有穷地方人才能玩出这样恶俗的把戏 一楼怕是个傻子吧 生粉是谷物淀粉，能爆炸？我读书少不要骗我 面粉厂爆炸的新闻也不在少数 面粉都能炸吧。 白雪公主 几年前，苏州一家台企，还发生过金属粉尘爆，炸，死了不少。 如果有人对粉尘过敏怎么办？！直接呛死！！ 忘了台湾那次室外演唱会了么？ 深圳前不久不是用锤子把门给拆了吗？你忘了 真的不是前男友来闹事？？ 一般这种新闻下面没有地域黑，要是现实是北方，地域黑才多呢 这肯定是东北人 她妈有病？？ 你是sb吗？ 是啊，还安全。 傻逼，爆炸了就等死吧 自己抓把面粉对着蜡烛吹一下就知道了，不过做前先戴上防护罩 现在看别人结个婚就跟看笑话一样了 像猴子 上次不是有个差点被喷死的 别瞎说实话 有道理，这些地方的人不上网，网上喷成这样还瞎闹。 也有好的一面：<br>问你们，还想再来一回吗？<br>好好过日子吧。 估计新浪也不是啥好东西吧。 脑残 干粉灭火器，不是干冰灭火器。。。 你好像是瞎 也是醉了 流星月亮地球太阳系有发动机么？没有!他们却高速在宇宙中运行!为什么？因为他们的运行轨道本身就是太空高速时空隧道!他们的运行路线一半为去路一半为来路，周而复始地运行着!地球自转公转着，本就没有东西南北上下左右等方位!谁定的？我们的天父啊!目的只有一个，告诉人类我们天父的星座方位!所以九曲桥的方向始终对着东北方!在宇宙一切物质中，永远是子体围绕母体运动，这是恒定的!所以地球自转并围绕太阳公转!因地球是自转公转的，所以根据地球的东西南北是找不到星外文明的星座方位的!只有找到太阳的上下前后东西南北才能准确地给天父星座方位定位!我们天父星座方位在太阳系东北上方第九颗恒星那里!那里以双伴恒星为中心带动周围108颗恒星运动着! 地域黑大军还有30秒抵达现场！ 真想知道这些人怀着什么样的情绪做这些事的？<br>是嫉妒这拱白菜的猪呢？<br>还是想掐一把白菜？ 广东婚礼一向比较节制。居然还有这种sb 现在结婚不弄个人进医院都得重结 这要是谁抽支烟，是不是就全灭了 不是人.这个新娘迟早会受不了的 会把人冻坏 可怕！！！ 等自己结婚了就知道悔不当初了 越穷的地方陋习越多这个好像是定理，在广东看看广州佛山深圳东莞珠海有这么搞的吗？ 上次那个煞笔明星结婚就这样搞 妈的，广东也沦陷了？还以为只有我大山东有低俗婚闹呢。 四个字狐朋狗友 别说是哪人，就看那几个闹得人的形象，感觉像正儿八经的吗 要是我，直接捅死这个白衣男子，这样才像结婚吗 现在结婚不杀个人都不好意思说结了 666666666666666666666 脑子是个好东西 粉尘爆炸，是非常细小的粉尘颗粒，扩散到空气中，当积累到一定浓度时，也会像汽油一样遇火爆炸。<br>这句话不完整出来错误，汽油遇火需要在一定封闭的空间内才会爆炸，而不是一滩油会爆炸。 哪个脑残出的电子，这时候要是放鞭炮还不粉尘爆炸了？ 他们自己是不知道什么叫愚昧野蛮落后的 从不看新闻的农抿 越穷的地方越婚闹 生粉是谷物淀粉，能爆炸？我读书少不要骗我 这准备下锅油炸么？ 真她妈脑子进屎了 这还真不如换成干粉灭火器安全，方便，还精准。 恶俗！！！哪里都有……一旦出事了，吃不了兜着走！ ",
        "Reply": 117,
        "Link": "http://comment.news.163.com/news_shehui7_bbs/D6O1N1LD0001875P.html"
    },
    "PublishTime": "12/28/201709:56:00",
    "URL": "http://news.163.com/17/1228/09/D6O1N1LD0001875P.html"
}