{
    "PublishTime": "12/30/201708:50:01",
    "Comment": {
        "Total": 433,
        "Reply": 46,
        "Link": "http://comment.ent.163.com/ent2_bbs/PHOTJNQ2000300AJ.html",
        "Content": "看冠希相机里照片就能感觉床上飞 是保养得挺好的，但是太瘦了，女人上了年纪干瘪就不好看，而且表情看起来很不面善，不温柔，不谈男人喜欢的。 发生那样的事，还自然善良，你心真大 马上就2018年了！赞我的在这新的一年里都财源滚滚来家和万事兴！不赞的也祝大家家家和睦平平安安！ 再美也美不过你一丝不挂卖弄风骚的样子 发生了什么事？你沒做过？你妈可天天做。怎么了？ 那么瘦，经历的事情太多了，以前多漂亮的一个女孩，祝福你，加油柏芝 艳照门我全都放在微信收藏里面了,现在各种云盘都很容易被和谐,电脑也有可能坏了修不好!放在微信收藏,哪怕手机坏了,只要买个新设备登录微信就可以了!舒淇徐若瑄好莱坞我都有!没事的时候打开微信看一看,真不错![惊讶][惊讶][惊讶][惊讶] 你这么具备鉴赏力……想必阁下也属非凡体质……具备看穿一切事物的你……有机会去你妈胯下走一遭可好？记得带着冠希相机……你妈和这两个女人只差一台相机 还是穿警服好看 哪个男人见了柏芝不疯狂？？ 那时候粉嫩，不过没阿娇那里好看！阿娇更肥美！ 张柏芝再怎么样保养也30多岁了， 票房毒药，只能转行了 柏芝好美 30多？ 是啊我也这么觉得 最美的柏芝在冠希的相机里 我依稀还记得你那巢嘿嘿卷卷的量也不多！ 她是真的漂亮 漂亮 一直觉得她和陈冠希其实最配 冠希好艳福啊！ 面部僵硬了 你妈发紫，稀的拍！ 艳照鸡女 你妈的美在嫖客的金钱里！ 老了 就样貌来说比王菲好看太多 而且下面真的挺粉嫩的！ 已崩塌 看冠希相机里照片就能感觉床上飞 是保养得挺好的，但是太瘦了，女人上了年纪干瘪就不好看，而且表情看起来很不面善，不温柔，不谈男人喜欢的。 女孩… 再美也美不过你一丝不挂卖弄风骚的样子 变态垃圾！ 还是穿警服好看 夜里不应该修这样的照片 哪个男人见了柏芝不疯狂？？ 票房毒药，只能转行了 小编是张柏芝的阴毛 30多？ 是啊我也这么觉得 最美的柏芝在冠希的相机里 我依稀还记得你那巢嘿嘿卷卷的量也不多！ 张柏芝再怎么样保养也30多岁了， 漂亮 都是当世潘金莲，命运何如地与天，圣女还是千夫指，全赖投胎在哪边。--戴妃二十年祭 面部僵硬了 艳照鸡女 你妈也一样！ 你妈的美在嫖客的金钱里！ 老了 畜生！ 说人话 已崩塌 永远支持你 发生那样的事，还自然善良，你心真大 马上就2018年了！赞我的在这新的一年里都财源滚滚来家和万事兴！不赞的也祝大家家家和睦平平安安！ 那时候粉嫩，不过没阿娇那里好看！阿娇更肥美！ 发生了什么事？你沒做过？你妈可天天做。怎么了？ 那么瘦，经历的事情太多了，以前多漂亮的一个女孩，祝福你，加油柏芝 艳照门我全都放在微信收藏里面了,现在各种云盘都很容易被和谐,电脑也有可能坏了修不好!放在微信收藏,哪怕手机坏了,只要买个新设备登录微信就可以了!舒淇徐若瑄好莱坞我都有!没事的时候打开微信看一看,真不错![惊讶][惊讶][惊讶][惊讶] 你这么具备鉴赏力……想必阁下也属非凡体质……具备看穿一切事物的你……有机会去你妈胯下走一遭可好？记得带着冠希相机……你妈和这两个女人只差一台相机 漂亮 柏芝好美 她是真的漂亮 你妈不穿更好看！ 一直觉得她和陈冠希其实最配 冠希好艳福啊！ 你妈发紫，稀的拍！ 美！ 谢当初不是抛弃王娶了张吗！ 真是怎么看都美的 而且下面真的挺粉嫩的！ 世上离婚的多了去了，非欲致老婆孩子于死地,唯王八强这种缺教少养的下三烂才干得出！更恶劣的是，自王八强始，一撮渣男争相比无耻，比无底线，把中国渣男有钱无德的丑陋暴露在全世界面前。 就样貌来说比王菲好看太多 "
    },
    "Title": "张柏芝深夜再秀美照 面容清秀变潮酷女孩_网易娱乐",
    "Source": "Netease",
    "KeyWords": "张柏芝,",
    "URL": "http://ent.163.com/photoview/00AJ0003/646978.html",
    "Article": "张柏芝深夜再秀美照面容清秀变潮酷女孩12月29日深夜，张柏芝放出了一组刚刚自己的美照。张柏芝戴着红色鸭舌帽，搭配一身红色格子衫，青春气息满溢。"
}