{
    "PublishTime": "12/31/201717:45:47",
    "Comment": {
        "Total": 12,
        "Reply": 9,
        "Link": "http://comment.ent.163.com/ent2_bbs/D70JPD3Q00038FO9.html",
        "Content": "中间那个是林依晨么？ 对，我的秘密花园剧照 老梦想照进现实 对，我的秘密花园剧照 中间那个是林依晨么？ 自然而然 挺漂亮的 现在老照片也不敢相信了 你咋知道这是素颜呢? 真是素颜 正在深圳龙华大浪分享城购物中心拍我的台北前期，素颜，也就那样吧，正面对视了一下。化了妆我倒是硬了。 "
    },
    "Title": "杨谨华18岁萝莉照曝光 素颜清纯长腿逆天醒目_网易娱乐",
    "Source": "Netease",
    "KeyWords": "杨谨华,长腿,素颜,名模",
    "URL": "http://ent.163.com/17/1231/17/D70JPD3Q00038FO9.html",
    "Article": "网易娱乐12月31日报道据台湾媒体报道，台湾女艺人杨谨华近日跟上大陆“晒18”的风潮，在社交网站公开18岁青涩美照。画面中，她留了一头清汤挂面长发，脸蛋有些圆润、身材高瘦，除了稚气未脱，看上去和40岁的现在几乎没两样，照片上传立刻成为目光焦点。杨谨华留言表示，为了迎接2018年，抢先放送18岁美照，期许能永保一颗18岁的心，一连PO出3张美照。她五官立体、身形高瘦，体态已是名模等级，目测长度如200公分的辣腿超吸睛，且打扮入时，有点37步站姿的日常随拍，名模架式十足，稍微不同的，只有模样稚气、脸型较为圆润，少了现在的成熟妩媚。照片贴出后，立刻引来大批粉丝，众人除了夸她天生美人胚，另有不少人把焦点放在那双超逆天长腿，直说“原来你小时候就是长腿辣妹”，天生丽质赢得许多好评。照片贴出后，杨谨华过去经历也被粉丝翻出来回忆，15岁那年一边念书，一边闯星途，首次演出就拍了刘德华《冰雨》MV，现在都还有人对她的萤幕处女秀印象深刻；可惜18岁时运不佳，演出机会很少，组了女子团体，最后公司也倒闭了。直到2002年，她才参加电视剧《我的秘密花园》，饰演林依晨、梁又琳剧中同学兼死党，开始在娱乐圈崭露头角，从此星路大开，加上天生拥有身高170公分的名模身材，也成为时尚圈宠儿。本文来源：网易娱乐责任编辑：陈恺_NK4686"
}