{
    "Source": "Netease",
    "KeyWords": "子宫,手术,剖腹产,输卵管",
    "URL": "http://news.163.com/17/1225/01/D6FCA7NI0001875P.html",
    "PublishTime": "12/25/201701:08:04",
    "Comment": {
        "Content": "医术精湛高明 了不起 为伟大的医生点赞！ 这得多疼? 在中国就得死 妈妈真伟大 孩子救过来就好。 平安就好 西方医院虽然看病难，但是急救还是一等一的。 医术精湛高明 本来想赞一个的，一点开看原来是国外的！ 为伟大的医生点赞！ 孩子救过来就好。 这得多疼? 了不起 妈妈真伟大 ：我要宣布一件事情，大家还记得2011年的抢盐的事情吗？我家里的盐在今天，就是今天，终于吃完了，吃完了呀！我的个亲娘啊！终于给吃完了。​​​ 在中国就得死 平安就好 西方医院虽然看病难，但是急救还是一等一的。 ",
        "Total": 84,
        "Link": "http://comment.news.163.com/news_shehui7_bbs/D6FCA7NI0001875P.html",
        "Reply": 11
    },
    "Article": "（原标题：惊险！妈妈子宫破裂宝宝滑进肚里医生30秒手术创造生命奇迹）据英国《每日邮报》12月24日报道，这周三，已经出生一个月的瑟菲娜（Sephina）终于获准回到伦敦西区的家中。她红润的脸颊上带着心满意足的微笑，小瑟菲娜还不知道自己造成的“戏剧”。一个月前，瑟菲娜的妈妈玛西娜·弗罗斯特（MasinaFrost）子宫突然破裂，瑟菲娜滑进了妈妈的腹腔。情况紧急，伦敦圣托马斯医院的安德鲁·申南（AndrewShennan）医生，命令急救队采取行动，进行了一次高风险的剖腹产手术，她才得救，而手术时间只有短短30秒。“一切都发生得太快了，”玛西娜说“第一分钟，医生给我打了一针，第二分钟，我就上了手推车飞奔进入手术室。这是一次令人难以置信的可怕经历，但我们感到非常幸运，因为我们有了一个美丽的女儿。”这对夫妇的喜悦中更多的是辛酸，玛西娜和丈夫亚当（Adam）在近几年里经历了像坐过山车一样的心碎。玛西娜和亚当都是43岁，他们在哈佛大学学习时相遇，他们组成了家庭，但后来发现玛西娜有先天性疾病，她的子宫很小，输卵管没有正确连接。经过了四次试管婴儿，他们在2012年2月才有了第一个女儿阿米莉亚（Amelia），现在5岁了。但玛西娜第二次怀孕7个月时，肚子剧烈疼痛，她被送往医院，原来她的子宫已经破裂，她的孩子西奥（Theo）被急救剖腹产出生，但关键时间上的延迟，导致他缺氧，造成了脑部损伤。不幸的是，西奥在9个月大时还是死了。一个健康顾问告诉玛西娜，她还可以怀一个孩子，但这有很高的风险。当她怀孕31周时，她感到不舒服，就去了圣托马斯医院检查。幸运的是，申南教授——一位高危妊娠专家，正好在病房里。他很快意识到这是一个生死攸关的情况，令人担忧的是，胎盘不能再接收到子宫中的血液，而这些血液是给胎儿提供氧气的。“我们真的只有几秒钟的时间来拯救她，”申南教授说“我们先给她全身麻醉，从我第一刀切下去，到分娩，只用了30秒时间，这是我做过的最快的急救剖腹产。如果那时候玛西娜没有跟我在一起，我们可能就失去瑟菲娜了。这真是一个奇迹。”本文来源：封面新闻责任编辑：李天奕_NN7528",
    "Title": "母亲子宫破裂宝宝滑进肚里 医生30秒手术创造奇迹_网易新闻"
}