{
    "Comment": {
        "Link": "http://comment.sports.163.com/sports2_bbs/D6K7H87400058781.html",
        "Reply": 169,
        "Content": "傻逼你有多大逼数？都15年过了就你狭隘上海男替意大利打抱不平 热刺目标是1.5亿卖凯恩，担心孙兴慜太出彩会让点凯贬值。 没事，喷热刺政治需要，让那文盲喷 破梗快别用了。显得自己傻逼一样 目前亚洲最屌的一个 凯恩只会虐菜，难堪大用 凯恩是真正的菜刀啊，打big6不见进球，打菜队，3个3个进。 哈哈哈哈哈 一位52场56球，一位64场54球，差距可有点大😏 温布利屠了皇马的那场没看？ 不承认凯恩的进球数，所以年度进球第一名是梅西。 萨拉赫上一场比赛进球后，射手榜领先凯恩3个，今晚萨拉赫开赛前落后凯恩3个，这真是说理都没地方去啊！ 哈哈哈，那应该谁和梅西比？ 傻逼棒子，怎么赢得心里没点逼数吗[狗][狗] 我去，今年欧洲金靴奖居然不是梅罗 孙兴民这么牛逼啊，不去当兵真的是损失 平时热刺前场几个人包括凯恩都浪射，到了凯恩该刷数据的时候，热刺这几个小弟--埃里克森，阿里，小孙还是会认认真真的助攻 很牛逼的样子，希望世界杯带英格兰杀入16强！ 进球率达到梅罗的1个多点再说吧 英超球队菜鸡互啄是不争的事实……<br>阿森纳VS利物浦<br>西汉姆联VS伯恩茅斯<br>曼联VS伯恩利 你们继续吹凯恩，我来吹波孙兴愍 韩国的孙，英语怎么拼，中国是Sun 内裤狗，小男人 亚洲一个孙。 凯恩两轮戴帽关尼玛C罗梅西毛事？吃多了什么都能喷起来？无不无聊？ 最讨厌就是那种瞎梅吹，进球比不过就说比助攻，助攻比不过就说比创造机会，创造机会比不过就说比冠军、比历史，说的梅西就是神一样，连上帝都比不过。说句不好听的，除了俱乐部荣誉满身，阿根廷国家队拿了什么冠军没？C罗就算和梅西比，再差也带领葡萄牙拿了个欧洲冠军 祝贺[窃笑] 比了比进球，结果凯恩赢了啊，哈哈 菜鸡互啄 垃圾球队欧冠进去试试 那天刚看到网易说了凯恩两场比赛进5球不可能[鄙视] 他本来就是傻逼 孙真的厉害 那又如何？现在凯恩都能跟梅西比较了？哈哈 这么好状态不去服兵役可惜了 孙兴慜在欧洲都是前几十的球星，根本不屑“亚洲足球先生”这种廉价头衔。 少赛12场 就是，这群菜鸡偏偏还六个都从欧冠小组赛出线了，其中五个还小组第一 今年52场56球 凯恩？昙花四现罢了，还需观察观察 连续两个帽子戏法，不简单，不过凯恩在与强敌较量下有高光表现，才能证明他的价值 孙大圣您快收了神通吧！ 本年度进球超过梅西了，还是厉害的 应该是。也就孙兴敏好欺负呗。 热刺第几名呢？😂<br>和梅西比进球？<br>梅西却在疯狂给同伴做球！ 凯恩无愧世界正印前锋之王！无绯闻，不花哨，不摆架子，不花精力在纹身，做发型，鬼混上。。。。全身心专注足球，按talksport主持人所讲，不折不扣的hardworkingmachine！2018，三狮值得期待稳重谦逊的凯恩引领！ 不是带，难道还是领着？<br>还远远达不到。坐着盆子拉屎的人，你永远不知道是稀的还是干的，他自己都不知道。<br>白痴到这种程度，也没谁了。<br>阿根廷球星云集梅西就是带，相比葡萄牙山野村夫一般就不能正眼看了。<br>就因为你喜欢梅西，别人就不能好过梅西，哪怕荣誉超过了，也要想方设法引导舆论强行扭曲价值观。<br>这样的人心理到底是怎样的扭曲和矛盾？<br>和这样的人是怎么来的一样是社会难题。 去年咋不见你逼逼？不爱看英超滚一边去，巴狗少来污染 对，千万别像我梅，只会小组进球，一去淘汰赛就0进球，幸亏队友大腿粗，我梅连躺三个亚军 当时是谁说凯恩只是昙花一现的？？现在站出来？！ 上赛季英超最后2轮狂刷7球，抢走卢卡库金靴，年底最后2轮又怒刷6球，强势抢走梅西年度射手王，这个24岁的英格兰人不简单啊，未来拿金球不是不可能 服役回来还是能甩你们几条街。 傻逼棒子，怎么赢得心里没点逼数吗[狗][狗] 热刺目标是1.5亿卖凯恩，担心孙兴慜太出彩会让点凯贬值。 没事，喷热刺政治需要，让那文盲喷 温布利屠了皇马的那场没看？ 这么好状态不去服兵役可惜了 前个赛季也是最后几场刷进球，抢了瓦尔迪射手冠军 今年就是曼城夺冠 深圳这种经济发达文明程度全国前列的地方怎么会出你这样的LOW逼 对的，还需要时间。明年入主新球场。热刺现在风格独树一帜。应该不难能吃到英格兰这次爆发的本土青训福利，对海外妖人登入英超的吸引力其实也已经非常强了。 又戴帽 就是，不争取自己提高老是坑别人有什么用 狗东西 应该让他退役后再去服兵役，正是巅峰期，服兵役实在太可惜了 为什么一定要这么去敌对梅西和C罗呢？都是伟大的巨星，本身就没有可比性，让足球场的7号和10号比是对7号的不公平和对10的不尊重！ 平时热刺前场几个人包括凯恩都浪射，到了凯恩该刷数据的时候，热刺这几个小弟--埃里克森，阿里，小孙还是会认认真真的助攻 凯恩这是来砸场子的吗？让梅狗怎么活？人家刚靠这54拿了年度最佳，今年只比联赛，不比欧冠那种低级赛事，联赛你砸人家厂子算怎么回事？ 看多了豪门，我现在倒是挺想看到另一个新贵俱乐部的崛起，就像近年的曼城一样。感觉现在这支热刺的条件正逐渐成熟了。 😄😄😄 萨拉赫上一场比赛进球后，射手榜领先凯恩3个，今晚萨拉赫开赛前落后凯恩3个，这真是说理都没地方去啊！ 有本事让张玉宁出场一次。别说进球。 🍈🍈🍈 二楼看不懂一楼 son?这名字好 快了，他已经错过很多免兵役的机会…… 孙兴民这么牛逼啊，不去当兵真的是损失 你先自报家门吧，西吹还是德吹 热刺板凳深度不够，双线作战要想都取得好成绩，太难了 我想知道明年抢世界杯金靴，他会不会这么卖命 最多伤仲永二十年 英超球队菜鸡互啄是不争的事实……<br>阿森纳VS利物浦<br>西汉姆联VS伯恩茅斯<br>曼联VS伯恩利 你们继续吹凯恩，我来吹波孙兴愍 韩国人把孙姓译成SON？ 韩国棒子这么好的苗子，没去服兵役可惜了。 凯恩射术确实比这几个还是要好一些[大笑] 凯恩82次射门，沙拉河60次射门，进球效率差的多了 凯恩两轮戴帽关尼玛C罗梅西毛事？吃多了什么都能喷起来？无不无聊？ 凯恩还很年轻，应该说，很有机会未来第一中锋 热翔这是要铁了心和莉莉抢第四的节奏啊！娜娜急不急啊！ 菜鸡互啄 垃圾球队欧冠进去试试 说明多特，马竞，摩纳哥还不如菜鸡。 就是，这群菜鸡偏偏还六个都从欧冠小组赛出线了，其中五个还小组第一 那天刚看到网易说了凯恩两场比赛进5球不可能[鄙视] 主要是日本中卫被打爆了 真的是迎难而上，看上去不可能的事情两次被他做到了👍👍 谁都想刷，可也要刷的出来啊 孙真的厉害 凯恩得3亿 退出国家队入英国籍不用服兵役了安心赚钱 巴狗真不要脸 心里平衡，自我安慰嘛。 这他妈损 👍 教练，还有绝杀的埃德尔 孙的体能不够全场，要省着点用，一般都是提前换下。热刺现在几个位置也打轮换，为了应付双线密集赛程。 凯恩要超越的不是他，而是梅西，他是明年5月份的事 凯恩？昙花四现罢了，还需观察观察 当兵是块料子 也是nb，两轮六球超越梅西。 哼哼，热刺迷茫了几轮，又开始砍瓜切菜模式了 才24岁，真是牛逼 连续两个帽子戏法，不简单，不过凯恩在与强敌较量下有高光表现，才能证明他的价值 跟当年的亨利一样，要获得荣誉，只能转会到巴萨、皇马、拜仁、曼城这种球队才行。 再次说明英超菜鸟互啄的本质！萨拉赫在意大利也没这么猛 本年度进球超过梅西了，还是厉害的 热刺第几名呢？😂<br>和梅西比进球？<br>梅西却在疯狂给同伴做球！ 其他都赞同，但说不能用球队的7号和10号比就不赞同了，这两个号在目前球队都是核心球员的号，尤其是曼联时的7号 就好像你老婆怀孕不是你的功劳，是你爷爷的基因立功了一样。🐶 你确定你明白高中锋存在的意义？<br>你印象中都是苏牙，阿奎罗似的才叫中锋？<br>小学生，多了解了解英伦足球，桑巴，阿根廷，意大利，德国的足球文化，不要出来丢人现眼。 节奏问题，意甲整体节奏太慢，萨拉赫正好适合利物浦这种全民快速突击乱战的进攻打法 不是带，难道还是领着？<br>还远远达不到。坐着盆子拉屎的人，你永远不知道是稀的还是干的，他自己都不知道。<br>白痴到这种程度，也没谁了。<br>阿根廷球星云集梅西就是带，相比葡萄牙山野村夫一般就不能正眼看了。<br>就因为你喜欢梅西，别人就不能好过梅西，哪怕荣誉超过了，也要想方设法引导舆论强行扭曲价值观。<br>这样的人心理到底是怎样的扭曲和矛盾？<br>和这样的人是怎么来的一样是社会难题。 这个比赛观赏性真低 对，千万别像我梅，只会小组进球，一去淘汰赛就0进球，幸亏队友大腿粗，我梅连躺三个亚军 一位52场56球，一位64场54球，差距可有点大😏 上赛季英超最后2轮狂刷7球，抢走卢卡库金靴，年底最后2轮又怒刷6球，强势抢走梅西年度射手王，这个24岁的英格兰人不简单啊，未来拿金球不是不可能 服役回来还是能甩你们几条街。 过去连续两年的英超最佳射手，还想怎么证明？ 目前亚洲最屌的一个 son 好好好 孙兴慜在欧洲都是前几十的球星，根本不屑“亚洲足球先生”这种廉价头衔。 亚洲一个孙。 2传1射 在歐冠小組賽6球夠可以了吧,英格蘭國家隊最弱就是中場創造力,凱恩在世界杯能有3球就馬上能登上第一中鋒寶座,畢竟笨馬蘇牙c羅都不復當年勇了,就他跟萊萬之爭 凯恩是真正的菜刀啊，打big6不见进球，打菜队，3个3个进。 🇰🇷在世界杯连灭🇮🇹🇪🇸🇮🇩🇬🇷🇵🇹，五大欧洲劲旅及🇹🇬！日本赢的全是弱旅(🇷🇺🇹🇳🇩🇰🇨🇲)！ 破梗快别用了。显得自己傻逼一样 不承认凯恩的进球数，所以年度进球第一名是梅西。 对！ 娜狗想争四？吃屎去吧 我去，今年欧洲金靴奖居然不是梅罗 什么时候跟强队打出表现再说吧 亚洲第一 孙兴民这么牛逼啊，不去当兵真的是损失 🇰🇷在世界杯连灭🇮🇹🇪🇸🇮🇩🇬🇷🇵🇹，五大欧洲劲旅及🇹🇬！日本赢的全是弱旅(🇷🇺🇹🇳🇩🇰🇨🇲)！ 牛逼是牛逼的，不过还没有梅西当初那么神，就看能不能一直这么屌 进球率达到梅罗的1个多点再说吧 坐等英媒把凯恩吹出外太空，BBC,skysport,talksport。。。。 说得好，再一句说，足球综合很多元素：运动科技，团队协作，但最主要的是体制与精气神 韩国的孙，英语怎么拼，中国是Sun 内裤狗，小男人 🇰🇷在世界杯连灭🇮🇹🇪🇸🇮🇩🇬🇷🇵🇹，五大欧洲劲旅及🇹🇬！日本赢的全是弱旅(🇷🇺🇹🇳🇩🇰🇨🇲)！ 这都三年了。在这么说就不好了 去年还是U23 乒球，羽球，速滑都在下滑，这与社会上浮躁，不劳而获，不讲务实，不讲科学的风气有关，为什么韩国人在足球方面多年领先世界？关健是技术，科学训练，人种的素质，生态环境等诸多因素综合而造就，相比之下，我们有很大差距，那有不败之理？！ 乒球，羽球，速滑都在下滑，这与社会上浮躁，不劳而获，不讲务实，不讲科学的风气有关，为什么韩国人在足球方面多年领先世界？关健是技术，科学训练，人种的素质，生态环境等诸多因素综合而造就，相比之下，我们有很大差距，那有不败之理？！ 菜鸡互啄 二楼啊，这是反话都听不出来。 厉害 你真的看不出他在调侃吗 他本来就是傻逼 这么好状态不去服兵役可惜了 当时是谁说凯恩只是昙花一现的？？现在站出来？！ C罗很忧伤，感觉老佛爷要移情别恋了。 傻逼棒子，怎么赢得心里没点逼数吗[狗][狗] 凯恩只会虐菜，难堪大用 今年52场56球 我是曼联球迷，如果这货去了曼城确实离金球又近了一步，同时也是曼联的噩梦… 凯恩？昙花四现罢了，还需观察观察 对！ 哦豁，可怜梅西的年度射手王没了 皇马可以出手买人了！不像内马尔还没来就想抢大哥的饭碗！人品确实不咋滴啦 就是，这群菜鸡偏偏还六个都从欧冠小组赛出线了，其中五个还小组第一 梅西是狗不解释，拉影全体拉稀，皇马球迷力挺热刺 被曼城踢成了傻逼 先拿冠军在吹 更在意阿里. 凯恩牛逼，去皇马吧，马儿就要哭了 圣徒又恢复到人见人欺的水准了 凯恩无愧世界正印前锋之王！无绯闻，不花哨，不摆架子，不花精力在纹身，做发型，鬼混上。。。。全身心专注足球，按talksport主持人所讲，不折不扣的hardworkingmachine！2018，三狮值得期待稳重谦逊的凯恩引领！ 二楼离棒子近就以为自己有棒子的血统了 出了家门才会知道自己是几斤几两。 一定 上赛季英超最后2轮狂刷7球，抢走卢卡库金靴，年底最后2轮又怒刷6球，强势抢走梅西年度射手王，这个24岁的英格兰人不简单啊，未来拿金球不是不可能 服役回来还是能甩你们几条街。 过去连续两年的英超最佳射手，还想怎么证明？ 祝贺[窃笑] 🇰🇷在世界杯连灭🇮🇹🇪🇸🇮🇩🇬🇷🇵🇹，五大欧洲劲旅及🇹🇬！日本赢的全是弱旅(🇷🇺🇹🇳🇩🇰🇨🇲)！ 乒球，羽球，速滑都在下滑，这与社会上浮躁，不劳而获，不讲务实，不讲科学的风气有关，为什么韩国人在足球方面多年领先世界？关健是技术，科学训练，人种的素质，生态环境等诸多因素综合而造就，相比之下，我们有很大差距，那有不败之理？！ 孙大圣您快收了神通吧！ 乒球，羽球，速滑都在下滑，这与社会上浮躁，不劳而获，不讲务实，不讲科学的风气有关，为什么韩国人在足球方面多年领先世界？关健是技术，科学训练，人种的素质，生态环境等诸多因素综合而造就，相比之下，我们有很大差距，那有不败之理？！ 哈哈哈哈哈 那梅西呢 14年世界杯决赛、单刀踢偏。美洲杯决赛点球射飞。各种保送对手夺冠，输球了怪队友，退国家队。梅西球技是好，但是真没有王者之风，没有领袖气质，一到关键时刻就掉链子。百年一遇的金牌小卧底。2次美洲杯都输给智利，最后点球还踢飞。居然说梅西有速度，笑死人了。靠打激素的渣渣也说天赋？宇宙第一的梅毒能传能突能组织带着英超射手王、意甲射手王和西甲助攻王居然0球0助，给智利淘汰两次！ 韩国🇰🇷牛b 孙兴民进球了，他是亚洲⚽️👑！ 亚洲球王孙兴民！ 凯恩？昙花四现罢了，还需观察观察 凯恩是韩国人？ 乒球，羽球，速滑都在下滑，这与社会上浮躁，不劳而获，不讲务实，不讲科学的风气有关，为什么韩国人在足球方面多年领先世界？关健是技术，科学训练，人种的素质，生态环境等诸多因素综合而造就，相比之下，我们有很大差距，那有不败之理？！ 孙兴民这么牛逼啊，不去当兵真的是损失 孙兴民！ 你们继续吹凯恩，我来吹波孙兴愍 过去连续两年的英超最佳射手，还想怎么证明？ 乒球，羽球，速滑都在下滑，这与社会上浮躁，不劳而获，不讲务实，不讲科学的风气有关，为什么韩国人在足球方面多年领先世界？关健是技术，科学训练，人种的素质，生态环境等诸多因素综合而造就，相比之下，我们有很大差距，那有不败之理？！ 乒球，羽球，速滑都在下滑，这与社会上浮躁，不劳而获，不讲务实，不讲科学的风气有关，为什么韩国人在足球方面多年领先世界？关健是技术，科学训练，人种的素质，生态环境等诸多因素综合而造就，相比之下，我们有很大差距，那有不败之理？！ ",
        "Total": 2442
    },
    "Article": "网易体育12月26日报道：北京时间12月26日（周二）晚上20点30分（英格兰当地时间12月26日12点30分），2017-18赛季英超进行了第20轮的一场焦点战，热刺在温布利球场迎战南安普敦，热刺5-2取胜，凯恩上演帽子戏法，阿里和孙兴慜各入一球，南安普敦在大比分落后时由鲍法尔和塔迪奇进球。自南安普敦2012年重返英超后，两队有过10次交锋热刺8胜1平1负优势巨大。热刺本场凯恩继续突前，埃里克森、阿里和孙兴慜在他身后支援。南安普敦主力后卫塞德里克和伯特兰因伤缺席，处于转会漩涡中的后卫范迪克没有进入大名单，中锋奥斯汀停赛。第3分钟，霍伊别尔传球，鲍法尔禁区内射门打偏。第6分钟，埃里克森传球，凯恩禁区右肋射门打偏。第14分钟，奥利耶送出过顶球，阿里反越位成功左肋10码处小角度右脚垫射打高。第21分钟，罗斯突破被霍伊别尔放倒，主裁出示黄牌，热刺获得大禁区左侧线边缘的任意球，埃里克森主罚吊入，福斯特出击没碰到球，凯恩5码处将球顶入空门，热刺1-0领先。这是凯恩2017自然年的第37个英超进球，他打破了前辈希勒在1995年创造的36球的英超纪录。第24分钟，沙恩-朗传球，鲍法尔左肋12码处射门被洛里扑出，罗斯头球回传洛里成了头球吊射，洛里扑了下后球打在左立柱上弹出，洛里拿到球。第34分钟，凯恩主罚大禁区左角附近的任意球直接射门被人墙挡出。第37分钟，凯恩远射打高。第39分钟，阿里直塞，孙兴慜插上禁区左肋横传，福斯特出击没扑到，凯恩5码处将球打入空门，热刺2-0领先。这是凯恩2017自然年正式比赛的第55个进球，他超越了梅西（54球）成为2017自然年射手王。上半场结束，热刺2-0领先。下半场开始，第46分钟，戴尔解围踢漏，沙恩-朗拿球后突入禁区射门没质量，洛里拿到球。第48分钟，勒米纳禁区前沿左脚劲射，球打在横梁上弹出。第49分钟，孙兴慜传球，阿里左路拿球后内切偏左20码处右脚低射，球飞入右下角，热刺3-0领先。第51分钟，南安普敦前场传球失误让热刺打出快速反击，阿里直塞，无人防守的孙兴慜右肋12码处射远角破门，热刺4-0领先。第57分钟，罗斯左路长传，凯恩插上右肋8码处右脚凌空抽射远角打偏。第58分钟，沙恩-朗背后踢倒桑切斯领到黄牌。第64分钟，热刺后场解围给了对手，鲍法尔左路拿球突入禁区左肋14码处左脚劲射，球飞入近角，热刺4-1南安普敦。第67分钟，热刺反击，阿里直塞，凯恩拿球突入禁区，吉田麻也在和凯恩对抗中摔倒，无压力的凯恩左肋10码处面对出击的福斯特挑射破门，热刺5-1领先。第79分钟，鲍法尔突入禁区左肋14码处射远角打偏。第81分钟，霍伊别尔远射被洛里扑出底线。角球开出后洛里出击击球不远，塔迪奇大禁区线上拿球后左脚吊射破门，热刺5-2领先。最终，热刺5-2取胜。热刺（4231）：1-洛里/24-奥利耶、6-桑切斯、5-维尔通亨、3-罗斯/15-戴尔、19-登贝莱（54’17-西索科）/23-埃里克森、20-阿里（84’29-温克斯）、7-孙兴慜（77’11-拉梅拉）/10-凯恩南安普敦（4141）：44-福斯特/5-斯蒂芬斯、3-吉田麻也、6-霍特、33-塔盖特（77’38-麦克奎因）/14-罗梅乌/19-鲍法尔、23-霍伊别尔、18-勒米纳（63’20-加比亚迪尼）、22-雷蒙德（63’11-塔迪奇）/7-沙恩-朗本文来源：网易体育作者：恒山责任编辑：冯昊天_NSJS2656",
    "PublishTime": "12/26/201722:20:43",
    "URL": "http://sports.163.com/17/1226/22/D6K7H87400058781.html",
    "Title": "英超-凯恩连续2轮戴帽孙兴慜传射 热刺5-2圣徒_网易体育",
    "KeyWords": "孙兴慜,凯恩,热刺,英超",
    "Source": "Netease"
}