{
    "Article": "（原标题：香港一货柜车冲撞巴士站造成1死多伤）1月3日23:00左右，香港大榄隧道收费广场外一辆货柜车突然失控撞上路边巴士站，撞倒大批候车乘客后跌落山坡，其中一名女性乘客被撞落坡后死亡，另有包括货车司机在内的约10人受伤。目前已有大量消防及救护人员赶往现场，因怀疑涉事货柜车载有危险化学品，现场已被封锁。图片来源于香港当地媒体另据海外网：据香港东网报道，1月3日22时20分，香港大榄隧道深夜发生严重车祸，一辆货柜车突然失控撞向路边巴士站后跌落山坡，至少5名候车乘客被撞倒，其中一名女性乘客被撞落坡后死亡。事故造成包括货车司机在内的6人受伤。报道称，一辆货柜车沿青朗公路向元朗方向行驶时，在驶过大榄隧道收费广场后，突然失控撞向巴士转车站。当时，巴士站有10多名市民候车。货柜车撞向巴士站前端，将至少5名乘客撞倒，其中一名27岁女子被撞飞，跌落距巴士站30米外的山坡下当场死亡。随后，货柜车又撞烂路旁铁丝网，跌落到山坡下的一条支路。大批消防及救护员接报后赶到场抢救伤者。6名伤者被送往附近医院救治，据悉6人伤势不重。警方封锁现场调查后称，幸亏货柜车未撞到巴士站正面，否则伤亡更加惨重。警方正从司机的驾驶状态、证件等多个方面入手，调查导致意外的原因。本文来源：央视责任编辑：徐萌_NN7485",
    "URL": "http://news.163.com/18/0104/01/D7956JSB0001899N.html",
    "KeyWords": "香港,货车,货柜车,巴士站",
    "PublishTime": "01/04/201801:24:01",
    "Title": "香港一货柜车撞巴士站:大批乘客跌落山坡 已致1死_网易新闻",
    "Comment": {
        "Content": "占中混蛋干的！ 做个调查，物价油价房价上涨感觉生存压力越来越大的点支持谢谢 祈求伤者平安！ 年底了还有这么多灾难[狗] 希望其他人平安无事，死者一路好走！ 年底了还有这么多灾难[狗] 做个调查，物价油价房价上涨感觉生存压力越来越大的点支持谢谢 离我很近啊[惊讶] 香港人开车很溜，特别是的士司机，又快又稳 祈求伤者平安！ 没几个人啊，标题党，留点口德，南无佛陀耶，南无佛陀耶，南无佛陀耶 我还以为撞了集体散步的人呢 拉120,还超载 占中混蛋干的！ 出门注意安全 货柜车鬼死嘅快，广汕路都上百[暴怒][暴怒] 希望其他人平安无事，死者一路好走！ ",
        "Link": "http://comment.news.163.com/news2_bbs/D7956JSB0001899N.html",
        "Total": 98,
        "Reply": 12
    },
    "Source": "Netease"
}