{
    "Article": "（原标题：实拍：捷豹撞上霸道，遭数人跳车顶猛砸）#endText.video-infoa{text-decoration:none;color:#000;}#endText.video-infoa:hover{color:#d34747;}#endText.video-listli{overflow:hidden;float:left;list-style:none;width:132px;height:118px;position:relative;margin:8px3px0px0px;}#entText.video-lista,#endText.video-lista:visited{text-decoration:none;color:#fff;}#endText.video-list.overlay{text-align:left;padding:0px6px;background-color:#313131;font-size:12px;width:120px;position:absolute;bottom:0px;left:0px;height:26px;line-height:26px;overflow:hidden;color:#fff;}#endText.video-list.on{border-bottom:8pxsolid#c4282b;}#endText.video-list.play{width:20px;height:20px;background:url(http://img1.cache.netease.com/video/img14/zhuzhan/play.png);position:absolute;right:12px;top:62px;opacity:0.7;color:#fff;filter:alpha(opacity=70);_background:none;_filter:progid:DXImageTransform.Microsoft.AlphaImageLoader(src=\"http://img1.cache.netease.com/video/img14/zhuzhan/play.png\");}#endText.video-lista:hover.play{opacity:1;filter:alpha(opacity=100);_filter:progid:DXImageTransform.Microsoft.AlphaImageLoader(src=\"http://img1.cache.netease.com/video/img14/zhuzhan/play.png\");}if(/(iPhone|iPad|iPod|Android|NETEASEBOBO|blackberry|bbd+)/ig.test(navigator.userAgent)||/safari|chrome|firefox/i.test(navigator.userAgent)&&navigator.plugins&&!navigator.plugins[\"ShockwaveFlash\"]){varstr1='<videocontrols=\"controls\"preload=\"auto\"width=\"100%\"poster=\"http://vimg3.ws.126.net/image/snapshot/2018/1/J/Q/VD67VKKJQ.jpg\"style=\"max-height:100%\">';varstr2='<sourcetype=\"video/mp4\"src=\"http://flv.bn.netease.com/videolib3/1801/02/FIwRb6944/SD/FIwRb6944-mobile.mp4\">您的浏览器暂时无法播放此视频.</video>';document.getElementById(\"FPlayer1404863609673\").parentNode.innerHTML=str1+str2;}实拍：捷豹撞上霸道，遭数人跳车顶猛砸（来源：~）window.NTES&&function(d){varf=function(c){varb=c.getAttribute(\"flashvars\"),a=c.getAttribute(\"repovideourl\").replace(\".flv\",\"-mobile.mp4\");h=d(c.parentNode.parentNode.parentNode),g='<embedsrc=\"http://v.163.com/swf/video/NetEaseFlvPlayerV3.swf\"flashvars=\"'+b+'\"allowfullscreen=\"true\"allowscriptaccess=\"always\"quality=\"high\"wmode=\"opaque\"width=\"100%\"height=\"100%\"type=\"application/x-shockwave-flash\"/>';if(/(iPhone|iPad|iPod|Android|NETEASEBOBO|blackberry|bbd+)/ig.test(navigator.userAgent)){g='<videocontrols=\"controls\"preload=\"auto\"width=\"100%\"height=\"100%\"><sourcetype=\"video/mp4\"src=\"'+a+'\">您的浏览器暂时无法播放此视频.</video>';}h.$(\".video\")[0].innerHTML=g;},e=function(b){vara=d(b.parentNode.parentNode.parentNode);a.$(\"li\").removeCss(\"on\"),b.addCss(\"on\"),a.$(\".video-title\")[0].innerHTML=\"string\"==typeofb.textContent?b.textContent:b.innerText,a.$(\".video-title\")[0].setAttribute(\"href\",b.getAttribute(\"url\")),a.$(\".video-from\")[0].innerHTML=\"（来源：\"+b.getAttribute(\"source\")+\"）\",f(b);};window.continuePlay=function(){vara,b=d(d(\".video-list.on\")[0].nextSibling);3==b.nodeType&&(b=d(b.nextSibling));if(b&&d(\".video-innerinput\")[0].checked){e(b);}},function(){vara={init:function(){if(d(\".video-listli\")[0]){d(d(\".video-listli\")[0]).addCss(\"on\"),this.eventBind();}},eventBind:function(){d(\".video-listli\").addEvent(\"click\",function(b){e(d(this)),b.preventDefault();});}};a.init();}();}(NTES);12月29日，安徽宿州，一辆捷豹车撞伤两名群众，又与一辆丰田霸道车发生碰撞。之后捷豹车主逃离，被撞伤人员亲友对遗弃在现场的捷豹车进行打砸。目前警方已介入调查。本文来源：澎湃新闻责任编辑：范姜国一_NN9138",
    "Title": "捷豹车撞伤路人后车主弃车逃离 数人跳到车顶打砸_网易新闻",
    "PublishTime": "01/02/201818:09:08",
    "Source": "Netease",
    "Comment": {
        "Content": "驾车逃离，是不是判的更重？ 把车开走拿去卖了都好过你们砸了啊...到时候车主老赖你们连赔偿款都拿不到 是陆毅买的吗？ 我要是外地人在安徽，换做我也跑，这么多人十张嘴也难辩，赶快跑公安局躲起来 医药费与砸车钱互抵，司机、砸车者各拘留十五天，散了吧！ 没有担当 智商有点不够用啊，砸车能解决什么问题。你把人揍一顿也比这个强！！ 正解！！<br>但是砸车的这回还得给人家赔车！<br>捷豹的找个人代替就完事了！<br>最多算个逃逸！<br>砸车赔钱可不少！！ 开豪车的有后台 法盲就别说话了，你这样算抢劫，十年起步 买捷豹图什么? 这捷豹车主应该去医院溜一圈，挂个号，随便看看，警察问起来就说自己头撞伤了，蒙了，先去医院检查了 医药费与砸车钱互抵，司机拘留十五天，散了吧！ 安徽？我在朋友圈里看到的霸道的车牌是漯河的啊，难道是在安徽发生的？ 这下好了，还要陪车，国人就这样 你砸车就犯法。 估计嗑药或者喝酒了 中国傻逼千千万，vivooppo各一半 d等酒醒了好找关系啊！ 里面大部分人是抱着看热闹和不砸白不砸的心态，还有一群是仇富心理，我开不起，我也把你的祸害了，反正我们是正义的老百姓… 你这个老实人，说话真没意思 买vovo图什么 傻子，没事你砸什么车，这下好了，白撞了不说，搞不好还得搭钱进去…… 砸车算什么？ 车主是宿州混社会混的最牛的范飞。 蠢货，扣下车可以抵押变现呀。砸了不值钱了。 故意毁坏公私财物超过10000元要承担刑事责任 驾车逃离，是不是判的更重？ d等酒醒了好找关系啊！ 医药费与砸车钱互抵，司机、砸车者各拘留十五天，散了吧！ 智商有点不够用啊，砸车能解决什么问题。你把人揍一顿也比这个强！！ 正解！！<br>但是砸车的这回还得给人家赔车！<br>捷豹的找个人代替就完事了！<br>最多算个逃逸！<br>砸车赔钱可不少！！ 开豪车的有后台 跳的人应该赔车 这下好了，两边都犯罪。。。。估计打砸这方要赔更多钱。。 这捷豹车主应该去医院溜一圈，挂个号，随便看看，警察问起来就说自己头撞伤了，蒙了，先去医院检查了 安徽？我在朋友圈里看到的霸道的车牌是漯河的啊，难道是在安徽发生的？ 赔车哎！ 估计嗑药或者喝酒了 中国傻逼千千万，vivooppo各一半 车主来了一样打死！ 里面大部分人是抱着看热闹和不砸白不砸的心态，还有一群是仇富心理，我开不起，我也把你的祸害了，反正我们是正义的老百姓… 完啦，这家人不仅赔偿拿不到，还要赔人家车钱 干的漂亮！血性！ 你这个老实人，说话真没意思 买vovo图什么 撞的不是一般人哦！ 这车主是个傻逼，但砸车的如果不是伤者的亲朋而只是路人的话，那也是傻逼 车主是宿州混社会混的最牛的范飞。 蠢货，扣下车可以抵押变现呀。砸了不值钱了。 故意毁坏公私财物超过10000元要承担刑事责任 要是帶話筒的紅旗車你問問他們敢砸不 把车开走拿去卖了都好过你们砸了啊...到时候车主老赖你们连赔偿款都拿不到 是陆毅买的吗？ 打砸的怎么判？ 我要是外地人在安徽，换做我也跑，这么多人十张嘴也难辩，赶快跑公安局躲起来 法盲就别说话了，你这样算抢劫，十年起步 白撞不可能的，最後雙方互賠。 没有担当 这下好了，还要陪车，国人就这样 活该 酒驾出事第一时间就跑明天醒酒在投案酒驾比逃逸严重 你咋知道？ 哪个二代跑了？ 车被砸，人要赔… 砸车算什么？ 医药费与砸车钱互抵，司机拘留十五天，散了吧！ 看都不看新闻？是被撞的亲友咋的。 你砸车就犯法。 也可能是偷的！ 违法加违法 买捷豹图什么? 宇宙的探索是离不开我的话的，只有把围绕地球公转的一切物质包括气体计算在地球体积之内才能找到地球真正的边和角，那是反引力汇聚地，是真正的真空隧道，宇宙高速路，太阳系内的动脉!把围绕太阳公转的一切物质包括气体计算在太阳体积之内才能找到恒星与恒星的边和角，那是恒星与恒星之间的真空高速隧道，找到真空隧道以近光速超光速飞行那不是个事!宇宙飞行器也不能按照飞机的二维结构原理制造，飞机是不能高速自转的，但只有高速自转才能产生真空电磁场，以近光速飞行，未来的宇宙飞行器必须按地球原理制造，八层以上结构，你看地球高速自转着前进，我们人坐在地球上有啥不适感觉吗？ 傻子，没事你砸什么车，这下好了，白撞了不说，搞不好还得搭钱进去…… 说实话会被人喷的。 买大众？ ",
        "Reply": 49,
        "Link": "http://comment.news.163.com/news_shehui7_bbs/D75PTJO50001875P.html",
        "Total": 540
    },
    "KeyWords": "捷豹,打砸,车顶,警方",
    "URL": "http://news.163.com/18/0102/18/D75PTJO50001875P.html"
}