{
    "URL": "http://news.163.com/17/1228/10/D6O4QQIU000187V9.html",
    "Comment": {
        "Reply": 1,
        "Content": "西方有人跟我们谈判吗？ ",
        "Total": 2,
        "Link": "http://comment.news.163.com/news2_bbs/D6O4QQIU000187V9.html"
    },
    "Title": "韩美将于明年1月在华盛顿开会 启动自贸协定协商_网易新闻",
    "Source": "Netease",
    "KeyWords": "华盛顿,美国,韩国,自贸协定",
    "PublishTime": "12/28/201710:38:00",
    "Article": "（原标题：韩美将于明年1月在华盛顿开会正式启动自贸协定协商）【环球网报道】据韩国《亚洲经济》12月28日报道，韩美将于2018年1月5日在美国华盛顿正式开始进行自由贸易协定(FTA)修订协商。据报道，美国总统特朗普一贯主张“美国优先主义”，要求修订汽车及农畜产品等领域相关条款，在美方的不断施压下，两国围绕修订事宜展开一番较量不可避免。韩国政府坚持利益均衡的原则，将积极应对美方要求，并保护农畜产品等市场。产业通商资源部通商政策局长刘明姬(音)、美国贸易代表办公室(USTR)副贸易代表MichaelBeeman将担任双方首席代表。韩国政府方面表示，在此次协商中，将以增进双方互惠互利、追求利益均衡为目标，最大限度反映韩方关切的问题。今年10月4日，韩美两国举行第2次FTA共同委员会特别会议，就加强双方互惠互利而修订FTA达成一致。本文来源：环球时报-环球网。更多精彩，请登录环球网http://www.huanqiu.com责任编辑：范姜国一_NN9138"
}