{
    "Source": "Netease",
    "KeyWords": "全国人大,婚姻法,存废,全国人大常委会",
    "URL": "http://news.163.com/17/1224/16/D6EE7DC40001899N.html",
    "PublishTime": "12/24/201716:22:14",
    "Comment": {
        "Content": "有人借离婚逃债，有人离婚坑害配偶，两个漏洞都要堵，24条不是一删了之 赞成修法！ 这么搞法，婚姻登记就纯粹是一个签名而已了 法律健全是好事。但是执法者不按法律行事也没有用 赞成修法 赞成修法 有人借离婚逃债，有人离婚坑害配偶，两个漏洞都要堵，24条不是一删了之 赞成修法！ 这么搞法，婚姻登记就纯粹是一个签名而已了 法律健全是好事。但是执法者不按法律行事也没有用 赞成修法 赞成修法 ",
        "Total": 460,
        "Link": "http://comment.news.163.com/news2_bbs/D6EE7DC40001899N.html",
        "Reply": 6
    },
    "Article": "（原标题：婚姻法司法解释24条存废之争最新消息：全国人大正推动解决）南都讯一直存在争议的婚姻问题法司法解释“第二十四条”的问题，有望得到解决。今天上午，全国人大常委会法工委主任沈春耀向全国人大常委会作十二届全国人大以来暨2017年备案审查工作情况的报告当中透露，正在推动解决此问题。婚姻法司法解释“第二十四条”，是指最高人民法院制定的《关于适用<中华人民共和国婚姻法>若干问题的解释（二）》第二十四条。其中规定：“债权人就婚姻关系存续期间夫妻一方以个人名义所负债务主张权利的，应当按夫妻共同债务处理。但夫妻一方能够证明债权人与债务人明确约定为个人债务，或者能够证明属于婚姻法第十九条第三款规定情形的除外。”这份司法解释自2004年4月1日施行以来，在司法实践中陷入争议。不少直到离婚了，才发现“被负债“——婚前配偶背着自己在外面打借条，纵然自己不知情，也有可能因为夫妻关系而承担责任。近年来，有关“二十四条”存废的呼声一直未止，如今，有关“二十四条”存废的“官司”打到了全国人大。沈春耀在报告中介绍，在今年3月十二届全国人大五次会议期间，有45位全国人大代表分别联名提出5件建议，要求对最高法制定的婚姻法司法解释“第二十四条”关于夫妻共同债务承担的规定进行审查。2016年以来，法工委还收到公民提出的近千件针对这一规定的审查建议。沈春耀说，为做好代表建议和公民审查建议的办理工作，全国人大常委会法工委已于今年6月召开座谈会，邀请提出建议的部分全国人大代表参加，与最高法有关部门进行沟通研究，推动解决有关问题。本文来源：南方都市报责任编辑：张海桐_NN9053",
    "Title": "婚姻法司法解释24条存废之争:全国人大正推动解决_网易新闻"
}