{
    "Comment": {
        "Link": "http://comment.news.163.com/news2_bbs/D6JKH42O00018AOQ.html",
        "Reply": 20,
        "Content": "提高天然气价格制裁美帝 国际法肯定规定了不准要流氓吧 战斗民族？？？川普还没动一枪一炮，战斗民族就受不了了！ 还得吐出库页岛、贝加尔湖、海参崴等自古就是我朝的领土！！！ 吐出克里米亚和哈布哈兹，不就没有制裁了吗! 如果拼命折腾自己的屁民，你说美帝的政客们会有什么反映？ 你也可以制裁美国啊，哈哈哈哈哈哈哈哈哈哈！牛B不是？ 只能用嘴制裁了。 吐出克里米亚和哈布哈兹，不就取消制裁了吗! 现在垃圾民族都不是了，是屎民族——推崇两个矮子为首领甘愿走邪恶流氓之路！ 侵占乌克兰领土呢？ 拿什么来制裁？ 你侵略乌克兰时怎么不叫不正当 吐出克里米亚和哈布哈兹，不就没有制裁了吗! 不给美国人入境签证，不给美国人绿卡。前提是有美国人去。 那你们为什么还要增持美国国债。。。 全民砸美帝电器！！ 侵吞乌克兰是不是违犯了国际法？可以说对邪俄侵吞邻国的制裁惩罚太轻，太轻。 提高天然气价格制裁美帝 国际法肯定规定了不准要流氓吧 战斗民族？？？川普还没动一枪一炮，战斗民族就受不了了！ 还得吐出库页岛、贝加尔湖、海参崴等自古就是我朝的领土！！！ 吐出克里米亚和哈布哈兹，不就没有制裁了吗! 如果拼命折腾自己的屁民，你说美帝的政客们会有什么反映？ 你也可以制裁美国啊，哈哈哈哈哈哈哈哈哈哈！牛B不是？ 只能用嘴制裁了。 吐出克里米亚和哈布哈兹，不就取消制裁了吗! 现在垃圾民族都不是了，是屎民族——推崇两个矮子为首领甘愿走邪恶流氓之路！ 侵占乌克兰领土呢？ 除了白左，没有什么反应。川普已经不吃拿自己p民威胁人的那一套了！ 拿什么来制裁？ 全民砸美帝电器！！ 你侵略乌克兰时怎么不叫不正当 吐出克里米亚和哈布哈兹，不就没有制裁了吗! 不给美国人入境签证，不给美国人绿卡。前提是有美国人去。 那你们为什么还要增持美国国债。。。 普京不会吐出侵吞的领土，就像朝鲜不愿弃核一样的歪理。更奇葩的还有俄狗在起劲为这二个野心家，阴谋家，明显已权迷心窍，利令智昏的疯子狡辩和摇旗呐喊！ 侵吞乌克兰是不是违犯了国际法？可以说对邪俄侵吞邻国的制裁惩罚太轻，太轻。 ",
        "Total": 928
    },
    "Article": "（原标题：俄联邦安全会议：美对俄制裁是不正当竞争的表现）中新网12月26日电据俄罗斯卫星网26日报道，俄罗斯联邦安全会议秘书帕特鲁舍夫表示，美国对俄制裁是不正当竞争的表现和违反国际法。帕特鲁舍夫在接受《论据与事实》报采访时说：“美国继续破坏与其它国家达成的协议。……同时，欧盟大多数国家在担心华盛顿企图不考虑他们的利益而强加给俄罗斯的额外限制的做法。”他指出：“当然，这种做法不该发生。这种人为的限制不仅是不正当竞争的表现，也是违反国际法的行为。”本文来源：中国新闻网责任编辑：李杭_BJS4645",
    "PublishTime": "12/26/201716:39:00",
    "URL": "http://news.163.com/17/1226/16/D6JKH42O00018AOQ.html",
    "Title": "俄安全官员:美对俄制裁是不正当竞争 违反国际法_网易新闻",
    "KeyWords": "俄罗斯,国际法,俄联邦,美国",
    "Source": "Netease"
}