{
    "URL": "http://news.163.com/17/1228/15/D6OKM9TT0001875P.html",
    "Comment": {
        "Reply": 5,
        "Content": "炫富，不是理性和成熟的表现，但是为什么在中国却却是这些没有理性的不成熟的人成为了富豪？ 不敢在朋友圈里面晒对象就是不敢把女朋友或女朋友在朋友圈介绍给大家认识这个原因可能是对感情的态度不想招摇,或是对另一半信心不足 这种新闻多一点，就可以让平时喜欢在朋友圈秀来秀去的人变得少一点 炫富，不是理性和成熟的表现，但是为什么在中国却却是这些没有理性的不成熟的人成为了富豪？ 在朋友圈晒娃的人是什么心态? 不敢在朋友圈里面晒对象就是不敢把女朋友或女朋友在朋友圈介绍给大家认识这个原因可能是对感情的态度不想招摇,或是对另一半信心不足 那不叫秀，叫炫耀，死了也活该 这种新闻多一点，就可以让平时喜欢在朋友圈秀来秀去的人变得少一点 ",
        "Total": 11,
        "Link": "http://comment.news.163.com/news_shehui7_bbs/D6OKM9TT0001875P.html"
    },
    "Title": "女子因在朋友圈晒这个被人跟踪 还接到神秘电话_网易新闻",
    "Source": "Netease",
    "KeyWords": "朋友圈,神秘,绑架,敲诈",
    "PublishTime": "12/28/201715:27:38",
    "Article": "（原标题：千万别在朋友圈晒这个!女子因此被人跟踪,女儿险遭绑架!之后她接到一个神秘电话...）如今，人们的生活已离不开微信时不时就要刷一刷朋友圈看看朋友们都分享了些什么顺便晒晒自己的近况然而，这样习以为常的举动却暗藏着未知的危险...突然接到陌生电话做汽车保养时她吓坏了不久前，江苏苏州市民何女士接到了一个陌生电话，一名男子称有人要对她不利。刚开始，何女士以为是恶作剧，并没有理会。可两天后，何女士到4S店给汽车做保养时，工作人员告诉她，她的汽车底盘上被人安装了一个东西，“我也从来没有给汽车加装过什么东西，我就让师傅把东西取下来，他们看了一下说很可能是GPS。”车上装了定位装置嫌疑人竟是小学同学想到之前的陌生电话，何女士赶紧报了警。民警鉴定后，确认何女士车上装的的确是一个定位装置，里面还有一张电话卡，对卡内信息进行技术处理后，警方掌握了一名嫌疑人的身份。苏州市公安局枫桥派出所民警李家鼎介绍，该嫌疑人在何女士报警前一周之内从外地来到苏州?，并且到了苏州后还和另外三名男子在旅馆同住在一起。随后，民警将这四名嫌疑人抓获，经何女士辨认，四人中有一人竟是她的小学同学胡某，但两人从来没有联系过，只是有各自的微信。在朋友圈看到晒图他心里起了歹念嫌疑人交待，何女士经常在朋友圈里晒豪宅、豪车以及名牌包包，还晒出了孩子上学的学校等等。由此，欠了一屁股债的胡某产生了绑架敲诈的想法，还找来了三名同伙，对何女士展开了跟踪。胡某和他的同伙一行，正是从何女士晒出的女儿上学的地点入手，开始实施跟踪。绑匪中有人良心发现偷偷通风报信为了方便跟踪，胡某还在何女士的汽车上装了GPS定位。通过十多天的跟踪，胡某等人掌握了何女士的生活轨迹，正准备动手时被警方抓获。审讯中民警了解到，之前打电话给何女士作出提醒的神秘男子，正是其中一名嫌疑人张某。原来，张某在跟踪何女士一段时间后，了解到何女士一个人带着女儿生活，便产生了同情之心，于是偷偷联系了何女士。“我想了一个晚上，我外面欠的钱不多只有十几万，我打工三年左右就能还完，绑架她或者绑架她女儿她怎么办？”案发后，民警在胡某等人的面包车内查获了刀具、头套以及胶带等准备实施绑架的工具。目前，胡某等三人因涉嫌绑架罪已被批准逮捕，而张某因有自首情节，被取保候审。朋友圈天天晒差点给自己惹来大祸也给我们提了个醒发朋友圈真的不能随心所欲本文来源：杭州日报责任编辑：赵亚萍_NN9005"
}