{
    "URL": "http://tech.163.com/17/1228/12/D6OAHPTE00097U81.html",
    "Comment": {
        "Reply": 56,
        "Content": "孟山都表示去尼玛~~ 保护伞公司竭力为人类的发展做出努力贡献 骗子一个 我觉得董明珠实在的多 treenewbee 因为无知，吹起来就无畏 树新风啊[微笑] 他可以和董明珠比一下 比贾跃亭还能吹，连PPT都不用。 请开始你们的精彩表演，<br>我们拭目以待 树新风[微笑] 在某国，吹牛是一个高端职业。 王老吉与华大基因，何不牵手进军娱乐圈 傻逼，博关注，不要脸，无底线！！？ 吹牛逼 我要一个白洁版刘涛，谢谢[微笑] 骗子横行的锅度 这管理层也是服了最近几条新闻没一个看着严谨的 你说起来比从业者还专业嘛，哈哈哈，这领导要不你来当 给我合成个活la肉出来！ 止增笑耳 我需要一个高圆圆，谢谢! 再吹，只有女娲再世才能治了 你需要人体炼成 这不算造谣？ 自从华大上市后，每个高管都不知道自己几斤几两了，个个牛皮吹上天。请记住，你只是一家基因测序公司，是这个行业最下游的从业者，而不是一家高科技公司。你别以为靠着“基因”两个高大上的字就能上天，你只能忽悠上面的人，不能忽悠稍微有点科学常识的老百姓。 故事会都不敢这么编！任何生命，合成一个哥斯拉给我看看，讲话的动动脑子 请某宝，真空版，防烟头。 请上某宝，真空版，防烟头。 说实话，只要学了生物的，就不会信这话… 我要两个[微笑] 我觉得董明珠实在的多 下一个贾跃亭！ 吹牛逼 👩 标题党 同志，请注意你的言行！你的快递已经在路上！ 他可以合造她的新妈妈，吹风机 我要一个白洁版刘涛，谢谢[微笑] 骗子横行的锅度 这管理层也是服了最近几条新闻没一个看着严谨的 用精子和卵子合成吗？ 给我合成个活la肉出来！ 尼玛，要求太高！ [喷水]要个充气娃娃 灵导们看到希望了！ 麻烦合成一个整容后的张碧晨给我。鼻子矮一点，反手要能摸腰 这不算造谣？ 再吹，只有女娲再世才能治了 自从华大上市后，每个高管都不知道自己几斤几两了，个个牛皮吹上天。请记住，你只是一家基因测序公司，是这个行业最下游的从业者，而不是一家高科技公司。你别以为靠着“基因”两个高大上的字就能上天，你只能忽悠上面的人，不能忽悠稍微有点科学常识的老百姓。 孟山都表示去尼玛~~ 保护伞公司竭力为人类的发展做出努力贡献 辐射4的学院么 做好ppt，学习假药停 骗子一个 应该是刘涛版白洁吧。 先合成一只暴龙出来看看 因为无知，吹起来就无畏 他可以和董明珠比一下 比贾跃亭还能吹，连PPT都不用。 我要一个刘涛版白洁。 傻逼，博关注，不要脸，无底线！！？ 我需要一个混动版韩红，谢谢。 [被黑]吓死我了 你说起来比从业者还专业嘛，哈哈哈，这领导要不你来当 我需要处女版白洁 看了,很平常,那句语出惊人了? 止增笑耳 我需要一个高圆圆，谢谢! 你需要人体炼成 汪建是个女子老师，先把我爷爷合成出来！<br>--一个书法家 王老吉与华大基因，何不牵手进军娱乐圈 这人适合在CCAV上班 故事会都不敢这么编！任何生命，合成一个哥斯拉给我看看，讲话的动动脑子 treenewbee 吹牛我服你 在某国，吹牛是一个高端职业。 呵呵 5到10年是吧，和不出来老子喷死你 树新风啊[微笑] 树新风[微笑] 喝王老吉能合成 请开始你们的精彩表演，<br>我们拭目以待 给我合成个活la肉出来！ ",
        "Total": 435,
        "Link": "http://comment.tech.163.com/tech_bbs/D6OAHPTE00097U81.html"
    },
    "Title": "华大汪建又出惊人之语:称5-10年后可合成任何生命_网易科技",
    "Source": "Netease",
    "KeyWords": "汪建,细胞,化学,核生物",
    "PublishTime": "12/28/201712:30:25",
    "Article": "（原标题：华大基因董事长称5-10年后可合成任何生命，专家说有点过）澎湃新闻记者包雨朦“未来5到10年我们可以化学合称任何生命。”华大基因董事长汪建近日在深商大会上又做出惊人之语。汪建在演讲中表示，原来人们可以合成病毒、细菌，现在能够合成酵母，技术的发展越来越快，合成更高级的生命也不是难事，“这不是开玩笑，人造生命进展可能比人工智能还快，它带来的社会问题、伦理问题、宗教问题、哲学问题、法律问题会更大，但是它对社会的冲击，无论你喜不喜欢，它都来了。”汪建提到的目前人类成功合成的酵母，是今年3月由、中、美、英、法等多国共同协作承担的“重新设计并化学合成真核生物酿酒酵母的全部16条染色体”的项目，华大基因也是参与者之一。该成果以封面的形式刊登在3月10日出版的国际顶级学术期刊《科学》上，用4篇文章的篇幅介绍了真核生物基因组设计与化学合成方面的系列重大突破，这项突破被视作是开启了“再造生命的新纪元”。长期关注生物合成技术的复旦大学医学院教授陈力12月28日接受澎湃新闻（www.thepaper.cn）记者采访时表示，“‘任何’两个字是不对的，汪建说的有点过了。”陈力向澎湃新闻记者解释，生物合成技术的原理就是现在体外合成基因组，然后用外援基因置换掉细胞中原有的内援基因，最终培养出新的生命体。“现在我们所说的合成基因组的难度在于拼接。的确这个技术在不断在进步，从最早的合成细菌，到合成酵母的时候，科学家一条一条染色体合成出来，然后再组合也成功了。我们已经实现了从原核生物到真核生物的跨越。但酵母主要是单细胞生物，从单细胞到多细胞生物并不是那么容易的。”陈力说道。陈力还向记者指出，即便高级生命的基因可以合成了，也不意味着像大众想象的那样就能合成一个人出来。他强调，体外合成基因组到放进细胞变成一个真的生命体，不是同一个概念，分子的合成也不等于生物的合成。“未来5-10年在体外合成高级生命的基因组理论上是可以实现的，但培养成真的生命体非常难，这不是三到五年的事情。”陈力分析，第一重困难就是用外援基因替换原有的基因的过程，高级生命的细胞比酵母菌要复杂得多；其次还有发育的问题，从细胞到胚胎再到完整的生命都需要很多研究和尝试的。陈力强调，在他看来，合成生物学的本质应当是作为人类的工具。它可以帮助人们进行功能性组学分析，带来新的化合物，以解决一个个现实具体的问题。“怎么样才算是一个合成的生命，你替换了原有生命十分之一的基因算不算？替换了其中千分之一的算不算？这里就涉及一个界定的问题。现在对公众说未来能合成任何生命，很容易让一般人联想到是完全合成。我最担心的是，一些模糊的说法给公众带来误导，如果真的可以到合成人类的那一天，它就是一个潘多拉魔盒。”陈力在采访的最后向记者表示，“基因问题是千秋万代的事业，不能着急，着急就会犯错。”本文来源：澎湃新闻责任编辑：王凤枝_NT2541"
}