{
    "PublishTime": "12/31/201709:43:12",
    "Comment": {
        "Total": 784,
        "Reply": 34,
        "Link": "http://comment.sports.163.com/sports2_bbs/D6VO5P5900058781.html",
        "Content": "什么密集赛程？在哪儿呢？前六人家都有欧战！自己不争气，跟国足一个味儿了！还舔个脸找理由呢？ 这场比赛拉齐奥的机会还是有的，状态不好，反击的失误太多了 主力球员被掏空了。 留给斯帕莱蒂的时间不多了！ 实际上拉齐奥球迷和国米球迷关系非常好，几乎是类似于球迷同盟的性质，在意大利有什么活动两队球迷经常性一起互动 国米平了就是输[不屑]加油吧 是的 那几条狗鸡的忠狗是不是过新年被人杀了做香肉去了？ 那一年大罗哭了 联赛冠军暂且不考虑了，争取一个欧冠席位才是重中之重，加油。 现在就剩你和达拉斯两条忠犬啦，继续吠，不然老夫都没🐶可遛咯🤣 不能单一的以阵容厚度做借口，今年国米没有欧联欧冠 呵呵，你懂什么，东哥说了等他足彩赚够了就额外付老夫大笔违约金，最后送老夫来苏宁淘金🤣 苏宁该听从斯帕莱蒂的建议，冬窗赶紧买几个后卫，边卫，后腰，补强阵容，不谈联赛夺冠，甚至连欧冠资格都不保！ 裁判毁了拉齐奥的努力，全场都是客队摁着🐶🐔在地下摩擦 国米每年都是冬歇期前后掉队，所以前班程踢得再好都没用，冬歇踢好了，才看得到希望 还是老问题：佳丽烂无可烂！上他真不如少打一人。马里奥那个“传球失误”，实际就是这货站着等球被人断了，对乌鸡也是这货丢球，桑顿背锅。慢得像蜗牛（特别是动作频率太慢，加减速、急停急转根本没有）；软得像棉条（那姿势，一副懒洋洋的娘娘状，从未见过重心下沉、充满力量的样子）；对抗必上手（犯规归还球权、送对方任意球）；传球胜卧底（5成回传、横传无用功，5成传给对方）；跑位像傻子（能把人急死）；最主要是懒，全场就像稻草人一样，溜达、梦游。 我喜欢的蓝鹰太坏，曾经直接让国米冠军落空[狗] 你这形容太贴切了 技不如人还能怪对手？降级的还得怪其他十多个对手比自己强？ 关键🐶🐔逼太松。拉齐奥射不了精 几条尤婊又上蹿下跳，像条🐶 达拉斯那只鸡呢？ 米兰兄弟还是送温暖的料 东哥今天又收米咯，都是我的功劳哦 尼玛人才啊 你个傻狗曰的看了比赛吗b.傻的 你说的这些都存在，可就跟当年阿尔瓦雷斯，孔多比亚一个屌样的，还不是管理层那些傻缺干的，还好意思说隔壁老李不会买人，先看看自己吧！ 什么密集赛程？在哪儿呢？前六人家都有欧战！自己不争气，跟国足一个味儿了！还舔个脸找理由呢？ 这场比赛拉齐奥的机会还是有的，状态不好，反击的失误太多了 留给斯帕莱蒂的时间不多了！ 主力球员被掏空了。 那场其实拉齐奥没特别出力，主要国米太心急了，老想单吃拉齐奥的人 国米平了就是输[不屑]加油吧 是的 那几条狗鸡的忠狗是不是过新年被人杀了做香肉去了？ 现在就剩你和达拉斯两条忠犬啦，继续吠，不然老夫都没🐶可遛咯🤣 那一年大罗哭了 联赛冠军暂且不考虑了，争取一个欧冠席位才是重中之重，加油。 估计在艹三楼母亲(●◡●)ﾉ♥ 不能单一的以阵容厚度做借口，今年国米没有欧联欧冠 呵呵，你懂什么，东哥说了等他足彩赚够了就额外付老夫大笔违约金，最后送老夫来苏宁淘金🤣 苏宁该听从斯帕莱蒂的建议，冬窗赶紧买几个后卫，边卫，后腰，补强阵容，不谈联赛夺冠，甚至连欧冠资格都不保！ 裁判毁了拉齐奥的努力，全场都是客队摁着🐶🐔在地下摩擦 技战术太单一。对尤文那场，让全意大利都知道了国米的弱点，就是拼抢他们的中场组合，堵住国米中路直塞，让他们只能报边打边传战术。这也和国米中场人员水平有限有关，巴莱罗坎德雷瓦加里亚和葡萄牙那个欧联水平，也就佩里希奇勉强欧冠水平也，铁皮没人喂球发挥不出作用 国米每年都是冬歇期前后掉队，所以前班程踢得再好都没用，冬歇踢好了，才看得到希望 还是老问题：佳丽烂无可烂！上他真不如少打一人。马里奥那个“传球失误”，实际就是这货站着等球被人断了，对乌鸡也是这货丢球，桑顿背锅。慢得像蜗牛（特别是动作频率太慢，加减速、急停急转根本没有）；软得像棉条（那姿势，一副懒洋洋的娘娘状，从未见过重心下沉、充满力量的样子）；对抗必上手（犯规归还球权、送对方任意球）；传球胜卧底（5成回传、横传无用功，5成传给对方）；跑位像傻子（能把人急死）；最主要是懒，全场就像稻草人一样，溜达、梦游。 最后一轮又是蓝鹰主场打国妓，仿佛往事要重演 关键🐶🐔逼太松。拉齐奥射不了精 我喜欢的蓝鹰太坏，曾经直接让国米冠军落空[狗] 你这形容太贴切了 国米加油，最近状态直线下降啊 技不如人还能怪对手？降级的还得怪其他十多个对手比自己强？ 那场拉齐奥主场，直接打出的标语是“你们是冠军” 几条尤婊又上蹿下跳，像条🐶 达拉斯那只鸡呢？ 米兰兄弟还是送温暖的料 东哥今天又收米咯，都是我的功劳哦 尼玛人才啊 你个傻狗曰的看了比赛吗b.傻的 你说的这些都存在，可就跟当年阿尔瓦雷斯，孔多比亚一个屌样的，还不是管理层那些傻缺干的，还好意思说隔壁老李不会买人，先看看自己吧！ "
    },
    "Title": "直击-国米蓝鹰隔空接力骂死敌 教练:VAR毁了比赛_网易体育",
    "Source": "Netease",
    "KeyWords": "国米,拉齐奥,蓝鹰,斯帕莱蒂",
    "URL": "http://sports.163.com/17/1231/09/D6VO5P5900058781.html",
    "Article": "网易体育毯子12月31日米兰报道：12月的尾声，国米2017年的最后一场比赛。俱乐部精心地为每位记者分发了由赞助商Lete准备的2018年日历笔记本。2017年的国米，从上赛季末颠簸地折戟前六，到沉默和一度受到质疑的夏窗运作，到12月初一度登顶意甲，再到遭遇战术瓶颈、连续不胜。斯帕莱蒂的执教能力毋庸置疑，为国米带来了质的飞跃。但单薄的阵容无法提供密集作战和战术变化的需求，斯帅“巧妇难为无米之炊”。没有人认为国米会就此沉沦，斯帕莱蒂的调教能力让大多数人相信，蓝黑军团能占据一个前四的名额。赛前传来让国米和拉齐奥都感到开心的消息：罗马在主场被萨索洛意外逼平。在人们讨论国米掉队的可能时，罗马也“及时跟上”了国米的节奏。这进一步印证了两周前，部分记者对争冠局势的看法：意甲冠军的争夺从五支球队的焦灼，转向尤文和那不勒斯的“二人转”。相比国米保守伤病和疲劳困扰下糟糕的状态，拉齐奥近期表现不俗，已连续4场不败。此前的三连败并未影响国米球迷的心情，大家纷纷保持乐观，继续支持球队。61852的上座人数，优于此前几场比赛。到场的客队球迷也人数众多，他们在赛前短暂嘲讽国米，但国米北看台却不为之动容，反而矛头一转，集体高唱“谁不跳谁是红黑死忠”，远坐在南看台三层的拉齐奥球迷马上也跟风一起边跳边唱。其实两队球迷关系素来不错。国米和罗马争冠的时代，蓝鹰球迷甚至宁愿自己输球，也为国米加油。而两队共同的死敌，是罗马和AC米兰。赛场里，双方死忠隔着100多米的球场，多次互动，此起彼伏讽刺死敌的声音，配合出了极大的默契。球迷的“基情”似乎也存在于两队球员之间，双方踢着干净、美丽的足球，整个上半场几乎没有冲突出现。在并不快的开场节奏下，拉齐奥却是上半场梅阿查的主人。尽管斯帕莱蒂一再表示，要努力发掘球队现有实力，但本场比赛，国米的边路依然常常陷入单兵作战，中路依然常被抢断，伊卡尔迪孤零零地站在锋线上，仿佛游离于球队之外。这并非是说国米队长能力不足或不努力，但国米战术遭压制时，他这样的抢点型射手实在难有表现机会。拉齐奥的3-5-2和两周前乌迪内斯战胜国米的阵型几乎如出一辙，但拉齐奥的整体攻防转换、球队韧性都比“乌鸡”更胜一筹。被放在前腰位置的巴莱罗，速度偏慢的特点造成缺少突破，在快速传递方面也难言顺畅，偶然大幅回撤的巴莱罗，反而能对梳理进攻起到更大帮助。坎德雷瓦和佩里西奇多次单兵作战，这情景似曾相识。更“要命”的是，斯帅似乎做出了专门的安排，让两个边后卫桑顿和坎塞洛减少压上。这样的部署，减小了拉齐奥反击的威胁，也削弱了自身的进攻。第30分钟，佩里西奇门前近距离的打门被斯特拉科沙扑出，这是国米第一脚射门。整个上半场，拉齐奥都压着国米进攻。整体性更好的拉齐奥，攻守都更加平衡，也让国米难以找出弱点。下半场双方节奏加速，却仍是类似的剧本。国米的进攻套路，除了边路强突传中，就是另一种“传中”——角球。但国米对角球的把握也不太理想。通过禁区外的远射丰富进攻套路，巴莱罗曾考验了斯特拉科沙，但未能得手。什克里尼亚尔是国米后防的定海神针，若非他多次惊险解围因莫比莱、米林科维奇等人的前场配合，或许国米防线已然出现致命破绽。但第60分钟，什克里尼亚尔也成为了争议的焦点。他在本方禁区内的疑似手球先是被主裁判罚点球，随后点球又通过VAR辅助被取消。慢镜回放显示，皮球先打在“食客”的左腿上，然后反弹到左臂。这是点燃下半场双方球迷情绪的导火索，也成为了赛后小因扎吉面对媒体抱怨的焦点。如果国米输掉比赛，仍能暂时排名第3，但身后的罗马和拉齐奥都只落后1分且均少赛一轮。国米的压力可想而知。对比斯帕莱蒂，小因扎吉更渴望拿下比赛，下半场连续换上卢卡库和费利佩-安德森两名进攻好手，也取得了一定成效。只可惜第74分钟和第80分钟，安德森两次禁区内的推射都偏出门框，错失了改写比分的机会。第82分钟用纳尼换下米林科维奇，更是奋力一搏的尝试。未能客场拿下国米，小因扎吉在赛后明显地表达了不满，而这不满并非针对错失机会的本队球员，而是指向了VAR技术和“漏判”的点球。“如果没有VAR技术，我们本能多拿7个积分。我不喜欢VAR技术，它阻碍了比赛的激情。欧联杯里没有VAR，我们就能更好地享受比赛。”连天空体育的解说员都向小因扎吉直言，VAR技术避免了误判一个本不存在的点球。而小因扎吉的言论，在赛后的Tweeter上也迅速炸开了锅，遭到国米球迷和各路旁观球迷的嘲讽。斯帕莱蒂称赞了坎塞洛等人之后，表示球队只是缺乏进球运。关于转会市场，斯帅保持了沉默。冬窗即将开启，笔者此前就多次提及，国米冬窗很难有什么动作，这也是现场多数记者的看法。“米兰更难买什么人，1月我们可以去度假了。”——幽默的调侃带着轻松惬意。米兰城的记者，要么跟其中一支球队的主客场比赛，要么跟两支球队的主场比赛。冬歇期里，除了转会消息和训练动态，几乎没新闻可写。这一年里，米兰城的记者或许是全意大利最身心俱疲的。从球队收购动向到资金疑云，到时刻注意来自中国的动态，米兰城的多名记者与笔者成为好友，却也几乎改行成了侦探。忙碌的夏窗之后，几乎没有工作的冬窗假期，让他们终于能喘口气，离开阴云密布的米兰城，去到阳光明媚的地中海小岛，暂时摆脱一切烦恼。0-0的结果，对国米球迷而言绝不值得欢喜，却能够接受。国米的“掉队”始于欧战结束和意大利杯开始，竞争对手结束密集赛程、本队开启密集赛程。但意大利杯已经出局、没有欧战任务的国米，即使技战术层面没有改观，也大有希望从2月份开始继续单线发力。对于斯帕莱蒂这样难得的优秀主帅，蓝黑死忠需要给予更多的信心与耐心。本文来源：网易体育作者：毯子责任编辑：朱楷正_NS4807"
}