{
    "Comment": {
        "Content": "我们普工也不过年薪五万，数不清的人还年薪木有五万呢 这父母投资子女要求的回报太早了点吧！不如自己断手断脚装乞丐要钱赚的多呢！ 孩子就是赚钱工具，这种父母狗一样 就应该剥夺父母的抚养权 法律治不了这样的父母？ 判个十几年 把自己亲生孩子当赚钱工具，这种父母不如狗 这还不是犯罪？ 南方人动不动笑话东北怎样看看你们干的好事，造假贩毒拐卖妇女儿童诈骗制造垃圾食品祸害全国。 不仅要撤销其监护权，还应追究其刑事责任才对。 这样的父母连母性都已丧失，连动物都不如 呵呵 对于失职的，不负责任的父母以及监护人，也应该纳入个人信用记录，约束管理。😠 家长要加强对孩子的监护! 我们普工也不过年薪五万，数不清的人还年薪木有五万呢 这父母投资子女要求的回报太早了点吧！不如自己断手断脚装乞丐要钱赚的多呢！ 我们的月亮就是一个鸡蛋，我们的地球系就是一个鸡蛋!我们的太阳系就是一个鸡蛋，我们的天郎双星系就是一个鸡蛋，我们的银河系就是一个鸡蛋!坯胎为中心，蛋黄，蛋清，蛋壳层层立体包围着坯胎!固体地球为中心，大气层，平流层，电离层等等以及最外层真空遂道层层立体包围着固体地球!而月亮飘流在地球最外层空间真空遂道里，就像船儿飘流在大气层和海平面之间的空间是一样的!以此类推至太阳系天郎双星系银河系及任何物质!月亮在地球最外层空间真空遂道里绕着地球自转公转着，地月绕着太阳在太阳系第三层真空遂道里自转公转着，太阳系绕着天郎双星在天郎双星系最外层真空遂道里自转公转着!任何物质皆如此运动，天地人合一，阿门 把自己亲生孩子当赚钱工具，这种父母不如狗 不仅要撤销其监护权，还应追究其刑事责任才对。 这样的父母连母性都已丧失，连动物都不如 这种父母就应该剥夺抚养权。。。还是给其他生不出孩子的家庭领养吧。。。 孩子就是赚钱工具，这种父母狗一样 尼玛璧 就应该剥夺父母的抚养权 法律治不了这样的父母？ 孩子乘坐扶梯家长应小心看护 我们的月亮就是一个鸡蛋，我们的地球系就是一个鸡蛋!我们的太阳系就是一个鸡蛋，我们的天郎双星系就是一个鸡蛋，我们的银河系就是一个鸡蛋!坯胎为中心，蛋黄，蛋清，蛋壳层层立体包围着坯胎!固体地球为中心，大气层，平流层，电离层等等以及最外层真空遂道层层立体包围着固体地球!而月亮飘流在地球最外层空间真空遂道里，就像船儿飘流在大气层和海平面之间的空间是一样的!以此类推至太阳系天郎双星系银河系及任何物质!月亮在地球最外层空间真空遂道里绕着地球自转公转着，地月绕着太阳在太阳系第三层真空遂道里自转公转着，太阳系绕着天郎双星在天郎双星系最外层真空遂道里自转公转着!任何物质皆如此运动，天地人合一，阿门 判个十几年 这还不是犯罪？ 南方人动不动笑话东北怎样看看你们干的好事，造假贩毒拐卖妇女儿童诈骗制造垃圾食品祸害全国。 这事我们好像报道过! 南方人的烂是一个省一个省的，前几天还有个南方老sb，往jiaojing身上扔孩子的。 呵呵 东北人省省吧！你们的烂是一大片片的！全国知名，一听到兄弟二字出口，我立刻跑得远远的，什么玩意？谁跟你兄弟 对于失职的，不负责任的父母以及监护人，也应该纳入个人信用记录，约束管理。😠 ",
        "Link": "http://comment.news.163.com/news2_bbs/D789HHHK0001899N.html",
        "Reply": 22,
        "Total": 131
    },
    "KeyWords": "犯罪,盗窃,监护权,检察院",
    "PublishTime": "01/03/201817:20:39",
    "Title": "女童被父母5万1年\"租\"给犯罪团伙 在多个商场行窃_网易新闻",
    "Source": "Netease",
    "Article": "（原标题：5岁孩子盗窃上海多个商场竟是父母5万一年租给犯罪团伙）两名5岁的女童去年在上海多个商场及社区进行盗窃，指使其盗窃的嫌疑人被判处有期徒刑3年6个月，两名女童也被送回户籍地湖南省道县。办案检察官在调查时发现，两名女童竟是被父母以5万一年出租给犯罪团伙的，为此，青浦区人民检察院向道县人民政府制发了检察建议，建议对此前涉盗案件的儿童家长撤销监护权。涉案女童小何与小汪，2016年3月至5月间，在宋姓姐妹的指使下，于青浦多个商场、社区窃取财物。去年3月，青浦区检察院对宋姓姐妹提起公诉，以组织未成年人进行违反治安管理活动罪，判处其有期徒刑三年六个月，两位女童被送回户籍地湖南省道县。而就在办案检察官对被告人户籍所在地开展调查时发现，涉案的两名女童，竟然是被他们的亲生父母，以5万一年的租金出租给犯罪团伙的。为此检察官认为，这样的原生家庭，已不足以给孩子创造健康的生活环境。为此，青浦区人民检察院向湖南省道县人民政府制发了检察建议，督促当地相关部门提起撤销监护权诉讼，并最终就证据标准、提起撤销监护权之诉的程序、涉案儿童监护权的归属达成了一致。上海市青浦区人民检察院检察官助理朱洁表示，接下来这两名儿童将继续待在学校接受教育，老师也会对她们进行监管。本文来源：看看新闻Knews责任编辑：李杭_BJS4645",
    "URL": "http://news.163.com/18/0103/17/D789HHHK0001899N.html"
}