{
    "Article": "网易体育12月27日报道：C罗税案已经发酵了一年有余，西班牙税务部门认为C罗偷税至少1470万欧元。C罗则宣称自己受迫害，他拒绝花钱买平安庭外和解，这笔官司很可能要对抗到底。12月7日，税务部门主管穆雷洛在马德里庭审中坚决表态称，C罗应该被扔进监狱中。穆雷洛是西班牙税务部门中负责税务犯罪的主管，她在12月7日于马德里地方法庭一号庭出席了庭审。穆雷洛指出，C罗在2011到2014年间至少偷税漏税1470万欧元。穆雷洛指出，C罗一直不主动申报收入，明显带有偷税漏税的主观意图。而且C罗之所以聘请专家为自己在维京群岛开设避税公司，就是为了在个人肖像权收入方面偷税。在庭审现场，穆雷洛坚决表示C罗应该坐牢。“别忘了，很多只偷税12.5万欧元的人，如今还在我们的监狱中被关押着。”在穆雷洛看来，C罗税案显然属于数额特别巨大、情节特别恶劣的类型。昨天《世界报》将这段庭审实录公之于众，C罗很快在Ins上做出回应。C罗发了自己与三个孩子的合影，并表示“我是孩子们的囚徒”。C罗之所以用上囚徒二字，显然是在回应穆雷洛的“坐牢说”。C罗女友乔治娜，则在社交网络上第一次贴出了女儿阿拉纳-马尔蒂娜的笑脸。“妈妈说了什么，让她笑得如此开心？幸福的一天！”乔治娜显然心情相当不错。本文来源：网易体育责任编辑：朱楷正_NS4807",
    "Source": "Netease",
    "KeyWords": "c罗,入狱,税务,囚徒",
    "Title": "西税务部坚持要C罗入狱 罗总:我是孩子们的囚徒!_网易体育",
    "Comment": {
        "Total": 7437,
        "Content": "两边的🐶能不能消停一下？ 你特么去逼逼梅西去啊号称梅西球迷天天来喷罗老子就看不惯你这狗你要咋 尼玛炸了狗屎螺偷税就西班牙穷梅西偷几百欧就人品不行狗螺球迷炸全家 这条山西太原狗比，代表了黄毛这个低等群体的智商，就是啥也不懂，法盲文盲不说，就知道C罗是个球，懂个球。 我骡终于超越梅西了…………我指☞的偷税方面！[大笑] 一切都是经纪人干的和梅西没关系一切不知情 呵呵太原狗怼天怼地被别人当成笑话还洋洋得意的没看到谁号称梅西球迷天天喷罗我只看到他自己连名字都要黑梅西还好意思说别人把黑梅西作为毕生事业原地陀螺要是知道有你这条好狗也算欣慰了 哈哈。确实如此。十只双标狗十只全是罗狗。没毛病 我罗真乃偷税界的楷模\u0014/赞 西班牙穷疯了，到处抓人罚钱😂 大孝子梅西怕自己养不活父亲就亲自送进去了 蜗螺是史上最佳（偷税最多、跳水最骚、拳击最猛）的球员，是广大球员和小朋友的榜样。 税务机关要真有把握那还要法院干啥要法官干啥？税务机关直接抓人就行啊 他说公开就是公开他是你爹你这么相信他？西班牙人都不信在调查了，你个黄杂倒是高潮了 1.梅西因为有老爸认罪，有避风港，认罪，认罚，专注于球场之内。C罗没有，所以硬怼。2.所以一个受伤下场依然场边怒吼，一个输球选择退出国家队3.所以一个在场上横冲直撞，不认输。一个散步80分钟养精蓄锐一击即中。总的来说，一个聪明，一个执着。 黄畜言论<br>梅西偷税～梅西人品有问题<br>C罗偷税～西政府穷疯了<br>[大笑][大笑][大笑] 屎上最佳决定他的拥趸们也就这水平和档次，哈哈哈哈，一个笑话而已... 真他妈受不了西班牙，之前梅西，现在c罗，还能不能有巨星了 看样子二楼也疯了！😂 那就等判决啊你们在这里逼逼什么 有女良生没父多教的垃圾砸种罗，必须要给他找个野父多替他坐牢了 税务又不是司法机构，怎么抓人？这不起诉了吗，等待法院的判决吧 历史最佳怎么可能漏税 你又在这里逼逼什么? 税务机关有权利判吗？只能起诉，等法官判吧，到时候原地罗进去的时候，直接用担架抬进去 梅西让亲爹坐牢，绝对的孝子 税务机关没把握会乱抓人打自己脸?不对，是国家的脸，西甲哪个球星出现税率问题能跑的了，进去了别忘了拿担架 罗狗们再怎么汪汪汪，偷税基佬罗也洗不白咯 大孝子原地陀螺怕是只能送妈了 所以你的意思是只准你逼逼不准大家逼逼了？别人讨论两句你就有权利来制止别人了？你是马德里警犬吗？ 我骡说了我是小学僧不懂税法啊，😂😂😂 梅西没被判之前就有一堆骡粪说梅西偷税漏税人品败坏，骡粪双标真厉害 有证据就抓人没证据就别说废话 你特么也知道用涉嫌这个词涉嫌不算定罪吧税务机关有权利起诉罗但不代表定罪吧？最终是法院说话算吧？法院判决了么？你们就在这里逼逼偷税税务机关别说有把握他就是有百分百的把握也的法院宣布算吧 对我罗不利的新闻不准说我罗的不好，这是罗粉的原则，但是他们自己可以为我罗辩护 呵呵 建议对C罗施行绞刑。[窃笑] 话糙理不糙，梅西偷税的时候没有说政府穷的，各种人品不好，一个个弄的像偷他家钱了一样。C罗一出事就各种找客观理由，政府瞎搞，没判刑不算，皇马保护不到位，就是不说C罗的问题，也确实够不要脸了 诈捐罗又喜获一项新发明专利 狗屎螺没爹也是坐实了和你没妈一样 梅西退出了国家队就是傻逼了？你连自己的主子都喷？我现在正发愁这么处理你老婆了赶紧领回去吧玩腻了 还有没有马德里法了？我罗屎上最佳怎么可能偷税？你们有我罗钱多吗？有我罗帅吗？莫名其妙，皇马球迷留 C罗肯定逃税了，作为一个跳水运动员，他没有上交一分钱的跳水费用 c罗敢公开自己全部资产表示清白，梅西敢吗一切推着给他老子。 足坛跳梁小丑C罗 税务又不是司法机构，怎么抓人？这不起诉了吗，是黑是白等待法院的判决吧 你这傻逼。梅西那个已经确定了。 马戏团🎪的野狗们，你们亲爹出事了，赶快出来咬。要不然就吃不到骨头了 我罗是偷税最多，堪称史上偷税最多的跳水体操远动员。 C罗偷税与否不知，梅西偷税让老爹顶包入狱21个月可是做实了的 继续认罪吧继续退出国家队吧 喔行嘴圆规腿这些都是个人偏好 你父母怎么生出你这么个傻逼玩意！ 下水道流浪犬，钻出地面吃饱粑粑，再滚回去吧，别被人类一脚踹死 傻逼，6楼是哪个蠢货说的？老子对你这种蠢货实在无语，你是法盲+文盲吗？ 你是傻逼么税务部门认为罗偷税但是是由法院最终裁决现在法院判决下来了么？你们高喊罗偷税谁说税务部分不是政府机构了？就算是美国总统说罗偷税也得走司法程序了吧？程序没走完你们就断定人家偷税？你是罗的主审法官？提前给透剧来了？ 黄蛆喜欢把我骡的精彩事迹做人物篡改？我骡求着女友和老母陪布拉特上床的事都上报纸了，😂😂😂 比不上你亲爹把你爷爷送进监狱，是你们学习的榜样 法盲滚粗 手球西又给你什么好处了？你们那他妈算讨论？说的怎么感觉像判刑了一样，有证据你就抓，抓了你再逼逼，梅西偷税是坐实了么，判了么，说梅西偷税黑他了？ 对罗有利的新闻也没见你们说声好啊 我们国家要是有个C罗，国家巴不得天天送钱，还收几把毛税啊！<br>C罗虽然是葡萄牙的，但是为西班牙联赛知名度做多大贡献，你个税务部门天天没有一点眼色 你说的梅西吧，c罗判了？ 我罗真乃偷税界的楷模\u0014/赞 西班牙穷疯了，到处抓人罚钱😂 蜗螺是史上最佳（偷税最多、跳水最骚、拳击最猛）的球员，是广大球员和小朋友的榜样。 你妈吃粪 要他妈坐实了早抓了，天天逼逼顶毛用 要是C罗不在皇马了，你们接下来准备喷谁？皇马球迷还可以继续喷梅西。 希望你爹能活到3000年 总比没有爹强。自己那里来都不清楚 罗粉他妈的都是法盲吗？道理讲得那么清楚明白了，还一个劲胡搅蛮缠？C罗是你们家私有品？不许评论是吗？<br>税务机构是法定职能部门，是震斧合法授权机构，认定C罗偷逃税，代表着法定部门的意见，C罗如果认可就补缴，同时税务部门还将起诉他的偷逃税罪。如果C罗不认可，他有权不补缴，但税务部门坚持自己的认定，所以起诉了，连同经济部分和刑罚部分一起，懂了吗？ 你特么翻回去六楼看看我说话的意思你是脑残么看不懂人话真尼玛服气了 你这傻逼没理由了就开喷老子说的不对么你个傻逼 你爹早就死了，问问尼玛，现在的是野爹，你就喜欢这样的回应对吧？ 我罗绝对没有漏交一分钱税，不信有法罗群岛大把发票为证 我什么都不知道，有什么事找我爹，都是他干的。哈哈哈 傻逼，6楼是哪个蠢货说的？老子对你这种蠢货实在无语，你是法盲+文盲吗？ 我觉得你眼瞎 叫的真好听 尼玛炸了狗屎螺偷税就西班牙穷梅西偷几百欧就人品不行狗螺球迷炸全家 没有喷谁，是在遛狗 反正就这样，一天没判就不能坐实。但是我非常肯定有一些傻逼，如果判没罪的话，肯定会跳出来吠：马德里皇法生效了，佛爷又花多少钱买通了。要是判有罪的话，肯定也是这堆🐩跳出来：我就是怎么样怎么样吧。 干脆把曾经偷税过的都关起来啊。这么长时间都没判，是不是要等赛季完了能多查出点？ 坐实了么傻逼？坐实了你他妈倒是把他抓起来啊，你他妈逼逼顶个毛用 硬刚，大不了走一遭牢狱。 呵呵！ 呵呵。这种ID，也只有这种智商。懂了。你赢了 罗狗们再怎么汪汪汪，偷税基佬罗也洗不白咯 罗粉他妈的都是法盲吗？道理讲得那么清楚明白了，还一个劲胡搅蛮缠？C罗是你们家私有品？不许评论是吗？<br>税务机构是法定职能部门，是震斧合法授权机构，认定C罗偷逃税，代表着法定部门的意见，C罗如果认可就补缴，同时税务部门还将起诉他的偷逃税罪。如果C罗不认可，他有权不补缴，但税务部门坚持自己的认定，所以起诉了，连同经济部分和刑罚部分一起，懂了吗？ 西班牙真是缺钱啊…税收都那么高，不逃才怪… 巴萨球迷从来都是匿名 傻逼，6楼是哪个蠢货说的？老子对你这种蠢货实在无语，你是法盲+文盲吗？ 喔行嘴圆规腿这些都是个人偏好 没黑干嘛要洗白？ 哈哈，确实是。反正梅粉不管好坏的新闻都要黑。梅粉为什么老盯着罗呢，不知道的还以为你们要强行双娇 来中超吧，不会有这种烦恼。 垃圾玩意儿，狗屎什么时候也配说话了？ 有女良生没父多教的垃圾砸种罗，必须要给他找个野父多替他坐牢了 哈哈哈太原狗换名字了啊？ 有证据就抓人没证据就别说废话 喔行嘴圆规腿这些都是个人偏好 有骨气。是就是，不是就不是。 继续死鸭子嘴硬吧！ C罗肯定逃税了，作为一个跳水运动员，他没有上交一分钱的跳水费用 不认罪打官司证明心中无愧不像某些人直接认罪交罚款了 你的意思就是只要贡献大，可以为所欲为了？ 转身跳高也不赖 狗屎螺没爹也是坐实了和你没妈一样 看看罗多硬气！煤球一家人连夜偷偷的攒钱补缴税款！多鲜明的对比！ 最可笑的金球先生 下水道流浪犬，钻出地面吃饱粑粑，再滚回去吧，别被人类一脚踹死 我tm服了你们就是传说的脑残嘛脑残粉真可怕 税务又不是司法机构，怎么抓人？这不起诉了吗，是黑是白等待法院的判决吧 猪儒西激素大傻了，什么都不懂，把钱和安东内拉一起给他爹玩。。 两个没妈的孩子真他妈可怜！<br>都是这自私无比的罗狗惹的祸！<br>必定会得到报应的！<br>来来黄🐶出来喷两个嘴巴子！ 马戏团🎪的野狗们，你们亲爹出事了，赶快出来咬。要不然就吃不到骨头了 我罗是偷税最多，堪称史上偷税最多的跳水体操远动员。 你终于出来咬人了，今天吃到骨头了没有？ C罗偷税与否不知，梅西偷税让老爹顶包入狱21个月可是做实了的 老子对你这傻逼真是无语了 两边的🐶能不能消停一下？ 消失三天去哪了搐生？主子输球抹眼泪了？现在又出来吠了啊 大过年骂人上热帖的…唯有六冠王球迷 脑残狗这么多，罗迷还一个劲的在那里跟狗咬。 真的是醉了，你觉得c罗和梅西他们会自己算税吗？这种事无非就是。经纪人或者身边主管财务的怎么说，他们就怎么来了。西班牙那个部长也只是博眼球而已。只不过现在唯一不同的是C罗现在还没一个爹出来替他顶罪而已 你特么也知道没权利判啊没判之前你凭什么说有罪要是没罪狠狠的删你鼻窦你就很开心了？ 尼玛炸了狗屎螺偷税就西班牙穷梅西偷几百欧就人品不行狗螺球迷炸全家 税务机关又不是警察法院OK！税务机关有权抽查C罗的缴税情况来判定他是否偷逃缴款再由法院判决对C罗的处罚 傻逼你能看懂我的意思么？脑残货 买机票的钱当嫖资付给你老母你老婆你女儿了。你注意查收一下。 偷税还有理了，我建议西班牙法院判处我罗侥幸 梅西魔力鸟C罗，到底问题在哪不明白，傻逼们还是就只会站队互喷 梅西人品球品没得说，梅西万岁， 他就一白痴，还什么税务机关直接抓人就行了，书没读几天的？ 某些人在欧洲杯上客串7队球迷的事真令人难忘 西班牙穷疯了，到处抓人罚钱😂 网易评论：骂穆里尼奥，骂C罗，骂皇马<br>捧巴萨，梅西，瓜迪奥拉<br>跟着穆里尼奥和瓜迪奥拉转会，伪装各个球队资深球迷<br>六冠王球迷 蜗螺是史上最佳（偷税最多、跳水最骚、拳击最猛）的球员，是广大球员和小朋友的榜样。 法院？？门德斯和老佛爷会让我罗出事？？ 你這言論和給你點贊的人都是什麼素質？ 他没爹犯罪？ 哈哈，气不气？还不给你主子准备孝子奖，哈哈，我就是儿子的囚徒。哈哈 苟屁皇马球迷，恶心 屎上最佳决定他的拥趸们也就这水平和档次，哈哈哈哈，一个笑话而已... 你罗偷税了，你就吃我们拉的屎 傻逼水罗脑残，烂射逃税水罗 来你家梅爹已经判了，先把老子拉的屎吃了 所以这就看出来了，某队的某些球迷是多丧心病狂。再次说，我不是皇马球迷，我不讨厌梅西，也不讨厌巴萨，更不讨厌巴萨真球迷。我讨厌的网易里面天天挑事的某些🐶 沒毛病666 都不要吵吵，静静等待。 算不算诽谤呢，也的等担架罗来起诉，再等法院来判，哈哈 我什么都不知道，有什么事找我爹，都是他干的。哈哈哈 你这傻逼也知道法官判决为准啊？ 我什么都不知道，有什么事找我爹，都是他干的。哈哈哈 我什么都不知道，有什么事找我爹，都是他干的。哈哈哈 你特么睁大眼睛看看我说的什么意思你特么那个眼看见我说定罪不是法院判老子服气了傻逼都 因为偷税把自己亲爹送进监狱顶罪的人，还能获得支持，其支持者家必横祸，反驳的立即死亡 判了就有问题啊，现在没判就没问题。不可以？21个月那个刑满了吗？ 行啊，你敢去当刽子手吗？ 抠脚小伙子，不要大言不惭了，你袋里有几个钢蹦你心里没点逼数吗？ 你说了那么多法院判了没有没有判决之前不算定罪吧 在欧洲，经常不主动申报个人收入是很容易被税务局盯上的，而且会被认为这人道德有问题。 罗狗们再怎么汪汪汪，偷税基佬罗也洗不白咯 [微笑] 满屏疯狗狂吠 税务机关有权利判吗？只能起诉，等法官判吧，到时候原地罗进去的时候，直接用担架抬进去 你在放屁吗？警察抓了你不用法院判？ 你连反问的语气都看不出来你可以早点去投胎了 我就想知道，C罗现在还没判呢，就在这里BB的21个月粉刑满了没？ 我什么都不知道，有什么事找我爹，都是他干的。哈哈哈 豪尔赛梅西表示，说到我心坎里了，赶紧给我我儿子颁一个送爹坐牢最佳孝子奖。 21个月那个刑满了没？ 你的素质，侮辱了你的偶像。 巴萨罗那税务局真是搞事,不怕马德里警方传唤梅西？ 哪是你爹，是我王叔叔帮你爹干的 我什么都不知道，有什么事找我爹，都是他干的。哈哈哈 C罗肯定逃税了，作为一个跳水运动员，他没有上交一分钱的跳水费用 屌丝们当然是拥护他们的屌丝之王啦，没毛病啊……😂😂😂 狗屎螺没爹也是坐实了和你没妈一样 这也要比？ 还有没有马德里法了？我罗屎上最佳怎么可能偷税？你们有我罗钱多吗？有我罗帅吗？莫名其妙，皇马球迷留 建议对C罗施行绞刑。[窃笑] 没爹也能做喷点愿你一家长命百岁智障 税务又不是司法机构，怎么抓人？这不起诉了吗，是黑是白等待法院的判决吧 有证据就抓人没证据就别说废话 C罗偷税与否不知，梅西偷税让老爹顶包入狱21个月可是做实了的 我罗是偷税最多，堪称史上偷税最多的跳水体操远动员。 让他爹替他坐牢，人品真是没得说 你是不是我生的马上就要揭晓了。你要是跪下，我就承认你是我跟你妈生的 国外法律对有钱人，真TM狠 尼玛炸了狗屎螺偷税就西班牙穷梅西偷几百欧就人品不行狗螺球迷炸全家 根据西班牙税法，每年在西班牙居住超过183天的外国人，在全球的收入都要向西班牙缴税，无论是否在他国缴税。这就是在告诉外国人，请问不要在西班牙居住超过半年。 原以为C罗没爹（没人顶包），不会偷税，没想到啊没想到啊…… 狗屎螺没爹也是坐实了和你没妈一样 罗狗梅狗狗咬狗 [窃笑]估计又要死很多🐕了！ 延边这个地方.....唉.... 马驴混合物好腻害！ 你没爹偷税你就像死了爹妈一样不敢出声。 那你怎么认为？ 你的工资都没有够得上缴税的标准，还舔着碧莲说些没有脑子话，SB玩意 西班牙穷疯了，到处抓人罚钱😂 性格上的差异，实际上都是避税，梅西性子温和选择息事宁人，C罗性子高傲就不认怂，罚款肯定还得交，不信走着看。 梅西，跳广告牌前，交钱了吗？ 假设，王健林到一家西班牙公司当高管，安装西班牙法律，是不是万达在中国赚的钱也需要给西班牙缴税？ 坑爹哭👃退队，我只服智利球王，司马看梅奴😜 北精这个地方，哎 梅西老爸是他经纪人，但他老爸坐牢了吗？梅西花钱缴税交罚金处理了，亡父骡不一样，坐牢的是他顾问，就算顾问被枪毙了我骡也不会缴一毛钱税 黄畜言论<br>梅西偷税～梅西人品有问题<br>C罗偷税～西政府穷疯了<br>[大笑][大笑][大笑] 罗狗仔们现在还死鸭子嘴硬！ 有没有干爹和亲爹马上就揭晓了。我骡进监狱，我就承认皇马没有干爹和亲爹。 1.梅西因为有老爸认罪，有避风港，认罪，认罚，专注于球场之内。C罗没有，所以硬怼。2.所以一个受伤下场依然场边怒吼，一个输球选择退出国家队3.所以一个在场上横冲直撞，不认输。一个散步80分钟养精蓄锐一击即中。总的来说，一个聪明，一个执着。 梅畜言论<br>C罗欧洲杯，担架躺的<br>梅西06欧冠，一己之力 国家一没钱就爱找老百姓收哪里都一样 笑话，各自都有玩双标的，现在连评论双标都要玩双标了？ 说得好像，煤囚亡就洗的白一样 围魏救赵！6得不行… 大孝子梅西怕自己养不活父亲就亲自送进去了 替梅西跟C罗辩护一下，偷税跟合理避税这灰色地带很难区分。你们之前一口咬定梅西偷税那我们也说C罗偷税，不过梅西的乡巴佬爹跟门德斯团队是没法比的，估计这也是C罗这么理直气壮的原因 肖像权收入西班牙都收税再说人家又不是你国家的人 不会，但王健林以西班牙公司的名义和别人做生意赚的钱肯定要给西班牙交税，C罗同样的道理，他是皇马俱乐部的球员，皇马是西班牙的俱乐部，C罗这几年在皇马踢球拿到了各种荣誉间接地给他带来了很多广告合同还有球衣的销售分成等等，所以你只是在偷换概念而已。 先耗着呗，等夏天转会离开西班牙，省几千万欧元税金 肯定得交，他再牛B也不可能和国家对着干 这评论区太凶险，我去隔壁先喷一会练练级 罗狗们再怎么汪汪汪，偷税基佬罗也洗不白咯 太聪明，辩解还不忘晒娃！！！ 退尼玛币，今年谁带阿根廷闯进世界杯的？那不过是为了给高层施压，你以为谁都跟你罗一样被供着当吉祥物啊 1楼罗屎就这么傻逼，他爹不进去他就咬死不承认 大孝子原地陀螺怕是只能送妈了 不需要，多此一举 欧盟三猪的西班牙真是名不虚传，先杀梅西，再杀C罗，我就看以后西甲还有谁敢来。 建议阉了你 如果C罗现在转会离开西甲，西班牙税务局如何应对？就算西班牙法院判C罗偷税罪名成立，对于不再为西班牙球队踢球的C罗，该如何执行？这是极有可能出现的情况。 足坛跳梁小丑C罗 没办法，穷成那样也没办法 阉了他的话你妈怎么办？ 一楼也没爹但是他是因为爹太多搞不清 拳击呢？ 呵呵 C罗肯定逃税了，作为一个跳水运动员，他没有上交一分钱的跳水费用 不认罪打官司证明心中无愧不像某些人直接认罪交罚款了 梅西偷几百欧[窃笑][窃笑][窃笑]梅西是已经被判刑的罪犯，还能在外面蹦哒只能感叹有钱真好[鄙视][鄙视][鄙视] 在穆雷洛看来，C罗税案显然属于数额特别巨大、情节特别恶劣的类型。这句话我怎么听着有点怪呢 狗西靠干爹和安东内拉献逼裁判体能师缴税没 建议对C罗施行绞刑。[窃笑] 同样的操作手法，一个金额略高，一个金额略低，一个俯首认罪，一个据理力争，在某狗眼里，一个就是好孩子，一个就是死鸭子嘴硬 傻逼婊子养的，你特么全家食堂了吧 话糙理不糙，梅西偷税的时候没有说政府穷的，各种人品不好，一个个弄的像偷他家钱了一样。C罗一出事就各种找客观理由，政府瞎搞，没判刑不算，皇马保护不到位，就是不说C罗的问题，也确实够不要脸了 有证据就抓人没证据就别说废话 C罗偷税与否不知，梅西偷税让老爹顶包入狱21个月可是做实了的 那个当庭认罪并被判刑的是哪位囚王和它爹啊？ 我罗是偷税最多，堪称史上偷税最多的跳水体操远动员。 西班牙税收制度太没出息了。 法院判了吗？没判，你就过来咬了 双标的太严重了吧，罗总偷税怪郭嘉？？ 尼玛炸了狗屎螺偷税就西班牙穷梅西偷几百欧就人品不行狗螺球迷炸全家 以你收入不用交税吧？可怜的穷基佬。。。。。。。。。 当初梅西时可不是这样说的 C罗在家放了个屁，小编就说这个屁很愤怒，输了比赛，必进球没进，还是在家呼吸顺畅，便秘用哪个牌子 这就是西甲没落的征兆，这两货一退役西甲基本完蛋 我们的足球球员是个超低收入群体，有一个会计就不会出现偷税的现象！我们的球员跑车，房产应该都是分配的，他们真的没钱！ 宇宙最强球神C罗 难道字母就不想让爹背锅了？哈哈哈哈 蜗螺是史上最佳（偷税最多、跳水最骚、拳击最猛）的球员，是广大球员和小朋友的榜样。 一个不偷税的球员他就不是一个好的拳击手！ 他们会说一个已经判刑坐牢，一个还没判刑。不算！ 这是看C罗太累了要给他找个地方休息一下吗 坑爹哭👃退队，我只服智利球王，司马看梅奴😜 有证据吗有证据就直接抓废什么话，没证据就别瞎说 西班牙穷疯了，到处抓人罚钱😂 西班牙在赶走自己的顶级球星 作为一个球迷，我觉得看他们场上的表现就好，这场外的没必要关注太多，不论梅西还是C罗的球迷。又在这里开骂，有必要吗 真他妈受不了西班牙，之前梅西，现在c罗，还能不能有巨星了 我罗是偷税最多，堪称史上偷税最多的跳水体操远动员。 对付球员，最好的办法就是偷税 这话你等坐实了再说不迟，比如囚王~~~ 哥们儿你是有多变态难不成又是一个马加爵？ 你天天在这理客中，不累？ 我叼，又遇到一个喷子 怪不得C罗球迷不骂梅西“偷税狗”了 梅西让亲爹坐牢，绝对的孝子 文化底蕴深厚不代表这个国家有钱很多欧洲国家都很穷，只是在欧盟保护伞下不那么显眼 想干你皮炎 建议对C罗施行绞刑。[窃笑] 执法必严你说人穷疯了执法不严你又在那喷。你的键盘侠属性真是深啊！ 屍上最佳绝对是吾皇和黄军们的榜样，水平的境界决定就这档次！ 强行转移视线？小逼崽子！咸阳人？我大咸阳有你这种蠢货也是丢尽咸阳人的脸了！ 梅西也被起诉过吗，怎么判的啊，这是足球部门得罪了税务部门啊，专挑大牌整 西班牙怎么回事情，一般C罗梅西这个级别的球星，肯定有专业人士帮她们打理，还能搞出偷税几千万的事情，穷疯了吗 马塞洛？ 等C罗确定以后你还咋洗啊……我帮你想想词，C罗嘴硬不承认所以比梅西强！ 我骡终于超越梅西了…………我指☞的偷税方面！[大笑] 第C罗进监狱了，罗粪们会自杀不？ 梅西有西班牙国籍，C罗一葡萄牙人而且身份不同，西班牙说判就判？说句不好听的，C罗要是中国人西班牙判了他皇上都不乐意 哇，领了一个亿，人生第一个小目标完成了 建议安排c罗和梅西关在一个屋 诈捐罗又喜获一项新发明专利 现在西班牙穷的也就靠足球和旅游创汇了，这帮子球员都已经剥削一波了，还在这些非西班牙国籍球员身上捞，把梅西C罗这帮子足球明星再挤兑走，真没人去西班牙旅游了，内马尔去大巴黎了，梅西C罗再走，看C甲的人得少3分之一。C甲没落成二流联赛，西班牙就真没人关心了。 说错了，屎上最佳绝对是吾皇和皇军们的榜样，水平的境界决定就这档次！ 瞎说，明明是拳击运动员 说的话真没水平！C罗球迷都是什么文化水平啊？ 西班牙政府实在是没有钱了……这是要整垮西甲联赛的节奏呀！ 我不信，我不信，我们都不信 加泰罗尼亚独立了，梅西才能洗白 有证据就抓人没证据就别说废话 说错了，屎上最佳绝对是吾皇和黄军们的榜样，水平的境界决定就这档次！ 那个当庭认罪并被判刑的是哪位囚王和它爹啊？ 还是你们说的有道理，法院已经判的不算，没判的才是罪犯！ 横眉冷对税务部，俯首甘为孺子牛 💩上最佳 再见双标狗 说实话我也算不上谁的球迷，可有些个“球迷”说出来的话实在太好笑了 偷税罗，不信抬头看，苍天绕过谁 他的意思是我是孩子们的囚徒，不是你们的。 呵呵 看样子二楼也疯了！😂 不信抬头看，苍天绕过谁 豪尔赛梅西表示C罗兄弟说到我心坎里了，赶紧给我儿子颁一个送爹坐牢最佳孝子奖 梅西没被判之前就有一堆骡粪说梅西偷税漏税人品败坏，骡粪双标真厉害 不是漏，是偷，性质不一样 西班牙税务部门就像我国的交通部门单位一缺钱就积极出警抓违章，拦大车乱收费. Gotojall 偷税罗 梅西那是实锤，C罗就算这样也不肯庭外和解的理由是什么？欲加之罪，何患无辞，C罗在网易就是戴罪出生 你全家除夕爆炸也是做实了的，等着看烟花吧 偷税🐶 西班牙穷疯了，到处抓人罚钱😂 狗屎螺没爹也是坐实了和你没妈一样 这次搞笑了，梅黑一直喷梅西是梅囚王，没想到老罗…… 有证据就抓人没证据就别说废话 税务又不是司法机构，怎么抓人？这不起诉了吗，等待法院的判决吧 历史最佳怎么可能漏税 尼玛炸了狗屎螺偷税就西班牙穷梅西偷几百欧就人品不行狗螺球迷炸全家 梅、C两家球迷可以打平手了~~~ C罗偷税与否不知，梅西偷税让老爹顶包入狱21个月可是做实了的 ",
        "Reply": 300,
        "Link": "http://comment.sports.163.com/sports2_bbs/D6LA2FK000058781.html"
    },
    "PublishTime": "12/27/201708:24:20",
    "URL": "http://sports.163.com/17/1227/08/D6LA2FK000058781.html"
}