{
    "Article": "（原标题：俄一架MI-24直升机在叙利亚坠毁2名飞行员身亡）海外网1月3日电据今日俄罗斯消息，当地时间12月31日，一架俄罗斯MI-24直升机遭遇技术性故障在叙利亚境内坠毁，2名飞行员身亡。俄罗斯国防部证实，在新年前夕，一架俄罗斯MI-24直升机在叙利亚哈马军事机场附近坠毁，导致2名飞行员死亡。俄国防部在一份声明中说，该事件发生在12月31日，当时俄罗斯MI-24直升机在距离叙利亚哈马机场15公里的地方坠毁。两名飞行员都在坠机中丧生，而一名技术人员受伤，并被运送到叙利亚的Khmeimim空军基地。本文来源：海外网责任编辑：李杭_BJS4645",
    "URL": "http://news.163.com/18/0103/17/D78B7DPV0001899N.html",
    "KeyWords": "直升机,飞行员,叙利亚",
    "PublishTime": "01/03/201817:50:04",
    "Title": "俄一架MI-24直升机在叙利亚坠毁 2名飞行员身亡_网易新闻",
    "Comment": {
        "Content": "美特成群 这两货可不敢来这楼……🙅 美国炸了两年，IS声势越来越旺，地盘越来越大，人数越来越多，气焰越来越嚣张，势力达到顶点，俄罗斯携几架旧飞机一堆老式彈彈一介入，IS立马土崩瓦解，溃不成军，充分证明了美国军事技术远比俄罗斯落后的多，没办法，人家是民主国家嘛，奉行国穷民富的政策，而且花一分钱都是要纳税人同意的，所以不像俄罗斯那样可以有那么多的钱投入的军事开支上，所以军事技术自然比俄罗斯落后的多，但尽管如此，美国已经尽力了，感谢美国对这个世界的付出。 飞行棺材名不虚传 有普思想武装飞机头脑怎么会掉？假新闻吧 內涵愈深 俄毛有难，八方点赞。 二毛子哭得呼天抢地！ 可喜可贺，二毛子们懊恼不已…… 鹅爹死了！孙子该行孝了！ 老子就舔 死毛好毛！ 老子还要买几百架波音飞机 老板：来瓶茅台+一斤牛肉 老子还要增持美债！😃 好好好，又多了两个好毛子！ 应该由老丑，战地黄花，紫薏来接[大笑][大笑][大笑][大笑] 最好的新年贺礼 俄毛有难，八方点赞！ 屮，接不上了…… 不是美特好吗这尼玛就是中国人出钱请中国人舔美国 一楼二楼你们得多少钱一贴？招人不？ 老子还要把女儿送到美帝去！ 这两天净好消息 俄毛的东西老掉啊 老子还要花2500亿美元跟美帝做生意，来咬我呀 非常好 老子再花三千亿美金收购两房基金 支持美利坚 丧钟再次响起。 好毛子啊，希望下次轮到普秃驴！ 新闻越短[微笑][微笑] 鹅毛一掉，飞员的确是不用养老了，😃 好杠杠滴。 呵呵，所谓的美狗是中国的希望啊！ 靠，我居然给所有人点赞！ 你这逼疯了 老子退休了还要去美国养老 有冒出来一只俄种，送你一张进出海参崴的护照（清明掃墓专用） 新年第一件好事！ 又死两条好毛子！！！二毛子，你们就随你俄干爹一起走吧！！ 雌鹿是架好飞机 俄杂有难 你这活不过30岁的短命鬼就不用考虑养老的问题了 传经送宝 八方点赞 普秃子多派点废机去，摔个够。[大笑] 这两货可不敢来这楼……🙅 那就接着叉尼玛吧 屮，接不上了…… 你加油，这才下来俩 俄杂一片哀嚎…… 俄毛有难，八方点赞。 老美这么多人啊 死毛子是好毛子 英雄，一路走好 好毛子 帮我点一下 老板：来瓶茅台+一斤牛肉 老子要把钱都存在美国。 老子还要把巨额资金转到美帝去 其实我一直希望美国的战机能这样坠毁，可惜没有！ 好毛子 希望如此 我想当美特 哈哈 屎大林的徒子徒孙太监犬们如丧考批！呵呵😊 真好 击落的吧[微笑] 人数少了点 非常爽 其实它们是一个人…… 哈哈哈，明天早饭加个蛋！ 一楼俄🐶 好，太好了 😀 好！！！ 俄毛的东西老掉啊 老子多撸两手全给你打下来 非常好 集腋成裘-----毛的真皮，布尔什维克牌子的 不是美特好吗这尼玛就是中国人出钱请中国人舔美国 丧钟再次响起。 好毛子啊，希望下次轮到普秃驴！ 这不就是第一滴血3里面的毛子直升机吗，是吧我不太懂武器，反正看着特别像。 鹅毛一掉，飞员的确是不用养老了，😃 美特成群 的确死得 靠，我居然给所有人点赞！ 有冒出来一只俄种，送你一张进出海参崴的护照（清明掃墓专用） 毛子的飞机还是少开好 好，干的漂亮 😀 逆悲伤 它是个高级黑 丧钟 再加送盘屎，楼上这傻逼狗就好这口 我立马举报，把你抓回来。还的老老实实罚你写一部回忆录。 故障坠机? 打开饿了吗[狗] 有希望了 真的是技术故障不是被被击落？ 恕我直言，在坐的都是傻逼 欧✌️ 喊了多久了，俄罗斯啥时候灭亡啊？意淫是你的硬伤！😌😌😌😌 美特成群 神经病语无伦次 多了2个好毛子！ 美国炸了两年，IS声势越来越旺，地盘越来越大，人数越来越多，气焰越来越嚣张，势力达到顶点，俄罗斯携几架旧飞机一堆老式彈彈一介入，IS立马土崩瓦解，溃不成军，充分证明了美国军事技术远比俄罗斯落后的多，没办法，人家是民主国家嘛，奉行国穷民富的政策，而且花一分钱都是要纳税人同意的，所以不像俄罗斯那样可以有那么多的钱投入的军事开支上，所以军事技术自然比俄罗斯落后的多，但尽管如此，美国已经尽力了，感谢美国对这个世界的付出。 飞行棺材名不虚传 鹅爹死了！孙子该行孝了！ 二毛子哭得呼天抢地！ 靠！六楼狠呐~~ 老子当官了还要把三啊四啊的移民美国 好杠杠滴。 明早早餐加个茶叶蛋。 死毛好毛！ 老子还要买几百架波音飞机 又被干了 赶快滚！ 好好好，又多了两个好毛子！ 哈哈，小二，加俩菜 新年新气象 最好的新年贺礼 好好好 俄毛有难，八方点赞！ 谁干的 好消息 毛子也时兴代表某中央代表某某某给同志们拜个晚年啊？ 看看谁是弱智？ 操妹妹妹 这两天净好消息 击毁俄军机如打火鸡一样好玩。[鄙视] 视频我都看了，明明是被打下来的，还机械故障，要脸吗？ 好毛子啊，希望下次轮到普秃驴！ 老子退休了还要去美国养老 挂了2个毛子 不是美特好吗这尼玛就是中国人出钱请中国人舔美国 好久没看到机毁人亡的新闻了，俄罗斯，你的进度有点慢了 皮实耐用，性能出众，驾驶起来有力度👍 你这逼疯了 美国炸了两年，IS声势越来越旺，地盘越来越大，人数越来越多，气焰越来越嚣张，势力达到顶点，俄罗斯携几架旧飞机一堆老式彈彈一介入，IS立马土崩瓦解，溃不成军，充分证明了美国军事技术远比俄罗斯落后的多，没办法，人家是民主国家嘛，奉行国穷民富的政策，而且花一分钱都是要纳税人同意的，所以不像俄罗斯那样可以有那么多的钱投入的军事开支上，所以军事技术自然比俄罗斯落后的多，但尽管如此，美国已经尽力了，感谢美国对这个世界的付出。 大家鼓掌👏 新年第一件好事！ 又死两条好毛子！！！二毛子，你们就随你俄干爹一起走吧！！ 雌鹿是架好飞机 太好了，又死两个毛子！都死完才好！ 舔你们的呗你们还以为美帝会给你发绿卡? 老子还要增持美债！😃 两个好毛子 雌鹿就是垃圾 怎么不是普京 俄杂有难 侵略者的下场！ 可喜可贺，好毛子啊！ 次奥！这次就说了粗话！一二楼如果是拿钱发帖的也要看大方向，全世界精英都向往欧美，特别是锅内的权贵，你们是瞎了眼吗？！ 老板加餐 普秃子多派点废机去，摔个够。[大笑] 新年出师不利 八方点赞 你咋不上天呢。。。 俄毛的东西老掉啊 新年好消息死了的毛子就是好毛子…… 老板来一箱子啤酒庆祝一下 干杯！ 美国炸了两年，IS声势越来越旺，地盘越来越大，人数越来越多，气焰越来越嚣张，势力达到顶点，俄罗斯携几架旧飞机一堆老式彈彈一介入，IS立马土崩瓦解，溃不成军，充分证明了美国军事技术远比俄罗斯落后的多，没办法，人家是民主国家嘛，奉行国穷民富的政策，而且花一分钱都是要纳税人同意的，所以不像俄罗斯那样可以有那么多的钱投入的军事开支上，所以军事技术自然比俄罗斯落后的多，但尽管如此，美国已经尽力了，感谢美国对这个世界的付出。 有普思想武装飞机头脑怎么会掉？假新闻吧 简直了，毒刺还没瞄准呢 美国炸了两年，IS声势越来越旺，地盘越来越大，人数越来越多，气焰越来越嚣张，势力达到顶点，俄罗斯携几架旧飞机一堆老式彈彈一介入，IS立马土崩瓦解，溃不成军，充分证明了美国军事技术远比俄罗斯落后的多，没办法，人家是民主国家嘛，奉行国穷民富的政策，而且花一分钱都是要纳税人同意的，所以不像俄罗斯那样可以有那么多的钱投入的军事开支上，所以军事技术自然比俄罗斯落后的多，但尽管如此，美国已经尽力了，感谢美国对这个世界的付出。 新年就有好消息 內涵愈深 新闻越短[微笑][微笑] 可喜可贺，二毛子们懊恼不已…… 还会经常掉！ 才两个，要是满载鹅毛就更好了 美国炸了两年，IS声势越来越旺，地盘越来越大，人数越来越多，气焰越来越嚣张，势力达到顶点，俄罗斯携几架旧飞机一堆老式彈彈一介入，IS立马土崩瓦解，溃不成军，充分证明了美国军事技术远比俄罗斯落后的多，没办法，人家是民主国家嘛，奉行国穷民富的政策，而且花一分钱都是要纳税人同意的，所以不像俄罗斯那样可以有那么多的钱投入的军事开支上，所以军事技术自然比俄罗斯落后的多，但尽管如此，美国已经尽力了，感谢美国对这个世界的付出。 好啊 👍 美国炸了两年，IS声势越来越旺，地盘越来越大，人数越来越多，气焰越来越嚣张，势力达到顶点，俄罗斯携几架旧飞机一堆老式彈彈一介入，IS立马土崩瓦解，溃不成军，充分证明了美国军事技术远比俄罗斯落后的多，没办法，人家是民主国家嘛，奉行国穷民富的政策，而且花一分钱都是要纳税人同意的，所以不像俄罗斯那样可以有那么多的钱投入的军事开支上，所以军事技术自然比俄罗斯落后的多，但尽管如此，美国已经尽力了，感谢美国对这个世界的付出。 被击落了直说 我带盘卤菜凑个桌！ 传经送宝 遭技术性故障在机场附近坠毁？你一定在骗我。 俄杂有难，八方点赞 谁干啥呢 上帝收了两畜生 点赞 从人性的角度来说，这里畜生真多。 哦也，它们为什么不懂跳伞逃命 美国炸了两年，IS声势越来越旺，地盘越来越大，人数越来越多，气焰越来越嚣张，势力达到顶点，俄罗斯携几架旧飞机一堆老式彈彈一介入，IS立马土崩瓦解，溃不成军，充分证明了美国军事技术远比俄罗斯落后的多，没办法，人家是民主国家嘛，奉行国穷民富的政策，而且花一分钱都是要纳税人同意的，所以不像俄罗斯那样可以有那么多的钱投入的军事开支上，所以军事技术自然比俄罗斯落后的多，但尽管如此，美国已经尽力了，感谢美国对这个世界的付出。 老板，加个菜 又多了两个好毛子🤗🤗 笼统4架米格29舰载机呆一艘航母上赴叙利亚，起降过程中居然掉海里一架。主力战机非战斗损失就是25%。 ",
        "Link": "http://comment.news.163.com/news2_bbs/D78B7DPV0001899N.html",
        "Total": 7496,
        "Reply": 155
    },
    "Source": "Netease"
}