{
    "Source": "Netease",
    "KeyWords": "委员会,副主任,主任",
    "Title": "中纪委答疑:如何产生监察委员会主任和副主任？_网易新闻",
    "PublishTime": "12/25/201709:50:33",
    "URL": "http://news.163.com/17/1225/09/D6GA70TG00018AOQ.html",
    "Article": "（原标题：如何产生监察委员会主任和副主任、委员？）【监察体制改革试点工作权威答疑】如何产生监察委员会主任和副主任、委员？编者按：深化国家监察体制改革，将试点工作在全国推开，是党的十九大作出的重大战略部署。为积极回应社会关切，适应全国推开国家监察体制改革试点工作需要，中央纪委监察部网站《回复选登》栏目推出“监察体制改革试点工作权威答疑”，特请中央纪委研究室陆续解答相关问题，供大家学习参考。敬请关注。问：如何产生监察委员会主任和副主任、委员？中央纪委研究室：试点地区监察委员会由主任、副主任若干人、委员若干人组成，其中，监察委员会主任由纪委书记兼任，副主任均由纪委副书记兼任，委员主要由纪委常委兼任。监察委员会主任由本级人民代表大会选举产生，副主任、委员由监察委员会主任提请本级人民代表大会常务委员会任免；在本级人民代表大会闭会期间，副主任、委员由监察委员会主任提请本级人民代表大会常务委员会任免。本文来源：中央纪委监察部网站责任编辑：邵小波_NN2479",
    "Comment": {
        "Content": "",
        "Reply": 0,
        "Link": "http://comment.news.163.com/news2_bbs/D6GA70TG00018AOQ.html",
        "Total": 5
    }
}