{
    "Article": "江疏影展气质女神范梦幻风显性感高雅日前，江疏影工作室晒出几组江疏影主持江苏卫视跨年晚会的几套礼服美照。江疏影身穿亮片裙搭配黑色皮草，一展气质女神范，梦幻风格下她尽显性感高雅，一抹红唇抢镜十足。",
    "URL": "http://ent.163.com/photoview/00AJ0003/647168.html",
    "KeyWords": "江疏影,",
    "PublishTime": "01/04/201807:54:03",
    "Title": "江疏影展气质女神范 梦幻风显性感高雅_网易娱乐",
    "Comment": {
        "Content": "漂亮轻熟女 美成狗 就是凶器小了 有点像人妖 什么是美女，这就是美女。 腿是真好 非得喜欢你 漂亮轻熟女 美成狗 就是凶器小了 有点像人妖 脚不好看 什么是美女，这就是美女。 正。 非得喜欢你 美女啊，性感啊，轻熟。 腿是真好 这具身子真的不错。 ",
        "Link": "http://comment.ent.163.com/ent2_bbs/PHOTJO00000300AJ.html",
        "Total": 91,
        "Reply": 11
    },
    "Source": "Netease"
}