{
    "Article": "（原标题：黑龙江开始调查毛振华反映的问题）澎湃新闻记者从黑龙江省政府新闻办了解到，黑龙江省委省政府高度重视毛振华反映的问题，专门派出省委省政府环境整治办、省政府企业投诉中心赴亚布力开展深入调查。毛振华控诉亚布力管委会:我在这里被欺负被愚弄1月2日消息，西藏德传投资管理有限公司董事长姜广策近日在微博上传了一段视频，视频中中诚信集团创始人、中国人民大学经济研究所所长毛振华控诉，在亚布力被欺负被愚弄。毛振华控诉亚布力政府侵权网友：投资不过山海关毛振华是中诚信集团创始人，还是经济学家、人民大学教授，在经济界和企业界享有较高的声誉。控诉视频发出后，很快在企业家中引发了反响和共鸣。网友则表现出对东北经济的担忧，“毛振华这种身份的人都遭到欺负，你还敢去东北投资吗？”“真的是投资不过山海关呀！”本文来源：澎湃新闻责任编辑：范姜国一_NN9138",
    "Title": "黑龙江回应毛振华\"被欺负\"：高度重视 开展调查_网易新闻",
    "PublishTime": "01/02/201815:06:05",
    "Source": "Netease",
    "Comment": {
        "Content": "最短新闻 毛振华是谁 绝对不能去东北投资。 凡事有因果 主角越惨。。。 太可怕了 亚布力那块的治安不大好 哈哈 投资环境不好，谁还敢来发展。省委省政府你们的政绩从何出来？ 共青城，湖南，东北，呵呵！！！ 视频是比较震撼人的 简洁明了，严重了 兄弟们，顶我我上去，微博上面有完整的视频 大家要爱国 希望新年里，每个人都活的比以前更有尊严，哪怕一点点！ 东北发展落后一定是有原因的 动作真快 活该东北落后 估计又要来一次大雪无痕 大概可以买个人寿保险了 早就感觉了，东北为什么发展如此慢 事态很严重 东北早就进入衰败模式了 越落后!越贪污!越腐败! 坚决支持 新闻越短 不应该纪检委挂头？ 我们小区的业主也被欺负 事儿闹大了 到底什么事？ 东北好人 毛振华是何许人也? 这种还是有点背景的，没背景的还怎么活 视频一出，更没人去东北了 要严查此问题 一人，我饮酒醉 黑恶深挖。 作为一个东北人我要说句公道话！谁相信这个姓毛的谁就长了个活该挨削的脑袋！像这种抹黑我们东北的人就该抓起来！让他在号子待几年看他还逼逼不！抹黑东北的有几个好东西？！ 投资的火坑一个是东北，一个是湖南，你为何要跳火坑？ 新短大 感谢互联网 还有多少这样的亚布力呢！ 呵呵呵，当年冯仑去都被勒索五百万 新闻越短，问题越大。 凡事有因果 越落后!越贪污!越腐败! 东北早就进入衰败模式了 好的 事儿闹大了 高度重视 新闻越短，事情越大。 看戏 来浙江丽水投资吧 投资最好，最不排外是广西南宁，包容性强，不欺负外地人，真的，大家去走走看看了解就知道了 兄弟们，顶我我上去，微博上面有完整的视频 我们小区的业主也被欺负 我以为多大事 不需要调查，直接取证就是 估计又要来一次大雪无痕 事越大 大概可以买个人寿保险了 查公平的查 高度重视 严惩不贷！ 新闻越短 终于有有实力的人出来说这事了，不过说也是白说，哥在哈尔滨的生意就这么被搞死的，不服不行，咱是小民，没办法。 绝对不能去东北投资。 好好查查吧，把这帮误国误民的蛀虫清楚！ 顶一个 等公开的结果。 毛振华原文续：------------<br><br>亚布力有很多政府支持企业的政策，经过他们之手从来没有意见，到过我们公司，他们在外面的土地上建设了非法的栈道，花了不少钱，有什么用？你们去看看，就要被拆掉，拆了又建，建了又拆，花的都是国家的钱，据说花了八个亿，你看看他们干了什么事？我们这个企业花了20个亿，你看我们干了什么？修了什么雪道，建了什么宾馆，搞了什么设施，招来了什么客人。<br><br>他们干了什么！他们的执法机构拦截旅行社，威胁旅行社不能到我们这里去，这就是他们干的事。他们在这里强买强卖，强行搭配非要到他们那里滑雪，搞什么联盟，我们来之前哪有这个管委会啊，这个地方是我们买下来，我们干了二十二年，他们来了，他就以为他们是天，他们是政府，但是他也是个企业，他们打着政府的幌子，非法的夺走我们民营企业，让我们外来的在黑龙江尝到了苦和难，黑龙江如果不把这样的败类清除，怎么搞得起来呀！<br><br>我做为一个中国的企业家，我对黑龙江这片土地我是有感情的，我来了这么多年，这个地方我来了八年，我分文未取，每年投资一个多亿，在这里，有一个省委书记来这里见过我们吗？他来调研为什么不来我们这里呢？被他们拦住了，他要了解亚布力的旅游亚布力的动向，你看看那里能看？不就我们这里能看吗？为什么他们不到我们这里看呢？<br><br>管委会这帮人，就在这里，打着政府的幌子，上瞒下压，以为他们还在柴河呢，来了一帮柴河的江湖上人称的豺狼，同志们你们把我的东西放到网上去，我希望黑龙江、希望全世界都看得到，评评理，我有说错的地方我负责，我叫毛振华，中诚信董事长，人民大学教授，亚布力阳光度假村的董事长。 这新闻好短 事件大条了。 这种还是有点背景的，没背景的还怎么活 知道的说说 哈哈 黑恶深挖。 不知道实情 必须严查 热情欢迎海内外明友到江西上饶投资兴业。 这次该有点说法了，还有在有新项目投资，能考虑我们江苏盐城？ ，，，，，，， 毛振华是谁 不解决好这件事，武大人表示不会去那边投资 知道了 主角越惨。。。 要是老百姓被欺负了会怎样？ 投资环境不好，谁还敢来发展。省委省政府你们的政绩从何出来？ 不出事就不管 共青城，湖南，东北，呵呵！！！ 严查严查 ，，，，， 这评论数量不对呀 反应真快！ 高度重视？ 新闻越短问题越严重！ 希望新年里，每个人都活的比以前更有尊严，哪怕一点点！ 去黑投资者，傻蛋一枚 活该东北落后 还一个公平公正的经商环境 好好查查,头大头到村长全有事。 毛振华开了个好头，网络自有说理的地方 早就感觉了，东北为什么发展如此慢 来山东德州投资吧 大家要爱国 新闻越短 太官僚腐败 高度重视，我去。 有用吗 到底那一片发生了什么 知趣一点，先检讨自己， 投资过山海关要谨慎！ 咋回事？ 视频一出，更没人去东北了 东北活该落后，去你那投资帮你发展都不要，活该 MD这种人该杀！ 一人，我饮酒醉 视频是比较震撼人的 🤔把事件原因说一下亲 投资的火坑一个是东北，一个是湖南，你为何要跳火坑？ 视频呢 啥情况？ 家乡，终于上新闻了，可。。。。。。。。。。。 查不清楚的！ 普遍现象。 骄傲必落后 好可怕 黑龙江为官不为的多如牛毛啊，微服私访感受下吧 估计普通人在那被欺负也上不了新闻 关注中 恶人自有恶人磨 很可怕嘛 新，短，大 闹大了，搞臭了，才知道高度重视。 稳定环境对投资来说极其重要！ 具体是什么事？ 密切关注 黑啊，果然是黑龙江 嘿嘿，东北 就这样东北成了回不去的故乡！ 安徽也一样！ 怎么回事 信息量很大 没什么奇怪的，灰犀牛~ 何事？ 这不只是一个地方政府的问题 创业投资还是浙江安心 又是高度重视.... 严查严打，给东北人民一个交代……否则就真的是创业不进东三省，投资不过山海关，这样一来振兴东北就只能靠东北人自己了……能行吗？ 官场最常用语言:高度重视 不表态！静观事态发展！ 这事会不了了之真查违法违宪 额额 南毛北马 支持企业家发生 环境整治办出马？ 东北要振兴，投资环境要治根本 网易新闻越短，事情就越大！你数数这段新闻几个字！ 明明看到一万多条评论的 东北堂子真如传说中的那么野吗？ 太复杂了，内情接受不了 上下一致口径你怎么查 辽宁我觉得还好 唐僧肉来了，大家都想吃一口 你以为是内地呀 新闻好短 是政府的事，还是老百姓真搞不明白。 你瞅啥？ 闻短事大 哎！ 我刚从东北回来，感觉沈阳各方面都不错👍！ 教授经商？ 又是高度重视。。。请问是一般重视是啥样的 仅仅高度重视一下 已阅！完！ 东北地区？不存在的 严惩 期待后续 亚布力，觉得像在新疆 好。有希望了 要严查此问题 东北那旮旯。 就这么样，谁还敢去投资 亚不力的那个管委会可能要破费了 亚力布在哪儿？ 新闻越短，问题越严重 这新闻短的都不知道是个什么事 毛是什么人？ 好短 这么短的新闻 亚布力这是在作 好好培养网红吧，别的都无所谓 东北什么人最多啊 学习 旅游都不去 期待后续工作 抓出一大🐯 振兴东北，快手先行 懂了😰😰😰😰 惹不起就躲远点！ 高兴，重视！！！ 好好查 黑龙江该好好管管了 坚持了这么多年，不容易 环境办，投诉中心？我感觉这力度太差了。。管委会肯定不惧，有人啊！ 也就是说如果不是这么个身份就拉倒了呗 作为一个东北人我要说句公道话！谁相信这个姓毛的谁就长了个活该挨削的脑袋！像这种抹黑我们东北的人就该抓起来！让他在号子待几年看他还逼逼不！抹黑东北的有几个好东西？！ 太可怕了 跟贴被火星网友带走啦~ 微博看了他的视频 最短新闻 作为一个东北人我要说句公道话！谁相信这个姓毛的谁就长了个活该挨削的脑袋！像这种抹黑我们东北的人就该抓起来！让他在号子待几年看他还逼逼不！抹黑东北的有几个好东西？！ 说的对！ 简洁明了，严重了 明白了 要严查此问题 跟贴被火星网友带走啦~ 坚决支持 东北发展落后一定是有原因的 配服你的执着！ 动作真快 东北这边太冷了！ 刘德华挨嘴巴子，只能走人 高度关注毛振华反应问题的问题 事态很严重 作为一个东北人我要说句公道话！谁相信这个姓毛的谁就长了个活该挨削的脑袋！像这种抹黑我们东北的人就该抓起来！让他在号子待几年看他还逼逼不！抹黑东北的有几个好东西？！ 你说的真是这样 新闻越短 还好，我看了几遍 好人一生平安 这新闻够短！！！ 给领导找了这么大的麻烦，深表歉意呀。 事态严重！ 到底什么事？ 东三省的投资环境，一声叹息 这新闻还没开始看就完了？ 毛振华是何许人也? 亚布力那块的治安不大好 出了什么事 高度重视 不应该纪检委挂头？ 认真解决 东北二人转发达 说的很公正，赞了你一个 估计信息量很大！ ",
        "Reply": 210,
        "Link": "http://comment.news.163.com/news_shehui7_bbs/D75FEDO50001875P.html",
        "Total": 26193
    },
    "KeyWords": "毛振华,政府,黑龙江",
    "URL": "http://news.163.com/18/0102/15/D75FEDO50001875P.html"
}