{
    "Comment": {
        "Total": 727,
        "Reply": 64,
        "Link": "http://comment.news.163.com/news2_bbs/D76EH52900018AOQ.html",
        "Content": "还nmb猎鹰-2018搞的跟真的似了真控制倒票跟1+1一样容易忽悠纯傻比呐！ 可悲的百姓，被抢了那么多年，到现在过年回家，买个票还得靠抢！ 每年这样说，没年这B样 每年春运的票都要抢，而且都是发售后一两分钟后售完 铁路运力就那么点，年年回去的人又那么多，春运是铁路造成的？年年指责铁路，怎么不去指责公路和民航？不去指责不合理的放假安排？ 开骂，绝对没错 把内鬼们揪出来一网打尽，买火车票，我就有希望了，否则，坐火车将不在我的选择范围内，因为我根本买不到票。不管啥途径。 快要到除夕了，快些吧，除夕快乐！ 应该如此！ 用抢字，真难听！ 你跟喷子谈市场的时候，他跟你谈计划，哈哈哈哈 请问铁路总公司在网上买D、G字头车时可选座，但在网上购买其它字头车的卧铺时下铺时为什么买不到，到购票窗口去却能买的到？这是什么问题？是不是给线下走后门或什么的设计的？ 按你的想法无敌了，应该去国企饭店白吃才对 没有内鬼不会出现倒票！ 今日开抢。这个“抢”字还真是讽刺 年年怎么搞都有内鬼倒票的。 12306列表有票，点进去没票了！<br>自助取票机排队太长，有时快到了机子却坏了！ 全世界、全宇宙，只有中国人有抢票一说，这就是所谓“特色”？ 公平购票环境这个标题不敢用了吧。真是吓死人了 不管哪个运输企业的运输能力都是有限的。春运是人集中出行，无论那种运输方式都消化不掉这么多的人。如果要增加运输能力，那么就要增加人员和设备。人员可以从他处调，但是增加的设备怎么办？平时放置和维护设备的成本，刚怎么办？ 再怎么改也是那个鸟样，难道你喝了板蓝根就可以不“早泄”了？ 公平公正[鄙视] 公平毛线，腊月十一二的票都要找黄牛才买到的 是部分而已，有钱买机票的要抢？ 一群喷子们，相比以前已经进步很多了，以前铁道部时代，网上购票都喊了好多年才开通。春运那么多人集中出行，放在任何一个国家都是难题，铁路运力如果要满足春运需要，至少要再投入几倍现在的规模，那春运结束怎么办，现在很多高铁线路平时上座率才多少，都是亏损。 国企亏钱的时候是我们全国人民的国企，亏的是所有纳税人的钱；国企赚钱的时候就变成他们自己的国企了，利润不上交，吸的还是纳税人的钱。参考三桶油和移动联通电信。 国企赚钱骂，国企赔钱也骂，真好 国企必须挣百姓血汗钱？他们难道不是百姓养着的？ 大舅子我要2万张 12306列表有票，点进去没票了！<br>自助取票机排队太长，有时快到了机子却坏了！ 不管怎么抢，都抢不到的，都被内部人和黄牛勾结加价卖了，我每年都是从内部人买的车票，啥票都好买，不过要加价50元… 只希望能改善改善抢票的问题 每年这样说，没年这B样 铁路部门应该清楚内部人渣，你们他妈的内部人不参与，外部人怎么捣得了票？新闻媒体也帮你们装B...... 现在好多了，1000公里以内私家车、顺风车多了 黄牛是与时俱进的，上有政策，下有对策！[大笑] 春运啊 把运力提高能解决不少问题，有着世界上最长的轨道线，可使用率有多少？ 可悲的百姓，被抢了那么多年，到现在过年回家，买个票还得靠抢！ 快要到除夕了，快些吧，除夕快乐！ 在这里喷铁路的，我想知道：你们要是回家，汽车票和飞机票好买不。如果不是，那么你们怎么不去说他们？飞机票贵，坐飞机是少数人能消费的，我可以理解。但不要告诉我，坐汽车也是少数人消费的。 废话少说，我就隔10分钟去买一次！！ 铁路运力就那么点，年年回去的人又那么多，春运是铁路造成的？年年指责铁路，怎么不去指责公路和民航？不去指责不合理的放假安排？ 抢啊！ 全世界、全宇宙，只有中国人有抢票一说，这就是所谓“特色”？ 公平购票环境这个标题不敢用了吧。真是吓死人了 应该如此！ 不管怎么抢，都抢不到的，都被内部人和黄牛勾结加价卖了，我每年都是从内部人买的车票，啥票都好买，不过要加价50元… 公平毛线，腊月十一二的票都要找黄牛才买到的 是部分而已，有钱买机票的要抢？ 不管怎么抢，都抢不到的，都被内部人和黄牛勾结加价卖了，我每年都是从内部人买的车票，啥票都好买，不过要加价50元… 国企必须挣百姓血汗钱？他们难道不是百姓养着的？ 今日开抢。这个“抢”字还真是讽刺 关于铁路春运：聪明人不用说就明白，其次一点就通，再其次说一说就明白。最后的闭上眼睛，堵上耳朵。开喷。 很快~~~ 为什么会在春节集中出行?不就是打工者农民工临时工回家看望留守老人妇女儿童么!为什么一出票就被抢完?虽然实名制了黄牛问题解决了吗? 2019年基本解决旅客购票难问题 国企亏钱的时候是我们全国人民的国企，亏的是所有纳税人的钱；国企赚钱的时候就变成他们自己的国企了，利润不上交，吸的还是纳税人的钱。参考三桶油和移动联通电信。 开骂，绝对没错 春运人流量过大，导致的问题，说到底还是人口太多了。 你把你的身份证号码给那些会上网的人帮你买！现在购票很轻松的，黄牛不存在的。 把内鬼们揪出来一网打尽，买火车票，我就有希望了，否则，坐火车将不在我的选择范围内，因为我根本买不到票。不管啥途径。 平时一般人哪有回家机会。况且现在外出得多，只有过年能聚一下。 春运火车票购票日历,大家参考下 不管哪个运输企业的运输能力都是有限的。春运是人集中出行，无论那种运输方式都消化不掉这么多的人。如果要增加运输能力，那么就要增加人员和设备。人员可以从他处调，但是增加的设备怎么办？平时放置和维护设备的成本，刚怎么办？ 用抢字，真难听！ 你跟喷子谈市场的时候，他跟你谈计划，哈哈哈哈 请问铁路总公司在网上买D、G字头车时可选座，但在网上购买其它字头车的卧铺时下铺时为什么买不到，到购票窗口去却能买的到？这是什么问题？是不是给线下走后门或什么的设计的？ 没有内鬼不会出现倒票！ 不管怎么抢，都抢不到的，都被内部人和黄牛勾结加价卖了，我每年都是从内部人买的车票，啥票都好买，不过要加价50元… 年年怎么搞都有内鬼倒票的。 人口基数太大，春节又是全国性的节日，平时假期可以不回家，但春节一定要回家，这是中国人传统的概念 如果我没看错，这配图是英国的火车站吧？小编要被扣工资了 再怎么改也是那个鸟样，难道你喝了板蓝根就可以不“早泄”了？ 实名制不是对付坏人的，是让老实人更老实。 国企赚钱骂，国企赔钱也骂，真好 一群喷子们，相比以前已经进步很多了，以前铁道部时代，网上购票都喊了好多年才开通。春运那么多人集中出行，放在任何一个国家都是难题，铁路运力如果要满足春运需要，至少要再投入几倍现在的规模，那春运结束怎么办，现在很多高铁线路平时上座率才多少，都是亏损。 不管怎么抢，都抢不到的，都被内部人和黄牛勾结加价卖了，我每年都是从内部人买的车票，啥票都好买，不过要加价50元… 按你的想法无敌了，应该去国企饭店白吃才对 什么图[微笑] 为了过年不用买火车票回家，特意在南方买套房子！想买票找黄牛，虽然加钱我感觉比火车站靠谱 宇宙的探索是离不开我的话的，只有把围绕地球公转的一切物质包括气体计算在地球体积之内才能找到地球真正的边和角，那是反引力汇聚地，是真正的真空隧道，宇宙高速路，太阳系内的动脉!把围绕太阳公转的一切物质包括气体计算在太阳体积之内才能找到恒星与恒星的边和角，那是恒星与恒星之间的真空高速隧道，找到真空隧道以近光速超光速飞行那不是个事!宇宙飞行器也不能按照飞机的二维结构原理制造，飞机是不能高速自转的，但只有高速自转才能产生真空电磁场，以近光速飞行，未来的宇宙飞行器必须按地球原理制造，八层以上结构，你看地球高速自转着前进，我们人坐在地球上有啥不适感觉吗？ retr 还nmb猎鹰-2018搞的跟真的似了真控制倒票跟1+1一样容易忽悠纯傻比呐！ 你这话根本不对！！你要两万张，但是，你要输入2万个身份证号码才行啊！！互联网科技发达，给人类带来极大的方便。 今日开抢。这个“抢”字还真是讽刺 公平公正[鄙视] 人口基数大 每年春运的票都要抢，而且都是发售后一两分钟后售完 铁老虎，吃人！ 好事多磨 不回家过年呗[微笑] 人口基数那么大，不抢能怎么整？ 大舅子我要2万张 "
    },
    "Title": "春运首日火车票今日开抢 铁总：改善旅客购票体验_网易新闻",
    "KeyWords": "春运,中国铁路总公司,铁总,火车票",
    "Article": "（原标题：春运首日火车票今开抢铁总：创造公平购票环境）中新网客户端北京1月3日电今天，2018年春运首日火车票将正式开售。今年春运从2月1日开始，到3月12日结束。中国铁路总公司日前强调，要科学合理分配资源，创造公平公正购票环境，不断改善旅客购票体验。此外，全国铁路公安机关自近日起，部署开展了为期100天的打击倒票“猎鹰-2018”战役。图表来自中国铁路总公司官方微博春运售票工作今起全面展开网购车票提前30天根据中国铁路总公司编制的“2018年铁路春运购票日历”，今年春运火车票的预售期仍延续此前规定，网络、电话最远预售期为30天，车站窗口、代售点、自动售票机最远预售期为28天。今日起，旅客就可以提前预订到农历腊月十六(2月1日)的火车票了，而除夕当天(2月15日)火车票将从1月17日开售。按照国务院办公厅此前发布的2018年部分节假日安排，今年的春节假期从2月15日开始至21日结束，共7天。按照上述假期以及往年春运购票的情况，预计2月12日至2月14日(腊月廿七到腊月廿九)的火车票最为紧俏。有出行需求的旅客可在1月14日至1月16日，通过网络或电话订票渠道抢票。就返程来说，按提前30天预售推算，1月22日起，可买正月初五返程火车票，依此类推。资料图：民众正在购买车票。中新社记者张云摄部分地区务工团体票、寒假学生票已开售在2018年春运售票工作今起全面展开之前，部分铁路局已经启动了春运务工团体票，以及寒假学生票的集中订票工作。例如，去年12月6日起，中国铁路广州局集团有限公司就启动了珠三角地区2018年春运外来工团体订票，用工规模不少于30人的企业、5人及以上自组团体均可申报。在江西，据中国铁路南昌局集团有限公司的消息，2018年外来务工人员春运团体订票工作已正式启动，南铁春运期间将在南昌、赣州、吉安、九江、鹰潭、萍乡、景德镇等车站开设专窗受理购票需求。在北京，中国铁路北京局集团有限公司自去年12月24日起开始办理2018年春运务工团体票，团体票将优先重点保障始发日期在2018年2月1日至3月12日的增开列车车票。此外，去年12月22日，中国铁路北京局集团有限公司还宣布启动了2018年寒假学生票集中订票工作。院校通过互联网提交订单，铁路部门集中配票，配票成功后，学生自助在指定网址上查询确认结果后到车站窗口、自助售票机支付票款取票。资料图：成都火车东站自助取票区。中新社记者安源摄铁总：创造公平公正购票环境改善旅客购票体验每年春运，如何能够“抢到”一张回家过年的火车票，成为很多人最为关心的事。为了保障今年春运，从去年12月以来，铁总就多次强调和部署春运售票保障工作。根据中国铁路总公司网站的消息，去年12月25日上午，中国铁路总公司党组书记、总经理陆东福到中国铁道科学研究院检查调研12306客票系统优化建设和春运售票准备工作情况。陆东福强调，加强硬件、软件和人才队伍建设，提升技术保障能力，确保网络安全万无一失。此外，他表示，要从旅客需求出发，完善售票策略，优化服务功能，充分运用大数据技术，科学合理分配资源，创造公平公正购票环境，不断改善旅客购票体验。陆东福还表示，要建立保障协调机制，坚持合署办公制度，强化应急处置，完善应急预案，加强值班值守，及时协调解决各类问题。要及时掌握旅客需求和舆情动向，引导好旅客预期。资料图：警方正在清点假火车票以及单据等。胡金力摄“猎鹰—2018”战役铁路公安重拳打击倒票据报道，为进一步净化购票环境，保障铁路运输秩序，维护旅客合法权益，全国铁路公安机关近日部署开展了为期100天的打击倒票“猎鹰—2018”战役。据统计，自“猎鹰—2018”战役开展以来，共破获倒票案件186起，抓获违法嫌疑人765名，查缴火车票2.6万余张、假火车票1.2万余张。据报道，此次打击倒票“猎鹰—2018”战役设立“线上网络、线下实体”两个战场，在前期集中开展倒票线索排查“寻迹行动”的基础上，迅速推进打击倒票“清剿行动”。据介绍，连日来，各地铁路公安机关抽调有打击倒票经验的民警组建500余支专业打击小分队，实行治安、刑侦等多部门多警种合成作战。北京、南京、乌鲁木齐等铁路公安处加强站区巡查，及时盘查清理有倒票嫌疑的“熟面孔”；哈尔滨、武威、佳木斯等铁路公安处加强对火车票代售点的检查监督，开展相关法制宣传教育。本文来源：中国新闻网责任编辑：张海桐_NN9053",
    "URL": "http://news.163.com/18/0103/00/D76EH52900018AOQ.html",
    "PublishTime": "01/03/201800:03:00",
    "Source": "Netease"
}