{
    "Title": "特朗普吁尊重民众示威权 伊朗:已认清美欺骗伎俩_网易军事",
    "PublishTime": "12/31/201711:56:58",
    "URL": "http://war.163.com/17/1231/11/D6VVQNES000181KT.html",
    "Source": "Netease",
    "KeyWords": "特朗普,伊朗,美国,美国总统",
    "Comment": {
        "Reply": 188,
        "Content": "特朗普吁尊重民众示威权是对的，不可非议，美国各大城市不是也经常有民众示威游行反特朗普吗，单说特朗普上台以来针对新政府所颁布的各项法律、法规，导致美国多个州、各个族裔、各个阶层民众的多次上街示威游行，美国又怎么啦！特朗普不是好好的，示威过后又回归平静，示威游行是各个阶层社会大众对政府施政过程中的某条或多条政令的不满的诉求的一种表现形式，是民主国家的一种再正常不过的政治生态，但为什么阿拉伯之春导致了突尼斯本•阿里、埃及穆巴拉克、利比亚卡扎菲等政权的垮台，原因是这几个国家都是搞个人崇拜和独裁统治几十年的国家，独裁国家的通病都是压制民主、舆论、民权、不尊重人权，讳疾忌医，成沉疴积弊，几十年的积怨一旦瞬间爆发，局面将不可收拾，象火山爆发一样势不可挡，这是历史的必然。坚决支持特朗普。 怎么佛山会出了你这样的傻逼？ 干死毒菜，义不容辞—— 特朗普吁尊重民众示威权 你这是不讲理 傻逼 现在只有一两个地方不可以有型了... 坚决支持特朗普 国际法规定：大使馆属于该国的领地，任何人不经允许不得擅自闯入，否则就是侵犯该国的主权。 跟贴被火星网友带走啦~ 请举出事实证明不干人事，傻逼 一楼该吃药了 谁在害怕，谁在肝颤，谁知道 那当年兵卫红火烧英国大使馆怎么算？ 坚决支持伊朗人民的正义行动！ 几年前你们广受欢迎的美爹在班加西一起跟自由的利比亚人民联欢玩烧烤的吧？ 邪恶势力迟早灭亡. 在美帝找出几个伊朗高官后代到底多困难？ 怪大使馆里的人不干人事，炸的好！ 坚决支持特朗普 炸的它们灰灰湮灭。 美国就是一个照妖镜 连自己的集团名称都要敏感屏蔽，那是做了多少丧尽天良的事情才会害怕成怎样 你这不是打这种人的脸吗？哦对了，这种人已经没脸了。 神棍永远证缺！ 华尔街示威者的下场，特朗普应该知道！哈！ 黎明前的黑暗终将被曙光照耀 一楼得脑残到什么程度才会说出那么脑残的话来。 那当年伊朗民众围攻美国大使馆，这算不算是尊重民众的示威权呢？ 100多年前西太后下令清军义和团武力攻击各国外交使团聚集地东交民巷，被国际社会视为战争罪行，各国紧急组建历史上第一个以解救危在旦夕各国外交官为目的的多国联军。成为改变中国历史一大契机 人家就能示威，不像有些国家宪法允许的都不让做 只有民主国家敢这么做 傻逼！ 邪教组织 哎，说的像中国愿意留某些人似得，永远记得哈，不让你去美国的不是中国人，而是美国的签证官和各州州长。毫无能力的人美国同样不会要，因为那会浪费纳税人的钱，留在中国闹闹骂骂没准美国还会扶持点资金，真要去了美国，记得占领华尔街会被国民警卫队暴力驱逐，那时候，没人管你什么权利。 支持觉醒的伊朗人民. 示威不是暴力 请美国尊重美国人民在美国使用机关枪、迫击炮杀人的权利 老美在垒墙，打开边界？你糊涂了吧？哈哈 干了什么阴暗的勾当被炸了？特朗普难道说错了？有些毛子的后代真恶心 请美国尊重美国人民在美国开枪杀人的权利 邪恶轴心国之一 正解 想能代表自己后再去代表别人吧 柬埔寨前不久差点也中招了，好在洪森果断平叛 请美国尊重伊朗人民自主放弃人权的愿望 炸中国大使馆美国人干的这是侵略 放开国界，看看老百姓往哪边跑！ 美国总统的话你居然说没用？ 黎明前的黑暗终将被曙光照耀 特朗普吁尊重民众示威权是对的，不可非议，美国各大城市不是也经常有民众示威游行反特朗普吗，单说特朗普上台以来针对新政府所颁布的各项法律、法规，导致美国多个州、各个族裔、各个阶层民众的多次上街示威游行，美国又怎么啦！特朗普不是好好的，示威过后又回归平静，示威游行是各个阶层社会大众对政府施政过程中的某条或多条政令的不满的诉求的一种表现形式，是民主国家的一种再正常不过的政治生态，但为什么阿拉伯之春导致了突尼斯本•阿里、埃及穆巴拉克、利比亚卡扎菲等政权的垮台，原因是这几个国家都是搞个人崇拜和独裁统治几十年的国家，独裁国家的通病都是压制民主、舆论、民权、不尊重人权，讳疾忌医，成沉疴积弊，几十年的积怨一旦瞬间爆发，局面将不可收拾，象火山爆发一样势不可挡，这是历史的必然。坚决支持特朗普。 独裁强权终究会被自由民主粉碎 是啊，伊拉克、阿富汗......相信街头闹颜色，如今都在欧罗巴洲当难民了。 这事做的不地道哈 当年误炸后，他们也只在外面扔砖头，伊朗倒好至今冲进去了…… 谁邪恶？！ 特朗普吁尊重民众示威权 伊朗政教合一的国家，一个太上皇高高在上，论欺骗伎俩，比美国明显太多，明目张胆的颠倒黑白，安拉必降罪于这帮邪恶之徒 连张作霖闯苏联使馆，都是因为苏联违背条约在先，张作霖宣布苏联使馆将不享有使馆权利了之后，才派人去闯的！<br><br>如果苏联使馆仅仅是窝藏李大钊，那张作霖就是再胆大妄为，也不会去闯苏联使馆！ 川普想搞事哦 傻逼 坚决支持特朗普 看看 那一楼解释下，为什么阿啦伯之春垮台的都是反霉的国家，霉的那些铁杆独裁为什么没有倒？ 应该是巴基斯坦 几年前你们广受欢迎的美爹在班加西一起跟自由的利比亚人民联欢玩烧烤的吧？ 国际法规定：大使馆属于该国的领地，任何人不经允许不得擅自闯入，否则就是侵犯该国的主权。 认识到就对了。 3楼你拿瓶酒到美国大街上去喝喝看，什么让你做？ “伊朗总统鲁哈尼：伊朗人有权抗议特朗普无权支持”人家这才是真正的民主。 坚决支持特朗普 为伊朗民众的勇气点赞 美国就是一个照妖镜 伊朗总统鲁哈尼：伊朗人有权抗议特朗普无权支持。这才是民主。 老美在垒墙，打开边界？你糊涂了吧？哈哈 说能够放着屁的一定是人民的敌人。 你这不是打这种人的脸吗？哦对了，这种人已经没脸了。 辽宁这货靠意想出来的恨欺骗自己 还有加泰罗尼亚。。。美国的双重标准 你说的是霉国那些铁杆独裁国吗？ 我是问3楼，那时候美国侵略伊拉克，怎么就看不到他们谴责？ 就看你喊爹，克服这种坏习惯，你爹会欣慰的！ 为什么美国不声援西班牙加泰地区的独立要求？我认为凡是人民的诉求就应该得到尊重和支持！ 那当年伊朗民众围攻美国大使馆，这算不算是尊重民众的示威权呢？ 真正能跑进去的都是有钱的人，你以为一个平头老百姓人家就要你？还不是留下受罪，都是政治手段， 人家就能示威，不像有些国家宪法允许的都不让做 美国就是一个照妖镜 拉倒吧，看看麦克阿瑟当年在美国首都如何屠杀和平示威的一战退伍老兵就知道，美国向来是说一套做一套。 只有民主国家敢这么做 不是墨西哥不放开边界，是美国不放开边界。 一楼说得精辟 二楼虽然偏激，但是，看看人家伊朗总统是怎样说的；“伊朗总统鲁哈尼：伊朗人有权抗议特朗普无权支持”。对比之下什么才是民主？ 那又能怎么样？人家可是世界老大，谁敢制裁霉国？ 哈哈，你的回帖正好证实了一楼的话 以色列特工以暴制暴 就算没有特朗普，伊朗国内有多少人等着借机闹事，数都数不过来，且看风云变幻，是谁作茧自缚吧！ 示威不是暴力 他咋不尊重巴勒斯坦人呢？害死好几个巴勒斯坦人了。 精个屁。 逃离德黑兰 用人民币，卢布，美元让世界各国挑选，自会见分晓。 请美国尊重美国人民在美国开枪杀人的权利 当时在大使馆内还有国民党党员，蒋致电张作霖全部杀无赦。 邪恶轴心国之一 可怜的中东百姓 伊朗人有权抗议，特朗普无权支持。 看看 傻逼，你以为没打到你的脸？ 看看 现代美国特朗普掌权，不管你往哪跑，也跑不进美国，因为，你是个穷鬼。哈哈哈哈哈哈 你这是不讲理 暴力袭击算是恐怖主义活动，不是示威活动 华尔街示威者的下场，特朗普应该知道！哈！ 邪恶势力迟早灭亡. 放开国界，看看老百姓往哪边跑！ 你俩这是暗黑三背台词吗？ 👍 你更是傻逼 坚决支持伊朗人民的正义行动！ 美国人有的是枪，打脸不 特朗普吁尊重民众示威权是对的，不可非议，美国各大城市不是也经常有民众示威游行反特朗普吗，单说特朗普上台以来针对新政府所颁布的各项法律、法规，导致美国多个州、各个族裔、各个阶层民众的多次上街示威游行，美国又怎么啦！特朗普不是好好的，示威过后又回归平静，示威游行是各个阶层社会大众对政府施政过程中的某条或多条政令的不满的诉求的一种表现形式，是民主国家的一种再正常不过的政治生态，但为什么阿拉伯之春导致了突尼斯本•阿里、埃及穆巴拉克、利比亚卡扎菲等政权的垮台，原因是这几个国家都是搞个人崇拜和独裁统治几十年的国家，独裁国家的通病都是压制民主、舆论、民权、不尊重人权，讳疾忌医，成沉疴积弊，几十年的积怨一旦瞬间爆发，局面将不可收拾，象火山爆发一样势不可挡，这是历史的必然。坚决支持特朗普。 伊朗人民万岁，你们终于觉醒了。 老百姓不是傻瓜！ 美国不是尊重了吗？ 你这是不讲理 美国佬真的很虚伪 当年应该那样干。因为美国干涉伊朗内政 傻逼 国际法规定：大使馆属于该国的领地，任何人不经允许不得擅自闯入，否则就是侵犯该国的主权。 干死毒菜，义不容辞—— 暴民懂个P国际法 几年前你们广受欢迎的美爹在班加西一起跟自由的利比亚人民联欢玩烧烤的吧？ 邪恶势力迟早灭亡. 特朗普吁尊重民众示威权是对的，不可非议，美国各大城市不是也经常有民众示威游行反特朗普吗，单说特朗普上台以来针对新政府所颁布的各项法律、法规，导致美国多个州、各个族裔、各个阶层民众的多次上街示威游行，美国又怎么啦！特朗普不是好好的，示威过后又回归平静，示威游行是各个阶层社会大众对政府施政过程中的某条或多条政令的不满的诉求的一种表现形式，是民主国家的一种再正常不过的政治生态，但为什么阿拉伯之春导致了突尼斯本•阿里、埃及穆巴拉克、利比亚卡扎菲等政权的垮台，原因是这几个国家都是搞个人崇拜和独裁统治几十年的国家，独裁国家的通病都是压制民主、舆论、民权、不尊重人权，讳疾忌医，成沉疴积弊，几十年的积怨一旦瞬间爆发，局面将不可收拾，象火山爆发一样势不可挡，这是历史的必然。坚决支持特朗普。 定义都不一样。 你什么时候跑，投资移民和技术移民都不行么？ 你说什么大实话 干涉内政和占领他国领土是两个意思。 收钱发帖是咋肿。 连自己的集团名称都要敏感屏蔽，那是做了多少丧尽天良的事情才会害怕成怎样 “围攻”两个字用得好。充分说明你在装傻。 黎明前的黑暗终将被曙光照耀 楼上正解，支持！！！ 民众拿着枪🔫扛着火箭炮围攻大使馆吗撒逼。 那当年伊朗民众围攻美国大使馆，这算不算是尊重民众的示威权呢？ 你究竟懂不懂国际法？什么大使馆属于该国领土？诺是一国设在外国的大使馆是本国领土，那岂不是相当于，外国割让了一块领土给设置大使馆的国家？<br><br>可笑，大使馆虽然依照国际法享有一定的外交特权，但是大使馆的全部领土都是属于大使馆所在国的领土，一寸也不属于设置大使馆的国家<br><br>就像美国在中国设置大使馆，不会因为他美在中国领土上建了大使馆，那块土地就由中国领土变成了美国领土<br><br>反过来也一样，不会因为中国在华盛顿的某块土地上建了驻美大使馆，华盛顿的那块土地就由美国领土，变成了中国领土<br><br>不懂国际法，就不要胡说八道！ 支持人民 伊朗兄弟，别理会川普，2018年我们两国和世界一起，执行联合国决议，让山姆大叔自娱自乐吧！ 邪教组织 示威不是暴力 请美国尊重美国人民在美国使用机关枪、迫击炮杀人的权利 一楼这就叫做亊实是检验真理的标准，不要打口炮，较嘴硬没用。 天下第一的流氓国家就是美国，黑与白，对与错全凭对它有利无利来决定 请美国尊重美国人民在美国开枪杀人的权利 对的 美国的说教再也骗不了人 如果没有太平洋的话 那希望特朗普先生，尊重一下占领华尔街人士的示威权利，国民警卫队的枪械和警察的警棍不该对着美国纳税人。 哎，伊朗啊，伊朗，你无论有没有选举，无论你怎么尊重本国人民的利益，都是无效的。当年伊朗的巴列维王朝，多么毒，多么狠，只要美国说他好，他就好，选什么选，和沙特，巴林，阿联酋一样，只要你用美元结算石油贸易，什么都不是事，就算你学沙特巴林屠杀游行人士，美国都能替你摆平，并且世界知名媒体一声不敢吱。 邪恶与正义。 当时不是民众进攻啊，除了美国，哪国民众可以带上去劫持外交人员的 民众拿着枪🔫扛着火箭炮围攻大使馆吗撒逼。 想能代表自己后再去代表别人吧 千万不要和国家权力家族所有或集体所有制的朕权谈权力，那是他们的S结，绝不容许任何异己触碰。 柬埔寨前不久差点也中招了，好在洪森果断平叛 支持你 又一个独裁集团准备倒闭。大量官员外逃，今天国外新闻，很多飞机飞出去了 放开国界，看看老百姓往哪边跑！ 一个小草民，担着统治者的心，搞得自己像是颜色层里的人似的。 在美帝找出几个伊朗高官后代到底多困难？ 华尔街笑了 坚决支持伊朗人民的正义行动！ 跟贴被火星网友带走啦~ 这法官怎么不去审判小布什？看楼上的谬论，明白了流氓会文化，谁也挡不住。 伊朗公开反美 那年华尔街抓了多少，起码上千人 都是大忽悠 也不能说一楼是傻逼，阉种而已 傻逼！ 哈哈尊重。美国普通人上街头抗议的被强制的时候尊重哪去了。 傻逼 就是！怪不得衰落了呢！ 国际法规定：大使馆属于该国的领地，任何人不经允许不得擅自闯入，否则就是侵犯该国的主权。 跟贴被火星网友带走啦~ 请举出事实证明不干人事，傻逼 这叫“看指挥棒支持”。 5楼长成狗样了？ 示威不是暴力 你吃屎了，好臭！ 人家的事情，老美操什么心？ 当美国民众占领华尔街和平示威时又是一副嘴脸。。 怎么佛山会出了你这样的傻逼？ 2楼，你小心点，竟然说某些人的主子不民主 轰炸呢 呵呵，相信闹颜色的扫把，如今有几个过上好日子了？你牛欢喜吃多了吧？ 炸的它们灰灰湮灭。 一楼该吃药了 美国就是一个照妖镜 傻逼找找看，相信闹颜色，如今有过上好日子的吗？ 中国32人被骗，与美国人有关吧，中国人不支持自己人，反倒支持美国了 你美国爸爸炸了我们的大使馆，算不算违反了国际法？ 示威不是恐怖暴力 是香港那个华尔街吗 也是，关进集中营这事不能忘记！ 黎明前的黑暗终将被曙光照耀 自己去了解 美国上次不是骗了中国32人得钱后，溜之大吉吗？就是希拉里得弟弟，网友不支持自己人，反倒为美国人叫好，可见美国骗子多 一楼得脑残到什么程度才会说出那么脑残的话来。 那当年伊朗民众围攻美国大使馆，这算不算是尊重民众的示威权呢？ 该是搅屎棍 新年愿望就是移民去这个邪恶的国度 炸了呢？ 应该是根‘搅屎棍’ 沙特和巴林人民的示威权何在？ 干了什么阴暗的勾当被炸了？特朗普难道说错了？有些毛子的后代真恶心 跟贴被火星网友带走啦~ 它们死后见的是它们的洋祖宗麻渴死 邪恶轴心国之一 原来你也是站在阿萨德反对派的对立面。 尊重你乐意做狗的意愿 请美国尊重美国人民在美国使用机关枪、迫击炮杀人的权利 这不正好说明你美爹的丑恶嘴脸 我看你认祖宗认的挺勤快 请美国尊重美国人民在美国开枪杀人的权利 支持觉醒的伊朗人民. 特朗普吁尊重民众示威权 正解 谁在害怕，谁在肝颤，谁知道 1620年，一种病毒在北美洲科特角登陆，这种病毒横扫千万里，所到之处一个物种几乎灭绝。 要是美军不强大，我们就跟草仙人一样，恶狗看你不顺就可以活咬死你 终于撕开了伪装 跟贴被火星网友带走啦~ 放开国界，看看老百姓往哪边跑！ 邪恶势力迟早灭亡. 美国应趁机出兵解放伊朗人民 傻逼 那当年伊朗民众围攻美国大使馆，这算不算是尊重民众的示威权呢？ 美国佬一点不老实，一直玩双标，自己国内示威就灭。 2楼怎么签个名就走 华尔街 外管局：境外提现额度调整每人每年不超10万 0.5 傻逼 示威不是暴力 国际法规定：大使馆属于该国的领地，任何人不经允许不得擅自闯入，否则就是侵犯该国的主权。 也不会忘记美国限制伊朗人入境美国的举措<br>这个也算？ 不知道伊朗宪法有没有这样的一条，不过有了而不允许也可以理解。 请美国尊重美国人民在美国开枪杀人的权利 现在只有一两个地方不可以有型了... 邪恶轴心国之一 华尔街 那是民众？ 美国唯恐天下不乱，想方设法都想让伊朗变成第二个伊拉克。让伊朗人民过着生不如死的悲惨生活。其心比煤黑。 它是个咋肿。 2楼怎么签个名就走，好歹说两句啊。 门口算国境线吧？ 抹黑、支持分裂组织、暗杀，这就是米国最常用阴暗伎俩。如果他不想跟你玩，直接就野蛮开炸 请美国尊重伊朗人民自主放弃人权的愿望 比如小黄伞 看看那边奶水足。 神棍永远证缺！ 炸中国大使馆美国人干的这是侵略 放开国界，看看老百姓往哪边跑！ ",
        "Total": 5433,
        "Link": "http://comment.war.163.com/news_junshi_bbs/D6VVQNES000181KT.html"
    },
    "Article": "资料图：特朗普连日来伊朗国内抗议活动持续发酵，针对美国白宫及美国总统特朗普等敦促伊朗政府尊重民众示威权利的言论，伊朗外交部发言人加塞米30日表示，美国官员和总统特朗普的言论毫无价值，并称伊朗民众不会给趁机煽动抗议的美国官员及特朗普以任何机会。他表示“伊朗人民不会忘记美国总统特朗普在巴勒斯坦、也门和巴林问题上违反人权的举措，也不会忘记美国限制伊朗人入境美国的举措并以各种荒谬的理由抓捕在美伊朗人的举动。他表示，伊朗民众已经认清了美国官员的欺骗伎俩和虚伪。本文来源：央视责任编辑：赵亮亮_NN6671"
}