{
    "Comment": {
        "Total": 1049,
        "Reply": 125,
        "Link": "http://comment.news.163.com/news_shehui7_bbs/D776P3Q40001875P.html",
        "Content": "虽然好看，但是还是要减肥，肥胖对身体不好，我一米七二，生完孩子，体重和身高差不多，现在一百三十五，现在看上去微微胖，还得减个15斤，脸再好看也没有身材匀称好看。也没有身体健康来的好。 这鼻子瘦下来也只是一般，哪来的颜值逆天 我感觉瘦下来也不会逆天到那儿去！ 又骗我 别的就不说了，开饭馆可是个累活儿，一点不轻松的。而且全国哪里的人都有开饭馆的吧。 白白胖胖的女人性感，很多男人喜欢 他们顶多叫混混，黑涩会还轮不到他们，每个地区的黑涩会，基本都是本地的黑白口掌权。 又骗我去杭州是吧 在中国干什么出名都发财。 别的不说，西湖真的不怎么样 拉几把倒吧 来东莞百万不是梦。 为什么一提到东北人，就人人喊打呢？ 大腿都比你腰粗。这句话就在这来的！ 918已经告诉我们了 你那地方就没有中介？没有黄牛？没有饭馆？？？ 只有傻瓜才会信，那些给什么网红送钱的到底是哪根筋出来问题呢？ 被人拍了脖子！同志了！ 170斤，算了哥搬不动 给我钱都不拍 美图ps 东北人祖籍基本上都是山东的我现在出差就在东北对他们我真是无语了 哥，你不用搬，我自己动！ 北方人在南方不会被排斥。而南方人在北方，会被排斥。这就是素质的差距。 还有大保健。威海和青岛的足疗和洗浴，小型的，基本都是东北人。 南方人的开放包容，是北方人所不具有的， 170斤，知道你们想什么 关键很多胖子瘦不下来 还有最重要的一项你忘说了 所以女人颜值很重要。 感觉东北人想干的职业，都是些不想费力就能赚钱的职业，中介、黄牛、直播、饭馆、抵押车、高利贷。。。。 这个姑娘虽然胖但是颜值在那里。如果瘦下来基本要逆天 你们那女的也想出来，可一个个长跟猴似的，转身的功夫就上树了，谁受得了？ 你TM的缺德不，东莞现在什么都没了，远远不如隔壁深圳，你还忽悠人 北三省女孩长得都不赖… 东北三大支柱产业：喊麦，快手，大秧歌 这都能上升到南北方地狱，服气了。 东北不缺这种母猪 黑涩会呢？ 加油，希望你成功挑起南北大战。 还有一个重点，东北野鸡遍布全国 没有看到关键部位，奶儿大不大呢？ 虽然好看，但是还是要减肥，肥胖对身体不好，我一米七二，生完孩子，体重和身高差不多，现在一百三十五，现在看上去微微胖，还得减个15斤，脸再好看也没有身材匀称好看。也没有身体健康来的好。 估计是你长得丑吧 虽然我觉得地狱不对，但是楼上还是笑到我了，对不起，哈哈哈哈哈哈 动不动就逆天，没看出哪里逆天了 他们顶多叫混混，黑涩会还轮不到他们，每个地区的黑涩会，基本都是本地的黑白口掌权。 又骗我去杭州是吧 在中国干什么出名都发财。 别的不说，西湖真的不怎么样 没有看到关键部位，奶儿大不大呢？ 你们那女的也想出来，可一个个长跟猴似的，转身的功夫就上树了，谁受得了？ 你那地方就没有中介？没有黄牛？没有饭馆？？？ 170斤，算了哥搬不动 不能吧虽然挺漂亮但是…… 吃半个月馒头都没瘦，别幻想了。。。保守估计300斤+ 全自动的，不用搬，且肉肥汁多... 讲真，广东人真不排外！绝大多数 这个肉鼻头，颜值怎么逆天？[鄙视] 还有最重要的一项你忘说了 感觉东北人想干的职业，都是些不想费力就能赚钱的职业，中介、黄牛、直播、饭馆、抵押车、高利贷。。。。 这个姑娘虽然胖但是颜值在那里。如果瘦下来基本要逆天 有思想的东北人南下，留守的当然是那么一些人了 东北不缺这种母猪 这次地域黑上升到南北方了？你被排斥过就说我们北方人排斥你们，那不好意思估计是你人品不好。还素质差距，你素质高吗还真没发现，这都能意淫出优越感，我也是醉了。 发这个文章还真是为了搞地域，竟然把反对搞地域的帖子删了 加油，希望你成功挑起南北大战。 哈哈哈。你要把它们气死了[大笑] 东北人祖籍基本上都是山东的我现在出差就在东北对他们我真是无语了 .....油腻 比我这个大男人还要重 问下，那个杭州纵火案消防信息公开了没有？还是就没有下文了。。。。。 中介天天怎么想着忽悠人不费力？ 瘦下来还会有你的存在吗？躺下就像一张大床，我原意出钱。 这也太胖了,不节制的结果啊...<br>肥胖不仅仅是影响美观,对健康也有影响.<br>为啥就不能控制一下自己呢... 大腿都比你腰粗。这句话就在这来的！ 水特多 为什么一提到东北人，就人人喊打呢？ 被人拍了脖子！同志了！ 挺好的。杭州很好。 既去过山东，也去过东北，都一样，没区别。山东号称孔孟之乡，现在呢，完全是另一副模样。东北70%祖籍是山东。所以如果说东北人好逸恶劳，山东人也是一副腔调。济南去过，环境差，人的素质也不高，混混遍地都是。济南的机场被黑车垄断。。。。不是地域黑，不喜勿喷。 毕竟这么胖，还敢出来晒的人不多 北方人在南方不会被排斥。而南方人在北方，会被排斥。这就是素质的差距。 还有快手 户型太大，住不起！ 颜值高是本钱 干蛤啊 所以女人颜值很重要。 亚洲黑人，宇宙蟑螂！ 都是东北人开的 北三省女孩长得都不赖… 黑涩会呢？ 确实如此出差也经常去济南青岛烟台基本上和东北人一样有时候还不如东北人 别的不懂，中介和饭馆其实很累吧 少女系列～童颜系列～千部高清系列～人马系列等＋VX❤(fyy五➌➌rt)少女系列～童颜系列～千部高清系列～人马系列等＋VX❤(fyy五➌➌rt) 首先你要长得漂亮 脸真的挺漂亮 不，我们青岛本地的，开小饭馆的（不是大型酒店），东北的最多，应该因为开饭馆不需要任何高端技术和学历文化要求。在威海也是遍地的东北人，开足疗洗浴的最多。 白白胖胖的女人性感，很多男人喜欢 默默地去淘宝搜了一下“酒窝桃子” 毕竟是胡人后代。肯定肥壮啊。 哗众取宠，小编打个赌，这姑娘要是有170你把她强了;要是没170,我把她强了。 这个样还要200？ 来东莞百万不是梦。 基本瘦不下来，否则减肥就不会是个历史性难题。而且这颜值瘦下来也不会逆天，同三楼说的，二楼你想多了。 又骗我去杭州是吧 手感好 不是每个胖子都像新闻那样只要我想减肥，马上就是花儿～ 170斤，算了哥搬不动 肉肉揉揉 一开始以为是一米七，然鹅 哥，你不用搬，我自己动！ 深圳哪里？ 二楼你想太多 垃圾媒体 肉乎乎的，好玩耶[暴怒][暴怒][暴怒] 五官不差的！减肥后，定成美女！ 感觉东北人想干的职业，都是些不想费力就能赚钱的职业，中介、黄牛、直播、饭馆、抵押车、高利贷。。。。 这个姑娘虽然胖但是颜值在那里。如果瘦下来基本要逆天 东北地！网红买笔和模特买笔都没区别！那叫的一个浪！爽 P过得，好不 额，也要看她的骨架吧，有些是骨架很粗，基本是瘦不下来的 我们楼下超时收银的一个姑娘，比她还胖，但是模样真是美女。瘦下来无敌。 又学霓虹网红直美耶 不要以偏概全 1.66米，体重120-130斤以内很好。 你TM的缺德不，东莞现在什么都没了，远远不如隔壁深圳，你还忽悠人 这鼻子瘦下来也只是一般，哪来的颜值逆天 哈哈哈哈 你可错了，在北方这都不叫胖，这就叫中等身材，要么你来北方看看，一般都人高马大的。 别的就不说了，开饭馆可是个累活儿，一点不轻松的。而且全国哪里的人都有开饭馆的吧。 地震是有原因的 听他瞎J8吹，地域有差别也没这么大，这姑娘在东北也属于胖子，东北也多得是身材窈窕的小姑娘。 我们都是明星看多了以瘦为美，正常体重，1.66-105.=61公斤，你说的是正常体重，并不算胖的 吃了半个月的馒头也没瘦，说多了都是泪啊。 918已经告诉我们了 南方人的开放包容，是北方人所不具有的， 只有傻瓜才会信，那些给什么网红送钱的到底是哪根筋出来问题呢？ 大保健呢 给我钱都不拍 这都能上升到南北方地狱，服气了。 饭馆怎么不费力了 为南方人的开放包容点赞。 老子最恶心胖子 关键很多胖子瘦不下来 御龙湾 拉几把倒吧 东北三大支柱产业：喊麦，快手，大秧歌 安徽讫丐省也都干这些，安徽讫丐还坑蒙拐骗偷，在长三角到处流窜犯案 现在南方年轻人身高不比北方低。但是北方胡杂还是胖。<br>智商方面，南方人完胜， 机遇是多么的重要 这才是球迷! 东莞还有个P呀来罗湖才是正道今天约了个邪骨场妹子做按摩[大笑] 又骗我 170斤，知道你们想什么 谁要 成都那么好嫖？ 又骗我去杭州是吧 我想知道能压死我吗 这个姑娘虽然胖但是颜值在那里。如果瘦下来基本要逆天 宇宙的探索是离不开我的话的，只有把围绕地球公转的一切物质包括气体计算在地球体积之内才能找到地球真正的边和角，那是反引力汇聚地，是真正的真空隧道，宇宙高速路，太阳系内的动脉!把围绕太阳公转的一切物质包括气体计算在太阳体积之内才能找到恒星与恒星的边和角，那是恒星与恒星之间的真空高速隧道，找到真空隧道以近光速超光速飞行那不是个事!宇宙飞行器也不能按照飞机的二维结构原理制造，飞机是不能高速自转的，但只有高速自转才能产生真空电磁场，以近光速飞行，未来的宇宙飞行器必须按地球原理制造，八层以上结构，你看地球高速自转着前进，我们人坐在地球上有啥不适感觉吗？ 来东莞百万不是梦。 有人在床上上对付过170斤吗说两句看看 感觉我也能月入十万 我要去当网红去了 是哪两招月入十万的，教我半招就行[挨揍] 胖还这么漂亮……瘦下来岂不美呆了…… 吹吧 开车起来一定爽 这种在成都200一炮 "
    },
    "Title": "170斤东北女孩独闯杭州成知名网模 月入近10万_网易新闻",
    "KeyWords": "东北,大码女装,女孩,网模",
    "Article": "（原标题：170斤东北女孩独闯杭州成知名网模，月入近10万！她想和所有胖女孩说……）一篇题为《东北煤城胖女孩170斤独闯杭州仅靠这2招月入10万一年买房！》的文章这几天在网上传得很火。这位来自东北小城七台河，吨位超过170斤的姑娘早就不做奶茶店，靠着敏锐的时尚天赋做买手，买喜欢的衣服，搭配得美美的拍照片，并且兼职淘宝大码模特，才一年时间，据说已经在杭州……买……房……了……?昨天中午，我在下沙一个商场的咖啡馆见到这位姑娘——星猩。眼睛大大的，嘴唇小小的，皮肤如剥了壳的煮鸡蛋。星猩24岁，有着东北女孩特有的爽朗，语速很快。她一点不避讳自己的体重，“身高1米66，体重确实有170多斤”，然后滔滔不绝说起个人长胖史。我家黑龙江七台河的，小时候我不胖，还蛮瘦，小学上完开始长胖的。我五六岁学舞蹈，民族舞，我妈认为可以提升气质，但我不是那种柔软的性格，比较大大咧咧，后来手崴了，舞蹈不学了，运动量一下降，可饮食的惯性还保持着，体重就突然暴增了。星猩6岁时吃是我最大的爱好。我妈一天给我两块钱，可以买很多辣条、方便面……我家门口就有个小卖店。吃得多了，体重自然就上去了，长时间稳定在170斤，巅峰时候180多斤。我今天穿的衣服你看不出来我有多胖吧？嘻嘻。胖女孩星猩进入青春期后，烦恼和坎坷接踵而至。她称自己是个“人来疯”，和一堆人唠嗑（聊天）时，她一定是话最多的那个。总想让大家开心，不冷场，用的最多的方法就是自嘲，拿自己的胖逗别人。可是一旦别人说她胖，她会回以“我就是胖怎么了”，“肉乎乎才好看啊”，“我怕我瘦下来比你还好看（大笑）”等等。“其实那段经历我是不开心的，表面上好像一个玩笑，说过就过去了，其实都沉淀在我心底了，胖对我带来的回忆，是……很不好的。”越来越多身边人劝她减肥。“太多人劝过我了，外人让你减肥，你可以不以为然，但是最好的同学朋友让你减肥，你就会反思，因为她是真的替我着想，真的觉得只有减了肥，女孩子才可能有个好归宿。”高中时星猩有喜欢的男生，但什么都没发生。大学没谈恋爱，后来的感情世界也一片空白。“我一般和男生接触着接触着就成朋友了，他们把我当哥们，觉得我很外向，和他们是一样的。”服装店营业员的眼神让她难受，“去买衣服，她们会很蔑视地跟你说，穿不了……然后我会说，给我包起来，哈哈！”路人吵架议论也会让她“躺枪”，比如她遇过男女情侣吵架，男的指着她说‘哎呀你那么胖，你的腿跟她一样粗！’坐地铁，她站着的时候，旁边经常有人评头论足，“你看她的腿……”星猩的朋友告诉我一件事，一年夏天，星猩穿着无袖上衣在人群中走，忽然有一个路人过来，从后面在她胳膊上狠狠掐了一下，然后跑了。“有一天能像个正常人就好了。”星猩说，这是她很长一段时间里的梦想，“这个正常人的含义，就是瘦一点。当个正常人，多好啊……这个东西你们瘦人是不会懂的。”她说着瞥了一眼刚过一百斤的我。“现在毕竟是论颜值的时代，如果你走在街上，你胖，没人会关心你的脸，更别提你那有趣的灵魂（笑），所以我应该瘦起来，灵魂也会有趣起来……”2016年3月，星猩想来一次说走就走的旅行。上午刚刚萌生想法，下午就买好了飞杭州的机票。西湖美景三月天，西湖吸引了这个东北女孩，让她萌生留在杭州工作生活的念头。最初想开奶茶店，交了几万块钱定金后，发现是个坑，赔了父母给的6万块本钱，最穷的时候吃了半个月馒头，不过也没瘦下来。去年4月的一个晚上，星猩坐最后一班地铁回下沙的出租屋，她戴个耳机，沮丧地坐在角落里。旁边有人拍了拍她肩膀。星猩睁开眼，摘下耳机，一看是个漂亮女孩，“当时我还在想，我不会是挤到她了吧？”漂亮女孩说：“我觉得你很漂亮，愿不愿意尝试做一下大码女装的平面模特？”星猩第一反应是，不会又遇上骗子了吧？她想起自己开奶茶店被骗的6万块钱，“或者是卖减肥药的。”不过她还是加了漂亮女孩的微信，“反正我有她两个重，她打不过我，哈哈！”一年多后，星猩成为杭州圈内知名的胖模（大码女装模特）。那天晚上在地铁上搭讪的漂亮女孩，就是她现在的老板。“酒窝桃子”创业不到一年，致力做高品质大码服装。现在公司只有星猩一个模特，每天拍她上百张照片放到网上。月入10万，在杭州买了房……这些是真的吗？我问。星猩对我的问题投以微笑，“虽然数字有点夸张，但努努力，差不太多吧！”（据我从别处了解的情况，星猩现在10万月薪可能不到一点，但5万肯定不止，今后还有很大提升空间。）房子么，她说现在还没买，但已经在打算中。“等收入稳定后吧，肯定想在杭州定居。”“我想给胖女孩带来生活的正能量，正因为你胖，你才更要打扮自己。”“我们只有一个身体，我们为什么不去爱它呢？”和过去同样体重的星猩，很享受现在的生活。本文来源：都市快报责任编辑：邵小波_NN2479",
    "URL": "http://news.163.com/18/0103/07/D776P3Q40001875P.html",
    "PublishTime": "01/03/201807:13:07",
    "Source": "Netease"
}