{
    "Source": "Netease",
    "PublishTime": "12/26/201711:22:57",
    "KeyWords": "军事,台湾,防务,军舰",
    "Title": "台又提\"大陆军事威胁\" 首度将美台军事合作台面化_网易新闻",
    "Comment": {
        "Link": "http://comment.news.163.com/news2_bbs/D6J5C6J500018AOR.html",
        "Total": 462,
        "Content": "军事震慑是肯定的 空心菜叛国 第一岛链已经冲破了，台湾还能蹦多高？蔡英文还在做美国大梦！ 前有狼后有虎，不要前怕狼后怕虎，要敢于亮剑，为了祖国统一，一举收复台湾。 台湾很嚣张 在作死， 快武统！ 支持武统！ 要稳住！台狗近来到处狂吠，也许是美国故意指使的——美又打台湾“牌”以达到其不可告人的目的！ 作死的节奏 解决台湾问题不能夜长梦多，自己给自己制造收复台湾问题越来越多。 痴人说梦而已 准备！给我打！ 对菜斩首行动 这是赤裸裸的找抽啊 蔡英文铁了心顽抗到底，解放台湾，完成祖国的统一，只有武统一条路。 武统是为一的办法。 卖国贼。 看来是要推动武统 蔡英文正在把台湾推向万劫不复 把蒋光头气醒蔡要负责… 空心菜叛国 前有狼后有虎，不要前怕狼后怕虎，要敢于亮剑，为了祖国统一，一举收复台湾。 台湾很嚣张 快武统！ 作死的节奏 痴人说梦而已 这是赤裸裸的找抽啊 看来是要推动武统 蔡英文正在把台湾推向万劫不复 军事震慑是肯定的 在作死， 支持武统！ 第一岛链已经冲破了，台湾还能蹦多高？蔡英文还在做美国大梦！ 中国武器那么多拿点来炸菜鸟🐤 解决台湾问题不能夜长梦多，自己给自己制造收复台湾问题越来越多。 要稳住！台狗近来到处狂吠，也许是美国故意指使的——美又打台湾“牌”以达到其不可告人的目的！ 准备！给我打！ 对菜斩首行动 蔡英文铁了心顽抗到底，解放台湾，完成祖国的统一，只有武统一条路。 武统是为一的办法。 卖国贼。 把蒋光头气醒蔡要负责… ",
        "Reply": 22
    },
    "Article": "（原标题：台湾又鼓吹\"大陆威胁\"明目张胆提美台军事合作）蔡英文（资料图)海外网12月26日电台湾地区防务部门26日上午发布报告，除了鼓吹“大陆军事威胁”，用图表详尽阐述自2016年以来解放军军舰、军机跨区绕台训练的航线示意图，也首度将美台军事合作台面化。据台湾联合新闻网报道，台防务部门将美台军事合作台面化，声称是因应美国总统特朗普签署“国防授权法案”对美台军售的相关章节而来。报告中还扬言，台军将发挥联合战力，使敌陷入多重困境，吓阻其不致轻启战端。报道称，在“伙伴关系”的军事合作项下，报告首度正式介绍美台军事合作，介绍台湾与美国依据“台湾关系法”作为所谓“双边关系”的准据，美国持续供售台湾所需的防卫性武器，确保台维持足够防卫能力，并建立全方位军事交流管道。报告还渲染解放军军力发展与威胁，提出“防卫固守、重层吓阻”军事战略，成立“资通电军”、编成“防空暨飞弹指挥部”，以及“P-3C型反潜机”成军等，以更具弹性的“防务组织”及新型作战兵力，提升三军联合战力。针对中国空军远海远洋训练引起海内外广泛关注，中国空军新闻发言人申进科大校回应表示，党的十九大胜利召开后，空军着眼提升新时代打赢能力，开展了一系列远海远洋训练，战机航迹不断远伸，体系能力越练越强；空军开展远海远洋训练，符合相关国际法和国际实践，这是空军的使命所在、职责所在、担当所在，合法、合理、合情，还要按照既定计划一如既往，飞得更远更深。对于之前美国国会通过的“国防授权法”涉及美台军舰互访，中国驻美公使李克新表示，这违背了《中美建交公报》的基本精神。中国驻美公使李克新此前透露，他曾告诉美国国会，如果美国派军舰去台湾，就会启动中国的《反分裂国家法》。李克新还表示，我们展现的一些肌肉或强硬的东西，跟以前没有什么太大的变化，只是现在中国的国力不一样了，我们的决心更大了。用武力来统一肯定是最后的手段，要尽最大的努力完成和平统一大业。（海外网巩浩）本文系版权作品，未经授权严禁转载。海外视野，中国立场，登陆人民日报海外版官网——海外网www.haiwainet.cn或“海客”客户端，领先一步获取权威资讯。责编：巩浩、王栋(原标题：台湾又鼓吹\"大陆威胁\"明目张胆提美台军事合作)本文来源：海外网责任编辑：杨强_NN6027",
    "URL": "http://news.163.com/17/1226/12/D6J5C6J500018AOR.html"
}