{
    "Title": "公交司机没让老人从前门下车 被辱骂吐口水15分钟_网易新闻",
    "URL": "http://news.163.com/17/1225/22/D6HLP10P0001899N.html",
    "Source": "Netease",
    "Comment": {
        "Total": 2083,
        "Reply": 155,
        "Content": "一楼说的没错，规定是死的，人是活的。一个老人要下车，车上人又不多，他来回走不安全，尤其是车在行进中，让他下去咋就不行？上海的公交车也是这样规定，前门上车后门下车，可是看到老年人前门要下的话，从来不阻止，没见一个公交车司机跟乘客发生冲突。我是东北长春的，在长春也跟沈阳一样，有人要在前门下车那是绝对不允许的，司机要骂乘客的，严重的时候就动手打起来。上海不愧是国际化大都市，处处体现大气，和谐，包容。东北人说话大，做事小气的不得了。 信，以老卖老早就该死 为老不尊 还是法律不严啊，老头老太太警察不管这个社会谁还管的了？所以，老头老太太不高兴了就闹，因为没有成本，闹完任何惩罚没有大摇大摆走了！都看过外国电影吧，俩人要打架的时候看到旁边有小孩都是移到小孩看不到的地方打的，他们是怕小孩看到效仿！再看看咱这，真是不管不顾啊，什么规定，中国人哪有什么规矩，无规矩不成方圆只是千万句流传下来的屁话中的一句而已 三星咋没炸死你个傻逼呢 你就是那个别人每次都帮你，有一次人家没帮你，你就把人臭骂那一伙的。觉得别人帮你是应该的了是不？ 那个老不死的准是你爹 司机有公司制度，人家真不容易，可能您老人家离前门进，也可能腿脚不利索，帮帮忙开下门也是情有可原，但是以你后面这样吐口水，骂人的行为来看，也不像是身体不方便的人啊，中气十足哦！ 快了，不要和一个肺癌晚期快死的人计较，三星迟早炸死他。 该死的老畜牲 打110，老头扰乱公共秩序妨碍公共安全！ 没什么车是不是行人就可以闯红灯？！ 红卫兵 有的老狗不是东西 前门下车很正常，在上海没这规矩 如果司机能一直尊守这一规定就不会有今天这一骂了！<br>手中有权高兴让你前门下，你就能前门下，不高兴你就得后门下！<br>司机也得了贪官权利病!😄！ 烂人 这种垃圾老东西应该直接拉去填埋！火化都是浪费资源！其实都知道这老东西年轻时做滴事情更缺德更没人性！！！ 规定是死的，人是活的？那还要啥规定，公务员全退休好了 嘴癌晚期了😞😞😞 傻逼 老红卫兵吧！ 他活不几天了，让他在病床上呻吟去吧 你瞅啥 信不信,这老不死的曾经就是个地痞流氓！愿这等老畜生早点死去！社会更和谐 不是老人变坏了，而是坏人变老了 我这样说大家看对不对？最终老人还是从前门下的，那司机是不是妥协了？如果早妥协是不是啥事都没了？北京前门下我没见阻拦过。所以司机缺少灵活性是主因。 无论前门是否可以下车，都不是老人辱骂15分钟的理由。 你个傻逼，脑袋进水了，你快死去吧。要发现你个傻逼坐公交车，一脚弄死你。 你好好看看内容再说，好像你多机灵似的。你也从前门下，他也从前门下，那不乱了吗。你 自古二楼出那个什么来着？ 只想说车内人不多，不影响他人下，为什么不能前门下车？<br>公交司机什么时候这么遵守规定了？ 老不死的东西 这个老不死的只要别人帮助和施援，不想少麻烦别人和尊重他人，但愿他窝在家里少出门，少浪费社会资源。 坏人老了 司机没错，这是规定 嗯，3楼说滴没错，要和谐，小孩尿急可以在车上大街上大小便，感冒发烧咳嗽吐痰忍不住有时也是无可奈何可以理解的，嗓门大点的公众场合说话当然也没法小啦然后我们就是这样被人歧视的也没什么所谓反正常态化他们习惯就好了 倚老卖老，什么玩意儿 开个前门你他妈会死啊，傻逼司机。这车又不是你家的，拿个鸡毛当令箭。有点权利就欺负老人，要是我在场大耳瓜扇你脸，穷逼一个开车的让你装 这样的人应该停止一切社会补助 确实就是那批坏人变成老不死的了！为老不尊 红小兵老喽~这要是年轻几岁就直接动手了！大批斗其实你能扛的住得 不守规矩的人是看不到规矩的 祝病魔早日战胜此老畜！ 我扇一楼个sb俩耳光也不影响其他人可以吗规定就是规定规定是拿来执行的不是拿来推翻的除非有了新的规定 你这个sb 你的脑袋像那老头 委屈奖要是1万还行，屁大点奖，谁愿意受这委屈。妈蛋的！不人生来平等么？ 这是高级黑啊，一楼。 老家伙，以老卖老，不值得尊重。 忍忍吧，你想啊万一他骂你时气犯病了倒在车上，那你不更倒霉了。 还是法律不严啊，老头老太太警察不管这个社会谁还管的了？所以，老头老太太不高兴了就闹，因为没有成本，闹完任何惩罚没有大摇大摆走了！都看过外国电影吧，俩人要打架的时候看到旁边有小孩都是移到小孩看不到的地方打的，他们是怕小孩看到效仿！再看看咱这，真是不管不顾啊，什么规定，中国人哪有什么规矩，无规矩不成方圆只是千万句流传下来的屁话中的一句而已 三星咋没炸死你个傻逼呢 特权思想作祟，大家都从后门下，怎么就不能守规矩？为什么非要给他单开一个前门？司机不开你从后门下就行了，有这气力骂人，哪里需要照顾？而且他坐的位置离前后门差不多，为什么非得从前门下？这个老东西平时就不喜欢排队习惯了，这种风气绝不能助长。特殊群里可以从前门下，否则就该坚守原则！很多人插队就是这样养成的习惯！ 不管你多大年龄，都是老不死的思维 坏人老了 司机也不是木头我们这边都是看情况前面没人上你又在前面还是可以的 快了，不要和一个肺癌晚期快死的人计较，三星迟早炸死他。 您上次强行从前门下车，被车门挤了脑袋之后，还没恢复？ 信不信,这老不死的曾经就是个地痞流氓！愿这等老畜生早点死去！社会更和谐 老人照片呢人肉看看吧？ 快了，他己经肺癌晚期了，不要跟一个快要死的计较。 对的 看完全文了嘛，老人身体健康做的位置在后门旁边，硬要往前门走要人家开门？特殊情况确实前门下无所谓可是你这样的情况要前门下理由呢？升米恩斗米仇嘛？给你行一次方便就代表你能次次前门下对嘛？ 忍忍吧，你想啊万一他骂你时气犯病了倒在车上，那你不更倒霉了。 一个坐公交🚌的老杂碎如此嚣张 这些不守规矩的人还觉得别人坏，他们觉得规矩是可以破坏的，竟然还不受处罚？？？？ 信，以老卖老早就该死 真是 这种垃圾老东西应该直接拉去填埋！火化都是浪费资源！其实都知道这老东西年轻时做滴事情更缺德更没人性！！！ 前两天我也遇到了类似的我上车老比还跟我BB说不让她下车下你大爷牙又不是拄拐的 傻逼 特权思想作祟，大家都从后门下，怎么就不能守规矩？为什么非要给他单开一个前门？司机不开你从后门下就行了，有这气力骂人，哪里需要照顾？而且他坐的位置离前后门差不多，为什么非得从前门下？这个老东西平时就不喜欢排队习惯了，这种风气绝不能助长。特殊群里可以从前门下，否则就该坚守原则！很多人插队就是这样养成的习惯！ 这和上海取消自动扶梯左行右立规则是一样的，要根据实际情况而定 设立委屈奖本身就是对人格的极大不尊重。 打110，老头扰乱公共秩序妨碍公共安全！ 我这样说大家看对不对？最终老人还是从前门下的，那司机是不是妥协了？如果早妥协是不是啥事都没了？北京前门下我没见阻拦过。所以司机缺少灵活性是主因。 你说反了车内人不多才不能允许从前门下车，毕竟遵守规则也就是走两步的事，真正人多太挤了没有办法的情况才能前门下，后面这种情况就是很多网友说的灵活运用规则 你个傻逼，脑袋进水了，你快死去吧。要发现你个傻逼坐公交车，一脚弄死你。 你好好看看内容再说，好像你多机灵似的。你也从前门下，他也从前门下，那不乱了吗。你 只想说车内人不多，不影响他人下，为什么不能前门下车？<br>公交司机什么时候这么遵守规定了？ 司机家肯定有老人，但人家的老人仅仅是老人。你家的老人是老畜生。所以养出了你这么个不明事理的杂种。 还真不是老人变坏了，而是那些坏人变老了 幸好这老家伙没撒泼死掉，不然你就倒大血霉了。 以后遇到这种，请别侮辱【老人】这俩字儿！ 看完全文了嘛，老人身体健康做的位置在后门旁边，硬要往前门走要人家开门？特殊情况确实前门下无所谓可是你这样的情况要前门下理由呢？升米恩斗米仇嘛？给你行一次方便就代表你能次次前门下对嘛？ 你们是没遇到过，在广州，人多上不了的时候，后门上，把卡往前递。人多，也会开前门，从前门下车。问题来了，说给下也是你，说不给下也是你，说规定也是你，那老人觉得这时开前门很正常，而有时司机可恶，当聋子那才是导火索，广州基本上车上都是人挤人，从前门再挤到后门，你想一下吧。明明你很有礼貌的说麻烦开下前门，司机愣是当聋子，也不说你后面下就是装哑巴，我杀人的心都有。 看完全文再喷粪 开个前门你他妈会死啊，傻逼司机。这车又不是你家的，拿个鸡毛当令箭。有点权利就欺负老人，要是我在场大耳瓜扇你脸，穷逼一个开车的让你装 寻衅滋事，有录像证据和人证，警方为什么不处理？ 红小兵老喽~这要是年轻几岁就直接动手了！大批斗其实你能扛的住得 没素质的司机,你家没老人吗 影不影响应该老人说了算，不然怎么判断？影响了那一个？所以还是3楼说的好，规矩是死的，人是活的。法律呢？那时候还是人是活的 你个穷逼，想开公交车，还没人用你呢。 肺癌晚期了 大傻逼 [喷水]别吵，因为上海公交前门下车没人说的 你个穷逼只能骑个破自行车 我扇一楼个sb俩耳光也不影响其他人可以吗规定就是规定规定是拿来执行的不是拿来推翻的除非有了新的规定 同感，三星手机也不灵便了 天朝太多坏老人了！！！ 真对 为这位受委屈的司机点赞👍 记得有一次做地铁，人不多！一老人，过来。有位置，一排座位应该是6人可做，做了5个人，还剩一个位置比较小。老人就喊大家让让，无可厚非，位置也变正常了，老人可能觉得没有家里的大沙发舒服。便开始囊囊了。旁边挨着老人的小伙便起身让走开。老人终于舒服了。我便望了他一眼，看看这样到底如何横。不巧四目相对几秒，这一下爆发了。老人不依不饶开始说我不往旁边挤不给他让位置。开始了表演：你知道我是谁嘛，你知道我干什么的嘛，老子以前是干文革的，你那个单位的？信不信我告你领导。我默默的回了一句，是的老文革都这样，请继续你的表演！没在张他，也就是不让开！车厢里的人木纳的看着这老头的狂语，木纳的看着我。 车上人多能在前面下，人少就得在后面下，公交上回有巡查员，罚款。 你就是那个别人每次都帮你，有一次人家没帮你，你就把人臭骂那一伙的。觉得别人帮你是应该的了是不？ 就是一楼这种便利思想太多了当官的位高权重他们也一样很多便利，为什么又那么痛恨贪官和腐败？？当你连这种上下车都规规矩矩的时候，大事上面更加不会有任何想法 女人内急上男厕和男人内需上你妈是完全不同的原则问题。 老不死有种你就不要座公交车，建议把这些变变坏的老不死红卫兵拉了黑名单永远不能座公交车和动车飞机 谴责司机，因为你为什么不直接开车去派出所？而让坏人逃脱。 规矩就是被没素质的人破坏的 既然允许从后门上，就应该允许从前门下。 祝病魔早日战胜此老畜！ 倚老卖老 借你老婆给我用一下，洗干净还给你。不要在意一些细节 坏人老了 按行政处罚拘留15天，应老狗身体原因免于处罚，呵呵 人老变坏 傻逼娘炮 狗日滴日本鬼子留下的种，红卫兵的残渣余孽。 如果司机能一直尊守这一规定就不会有今天这一骂了！<br>手中有权高兴让你前门下，你就能前门下，不高兴你就得后门下！<br>司机也得了贪官权利病!😄！ 老人变坏？坏人变老？ 为老不尊 嘴癌晚期了😞😞😞 上公交从不敢坐前面，有座也不敢。 倚老卖老也不对！也应该学会理解和尊重！真的是坏人变老了 呵呵，强奸犯时间短，不影响你妈其他的，为什么不能上你妈？ 坏人变老了，都是文哥时期的红卫小将，造反派，害了好多人，毁了好多遗产，让中国倒退了好几十年的那群害人之马，老了，烂了！！！！ SB 该死的老畜牲 文革余孽还没死透？ 三星咋没炸死你个傻逼呢 无论前门是否可以下车，都不是老人辱骂15分钟的理由。 上海就是，人太多了走不到后门，前门也可以下，没办法，高峰期太挤了…… 从小没家教 只想说车内人不多，不影响他人下，为什么不能前门下车？<br>公交司机什么时候这么遵守规定了？ 一边倒的向着司机，为什么？有个别老逼帮子比几岁小孩都不懂事！张口就骂！埋汰，难听，攒了一辈子难听话碰到事就全吐出来，你回骂试试吧，准是躺下！不是这疼就是住院！ 啧啧，啧啧 这个老不死的只要别人帮助和施援，不想少麻烦别人和尊重他人，但愿他窝在家里少出门，少浪费社会资源。 老不死的红卫兵 辣鸡不分青红皂白当初就应该把你蛇道墙上 上海的傻逼！日杂！ 罚款一楼给司机交我全中国的司机都可以让人从前门下 倚老卖老，什么玩意儿 开个前门你他妈会死啊，傻逼司机。这车又不是你家的，拿个鸡毛当令箭。有点权利就欺负老人，要是我在场大耳瓜扇你脸，穷逼一个开车的让你装 老有怎样？ 没什么车是不是行人就可以闯红灯？！ 你得从小学的阅读理解开始学 3楼，你妈是公交车才有钱送你去美国的！说不定我妈是你奶奶！ 文革余孽 老东西 他活不几天了，让他在病床上呻吟去吧 他想赶死去就让他先走一步吧 这就是要让座的人 老不死的东西 报警了吗 这个老杂种欠揍！一顿乱揍，看他这个老不死的还敢不敢再骂人！ 来重庆试试，只要你投诉了，随便怎么公司都要扣你钱，而且没得你趴活的 文革余孽赶紧死了，真特么垃圾。 流氓变老了 老不屎 烂人 死去吧！老东西 老畜生 红卫兵 瞅你咋嘀 骂的好！大快人心！ 前门下车很正常，在上海没这规矩 有的老狗不是东西 愿天堂没有公交车 老红卫兵吧！ 司机有公司制度，人家真不容易，可能您老人家离前门进，也可能腿脚不利索，帮帮忙开下门也是情有可原，但是以你后面这样吐口水，骂人的行为来看，也不像是身体不方便的人啊，中气十足哦！ 坏人变老！ 为老不尊，红卫兵余孽 嗯。他是祖传的！纯的 是的，他们那代没有遵守规矩的习惯 从前门下车的话，就别说老B被车撞了就算崴脚了都够司机赔个底掉 别生气，老不死就一穷鬼。气死这个老不死的 拉门 太极端，司机虽然不通人情但也不算过激呀！老人反而很极端，我觉得做人还是不要这样极端 你瞅啥 不是老人变坏了，而是坏人变老了 老而不死是为贼 没什么车是不是行人就可以闯红灯？！ 只想说车内人不多，不影响他人下，为什么不能前门下车？<br>公交司机什么时候这么遵守规定了？ 余孽：老子特么的当年打老师都不还手还怕你个开公交的？ 司机没错，这是规定 为老不尊，去死去死！ 能不能把这些长在红旗下的老杂种提前送进18层地狱 快了，全民素质的提升二十年后将有质的飞跃！ 傻逼 这样的人应该停止一切社会补助 确实就是那批坏人变成老不死的了！为老不尊 坏人变老了。。。。。 不守规矩的人是看不到规矩的 祝病魔早日战胜此老畜！ 为老不尊！ 总有些人做的事让人无语 坏人变老了 坏人老了 ",
        "Link": "http://comment.news.163.com/news2_bbs/D6HLP10P0001899N.html"
    },
    "Article": "（原标题：就因没让他从前门下老人竟辱骂司机15分钟“气得我浑身发抖无法开车，只好停车报警”）视频监控截图沈阳网图乘坐公交车，前门上后门下，这是规矩也是常识。不过沈阳一位老人在乘坐公交车时，因为司机没让他从前门下，竟然辱骂司机长达15分钟。前门下车未被允许，老人大骂公交司机“我就在这站着，太坏了，你坏透腔了，你开车就应该被车轧死。”从141路公交车上的监控视频中可以看到，一名老人正谩骂着公交车驾驶员。原来，12月18日8时45分，一位老人准备在四台子车站下车时，想从前门下车被司机刘师傅制止，从此开始了对司机长达15分钟的辱骂。“当时有一个老年人想从前门下，当时车里人不多，完全有条件走到后门去下车。而且老人骂人时怒气十足，看着不像病残或者是需要照顾的人群。”乘客王先生目睹了事情的整个经过：“老人骂起人来实在难听，但司机一直没还嘴。俩人顶牛，司机不开前门，老人不停骂人，公交车里都乱成一锅粥了。期间有乘客表示扶老人到后门下车，老人也不同意。”不但骂人，还吐口水、抢袖标为了不影响全车人的出行，刘师傅在停了两分钟后开了车。这样的举动，似乎更加激怒了老人，他先是站在驾驶室旁边，后来坐在了前门的台阶上，并一直对司机进行辱骂。当公交车行驶到黄河大街万山路站时，司机向身边乘客抱怨老人的行为。这下，彻底让老人“暴怒”了，不但向司机吐口水，并抢走了司机胳膊上的袖标。刘师傅见袖标被抢，当即报了警，这时老人走到了后门的位置。随后车上的乘客帮司机要回了袖标。由于怕耽误车上其他乘客的出行，刘师傅最终把前门打开让乘客们下了车，这名老人也跟着下车了。但下车后，老人仍站在车前，对刘师傅持续进行了一番辱骂之后，才离开。“驾驶员一声也没还嘴，但我在那坐着，听着心里也不得劲，这要是换成是我，我想我做不到司机这一点。”乘客王先生说：“老人骂的实在太难听，不但侮辱人，还有恶毒的诅咒。另外，还向司机吐口水，这实在是太不文明了。”公交车司机：不求表扬盼尊重刘师傅今年48岁，驾驶公交车已经18年。虽然事情已经过去五天了，那些辱骂的话语还在心里挥之不去。“我心里特别不好受，开这么多年车，从来没有人这么骂过我。我开了一站，寻思他骂两句也就拉倒了，我就忍了呗，结果第二站之后他还继续骂。”刘师傅心里十分委屈：“一直骂了15分钟，气得我浑身发抖无法开车，只好停在了路边报警。”同时，刘师傅也表示，前门上后门下的规定并不是死规矩，对于特殊群体是可以放行的。“但这个老人身体条件挺好的，他完全可以走到后门去。而且他当时坐的位置，距离后门还比前门要近呢。”刘师傅表示，平时驾驶公交车，司机因为乘客少给钱、逃票或者要求前门下车等情况经常有摩擦，作为公交车司机早就习惯了，也学会了忍耐，但心里不委屈是不可能的。与其被人称赞有忍耐力，他们更希望自己可以被尊重。不舒服的“委屈奖”虽然，141路公交车车队已经决定帮助刘师傅申请“委屈奖”，其实这个奖握在手里并不舒服，我们也希望，不仅仅局限在乘坐公交车这一件事情上，而是在生活中，我们都能给他人多一些理解、多一点宽容。本文来源：沈阳晚报责任编辑：李杭_BJS4645",
    "PublishTime": "12/25/201722:31:55",
    "KeyWords": "公交车,驾驶员,老人,前门"
}