{
    "PublishTime": "12/28/201708:46:34",
    "Source": "Netease",
    "Comment": {
        "Link": "http://comment.ent.163.com/ent2_bbs/D6NTNTML00038FO9.html",
        "Total": 0,
        "Reply": 0,
        "Content": ""
    },
    "Article": "蔡立儿邀做嘉宾，梁汉文一口答应。网易娱乐12月28日报道据香港媒体报道，蔡立儿将于下月7日联同香港业余管弦乐团假香港文化中心剧场举行音乐会，届时乐团会把蔡立儿的经典金曲《绝恋》、以及其他金曲如张敬轩的《青春常驻》、许廷铿的《青春颂》等重新编曲，以大提琴及管弦乐演绎。她透露邀请好友梁汉文做嘉宾，梁汉文不止一口答应，还教了她很多演唱会的经验。距离音乐会不足两个星期，蔡立儿正积极地为音乐会备战、排练，蔡立儿透露这次音乐会邀请了好友梁汉文任嘉宾：“这次是我入行以来首次个人音乐会，心情既兴奋又紧张，早几个月前已开始跟德勋跑步练气，也开始吃营养餐减肥，而最开心的就是邀请到我好朋友梁汉文（Edmond）做我音乐会嘉宾！其实早在梁汉文8月举行了个人演唱会时，我已跟他提到下年1月我有个音乐会，想邀请他做嘉宾，因为梁汉文弹得一手好钢琴，心想如果梁汉文能跟管弦乐合作一定好精彩，他二话不说已一口答应，他更加分享好多宝贵个人经验给我，叮嘱我千万不要紧张，要好好享受过程，享受在舞台上演出！要用音乐感染在场每一个观众！”而日前梁汉文跟蔡立儿及管弦乐团一齐为音乐会作排练，蔡立儿表示：“虽然之前有参与过Big4演唱会和音，但跟梁汉文相识这么久，这次才真正第一次在舞台上合唱演出。这次他选了一首别人的歌同我合唱，希望可以人到乐迷一个惊喜。”本文来源：网易娱乐责任编辑：李彤_NK4455",
    "Title": "蔡立儿演唱会邀梁汉文做嘉宾 分享开演唱会经验_网易娱乐",
    "URL": "http://ent.163.com/17/1228/08/D6NTNTML00038FO9.html",
    "KeyWords": "梁汉文,蔡立儿,演唱会"
}