{
    "PublishTime": "12/30/201720:18:00",
    "Comment": {
        "Total": 26,
        "Reply": 1,
        "Link": "http://comment.news.163.com/news2_bbs/D6UAQ3VH000187VE.html",
        "Content": "好，年轻有为 "
    },
    "Title": "民主党派换届观察:70后进入领导班子 博士大幅增加_网易新闻",
    "Source": "Netease",
    "KeyWords": "九三学社,民主党派,民盟",
    "URL": "http://news.163.com/17/1230/20/D6UAQ3VH000187VE.html",
    "Article": "（原标题：民主党派换届观察：70后进入领导班子，博士学历者大幅增加）多党合作事业的可持续发展，既需要中国共产党的坚强有力领导，也需要民主党派不断加强自身建设，打造一支政治坚定、代表性强、结构合理的干部队伍。五年一次的民主党派全国代表大会，也是一次换届的大会。11月27日至12月24日，各民主党派全国代表大会圆满召开，顺利实现新老交替：万鄂湘连任民革中央主席，丁仲礼当选民盟中央主席，郝明金当选民建中央主席，蔡达峰当选民进中央主席，陈竺连任农工党中央主席，万钢连任致公党中央主席，武维华当选九三学社中央主席，苏辉当选台盟中央主席。与此同时，在坚持德才兼备、以德为先的选人用人标准基础上，各民主党派代表大会选举、产生了新一届中央领导机构。年龄结构合理70后进入领导班子12月6日，中国民主促进会第十二次全国代表大会在京闭幕，蔡达峰当选民进中央主席。1960年6月出生的蔡达峰，是各民主党派全国代表大会选举产生的中央主席中唯一的一名60后，也是最年轻的一位。“这是一个神圣的职责，承载着时代和国家赋予的光荣使命，我必须忠诚尽力，把事业的接力棒接好。”蔡达峰说。据统计，今年各民主党派全国代表大会选举产生的新一届中央领导班子，共有主席、副主席85名，与上届持平。8位民主党派中央主席中，连任3人，新当选5人。从年龄上看，85名领导班子成员中，50后有48名，60后有37名，平均年龄58.1岁。1970年出生的潘建伟，此次当选九三学社中央副主席，也是85名民主党派中央领导班子成员中最年轻的一位。中央委员会是各民主党派的中央领导机构。此次全国代表大会共选举产生各民主党派新一届中央委员1537名、中央常委362名，他们大多出生在20世纪60年代，其中，中央委员平均年龄约为53.6岁，中央常委平均年龄约为56.2岁，年龄结构、年龄梯次比较合理。以民革为例，民革第十三届中央委员会组成人员共计220人，平均年龄53.3岁，年龄最小的39岁，55岁以下的有161人，占73.2%；常委组成人员共计46人，平均年龄55.6岁，年龄最小的47岁。党派特色明显七成拥有博士学位12月7日，北京京西宾馆。九三学社第十四届中央委员会第一次全体会议正在进行选举，伴随着选举结果的揭晓，全场响起热烈掌声。在九三学社第十四届中央委员会11位领导班子成员中，有中国科学院院士、中国工程院院士5人，九三学社界别特色尽显无余。国以才立，政以才治，业以才兴。中国共产党领导的多党合作和政治协商制度是我国的一项基本政治制度，要使多党合作伟大事业得到不断传承和延续，就必须造就一支素质优良、规模适当、结构合理的人才队伍。而民主党派中央领导班子成员，又是其中的代表性人物。记者梳理发现，由85人组成的各民主党派中央新一届领导班子中，有中国科学院院士、中国工程院院士13人，60人拥有博士学位，一批符合党派代表性的高层次专家学者被充实到新一届领导班子中，党派特色凸显。如民盟中央新任主席丁仲礼，作为地质学家的他43岁担任中科院地质与地球物理研究所所长，48岁当选中国科学院院士，2014年起担任中国科学院大学校长，他是将黄土这本大书读得最好的几个人之一，通过黄土解读了260万年来的气候变化。如九三学社中央新任主席武维华，是一位贴近教育一线的农学家，长期担任中国农业大学植物生理与生化国家重点实验室主任，致力于农业的可持续发展，在植物响应低钾胁迫的信号调控网络机理及植物钾高效性状的分子遗传机制解析方面获得了一系列重要研究成果。以民盟为例，作为以主要由从事文化教育以及科学技术工作的高、中级知识分子组成的参政党，民盟现有盟员近29万名，其中高教和普教界盟员占比达53%。在此次选举产生的新一届民盟中央领导班子成员中，主席丁仲礼担任中国科学院大学校长、副主席田刚任北京大学副校长、副主席王光谦任青海大学校长、副主席陈群任华东师范大学校长、副主席邓秀新任华中农业大学校长，其他副主席也大都有在高校工作经历，民盟高教界特色得到充分体现。而在236人组成的九三学社第十四届中央委员会中，科学技术界、高等教育界、医药卫生界（九三学社主体界别）委员达185名，博士142名，两院院士18名，保持了较高层次和较好结构，博士学历者大幅度增加，两院院士人数是近4届以来最多的。在各民主党派中央主席看来，新一届中央委员会的一项重要任务，就是做好人才队伍建设。九三学社中央主席武维华在接受记者采访时表示，九三学社不仅要着力吸纳两院院士、国家特聘专家、重点学科带头人、重大奖项和荣誉称号获得者以及其他知名专家学者，也要积极主动吸引素质好、有潜力的中青年人才；既要以科技界人才为主要发展对象，也要重视吸纳人文与社会科学专业的高级人才。同时要营造人才成长的优良环境，搭建人才成长的平台。农工党中央主席陈竺认为，在接下来的五年，要继续扩大高层次专家队伍、优化界别结构，发挥每个农工党党员的积极性，形成一支贡献国家建设和民族复兴的重要力量。任职履历丰富75%有实职工作经历“在过去的十年中，我深深感受到中国共产党对党外人士的无比信任，切实体会到人民对科技事业发展进步的重托和支持，也很荣幸能亲身体验中国共产党领导的多党合作和政治协商制度的优越性。”12月6日，连任致公党中央主席的万钢在接受记者采访时，深有感触地说到。做过农民、当过老师、留过洋、回国后做过教授、院长，2007年又被任命为科技部部长，万钢的任职履历十分丰富，也曾经历过多个岗位的历练。在各民主党派中央领导班子成员中，万钢也是唯一担任国务院组成部门正职的一位。仔细分析85位新一届民主党派中央领导班子成员的履历，记者发现共有16人在国务院有关部门、司法机关担任实职，在地方省级人民政府担任副省长、副市长、副主席。在国务院组成部门层面，除万钢外，民盟中央副主席曹卫星现担任国土资源部副部长、民建中央副主席秦博勇现担任审计署副审计长、九三学社中央副主席黄润秋现担任环保部副部长、九三学社中央副主席张桃林现担任农业部副部长。除此之外，85位领导班子成员中担任实职或有实职经历达75%。如民革中央主席万鄂湘曾任最高人民法院副院长、民建中央主席郝明金曾任监察部副部长、农工党中央主席陈竺曾任卫生部部长。领导能力都是经过不同层级、不同岗位、不同职务历练而成的，这是干部成长的规律，党内党外概莫能外。而正是由于经历不同岗位、不同职务的长期历练，新一届民主党派中央领导班子的政治把握能力、参政议政能力、组织领导能力、合作共事能力和解决自身问题能力都得到了锻炼和提升，积累了丰富的实干经验，为在新的岗位上履行职责奠定了坚实基础。“总体来看，新一届领导班子结构更加合理，个人能力和工作业绩突出。”在向记者介绍民革新一届中央领导班子时，万鄂湘说，“特别是新当选的6位同志，是民革党员中在政府及政府部门、高校、科研机构及文化艺术等领域的代表性人士和领军人物，他们的加入，使新一届中央领导班子更为坚强有力。”台盟中央新任主席苏辉曾长期在政府经济部门工作，2012年作为专职副主席进入台盟中央工作。“从政府部门到党派中央，跨度很大，我不敢有丝毫懈怠，始终用心、用情、用智地工作学习。”回首这几年的经历，苏辉动情地说，能够亲身参与多党合作事业，感受中国共产党对民主党派的信任与支持。继承优良传统，继续砥砺前行。“民建顺利完成了新老领导班子交接，接下来要筹划好换届后民建中央的工作，做到开好局、起好步，让换届换出新气象、新干劲、新作为。”民建中央主席郝明金说。“我代表民盟中央新一届领导集体庄严承诺，一定不忘合作初心，牢记历史使命，不辜负29万盟员的重托。”民盟中央主席丁仲礼说。本文来源：团结报团结网责任编辑：邵小波_NN2479"
}