{
    "PublishTime": "12/30/201710:07:30",
    "Source": "Netease",
    "Comment": {
        "Content": "希望台湾早日出现军事政变，台湾就和平统一了。祝愿中华民族繁荣昌盛！ 高级黑 你还真信国媒的话 傻逼 你上 武力解放台湾，消灭蔡英文当局 二流省市有什么好说的随便给点甜头或者压力自己就会回来了正好小蔡也很努力 国民党还有资格说这种话吗？一群草包自私分子。 国名党真是几十年如一日的煞笔 武力解放台湾，消灭蔡英文，实现祖国统一 说一套做一套 人家现在就是自己的政府自己的总统，抓紧统，不敢统是特么孙子 大金国口号？ 她是那个年代长大的，对于她来说走回头路是在回忆她的芳华 估计你也不能上，把你妈你妹你老婆送去慰安吧，也算你家为解放台湾尽了一分力。可能你家女人也能挣点补贴！ 骗尼马列隔壁了？两岸开战了吗？这就是维持现状！国民政府投降了吗？这就是现状！ 是台湾人自己选的，那她的任何所作所为都要自己承受。2楼美国总统也不是民选的，谢谢。没有一个美国公民能直接投票选总统。 就收92共识。我推荐下一次的西游记二师兄给她演。 傻逼，病的不轻 搞笑，老蔡很得人心。所以有的人很酸 哈哈哈哈……总有不知死的傻逼。 冒着胆子说句，还是和平统一的好。使用武力，死的都是中国人。 你怎么知道台湾百姓怨了？呵呵 现在说这种话都是废话，蔡英文又不是自己直接上台的，是你们台湾人民选上去的，现在到了这个地步要怨谁呢？值得你们自己去深思！ 蔡英文没搞江南案吧，也没枪毙议员吧，国民党反动派残害台湾民众，还说倒退， 全心全意为人民服务的好总统 不要着急，下台的时候，迟早会被同伙痛打落水狗的 你撒得干干净净 这些口炮去几次就知道差距了 不走威权老路，戳到国民党痛处了? 选票说话！ 让你们这些键盘侠嘴炮去收复台湾吧！ 嘴上一套手上一套，明着一套背地里一套，骗了这么久都还有人信？这些人是爱上她了吧？ 哪里能领华为手机？ 台湾人民坚决反对空心菜有妄想当终身台湾主席的想法 无可药救的空心菜。 不是我们选的呀 敢独就吴桐，主要是它们没这个胆独哦😄 活捉蔡婊，解放台湾 再也找不到比猪鼻子蔡更丑的女人了！小编挂个这家伙的图片是为了恶心我们吧！ 台湾傻子多 不走威权老路，戳到国民党痛处了? 用经济能量就赢几条街了。 私招招:克制台心庄 高级黑 你还真信国媒的话 傻逼 浓浓人情味吗？呸！别踏马恶心了 武力解放台湾，消灭蔡英文当局 人家现在就是自己的政府自己的总统，抓紧统，不敢统是特么孙子 嘴上一套手上一套，明着一套背地里一套，骗了这么久都还有人信？这些人是爱上她了吧？ 要台自愿回归 是台湾人自己选的，那她的任何所作所为都要自己承受。2楼美国总统也不是民选的，谢谢。没有一个美国公民能直接投票选总统。 傻逼，病的不轻 搞笑，老蔡很得人心。所以有的人很酸 为小康路社君增添辉煌 让台摸不着让国外想不到的计划 我有三招能收复台海 现在说这种话都是废话，蔡英文又不是自己直接上台的，是你们台湾人民选上去的，现在到了这个地步要怨谁呢？值得你们自己去深思！ 随时动手吞拼 谁不想免费领？ 这些口炮去几次就知道差距了 龟头蔡 加我的谋畸 让你们这些键盘侠嘴炮去收复台湾吧！ 这些垃圾，全部枪毙 一帖子一根大葱价 就箄台武器再多也是天天连草根都没有得尝的其中一计 你撒得干干净净 不要着急，下台的时候，迟早会被同伙痛打落水狗的 蔡寡母心，海底针，谁叫你们当初选了她。 活捉蔡婊，解放台湾 再也找不到比猪鼻子蔡更丑的女人了！小编挂个这家伙的图片是为了恶心我们吧！ 希望台湾早日出现军事政变，台湾就和平统一了。祝愿中华民族繁荣昌盛！ 用经济能量就赢几条街了。 果粉呢，快来帮忙一起喷啊 这个三八我看见她就想吐 有钱就可以买呀，中国自由买卖，怎么你难道连个手机都买不起？ 就收92共识。我推荐下一次的西游记二师兄给她演。 二流省市有什么好说的随便给点甜头或者压力自己就会回来了正好小蔡也很努力 不，是你爱上了它。撒谎大王 估计你也不能上，把你妈你妹你老婆送去慰安吧，也算你家为解放台湾尽了一分力。可能你家女人也能挣点补贴！ 希望早日统一！ 夜夜唾不安 只有围困 猪脑啊 五毛钱 全心全意为人民服务的好总统 111 没有办法，是台湾人民自己选出来的领导人 楼上家人早已伟岸四😄 台湾军变早迟点 那你去呀，用嘴说有鸟用 哪里能领华为手机？ 台湾人民坚决反对空心菜有妄想当终身台湾主席的想法 不是我们选的呀 小丑🤡 敢独就吴桐，主要是它们没这个胆独哦😄 留下名字就走了？你们还真是特别 台湾傻子多 无可药救的空心菜。 先混完这一届再说 你上 武力解放台湾，消灭蔡英文当局 遏制台湾经济发展，多消磨台湾的意志和实力，加快大陆发展，让台湾自己滚回来再严惩卖国贼。 你怎么知道台湾百姓怨了？呵呵 说一套做一套 建议中国政府早点武统台湾消灭台独畜生狗杂种们一个都不留……斩首蔡英文女畜生一族…… 冒着胆子说句，还是和平统一的好。使用武力，死的都是中国人。 呵呵 必须武力收复台湾!而且必须杀掉或赶走所以日本人及后裔!因为这些人是破坏统一坚决力量! 让你们这些键盘侠嘴炮去收复台湾吧！ 蔡英B给美国鬼子屌上引了，要跟鬼子去地府去了。 她哪来的信心说大陆一定不会武统？还是她打算搞死国民党以后，来个发夹弯直接投降？ 去死吧 哈哈哈哈……总有不知死的傻逼。 解放逻辑上不如收复顺 现在说这种话都是废话，蔡英文又不是自己直接上台的，是你们台湾人民选上去的，现在到了这个地步要怨谁呢？值得你们自己去深思！ 威权主义还在。 这是说台湾小蔡吗？ 武力解放台湾，消灭蔡英文，实现祖国统一 不要天天骂蔡，蔡是民选的。要严肃思考下那边的人们心思是怎么样的！ 维持现状5千年，，这个词很变态， 弯弯自己选的，穷也是有道理的！自己承担 武力解决台湾，消灭台毒垃圾 蔡蔡你跟国民党时代比他们很不高兴。 活捉蔡婊，解放台湾 解放台湾去不去都是自愿的吧，又没人拿枪顶着去。 选票说话！ gmd一摊烂泥，无论对手是哪种，反正gmd始终是输家 不争气的国民党……气死人 国民党还有资格说这种话吗？一群草包自私分子。 大金国口号？ 英文好樣的，國民黨反動派就是一幫你吃不記打的玩意 骗尼马列隔壁了？两岸开战了吗？这就是维持现状！国民政府投降了吗？这就是现状！ 政客较真，伤害的是无辜。 嘴上一套手上一套，明着一套背地里一套，骗了这么久都还有人信？这些人是爱上她了吧？ 去网易跟帖局领 你还当真了，也不看看新闻出处，什么中国台湾网，环球屎报的话你也能信？再说了，这是在野党国民党攻击执政党的说辞，总不能夸奖民进党吧？国民党在台湾的影响力越来越小了，党员没几个，再过个20年，台湾的年轻人更加不会认同国民党。 不走威权老路，戳到国民党痛处了? 她妈是。 蔡表姐，我支持你，作死才是硬道理。 哪里能领华为手机？ 傻逼太多，统一无望！ 不是我们选的呀 一个战略缓冲地带，哈哈 湾湾啊，自己约的炮，含着泪也要打完 总觉得她是在明独实际是在暗自得意得到推动统一的结果 不走威权老路，戳到国民党痛处了? 就现在这种两岸关系，确实是作死 国民党在大陆吃香的喝辣的，你个穷逼吃屎吧 她是那个年代长大的，对于她来说走回头路是在回忆她的芳华 爛菜 大岭昂 嘴上一套手上一套，明着一套背地里一套，骗了这么久都还有人信？这些人是爱上她了吧？ 国名党真是几十年如一日的煞笔 蔡英文没搞江南案吧，也没枪毙议员吧，国民党反动派残害台湾民众，还说倒退， ",
        "Link": "http://comment.news.163.com/news_guonei8_bbs/D6T75HHS0001875N.html",
        "Total": 1201,
        "Reply": 106
    },
    "Article": "（原标题：蔡英文称两岸不会走威权老路国民党：比扁执政还倒退）蔡英文与媒体年终茶叙。（图片来源：台湾“东森新闻云”）中国台湾网12月30日讯2017进入倒数，据台湾“东森新闻云”报道，台湾地区领导人蔡英文及副领导人陈建仁29日至桃园龙潭“中科院”研发展示馆，与媒体进行年终茶叙。对于两岸关系，蔡英文宣称，不会走回在过去国民党威权时代，不相往来的老路。对此，国民党文传会副主委洪孟楷批评，两岸关系从开放探亲至今，已经30年，若只知拿过去戒严时期相比，更比陈水扁时期还要倒退！据报道，蔡英文声称，要维持区域的和平与繁荣，两岸关系是一个重要的关键，她要请台湾民众放心，两岸关系不会暴走、不会僵住、也不会走回在过去国民党威权时代，不相往来的老路。她也宣称，“维持现状”是蔡当局不变的立场。对于蔡英文的说法，洪孟楷表示，2017年终，蔡英文谈及两岸关系，竟然是说不会退回威权时期，这种标准非但做不到“维持现状”，也比不上当“陆委会主委”时的蔡英文、更比陈水扁时期还要倒退！洪孟楷指出，两岸关系从开放探亲至今，已经30年，而蔡英文上任1年7个多月就让两岸冻结、关系宛如冰点，不思怎么改进，还只知拿过去戒严时期相比。洪孟楷批评，2017年的开头，蔡英文说要拼经济，但现在显然2017年的成绩单是不合格，而2018年如果蔡英文的期待只退缩到不会回到30年前，这种落后的思维，30年前就该被淘汰了！本文来源：中国台湾网责任编辑：张宪超_NN9310",
    "URL": "http://news.163.com/17/1230/10/D6T75HHS0001875N.html",
    "Title": "蔡英文称不会走威权老路 国民党:比陈水扁还倒退_网易新闻",
    "KeyWords": "蔡英文,国民党,陈水扁,两岸关系"
}