{
    "Title": "法国从伊拉克营救出3名儿童 系IS恐怖分子后代_网易新闻",
    "URL": "http://news.163.com/17/1229/16/D6RAMBR8000187V9.html",
    "Source": "Netease",
    "Article": "（原标题：3名儿童从伊拉克返回法国系IS恐怖分子后代）据法国联合电台12月28日报道，法国当地时间12月18日，3名法籍儿童从伊拉克飞抵法国巴黎戴高乐机场，他们是法籍IS恐怖分子的后代。其中两名小女孩分别为3岁和8岁，还有一名5岁的小男孩。他们的父亲已死亡，母亲和最小的孩子仍被囚禁在伊拉克。法国外交部表示，以维护上述3名儿童的最大利益为基础，在与伊拉克政府的协调下，这3名法国儿童已经回到国内。出于安全考虑，法外交部未给出更多细节。目前，3名儿童已托付给塞纳-圣但尼省儿童社会援助机构，还未能与外祖父母见面。他们的母亲梅丽娜的命运依旧充满未知。梅丽娜目前仍被囚禁，她已经请了一名伊拉克律师，尚不清楚是否会受到审判。律师威廉-布尔东(WilliamBourdon)表示，当务之急是治愈孩子们身体和精神上的创伤。据报道，上述3名儿童是摩苏尔战役的幸存者，伊拉克政府军于7月在废墟中发现了他们及其母亲，当时他们已忍饥挨饿多时。布尔东表示，将争取让外祖父母与孩子见面，老人非常疼爱外孙们。他指出，预计要经过一系列的评估和审核，未来几周内不会有太大进展。上述3名儿童是自“伊斯兰国”恐怖组织势力衰减后，第一批在红十字会、律师布尔东以及法国与伊拉克最近数月进行的协商下，被送回国的法国“圣战”分子后代。自2013年以来，约有60名儿童离开战区踏上回国之路。本文来源：环球时报-环球网。更多精彩，请登录环球网http://www.huanqiu.com责任编辑：韩佳鹏_NN9841",
    "PublishTime": "12/29/201716:25:00",
    "Comment": {
        "Total": 2,
        "Content": "你们不会抱着尸体边哭边说罪恶的恐怖分子吗？ 这逼装的 ",
        "Reply": 2,
        "Link": "http://comment.news.163.com/news2_bbs/D6RAMBR8000187V9.html"
    },
    "KeyWords": "恐怖分子,伊拉克,法国,恐怖组织"
}