{
    "Article": "（原标题：长沙一盗窃嫌犯专偷别墅：认为户主有钱，一夜偷走15箱茅台）别墅作为有钱人的象征，很容易被窃贼盯上，进而入室行窃。近日，（湖南长沙）开福警方就抓获了一名专门盗窃别墅的嫌疑人。“见鬼了，昨天的车不是这么停的啊。”12月15日，家住某高档别墅的裴女士一早起来发现停在院子里的宝马车被人开动过。裴女士赶紧回家检查，发现茶几上的钥匙不见了，储藏在负一楼的15箱茅台酒也不见了。接到报警后，分局刑侦大队和捞刀河派出所迅速开展调查，案发现场监控还原了嫌疑人盗窃的全过程：小偷将负一楼的窗户撬坏进到裴女士家中，到一楼茶几上拿了门钥匙和车钥匙，然后将15箱茅台酒搬到了裴女士停在院子里的宝马上，大摇大摆开车走了！20多分钟后，转移了茅台酒的小偷又将小车停回到院子里。盗窃的整个过程中嫌疑人戴着口罩、手套和眼镜，包的严严实实，现场没有留下任何线索。又因该别墅位处郊区，视频监控条件有限，嫌疑人的踪迹在出了小区后就断了。侦查员左思右想，这么多的酒，肯定要使用交通工具才可以运走，于是开始排查案发现场附近的车辆，与此同时，侦查员还将近期发生的盗窃案进行串并分析，通过各种侦查手段，进行了大量的分析研判后，终于在12月27日，确定了嫌疑人周某有重大作案嫌疑。通过连夜蹲点守候，2017年12月28日凌晨4时许，民警在芙蓉区远大路附近将盗窃嫌疑人周某抓获。本文图均为开福公安微信公众号图民警判断周某应多次作案，为确保人不漏罪、罪不漏证，依托大数据碰撞功能，加大审讯力度，嫌疑人周某供认了其流窜至岳麓区、望城区、开福区盗窃高档烟酒及名贵药材4起，获利12万多元的违法犯罪事实。经进一步深挖，将涉嫌掩饰犯罪所得的蔡某芹和朱某伟抓获，追回高档酒一箱。坐在执法办案区，嫌疑人周某说：我只偷别墅，住别墅的有钱，主人一般睡在楼上，烟酒都储藏在负一楼，很多别墅的窗户都不关。目前，该案3名嫌疑人已被开福警方依法刑事拘留，案件正在进一步办理当中。（原题为《【冬春攻势】专盗别墅小区的小偷说了这样一番话......》）(原标题：长沙一盗窃嫌犯专偷别墅：认为户主有钱，一夜偷走15箱茅台)本文来源：澎湃新闻责任编辑：荀建国_NN7379",
    "URL": "http://news.163.com/18/0103/22/D78R7BS9000187VE.html",
    "KeyWords": "盗窃,别墅,茅台",
    "PublishTime": "01/03/201822:03:00",
    "Title": "小偷夜盗15箱茅台 驾户主宝马车转移后将车送还_网易新闻",
    "Comment": {
        "Content": "盜亦有道 就算，你懂就算两个字什么意思吗？ 兄弟，15箱茅台还是“小钱”吗？我拿计算器仔细算了一下，1箱就算是两瓶吧，15箱就是30瓶了。以每瓶1600元计，30瓶等于48000元了。按照刑法规定，盗窃公私财物在三万元至十万元内的，属于“数额巨大”了。 十二箱茅台有十万？有多大 12箱茅台你说案值不大？ 这么多茅台，给灵道喝的吧？ 还把车送还，也算有点良心 盗亦有道，这个社会还无法消除罪恶，但是，请不要对善良的人和弱势群体下手 良心小偷，宝马车不要你的，只要矛台换几个小钱花，案值不大，处罚不重。要是把宝马盗了，嘿嘿，数额属特别巨大，... 也是厉害………不用户主的车，他出不去 你们家一箱酒两瓶？？ 偷一百次平民不如光顾一次别墅 就算，你懂就算两个字什么意思吗？ 估计取得事主谅解不会得什么重判因为他把车开回来了买个深刻教训 这小偷将车送回很仁义，要轻罚。 兄弟，15箱茅台还是“小钱”吗？我拿计算器仔细算了一下，1箱就算是两瓶吧，15箱就是30瓶了。以每瓶1600元计，30瓶等于48000元了。按照刑法规定，盗窃公私财物在三万元至十万元内的，属于“数额巨大”了。 历害！牛B！ 别人有车[喷水][喷水] 还把车送还，也算有点良心 重点是车他偷了也卖不出去，还容易被抓到 有纪律的小偷 也是厉害………不用户主的车，他出不去 都是有钱的哪 你们家一箱酒两瓶？？ 兄台，入室盗窃12万主犯严重的话能判10年以上，看看2017年最新刑法修正案，从犯如果不是累犯也得坐五六年牢！ 盜亦有道 嚓！真实诚！ 再乘以三倍 这就是君子爱财取子有道 12箱茅台你说案值不大？ 这么多茅台，给灵道喝的吧？ 盗亦有道，这个社会还无法消除罪恶，但是，请不要对善良的人和弱势群体下手 良心小偷，宝马车不要你的，只要矛台换几个小钱花，案值不大，处罚不重。要是把宝马盗了，嘿嘿，数额属特别巨大，... 谁跟你说年份茅台价值不大 偷一百次平民不如光顾一次别墅 ",
        "Link": "http://comment.news.163.com/news2_bbs/D78R7BS9000187VE.html",
        "Total": 2108,
        "Reply": 26
    },
    "Source": "Netease"
}