{
    "Article": "网易体育12月27日报道：在皇马0比3不敌巴萨后，科瓦契奇遭到了媒体的严厉批评。在拦截拉基蒂奇正面突破和贴防梅西上，科瓦契奇选择了后者，这导致皇马整个防线城门大开并丢掉首球。不过《阿斯报》如今指出，科瓦契奇其实不需要背锅，因为贴防梅西是齐达内给他下达的死命令。在比赛中，齐达内曾对科瓦契奇面授机宜，他的话被《阿斯报》曝光。“无论梅西在哪里，你都要一直如影随形跟着他。”齐达内对科瓦契奇下达了这样的战术指令。科瓦契奇在丢掉首球前的举动，只是遵守了齐达内的安排而已。在西超杯中，皇马曾经双杀巴萨，当时齐达内就派科瓦契奇贴身盯防梅西，并且收到了非常理想的效果。不过当时巴萨还处在战术磨合期，而且保利尼奥也还没有得到注册。如今巴萨在变阵442后更加整体化，保利尼奥的后插上成了红蓝军团极有威胁的进攻方式。巴萨已经有了巨变，齐达内却沿用了老战术，遇到困境也是情理之中的事情。在国家德比后的新闻发布会上，齐达内曾被媒体质疑过战术。齐达内的回应，是“我对自己的战术安排完全不后悔”。不过从实战效果来看，齐达内重用的科瓦契奇完全没能防住梅西，伊斯科被抢走了首发机会，他的缺席使得皇马进攻变得缺乏灵感和创造力。本文来源：网易体育作者：张琳责任编辑：朱楷正_NS4807",
    "Source": "Netease",
    "KeyWords": "梅西,齐祖,齐达内,巴萨",
    "Title": "盯死梅西!他上厕所也要跟着!齐祖下达贴膏药战术_网易体育",
    "Comment": {
        "Total": 7321,
        "Content": "4楼这个怕是个智障吧[狗] 有些人只爱看进球，其它不关心。不要试图说服别人改变立场认同你的观点，费劲。 对于那些梅黑来说，就算梅西全场进5球也是跟梅西无关的，是抱队友大腿。所以，看到他们的评论，一般无视就好。 一对一防守梅西？真是难为他了 嗯,作为键盘侠的你比梅西厉害一万倍.... 这话没错，不喜欢梅西你还看的是足球？ 要有好的心理素质。<br>媒体的造势，让大家误以为梅西过人多么可怕。<br>你不变应万变就行。<br>美洲杯上梅西根本过不去。我管你怎么假动作，就不先动。然后梅西就变成病猫了。<br>当今世界，真正难防的是C罗的爆射（爆发力十足，角度刁钻，射门突然，动作连贯），丁丁的传球（隐蔽性强，在防守凶狠著称的英超，他都能胜似闲庭信步，不愧为大师，应该是C罗之后第二人），内马尔的突破，姆巴配的综合能力。<br>梅西综合实力现阶段可以进第五。毕竟成绩在那。虽然离开巴萨体系，在阿根廷国家队碌碌无为。 这种比较博运气，如果防住梅西，那就很成功，如果没防住，就等于少一人。现在很多球队对巴萨都采用这个战术了，就是安排一人专门防梅西，不干别的。有收到成效的时候。不过要整场比赛都看着梅西，很难。如果我是主教练，我也这么干，放任梅西不管，太危险。就像阿隆索说的一样，只有把梅西看住了，双方才能势均力敌，才有的踢。 哎呀。看看南美球队怎么防守梅西的吧。看看世界杯赛场大家怎么让梅西碌碌无为的吧。<br>梅西其实就是变向。<br>站着不动，他还能骗到你？<br>你站稳底盘，他一个就过不了。<br>论过人，都不如迪马利亚。 C罗爆射我就没看到，不过原地陀螺还是有所了解 一楼四楼是同一条狗啦，它连足球是多少个面组成的都不知道，没踢过球就会吠 梅西恐惧症。科瓦+马寒洛注意力放在梅西身上，协防梅西，给了辣鸡、萝卜头空间。正是这样，成就了德比中一个如诗如画的经典、永恒画面。 齐祖意识到一直让老乡笨马背锅已经抵挡不住舆论的浪尖，于是找科瓦契奇一块背锅。输球不是科瓦契奇一个人的原因，他只是马戏团0:3甩锅的牺牲品罢了。 虽然很偏颇但有一定道理，梅西本来就是后发制人，不过世界上有几个球员敢站着不动来防梅西，一旦被过就是致命的，特别是后卫，被过了基本就等于破门 巴尔韦德不懂尊重史上最佳，也不知道专派一人去防守！ 为什么不安排专人盯c罗呢，因为他还不够资格，没有防守都能踢空 你竟然用防我罗的方法。。。 世界优秀的右后卫马塞洛都没有看透，被一楼看透了，你不踢球真是屈才了，不如你去指导国家队的防守吧 听上去阿隆索像是个梅吹，但他只是说了个事实而已！ 近十年世界足坛突破榜稳居前三的人物，就这样被键盘侠一眼看穿！这样的人只能是键盘侠！呵呵！ 喜欢不喜欢梅西，是你的偏好问题；欣赏不欣赏，是你的能力问题；承认不承认，是你的人品问题。不能欣赏梅西的人，不能叫做球迷，因为你不懂足球的美；不能承认梅西的人，一定是个心理扭曲的人，因为你故意诋毁美好的事物。 梅西九次威胁传球，直接送饼给苏牙塞梅多戈麦斯，可惜都浪费了。这还叫看防住了梅西？ 科娃：有那么一两刻，我科某竟然也恍惚起来，看着拉基蒂奇带球，仿佛回到了克罗地亚国家队…… 还是用嘴防守简单，说说就可以了。<br>“要是真想铲球......”，“直接犯规......”,“原地站着......”。<br>请参考国家德比，马塞洛。<br>另外，买个足球真的不贵。 你刷新了球迷的三观，不喜欢梅西就是伪球迷😱😱😱 退出国家队就是不忠诚？两者有什么关系？不懂别你妈瞎说！ 1v1防守梅西就等于场上少一人 后面就变成喷狗嘴里梅西抱内马尔大腿了。 1防1太难了，齐祖有点太难为人了，不然马塞洛也不会成为背景，梅西的人鞋分过。。 其实球王西罗跟垃圾西罗之间只差一个越位球的距离。如果本场裁判像欧冠裁判那样把西罗的越位球算做好球的话，恐怕现在西罗已经在人模狗样地到处炫耀他是历史第一了。各大媒体也会毫无廉耻地忽略他的越位球，而把他吹成什么完爆梅西之类的！ 这就是梅西的时代，不存在双娇。。。 还行，把梅西防的只有一个点球＋一个本不存在的助攻，这场输球不该他来背锅，希望回到主场依旧能战胜皇马 人家第一句就是喜不喜欢是偏好问题 梅西过人假动作很少的，他主要靠频率快、动作连接浑然天成、变速收放自如。说站稳底盘就能防住梅西的，简直是站着说话不腰疼，哪个防守队员敢说我动作比梅西快？而且这种情形只适合静态攻防的情况，要是梅西高速带球过来，站着不动防守，等于就是在梅西面前立个木桩而已。<br>另外还有一点，梅西的无球跑动那也是顶级的，我反复看过很多梅西的接应之后进球，发现持球队员在刚开始带球的时候，梅西离他最后射门的地点很远（根本不在危险区域）还没启动或慢跑，等到球传出来的时候他已经跑到位了。 上厕所人溜了，盯住了梅西的屎：人被晃倒了，盯住了梅西的鞋。 这很正常有些人不喜欢低调谦逊忠诚的人喜欢自大自恋高傲花心大萝卜喜欢喔行嘴圆规腿这些都是个人偏好一坨屎也会有苍蝇喜欢呢 而且你看是南京的傻逼😄 第一个丢球那两个人越看越是像在防梅西，辣鸡就那么长驱直入了 面对梅西这样的球员，就算他坐在草坪上也要安排两名后卫陪他斗地主。 虽然不喜欢发胶罗，但不能抹杀人家的地位，论天赋不如梅西，但他真的很努力，对一个用勤奋弥补天赋不足的人，要尊重。 马塞洛会不会像博阿滕一样，很长一段时间怀疑人生。 你语文确实有问题，原文是不欣赏梅西和不承认梅西，喜欢那个只是偏好。如果一个人不欣赏和承认高超的盘带，富有想象力的传球，精彩的射术，那还真不理解他看球是看什么。 很多次看到那些职业梅黑的无耻留言，我都想大声怒斥，但我最后还是忍住了。我不能和一些不懂足球、毫无是非观念的孩子或白痴一般见识。我们看球是为了快乐享受，我们评球是欣赏艺术。快乐看球，科学评球，文明交流。 对巴黎的第二回合也是这样，两三个去防梅西，内马尔边路都没人管了 勤奋的人会自称屎上第一！！？？这个勤奋的人我不喜欢。 离开国米这几年也没多大长进 何为忠诚？输球哭鼻子退出国家队叫忠诚？中国的忠诚二字就这么不值钱了？ 马🐴拉多纳虽然才165，但他有1986世界杯🏅🏆，1990世界杯银牌。2个美洲杯冠军。是世界⚽️👑。梅西三个亚军，还不是球王！14年世界杯决赛，进球被吹，心态崩了，被格策绝杀！美洲杯决赛踢飞冠军。现在阿根廷很弱，有些球队，虽然有所谓的球王，凝聚力差。所以取得不了好成绩！ 一对一防守梅西？真是难为他了 还行，把梅西防的只有一个点球＋一个本不存在的助攻，这场输球不该他来背锅，希望回到主场依旧能战胜皇马 形影不离 虽然不喜欢发胶罗，但不能抹杀人家的地位，论天赋不如梅西，但他真的很努力，对一个用勤奋弥补天赋不足的人，要尊重。 梅西站在球场上，威胁就在那。牵制的防守注意力能给队友提供很多空间，这是真的。 就服你能编一堆道理来说服自己的人，原来梅西还有123木头人的功能 喔行嘴圆规腿这些都是个人偏好 二楼是专看集锦的评论员 这种比较博运气，如果防住梅西，那就很成功，如果没防住，就等于少一人。现在很多球队对巴萨都采用这个战术了，就是安排一人专门防梅西，不干别的。有收到成效的时候。不过要整场比赛都看着梅西，很难。如果我是主教练，我也这么干，放任梅西不管，太危险。就像阿隆索说的一样，只有把梅西看住了，双方才能势均力敌，才有的踢。 形影不离 形影不离 你滚吧，臭傻逼 科娃有点崩溃，想全场贴住没吸，但没吸不跑啊！科娃纠结了：这咋贴？ 平时很少回复，看了4楼的言论，我觉得他是故意黑C罗的 退出国家队就是不忠诚？两者有什么关系？不懂别你妈瞎说！ 巴尔韦德不懂尊重史上最佳，也不知道专派一人去防守！ 球盲只会看进球，和我小学看球时一样，不会知道进攻发动机组织核心才是球队真正的灵魂。皇马核心是魔笛克罗斯双核，巴萨以前是哈白布，现在是梅布，懂得自然懂 1v1防守梅西就等于场上少一人 梅西九次威胁传球，直接送饼给苏牙塞梅多戈麦斯，可惜都浪费了。这还叫看防住了梅西？ 所以说这个判断严重错误，被媒体狂批。也许很多球员都会犯这种错误，为了照顾对方的重点球员而放弃了对持球队员的第一时间干扰盯防。 兄弟那到不至于吧…不要上纲上线。遇到着绝代双骄的时代，挺好，虽然我一直觉得C罗和梅西并不是一个档次，但是还是不错了。梅西永远只有一个，希望明天年他能成功赢得世界杯！ 你楼上说的挺客观的 教练，我工作我干，西西正常90％时间都在散步 说得有水平！ 喜欢不喜欢梅西，是你的偏好问题；欣赏不欣赏，是你的能力问题；承认不承认，是你的人品问题。不能欣赏梅西的人，不能叫做球迷，因为你不懂足球的美；不能承认梅西的人，一定是个心理扭曲的人，因为你故意诋毁美好的事物。 让任何一个后卫防守梅西，都很难，<br>他频率太快了 没必要开这先例吧 虽然很偏颇但有一定道理，梅西本来就是后发制人，不过世界上有几个球员敢站着不动来防梅西，一旦被过就是致命的，特别是后卫，被过了基本就等于破门 伯纳乌的国王都心悦诚服地写下了这样的话。 保利尼奥本来就比C罗厉害 这就是梅西的时代，不存在双娇。。。 黄毛，不拿C罗这屎上最佳跟梅西对比了？拿老马了。小黄们吃了一年的屎，马上又要长大了一岁，觉悟提高了不少嘛，恭喜恭喜。 马🐴拉多纳虽然才165，但他有1986世界杯🏅🏆，1990世界杯银牌。2个美洲杯冠军。是世界⚽️👑。梅西三个亚军，还不是球王！14年世界杯决赛，进球被吹，心态崩了，被格策绝杀！美洲杯决赛踢飞冠军。现在阿根廷很弱，有些球队，虽然有所谓的球王，凝聚力差。所以取得不了好成绩！ C罗敢还有很多无知自大的人真实特别的多。 你刷新了球迷的三观，不喜欢梅西就是伪球迷😱😱😱 巴萨怎么不专门派人盯防我罗，麻痹的完全看不起劳资我罗。 科瓦已经有冲过去拦截辣鸡了，可能是想起齐秃的授意，紧贴梅西紧贴梅西...马上又往梅西方向靠拢过来了 新晋背锅侠 这尼玛的也能地狱 防得梅西官方评分10分 估计集锦都没看。 伯纳乌国王就是梅西 1防1太难了，齐祖有点太难为人了，不然马塞洛也不会成为背景，梅西的人鞋分过。。 222222222 强行双骄 巴萨战术估计早就商量好了...梅西有的时候就是不前插，也能扯着至少两个对方防守兵力...声东击西 还行，把梅西防的只有一个点球＋一个本不存在的助攻，这场输球不该他来背锅，希望回到主场依旧能战胜皇马 不是防守的问题，还有进攻，巴萨进3个，皇马进4个，不也照样取胜么！？屎上最佳呢？ 防梅老板确实有点头痛，但欧冠瓜帅带曼城主场完虐三叉戟的巴塞 很明显，科娃是回头看了一样梅西，看到梅西往右路，然后去盯防梅西了，毕竟前面有2个中卫防守，肯定梅西威胁大啊，没想到垃圾直接奔袭了。。。 第一个丢球那两个人越看越是像在防梅西，辣鸡就那么长驱直入了 有本事梅西上厕所跟妞做爱你都跟着 2222222 世界傻逼千千万江苏占了9成半 形影不离 说这么多也轮不到你给梅西拣鞋。-拉基蒂奇 马🐴拉多纳虽然才165，但他有1986世界杯🏅🏆，1990世界杯银牌。2个美洲杯冠军。是世界⚽️👑。梅西三个亚军，还不是球王！14年世界杯决赛，进球被吹，心态崩了，被格策绝杀！美洲杯决赛踢飞冠军。现在阿根廷很弱，有些球队，虽然有所谓的球王，凝聚力差。所以取得不了好成绩！ 不能说背锅，放梅西，那拉基蒂奇就会传梅西，梅西拿球后再来补防危险更大。所以这个选择很正常 喔行嘴圆规腿这些都是个人偏好 都说了齐达内的布置跟场上球员没任何关系。他就是觉得给梅西的概率大才会那么布置。如果教练告诉你重点侧重梅西你因为没有重点防梅西，齐达内绝对不会再用你。起码你不听话 很多次看到那些职业梅黑的无耻留言，我都想大声怒斥，但我最后还是忍住了。我不能和一些不懂足球、毫无是非观念的孩子或白痴一般见识。我们看球是为了快乐享受，我们评球是欣赏艺术。快乐看球，科学评球，文明交流。 梅西看到我的鞋了吗？科瓦契奇 因为巴萨中场活力下降才能这么做。说穿了就是巴萨进攻过于依仗梅西。以前小白年轻的时候从中场就能突破，再加上三个前锋换位穿插，对方根本不会想去兑子梅西。内马尔在的时候有两个爆点，但是马儿不如梅西稳定。现在要不是保利尼奥黑又硬，能积极前插，巴萨的进攻问题会非常严重。事实上巴萨这赛季的进球数已经可以看出下滑的非常严重了。巴萨现在也是僵局，核心老化的非常严重，但是后边没有好的继任者，尤其是攻击阵容。 形影不离 就技术层面来说梅西水果第二谁敢说第一？c罗只是数据上跟梅西旗鼓相当而已 哎呀。看看南美球队怎么防守梅西的吧。看看世界杯赛场大家怎么让梅西碌碌无为的吧。<br>梅西其实就是变向。<br>站着不动，他还能骗到你？<br>你站稳底盘，他一个就过不了。<br>论过人，都不如迪马利亚。 这种就不用鸟他了，敢在我面前这样说，直接掏出大jj捣碎他的钢牙。 不是防守的问题，还有进攻，巴萨进3个，皇马进4个，不也照样取胜么！？屎上最佳呢？[骷髅] 站着不动，他还能骗到你？→→→笑死人哈<br>你要是睡在球场上，加大防守面积，梅西更加过不了你了，哎，逗啊哥们。 去淘宝呀，或者买乐视股票也行 哎！同情你 那场比赛只看了上半时，我就说梅西咋发挥机会不多，给保利尼奥创造的那机会，那停球过人传球真是牛。当时没想到是齐达内也派专人盯防了。 主教练的安排，怪球员干啥 哥，不要带给群主太大的压力😂😂😂 哈哈！相信贵球迷一定防得住梅西的两只鞋！ 马🐴拉多纳虽然才165，但他有1986世界杯🏅🏆，1990世界杯银牌。2个美洲杯冠军。是世界⚽️👑。梅西三个亚军，还不是球王！14年世界杯决赛，进球被吹，心态崩了，被格策绝杀！美洲杯决赛踢飞冠军。现在阿根廷很弱，有些球队，虽然有所谓的球王，凝聚力差。所以取得不了好成绩！ 要有好的心理素质。<br>媒体的造势，让大家误以为梅西过人多么可怕。<br>你不变应万变就行。<br>美洲杯上梅西根本过不去。我管你怎么假动作，就不先动。然后梅西就变成病猫了。<br>当今世界，真正难防的是C罗的爆射（爆发力十足，角度刁钻，射门突然，动作连贯），丁丁的传球（隐蔽性强，在防守凶狠著称的英超，他都能胜似闲庭信步，不愧为大师，应该是C罗之后第二人），内马尔的突破，姆巴配的综合能力。<br>梅西综合实力现阶段可以进第五。毕竟成绩在那。虽然离开巴萨体系，在阿根廷国家队碌碌无为。 这种比较博运气，如果防住梅西，那就很成功，如果没防住，就等于少一人。现在很多球队对巴萨都采用这个战术了，就是安排一人专门防梅西，不干别的。有收到成效的时候。不过要整场比赛都看着梅西，很难。如果我是主教练，我也这么干，放任梅西不管，太危险。就像阿隆索说的一样，只有把梅西看住了，双方才能势均力敌，才有的踢。 可以参照希丁克时期，切尔西打巴萨，要不是小白绝杀，切尔西的战术是无比成功的 二楼这孩子从没上过球场，但是非常善于用意念锁死对方，属于武当派的，动作没有气功为主。 这新闻放英超板块里。真行啊。 我要报警，快来人，汪汪汪 只有金球奖跟世界足球先生可以双娇 苏亚状态下滑很多，他状态有去年或前年的水准，本场比赛帽子戏法都是最少的了。。。本赛季很很多单刀好球打不进，是状态的问题，希望他状态回升，这样欧冠赛场上还是那个遇鬼杀鬼遇神杀神的巴萨 能连续看到两个瞎楼，还真是难得 一楼四楼是同一条狗啦，它连足球是多少个面组成的都不知道，没踢过球就会吠 虽然很偏颇但有一定道理，梅西本来就是后发制人，不过世界上有几个球员敢站着不动来防梅西，一旦被过就是致命的，特别是后卫，被过了基本就等于破门 为什么不安排专人盯c罗呢，因为他还不够资格，没有防守都能踢空 [被黑]你该不会是个傻子吧？ 目测大批球迷想直接掏出大jj塞进一楼的嘴巴，我的选择是拉泡屎喂了它。 5楼看下楼主的跟贴，十足的罗迷梅黑 梅西恐惧症。科瓦+马寒洛注意力放在梅西身上，协防梅西，给了辣鸡、萝卜头空间。正是这样，成就了德比中一个如诗如画的经典、永恒画面。 它只能吃梅西的屁 其实防梅西还是比较简单的，他不过就是速度快、能变向、脚下敏捷、视野宽广。只要你身上涂上502，管它梅西梅东的，统统粘死。————————一个足球没碰过，草坪都没踩过的球迷留 4楼好像那种自以为是看穿一切的井底之蛙，这种人太可怕了 喜欢不喜欢梅西，是你的偏好问题；欣赏不欣赏，是你的能力问题；承认不承认，是你的人品问题。不能欣赏梅西的人，不能叫做球迷，因为你不懂足球的美；不能承认梅西的人，一定是个心理扭曲的人，因为你故意诋毁美好的事物。 马🐴拉多纳虽然才165，但他有1986世界杯🏅🏆，1990世界杯银牌。2个美洲杯冠军。是世界⚽️👑。梅西三个亚军，还不是球王！14年世界杯决赛，进球被吹，心态崩了，被格策绝杀！美洲杯决赛踢飞冠军。现在阿根廷很弱，有些球队，虽然有所谓的球王，凝聚力差。所以取得不了好成绩！ 都把梅西说的那么厉害，那么邪乎，我咋不信呢，就用一个球员整场贴身把他看死，我就不行他还能飞，什么少了他一个，两队才势均力敌，老子坚决不信，老子就死缠着他，看他怎么飞 1楼[807]个顶，2楼是对着镜子说的吗？ 马塞洛一直承认梅西是当今足球界第一人 楼主，皇马拜仁尤文巴黎曼城已经盯上你了，期待你以创宇宙的纪录加盟以上各大豪门。 没想到皇马也这么干，真丢人。 [微笑] 这什么玩意 是的，任由梅西在前场溜达、突破，那是非常危险的，也是愚蠢的，肯定会被媒体和球迷骂死。但不是每个人，也不是每场比赛都能看住他，看住了最好，看不住也没办法。所以看，是正确的50%的可能。不看，梅西这种能突能传的，九死一生。 我很喜欢没戏，有可能的话，没戏的每场球我都看，可他有时候真的很没戏 只能说现在的巴萨已经摆脱梅西依赖症 梅西最后助攻那球是个越界球，不过你这段话形容梅西挺到位的 马🐴拉多纳虽然才165，但他有1986世界杯🏅🏆，1990世界杯银牌。2个美洲杯冠军。是世界⚽️👑。梅西三个亚军，还不是球王！14年世界杯决赛，进球被吹，心态崩了，被格策绝杀！美洲杯决赛踢飞冠军。现在阿根廷很弱，有些球队，虽然有所谓的球王，凝聚力差。所以取得不了好成绩！ 其实球王西罗跟垃圾西罗之间只差一个越位球的距离。如果本场裁判像欧冠裁判那样把西罗的越位球算做好球的话，恐怕现在西罗已经在人模狗样地到处炫耀他是历史第一了。各大媒体也会毫无廉耻地忽略他的越位球，而把他吹成什么完爆梅西之类的！ 世界上没有人能靠一个人防住梅老板 兄弟，<br>法律意识如此淡薄，<br>迟早要吃亏啊！ 皇马教练一般都不会在任上承认梅西是最佳。但是在布置防守任务时却总是把梅西当作最大的威胁来针对。这不就是嘴上说不要，身体却很诚实的典范吗？ 楼上兄弟不可以这样说的，没钱买球省吃俭用怎么着也能攒出来一个，关键是智商不够你让他怎么充值 1防1太难了，齐祖有点太难为人了，不然马塞洛也不会成为背景，梅西的人鞋分过。。 马德里媒体都没一家说那球出界了 可怜的四楼为了贬低梅西这话都敢说，无知者无畏啊！难道这么多顶级球员、教练没你有经验？夏虫语冰、坐井观天，这才是C罗的真正脑残粉！ 托雷斯：敢问我两个欧洲杯一个世界杯，我可否称王 1楼说完我还想反驳两句，但是看完他在4楼说的话，真是忍不住想笑，借3楼一句话，足球真的不贵，买一个没事踢踢！ 马🐴拉多纳虽然才165，但他有1986世界杯🏅🏆，1990世界杯银牌。2个美洲杯冠军。是世界⚽️👑。梅西三个亚军，还不是球王！14年世界杯决赛，进球被吹，心态崩了，被格策绝杀！美洲杯决赛踢飞冠军。现在阿根廷很弱，有些球队，虽然有所谓的球王，凝聚力差。所以取得不了好成绩！ 兑子战术 1v1防守梅西就等于场上少一人 第一个丢球那两个人越看越是像在防梅西，辣鸡就那么长驱直入了 上帝啊，给皇马来个小罗这样的球员吧 本来就是兑子战术，仔细看丢球前，科瓦契奇完全不在皇马体系内，就是死跟着梅西。博一把，如果真能限制住，那皇马赢面就很大，好像超级杯两回合一样。 确实苏亚战力下降明显，希望只是暂时的，恢复不了状态也就这一年左右的时间给他了。 马🐴拉多纳虽然才165，但他有1986世界杯🏅🏆，1990世界杯银牌。2个美洲杯冠军。是世界⚽️👑。梅西三个亚军，还不是球王！14年世界杯决赛，进球被吹，心态崩了，被格策绝杀！美洲杯决赛踢飞冠军。现在阿根廷很弱，有些球队，虽然有所谓的球王，凝聚力差。所以取得不了好成绩！ 你人品不行 关键现在你站着不动可以，梅西现在绝技是直塞身后，没人紧逼情况下传球精准度你自己看看吧，九次准单刀 死了 这么牛逼咋不请你当后卫呢？吹牛逼谁都会，不是瞧不起你，梅西能把你过成狗！！ 你是傻逼 我去，世界上百分之九十的人都不知道梅西是谁，他们都有问题？ 这就是梅西的时代，不存在双娇。。。 那个球他如是不防梅西，球交给梅西后没有防麻烦更大，这不是科瓦一个人的问题，不能怪他。 然并卵 这个说法就不事实求是了，马塞洛明明成功防住了梅西的鞋啊。 哎呀。看看南美球队怎么防守梅西的吧。看看世界杯赛场大家怎么让梅西碌碌无为的吧。<br>梅西其实就是变向。<br>站着不动，他还能骗到你？<br>你站稳底盘，他一个就过不了。<br>论过人，都不如迪马利亚。 没有两个人根本挡不住 你这水平不去给齐达内、木鸟上课实在太可惜了 一对一防守梅西？真是难为他了 嗯,作为键盘侠的你比梅西厉害一万倍.... 你可真是厉害了 这很正常有些人不喜欢低调谦逊忠诚的人喜欢自大自恋高傲花心大萝卜喜欢喔行嘴圆规腿这些都是个人偏好一坨屎也会有苍蝇喜欢呢 你刷新了球迷的三观，不喜欢梅西就是伪球迷😱😱😱 我是梅西球迷都看不过去了，你这说的也太恶心人了 这种比较博运气，如果防住梅西，那就很成功，如果没防住，就等于少一人。现在很多球队对巴萨都采用这个战术了，就是安排一人专门防梅西，不干别的。有收到成效的时候。不过要整场比赛都看着梅西，很难。如果我是主教练，我也这么干，放任梅西不管，太危险。就像阿隆索说的一样，只有把梅西看住了，双方才能势均力敌，才有的踢。 金华火腿常常秀下限，其实连足球都没见过 站着不动一楼说的是某罗吧。以梅西的加速度和爆发力，站着不动一下被他抹过去 人鞋分过……@！#￥ 别骂他了，现在应该在医院吃消炎药吧，毕竟脸肿得那么厉害 恭喜一楼获得2018年中国金球奖。阿拉巴和马塞洛看到你的评论，如醍醐灌顶，悔不当初。当时就应该站着不动，用眼睛盯着梅西，嘴里念着你过不了你过不了你过不了。然后梅西就不知所措，一慌就把球传出边线了。 梅西恐惧症。科瓦+马寒洛注意力放在梅西身上，协防梅西，给了辣鸡、萝卜头空间。正是这样，成就了德比中一个如诗如画的经典、永恒画面。 不能欣赏梅西的人，不能叫做球迷。。。完了，梅吹巴沟的世界观崩塌了 虽然很偏颇但有一定道理，梅西本来就是后发制人，不过世界上有几个球员敢站着不动来防梅西，一旦被过就是致命的，特别是后卫，被过了基本就等于破门 你只能封住梅西一两场！ 你竟然用防我罗的方法。。。 如果这球科瓦去防辣鸡导致梅西拿球形成威胁，那不光是球迷，教练都不会原谅他。 浙江金华这货怎么到处秀自己下限 尾形最新作男主角 其实那球他顶上去防拉起底气球一定会给到梅西，结果或许也是一样的 [大笑] 站着不动？球盲的弱智大脑非一般蠢猪可以比~~~ 保利尼奥真是超值啊 不喜欢是个人偏好一坨屎也会有苍蝇喜欢的 还是用嘴防守简单，说说就可以了。<br>“要是真想铲球......”，“直接犯规......”,“原地站着......”。<br>请参考国家德比，马塞洛。<br>另外，买个足球真的不贵。 你最后一句是你整段评论的败笔。 这就两难了，要不要安排人防梅西，不要就等于送死，防了就有很大空档，之所以MSN那么恐怖，就是因为三个人都不是吃干饭的，你要防，梅西标配是三人，内马尔至少要两个，我擦，忘记苏牙了，他虽然过人一般，射门那一脚世界顶级，怎么防？所以，现在巴萨就缺个内马尔一样的，希望登贝莱能踢出来，恐怖的三叉戟又会回来。 辣鸡应该反省一下，人家打心底看不起你，就让你带球前进能咋地。还好结果不错，不然辣鸡要怀疑人生 说的真好听 一个兑子战术解释的这么详细:) 转体180 哈哈，你牛，梅西带球推进你站着不动？ 从卡纳瓦罗、卡洛斯到现在的拉莫斯、马塞洛，一代又一代的皇马后卫，哪个没被梅西过掉过，他们都没你聪明？还记得美洲杯上那张经典照片吗？智利队11个人形成了一个包围圈，梅西在中间，他的队友不知道干嘛去了！ 站着不动一步就趟过你了 1防1太难了，齐祖有点太难为人了，不然马塞洛也不会成为背景，梅西的人鞋分过。。 这个金华的头头是道，把自己都骗过去就吧[窃笑] 你跟一个刷存在感的较真？翻翻他的历史贴你就明白了 还行，把梅西防的只有一个点球＋一个本不存在的助攻，这场输球不该他来背锅，希望回到主场依旧能战胜皇马 梅西西甲17场拿到了12个全场最佳，如果只看进球那顶多能拿两三个。 你再仔细看看第二个进球，梅西策动进攻，左脚准确找到高速插上的苏牙之前，卡瓦哈尔一直盯着梅西，完全没看到侧后方插上的苏牙，才导致皇马防线被一举撕裂 这总结得真的很实事求是！！！！ 上厕所人溜了，盯住了梅西的屎：人被晃倒了，盯住了梅西的鞋。 厂家批发球玉专用广告牌高度调节工具，厂家甩卖退队通知书打印机，球玉球王皆可用；买就送莫斯科足球影视学院学费5折劵一张！ 是啊,第2个球就是没贴防梅西,结果给苏神送了2个准单刀..虽然2次都没打进,但是后面也造成了红点套餐. 第一个丢球那两个人越看越是像在防梅西，辣鸡就那么长驱直入了 面对梅西这样的球员，就算他坐在草坪上也要安排两名后卫陪他斗地主。 是很难，看过巴萨比赛的人个个都知道。精准的威胁传球，自己能射门，还很无私，不论是主力还是替补球员，他都能做球，很是厉害。 我早就说过，C罗和梅西本来就不是一个人档次的，没办法，皇马一直都比较会包装，把C罗包装出来强行双娇。<br>不过，真正懂球的踢过球的都明白，梅西足球智商和技术一直是全方位的碾压C罗。可能的确独霸一个时代太孤独了吧，国际足联也乐意推一下C罗来博得更多的噱头和关注。<br>我也踢球，说实话我的技术风格其实更像C罗：速度快、风车踩的骚、门前嗅觉好、喜欢强行超车过人、射术也不错，当然长得也帅。要是没有梅西，我肯定是C罗的脑残粉。<br>奈何已经有了梅西，哪怕从C罗身上看到了我年轻时的影子，C罗也只能在我心里排第二了。 喜欢不喜欢梅西，是你的偏好问题；欣赏不欣赏，是你的能力问题；承认不承认，是你的人品问题。不能欣赏梅西的人，不能叫做球迷，因为你不懂足球的美；不能承认梅西的人，一定是个心理扭曲的人，因为你故意诋毁美好的事物。 说来说去，巴萨就是多了一个暴力鸟 最炫霉侏风<br>汪！吐！碎！佛！<br>百万的税款是我的爱，<br>芭莎的生长素是我等待，<br>什么样的大门它射呀射不开，<br>什么样的干爹才是最牛掰。<br>决赛点球飞机打下来，<br>退出国家队不和你们玩，<br>教练队友背锅是我在耍大牌，<br>一路边走边呕才是最自在，<br>我们要吐就要吐得最痛快！<br>你是我天边飞机的舞台，<br>让我一脚把你打下来（打下来）！<br>悠悠的唱着最炫的霉侏风，<br>赶忙退队不带你们玩（不带玩）！<br>你是我心中最美的税款，<br>亲爹出马把你偷下来（偷下来）！<br>永远都唱着最炫的霉侏风，<br>当了罪犯不用做劳改（偷下来）！<br>（哟啦啦呵啦呗）<br>（伊啦嗦啦呵啦呗呀）<br>我听见你呕吐动人的天籁，<br>下次点球照样飞天台~ 在非洲啃泥土还是啃树皮！🐕 马塞洛会不会像博阿滕一样，很长一段时间怀疑人生。 1v1防守梅西就等于场上少一人 你语文确实有问题，原文是不欣赏梅西和不承认梅西，喜欢那个只是偏好。如果一个人不欣赏和承认高超的盘带，富有想象力的传球，精彩的射术，那还真不理解他看球是看什么。 二楼，你和这二傻子说话还打这么多字累不累？ 还应该加一个站梅西后面看 这话没错，不喜欢梅西你还看的是足球？ 1楼瞎扯淡吧。不说梅西，就你们校队的带球在你面前，他假动作你不动作？？不动别人就真过去了。你启动还来得及？？ 哎呀。看看南美球队怎么防守梅西的吧。看看世界杯赛场大家怎么让梅西碌碌无为的吧。<br>梅西其实就是变向。<br>站着不动，他还能骗到你？<br>你站稳底盘，他一个就过不了。<br>论过人，都不如迪马利亚。 2楼脑残智障！ 一对一防守梅西？真是难为他了 你可以不喜欢巴萨，你可以是罗密，皇迷，但是不可以不喜欢梅西，我实在想象不到，什么样的人会不喜欢梅西却自称球迷，你在哪片操场踢球的时候喊一声梅西是垃圾试试，看看会不会被旁边踢球的打死 盯梅西等于少一个人，<br>不盯梅西等于0：1落后 齐达内真傻，把智利中后场全买来就能防住梅西了。 梅西：没所谓，我们引进了一个xjbt的中超巨星，就解决了。 这种比较博运气，如果防住梅西，那就很成功，如果没防住，就等于少一人。现在很多球队对巴萨都采用这个战术了，就是安排一人专门防梅西，不干别的。有收到成效的时候。不过要整场比赛都看着梅西，很难。如果我是主教练，我也这么干，放任梅西不管，太危险。就像阿隆索说的一样，只有把梅西看住了，双方才能势均力敌，才有的踢。 然后呢 呵呵呵能说出这样的话是多么的无知啊 对于那些梅黑来说，就算梅西全场进5球也是跟梅西无关的，是抱队友大腿。所以，看到他们的评论，一般无视就好。 球盲只会看进球，和我小学看球时一样，不会知道进攻发动机组织核心才是球队真正的灵魂。<br>皇马核心是魔笛克罗斯双核，巴萨以前是哈白布，现在是梅布，懂得自然懂 哎呀。看看南美球队怎么防守梅西的吧。看看世界杯赛场大家怎么让梅西碌碌无为的吧。<br>梅西其实就是变向。<br>站着不动，他还能骗到你？<br>你站稳底盘，他一个就过不了。<br>论过人，都不如迪马利亚。 现在一对一能防住梅西的在足球界乃至上个世纪恐怕没人防的住球感真他妈叼C罗都不够配和梅西比虽然金钱奖都一样。 马后炮，以皇马现在锋无力和体能状况，换伊斯科上也没用。这场比赛上半场以大量消耗体能为代价搏一下的战术是对的，但下半场应该务实的收回来，因为体能不足以支撑上半场的战术了。其实皇马的下半场即使不被罚下一人，也是被吊打的节奏，齐达内的预判和调整能力和顶级名帅如里皮有差距，真正的问题在这。 梅西恐惧症。科瓦+马寒洛注意力放在梅西身上，协防梅西，给了辣鸡、萝卜头空间。正是这样，成就了德比中一个如诗如画的经典、永恒画面。 重点是尽量减少梅西拿球。 你要上去放辣鸡，传给梅西也一样是死。回头更得背锅。<br>虽然丢球了，但牢牢的防住了梅西，这就没你事儿了 梅西在场上站着不动，对手都惧怕都要盯防，因为你不知道他什么时候突然加速杀你一个措手不及 话不能这么说，梅西又不是钻石，不可能人人都喜欢。但单纯从足球角度来说，梅西踢的无疑是最好的足球 没想到齐达内也用这战术？全世界的教练几乎都想到死盯梅西战术，最后都然并卵，自己队还相当少一人。 什么鬼看一楼id见皇马球员素质 现在一对一能防住梅西的在足球界乃至上个世纪恐怕没人防的住球感真他妈叼C罗都不够配和梅西比虽然金钱奖都一样。 基本如此。喜欢💩螺的大多是伪球迷 喜欢不喜欢梅西，是你的偏好问题；欣赏不欣赏，是你的能力问题；承认不承认，是你的人品问题。不能欣赏梅西的人，不能叫做球迷，因为你不懂足球的美；不能承认梅西的人，一定是个心理扭曲的人，因为你故意诋毁美好的事物。 科娃看到梅西就过去跟了，拉基都愣了，一个龟速奔袭。。。 虽然不懂，但是不要咬文嚼字，在wy喷梅西的人你十年的工资有人一个月高吗，喷的起劲梅西又没受到什么伤害，少自欺欺人了给自己留点脸，还给网络一个干净。每天yy梅西怎么怎么，其实没啥用，带动不了什么水滴般的浪 防胡静好防 不喜欢梅球王的人都不会欣赏足球，正常哪一个球迷都喜欢看一个拉也拉不住，踢也踢不倒的人在球场上过人，助攻，进球，而不是喜欢那些碰瓷党，插水王，不停打断比赛的节奏，看见就恶心 欣赏巴萨是它的传控打法，团队配合！不会因为一个人喜欢一支球队，只能因为一支球队而去看这人踢球而已！ 现在更欣赏梅西鬼斧神功的传球。 梅西都把齐达内吓尿了 你刷新了球迷的三观，不喜欢梅西就是伪球迷😱😱😱 我觉得一楼没有说错啊，他没让你非要喜欢梅西啊，你可以讨厌甚至厌恶梅西，这没有错，很正常，因为萝卜青菜各有所爱！但是从足球方面诋毁他的人，的确不配看球！ 现在一对一能防住梅西的在足球界乃至上个世纪恐怕没人防的住球感真他妈叼C罗都不够配和梅西比虽然金钱奖都一样。 科瓦：在国家队我也喜欢这样看着拉基带球 后面就变成喷狗嘴里梅西抱内马尔大腿了。 当时看球的我都傻了这是干哈呢估计科当时自己也懵逼了思考了下人生我到底该补防还是回去防梅西呢犹豫了两秒就没有然后了 一楼的意思是不喜欢梅西只是偏好而已，不代表你是伪球迷 玄学被吊打😏 欣赏等于喜欢 齐达内这战术是在变相抽梅黑跟罗狗们的脸。 你是有多脑残，站着不动那不是木头吗？我都能过去 现在一对一能防住梅西的在足球界乃至上个世纪恐怕没人防的住球感真他妈叼C罗都不够配和梅西比虽然金钱奖都一样。 还行，把梅西防的只有一个点球＋一个本不存在的助攻，这场输球不该他来背锅，希望回到主场依旧能战胜皇马 我也非常喜欢梅西，但是我认为你这完全是拉仇恨，个人喜欢哪个球星是个人的自由，现在看看网上还能看体育板块的评论吗，祖坟都没了 科瓦契奇是这么用的？着急 1v1防守梅西就等于场上少一人 第一个丢球那两个人越看越是像在防梅西，辣鸡就那么长驱直入了 本泽马：秃子，你在要我背锅我要把你嫖娼的事说出去齐达内：好吧，这回科瓦契奇背锅 梅西：看到我的鞋了吗？<br>科瓦契奇：…… 盯防梅西主要是精神上的累，83%的时间在散步会把人急死，难得一次首发。 齐达内这战术是在变相抽梅黑的脸。 现在一对一能防住梅西的在足球界乃至上个世纪恐怕没人防的住球感真他妈叼C罗都不够配和梅西比虽然金钱奖都一样。 很简单的道理！防死梅西！哪怕门户大开被进球输球，大家讨论个一段时间热度也就降了！但是如果让梅西打个神级进球，哪怕普通的进球，各种盘点总结，什么年度进球总结，什么梅西进球集锦，乱七八糟的自媒体能给你放上一年！！ 对巴黎的第二回合也是这样，两三个去防梅西，内马尔边路都没人管了 一个球员的价值不是只看进球数的 你刷新了球迷的三观，不喜欢梅西就是伪球迷😱😱😱 一对一防守梅西？真是难为他了 他们想，让辣鸡带球总比梅西安全些 马塞洛：梅西不按常理出...脚 卡位满好,又能跑动,防守卖力,绝对明星球员啊,我很喜欢他 所以梅西在散步，因为我散你散不了，下半场你就得累垮 梅西牛逼，但是梅吹垃圾。 的确是的 脏莫斯佩佩这种武林王八拳都防不住，派一个人防梅老板，难为人 1防1太难了，齐祖有点太难为人了，不然马塞洛也不会成为背景，梅西的人鞋分过。。 马塞洛不过防住了一只鞋 上半场很成功，中场休息是被下咒了么，下半场屎一样啊 再完美的事物也会有瑕疵，再不堪的人也会有人欣赏，阁下这跪舔的论调让人理解为是个梅黑！因为被你这么一说，让人觉得把本来很优秀的球员说的跟个歌舞妓一样！ 只要能看的来点足球的，这场比赛就能看出梅西和C罗在场上的能力和作用对比。C罗纯碎就是个队友喂球才有威胁的球员，这场比赛亮点就是跑动积极点，主动要球欲望强；而梅西，不但传射，突破过人，串联组织，还积极和队友配合，传球为队友创造进攻空间，一拿球看看皇马球员的关注度，所以喜欢C罗的无非就是当个娱乐偶像而已，当然有一些是为了C罗的努力精神而来，而喜欢梅西的，则是为欣赏足球享受足球而来！ 嗯一楼太偏激了人与人欣赏水平不一样就像我们喜欢吃饭🐶喜欢吃屎一样 齐祖意识到一直让老乡笨马背锅已经抵挡不住舆论的浪尖，于是找科瓦契奇一块背锅。输球不是科瓦契奇一个人的原因，他只是马戏团0:3甩锅的牺牲品罢了。 上伊斯科，会更早地被梅西打花！ 这种比较博运气，如果防住梅西，那就很成功，如果没防住，就等于少一人。现在很多球队对巴萨都采用这个战术了，就是安排一人专门防梅西，不干别的。有收到成效的时候。不过要整场比赛都看着梅西，很难。如果我是主教练，我也这么干，放任梅西不管，太危险。就像阿隆索说的一样，只有把梅西看住了，双方才能势均力敌，才有的踢。 第一个丢球那两个人越看越是像在防梅西，辣鸡就那么长驱直入了 1v1防守梅西就等于场上少一人 阿隆索当初的确是我最讨厌的球员，下脚比佩佩都黑 阿隆索怎么可能去吹梅西，阿隆索是巴萨队内最讨厌的人，因为但是受木🐦安排，阿隆索主要就是看梅西，各种阴招也没少用。 其实，我觉得，上赛季皇马飚得太嗨皮了，现在是疲惫期，成绩有波动还是可以理解的。 期待郑智防梅西...... 牛比啊，看个球上纲上线的，真当自己共产主义接班人了？ 。。。 喜欢不喜欢梅西，是你的偏好问题；欣赏不欣赏，是你的能力问题；承认不承认，是你的人品问题。不能欣赏梅西的人，不能叫做球迷，因为你不懂足球的美；不能承认梅西的人，一定是个心理扭曲的人，因为你故意诋毁美好的事物。 好可怕 只要能看的来点足球的，这场比赛就能看出梅西和C罗在场上的能力和作用对比。C罗纯碎就是个队友喂球才有威胁的球员，这场比赛亮点就是跑动积极点，主动要球欲望强；而梅西，不但传射，突破过人，串联组织，还积极和队友配合，传球为队友创造进攻空间，一拿球看看皇马球员的关注度，所以喜欢C罗的无非就是当个娱乐偶像而已，当然有一些是为了C罗的努力精神而来，而喜欢梅西的，则是为欣赏足球享受足球而来！ 科娃：有那么一两刻，我科某竟然也恍惚起来，看着拉基蒂奇带球，仿佛回到了克罗地亚国家队…… 同理这个结论可以放在任何地方 人家第一句就是喜不喜欢是偏好问题 离开国米这几年也没多大长进 郑智表示不服 所以得散步呢，总被缠着，你跑的多了人家还更欢快，觉得有成就感，不如以静制动[窃笑] ",
        "Reply": 296,
        "Link": "http://comment.sports.163.com/sports2_bbs/D6LBFTDV00058781.html"
    },
    "PublishTime": "12/27/201708:49:08",
    "URL": "http://sports.163.com/17/1227/08/D6LBFTDV00058781.html"
}