{
    "Comment": {
        "Content": "毕了业准备工作，考完研啥的，正是人生最要紧的时候 面包车几乎都是后驱冬天真的不适合在东北开 5环卫工，不死也会这样说。 怎么死的都是妹子😭 快过年了，平平安安最好 希望一切平安 生命不仅仅是你自己的，也是父母亲人和每一个爱你的人的，每个人都要爱惜自己的生命。<br>逝者已登仙境<br>亲者节哀顺变 刚刚看了雪乡坑人的新闻，哎 快过年了希望大家平平安安 真可怜 大学生，就该多出去走走，见见世面。<br>你们没错，错的是天气和运气。<br>逝者安息🙏 节哀，愿天堂没有面包车 面包车都没安全气囊为什么批准生产想不通 面包车就是祸害。超载啊。 父母要多伤心啊 天之骄子，可惜啊，背后的几个家庭怎么面对，年轻人要注意安全啊 逝者安息！ 大年底的，大家都多保重吧🙏！防火防盗，注意安全！ 安息 话糙理不糙，一针见血 天哪，年底了，家里还怎么过？ 希望国家严厉打击面包车拼车！！！拼车的车子至少裸车价12万以上，国产车8万以上车况良好的乘用车！！！ 冬天在哈尔滨坐面包车真的是太吓人了这种松花江面包车体轻重心高轮胎窄拐急弯恨不得都翻车别说在冰雪路面上行驶了🙏🙏🙏 跟贴被火星网友带走啦~ 雪乡有什么看的？不就是拍了一集烂综艺吗？！想看雪，北京就可以看 我想知道那个酒驾撞死五名环卫工的事怎么处理的。 这么短的假期还要到坑龙江去玩，这下回不去了吧！ 雪乡这种全国第一黑坑的地方还有人去送钱呢？哎还白白丢了性命可怜！奉劝各位真的不要去雪乡了那里的人都钻钱眼里了 九人加一人司机，超载了 男女比例又加大了点 学校吃屎的吗？还没放假孩子到东北也不管吗？ 三亚宰客的，北京的黑中介，丽江的酒托，大部分都是东北人 跟贴被火星网友带走啦~ 过年了，大家注意行车安全。 白发人送黑发人，人世间最大的悲哀了，节哀吧！ 北方冬天路况不好，路滑，司机稍有失误就不是好事。 三亚宰客的，多数也是东北人开的，还有北京的黑中介 那肇事者就可以逍遥法外不了了之？ 啥几把雪乡啊，还不是一帮傻逼组团去让另一帮山驴逼宰 5环卫工，不能起死回生。 不知道是不是路面湿滑引起的，感到惋惜，希望大家在恶劣天气出行都要注意行车安全。 跟贴被火星网友带走啦~ 安全性太差 防火防盗防闺蜜 啊啊 面包车几乎都是后驱冬天真的不适合在东北开 面包车司机的情况怎么样？ 为啥要去雪乡呢？那坑人的地方 这车撞的不轻。 这黑龙江还有个好，天天说发展经济，经济一点没发展，冰雪旅游搞得一塌糊涂，只有冰雪资源没有管理规范，生存环境举步维艰，雾霾天年年增多，肺炎患者年年增多，物价是步步高升，只有奖金年年降，工作没有关系没有钱送礼，那就是白干！ 雪乡害人！ 安全第一 看那车也装不了9个啊，司机死了吗 唉可惜了，让父母怎么面对，大家的注意安全吧 大学生，就该多出去走走，见见世面。<br>你们没错，错的是天气和运气。<br>逝者安息🙏 寸金难买寸光阴，旅游比学习都重要了。 难以想象 安全第一 看这车损当时应该速度很快啊 话糙理不糙，一针见血 io 卧槽哦这年还过不过了 注意安全 安全 ，， 在这种路面上还敢坐这种破面包车？省钱不要命啊！ 哦哦 天哪，年底了，家里还怎么过？ ？？ 唉，还是没有钱老实的呆在家里安全啊！ 安息 抵制哈尔滨！！ 不死在面包车上就是是在面包车上，命也。 希望人们一起出门一定要注意自己的身体和安全，不管做什么安全第一。 ？？ 😱 以后麻烦大家尽量少坐面包车，我母亲就是今年坐面包车出的事故，安全性能太差了，逝者安息🙏 出去玩也是有风险的啊 这个价，名副其实的火炕 大四不在学校待着，乱跑个什么。太惨了！ 卖大炕呗！ ，， ？。。 黑龙江这是什么情况？ 啥几把雪乡啊，还不是一帮傻逼组团去让另一帮山驴逼宰 抱团的一帮，呼呼嗒嗒，往往易出事 出什么事了最近注意安全啊都 放假了还是乖乖回家的好 唉，可惜啊！ 呵呵呵 安全性太差 可怜呀 面包车就是祸害。超载啊。 这个没有办法的 女孩子最喜欢享受炫耀。 车祸跟去哪有毛线关系？说得好像去北京就能避免车祸一样。这就是命，该到你就是你，谁都跑不了 白发人送黑发人，悲哀。 车这样了…… 哎，注意安全 快过年了，祝大家平安，健康万福！！！ 大家一定要注意安全。 19岁大学毕业那年找工作，面试我的人事经理是个漂亮的白富美，她肤白个高，长发长腿，不足之处是颧骨较高。她问我：你能干多长时间？我有些诧异，但还是老老实实回答：一般半个小时，状态好的时候四十分钟。她红着脸低声说：我是说你在这儿能干多久？我环顾四周，有些羞涩的说：这我可能放不开，我从没当着这么多人，真的不太习惯。三天后我被录取了，原来她是老板娘。她送给我一本《能量决定命运》，让我学习红浅学。三个月后她挺着肚子辞职离开公司，临行前嘱咐我一定认真学习，不学红浅学，赶不上马化腾，娶不起林志玲。不读《能量决定命运》，富不过刘强东，跑不过贾跃亭。二十年后孩子会来认你的。一个月后我也因肾病离职回乡休养，老板给我多发两年的工资。 大学生，就该多出去走走，见见世面。<br>你们没错，错的是天气和运气。<br>逝者安息🙏 愿逝者安息。同时大学生应出门在外，注意安全。提高警惕。 大年底的哎 面包车拉人超载就该往死里罚！ 这一段东北新闻很多啊 大年底的，大家都多保重吧🙏！防火防盗，注意安全！ 白养这么大了，但愿她们的父母再生还来得及。 恶劣天气还是少出门为妙 不是天灾，这是人祸。这种天气就不能慢点？作为司机就要留一手以应对突发状况。 楼上的天津丧家狗你家要防隔壁老王，老王，老王和你娘亲还有你女人很熟的，经常说要检查你娘亲身体。 dddddddddd 这得有多快呀……真是十次事故九次快[暴怒] 我是哈尔滨人，我没去过雪乡，听说那条路如果天气不好，不安全 愿逝者安息，为生祈福 雪乡有什么看的？不就是拍了一集烂综艺吗？！想看雪，北京就可以看 希望家家平安！ 太惨了，可是一个面包能坐九个人吗？还不包括司机？ 国家应该出手收拾那些打着拼车的名义跑黑车的各种面包车了！ 这车速得多快呀，痛惜，这到年底了，让背后的家庭如何面对 唉快过年了看了心痛 bbz 真悲惨 过年了，大家注意行车安全。 记得口号是防火防盗防记者 安全性太差的车还真不能座说不好听没钱座公交也不差 为什么都是女生？女校的吗？ 女人味 人生无常，珍惜当下 平安是福 北京没下雪… 一杯敬明天一杯敬死亡 租两辆别克GL8肯定不至于发生车祸，面包车很容易翻车，逝者安息！ 楼上挂北京ip的广州傻逼，赵太爷们和你妈写日记把你妈写大出血死。。。大年三十你爸你孩子被灭口。。。你家破人亡断子绝孙。。。<br>😂😂😂😂 太可惜，在人生最美好的年华凋谢，太让人伤感 安息 过年了，大家注意行车安全。 白养这么大了，父母得不说了。 这个九名都是学生？这个是什么车型，有没有超载？年底事多，大家平平安安 司机绝对有问题 嘴真臭 北京那也叫雪？逗 大学生，就该多出去走走，见见世面。<br>你们没错，错的是天气和运气。<br>逝者安息🙏 一路走好 太可惜了… 心痛啊，逝者安息 不怕坑你就去 9个还都没那啥吧，可惜 傻逼，坐火箭还有人护航 可怕 我们的月亮就是一个鸡蛋，我们的地球系就是一个鸡蛋!我们的太阳系就是一个鸡蛋，我们的天郎双星系就是一个鸡蛋，我们的银河系就是一个鸡蛋!坯胎为中心，蛋黄，蛋清，蛋壳层层立体包围着坯胎!固体地球为中心，大气层，平流层，电离层等等以及最外层真空遂道层层立体包围着固体地球!而月亮飘流在地球最外层空间真空遂道里，就像船儿飘流在大气层和海平面之间的空间是一样的!以此类推至太阳系天郎双星系银河系及任何物质!月亮在地球最外层空间真空遂道里绕着地球自转公转着，地月绕着太阳在太阳系第三层真空遂道里自转公转着，太阳系绕着天郎双星在天郎双星系最外层真空遂道里自转公转着!任何物质皆如此运动，天地人合一，阿门 现在学期还没结束吧？ 19岁大学毕业那年找工作，面试我的人事经理是个漂亮的白富美，她肤白个高，长发长腿，不足之处是颧骨较高。她问我：你能干多长时间？我有些诧异，但还是老老实实回答：一般半个小时，状态好的时候四十分钟。她红着脸低声说：我是说你在这儿能干多久？我环顾四周，有些羞涩的说：这我可能放不开，我从没当着这么多人，真的不太习惯。三天后我被录取了，原来她是老板娘。她送给我一本《能量决定命运》，让我学习红浅学。三个月后她挺着肚子辞职离开公司，临行前嘱咐我一定认真学习，不学红浅学，赶不上马化腾，娶不起林志玲。不读《能量决定命运》，富不过刘强东，跑不过贾跃亭。二十年后孩子会来认你的。一个月后我也因肾病离职回乡休养，老板给我多发两年的工资。 vsvsvsbs 北京好几年没下一次真正的雪了 北京几年没下过雪了吧 逝者安息，多么让人痛心的消息，冬季出门一定要注意安全 年终了，为了平安幸福快乐的过年，恶劣天气年轻人没事不要坐车出去到处乱闯！ 雪乡有什么看的？不就是拍了一集烂综艺吗？！想看雪，北京就可以看 唉一路走好 楼上挂北京ip的广州傻逼，赵太爷们和你妈写日记把你妈写大出血死。。。大年三十你爸你孩子被灭口。。。你家破人亡断子绝孙。。。<br>😂😂😂😂 景区管理和车辆运营没问题？ 一辆面包车坐9人？ 出门在安全第一，平安是福！ 大年底的，大家都多保重吧🙏！防火防盗，注意安全！ 而且这一代人都还是独生子女，又多了4个失独家庭 记得口号是防火防盗防记者 文科的吧 沉痛！鲜活的生命在不该逝去的地方逝去了 天哪，年底了，家里还怎么过？ 呆教室好好学习不好么 雪乡没火车。 白发人送黑发人还是不错了总比白发人黑发人一起死亡没人送好！ 你说话就说呗，干嘛要先报名？ 这就是你变成智障的原因吗？ 面包车安全性高，别说奔驰宝马，就是法拉利兰博基尼都撞不过 逝者安息 冬天出行优先火车，汽车还是不太安全。 想看雪还真不方便 阎王的威信其能让人挑战不须人歌功颂德的！ 新年在即，天呐，这几个家庭的年怎么过。节哀罢 白发人送黑发人，人世间最大的悲哀了，节哀吧！ 你看你这傻逼，有十个人点赞呢，看样子老王检查你老娘的身体很多人都同意的[大笑] 快过年了希望大家平平安安 为什么都是女生？女校的吗？ 过劫 坐火车到牡丹江海林市 可惜了 。。。 dvvdbdhdh 应该修一条铁路直通雪乡 太不值了！为了雪乡这种坑死人的景点！ 就可以用 令人惋惜 最近雪乡的负面消息这么多，还去那，这也算是忠告吧 十个人，什么车？丰田面包车吗？是九座车，加座免强十个人 车祸猛于虎！中国车祸每年死好几万，可得小心。 一年最多下一场 这是小说大纲，把详细读本发出来。 去雪乡玩的都是Sb 刚刚看了雪乡坑人的新闻，哎 责任谁的 东北这季节，不是仅仅救慢点开就可以的。下雪的时候感觉还好，但是如果是刚下雪前面的车子一碾压再上冻，就是天然溜冰场了。所以防滑链，雪地胎，提早换机油等等手段，再加上雪地驾驶经验技术。。。都没人赶保证一点都不出事。 19岁大学毕业那年找工作，面试我的人事经理是个漂亮的白富美，她肤白个高，长发长腿，不足之处是颧骨较高。她问我：你能干多长时间？我有些诧异，但还是老老实实回答：一般半个小时，状态好的时候四十分钟。她红着脸低声说：我是说你在这儿能干多久？我环顾四周，有些羞涩的说：这我可能放不开，我从没当着这么多人，真的不太习惯。三天后我被录取了，原来她是老板娘。她送给我一本《能量决定命运》，让我学习红浅学。三个月后她挺着肚子辞职离开公司，临行前嘱咐我一定认真学习，不学红浅学，赶不上马化腾，娶不起林志玲。不读《能量决定命运》，富不过刘强东，跑不过贾跃亭。二十年后孩子会来认你的。一个月后我也因肾病离职回乡休养，老板给我多发两年的工资。 上班后的第一个周末，老板娘打来电话。。。 民族阵痛而 注意安全 上星期平安夜海南一下子死了3个妹子这次元旦又一下没了4个还都是20岁出头未婚的再这样下去妹子死不起啊女人都快成国宝了 不上课，大学就是这么上的？ 车损都这样了 车祸猛于虎，现在的司机开车像疯子，交警也不负责任，不在路口斑马线站岗，要想不出事，最好是把自己关起来看书，不要到处游，又花钱又会出车祸。 把第三排座椅放倒，加上后备箱空间，啥都能放下，前提是你忍心这么做吗 bdbdbdhd 今年还没下 怎么讹，讹地球吗 面包车就是祸害。超载啊。 大学生，就该多出去走走，见见世面。<br>你们没错，错的是天气和运气。<br>逝者安息🙏 逝者安息 死之前让我我用用啊 安息 不听劝的，早分早好，由她去吧 确实，去年去了大马自驾，大部分人都很友好，就看到一次交警，大家都很遵守交通规则，变道的时候我一打转向灯后面一排全减速让行，没一个崔的。 冬天在哈尔滨坐面包车真的是太吓人了这种松花江面包车体轻重心高轮胎窄拐急弯恨不得都翻车别说在冰雪路面上行驶了🙏🙏🙏 东北旅游比较坑人，当地外地一起坑 阿弥陀佛。 贪玩不是罪。 不明白那种地方有什么好看的！ 雪乡有什么看的？不就是拍了一集烂综艺吗？！想看雪，北京就可以看 这场事故的原因与美国加州森林大火有冥冥之中的联系，能看懂并真正了解我这评论的人全世界目前应该不会超过十人。 畜牲 前女友出去读书前我也叮嘱她不要去跟同学一起出外郊游，这样出了事谁也担不了责任。于是她说我咒她。后来加入了社团以后，每天都出去吃喝玩乐。我跟她的联系也就渐渐少了。后来，呵呵，分手了。 啥叫松花江面包车啊，想买 dvbdbdhd 我也是…哎，年关将近， 北京林业大学9名女生哈尔滨发生车祸 傻逼，北京有雪吗 女司机好可怕 上星期平安夜海南一下子死了3个妹子这次元旦又一下没了4个还都是20岁出头未婚的再这样下去妹子死不起啊女人都快成国宝了感觉有一个共同点就是妹子有点贪玩 sbbsbshd 这一车的女司机 北方冰天雪地的时候不能全怪司机，真难开，以前我做客车都掉到路下面过，好在车开的不快，没翻车，再说也开不快。 逝者安息，但悲剧的背后是什么？面包车装9人，如果算上驾驶员的话就是十个人，就算自己开车，也已经是9个人了。超载超的不仅仅是重量，最主要的还是安全带是不够用的，就好比飞机上50个人，只有10个降落伞，游轮上两三百人，却只有三五个救生筏。。。。 哪个来开都不省心 确实，我两个月前在泰国自驾也是这样 我就只关心那个开面包车的饿哔或负主要肇事责任的饿哔死了没有！！没死的话那才是真正的不公！！！ 确实，部分东北人真是什么坏事都能做出来，比较损，而且东北真没有什么好玩的 9个人标准超载 面包车市区跑跑就算了，超载拉了九个学生如果另有司机都十人了，司机也不慢点开 松花江面包都不知道？以前的小面包车 还是下雪天 放你的屁，有危险的地方你去玩什么？！ 🙏 心情沉痛，逝者安息~ 。。。 安全性太差 路虎能拉货吗？ 东北车开的快，天冷路滑，很容易出事的。就是不要坐私人的车，尽量坐大客车或者公共交通工具。 去个毛的雪乡 超载了 意外车祸？？ 雪乡是哪里?是带岭吗? 你就是个搅屎棍。大家都在这哀悼孩子们的不幸，就蹦出来你这么个搅屎棍，中国无赖的劣根，每次出了事，都能听到你这样的傻逼说，你看我说怎么怎么样吧，搅屎棍 怎么死的都是妹子😭 如果都系安全带，就不会这么严重了，上车就要想到系安全带。 现在的学生太会玩，想玩又想省钱，9个人挤一块怎么想的！ 多了四个光棍，我是其中一个。 面包车安全性能差 悲伤！不注意安全，让父母怎么过？只能说死者安息！伤者早日康复！！ 这肯定开的不慢 五菱的车低配和中配安全性太差了。你宁愿卖高价点，也别生产这种毫无安全的车啊。 没错，都不要到东北旅游，地方大，人又少，冬天还那么冷，没事多去去三亚青岛东莞多好。 从哈尔滨坐面包子去雪乡啊？？雪乡在牡丹江啊！！400多公里啊草，有火车客车不坐？ 几个傻孩子，南方那么多好地方不能去吗？ 雪乡有什么看的？不就是拍了一集烂综艺吗？！想看雪，北京就可以看 好怕啊，3000万啊 就是，本来妹子就少，太可惜了 面包车本来安全系数就低，也不换雪地胎还超载。 天之骄子，可惜啊，背后的几个家庭怎么面对，年轻人要注意安全啊 死之前让我我用用啊 哎！ 黑龙江挺黑 又多了几个光棍！！ 在外省的分数不是一般能上的 到雪乡的道路在这个季节真的非常危险，祝愿伤者早日康复。 人坑人，天朝就这样，掌朝者就希望你们互掐，不出大事就不管。不让你们团结，然后好方便管理 一声长叹 还全都是未婚年轻高学历的唉 向“遇难学生表示沉痛哀悼”，我就想问，怎么表示？堂堂一家大学，水平如此之差！ 每个人都该为自己的行为买单的 逝者安息默哀 太可惜了，青春年华多谨慎 男女比例又加大了点 这种车祸能赔钱吗 可惜了 不知道谁会赔钱，人多半不能白死了 北京林大，不算天之骄子吧，随口说说 服的没 一路走好 我也是3000万的其中一个 妈的，一个个开车死快，装什么大尾巴狼，雪天路滑，不特吗谨慎驾驶 别光说东北，忘了云南大理了？全国都没特么好东西，[微笑][微笑] 飞来横祸，躲闪不及 面包超载了吧，这个天坐个超载的破面包，真是胆大。 确实，部分东北人真是什么坏事都能做出来，比较损，而且东北真没有什么好玩的 悲痛！可惜了，逝去的都是高质量的女子！ 唉，北京学生花钱很猛，还有钱旅游 畜牲 2018才刚开始，真是倒霉的一年…… 那我中央财经大学的算什么[大笑][大笑] 东北旅游比较坑人，当地外地一起坑 ",
        "Link": "http://comment.news.163.com/news_shehui7_bbs/D77MM5TA0001875P.html",
        "Reply": 1845,
        "Total": 22316
    },
    "KeyWords": "北京林业大学,哈尔滨,学校,交通事故",
    "PublishTime": "01/03/201811:51:08",
    "Title": "北京林业大学9名女生哈尔滨发生车祸 造成4死5伤_网易新闻",
    "Source": "Netease",
    "Article": "（原标题：北京林业大学9名女生哈尔滨遇车祸4死5伤）#endText.video-infoa{text-decoration:none;color:#000;}#endText.video-infoa:hover{color:#d34747;}#endText.video-listli{overflow:hidden;float:left;list-style:none;width:132px;height:118px;position:relative;margin:8px3px0px0px;}#entText.video-lista,#endText.video-lista:visited{text-decoration:none;color:#fff;}#endText.video-list.overlay{text-align:left;padding:0px6px;background-color:#313131;font-size:12px;width:120px;position:absolute;bottom:0px;left:0px;height:26px;line-height:26px;overflow:hidden;color:#fff;}#endText.video-list.on{border-bottom:8pxsolid#c4282b;}#endText.video-list.play{width:20px;height:20px;background:url(http://img1.cache.netease.com/video/img14/zhuzhan/play.png);position:absolute;right:12px;top:62px;opacity:0.7;color:#fff;filter:alpha(opacity=70);_background:none;_filter:progid:DXImageTransform.Microsoft.AlphaImageLoader(src=\"http://img1.cache.netease.com/video/img14/zhuzhan/play.png\");}#endText.video-lista:hover.play{opacity:1;filter:alpha(opacity=100);_filter:progid:DXImageTransform.Microsoft.AlphaImageLoader(src=\"http://img1.cache.netease.com/video/img14/zhuzhan/play.png\");}if(/(iPhone|iPad|iPod|Android|NETEASEBOBO|blackberry|bbd+)/ig.test(navigator.userAgent)||/safari|chrome|firefox/i.test(navigator.userAgent)&&navigator.plugins&&!navigator.plugins[\"ShockwaveFlash\"]){varstr1='<videocontrols=\"controls\"preload=\"auto\"width=\"100%\"poster=\"http://vimg3.ws.126.net/image/snapshot/2018/1/2/C/VU6A3P92C.jpg\"style=\"max-height:100%\">';varstr2='<sourcetype=\"video/mp4\"src=\"http://flv.bn.netease.com/videolib3/1801/03/oFLSu8530/SD/oFLSu8530-mobile.mp4\">您的浏览器暂时无法播放此视频.</video>';document.getElementById(\"FPlayer1404863609673\").parentNode.innerHTML=str1+str2;}9女大学生哈尔滨旅游遇车祸，4死5伤（来源：original）window.NTES&&function(d){varf=function(c){varb=c.getAttribute(\"flashvars\"),a=c.getAttribute(\"repovideourl\").replace(\".flv\",\"-mobile.mp4\");h=d(c.parentNode.parentNode.parentNode),g='<embedsrc=\"http://v.163.com/swf/video/NetEaseFlvPlayerV3.swf\"flashvars=\"'+b+'\"allowfullscreen=\"true\"allowscriptaccess=\"always\"quality=\"high\"wmode=\"opaque\"width=\"100%\"height=\"100%\"type=\"application/x-shockwave-flash\"/>';if(/(iPhone|iPad|iPod|Android|NETEASEBOBO|blackberry|bbd+)/ig.test(navigator.userAgent)){g='<videocontrols=\"controls\"preload=\"auto\"width=\"100%\"height=\"100%\"><sourcetype=\"video/mp4\"src=\"'+a+'\">您的浏览器暂时无法播放此视频.</video>';}h.$(\".video\")[0].innerHTML=g;},e=function(b){vara=d(b.parentNode.parentNode.parentNode);a.$(\"li\").removeCss(\"on\"),b.addCss(\"on\"),a.$(\".video-title\")[0].innerHTML=\"string\"==typeofb.textContent?b.textContent:b.innerText,a.$(\".video-title\")[0].setAttribute(\"href\",b.getAttribute(\"url\")),a.$(\".video-from\")[0].innerHTML=\"（来源：\"+b.getAttribute(\"source\")+\"）\",f(b);};window.continuePlay=function(){vara,b=d(d(\".video-list.on\")[0].nextSibling);3==b.nodeType&&(b=d(b.nextSibling));if(b&&d(\".video-innerinput\")[0].checked){e(b);}},function(){vara={init:function(){if(d(\".video-listli\")[0]){d(d(\".video-listli\")[0]).addCss(\"on\"),this.eventBind();}},eventBind:function(){d(\".video-listli\").addEvent(\"click\",function(b){e(d(this)),b.preventDefault();});}};a.init();}();}(NTES);现场图今日，有网友报料称，2017年12月31日7时许，北京林业大学经济管理学院9名大四女生结伴乘坐面包车从哈尔滨前往雪乡途中，发生交通事故，造成4人死亡，5人受伤。刚刚，红星新闻记者从北京林业大学党委宣传部相关负责人处证实，消息属实。网传《北京林业大学关于学生在哈尔滨发生交通事故的进展情况》这位负责人表示，网传《北京林业大学关于学生在哈尔滨发生交通事故的进展情况》真实，“是事故发生后第二天的进展情况”。这份材料中提及，事故发生后，学校派出的12人事故处理工作组已于事发当天下午7点赶到哈尔滨市，同学生家长一起全力做好后续相关工作。截至2018年1月2日，5名受伤学生仍在当地医院接受救治，“其中2名学生转入ICU，3名学生伤情趋于稳定。所有家长均已到达哈尔滨市。具体事故原因有待当地警方进一步调查。”这位负责人称，目前，学校派出的事故处理工作组的人数已增至15人。她告诉红星新闻，学校对此事高度重视，对遇难学生感到十分哀痛和惋惜，“事发当日，学校立即与地方政府事故处理小组取得沟通，请求不惜一切代价全力救助受伤学生，稳妥处理遇难学生善后事宜”。本文来源：红星新闻责任编辑：乔敬_NN6607",
    "URL": "http://news.163.com/18/0103/11/D77MM5TA0001875P.html"
}