{
    "Article": "（原标题：男子习武12年，谁料竟在咸阳街头做这事！女性夜晚出行可得小心！）有句话说，恋爱让人疯狂，近日（陕西）咸阳街头就出现了这样一个疯狂的男子。今天，《都市快报》全媒体记者来到了咸阳市的渭阳东路。这条路的两边一边是“咸阳湖”，一边是“咸阳楼”，在当地也算比较热闹。可就在条路一段不足百米的路上，从12月14日开始的六天时间，竟然在傍晚六点多，连发三起持刀抢劫事件。光天化日，同一地点连续作案，这让办案民警都觉得这个犯罪嫌疑人简直疯了。咸阳公安渭城分局刑警大队二中队民警刘晨说：“嫌疑人的行为非常反常，我们认为他对他作案的地点并不熟悉，应该是外地人。”针对受害人描述的嫌疑人特征，警方调取了沿途大量视频监控。经过分析研判，最终锁定这名疯狂的嫌疑人，并在其再次伺机作案时一举成擒。本文图均为陕西都市快报微信公众号图咸阳市渭城公安分局刑侦大队刑警二中队副中队长武刚说：“我们抓获嫌疑人吕某的时候，他说如果不是我们抓获他，他还会杀一个人。”吕某的话让办案民警倒吸一口冷气，不但抓获了抢劫嫌疑人，而且避免了一起命案。那么吕某如此疯狂的原因是什么呢？“嫌疑人网恋谈了一个咸阳的女网友，两人已经确立了恋爱关系。而这个女网友和别人有经济纠纷，他当时出于保护女网友的想法就来到咸阳。”武刚说。原来26岁的河北籍嫌疑人吕某和自己的咸阳女网友，已经到了谈婚论嫁的阶段。突然得知对方有一笔十万元的经济纠纷，怒火中烧的他，就急匆匆从老家赶来咸阳。在寻找所谓“仇家”的同时，为了维持生计，在短短的一周多时间内，连续作案七起，导致六名被抢受害中年女子受伤，被抢的独行女子年龄均在三十至四十岁之间。武刚说：“嫌疑人曾经有过盗窃和抢劫的前科，而且曾经练了十二年武术。”练武本是强身健体，可一但不走正道真是害人害己。目前吕某已被警方刑事拘留，案件正在办理当中。本文来源：陕西都市快报责任编辑：李天奕_NN7528",
    "URL": "http://news.163.com/17/1229/21/D6RT0IV0000187VE.html",
    "Source": "Netease",
    "KeyWords": "咸阳,抢劫,街头,网友",
    "Comment": {
        "Reply": 9,
        "Link": "http://comment.news.163.com/news2_bbs/D6RT0IV0000187VE.html",
        "Total": 43,
        "Content": "给武术界丢人现眼[喷水] 少十万块，是想让你给，不是想让你去找仇家，因为根本就没有仇家。练脑残了。 武功再高也怕街头监控头！ 流氓会武术，谁也挡不住 满街都是摄影头你也敢街头抢劫？ 给武术界丢人现眼[喷水] 少十万块，是想让你给，不是想让你去找仇家，因为根本就没有仇家。练脑残了。 流氓练武术，可怕啊[微笑][微笑][微笑][微笑] 行家啊 12年就练成欺负妇孺的功夫？这武术都练到狗身上了。 满街都是摄影头你也敢街头抢劫？ 小李飞刀这人～会武术，不会做人～ 武功再高也怕街头监控头！ 流氓会武术，谁也挡不住 "
    },
    "Title": "男子街头抢劫女性连续作案七起 曾练十二年武术_网易新闻",
    "PublishTime": "12/29/201721:33:00"
}