{
    "Article": "（原标题：70岁老人惨遭三只恶犬围攻下巴被咬通狗主人见状一走了之）在杭州梅家坞，一名70多岁的老人，在景区打水的时候，被三只狗咬伤，老人头部、下把、手臂、小腿多处受伤，被送往医院。被咬的老人姓寿，今年71岁。记者赶到医院时，医生正在为寿老伯的受伤部位做清创处理。从家属提供的照片看到，寿老伯在头部、下巴、四肢、腹部等部位，都被不同程度的咬伤，有些部位甚至是血肉模糊。记者了解到，由于伤口较多，加上年纪较大，目前老人的伤情并不乐观。家属告诉记者，事情发生早上六点多，当时寿大伯独自一人，到杭州梅家坞的一处小溪边打水，忽然窜出来一白两花三只狗将老人扑倒在地。随后记者来到了位于杭州梅家坞中国农科院茶叶研究所对面，老人被狗攻击的地方，地上还残留着血迹，以及老人运水用的小推车，和老人挣扎时留下的鞋子，可以想象当时恶犬撕咬寿老伯的惨烈程度。在事发地点附近，记者找到了部分事发监控。监控画面显示，7点半左右救护车把寿老伯送去了医院，但是老人遭遇攻击的画面并没有被拍到。附近单位门卫告诉记者，他们同事在六点多看到寿老伯浑身是伤，就过去把他背到路边，叫了120救护车。至于咬人恶犬，他们怀疑可能是猎犬。事发后，寿老伯曾表示，当时现场有一个人疑似就是这三条狗的主人，但是，事发当时狗主人似乎并未及时制止。不仅如此，老人受伤后，这个人也没有主动把老人送去医院，而是选择一走了之，他们至今不知道此人是谁，但是对他的做法非常气愤，已经报警。目前警方正在调查中。本文来源：看看新闻Knews责任编辑：王征_NN7526",
    "URL": "http://news.163.com/18/0104/09/D79VQTE40001899N.html",
    "KeyWords": "老人,恶犬,下巴",
    "PublishTime": "01/04/201809:09:29",
    "Title": "老人遭3只恶犬围攻下巴被咬通 狗主人见状一走了之_网易新闻",
    "Comment": {
        "Content": "必须把这三条🐶炖了？ 必须把这三条🐶炖了？ ",
        "Link": "http://comment.news.163.com/news2_bbs/D79VQTE40001899N.html",
        "Total": 25,
        "Reply": 1
    },
    "Source": "Netease"
}