{
    "URL": "http://war.163.com/17/1230/10/D6T86IE2000181KT.html",
    "Article": "（原标题：枭龙BLOCK3战机开始设计将成中国航空新名片）本报通讯员陆一遥2017年10月底，伴随党的十九大的胜利召开，举世瞩目的中巴联合研制战机“枭龙”BLOCK3迎来了新的重大节点——转入初步设计阶段。分区协调，是飞机初步设计的重要内容。如何牵引各系统自顶向下的设计，并对各系统在飞机上进行有机的集成和综合、形成总体最优的能力，是分区协调工作新的内涵和关键所在。未雨绸缪牢记党组织的嘱托军贸飞机，时间窗口非常宝贵，稍纵即逝。为了打赢这场攻坚战，航空工业成都所积极筹划，在总体部党支部书记谭新和型号主管副部长袁兵的组织下，迅速成立了以协调区长为骨干的“枭龙”三批分区协调党员突击队。突击队成员集中工作的第一天，成都所党委书记李松专程来到协调室，向新成立的党员突击队授旗，给大家鼓干劲、提要求。集中工作的第二天，党委副书记、工会主席李学峰来到现场，对大家的辛苦工作进行慰问。党组织的关怀、鼓励与期盼，提振了大家完成任务的信心。整个分区协调过程中，党员突击队成员想方设法克服困难，为了保住节点主动实行“611”工作制，在兄弟专业的大力支持下，第一个月就完成了90%以上的协调项目，创造了型号分区协调的新速度。技术管理复杂项目的关键分区协调是一个多次迭代、折衷和权衡的过程，如何从设计需求出发开展总体方案设计，在极短的工期内使整个工作收敛至既定的技术目标，有效的技术管理是关键。同时，党组织的战斗堡垒作用和党员的先锋模范作用不断提振团队的凝聚力、战斗力和创造力。成都所这支团队从来不缺解决技术问题的勇气和决心，怕的就是技术问题暴露得太晚。为此，在协调工作早期，“枭龙”三批分区协调党员突击队在团队负责人王伟的组织下，集思广益，总结历次重大型号分区协调工作的经验和教训，针对“枭龙”三批项目的特点制定了一整套行之有效的技术管理方法——使设计需求条目化、工作进度定量化、技术问题显性化；责任落实到人，能够对项目的短板快速定位；技术问题尽早暴露，尽早开展攻关和决策。除了技术工作以外，团队成员夏伟和叶志飞还主动承担起技术管理工作，制作了一系列统计表格，督促和统计整个分区协调的进展，定期上报。正是通过这种让管理者有抓手、让技术人员有目标的“360度无死角”技术管理，为项目的按时优质完成提供了根本保证。分区协调过程中，总师系统、科研部、各研究部主管领导亲临一线，积极解决协调中存在的问题，极大提高了协调效率。用户第一长期以来的团队理念不同国家、不同用户对飞机有着不同的理解、需求和认识，针对用户基于多年使用体验提出的改进建议，分区协调团队组织所内相关专业走访了航空工业成飞试飞站地勤大队，就飞机的维护使用问题进行深入交流，获取了第一手资料。收集的问题多达几百条。在总师系统意见的指导下，团队成员陈安强牵头承担了这些问题的清理和解决方案。他不厌其烦地和用户、外场人员、所内人员、中方OEM积极沟通，了解每个问题产生的背景以及飞机现状、解决方案可行性，不放过任何一个疑点，终于将问题一一落实，“枭龙”项目在国际市场上的脚步走得越来越稳。一丝不苟源于对飞机的敬畏区长是分区协调工作的关键岗位。这次分区协调，一区是个全新的状态，面临着重心超前限、外方产品缺少设计输入等棘手问题。一区区长杨天旗凭着扎实的理论基础和良好的工程感觉，在设计时预先考虑各种不确定性因素，以不变应万变，高质量完成了一区的工作。二区区长吴启兵，十几年如一日，每做一个方案前都会详细了解其他型号的做法以及三批飞机的相关系统原理方案，从全机分析权衡利弊后，再给出详细的总体方案。一丝不苟的工作态度与作风，让相关专业很信任。作为设计的顶层输入，客户需求总在不断变化。有时一个需求的改变，会带来一系列涉及多个专业的设计变动。正如难度极大的座舱通风管改走向的协调，在多次攻关都失败后，队长王伟始终没有放弃，在设计已经完成后又提出了新的思路，环控、结构、强度专业面对推翻重来的局面，毫无怨言，积极配合。赵锁珠、何帅、温小宁等人是经历过7个型号分区协调的“老”区长。对于飞机的每一个细节设计，甚至铆钉的位置，他们都经过仔细斟酌，防止后续制造和使用出现问题。发射器的安装，按最开始的设计需要飞机鼓包，何帅与成品厂一起，反复尝试优化成品内部的结构、原理。为了2毫米的高度，他们开展了整整一天的精细设计，最终去掉了鼓包。每一次成功协调的背后，都是脚踏实地的付出，是严谨细致的思考，是党员干部职工立足岗位的担当。只有对飞机充满敬畏，才会对自身高标准、严要求，才拿得出经得起考验的飞机总体方案。酸甜苦辣凝聚成对团队的热爱每一个协调区都涉及全所的大量专业，每一位区长，就是这些专业的领头人和“润滑剂”。分区每个专业的人员性格、技术方向、工作特点各异，但大家有着共同的初衷和目标。有时为了一个细节问题，小伙伴们会争得面红耳赤，大伙儿把在组织生活会上的那股子认真劲用到技术攻关研讨中。“好的飞机是吵出来的”，这种时刻，最需要总体区长把控全局，帮助大家理清思路、把握重点、达成一致。有着十余年飞机舱盖设计经验的四区区长刘雨，是个“一专多能”的总体区长。在和兄弟专业协调时，发现对方对某个零件的设计经验不足，他便主动提出帮助，设计出的零件连强度老专家都交口称赞。分区协调中的酸甜苦辣，一点一滴，都凝聚成对团队的热爱。本文来源：中国航空报责任编辑：吴龙飞_NBJ9602",
    "KeyWords": "枭龙,战机,设计,block",
    "Source": "Netease",
    "Comment": {
        "Reply": 51,
        "Content": "开发十几年一架都没卖出去的东西居然成了名片咯。。。。。。。。。。。。<br>叫明骗更好 枭龙对于巴铁最重要的意义是大幅提升了自身的航空工业实力，而不是获得一款先进战机，巴铁宁可要二手F16也不要歼10，更何况是枭龙呢。 小龙就是<br><br>大厦军界的华西村 以后我们飞机垂尾上也别跟风国外的画那些鸟~~~~鸟有威力？我们把战斗机画上大圣、杨戬等，把预警机画上李天王和太上老君，轰炸机画上雷神电母，其余支援机画各式天兵天将。这样才会有中国自己的特色。个人观点，欢迎来喷~~~~~~~~~~~~~ 没人要，还改来干嘛 好飞机，潜力巨大，多面手还便宜，对待战五渣的对手绝对够用，如果定位对手是美国，哪你j20也不够用啊。看清对手是，一个f35打一群f16，根本就没法比 别再折腾了，歼7的老骨头。再搞些花样出来不如换代吧。 研发都好年轻，有希望啊 以后在飞机垂尾了不要使用那些鸟什么做图案了，那些都是老外玩剩下的了。战斗机我们画一些大圣、杨戬，预警机画托塔李天王和太上老君，支援机画些天兵天将的更给力更有中国特色~~个人意见，欢迎来喷~~~~~~~~~~ 巴基斯坦第一批50架已经装备完毕，第二批50架生产中，计划还有第三批50架，西非有几架订单，缅甸有十几架定单。 实用即可，太先进的不太靠谱，比如机床。 卖多少 二余度改四余度，试试！ 这升级版本要多，要贵 垃圾话说了一大通 这也能算新闻？ 下岗、去库存、经济软着陆、中过特色市场经济，多好听呀.... 🏅 建议新型号就新型号，不要跟风某国。搞个什么block，第几季，起个好听点的名字，比如以前发明的下岗，去库存什么的都很好么！ 这飞机出货多少架了？ block障碍物 建议新型号就新型号，不要跟风某国。搞个什么block，第几季，起个好听点的名字，比如以前发明的下岗，去库存什么的都很好么！ 一个飞机一代人 加油 代代都有查涤纶（手动滑稽） 最新版本的 小龙就是<br><br>大厦军界的华西村 没人要，还改来干嘛 好飞机，潜力巨大，多面手还便宜，对待战五渣的对手绝对够用，如果定位对手是美国，哪你j20也不够用啊。看清对手是，一个f35打一群f16，根本就没法比 以后我们飞机垂尾上也别跟风国外的画那些鸟~~~~鸟有威力？我们把战斗机画上大圣、杨戬等，把预警机画上李天王和太上老君，轰炸机画上雷神电母，其余支援机画各式天兵天将。这样才会有中国自己的特色。个人观点，欢迎来喷~~~~~~~~~~~~~ 为中华崛起鼓掌👏 培养年轻技术人员 巴基斯坦第一批50架已经装备完毕，第二批50架生产中，计划还有第三批50架，西非有几架订单，缅甸有十几架定单。 这飞机可以卖出去赚钱 第三批可能是局部隐形设计了，好几年前网上流传一张隐身设计的进气道照片，可能就是枭龙3的验证机 下岗、去库存、经济软着陆、中过特色市场经济，多好听呀.... 巴基斯坦万岁 别再折腾了，歼7的老骨头。再搞些花样出来不如换代吧。 建议新型号就新型号，不要跟风某国。搞个什么block，第几季，起个好听点的名字，比如以前发明的下岗，去库存什么的都很好么！ 中巴吉斯坦 跟贴被火星网友带走啦~ 这才是成飞最恐怖的地方，整个歼20、歼10、枭龙以及无人机的研发团队都非常年轻，还没有达到国际上公认的的科技出成果的黄金年龄，未来20年值得期待，希望他们多捣弄出优秀的作品！！ 这飞机出货多少架了？ 巴基斯坦的 block障碍物 期待！ 一个飞机一代人 枭龙还是不错的，之所以卖不出去，因为有很多次机会都被毛子搅黄了。遇到米格29的竞争的时候，毛子就会卡发动机。这么多年了，中国的中推还是不成。 枭龙BLOCK3是一款什么飞机✈️？ 代代都有查涤纶（手动滑稽） 开发十几年一架都没卖出去的东西居然成了名片咯。。。。。。。。。。。。<br>叫明骗更好 枭龙对于巴铁最重要的意义是大幅提升了自身的航空工业实力，而不是获得一款先进战机，巴铁宁可要二手F16也不要歼10，更何况是枭龙呢。 以后在飞机垂尾了不要使用那些鸟什么做图案了，那些都是老外玩剩下的了。战斗机我们画一些大圣、杨戬，预警机画托塔李天王和太上老君，支援机画些天兵天将的更给力更有中国特色~~个人意见，欢迎来喷~~~~~~~~~~ 老桑塔纳都停产了，这货还在拉皮 睁眼瞎一条…… 两国友谊万岁 实用即可，太先进的不太靠谱，比如机床。 卖多少 跟贴被火星网友带走啦~ 很帅 这升级版本要多，要贵 骨头鹰没戏了 垃圾话说了一大通 这也能算新闻？ 你以为还是二战啊，现在几公里在看不见你，超视距给你一枚蛋蛋，你那个就能吓唬屁民爱国爱党，其他根没用，纸老虎 隐枭 提升 BLOCK是批次的意思 研发都好年轻，有希望啊 国内最强空战格斗力量 小飞机，小改进，锻炼年轻人 这是第三款 [色色][色色][色色][色色][色色][色色] 建议新型号就新型号，不要跟风某国。搞个什么block，第几季，起个好听点的名字，比如以前发明的下岗，去库存什么的都很好么！ 因为发动机用的是米格29的。还有米格双发，枭龙单发。用途不一样。 加油 二余度改四余度，试试！ 🏅 ",
        "Total": 868,
        "Link": "http://comment.war.163.com/news_junshi_bbs/D6T86IE2000181KT.html"
    },
    "PublishTime": "12/30/201710:25:32",
    "Title": "枭龙BLOCK3战机开始设计 将成中国航空新名片_网易军事"
}