{
    "Title": "朋友圈被18岁照片刷屏 国外政要纷纷加入\"战局\"_网易新闻",
    "PublishTime": "12/31/201716:53:43",
    "URL": "http://news.163.com/17/1231/16/D70GQ28V0001899N.html",
    "Source": "Netease",
    "KeyWords": "朋友圈,普京,政要,政坛",
    "Comment": {
        "Reply": 25,
        "Content": "看不起我英国女皇了？ 朋友圈就是跟风装逼的地方而已，别想太多。 所谓的各国政要，怎么缺了一个最负责任的大国呢？？ 十八岁照片不牛逼，八十还能发照片才牛逼 哼，人家政要没想这回事，你倒是帮他们跟风了。标题党永远升不了职👎 这年头不装逼会有多么无聊你知道吗？我现在都不撸管了，该装逼了，感觉自己萌萌哒！ 朋友圈就是见证你身边有几个煞笔最好的办法 文在寅长得还是挺稳重大方的，看来走的就是三好学生+学生会干部这个轨迹。 装逼 默克尔居然是东德过来的 朋友圈就是跟风装逼的地方而已，别想太多。 今天是周末、月末、年末，祝大家过去一年的不幸和忧伤统统抹去。<br>明天是二十一世纪的第18年，二十一世纪的公民——哦，是居民——粉墨登场。<br>祝好人新年快乐！ 外国人也玩微信？ 哈哈哈，这垃圾标题小便个大S币大过年的被人骂爽了 杜绝朋友圈，戒掉朋友圈 他肯定在负责任啊，哪有空看网易 看不起我英国女皇了？ 朋友圈就是跟风装逼的地方而已，别想太多。 十八岁照片不牛逼，八十还能发照片才牛逼 这年头不装逼会有多么无聊你知道吗？我现在都不撸管了，该装逼了，感觉自己萌萌哒！ 文在寅长得还是挺稳重大方的，看来走的就是三好学生+学生会干部这个轨迹。 装逼 感觉查尔斯好丑 小编你敢不敢在垃圾点，每次有的啥事都是别个国家，你敢不敢放放自己国家？ 朋友圈就是跟风装逼的地方而已，别想太多。 今天是周末、月末、年末，祝大家过去一年的不幸和忧伤统统抹去。<br>明天是二十一世纪的第18年，二十一世纪的公民——哦，是居民——粉墨登场。<br>祝好人新年快乐！ 外国人也玩微信？ 行了吧，我的18岁还没到 默克尔的感觉现在比以前年轻 查尔斯竟然头发浓密 所谓的各国政要，怎么缺了一个最负责任的大国呢？？ 第四个黄种人是谁啊？ 哼，人家政要没想这回事，你倒是帮他们跟风了。标题党永远升不了职👎 朋友圈就是见证你身边有几个煞笔最好的办法 默克尔居然是东德过来的 丑丑丑，不要脸 朋友圈就是跟风装逼的地方而已，别想太多。 这都晒 ",
        "Total": 326,
        "Link": "http://comment.news.163.com/news2_bbs/D70GQ28V0001899N.html"
    },
    "Article": "（原标题：朋友圈被18岁照片刷屏晒晒国外政要青涩照）你的朋友圈有没有被18岁照片刷屏？据说是因为2018年要到了，最后一批90后要集体成年了，所以大家都在晒18岁。岁月是把杀猪刀，即便你是叱咤风云的政坛大佬，恐怕也躲不过岁月的“辣手摧花”。这些国际政要、皇室的青涩旧照，你还能认出他们吗？1966，俄罗斯圣彼得堡，14岁的普京。（图片来源：东方IC）1990年5月22日，默克尔任职东德政府副发言人。（图片来源：东方IC）资料：1980年9月，特雷莎·梅的婚纱照。（图片来源：东方IC）资料图：韩国总统文在寅青年时期。（图片来源：东方IC）资料：加拿大总理贾斯廷·特鲁多。（图片来源：东方IC）资料：1969年，查尔斯王子。（图片来源：东方IC）本文来源：新华网责任编辑：徐萌_NN7485"
}