{
    "URL": "http://tech.163.com/17/1229/09/D6QHFLPK00097U7R.html",
    "Article": "（原标题：SoftBank’sbiginvestmentinUbercomestoaclose）下个月软银财团将完成对Uber大额投资获14%股权网易科技讯12月29日消息，据techcrunch报道，软银即将完成对Uber的大额投资。股权招标已结束，以软银为首的投资财团将按预期拥有Uber的14%股权。该财团从现有股东购买的股票价值约480亿美元，相较Uber在上一轮股权融资中的690亿美元估值缩水不少。作为交易的部分内容，该财团还将按690亿美元的估值直接向Uber投资12.5亿美元。按照交易，将出售股份以变现的股东包括标杆资本、门罗风投在内的早期投资方和一些Uber员工。在此之前，Uber一直在限制股票的出售。Uber发言人表示：“我们期待投资财团完成交易，以支持我们的技术投资，推动公司的发展和管理。”软银投资顾问公司的CEO拉吉夫·米斯拉(RajeevMisra)声明道，“我们非常感谢Uber股东在收购要约上的支持，并预计在明年1月完成投资。我们对Uber的领导层和员工充满信心，并且很高兴能够支持Uber。Uber将继续改善世界各地人们出行和商品运输的方式。”一旦交易完成，标杆资本将放弃对Uber前CEO特拉维斯·卡兰尼克(TravisKalanick)的诉讼。该诉讼涉及的内容包括卡兰尼克委任董事会席位的权力。随着公众舆论不断升温，今年6月卡兰尼克离职。Uber被指责培养了纵容性别歧视和性骚扰的公司文化。Uber也面临着一些重大的法律诉讼，如与Alphabet旗下自驾车子公司Waymo之间的专利诉讼。此次对Uber的直接投资将帮助公司实现2019年的IPO计划。在线旅游公司Expedia的前CEO达拉·科斯罗萨西(DaraKhosrowshahi)于8月份上任新CEO，引领名声受损但业务在迅速发展的Uber走上上市之路。但对于很多股东来说，2019年太过遥远，而且上市也未必保证Uber的估值能够高于目前的480亿美元，因此选择现在出售股票。软银已成为这笔投资最后阶段的主导方。最近软银为愿景基金注入了将近1000亿美元的资金。软银投资过Uber的竞争对手GrabTaxi。这次交易的投资方除了软银，还有Dragoneer、红杉资本、腾讯以及TPG。（惜辰）本文来源：网易科技报道责任编辑：王凤枝_NT2541",
    "Source": "Netease",
    "PublishTime": "12/29/201709:10:04",
    "KeyWords": "uber,软银,股权,财团",
    "Comment": {
        "Content": "这个还真算不上，比他大的还有很多 软银算全球最大的资本了吧 还是有眼光 阿拉伯主权投资基金 这个还真算不上，比他大的还有很多 阿拉伯主权投资基金 股票价值 还是有眼光 软银算全球最大的资本了吧 各国主权基金 ",
        "Total": 32,
        "Link": "http://comment.tech.163.com/tech_bbs/D6QHFLPK00097U7R.html",
        "Reply": 6
    },
    "Title": "软银入股Uber即将完成：估值480亿美元获14%股权 _网易科技"
}