{
    "Source": "Netease",
    "KeyWords": "高超音速导弹,俄罗斯,导弹,海军",
    "URL": "http://war.163.com/17/1224/11/D6DV5U1U000181KT.html",
    "PublishTime": "12/24/201711:59:17",
    "Comment": {
        "Content": "没够绝望了！ 钱解决不了这个问题，买房可以 你美爸同样会爆你菊阉割你 哈哈，铲除个啥？你还能活几天？ 超速度反舰至今没有一个战果，唯一能勉强算上的还是美的用标准导弹打出来的。 善于吹牛的俄毛 一楼如丧烤屁。 老板，4个烤屁股、2个烤肠子，一个烤脂肪肾，4个冰峰。。。。 俄罗斯巴沙尔中朝IS胡塞伊朗塔利班 俄罗斯制造美军尿频，尿痛、尿不尽！ 二楼傻狗如丧烤屁。 黑障是超高速不可逾越的障碍！黑障状态下，内外制导全部失灵！ 大家一直以来有一个误区，认为俄罗斯的那些超高速导弹有多高速，其实大家只要想一想，高速运动的物体与空气的摩擦产生的热量就会明白所谓的高速不可能是全射程，除非俄罗斯的材料科学达到了一个新的高度。 怎么写标题的<br><br>不应该是，“美国航母杀手”吗 別急著舔毛！如果、或和計畫這種名詞那麼好用，那驚死人的美國六代戰機就橫空出世了。 支持以美利坚为首的正义联盟彻底铲除俄罗斯及其一切分人类的邪恶势力。 应该是能很快配备的，毕竟产自那150万的重质原油是挺贵的 应该是能很快配备的，毕竟产自那150万的重质原油是挺贵的 善于吹牛的俄毛 一楼如丧烤屁。 俄罗斯制造美军尿频，尿痛、尿不尽！ 俄罗斯巴沙尔中朝IS胡塞伊朗塔利班 黑障是超高速不可逾越的障碍！黑障状态下，内外制导全部失灵！ 怎么写标题的<br><br>不应该是，“美国航母杀手”吗 那还不打？打完这些你美爸也没了 你们等着下地狱吧！ 大家一直以来有一个误区，认为俄罗斯的那些超高速导弹有多高速，其实大家只要想一想，高速运动的物体与空气的摩擦产生的热量就会明白所谓的高速不可能是全射程，除非俄罗斯的材料科学达到了一个新的高度。 应该是能很快配备的，毕竟产自那150万的重质原油是挺贵的 傻逼美狗先打赢塔利班再说，哈哈 没够绝望了！ 钱解决不了这个问题，买房可以 你美爸同样会爆你菊阉割你 哈哈，铲除个啥？你还能活几天？ 超速度反舰至今没有一个战果，唯一能勉强算上的还是美的用标准导弹打出来的。 老板，4个烤屁股、2个烤肠子，一个烤脂肪肾，4个冰峰。。。。 支持以美利坚为首的正义联盟彻底铲除俄罗斯及其一切分人类的邪恶势力。 大家一直以来有一个误区，认为俄罗斯的那些超高速导弹有多高速，其实大家只要想一想，高速运动的物体与空气的摩擦产生的热量就会明白所谓的高速不可能是全射程，除非俄罗斯的材料科学达到了一个新的高度。 主编就是会吹牛逼！超高音速导弹目前世界上只有美国才有最先近的武器。俄罗斯都还没有，中国怎么会有呢？ 俄罗斯不容许别国海军具有明显领先俄海军的优势，目标是巩固俄海军战力全球第二的地位。 萨达姆说了，你不打我，我现在还在吹呢，巴沙尔也是谢谢谈判，现在地盘越来越大 善于吹牛的俄毛 黑障是超高速不可逾越的障碍！黑障状态下，内外制导全部失灵！ 別急著舔毛！如果、或和計畫這種名詞那麼好用，那驚死人的美國六代戰機就橫空出世了。 ",
        "Total": 348,
        "Link": "http://comment.war.163.com/news_junshi_bbs/D6DV5U1U000181KT.html",
        "Reply": 28
    },
    "Article": "参考消息网12月24日报道美国美国“侦察勇士”网站12月22日发表记者戴夫·马宗达的文章《俄罗斯可能很快将为海军配备高超音速导弹，美国将如何应对？》，猜测俄海军或很快配备高超音速导弹题。据报道，在克里姆林宫2018至2027的国家军备计划中，俄罗斯海军可能将获得“锆石”高超音速反舰巡航导弹。据俄罗斯塔斯社的报道说，如果这种新武器成为现实，那俄罗斯海军的20385型和20386型轻型护卫舰和23350以及23350M型护卫舰将成为首批获得这种新导弹的舰只。俄罗斯国防工业界的一名消息人士告诉塔斯社：“一个优先考虑重点将是建造配备高度精密武器的20385型和20386型轻型护卫舰，以及23350型和23350M型护卫舰，其中包括‘口径’-NK巡航导弹和‘锆石’高超音速导弹。”俄罗斯战略与技术分析中心专家瓦西里·卡申告诉《国家利益》杂志，尽管尚不清楚“锆石”导弹在测试中到了哪一步，但没有理由认为这种武器不会在未来的日子里被制造出来。卡申说：“我认为没有理由怀疑俄军方在接下来的几年就可以开始采购它们。”海军分析中心专门研究俄罗斯军事事务的科学家迈克尔·科夫曼说，“锆石”导弹目前正在测试之中，而且国家军备计划中很可能为这种导弹划拨资金。科夫曼说：“锆石”是目前正在开发和测试中的可能的高超音速导弹之一。俄罗斯海军打算升级现有的发射系统，例如用3S14垂直发射系统来发射这种导弹，现在发射的是P-800和‘口径’-NK。毫无疑问，即将出台的国家军备计划的前五年将为这个项目划拨资金。”俄罗斯开发“锆石”高超音速导弹的一个原因是因为克里姆林宫知道它将是最终需要的下一代武器。尽管“缟玛瑙”超音速巡航导弹和“口径”导弹已经是能力强大的反舰导弹，但大部分技术来自20世纪80年代末的设计。科夫曼说：“俄罗斯现在正在投资于下一代技术，因此才大力推进高超音速武器。”一旦这种新武器投入使用，它们到底如何融入俄罗斯的武器库尚不得而知。卡申说：“我猜测这将取决于价格和射程。例如，引入超音速反舰导弹并不会导致亚音速导弹彻底被淘汰。我们仍会使用X-35，所以或许会出现混合使用的局面。”俄罗斯很可能保持各种武器混合使用的一个原因是成本问题。卡申指出：“这很可能比普通的超音速导弹昂贵得多。”此外，现在很难猜测俄罗斯开发“锆石”导弹的过程到底取得了多大进展。正如科夫曼指出的那样，俄罗斯国防部很容易发表一些雄心勃勃的声明，但将一种新武器投入使用就完全是另一回事了。他说：“很难说俄罗斯国防工业距离完成这一项目还有多远。测试和开发声明不费力气，许多不过是一种自我宣传而已。”本文来源：参考消息网责任编辑：马超_NBJ9865",
    "Title": "美媒猜测 俄海军或很快配备高超音速导弹_网易军事"
}