{
    "Article": "网易体育12月30日报道：鲁迅笔下的祥林嫂是一个被封建主义压迫的农村妇女，她受尽磨难，生活不顺，逢人就诉说自己的不幸。如今，曼联主帅穆里尼奥似乎也成了祥林嫂。前几天，穆帅指出曼联该学习曼城那样买人。今日，他再次表达了对瓜迪奥拉的羡慕。穆帅希望自己有一天在曼联也能过上那样的日子。英超积分榜上，曼城已经领先曼联15分之多。无论从哪个角度看，曼城都领先曼联一大截。穆帅也承认曼联的失败，他强调曼联的成绩落后于曼城主要是因为投入的不给力。“我们很难去追赶曼城。当瓜迪奥拉来到曼城时，他拥有英格兰最好的门将，可他不喜欢，所以他从巴萨买了个新门将。不喜欢，就重买，瓜迪奥拉就是这样任性。”穆里尼奥表示。“他当时麾下还有萨巴莱塔以及克拉罗夫，这两人都是很好的球员，但都已经30岁以上了，所以瓜迪奥拉决定将他们换掉。可是，他并没有买2个球员来顶替萨巴莱塔和克拉罗夫，而是买了3个人，三个新后卫分别来自热刺、摩纳哥、皇马。”穆帅无奈的说道：“曼联能像他们那样一次性买6-7个新球员吗？我们能一次投入6亿镑到7亿镑？不，不，肯定不可能，这太困难了。过去几年，转会市场发生了巨大变化，你要想买来心仪的球员就得像曼城那样毫无节奏的烧钱。”“瓜迪奥拉在曼城，没有限制，没有财政公平，他可以放飞自我。所以，你除非有钱，不然就会很艰难。”穆帅表示：“曼联要追赶曼城？有可能吗？是的，还是有可能的，但是这会很难，你必须保持耐心、平静和等待。你得给我时间。”穆帅希望外界给他点时间：“随着时间的发展，我们会一步步的前进，均衡发展，我们必须慢慢来。”穆帅昨日在发布会还翻克洛普的旧账，质疑克洛普花7500万镑买范迪克的行为。渣叔随后给出了回击：“我们现在买人是最后才看价格。这并不是我们人傻钱多，而是因为我们已经提前考察了球员的实力。转会市场已经这样了，全世界都这样，你只能接受。当你想要这个球员的时候，对方又一口咬死价格，你只能妥协，我们必须适应这个世界。”“对于转会市场过去2年的发展，我感到很惊讶，真是太快了。作为一家俱乐部，我们必须改变。”渣叔说道。本文来源：网易体育作者：风过乡责任编辑：姚成浩_NS4810",
    "PublishTime": "12/30/201710:27:30",
    "URL": "http://sports.163.com/17/1230/10/D6T8A5UU00058781.html",
    "Comment": {
        "Content": "自己花了钱没追上还甩锅曼城花得更多是不是想告诉曼联高层“若要成功必先自宫即使自宫也未必成功” 曼联除了德赫亚升值其他球员身价都缩水了某迷只会怪姆希塔良卢卡库拉什福德马夏尔从不怪穆鸟乌龟流打法龟缩磨灭球员灵性 瓜比鸟多花一亿买了17个人可以说是整只球队都换了，而鸟少花一亿也只买了7个。打个比方要是这些人都给了鸟他肯定会说球员太多需要时间磨合。 有个鸟！ 场上赢不了你那就要在嘴上赢你 温盒如果这样抱怨就算了，三德子估计想着就算再重新把曼城球员都买过来，也不见得能踢出曼城的足球 穆意思他低价买入了人，波霸是前任买的他背锅了 在国米进攻套路是曼奇尼打造了2年成型的 2楼，请把你说瓜抱怨的那些新闻链接发一下，当时没看到，现在学习一下 踢成什么样子关我鸟事，只是看到一群伪球迷在这里满口跑火车有点好笑。 当然是瓜迪奥拉啊这一点谁洗了啥也没拿到所以瓜迪奥拉啥也没说专注于提升球队实力可没这么碎嘴<br>关键是人家取得成绩后也没给自己脸上贴金<br>这人跟人差距忒大了 博格巴过亿，三大MVP，都不提了[大笑][大笑] 意甲博格巴，德甲姆希塔良，还有一个下面补充。 姆希塔良什么时候拿过德甲MVP，你给发的？ 卢卡库是不是他买的！ 转移话题的高手！曾很喜欢他，但自从他在皇马插人眼抓内鬼开始就越来越讨厌他 同期投入，曼城比曼联多花4000W欧，同期曼城引进14人，曼联7人，曼城人均引援价格2000W+，曼联人均引援4000W+。曼联博格巴、卢卡库、伊布的工资霸占英超工资榜，而曼城也只有阿奎罗是老臣高薪，图雷、孔帕尼下赛季基本确定离队。秃子专挑自己想要的，啄目鸟专挑各种MVP。秃子第一赛季四大皆空，将责任揽下来，称这是曼城给了自己一次机会！啄目鸟二年乌龟流，将责任甩给球员、高层，认为花钱少了，球员太胖了，球员太幼稚了....... 深有同感啊。鸟现在有点走火入魔的感觉 楼上说得是穆里尼奥吗 鸟又多一个外号--祥林鸟 还是看看薪资榜单吧，好吗？？？求你了。<br>人可以输，但是不能输了之后无耻到这个地步！ 法甲mvp伊布，1楼哪里跑火车了？ 卢卡库是砸在曼联手里了<br>卖强队人家可没有不想赢得比赛输不了的本事强强对话不进球<br>卖弱队谁能买得起 我怎么觉得穆鸟差瓜两百年。 瓜不群还差穆帅十年 不管鸟粪怎么洗鸟被瓜虐是事实。全世界赢它最多就是瓜。说到四大皆空，鸟在皇马没有嘛，鸟的车子差点保级。上赛季号称三冠王伟业，这赛季联赛杯输给英冠后说联赛杯不值钱也是你们。鸟粪双标太恶心。上赛季瓜没冠军联赛一样比你鸟排名靠前。 我也是一样。他曾经是我最喜欢的教练，穆一期的时候我的手机铃声就是切尔西的队歌，但是自从他抠眼开始，我越发的讨厌他。现在就觉得他是个泼妇。 你算个几把 穆里尼奥还是把住嘴别说话的好，看到差距努力追赶，这赛季追不上，下赛季再加油，用实际行动来证明自己。瓜上赛季四大皆空的时候没这么多牢骚，默默调整，厚积薄发，才有了这个赛季的一骑绝尘 满嘴跑火车，那三大MVP？ 心虚才会不停抱怨，穆鸟现在就是这样，都是别人的问题，自己永远正确。 唉，你说的没毛病…… 把穆里尼奥新闻发布会说的话分成3段，一段发一篇文章，这样小蝙就有饭吃了 20年的曼联球迷，吉格斯的飘逸，贝克汉姆的俊朗，内维尔兄弟的拼劲，谢林汉姆，索尔斯克亚的默默无闻，斯科尔斯的大将风度，黑风双煞的闪电一击，现在的曼联有什么？ 认个怂逼就这么难吗全世界都看你笑话呢还特么嘴臭➕嘴硬 上赛季谁屁都没拿到 穆鳥哈哈哈哈，就是一個大笑話 我觉得还是知人善用的问题，，上赛季曼城高价买来的后卫斯通斯表现像个漏勺，现在就表现好了。。你得给时间，和信任，从巴萨来的门将那个摄正亡的，这杯赛点球中不也为曼城立大功了么？所以魔力鸟应该给姆希塔良机会，人家在德甲是很厉害的人，不让上场啥意思啊？ 自己去查查再来说 你没有输，全世界都与你作对；不是你错了，是这个世界错了 帮他取个日本名：祥林龟鸟？呵呵😄 鸟粪去数数冠军数有没有瓜秃多吧 我怀疑你眼睛瞎了 上赛季？还没发牢骚？说球员伤病多，赛程密集，裁判执法不公平，这赛季总算让他小人得志一把。穆那里说的不对，本来就是买的不对重新选啊？你花几千万买个门将，是不是成了笑话 据说姆希塔良德甲一个赛季20球23次助攻，很弱吗？ 小看智障表演，如果不服气，赶快去查询，把官方数据贴出来，哈哈，，可惜你查不到，因为梅西他娘从来木有拿过德甲MVP，博格巴也从来没拿过意甲MVP，傻儿们，全靠意淫么？ 不管什么p踢成这样，还不如温4给俱乐部赚赚钱呢 对，你是几把。 这已经快超出怨妇的表现了，也许心理医生对他有帮助。 这算是终极甩锅了！穆龟放大招了😂😂😂 最近这些年：国米魔力鸟➡️皇马啄木鸟➡️切尔西快乐鸟➡️曼联祥林鸟 踢成什么样子关我鸟事，只是看到一群伪球迷在这里满口跑火车有点好笑。<br><br><br>这尼玛就是鸟粪一贯的嘴脸，赢了我的功劳，上帝第二，输了关我屌事？是球员、队医、裁判、球场草皮、赛程、俱乐部工作人员的错，我呸你MMP 说三德子败家我信，说他不花钱补强曼联？亿建联第一个不服<br>后爵爷时代的曼联基本就是钱堆起来的，成绩反而没了 最近这些年：国米魔力鸟➡️皇马啄木鸟➡️切尔西快乐鸟➡️曼联祥林鸟 英格兰最好的守门员？要不你挖去试试？ 9楼死鸭子嘴硬都他妈全赢一遍了还不够非得虐哭才罢休啊该承认就承认 有个鸟！ 不如英格兰一号门将加点钱换西班牙西班牙一号门将怎么样😄 金球奖是《法国足球》杂志评的嘛…[不屑]跟什么足联/没关系…谁能说它不是权威… 祥林鸟只会打嘴炮摆大巴 我怎么觉得穆鸟差瓜两百年。 呵呵 鸟需要的是火车，集卡和坦克。 你们不配喜欢穆帅，狗都不如！穆帅绝对是最正直的人 曼城在之前工程师的调教下，也一直是夺冠热门啊，当然秃子的水平还是得肯定的，不用黑来黑去，我十几年娜娜迷岂不是更苦逼 当然是瓜迪奥拉啊这一点谁洗了啥也没拿到所以瓜迪奥拉啥也没说专注于提升球队实力可没这么碎嘴<br>关键是人家取得成绩后也没给自己脸上贴金<br>这人跟人差距忒大了 保守估计个数据，穆鸟在曼联买的人现在卖出去总价3e多能否卖回本，这个得打个问号，瓜秃买的人，现在卖出去，本钱4e至少赚50%。你是老板你聘用谁？ 这样🚌摆起来才密不透风？ 鸟表真心不要脸啊睁眼说瞎话不怕雷劈的 人都是他挑的，他自己买的。。。 转移话题的高手！曾很喜欢他，但自从他在皇马插人眼抓内鬼开始就越来越讨厌他 同期投入，曼城比曼联多花4000W欧，同期曼城引进14人，曼联7人，曼城人均引援价格2000W+，曼联人均引援4000W+。曼联博格巴、卢卡库、伊布的工资霸占英超工资榜，而曼城也只有阿奎罗是老臣高薪，图雷、孔帕尼下赛季基本确定离队。秃子专挑自己想要的，啄目鸟专挑各种MVP。秃子第一赛季四大皆空，将责任揽下来，称这是曼城给了自己一次机会！啄目鸟二年乌龟流，将责任甩给球员、高层，认为花钱少了，球员太胖了，球员太幼稚了....... 这话没毛病，有个鸟！ 我们小曼联容不下你这大鸟赶紧走吧 鸟粪习惯被打脸😂😂😂 穆里尼奥，不要脸，穆里尼奥，无耻大巴鸟，穆里尼奥，新机婊，穆里尼奥，祥林鸟😂😂😂😂😂 母鸟又找其他借口了，还嘴硬偏不承认自己执教水平不如人家，傻逼鸟！ 曼城换血了？中轴线卡帕尼奥塔门迪，丁丁，席尔瓦，斯特林阿圭罗，敢情都换了？ 鸟又多一个外号--祥林鸟 还是看看薪资榜单吧，好吗？？？求你了。<br>人可以输，但是不能输了之后无耻到这个地步！ 呵呵 提问题就要去当教练？？你对楼下物业不满意就一定要去守门口值班？你是弱智吧？ 瓜不群是谁起的名字，为啥，解释一下 上赛季怎么没人吹曼城啊？这赛季领先了狂吹，瓜到现在还没有在曼城拿过任何冠军吧？呵呵，曼城世界第一。 差几百万没买佩里西奇。。需要的位置没有合适的人选。。的确可惜啊 还想着追赶。这个赛季保住前四就不错了。 瓜不群还差穆帅十年 卧槽，这婊没救了 我也是一样。他曾经是我最喜欢的教练，穆一期的时候我的手机铃声就是切尔西的队歌，但是自从他抠眼开始，我越发的讨厌他。现在就觉得他是个泼妇。 切尔西一期的时候我很欣赏他，现在觉得他很讨厌。<br>江郎才尽，尖酸刻薄。 满嘴跑火车，那三大MVP？ 7500买个后卫确实 这是在败人品吗 20年的曼联球迷，吉格斯的飘逸，贝克汉姆的俊朗，内维尔兄弟的拼劲，谢林汉姆，索尔斯克亚的默默无闻，斯科尔斯的大将风度，黑风双煞的闪电一击，现在的曼联有什么？ 看你怎么理解英格兰………哈特还真是英格兰一号国门[大哭][大哭][大哭] 我要是鸟粪真的都没脸了!各种无耻不要脸的护爹 亚亚图雷什么状态？连联赛杯都勉强，世界级？孔帕尼什么状态？伤了39次的大神，瓜这两年正儿八经的首发打完板着指头数得出来，世界级？德布劳内在瓜来前敢叫世界级？前两年刚被鸟1000万扔掉，丁丁就是吊这句话今年才流行开来！你的世界价随便乱发？席尔瓦是好，但瓜来前没人会认为世界级这种夸张说法。只有阿圭罗勉强算是，不过大把人也说他大赛软虾。不过在瓜这里，阿圭罗不是大腿，扔手套事件表明他不得势。瓜喜欢且更喜欢用的是小耶稣，打曼联就是首发，阿圭罗替补。看你说曼加拉这种连续两年都扔不掉没人解盘的也敢叫次级球星我就觉得太他么可笑了，没有继续对话意义。所以你想证明瓜靠别人遗留大腿真是扯到没边了，还是看看今天到处流传的卡拉格一文吧。无论网易，各队贴吧，虎扑，直播吧各公共论坛都掀起广泛热评，绝大多数的人都认同或者说大致认同。群众眼睛雪亮的，事实怎么样不是你们鸟米一家可以狡辩的<br><br><br>卡拉格说：“穆里尼奥说曼联和曼城现在的差别在与钱这个观点是有瑕疵的。如果瓜迪奥拉执教曼联，我相信红魔会赢得冠军的。<br>让我们回到赛季开始的时候，评估一下曼联和曼城的阵容，一个位置一个位置地去对比，你会觉得哪一支球队的阵容更强呢？埃德森比德赫亚强吗？曼城的中卫奥塔门迪加斯通斯比拜利和菲尔-琼斯强吗？费尔南迪尼奥和马蒂奇曼联球迷们想要哪一个？”<br>“曼联当时破了转会纪录签下博格巴，买卢卡库时又让他成为英超最贵转出的球员，是曼联还是曼城在转会市场上手笔这么大呢？”<br>“一年之前有多少曼联以及英格兰球迷想用拉什福德换来斯特林呢？当马夏尔从摩纳哥刚转会过来的时候，他的名气比萨内转会到曼城时大吗？<br>“买卢克-肖当时花了3000万镑，尽管他是穆帅来之前签下的，但那比曼城买热苏斯还贵，穆里尼奥对阵容价值的抱怨并不合理。”<br>卡拉格说：“穆里尼奥觉得球员们完不成他的计划时，我相信瓜迪奥拉会针对穆里尼奥说需要补强的这套阵容采取不同的办法。即使是现在，曼联的阵容巨星云集，当球星们加盟球队时可谓名气十足，但姆希塔良、博格巴和卢卡库这些人在穆里尼奥手下进步了吗？这对穆帅来说是个很麻烦的问题。”<br>“曼城这个赛季领先是因为瓜迪奥拉提升了球员，而不只是用即战力。穆里尼奥越来越多得依赖有经验有成就的球员，如果你想要慢慢去发展演变一支球队，你是不会邀请穆帅来的。<br><br>最后再回你句，瓜接手的曼城年龄最大，买了16人是为了打造自己体系更重要是要换掉一只老人队！ 祥林鸟 前几年曼联花钱更多，当时曼奇尼的主力阵容在慢慢的褪去，可以说当年曼联底子要远超曼城。 一个正直的人会去戳对手的眼？就跟你一样，说别人是狗不算骂人是吗？ 夫妻本是祥林鸟，大难临头各自飞。 切尔西不是内鬼鸟吗 输不起 上赛季？还没发牢骚？说球员伤病多，赛程密集，裁判执法不公平，这赛季总算让他小人得志一把。穆那里说的不对，本来就是买的不对重新选啊？你花几千万买个门将，是不是成了笑话 亚亚图雷什么状态？连联赛杯都勉强，世界级？孔帕尼什么状态？伤了39次的大神，瓜这两年正儿八经的首发打完板着指头数得出来，世界级？德布劳内在瓜来前敢叫世界级？前两年刚被鸟1000万扔掉，丁丁就是吊这句话今年才流行开来！你的世界价随便乱发？席尔瓦是好，但瓜来前没人会认为世界级这种夸张说法。只有阿圭罗勉强算是，不过大把人也说他大赛软虾。不过在瓜这里，阿圭罗不是大腿，扔手套事件表明他不得势。瓜喜欢且更喜欢用的是小耶稣，打曼联就是首发，阿圭罗替补。看你说曼加拉这种连续两年都扔不掉没人解盘的也敢叫次级球星我就觉得太他么可笑了，没有继续对话意义。所以你想证明瓜靠别人遗留大腿真是扯到没边了，还是看看今天到处流传的卡拉格一文吧。无论网易，各队贴吧，虎扑，直播吧各公共论坛都掀起广泛热评，绝大多数的人都认同或者说大致认同。群众眼睛雪亮的，事实怎么样不是你们鸟米一家可以狡辩的<br><br><br>卡拉格说：“穆里尼奥说曼联和曼城现在的差别在与钱这个观点是有瑕疵的。如果瓜迪奥拉执教曼联，我相信红魔会赢得冠军的。<br>让我们回到赛季开始的时候，评估一下曼联和曼城的阵容，一个位置一个位置地去对比，你会觉得哪一支球队的阵容更强呢？埃德森比德赫亚强吗？曼城的中卫奥塔门迪加斯通斯比拜利和菲尔-琼斯强吗？费尔南迪尼奥和马蒂奇曼联球迷们想要哪一个？”<br>“曼联当时破了转会纪录签下博格巴，买卢卡库时又让他成为英超最贵转出的球员，是曼联还是曼城在转会市场上手笔这么大呢？”<br>“一年之前有多少曼联以及英格兰球迷想用拉什福德换来斯特林呢？当马夏尔从摩纳哥刚转会过来的时候，他的名气比萨内转会到曼城时大吗？<br>“买卢克-肖当时花了3000万镑，尽管他是穆帅来之前签下的，但那比曼城买热苏斯还贵，穆里尼奥对阵容价值的抱怨并不合理。”<br>卡拉格说：“穆里尼奥觉得球员们完不成他的计划时，我相信瓜迪奥拉会针对穆里尼奥说需要补强的这套阵容采取不同的办法。即使是现在，曼联的阵容巨星云集，当球星们加盟球队时可谓名气十足，但姆希塔良、博格巴和卢卡库这些人在穆里尼奥手下进步了吗？这对穆帅来说是个很麻烦的问题。”<br>“曼城这个赛季领先是因为瓜迪奥拉提升了球员，而不只是用即战力。穆里尼奥越来越多得依赖有经验有成就的球员，如果你想要慢慢去发展演变一支球队，你是不会邀请穆帅来的。<br><br>最后再回你句，瓜接手的曼城年龄最大，买了16人是为了打造自己体系更重要是要换掉一只老人队！ 温格：这么多年我说什么了吗？你才几年就受不了了不满意我俩换一换 发觉你这货发的帖大多是人身功击的！只是看足球而已，你觉得这样好吗？你不喜欢曼联或穆里尼奥这没问题啊，那你不看他的比赛就是了，何必要这样呢？为你的后代积积口得吧，二货，噢，你这人品应该不会有后代！ [被黑][被黑][被黑] 亚亚图雷什么状态？连联赛杯都勉强，世界级？孔帕尼什么状态？伤了39次的大神，瓜这两年正儿八经的首发打完板着指头数得出来，世界级？德布劳内在瓜来前敢叫世界级？前两年刚被鸟1000万扔掉，丁丁就是吊这句话今年才流行开来！你的世界价随便乱发？席尔瓦是好，但瓜来前没人会认为世界级这种夸张说法。只有阿圭罗勉强算是，不过大把人也说他大赛软虾。不过在瓜这里，阿圭罗不是大腿，扔手套事件表明他不得势。瓜喜欢且更喜欢用的是小耶稣，打曼联就是首发，阿圭罗替补。看你说曼加拉这种连续两年都扔不掉没人解盘的也敢叫次级球星我就觉得太他么可笑了，没有继续对话意义。所以你想证明瓜靠别人遗留大腿真是扯到没边了，还是看看今天到处流传的卡拉格一文吧。无论网易，各队贴吧，虎扑，直播吧各公共论坛都掀起广泛热评，绝大多数的人都认同或者说大致认同。群众眼睛雪亮的，事实怎么样不是你们鸟米一家可以狡辩的<br><br><br>卡拉格说：“穆里尼奥说曼联和曼城现在的差别在与钱这个观点是有瑕疵的。如果瓜迪奥拉执教曼联，我相信红魔会赢得冠军的。<br>让我们回到赛季开始的时候，评估一下曼联和曼城的阵容，一个位置一个位置地去对比，你会觉得哪一支球队的阵容更强呢？埃德森比德赫亚强吗？曼城的中卫奥塔门迪加斯通斯比拜利和菲尔-琼斯强吗？费尔南迪尼奥和马蒂奇曼联球迷们想要哪一个？”<br>“曼联当时破了转会纪录签下博格巴，买卢卡库时又让他成为英超最贵转出的球员，是曼联还是曼城在转会市场上手笔这么大呢？”<br>“一年之前有多少曼联以及英格兰球迷想用拉什福德换来斯特林呢？当马夏尔从摩纳哥刚转会过来的时候，他的名气比萨内转会到曼城时大吗？<br>“买卢克-肖当时花了3000万镑，尽管他是穆帅来之前签下的，但那比曼城买热苏斯还贵，穆里尼奥对阵容价值的抱怨并不合理。”<br>卡拉格说：“穆里尼奥觉得球员们完不成他的计划时，我相信瓜迪奥拉会针对穆里尼奥说需要补强的这套阵容采取不同的办法。即使是现在，曼联的阵容巨星云集，当球星们加盟球队时可谓名气十足，但姆希塔良、博格巴和卢卡库这些人在穆里尼奥手下进步了吗？这对穆帅来说是个很麻烦的问题。”<br>“曼城这个赛季领先是因为瓜迪奥拉提升了球员，而不只是用即战力。穆里尼奥越来越多得依赖有经验有成就的球员，如果你想要慢慢去发展演变一支球队，你是不会邀请穆帅来的。<br><br>最后再回你句，瓜接手的曼城年龄最大，买了16人是为了打造自己体系更重要是要换掉一只老人队！ 国际足联死乞白赖的要和《法国足球》合并弄个联合会金球奖，办了几届《法国足球》看国际足联一点不专业又分开各玩各的。 瓜比你多花了8000万，多买了7个人，没有去撸各大联赛MVP，曼城主力现在基本都是年轻人，曼联3.2亿就买了7个，这才是有钱任性，结果还只是给球队打补丁，曼城可是换血了，哈特是英格兰最好的门将？我觉得他明年可能都去不了俄罗斯，意甲待不下去，英超保级队都不要了，要穆帅这么喜欢要不拿德赫亚换哈特吧 呵呵，一两回那是运气，四五场下来那还说运气的话！你得滴一瓶萨普爱思了！白内障晚期估计都没救了！ 怎么能出这样的话……太无耻了……脸呢！英超除了曼联哪个队都能说，唯独你不能…… 你执教切尔西、国米、皇马、曼联的时候哪个不是买买买，你自己算算你少买了吗，要点逼脸好不，闭上嘴努力提高成绩比什么都强。你执教的球队阵容被你说的都很差似的 球星吸引力在佛爵退了之后，莫范两代教练是毫无吸引力。曼城原来保级中下游球队，一般球队到慢慢走到豪门自然比其他孤注一掷的投入时间要长，但是比较健康，也给了曼城一个健康的班底，夺冠是从2011-12赛季，13-14赛季，11赛季的阵容直接还有算得上主力不算核心的有阿圭罗，孔帕尼，核心席尔瓦，图雷。教练的事说不清不去扯，但是官宣前曼城记得还是在争冠队列，只能说官宣对那一届曼城影响太大。两年前的曼城世界级的有席尔瓦，阿圭罗，孔帕尼，德劳布内，丫丫图雷，次级球星奥塔门迪，斯特林，纳斯里和曼加拉就不算了，其中斯特林这个赛季在曼城进步明显。而曼联两年前？世界级德赫亚，然后呢？当时后方罗霍，琼斯，林加德，布林德，费莱尼被人骂成狗，瓦是不传，边路黑暗四大天王，有前途的肖胖断腿。鲁尼已经状态大幅下降，真要算给你算一个，马塔一个西班牙替补算个次级球星，马夏尔刚出头也算个次级，拉师傅完全没起来就算了吧，还有其他人么？楼上给说说怎么叫阵容比曼城好了？ 哈哈，大巴鸟就是瓜帅的备胎😂 母鸟喜欢又粗又大的。 未来个毛，得了几次欧足联最佳教练啦巴狗，晒一下 博格巴过亿，三大MVP，都不提了[大笑][大笑] 穆里尼奥还是把住嘴别说话的好，看到差距努力追赶，这赛季追不上，下赛季再加油，用实际行动来证明自己。瓜上赛季四大皆空的时候没这么多牢骚，默默调整，厚积薄发，才有了这个赛季的一骑绝尘 既然2楼和很多人都认为曼城原来的阵容这么好，为何又认为瓜花4.7亿欧是应该的？话说回来，瓜自己也认为凭两年前的曼抬，两年给他5亿镑也达不到他理想中的阵容。扪心自问， 曼联球迷失去兴趣？不要以己度人好么。虽然我是看不惯鸟的风格，但我也不顾突然改换门庭 评选的奖项居然有人相信，C罗、梅西的金球奖不就存在很大争议？何况德甲MVP，而且才值两千多万！ 你怎么没去当曼联主教练？ 瓜帅比穆里尼奥差8年。对，你没看错，8年！足足年轻8岁！未来，一定属于瓜帅！ 明年四强都进不了的话，鸟叔不仅需要时间，更需要一份新工作。 最近这些年：国米魔力鸟➡️皇马啄木鸟➡️切尔西快乐鸟➡️曼联祥林鸟 英格兰最好的守门员？要不你挖去试试？ 换个话题，换个话题 哈哈哈哈有意思。虽然木🐦场上招数只有一招，但场外招多姿多彩啊😄 这话怎么断章取义英语怎么说的中文如何翻译的都不一定怎么回事你以为穆里尼奥傻吗就爱说那种用不着的这文章都没写引用什么时候的采访没写引用哪里的翻译过来的别信 瓜瓜在我小破仁成绩是靠钱买来的？木鸟闭嘴吧你，输球又输人 穆祥林 瓜迪奥拉说我俩互换俱乐部，敢么 在两人对调，估计赛季结束后，曼城也拿不了冠军。 他这样还叫不能随心所欲的买人？买的几乎都是成名的球星，瓜地买的人刚来的时候哪有他买的大牌？只是他用着用着牌就小了。 哪来的同期？平均2000万？ 温格：我日你个鸟，我老板要是那么肯花钱，英超冠军还有你们俩什么事。 刚看球吧？知道mvp是什么意思吗？知道当今现役球员有多少个mvp吗？ 转移话题的高手！曾很喜欢他，但自从他在皇马插人眼抓内鬼开始就越来越讨厌他 这2年净投入曼城比曼联多3000多万而已，就是这六年也只多3000多万而已，其实一直差不错的投入，不信你们去查查看，天天说曼城投入多。自己去求证求证 曼联伊布没有转会费但是签字费高的离谱算进去的话转会开销也不低了 小编绑狗尾狗咬狗 哈哈，你直接说你意淫的MVP不就得了？脸都被抽肿了，还那么倔强，太搞笑了，哥只是告诉你，姆希塔良从没获得过什么德甲MVP，博格巴从来没获得过什么意甲MVP，至于你要意淫其他，哥压根就不感兴趣。专业抽脸，仅此而已。 好好好，别说了，都是球员太垃圾坑了鸟，害得我鸟连平两场下游队，我鸟去曼城五冠打底，拉开第二名20分夺冠手到擒来，真的别说了，我们知道了 哥们儿，说出了我的心声，母鸟插眼前，自己到处找理由为其所作所为辩解。 还是看看薪资榜单吧，好吗？？？求你了。<br>人可以输，但是不能输了之后无耻到这个地步！ 同期投入，曼城比曼联多花4000W欧，同期曼城引进14人，曼联7人，曼城人均引援价格2000W+，曼联人均引援4000W+。曼联博格巴、卢卡库、伊布的工资霸占英超工资榜，而曼城也只有阿奎罗是老臣高薪，图雷、孔帕尼下赛季基本确定离队。秃子专挑自己想要的，啄目鸟专挑各种MVP。秃子第一赛季四大皆空，将责任揽下来，称这是曼城给了自己一次机会！啄目鸟二年乌龟流，将责任甩给球员、高层，认为花钱少了，球员太胖了，球员太幼稚了....... 穆祥林 是毛片还是歌啊！是毛片我就点 表子来曼联以后，带来了一群他那样的“曼联球迷”，也让原来很多曼联球迷失去了对曼联的兴趣。等明年表子走了，表子带来的表子没一个会留下，但是那些曼联球迷还会回来吗？ 这楼狗咬狗，真是一嘴毛啊。不过都是小编绑狗尾了，几乎每条新闻都，坚持不懈挑起话题的那几个绝对是小编，不然谁闲的每条新闻都紧跟 薪金榜前三还是别说了，真的觉得丢脸了 这楼狗咬狗，真是一嘴毛啊。不过都是小编绑狗尾了 点赞自动播放00:00◙▬▬▬▬▬▬▬51<br>⏮⏸⏹⏭ 数据帝才是真球迷！我不看球光看数据。我骄傲。必须评选为MVP才是真正的MVP。联赛招牌球员也没用，反正你没有官方认证！伪球迷死去吧！ 鸟的曼联真的很糟糕，不如曼城！但是脑残粉别吹了行不？？？还换血？？？瓜没来那个赛季就是第一的班底，他一个提前宣布来曼城，结果拜仁曼城同时崩了。至于买人，他只是买了后卫和门将，曼城最弱的俩位置。至于中轴还是沛公留的。别贴金了。别光看新闻。 穆里尼奥还是把住嘴别说话的好，看到差距努力追赶，这赛季追不上，下赛季再加油，用实际行动来证明自己。瓜上赛季四大皆空的时候没这么多牢骚，默默调整，厚积薄发，才有了这个赛季的一骑绝尘 满嘴跑火车，那三大MVP？ 曼联怎么没请你当主教练？ 博格巴，卢卡库，伊布都是拉胖子的球员啊！吸血鬼！ 看你怎么理解英格兰………哈特还真是英格兰一号国门[大哭][大哭][大哭] 鸟的曼联真的很糟糕，不如曼城！但是脑残粉别吹了行不？？？还换血？？？瓜没来那个赛季就是第一的班底，他一个提前宣布来曼城，结果拜仁曼城同时崩了。至于买人，他只是买了后卫和门将，曼城最弱的俩位置。至于中轴还是沛公留的。别贴金了。别光看新闻。 14人你把青年队也算进去了吗曼联刚签了个16岁的300万你算进去平均了没 温格这么说我还可以理解，不过穆鸟折磨说确实有点过了。 羡慕人家的同时，看看人家的业绩，业绩强，费用高，没业绩，你就是花一分，也是浪费 好像自己就不是亿建联似的 瓜秃入曼城以来购买的球员最贵多少？博格巴或卢卡库一般吧。购买的球员工资最贵是多少？萨内或热苏斯有人知道多少？但最贵薪水Top3，博格巴卢卡库伊布.... 曼联阵容真不比曼城差。曼城赛季初公认的顶级球员只有阿奎罗喜娃和德布劳内。然而半程下来萨内斯特拉奥塔门迪沃克热苏斯费鸟都成了顶级 他不该去皇马，去了皇马之后没有以前自信了。以前摆大巴归大巴真非赢不可的时候还是会攻的。皇马归来有点四不象，大巴技术不如从前，攻的时候又犹犹豫豫。 这赛季出彩的事万花筒式进攻斯特林进了挺多球吐出的球也挺多丁丁这赛季英超最佳很有希望不过还是希望其他队别泄气千万别把英超变德甲那就没劲了 曼城换血了？中轴线卡帕尼奥塔门迪，丁丁，席尔瓦，斯特林阿圭罗，敢情都换了？ 踢成什么样子关我鸟事，只是看到一群伪球迷在这里满口跑火车有点好笑。 瓜比你多花了8000万，多买了7个人，没有去撸各大联赛MVP，曼城主力现在基本都是年轻人，曼联3.2亿就买了7个，这才是有钱任性，结果还只是给球队打补丁，曼城可是换血了，哈特是英格兰最好的门将？我觉得他明年可能都去不了俄罗斯，意甲待不下去，英超保级队都不要了，要穆帅这么喜欢要不拿德赫亚换哈特吧 整天叨逼叨，跟个娘们一样 鸟又多一个外号--祥林鸟 像个怨妇 一楼当不上曼联主教练那是他首先没有通过足球教练认证，但是这不代表他跟你一样眼盲、脑残、连基本的是非判断能力都没有！ 数据帝才是真球迷！我不看球光看数据。我骄傲。必须评选为MVP才是真正的MVP。联赛招牌球员也没用，反正你没有官方认证！伪球迷死去吧！ 博格巴过亿，三大MVP，都不提了[大笑][大笑] 切尔西应该改成捉鬼鸟😄 其他不说，就穆说买3个边后卫换2个就混谣视听了。 我会继续努力的 前几天的MVP大多数都在曼黑抬价联 鸟的曼联真的很糟糕，不如曼城！但是脑残粉别吹了行不？？？还换血？？？瓜没来那个赛季就是第一的班底，他一个提前宣布来曼城，结果拜仁曼城同时崩了。至于买人，他只是买了后卫和门将，曼城最弱的俩位置。至于中轴还是沛公留的。别贴金了。别光看新闻。 祥林鸟 呵呵 对啊，所以是精彩言论啊，鸟给大家带来多少欢乐哈哈哈哈哈，马上就要超过四爷了 毕竟痛打落水狗，大家都喜欢看鸟大师的精彩言论 心理医生哪里得罪你了 垃圾废物曼联穆鸟🐦都是垃圾废物曼联穆鸟🐦🐦🐦🐦 姆希塔良什么时候拿过德甲MVP，你给发的？ 一个杂志怎么就不能评奖了？金球奖还是《法国足球》杂志评选的呢！ 博格巴过亿，三大MVP，都不提了[大笑][大笑] 听说英超第一身价第二身价都是你买的？ 意甲博格巴，德甲姆希塔良，还有一个下面补充。 唉，弗格森是不是要哭死在厕所？穆里尼奥虽说有实力，但打法气质上并不适合曼联。弗格森治下的曼联是崇尚进攻的球队，边锋战术一时叱咤足坛。 我可以说瓜迪奥拉有三个欧冠 金球奖还是法国杂志评选的呢<br>杂志评选咋了？ 他妈伪球迷，还嫌弃别人的水平，博格巴从来没拿过意甲MVP，姆希塔良从来没拿过德甲MVP，拜托专业点，别人云亦云，那样会成智障的，去官网查询下会死？ 它是一只傻狗，不用理会！[狗][狗][喷水][喷水] 哈哈，，姆希塔良什么时候拿过德甲MVP？总共在多特待了三个赛季，15-16赛季表现最好，进了11个联赛进球，助攻王，，可那个赛季德甲MVP是奥巴梅杨，数据都没整明白就满口跑火车。 精彩言论？更多的人希望他闭嘴 哈哈咦调整了一下镜片 一个杂志怎么就不能评奖了？金球奖还是《法国足球》杂志评选的呢！ 还是看看薪资榜单吧，好吗？？？求你了。<br>人可以输，但是不能输了之后无耻到这个地步！ 这种MVP和你自己买张报纸写个MVP差不多 一个重建球队大家为什么不能宽容些 法甲mvp伊布，1楼哪里跑火车了？ 我怎么觉得穆鸟差瓜两百年。 鸟粪威武，梅西他娘的mvp给剥夺了 瓜不群在不要脸方面，确实落后祥林鸟10光年 瓜不群还差穆帅十年 踢假球的教练有资格跟瓜比么？ 可以可以。任性 穆里尼奥还是把住嘴别说话的好，看到差距努力追赶，这赛季追不上，下赛季再加油，用实际行动来证明自己。瓜上赛季四大皆空的时候没这么多牢骚，默默调整，厚积薄发，才有了这个赛季的一骑绝尘 满嘴跑火车，那三大MVP？ 抽智障脸咯，哈哈哈！上数据......<br>2015-16赛季已经落幕，各大评选随之而来。德国职业球员工会评选出了上赛季的德甲各大奖项，随后德国足协在官网公布了结果。“大黄蜂”多特蒙德成为最大赢家，他们将最佳球员（AOBA梅扬）、最佳教练（图赫尔）、最佳新人（魏格尔）三大奖项全部收获囊中。<br>在所有的奖项中，最佳球员的归属显然是最具有看点的，媒体此前猜测它将会在莱万和奥巴梅扬之间产生。最终，“加蓬快马”AOBA梅扬成为了赢家，他以19.7%的得票率力压莱万当选，不过，AOBA梅扬赢得非常惊险，他的得票率只比莱万多0.2%。上赛季，AOBA梅扬在联赛中为多特蒙德出场31次，打进了25球并有5次助攻，在射手榜上位居次席，排在榜首的便是莱万，波兰人打进了30个联赛进球。排在第三位的还是多特球员，中场姆希塔良获得了12.6%的支持率。 鸟迷为什么不对范加尔宽容些呢 把穆里尼奥新闻发布会说的话分成3段，一段发一篇文章，这样小蝙就有饭吃了 对的，说到点子上了，没有对比就没有伤害，差距明显。 你真傻还是假傻？杂志可以评选啊，但评选的是德甲MVP？你脑壳摔了么， 20年的曼联球迷，吉格斯的飘逸，贝克汉姆的俊朗，内维尔兄弟的拼劲，谢林汉姆，索尔斯克亚的默默无闻，斯科尔斯的大将风度，黑风双煞的闪电一击，现在的曼联有什么？ 标准的伪球迷，哈哈，当场打脸是不是很爽？<br>智障看清楚，瞧明白咯，姆希塔良总共在德甲踢了3个赛季，就15-16赛季表现最好，其他两个赛季进球3个，9个，怎么拿MVP？抽智障脸咯，哈哈哈！上数据......<br>2015-16赛季已经落幕，各大评选随之而来。今日，德国职业球员工会(VDV)评选出了上赛季的德甲各大奖项，随后德国足协在官网公布了结果。“大黄蜂”多特蒙德成为最大赢家，他们将最佳球员（AO巴梅扬）、最佳教练（图赫尔）、最佳新人（魏格尔）三大奖项全部收获囊中。 真TM伪球迷，梅西他娘表现德甲表现最好是15-16赛季，进球11个，助攻王，可那年的MVP是奥B梅杨，他娘才排第三名，还在莱万的后面，，去官网查询下会死么？ 鸟粪都是你这水平？ 自己去查查再来说 穆婊子这逼越来越不要脸了 智障看清楚，瞧明白咯，姆希塔良总共在德甲踢了3个赛季，就15-16赛季表现最好，其他两个赛季进球3个，9个，怎么拿MVP？抽智障脸咯，哈哈哈！上数据......<br>2015-16赛季已经落幕，各大评选随之而来。今日，德国职业球员工会(VDV)评选出了上赛季的德甲各大奖项，随后德国足协在官网公布了结果。“大黄蜂”多特蒙德成为最大赢家，他们将最佳球员（奥巴梅扬）、最佳教练（图赫尔）、最佳新人（魏格尔）三大奖项全部收获囊中。 脑壳摔傻了？杂志当然可以评选，但评选的是德甲MVP么？满口跑火车，张嘴就来啊，你让德国Z协情以何堪？ 你还是买张报纸改几个字曼联全队都是MVP了 夏普传给夏普，咦怎么球员都叫夏普 哈特是最好的门将？你让德河鸭咋想？<br>鸟怨妇！没有怨不到，只有想不到！ 我怀疑你眼睛瞎了 他也是来过中国比赛的教练中，对中国抱怨最多的教练。 搏眼球的新闻，不看新闻他还真不知道他是继c罗后，在中国被骂得最惨的外国人[窃笑] 一楼确实是20年的曼联球迷，看看用的啥手机？ 那谁谁谁，牛哄哄的冷嘲热讽联赛排名的，麻烦出来抗抗压，毕竟上赛季你们排名都很高啊 穆婊子越来越不要逼脸了 那么贵买两个黑鬼，而且作用还越来越低，曼联亏死发了 lethimgo！ 母鸟就是这样，还有一群鸟粪 穆和瓜看到媒体各种炒作关注，正在跟各大报刊媒体分钱呢 奉先法甲 两个人同时找我借钱买彩票，两元一张，一个花了20元刮出了7，8个奖；一个花了16元两个安慰奖，别的都“谢谢”。。。现在他们又要问我借钱刮奖，你说我借给谁。。 脑壳糊的不轻，谁说杂志不能评选了，但评选的是德甲MVP？你让德国足协情以何堪？ 不对劲儿啊，母鸟现在的讨论应该是抓内奸啊！怎么羡慕人家了呢 人家这叫转移球员压力😂 博格巴什么时候拿过意甲MVP？又你给发的？ 哪年意甲？哪年德甲？还不是满嘴嘴炮？除了一个伊布法甲MVP而且年纪大了，请楼上集资把博格巴和梅西他娘的MVP补上。 这已经快超出怨妇的表现了，也许心理医生对他有帮助。 今年班里第一名学习成绩太好的原因居然是去年班级第6名不给力?? 我就问一个问题，一个球员同时收到了瓜和穆的邀请，会做何选择？ 去曼城挑两个吧，不过明年这时候会发现又是一样的 以前大家都认可的魔力鸟，如今自己作死，把自己变成祥林鸟 跟拉影相比，穆帅太正直 自己花了钱没追上还甩锅曼城花得更多是不是想告诉曼联高层“若要成功必先自宫即使自宫也未必成功” 虽然我比较喜欢穆鸟不喜欢瓜秃，但从建队模式来说，瓜秃是自己有一整套战术理论，根据要求买球员，只要钱管够，就能有效果。穆鸟是买强人，我把防守做好了，进攻你们自己随便玩儿！ 瓜比鸟多花一亿买了17个人可以说是整只球队都换了，而鸟少花一亿也只买了7个。打个比方要是这些人都给了鸟他肯定会说球员太多需要时间磨合。 我是14-15欧冠，切尔西打大巴黎，开场就全线防守，大巴黎上半场罚下一人，然而就这样都不敢攻出去，11人被大巴黎10人压在禁区内摩擦，全场没有进攻战术，最后被淘汰出局，看球多年，第一次被恶心到，从此对鸟无感。 同求啊，让我们都学习下 鸟一向这样，赢的起，输不起。以前比现在更夸张，最近这些年估计挫折多了收敛了不少 感觉木鸟下课的钟声越来越近了 最近这些年：国米魔力鸟➡️皇马啄木鸟➡️切尔西快乐鸟➡️曼联祥林鸟 在国米进攻套路是曼奇尼打造了2年成型的 2楼，请把你说瓜抱怨的那些新闻链接发一下，当时没看到，现在学习一下 卢卡库是不是他买的！ 转移话题的高手！曾很喜欢他，但自从他在皇马插人眼抓内鬼开始就越来越讨厌他 伊布工资高，是因为免签，没什么好说的。博格巴工资高，是因为去年签他的时候，曼联没有欧冠踢，工资低了他能来吗？而且转会费在那儿摆着呢。至于卢卡库，那是真的高，不值。 穆里尼奥真是变的越来越输不起 上赛季？还没发牢骚？说球员伤病多，赛程密集，裁判执法不公平，这赛季总算让他小人得志一把。穆那里说的不对，本来就是买的不对重新选啊？你花几千万买个门将，是不是成了笑话 这死逼也就剩张嘴了 鸟又多一个外号--祥林鸟 曼联：史上最low豪门！ 同期投入，曼城比曼联多花4000W欧，同期曼城引进14人，曼联7人，曼城人均引援价格2000W+，曼联人均引援4000W+。曼联博格巴、卢卡库、伊布的工资霸占英超工资榜，而曼城也只有阿奎罗是老臣高薪，图雷、孔帕尼下赛季基本确定离队。秃子专挑自己想要的，啄目鸟专挑各种MVP。秃子第一赛季四大皆空，将责任揽下来，称这是曼城给了自己一次机会！啄目鸟二年乌龟流，将责任甩给球员、高层，认为花钱少了，球员太胖了，球员太幼稚了....... 网易新闻，作者：风过乡 给你瓜的预算你也一样大巴。曼联的预算给瓜带一样虐你虐出屎。 卢卡库是砸在曼联手里了<br>卖强队人家可没有不想赢得比赛输不了的本事强强对话不进球<br>卖弱队谁能买得起 多卖人多买人，他和门德斯可以赚大钱了！ 心虚才会不停抱怨，穆鸟现在就是这样，都是别人的问题，自己永远正确。 开玩笑，抬联也不缺钱啊 以前自称曼抬的时候感觉挺自豪的呀 你算个几把 穆里尼奥还是把住嘴别说话的好，看到差距努力追赶，这赛季追不上，下赛季再加油，用实际行动来证明自己。瓜上赛季四大皆空的时候没这么多牢骚，默默调整，厚积薄发，才有了这个赛季的一骑绝尘 木鸟，你变了，当年你在切尔西拿着阿布的支票本，可不是这么说的 唉，你说的没毛病…… 偷换概念！他的意思就是成绩不好是钱不够多，不是自己责任。可是曼联和伯恩利又谁更有钱呢？上半场就被进2个，垃圾战术。 如果换过来他会说曼城买的人都太便宜，曼联买的人大手笔，质量高 小山寨都来攻山劫粮，昔日令对手闻风丧胆的红魔竞然落得如厮地步！ 这么下去，恐怕到不了下赛季 认个怂逼就这么难吗全世界都看你笑话呢还特么嘴臭➕嘴硬 还是看看薪资榜单吧，好吗？？？求你了。<br>人可以输，但是不能输了之后无耻到这个地步！ 穆意思他低价买入了人，波霸是前任买的他背锅了 你没有输，全世界都与你作对；不是你错了，是这个世界错了 对，你是几把。 握手，我和兄弟一样一样的，之前在切尔西和弗格森打嘴仗我还觉得终于有人能和弗格森对喷了，在国米能提拔出来米利托，并把巴萨拉下马也是很牛的。不过自从魔力鸟变成啄木鸟以后，真的越来越小人了。 穆鸟现在才是放飞自我，输急了啥都敢说，努力挑起事端，不玩深沉了。他很明白，这样正儿八经踢下去，没一点机会追赶曼城。只有使出盘外招，扰乱对手。 呵呵呵 说实话，不是很相信鸟叔会说这样的话，因为太业余，什么一次性花6，7亿，这根本不可能。只能说自媒体希望挑起骂战吧！ 鸟的意思有钱了就可以把丁丁、席尔瓦、斯特灵、沃克等主力挖走，包冠军 输不起，真没劲，人家买人是为了美丽足球，鸟就是买大巴零件罢了 虽然是实话，但是现在讲就要被人抓小辫子了。。用好自己的人吧，把自己的资源调动起来，另外该补强的位置补起来 貌似疯狂买人的现象还就是从鸟借助阿布的财力开始的 默默买人 所以那些曼城买了上不了场的球员瓜是不管了么废球员? 以前都是巴萨皇马梅西c罗的新闻铺天盖地，如今自媒体，小编不遗余力的各种噱头标题骗点击率，让中国人狗咬狗。[窃笑] 穆里尼奥确实怨妇。不过有一句话确实对，财政公平法案呢，曼城啊大巴黎啊这些年几乎只进不出啊…… 去年抬价1亿买波霸的时候说曼联是最大俱乐部，有钱就能任性，嘲讽别人是穷Ｂ，现在自己撒币了！ 以前鸟喷这个抱怨那个有种桀骜不驯的感觉，就像那种目空一切的天才蔑视这个世界一样；现在鸟也喷这个抱怨那个，但给人感觉就是一个怨妇，或者像文中说的祥林嫂。归根结底还是鸟大师江郎才尽，干什么都失去底气 不许污辱几把…… 帮他取个日本名：祥林龟鸟？呵呵😄 脑残吗？鸟没曼城花的钱多，打不过也就算了，打不过那些小球队，这都要曼城和曼联管理层背锅吗？ 这算是终极甩锅了！穆龟放大招了😂😂😂 都一样，为什么这些土豪买人都可以肆无忌惮，欧足联像联合国一样就是个摆设。 他那种精神刺激法足球现在不起作用了。 本来李是冠军阵容，又砸最多的钱，然后买12个人，然后用3-4个人。瓜就是这样拽，不过砸钱也出成绩了，马上就追上佩公的成绩了！！ 你小看门德斯了门德斯能通过媒体悄悄放消息就像当年嫁祸卡西一样 瓜比鸟多花一亿买了17个人可以说是整只球队都换了，而鸟少花一亿也只买了7个。打个比方要是这些人都给了鸟他肯定会说球员太多需要时间磨合。 场上赢不了你那就要在嘴上赢你 买个超级装甲大巴就行了，也不看自己把红魔带成了什么样子[疲惫][疲惫] 如果可以，我想所有曼联球迷都会赞成只要穆里尼奥还在执教曼联，都不在接受任何采访，完全闭嘴。纯成绩论，有杯留下，没杯走人！那样的话，世界真的清净了，一方面他可以把精力放在球队上，另一方面避免了各种被各路媒体喷子利用，各种断章取义，各种怨妇祥林嫂论！曼联球迷以后看个新闻也能就事论事，轻松自在。<br>事实上这可能吗？就当2018年的一个无法实现的愿望吧。 温盒如果这样抱怨就算了，三德子估计想着就算再重新把曼城球员都买过来，也不见得能踢出曼城的足球 穆鳥哈哈哈哈，就是一個大笑話 找借口大王 改进战术，比什么都好，现在是只会防不会反，倒脚传中… 是的 转移话题的高手！曾很喜欢他，但自从他在皇马插人眼抓内鬼开始就越来越讨厌他 同期投入，曼城比曼联多花4000W欧，同期曼城引进14人，曼联7人，曼城人均引援价格2000W+，曼联人均引援4000W+。曼联博格巴、卢卡库、伊布的工资霸占英超工资榜，而曼城也只有阿奎罗是老臣高薪，图雷、孔帕尼下赛季基本确定离队。秃子专挑自己想要的，啄目鸟专挑各种MVP。秃子第一赛季四大皆空，将责任揽下来，称这是曼城给了自己一次机会！啄目鸟二年乌龟流，将责任甩给球员、高层，认为花钱少了，球员太胖了，球员太幼稚了....... 说这话要点B脸不？你花得也不少啊！ 怎么又多花了1亿？ 退100步，就让穆帅这么说吧，至少曼城花钱确实多。如果今年曼城没拿到欧冠，明天比投入和成绩，估计穆帅就要考虑转战法甲了，唯一更能花钱的球队 还是看看薪资榜单吧，好吗？？？求你了。<br>人可以输，但是不能输了之后无耻到这个地步！ 马桶烧钱也很凶啊 感觉他在曼联花的也不少，他在我心里是表面豪爽内里小肚鸡肠的人设。而瓜瓜感觉是个Gay[微笑]，不过联赛破联赛纪录，欧冠从死亡之组头名出线，瓜瓜绝对是今年下半年的世界No.1。 这两个傻逼都喜欢这样 啄目鸟，天师鸟 江郎才尽，战术老化保守，可以明显感受到老一批的冠军教头都在脱节了，少壮派们崛起势不可挡 我现在看新闻看完标题就来看评论了 瓜不群还差穆帅十年 达尼洛自带属性 巴狗滚吧 最近这些年：国米魔力鸟➡️皇马啄木鸟➡️切尔西快乐鸟➡️曼联祥林鸟 不愧是最特殊的一个 说三德子败家我信，说他不花钱补强曼联？亿建联第一个不服<br>后爵爷时代的曼联基本就是钱堆起来的，成绩反而没了 ",
        "Link": "http://comment.sports.163.com/sports2_bbs/D6T8A5UU00058781.html",
        "Total": 6784,
        "Reply": 292
    },
    "Source": "Netease",
    "Title": "祥林嫂?穆帅羡慕瓜帅:烧钱无上限 不喜欢就重买_网易体育",
    "KeyWords": "穆帅,祥林嫂,曼城,曼联"
}