{
    "Source": "Netease",
    "KeyWords": "阿联酋,迪拜,机场,航班",
    "URL": "http://news.163.com/17/1224/14/D6E7V51D0001899N.html",
    "PublishTime": "12/24/201714:32:52",
    "Comment": {
        "Content": "明天东京大雾。。后天纽约大雾。我草。。。 上个星期从迪拜飞往杜塞尔多夫，买的是阿联酋，可是转机的时候发现我的候机厅不是我阿联酋的航班号，而是MH啥啥啥。后来知道是这驾飞机有三个航班的乘客。但是看到MH两个字，心还是慌慌的_ 国外也有啊 就算你表达的再多国人也不会期望航班延误的，因为如果出现问题，只能傻傻的等 阿联酋大雾 2月刚坐过，105个小时的380上海飞迪拜，确实很舒适，上面播音都是中文英语和阿联酋语，三种语言，菜单都是三种语言，大部分乘客是咱国人，国航二队不是虚的 这算什么新闻 没有启动红、橙、黄、绿、蓝、靛、紫七色预警？ 阿联酋大雾？ 安全为上 是不是没得报道了 ",
        "Total": 11,
        "Link": "http://comment.news.163.com/news2_bbs/D6E7V51D0001899N.html",
        "Reply": 11
    },
    "Article": "（原标题：阿联酋大雾导致迪拜机场部分航班出现延误）图片来自迪拜《国家报》当地时间24日，阿联酋首都阿布扎比和迪拜两大城市连续受到大雾天气影响，给当地交通造成一定影响。大雾导致迪拜机场部分航班延误，据悉阿联酋航空公司当天早上已经有约10架航班取消，并提醒广大乘客在前往机场前提前查询航班信息。阿联酋交通管理局发布交通预警，提示迪拜通往沙迦和阿布扎比等其它酋长国的主干道能见度最低的地方已不超过100米，呼吁司机谨慎驾驶，保持车辆间必要的距离。同时，迪拜警方加强了道路巡逻，组织交通，并及时应对紧急事件。据预计，大雾天气将持续到25日。本文来源：央视新闻作者：龚明责任编辑：李杭_BJS4645",
    "Title": "阿联酋大雾导致迪拜机场部分航班出现延误_网易新闻"
}