{
    "Article": "（原标题：4任落马市长排队受审，创了纪录！）28日，吉林省纪委发布消息：经吉林省委批准，吉林省纪委对吉林省政府原党组成员、秘书长，办公厅原党组书记、主任刘喜杰严重违纪问题进行了立案审查。经查，刘喜杰违反政治纪律，对抗组织审查；违反中央八项规定精神，违规收受礼金；违反组织纪律，在干部职务晋升等方面为他人提供帮助并收受财物；违反廉洁纪律，接受可能影响公正执行公务的宴请，搞钱色交易；违反国家法律法规规定，利用职务上的便利为他人谋取利益并收受财物，涉嫌受贿犯罪。长安街知事发现，刘喜杰的从政经历主要在吉林，其中包括白山市的7年、四平市的7年，2015年10月调入吉林省委工作，直至今年6月落马。今年10月，《人民日报》刊发了《有了全面从严治党，我们才起死回生》一文，其中介绍了这样惊人的一幕：四平市科研院由于两任院长和一批干部的前“腐”后继，职工曾连续9个月没有拿到工资。为了“求条活路”，一些职工开始上访，到了2012年，出现了大规模集体上访。在上访的过程中，四平市委书记、市长上下班只能从一楼办公室跳窗户进出，到了吃午饭的时间，用吊篮将饭菜运上去。这位市委书记正是刘喜杰。提到刘喜杰，就不得不说说他的“死党”王克成和石国祥。2004年，王克成出任四平市委副书记、市长；2008年，刘喜杰担任同样的职务；2010年，石国祥成为刘喜杰的继任者。因涉嫌严重违纪，本月12日，王克成落马；27日，石国祥被查。近半个月，这三任四平市长排着队走向审判台。除了这哥儿仨，今年落马的四平官员，还有四平原副市长王宇。此人大学毕业后就进入了市外经局，直至今年9月落马时也未曾离开四平。28日，王宇与刘喜杰一同被“双开”。吉林省纪委通报：经查，王宇违反政治纪律，对抗组织审查；违反中央八项规定精神，违规接受管理和服务对象提供的宴请和娱乐活动；违反组织纪律，在干部选拔任用中为他人提供帮助并收受财物；违反廉洁纪律，违规收受礼金；违反国家法律法规规定，工作失职、渎职，违规插手城市规划管理活动；利用职务上的便利，为他人在企业经营、承揽工程等方面谋取利益并收受财物，涉嫌受贿犯罪。从2000年2月王克成到任四平，至今年9月王宇落马，三正一副4位市长共耽误了四平17年。时间跨度之大、腐败链条之长令人咂舌。近日，中央政治局召开会议，部署未来反腐工作的重点，明确提出严明政治纪律和政治规矩，锲而不舍落实中央八项规定精神，巩固发展反腐败斗争压倒性态势。当前，四平正在开展为期半年的专项行动，集中整治不负责任、为官不为和发生在群众身边的不正之风。而四平政治生态的修复，还任重道远。本文来源：长安街知事责任编辑：何雨芳_NN5632",
    "URL": "http://news.163.com/17/1229/07/D6QCMC0R0001899N.html",
    "Source": "Netease",
    "KeyWords": "落马,上访,纪委",
    "Comment": {
        "Reply": 3,
        "Link": "http://comment.news.163.com/news2_bbs/D6QCMC0R0001899N.html",
        "Total": 43,
        "Content": "何时查查山东菏泽单县的贪官？ 再多抓几个 怎么没贴？ 何时查查山东菏泽单县的贪官？ 再多抓几个 怎么没贴？ "
    },
    "Title": "创了纪录！吉林四平4任落马市长排队受审_网易新闻",
    "PublishTime": "12/29/201707:46:21"
}