{
    "Article": "刘芸网易娱乐1月4日报道刘芸通过微博晒嘟嘴照，并写道：“我就不配吃饭，除了胖吃饭时还漏嘴，漏了一身油在粉色戏服上，服装老师正在头大的清理，面对全组我表示很惭愧……”照片中，刘芸一身古装装扮，手里捧着吃饭弄脏的戏服，嘟着长长的嘴巴，一脸委屈伤心的样子，看着十分的可怜。此微博曝光后，网友纷纷围观并留言调侃称：“带着围兜吃饭就好了。”“不错，这样做很好，继续保持童心，还小。”更有网友称：“心大的人吃饭都漏。”本文来源：网易娱乐责任编辑：张楠_NK4501",
    "URL": "http://ent.163.com/18/0104/05/D79I9O1V00038FO9.html",
    "KeyWords": "刘芸,漏嘴,戏服,时装",
    "PublishTime": "01/04/201805:12:55",
    "Title": "刘芸吃饭弄脏衣服自嘲\"漏嘴\" 网友：带个围兜吧_网易娱乐",
    "Comment": {
        "Content": "不认识 假脸姐妹团集体包养了一只鸭不知道刘芸参与了没有 真他么恶心！刷什么存在感呢？！自己弄脏的戏服自己洗！有手有脚的，就你有优越感是吧，让人家剧组人员头大的清理，啊呸！不要脸 一天卖傻装愣的假脸天团 装傻充愣 也不是什么好鸟 她以为这表情很无辜很萌很可爱，其实很丑 你姐妹李小璐出軌了，你什麼時候呀 假脸天团姐妹花 说实话，她穿尖头细高跟鞋很好看 最讨厌老女人嘟嘴卖萌哪个年龄段儿就该有哪个年龄段的举止小姑娘就是哭着也是可爱的但到了中年还是举止优雅点吧想想自己的年龄别再装嫩了看着恶心 照片噁心 莫名的讨厌这种长相，既不女人也不可爱，只有恶心，丑 说的√ 不认识 假脸姐妹团集体包养了一只鸭不知道刘芸参与了没有 真他么恶心！刷什么存在感呢？！自己弄脏的戏服自己洗！有手有脚的，就你有优越感是吧，让人家剧组人员头大的清理，啊呸！不要脸 一天卖傻装愣的假脸天团 装傻充愣 也不是什么好鸟 她以为这表情很无辜很萌很可爱，其实很丑 你姐妹李小璐出軌了，你什麼時候呀 假脸天团姐妹花 说实话，她穿尖头细高跟鞋很好看 最讨厌老女人嘟嘴卖萌哪个年龄段儿就该有哪个年龄段的举止小姑娘就是哭着也是可爱的但到了中年还是举止优雅点吧想想自己的年龄别再装嫩了看着恶心 照片噁心 莫名的讨厌这种长相，既不女人也不可爱，只有恶心，丑 ",
        "Link": "http://comment.ent.163.com/ent2_bbs/D79I9O1V00038FO9.html",
        "Total": 405,
        "Reply": 14
    },
    "Source": "Netease"
}