{
    "URL": "http://news.163.com/17/1231/16/D70EMPMV0001899N.html",
    "Article": "（原标题：可怕！绵阳情侣酒店开房凌晨醒来发现天花板装有摄像头）封面新闻讯29日晚，绵阳男子杨某带着女朋友在绵阳西山东路一酒店入住，30日凌晨5点女朋友醒来，竟然发现房间天花板上有一个针孔摄像头。在告知酒店负责人后，双方均选择了报警。目前，警方正在进一步调查中。12月30日下午4时左右，绵阳特巡警支队巡逻三大队接指挥中心：西山东路某酒店内，一男子报称其入住的酒店房间内天花板上发现一针孔摄像头。接警后，民警迅速赶往现场。据报案人杨某介绍，他和其女朋友于29日晚上11时左右入住该酒店，女朋友在30日凌晨5时左右醒来后，无意间发现床铺上方正对着的天花板上，有一处非常不起眼的微弱红色指示灯光一闪一闪的，感到很奇怪。杨某被女朋友叫醒后，先观察了一下，随后又打开房间内的灯，这仔细一看不打紧，这道微弱红色指示灯光竟是距离天花板上射灯旁30～40厘米距离左右发出来的，微弱红色灯光处竟是一针孔摄像头。杨某非常气愤，没想到这种只是在电视中、网络上才能看到的情节居然被自己遇上了。随后立即找到酒店负责人，酒店负责人闻讯一脸愕然，双方都感到头疼，这对情侣担心隐私泄露，酒店方深感震惊，双方协商后均同时选择了报警。目前，警方正在进一步调查中。民警提醒，市民旅游出行住宿时，入住房间后一定要注意检查酒店房间内是否有摄像头等侵犯个人隐私的物品，确保自身安全以及隐私安全。本文来源：封面新闻作者：刘虎责任编辑：徐萌_NN7485",
    "KeyWords": "摄像头,绵阳,情侣,开房",
    "Source": "Netease",
    "Comment": {
        "Reply": 1312,
        "Content": "秦先生总共换过3个马甲，<br>第一个是91广东小鲜肉，作品：广东小鲜肉女神系列10部；<br>第二个是91小鲜肉乌索普这个系列8部；<br>第三个是现在的秦先生，目前出到了15部。<br><br>c仔换过4个马甲<br>逍遥哥，混血哥，内裤哥，现在是仓本c仔，作品50部+；<br><br>前三个马甲的作品虽然女主都是整容脸，但是身材都很极品，什么长身巨乳，短发师妹真是实战利器，而且叫的也骚。<br><br>仓本c仔这个系列，什么COS橘梨纱、瑾美香、明日香、京香美眉、拉拉队长、姐妹花、萝莉女仆、小秘书、长靴姐姐、篠田优、小护士吉泽、上原、郭静静、连体袜素人、丝袜白领、韩小美、南航水野爱、CC姐、海天盛筵，个人不喜欢这种灰冷的画面风格，就不收集了。<br><br>康先生<br>目前作品44部。<br><br>根据个人喜好来个排名广东小鲜肉乌索普秦先生前8季内裤哥，逍遥哥，混血哥，秦先生9-15季康先生c仔<br><br>（因为前面3个id作品大多都是做的时候拿着手机拍摄，画面色调明快，第一人称视角，看着更带感，女主也很漂亮，对话也比较多;后面的基本都是摄像头偷拍，色调昏黄，而且女主整容脸看着太硬） 91在线，现场直播[大笑][大笑] 大神，那个是不是要会费才能进的？ beautybox资源盒子 一网打尽 喂，妖妖灵吗…… 两部怎么样？ 给你们网站 771230影视 这酒店的信誉算完蛋了。希望曝光酒店名称。 这里只有精品 求网站 95paO 有部三男两女的在酒店一女被搞水喷一两米高… 好眼力 奥，什么事啊？看片呢！一会再说 你怎么不说说你们俩有没有啪啪啪？如果有的话那就彻底完了，警察叔叔正在偷笑。 1024 教大家一个简单的方法，就能知道室内有没有装摄像头，在室内关灯全黑的情况下，打开手机录像周处照，屏幕上发现有不明红光或者白光的，你就要注意了。因为针孔摄像头都要红外红铺助才能录清楚人的。以为这方法有用的，点个赞再呗。 为什么找不到地址啊，谁告诉一下 路过。 你也有关注康与秦的作品啊？ 情侣去酒店不啪啪啪。难道看天线宝宝吗[微笑] 91大神很多，推荐小鲜肉系列，菜花儿，康先生，秦先生， 91pron版权声明：:91视频所以视频均为网友自拍上传,如无意侵犯你的权力请来信通知删除. 太可怕了，住酒店要慎重选择 这车开的可以 一楼，地下室商量个事。 大学附近的旅馆都有吧，很有网站都有视频[微笑] 还是我来吧，92多特91p[狗]后面是两个数字 网上太多卖这样的摄像头，以后住酒店要特别小心了 我不是发了网站吗，771230百度 seku点踢萎，试试 求地址 给摄像头都看硬了…掉下来了…[微笑] 到处都没有安全感 一楼大神，给地址！ 汤姆影院～不谢 老哥，借一部说话。 有问题 666 假的 就算是给单身狗福利了[窃笑] 我在酒店 澳门网上赌场上线啦 能来个地址吗？ 马克先 这些酒店安装这摄像头是为了获得客人的隐私并进行敲诈勒索的吧！ 91在线，现场直播[大笑][大笑] 人这一辈子要学的东西多了去了 看这种视频可以打飞机 应维权 哈哈哈哈哈哈 现在看AV的太多个个去偷拍，住酒店不安全了，看别人的是刺激但是不想发现自己也被拍。。。 求种子，，，，，，，，，，，，，，，， 喵了个咪得。。。。若干年后，打开网站辅助一下，结果看到自己了老婆了，哈哈哈哈， 有戏 楼上，尼麻麻2018年第一天就又去沈阳八一公园亮鞋底了😂左脚30，嫌贵就抬右脚，25！😂<br>元旦节促销，团购可送精装杜蕾斯一盒，有发票，京津冀包邮😆凭老年证、学生证、军人证，免费😂包夜还送方便面😆 真的没有一点安全感。 接连不断有这事发生，又有很多评论被删除屏蔽了 外星人合法安装的！ .... 现在已经不是什么秘密了上面很多视频都看麻木了 男的会不会吓委了 牛啊 大家相信上帝吧 好爽 有部三男两女的在酒店一女被搞水喷一两米高… 估计我以前在旅馆啪啪啪的视频不知道流转多少出去了。 你怎么不说说你们俩有没有啪啪啪？如果有的话那就彻底完了，警察叔叔正在偷笑。 我弟弟信上帝，，，，，，，，， 好细心 。。。 应该是这样。 哪里看 我去 真够热闹的 处罚 牛逼 坚决严惩这种恶劣行为 呵呵 民警提醒，市民旅游出行住宿时，入住房间后一定要注意检查酒店房间内是否有摄像头等侵犯个人隐私的物品，确保自身安全以及隐私安全。什么世道，这不是酒店做的事吗？什么变了顾客做了。 大学附近的旅馆都有吧，很有网站都有视频[微笑] 那是声控的，不啪啪不摄录！！！ 正常 老哥，借一部说话。 可啪 呵呵！！！ 是不是依法安装的？ 干活的时候盖上被子气死他们 好可怕 呵呵 就算是给单身狗福利了[窃笑] 不是单身高的福利，是单身狗的毒药！！<br>在一个饥寒交迫的乞丐面前，晃动一碗红烧肉，，，，，，，，，，，， 妻不如妾，妾不如偷，偷不如偷不着，老铁偷拍你没毛病。 楼上看见自己老婆了，真是太幸运了。✌😂✌ make 应该规定发现酒店客房暗藏摄像头，无论任何原因首先罚款十万！看看还会出现这事不？ 太无耻了 这能叫针孔摄像头？!!!!!!!! 91在线，现场直播[大笑][大笑] 应该重罚！！！ 变态 直播了啊 警察提醒，就是屁话，以为人人是侦探 花钱住酒店还得自己去检查有没有摄像头，靠。。。。 哎， 居然 必须维权！ 秦先生总共换过3个马甲，<br>第一个是91广东小鲜肉，作品：广东小鲜肉女神系列10部；<br>第二个是91小鲜肉乌索普这个系列8部；<br>第三个是现在的秦先生，目前出到了15部。<br><br>c仔换过4个马甲<br>逍遥哥，混血哥，内裤哥，现在是仓本c仔，作品50部+；<br><br>前三个马甲的作品虽然女主都是整容脸，但是身材都很极品，什么长身巨乳，短发师妹真是实战利器，而且叫的也骚。<br><br>仓本c仔这个系列，什么COS橘梨纱、瑾美香、明日香、京香美眉、拉拉队长、姐妹花、萝莉女仆、小秘书、长靴姐姐、篠田优、小护士吉泽、上原、郭静静、连体袜素人、丝袜白领、韩小美、南航水野爱、CC姐、海天盛筵，个人不喜欢这种灰冷的画面风格，就不收集了。<br><br>康先生<br>目前作品44部。<br><br>根据个人喜好来个排名广东小鲜肉乌索普秦先生前8季内裤哥，逍遥哥，混血哥，秦先生9-15季康先生c仔<br><br>（因为前面3个id作品大多都是做的时候拿着手机拍摄，画面色调明快，第一人称视角，看着更带感，女主也很漂亮，对话也比较多;后面的基本都是摄像头偷拍，色调昏黄，而且女主整容脸看着太硬） 呵呵了 我在家了。你是不是我的生活状态和心情一样可以 。。。。。。 ，， 天网工程官民共建无所不在 通知个自的丈夫和妻子来处理 。。。 无语 会开始钓鱼 尴尬了 吼吼吼 这事情挺多啊 布鞋 现在住酒店都不放心 市民旅游出行住宿时，入住房间后一定要注意检查酒店房间内是否有摄像头等侵犯个人隐私的物品，确保自身安全以及隐私安全。 …… [色色] 卖淫嫖娼 有什么方法可以避免吗 无孔不入——针孔摄像头。 在播 …… 让情侣通知双方的家庭和单位都到酒店，商量一下赔偿事宜，报销路费 老哥，借一部说话。 mark 靠。 也不知道今天看的这几部的主角是不是他们。。。 叫你们野合！看以后咋办 别去酒店，在车上弄 该谁负责 信息时代，眼睛无处不在 呵呵 呵呵 兔子 nn 这些酒店安装这摄像头是为了获得客人的隐私并进行敲诈勒索的吧！ 呵呵呵呵 绝对卖p的 不管是不是酒店安的都有责任…… 我买站票了，我要上车 椰子哥也不错的 哈哈 非法同居，抓起来吧 明显，是酒店的责任。应该严惩。 呵呵 这已经成为一个庞大的产业。闹将起来以维权的名义敲点金币。司空见惯。到处是没信仰没底线辛苦谋生的人们。能维持一天算一天 罚它一百万..... 这酒店的信誉算完蛋了。希望曝光酒店名称。 看到没，你们搞摄像监控设计生产行业的，一定要避免红外污染（那个什么莹的，红外光束竟然是显现型的设计，说是让小偷看见起阻吓下作用），这个选择权应该给用户才好吧，否则，轻则，让来家的亲朋好友不舒服，有被人盯着的感觉，重则，你看出事儿了吧！ 91大神 起诉他 天上人间免费黄色影视 [鄙视][鄙视][鄙视] hhj 91pron版权声明：:91视频所以视频均为网友自拍上传,如无意侵犯你的权力请来信通知删除. 91在线，现场直播[大笑][大笑] 侵犯个人隐私，这是犯罪。在国外早被抓了。中国人没有隐私可言，刷脸就是这样。 91大神很多，推荐小鲜肉系列，菜花儿，康先生，秦先生， 91porn的网址变幻莫测，是生命力最强的国外。。。 狗屁情侣！都是卖淫的！！！ 不用担心了，已经泄密了，估计都没打码 发个网址呗，加我微信有红包五元 现在住酒店都不放心 估计老子在外卖地瓜的时候，儿子在家开着空调玩手机 这是属于谁的责任？ 嘿嘿嘿嘿 到处都没有安全感 就是酒店设置的!!! 到处都没有安全感 老哥，借一部说话。 同意楼上观点，总结的很到位 呵呵，够恶心 法律有条文规定不能安装吧！？起诉他！ 我买了站票 老司机在哪。带一带 不知道他们当晚做那事了没用😭 酒店有不可推卸的责任 起诉酒店。 世间百t 好眼力 哈哈 hhj 哈哈哈哈哈哈 真人现场直播，刺激 91在线，现场直播[大笑][大笑] 公知母知李淫河 起诉他 呵呵 开房要注意一下了以后。 喵了个咪得。。。。若干年后，打开网站辅助一下，结果看到自己了老婆了，哈哈哈哈， 你怎么不说说你们俩有没有啪啪啪？如果有的话那就彻底完了，警察叔叔正在偷笑。 🐎 中奖了 社会 有手势认证的才是真的，你懂的 直播 。。。。。。 把91推向浪贱 开房不啪啪啪还来谈心啊？ 苍天有井独自空，星落天川遥映瞳，小溪流泉映花彩，松江孤岛一叶枫，南海涟波潭边杏，樱花尽朱落无音，神仙内谷美人姬，饭尽之岛成梦爱，西塞山野雁自翔，小桥水泽浸芳园，武园枯藤空留兰。 直播了 其实一大群又玩成“地主搞女人”的国家，对民众上街权这件可以引导好的人文的事却深感恐惧的，，，，，，，，，，，，，，，<br>================================================ 酒店负责人闻讯一脸愕然，双方都感到头疼～～ 91pron版权声明：:91视频所以视频均为网友自拍上传,如无意侵犯你的权力请来信通知删除. 用雅虎搜索草榴社区，挨个打开，有能进去的。过段时间被屏蔽了就继续用雅虎搜。不用谢我是雷锋！ 东北人应该嗦：爱玛老铁嗷？滋不滋道俺们西塔五爱街橙子哥隔我俩叭叭滴都吐露皮了 一个国家，害怕自己的民众，还是不是1国家？<br>答，封建王朝算不算1个国家？ 警察要检查内容的 苍天有井独自空，星落天川遥映瞳，小溪流泉映花彩，松江孤岛一叶枫，南海涟波潭边杏，樱花尽朱落无音，神仙内谷美人姬，饭尽之岛成梦爱，西塞山野雁自翔，小桥水泽浸芳园，武园枯藤空留兰。 刷我滴卡 老哥，借一部说话。 呵呵 吓死人了 天呐 我要上车 危机无处不在 nn 给摄像头都看硬了…掉下来了…[微笑] 已补 澳门首家线上赌场上线啦 严惩不法分子 哈哈哈 去情侣酒店，难道是彻夜长谈？ 怎么搞的啊，啥几把宾馆，怎么管理的啊？ 说啥呢 晕啊 是porn。pron是啥意思？ 偷拍还亮红灯，生怕看不见啊 呃。做爱还能发现针孔摄像头！有心还是分心？ 猥琐 大学附近的旅馆都有吧，很有网站都有视频[微笑] 这样的事件已经不是一，二次了，酒店方要严罚 楼上看见自己老婆了，真是太幸运了。✌😂✌ 防不胜防，一看就是个黑店。 。。。。 这种视频应该很贵吧？ 提醒大家今后不管住酒店还是旅馆，都要用几分钟时间自查是否安装针孔摄像机，以防被偷拍。 警察叔叔又饱眼福了 严惩 顺着网线去看就连在客房部的总机上。 厉害厉害 啊哦 这个社会光只一个酒店黑吗？ ，， 现在还能下载APP吗 我操！住店还要為酒店破獲各類違法案件？什麼狗屎都來了！ 刷我滴卡 秘密拍摄然后出卖到海外，制作光碟出售。 日批视频外泄 1人偷看，2人偷奸。。。。。。。。 69式被录下了，不用看成年人都知道，男的舔芯子，女的吃火腿，喝能! 希望认真调查，严惩不法分子。 91pron版权声明：:91视频所以视频均为网友自拍上传,如无意侵犯你的权力请来信通知删除. 现场直播 91在线，现场直播[大笑][大笑] 能。。。。不用翻。。。 春光乍泄 很有可能 科技网络越发达，人们生活越不自由。 马克收藏 😭😭😭😭😭😭👎👎👎😭哭笑不得！ 近水楼台先得月 不看那些小说了，这些小说都带着垃圾目标很难烂，还是我自己来写：<br>1、女：你看那个女的了哦。<br>男：看了，咋的，你想这样满足我？<br>女：鬼才想。<br>----------<br>男：你看那男的了哦。<br>女：看了，咋了，你想这样满足我？<br>男：没那本事，视角人文之喜好何其多也，1J1B较为公频，而引诱之力，是相互需要时努力做出来的结果，找个地儿来1下？<br>========================<br>那里有地主，灭之。<br>那里有个农民，给点技术。<br>那价值如何引导？<br>农民连开个路边店的钱劳动的资格权的钱都不发，这叫什么社会？地主不劳实际劳动，却把价值引导方向取向多搞女人，这是什么定价社会？ 大学附近的旅馆都有吧，很有网站都有视频[微笑] 怪不得网站上面那么多小视频[暴怒] 不好 这属于非法偷奸，，，，，，，，，，，，，，，，， 落伍，，现在谁还用种子。。， 现在都用三楼它吗？ 现在谁还用网线？都是带无线Wi-Fi的摄像头。😂😄 现场直播， 这是怎么的。 老哥，借一部说话。 好像国内的看不了，要翻墙才可以看 通过手机广泛传播 酒店管理漏洞百出 新年开始了，先看个片！ 好久没上91看了 我都看到了姿势太少就特么一顿日 啊啊啊啊啊啊 这样可好了 求种子谢谢[可怜] ！！ 太卑鄙了 TMD，什么社会一点安全感也没有。 这酒店真缺德，法律制裁。 住酒店都提心吊胆，一不小心暴露在光天化日之下。 大学附近的旅馆都有吧，很有网站都有视频[微笑] ",
        "Total": 19505,
        "Link": "http://comment.news.163.com/news2_bbs/D70EMPMV0001899N.html"
    },
    "PublishTime": "12/31/201716:16:58",
    "Title": "情侣酒店开房 凌晨醒来发现天花板藏着针孔摄像头_网易新闻"
}