{
    "Title": "剁手党福利!商务部:中国将进一步完善免税政策_网易新闻",
    "URL": "http://news.163.com/17/1225/16/D6H1MDA30001899N.html",
    "Source": "Netease",
    "Comment": {
        "Total": 24,
        "Reply": 2,
        "Content": "骗鬼MD买个20刀的吃的结果运费跟税比商品价值还高！买个220包邮的衣服就税就50多刀！ No信 骗鬼MD买个20刀的吃的结果运费跟税比商品价值还高！买个220包邮的衣服就税就50多刀！ No信 ",
        "Link": "http://comment.news.163.com/news2_bbs/D6H1MDA30001899N.html"
    },
    "Article": "【剁手党的福利来了！中国将进一步完善免税政策】商务部25日称，今后将发展免税业务，研究完善免税政策，为进出境人员提供更便利的购物选择。同时，将鼓励大型电商平台与国际知名品牌合作，把优质商品特色服务引进来，满足中高端消费需求。本文来源：国是直通车作者：李晓喻责任编辑：徐萌_NN7485",
    "PublishTime": "12/25/201716:40:58",
    "KeyWords": "商务部,中国,剁手党"
}