{
    "Title": "肯尼亚交通事故致至少36人死 其中一车刹车疑失灵_网易新闻",
    "PublishTime": "12/31/201718:21:00",
    "URL": "http://news.163.com/17/1231/18/D70M5M8A000187V9.html",
    "Source": "Netease",
    "KeyWords": "交通事故,肯尼亚,汽车,卡车",
    "Comment": {
        "Reply": 12,
        "Content": "没有看到新年，逝者安息🙏吧 刹车失灵了，没用脚刹吗？ 逝者安息 只不过公开价格变成黑市价格而已，经济规律一直都在，二战战俘营里的香烟价格，你不妨去研究一下 刹车失灵了，没用脚刹吗？ 安息吧 滚动播放 有一条规定就是不能驾驶有安全隐患的机动车上路行驶,刹车失灵就是安全隐患,驾驶员就有责任 领导忙生活好国外乱<br>-新闻联播主基调 刹车失灵了真接撞上去的,肯定就没有刹车痕迹了. 长毛象牙看升 这些都是钱啊哦！干嘛烧了 没有看到新年，逝者安息🙏吧 好支威希 逝者安息 ",
        "Total": 74,
        "Link": "http://comment.news.163.com/news2_bbs/D70M5M8A000187V9.html"
    },
    "Article": "（原标题：肯尼亚交通事故造成至少36人死其中一车刹车疑似失灵）"
}