{
    "Comment": {
        "Total": 2390,
        "Reply": 139,
        "Link": "http://comment.sports.163.com/sports2_bbs/D75ODC1J00058781.html",
        "Content": "垃圾废物C罗吃狗屎垃圾废物皇马垃圾废物C罗吃狗屎垃圾 傻逼狗骡 状态不好 C罗，卡卡，鲁尼。史上最被高估的三个球员！ 网上刷刷存在感呢！不然这帮废物你还指望他们干啥 不给高工资就离队，巴萨都很怕梅西的。 皇马垃圾废物C罗吃狗屎垃圾 早点滚,还加薪?你是想皇马死在你手里 狗罗屎上最佳！ 球玉修炼手册<br>词曲：不曰不舒服<br>演唱：C罗粉<br>跟着骡左脚右脚一个慢动作，右脚左脚慢动作重播，踩单车过人王者，你有没有爱上骡？跟着骡点球怒吼露一露肌肉，戴帽发胶乡村杀马特，球场有太多未知的猜测，四大皆空又算什么。头发抹亮，换上泳装，带着多进点球的梦想。我的点球充满力量，奇妙绕过每一座人墙。这回合的吹罚，因为干爹才能让我十二码。这禁区的中央，有我才能罚，点球才能破球荒！跟着骡左脚右脚一个慢动作，右脚左脚慢动作重播，踩单车过人王者，你有没有爱上骡？跟着骡点球怒吼露一露肌肉，戴帽发胶乡村杀马特，球场有太多未知的猜测，四大皆空又算什么。经常会想进球多好，有些进球却只能摔倒。想跳就跳，想脱就脱，为了射点的自己鼓掌。这回合的吹罚，因为干爹才能让我十二码。这禁区的中央，有我才能罚，点球才能破球荒！跟着骡左脚右脚一个慢动作，右脚左脚慢动作重播，踩单车过人王者，你有没有爱上骡？骂队友表子养，抢单刀不客气，一路认爹跳水射点无限动力。真性情，没有什么输不起，窝骡修炼球玉的秘籍。跟着骡点球怒吼露一露肌肉，戴帽发胶乡村杀马特，球场有太多未知的猜测，四大皆空又算什么。 最炫霉侏风<br>汪！吐！碎！佛！<br>百万的税款是我的爱，<br>芭莎的生长素是我等待，<br>什么样的大门它射呀射不开，<br>什么样的干爹才是最牛掰。<br>决赛点球飞机打下来，<br>退出国家队不和你们玩，<br>教练队友背锅是我在耍大牌，<br>一路边走边呕才是最自在，<br>我们要吐就要吐得最痛快！<br>你是我天边飞机的舞台，<br>让我一脚把你打下来（打下来）！<br>悠悠的唱着最炫的霉侏风，<br>赶忙退队不带你们玩（不带玩）！<br>你是我心中最美的税款，<br>亲爹出马把你偷下来（偷下来）！<br>永远都唱着最炫的霉侏风，<br>当了罪犯不用做劳改（偷下来）！<br>（哟啦啦呵啦呗）<br>（伊啦嗦啦呵啦呗呀）<br>我听见你呕吐动人的天籁，<br>下次点球照样飞天台~ 皇马迟迟不续约，大概是不想要我罗了吧，2400W觉得不值，想要4000W，看来只有去更高级别的中超了。作为黄马球迷，我忿忿不平，呜呜呜呜呜呜呜... 嫉妒呗 C罗真实水平进不了现役前五 2021现在就续约疯了吗？这种年过30的老将应该一年一签了 C罗尴尬了！4大榜单票选，梅西都是世界第1人[微笑] 原来历史最佳年薪比梅西少这么多，也不清楚皇马高层按什么标准制定年薪的，如果按照过人自己绊倒和射门暴力抡空来衡量，历史最佳现在拿哪点零头就差不多了 皇马垃圾废物C罗吃狗屎垃圾 历史最佳不是皇马天王吗？现在老了地位都没了吗？ 跪求皇马俱乐部卖掉贝尔、本泽马、拉莫斯、马塞洛，然后给我罗加薪 梅西就是巴萨天王，谁敢违背他呀？不给 (;｀O´)o 皇马球迷和巴萨球迷都希望我罗顶薪续约 说啥大实话[狗] 不懂球，瞎逼逼 屎上必须屎上最高年薪！！100层屎够不够？ 人家就靠这一贴活着，不然了无生趣，要理解，要有爱心好不好? 克里斯蒂亚诺·罗纳尔多、里奥·梅西、皇家马德里俱乐部和巴塞罗那俱乐部的最近一百万年的好运气都用光了，接下去克里斯蒂亚诺·罗纳尔多、里奥·梅西、皇家马德里俱乐部和巴塞罗那俱乐部会一直倒霉的。 能10亿欧续约最好，签100年 我就觉得差不多就行了，人家俩奖杯拿到手软，我们跟着起劲干什么 不给高工资也不走，看来历史最佳还是有自知之明的 当年的伯纳乌王子劳尔也不能在皇马终老，皇马的商业味已远远的超出了人情味 狗螺、霉戏足坛两大奇葩！....... 履行完合同都36岁了，还续个屁约 当时赛季初内马尔离队，打乱整个巴萨的战术布置，影响球员心态。皇马趁机博乱，赢了一个完全不在状态的巴萨，还吹牛十年没对手，现在等巴萨缓过神来打的你妈都不认识，而且弟弟和登贝莱都伤了[窃笑] 没说C罗不是顶级球员，但是楼主黑子还拿偷税说事，现在C罗偷的税比梅西多几倍还好意思提这事 虽然我是梅西球迷，但是也觉得这有屁用，世界足球先生和金球才是权威！！！其它都是遮羞布！梅西到头也就这样了，西甲欧冠希望有，但是不能说稳！世界杯就拉倒了，现在的阿根廷比14年差了很多，没有新人成长！而C罗也是西甲欧冠希望有，欧冠希望比梅西还大！世界杯同样拉倒，虽然葡萄牙估计走的比阿根廷远一点，但也是个几率问题，不是水平高低，我只是觉得葡萄牙的球风更适合大赛罢了！！！所以未来2年，C罗金球还有机会，梅西也有，但比C罗小的太多了！！！ C罗就是再不行也是数一数二的运动员，没必要这样贬低吧 所以说C罗还不看清形势，降薪续约，好绑住皇马这条大腿，不然佛爷一怒，这辈子别说欧冠金秋了，连个屁都混不上了 参考没有c罗的欧洲杯决赛[不屑] 在事实面前这些喷点显得苍白无力。甚至可笑。 他终是要证明自己比他强，而他重来不需要证明！ 齐达内只要敢把C罗按在替补席上，欧冠国王杯手到擒来，联赛落后是多了点，不过干爹加把劲也没问题的 我倒要看看没有C罗的皇马齐达内能带出怎样的一支球队！！！！！！！！ 這個新聞想表達的是，齊達內想離開？還是C羅想離開？33了，還要天價年薪到退役？這符合皇馬風格？？當年，耶羅，勞爾，古蒂降薪退役都不行…… 被高估都能拿到那么多荣誉和成就，那些被低估的是有多垃圾？ 转会曼联？曼联这是疯了么，先是伊布，还要C罗，要知道足球是团队项目，太独的球员只会造成球队的分裂！ C罗降薪拿1000万打替补吧，像NBA那样续约，4年4000万。C罗直接从伯纳乌退役吧。 傻逼狗骡 关键是，谁会给一个34岁的老将4000+万欧的年薪？<br>现在C罗只希望皇马能够在跟你续约两年就不错了。<br>弄皇马不开心，直接将你处理掉，也是有可能的。<br>当年劳尔比你资历老不老？不也一样吗？ 我们曼联傻逼啊，一个亿买个34岁的人 C罗，卡卡，鲁尼。史上最被高估的三个球员！ 屎上最佳闹脾气了 不给高工资就离队，巴萨都很怕梅西的。 这就对了，梅西从来不比！！只有傻逼比梅西 你觉得皇马赢巴黎的希望会比巴萨赢切尔西更大？ 至少我觉得C罗配得上顶薪合同，虽然佛爷肯定是打算过两年再看看 狗罗屎上最佳！ 笨马不能卖，这个阵眼很重要，少了达尼漏不能再少笨马了！ 老佛爷：加薪？联赛过半进球不过一巴掌的射手你想要多少 履行完合同都36岁了，还续个屁约 皇马垃圾废物C罗吃狗屎垃圾 你见过那个人会找营业员玩？那都是给历史最佳留着的，绝配绝配 呵呵，屎上最佳牛比，一个射门员想和组织第一，前锋第一的球王拿一样的薪水，真尼玛笑话，话说梅西的时代，螺子就是专门负责搞笑的、? 2021年罗都35了吧，没必要再续签合同了。 有问题找我的代言人问去 皇马赢了巴黎就是欧冠冠军？巴萨赢了切尔西就是欧冠冠军？欧冠的淘汰赛阶段才刚开始。 2021年C罗差不多退役了吧！还续？ 2021现在就续约疯了吗？这种年过30的老将应该一年一签了 C罗尴尬了！4大榜单票选，梅西都是世界第1人[微笑] 绿帽？被前任玩了几年的青梅竹马，什么拉？😂 原来历史最佳年薪比梅西少这么多，也不清楚皇马高层按什么标准制定年薪的，如果按照过人自己绊倒和射门暴力抡空来衡量，历史最佳现在拿哪点零头就差不多了 垃圾巴萨傻逼梅西 梅西就是巴萨天王，谁敢违背他呀？不给 哪个老板这么蠢啊，不趁球员还有价值的时候卖掉，居然还给他养老，至少皇马的老板不会这么想，当然皇马的球迷也不会这样想的。 跪求皇马俱乐部卖掉贝尔、本泽马、拉莫斯、马塞洛，然后给我罗加薪 开不开心？惊不惊喜 比梅西强多了，国家队输球就离队，俱乐部不给高工资也离队，一个只为自己着想的人能和别人比？ 真正的权威的榜单评选是金球奖，这是行业内的评的，其他的你就笑笑就行了。 他现在播是皇马顶薪？但要跟梅西比他还差得远呢梅西干几个人的活？ C罗负责让梅西生气的 没人要了，世界四大媒体都是梅西第一，当然是第一高薪了，别在和梅球王比了，要点脸吧！ 克里斯蒂亚诺·罗纳尔多、里奥·梅西、皇家马德里俱乐部和巴塞罗那俱乐部的最近一百万年的好运气都用光了，接下去克里斯蒂亚诺·罗纳尔多、里奥·梅西、皇家马德里俱乐部和巴塞罗那俱乐部会一直倒霉的。 就这64中1的还有啥可不开心的？能把你捧起来就能摔死你，再逼逼内裤都别卖了，赶紧滚犊子——佛罗伦蒂诺 傻逼梅西 主要是把阿森西奥卖掉 C罗进转会市场出了巴黎这种土豪其他球队不会要的吧 去扯的队你就废了 都是一堆小学生傻粉，咋24年独行有谁知道 过分了…… 当时赛季初内马尔离队，打乱整个巴萨的战术布置，影响球员心态。皇马趁机博乱，赢了一个完全不在状态的巴萨，还吹牛十年没对手，现在等巴萨缓过神来打的你妈都不认识，而且弟弟和登贝莱都伤了[窃笑] 真正的权威的榜单评选是金球奖，这是行业内的评的，其他的你就笑笑就行了。 这是应该的本来实力就超过梅西 哪怕是63岁也不影响我骡躺担架上呀！ 皇马：一个吃饼机器你还嫌给的低了？吃饼的能拿到这么多八辈子福分了 虽然我是梅西球迷，但是也觉得这有屁用，世界足球先生和金球才是权威！！！其它都是遮羞布！梅西到头也就这样了，西甲欧冠希望有，但是不能说稳！世界杯就拉倒了，现在的阿根廷比14年差了很多，没有新人成长！而C罗也是西甲欧冠希望有，欧冠希望比梅西还大！世界杯同样拉倒，虽然葡萄牙估计走的比阿根廷远一点，但也是个几率问题，不是水平高低，我只是觉得葡萄牙的球风更适合大赛罢了！！！所以未来2年，C罗金球还有机会，梅西也有，但比C罗小的太多了！！！ C罗这是以进为退你都没看出来？明知道皇马马上要清洗他这时候提要求加薪皇马准不同意他是想体面地走而不是被清洗。 狗罗是2楼的爹；狗西是2楼爷爷！ 狗西离屎最佳 哈哈，伊莲娜和C罗再一起的时候没被人玩过？再一起都还被人玩..是不是伊莲娜晓得我罗是个废物，发现了也不敢吭声.就跟德比遭虐了一个尿性 这罗粉，脑残的可以，每一条都追着回帖，说话不经大脑，猪一样的逻辑思维 被玩过的青梅竹马。😂 C罗：原来我和皇马在谈加薪的事啊，这事我都不知道😯😯 世界杯决赛葡萄牙对阵阿根廷。之前都有媒体预演了晋级之路 你是佛罗伦蒂诺的代言人？ 少了差不多1600万了，偷税那1470都泡汤了？不行，必须要给我骡加薪，起码5000万年薪（最好税后） 哈哈哈，那C罗毕竟自吹历史最佳，谁敢跟他比过人和射门 梅西毕竟邪教教主，谁敢和他比地位？ 老佛爷可以处理了 這個新聞想表達的是，齊達內想離開？還是C羅想離開？33了，還要天價年薪到退役？這符合皇馬風格？？當年，耶羅，勞爾，古蒂降薪退役都不行…… 多半是等不到了 垃圾废物C罗吃狗屎垃圾废物皇马垃圾废物C罗吃狗屎垃圾 主要是年薪 当年的🇦🇷靠马拉🐴多纳能横行世界！现在的🇦🇷那几个货除了卖情怀，输了就挤点马尿演演戏还有什么！ 真是看不下去了，网易整天就知道黑C罗，你良心不痛吗？ 状态不好 他终是要证明自己比他强，而他重来不需要证明！ 网上刷刷存在感呢！不然这帮废物你还指望他们干啥 狗螺、霉戏足坛两大奇葩！....... 尺有所长，寸有所短。都很优秀，媒体没必要挑拨离间。 早点滚,还加薪?你是想皇马死在你手里 c罗皇马在网易带罪出生 球玉修炼手册<br>词曲：不曰不舒服<br>演唱：C罗粉<br>跟着骡左脚右脚一个慢动作，右脚左脚慢动作重播，踩单车过人王者，你有没有爱上骡？跟着骡点球怒吼露一露肌肉，戴帽发胶乡村杀马特，球场有太多未知的猜测，四大皆空又算什么。头发抹亮，换上泳装，带着多进点球的梦想。我的点球充满力量，奇妙绕过每一座人墙。这回合的吹罚，因为干爹才能让我十二码。这禁区的中央，有我才能罚，点球才能破球荒！跟着骡左脚右脚一个慢动作，右脚左脚慢动作重播，踩单车过人王者，你有没有爱上骡？跟着骡点球怒吼露一露肌肉，戴帽发胶乡村杀马特，球场有太多未知的猜测，四大皆空又算什么。经常会想进球多好，有些进球却只能摔倒。想跳就跳，想脱就脱，为了射点的自己鼓掌。这回合的吹罚，因为干爹才能让我十二码。这禁区的中央，有我才能罚，点球才能破球荒！跟着骡左脚右脚一个慢动作，右脚左脚慢动作重播，踩单车过人王者，你有没有爱上骡？骂队友表子养，抢单刀不客气，一路认爹跳水射点无限动力。真性情，没有什么输不起，窝骡修炼球玉的秘籍。跟着骡点球怒吼露一露肌肉，戴帽发胶乡村杀马特，球场有太多未知的猜测，四大皆空又算什么。 最炫霉侏风<br>汪！吐！碎！佛！<br>百万的税款是我的爱，<br>芭莎的生长素是我等待，<br>什么样的大门它射呀射不开，<br>什么样的干爹才是最牛掰。<br>决赛点球飞机打下来，<br>退出国家队不和你们玩，<br>教练队友背锅是我在耍大牌，<br>一路边走边呕才是最自在，<br>我们要吐就要吐得最痛快！<br>你是我天边飞机的舞台，<br>让我一脚把你打下来（打下来）！<br>悠悠的唱着最炫的霉侏风，<br>赶忙退队不带你们玩（不带玩）！<br>你是我心中最美的税款，<br>亲爹出马把你偷下来（偷下来）！<br>永远都唱着最炫的霉侏风，<br>当了罪犯不用做劳改（偷下来）！<br>（哟啦啦呵啦呗）<br>（伊啦嗦啦呵啦呗呀）<br>我听见你呕吐动人的天籁，<br>下次点球照样飞天台~ 皇马是没结婚之前支持的球队 希望罗续约皇马我们才有戏看，励志大片啊，表演到位啊。 皇马迟迟不续约，大概是不想要我罗了吧，2400W觉得不值，想要4000W，看来只有去更高级别的中超了。作为黄马球迷，我忿忿不平，呜呜呜呜呜呜呜... 合同要四年后才到期呢，急啥！ 嫉妒呗 转会期就是C罗加薪的契机 拿个跳水冠军就完美了 C罗尴尬了！4大榜单票选，梅西都是世界第1人[微笑] 当年的🇦🇷靠马拉🐴多纳能横行世界！现在的🇦🇷那几个货除了卖情怀，输了就挤点马尿演演戏还有什么！ 当年的伯纳乌王子劳尔也不能在皇马终老，皇马的商业味已远远的超出了人情味 没说C罗不是顶级球员，但是楼主黑子还拿偷税说事，现在C罗偷的税比梅西多几倍还好意思提这事 所以说C罗还不看清形势，降薪续约，好绑住皇马这条大腿，不然佛爷一怒，这辈子别说欧冠金秋了，连个屁都混不上了 合同到期,双方谁也没有义务续约,双方合意才可以. 皇马球迷？呵呵。 皇马球迷和巴萨球迷都希望我罗顶薪续约 说啥大实话[狗] 不懂球，瞎逼逼 偷税罪犯CR7滚粗獚犸，68射中1笑傲足坛——资深獚犸球迷留 屎上必须屎上最高年薪！！100层屎够不够？ 皇马垃圾废物C罗吃狗屎垃圾 国家德比一战，已见分晓，别争了，跪安吧！ 马🐴拉多纳虽然才165，但他有1986世界杯🏅🏆，1990世界杯银牌。2个美洲杯冠军。是世界⚽️👑。梅西三个亚军，智利球王！14年世界杯决赛，进球被吹，心态崩了，被格策绝杀！美洲杯决赛踢飞冠军，输给智利。现在阿根廷很弱，有些球队，虽然有所谓的球王，凝聚力差。所以取得不了好成绩！ C罗真实水平进不了现役前五 当时没有签转岗协议,还是沿用原来合同.到现在在这边半年多了,合同马上到期1、合同马上到期,公司提出再转岗或者不续约合同,你不同意再转岗.根据劳动 签到了2021年还需约鸡毛？现在状态就下滑的厉害，三十五以后彻底就呵呵了 快回家使劲哭T﹏T！ 虽然我是梅西球迷，但是也觉得这有屁用，世界足球先生和金球才是权威！！！其它都是遮羞布！梅西到头也就这样了，西甲欧冠希望有，但是不能说稳！世界杯就拉倒了，现在的阿根廷比14年差了很多，没有新人成长！而C罗也是西甲欧冠希望有，欧冠希望比梅西还大！世界杯同样拉倒，虽然葡萄牙估计走的比阿根廷远一点，但也是个几率问题，不是水平高低，我只是觉得葡萄牙的球风更适合大赛罢了！！！所以未来2年，C罗金球还有机会，梅西也有，但比C罗小的太多了！！！ 履行完合同都36岁了，还续个屁约 c罗终老伯纳乌？我不看好，这两年趁有价值赶紧卖掉，否则不是皇马 不黑我骡，良心过不去 珍惜梅罗时代，踢一天少看一天了。 马🐴拉多纳虽然才165，但他有1986世界杯🏅🏆，1990世界杯银牌。2个美洲杯冠军。是世界⚽️👑。梅西三个亚军，智利球王！14年世界杯决赛，进球被吹，心态崩了，被格策绝杀！美洲杯决赛踢飞冠军，输给智利。现在阿根廷很弱，有些球队，虽然有所谓的球王，凝聚力差。所以取得不了好成绩！ 又被代表了 虽然我是梅西球迷，但是也觉得这有屁用，世界足球先生和金球才是权威！！！其它都是遮羞布！梅西到头也就这样了，西甲欧冠希望有，但是不能说稳！世界杯就拉倒了，现在的阿根廷比14年差了很多，没有新人成长！而C罗也是西甲欧冠希望有，欧冠希望比梅西还大！世界杯同样拉倒，虽然葡萄牙估计走的比阿根廷远一点，但也是个几率问题，不是水平高低，我只是觉得葡萄牙的球风更适合大赛罢了！！！所以未来2年，C罗金球还有机会，梅西也有，但比C罗小的太多了！！！ [鄙视][鄙视] C罗就是再不行也是数一数二的运动员，没必要这样贬低吧 不是说要去曼联或者巴黎么 [微笑] 参考没有c罗的欧洲杯决赛[不屑] 我就觉得差不多就行了，人家俩奖杯拿到手软，我们跟着起劲干什么 能10亿欧续约最好，签100年 西班牙国家队和皇马蜕变的前提是赶走劳尔 去巴黎或者来中超 齐达内只要敢把C罗按在替补席上，欧冠国王杯手到擒来，联赛落后是多了点，不过干爹加把劲也没问题的 我倒要看看没有C罗的皇马齐达内能带出怎样的一支球队！！！！！！！！ 在事实面前这些喷点显得苍白无力。甚至可笑。 (;｀O´)o 你这标题读着就有歧义[狗] 当自己是明星吧，亮个相就赚钱了 前几天还说要走网易啊… "
    },
    "Title": "年薪低于梅西C罗不开心 皇马天王等待续约合同_网易体育",
    "KeyWords": "c罗,梅西,皇马,欧元",
    "Article": "网易体育1月2日报道：在2017年，C罗对于皇马的贡献有目共睹，但是他的年薪却比梅西和内马尔低太多，这让皇马天王有些不开心。西班牙《阿斯报》在今天透露，C罗正在等待皇马方面送出的续约合同，但是他目前还没有接到电话，而在之前接受采访时，齐达内可是呼吁皇马抓紧时间和C罗续约。C罗上一次和皇马续约是在2016年11月，当时他的合同签到了2021年，C罗的年薪来到了2400万欧元。虽然皇马给C罗提升了待遇，但是不得不提的一点是，在过去的几个月里，梅西和巴萨完成了续约，年薪来到了4000万欧元，而内马尔加盟了巴黎，他的年薪也差不多来到4000万欧元，这意味着C罗的年薪比两位竞争对手低了太多。在世俱杯决赛对阵格雷米奥有着决定性进球后，C罗谈到了自己的愿望，他表示，“如果可能的话，我愿意在马德里退役，但是这并不取决于我，因为我并非俱乐部的老板，因此，还是让我们拭目以待吧。”在C罗说出上述一番话后，弗洛伦蒂诺急忙安慰道，“他有一个合同，直到2021年，我希望平稳一些，我也希望C罗可以在马德里退役。”《阿斯报》的消息是，C罗渴望和皇马续约，而目前他正在等待俱乐部打来的电话，不过目前皇马方面还没有同C罗商讨续约问题。对于皇马来说，延长和C罗的合同年限倒是其次，提升他的年薪应该才是重点，因为C罗可不想年薪远低于梅西和内马尔。英媒的消息是，C罗正在伦敦找房子，虽然是为儿子入学做准备，但是英媒认为C罗可能重返曼联。对于C罗的贡献，齐达内是非常清楚的，在接受采访时，齐祖敦促俱乐部续约C罗，“我希望尽快完成这项工作（C罗的续约）。我希望他继续下去，直到退役。”本文来源：网易体育作者：头狼责任编辑：郑鑫桐_BJS5086",
    "URL": "http://sports.163.com/18/0102/17/D75ODC1J00058781.html",
    "PublishTime": "01/02/201817:42:47",
    "Source": "Netease"
}