{
    "PublishTime": "12/27/201723:15:50",
    "Source": "Netease",
    "Comment": {
        "Link": "http://comment.ent.163.com/ent2_bbs/D6MT2S5O00038FO9.html",
        "Total": 2396,
        "Reply": 33,
        "Content": "求网易别推送这傻逼了别说我们看不看谁看这傻逼不想骂2句再走别给这傻逼博关注度了 这傻逼 傻逼滚 秀下限，无底线！ 二逼 看见这傻逼就想进来骂给我们辽宁人丢脸cnmd 去你妈的大傻逼！ 怎么看――都是一傻子，智障像， 可以出栏了！ 这头猪又在消耗粮食，什么时候宰了， 看到全是骂这个猪的我就放心了 傻B 整个一智障，完全不理解现在青少年口味，喜欢小鲜肉还带还有颜值，喜欢这货因为有肥肉？ 看到诸位易友都在喷这个棒槌我就放心啦。。。 哪个行业都有浑水摸鱼的， 下跪！ 大傻逼 这货有东北人潜质 权志龙是不是花了6000 听说他的大片突破6000元大关了 这狗当棒子是他爹，不知道他跪过他爹没有 傻逼一个 自娱自乐 6000元的票房怎么来的，有水份吧，谁尼马没事会去看这头猪演的东西来恶心自己。 杜🐶 看见这傻逼就想进来骂给我们辽宁人丢脸cnmd 求网易别推送这傻逼了别说我们看不看谁看这傻逼不想骂2句再走别给这傻逼博关注度了 这傻逼 傻逼滚 秀下限，无底线！ 身后的女人是谁？ 傻逼 好大的两跟肉棒子 去你妈的大傻逼！ 怎么看――都是一傻子，智障像， 可以出栏了！ 这头猪又在消耗粮食，什么时候宰了， 看到全是骂这个猪的我就放心了 这生物还活着那 傻逼 傻B 整个一智障，完全不理解现在青少年口味，喜欢小鲜肉还带还有颜值，喜欢这货因为有肥肉？ 看到诸位易友都在喷这个棒槌我就放心啦。。。 大傻逼 哪个行业都有浑水摸鱼的， 下跪！ 反感 傻逼2000哈哈哈哈哈哈 这货有东北人潜质 权志龙是不是花了6000 听说他的大片突破6000元大关了 这狗当棒子是他爹，不知道他跪过他爹没有 傻逼一个 自娱自乐 6000元的票房怎么来的，有水份吧，谁尼马没事会去看这头猪演的东西来恶心自己。 要不要这么瓜 二逼 杜🐶 "
    },
    "Article": "杜海涛网易娱乐12月27日报道12月27日，杜海涛在微博晒出两张照片，配文：“玉米的正确吃法。”杜海涛吃玉米照片中杜海涛将两根穿着玉米的竹签握在一起，张嘴便啃，吃得津津有味，仿佛齿颊生香。一路从电梯间吃到车里，两根玉米全部吃完后，他开始大摆pose，宛如手中拿的不是玉米而是麦克风，可以说是超级嗨皮了。本文来源：网易娱乐责任编辑：陈少杰_b6952",
    "Title": "杜海涛另类吃玉米 模仿手拿麦克风唱rap超嗨_网易娱乐",
    "URL": "http://ent.163.com/17/1227/23/D6MT2S5O00038FO9.html",
    "KeyWords": "杜海涛,麦克风,玉米,rap"
}