{
    "Source": "Netease",
    "PublishTime": "12/26/201720:36:00",
    "KeyWords": "马塔,足球,cctv2,goal",
    "Title": "从CCTV5走向CCTV2! 马塔受邀参加世界经济论坛_网易体育",
    "Comment": {
        "Link": "http://comment.sports.163.com/sports2_bbs/D6K1HG8200058781.html",
        "Total": 102,
        "Content": "曼联那一大帮高薪低能的就没一个肯加入的？ 马塔好样的 还是没有米兰名宿乔治维阿牛逼别人从CCTV5走向CCTV1 希望这个组织能始终如一，像马塔叔叔承诺的那样，而不要沦为某些人的工具 马塔人品没得说！赞！ 马塔的智商情商都高 人品好 希望这个组织能始终如一，像马塔叔叔承诺的那样，而不要沦为某些人的工具 不务正业，没前途 马塔好样的 还是没有米兰名宿乔治维阿牛逼别人从CCTV5走向CCTV1 这哥们还写散文和诗歌，文笔高于网易80%的小编 网易体育小编真好当，应付差事的典范。昨天说维阿竞选总统的标题是从CCTV5走向CCTV1。 马塔人品没得说！赞！ 曼联那一大帮高薪低能的就没一个肯加入的？ 马塔的智商情商都高 叔叔你厉害了！ ",
        "Reply": 11
    },
    "Article": "网易体育12月26日报道:据西班牙媒体《马卡报》的消息，曼联球星马塔因为他的CommonGoal的慈善计划，受到了世界经济论坛的邀请。目前，胡安·马塔正在引领者CommonGoal的进行，将自己所拥有的一小部分资产重新分配给了世界各地的慈善事业，并以此来回馈那些培养出无数足坛明星的平民社区。这个组织被称为“CommonGoal(兼有共同的目标和足球之意)”。马塔承诺将自己薪水的1%捐献给CommonGoal项目，并呼吁其他的球员也这样做。这些钱将被用于遍布于“世界各地极具影响力的足球慈善机构”。包括拜仁球员胡梅尔斯，霍村少帅纳格尔斯曼，尤文中卫基耶利尼等人都加入了马塔的CommonGoal计划之中，CommonGoal所筹集的资金将被用于支持所有慈善项目的发展。随着这个组织的全球影响日益增加，胡安·马塔已经受邀参加世界经济论坛。“我不知道我是否可以参加约会，但很高兴看到‘CommonGoal’的实现，我们有机会在世界经济论坛向人们展示我们想做什么，这也是我们感到骄傲和快乐的另一个原因。”这份邀请不是随意下发的。“人们已经意识到‘CommonGoal’的重要性，每个人都在等待，有时只看到足球的负面新闻，足球的腐败。“足球，就像体育一样，作为社会发展的推动者，同样有着充满着正能量的故事，值得我们去讲述，我想不出比在这样一个有声望的会议上来讲述更好的方式。”本文来源：网易体育责任编辑：郑鑫桐_BJS5086",
    "URL": "http://sports.163.com/17/1226/20/D6K1HG8200058781.html"
}