{
    "Comment": {
        "Total": 29,
        "Reply": 12,
        "Link": "http://comment.ent.163.com/ent2_bbs/D77CEGOJ00037VVH.html",
        "Content": "我觉得是他们都知道言承旭现在跟某个人在交往...又不能说出来. 能不能借我一颗 结婚结婚早点让你男朋友言承旭他迎娶进门吧，早日步入婚姻殿堂呗！林志玲哈哈 言的牙齿怎么这么长 祝福 不要整天上头条秀恩爱，生米煮成熟饭接受事实都一把年纪岁数大的老女人，有本事儿赶紧让你男朋友言承旭他迎娶进门啊，回家生小孩儿去哇！林志玲哈哈 结婚结婚早点让你男朋友言承旭他迎娶进门吧，早日步入婚姻殿堂呗！林志玲哈哈 有情人终成眷属，祝:言承旭和林志玲她你们二个人永远幸福快乐，恩恩爱爱，白头偕老，好好在一起一辈子，好好珍惜彼此，一生难得找到真爱，总之恭喜恭喜祝福！哈哈 万年不变的发型一如既往的帅 童年懂事起，第一个偶像，F4、暴龙[窃笑] 能不能借我一颗 以前是言承旭现在是全部! 我觉得是他们都知道言承旭现在跟某个人在交往...又不能说出来. 要是他俩生孩子将来身高不成问题 言的牙齿怎么这么长 时间过得真快都41了 祝福 "
    },
    "Title": "刘畊宏透露言承旭好事将近？林志玲被曝冻卵九颗_网易娱乐",
    "KeyWords": "林志玲,刘耕宏,言承旭",
    "Article": "网易娱乐1月3日报道1月1日是言承旭41岁的生日，一如既往低调的言承旭没有大肆庆生，但是不排除和友人单独过生日。好友刘畊宏晒出了两个人深情拥抱的照片并祝福好兄弟生日快乐。当然刘畊宏的生日祝福带给了我们更多的爆料，刘畊宏写道：“祝福你能.......你知我知......我就不告诉大家了。友情是经得起考验的......看看今年我们能一起完成什么样的挑战？”刘畊宏的两个省略号让大家浮想联翩，大家纷纷猜测刘畊宏的祝福就是对言承旭和林志玲的祝福，网友们纷纷祝福两个人的感情能在2018年能有个好结果。自从两个人被拍到一同出入酒店，一同健身的时候，广大网友在两个人确认恋情之前就送上了接近新婚的祝福，看来大家早就迫不及待了。然而言承旭和林志玲始终没有松口确认恋情，只是公开表示有再联系，看来两个人的感情还在考虑之中吧。仔细看了看刘畊宏的微博发现刘畊宏的省略号也只是代表了对好兄弟的祝福，你知我知，可意会的祝福，心意无需多谈。所以刘畊宏口中的秘密也与林志玲没有多大关系，关于言承旭和林志玲的感情，大家就等待双方的公布吧。网传，林志玲曾戴口罩赴台大医院妇产部冷冻了九颗卵子，为自己将来结婚产子做打算。众所周知，大龄女神林志玲屡屡被催婚，但是身边都没有遇到合适的对象，粉丝们十分苦恼。直到林志玲和言承旭再次联系上，大家纷纷祝福二人能早日确认关系，走进婚姻的殿堂。倘若林志玲和言承旭能在2018年带来好消息，那么林志玲冻住的九颗卵子就要派上用场，祝福他们！本文来源：网易娱乐责任编辑：陈少杰_b6952",
    "URL": "http://ent.163.com/18/0103/08/D77CEGOJ00037VVH.html",
    "PublishTime": "01/03/201808:52:11",
    "Source": "Netease"
}