{
    "Source": "Netease",
    "PublishTime": "12/26/201714:55:23",
    "KeyWords": "华为,受贿,华为手机,贪腐",
    "Title": "华为涉受贿被带走高管拿着几百万年薪 为啥还要贪?_网易新闻",
    "Comment": {
        "Link": "http://comment.news.163.com/news_shehui7_bbs/D6JE1PV80001875P.html",
        "Total": 1607,
        "Content": "这是我听到过得对猪最大的侮辱 就比如炒股一样，看着盈利1000，数字一会变成900，就感觉不爽了。虽然也是盈利的。所以说欲望是无穷的。 高薪养廉，这其实就是句谎言 才几百万，够买什么 当你工资1000的时候觉得1万很多了，当你工资100万的时候，1千万都是小钱，不贪个10亿8亿的都不叫贪！！！！！懂吗3楼！！！ 高薪养廉的政策下也没见他们少拿少贪啊。 穷人都自我安慰：知足常乐。富人觉得这句话，是真理。这样他们可以少付点工钱。 高薪养廉，这其实就是句谎言 俗话说越有越贪，越没越懒[狗] 这话说的，国家这么有钱干嘛还收养老保险啊 这说明高薪养廉就是伪命题，只有制度完善才能尽可能的杜绝腐败。 果真华为[窃笑] 反贪的最佳途经，就在於从重、从严、从速地惩处之！ 你错了，贪是所有人类的本性 这样的蛀虫每个公司都有，已经深入到各行各业各个单位公司 色诱 人的欲望是无穷的。 一年几百万，不这样花，那还这么努力干嘛。 几百万在深圳不够花啊，一栋别墅几千万 猪的名言 说的是。钱少有钱少的好处，钱多就有钱多的去处。有时候高薪的人还不如低薪的人活得滋润。但绝对没有高薪的人体验的快感，这也是人心不足的根本原因。 一山更比一山高。高薪摊更多，目标更高了呗。 贪已是社会风气，不是钱不钱的问题，小市民不懂。 几百万对于普通老百姓来说很多了，但是对他们来说可能也就够付个首付 中国人不管有钱没钱，都喜欢贪，我就是，你以为别的公司老板不一样？ 人贪婪是无限的，高薪是养不了廉的。 当年进各个省的运营商，靠的啥？ 为啥还要贪？放大成就感！ 官员待遇那么好，吃着特供，专车接送，家里还想着存一个亿。 1楼好笑你的意思底薪还不会贪了？ 因为阶层不一样，当你达到那个水平你会想要更多！很正常！ 我想天堂也未必有这样的消费 提这个问题干嘛，谁也不会嫌钱多啊！ 华为水军是华为团队中的精英！ 贪是中国人的本性，犹如吃是猪的本能。😁 说高薪养廉的，他本身就贪 吃回扣而已，谁靠工资过活，职务上但凡有点权利的谁没想过捞点？ 高薪养廉屁话一句。 几百万算多？一个苹果十8千，请保姆一年十万，一个奔S600，，1百多万，包个小密，又要几十万，几个情人又几十万，吃的喝的用的，都要坐飞机，到美日欧那边买，又要几十万，还有手表金银，又要几十万，这样下来，感觉他比我还穷，不贪点，他能活下去吗。 私人游艇，飞机，国外的海边别墅还差钱，正常…… 三楼这理解能力，北府的 参考谷将军 外国人是你爹，他们不贪？ 确实不应该 好像你不吃一样。 中国人不管有钱没钱，都喜欢贪，我就是，你以为别的公司老板不一样？ 华为海军吧 高薪养廉，这其实就是句谎言 既然这样，公务员就干脆给个1000，谁垃圾谁来干 人没有知足解决贪好办跟国外学吗?现成的 因为阶层不一样，当你达到那个水平你会想要更多！很正常！ 华为有没有党支部 人心不足、蛇吞象 是啊为啥？ 因为灵道贪上亿呢 几亿的官员还在贪，你说养廉? 一山更比一山高。高薪摊更多，目标更高了呗。 贪已是社会风气，不是钱不钱的问题，小市民不懂。 我为的钱可不是那么容易挣的…… 官员待遇那么好，吃着特供，专车接送，家里还想着存一个亿。 提这个问题干嘛，谁也不会嫌钱多啊！ 当你工资1000的时候觉得1万很多了，当你工资100万的时候，1千万都是小钱，不贪个10亿8亿的都不叫贪！！！！！懂吗3楼！！！ 几百万算什么。中央的高官。钱已经是不重要的东西了。老周的资产过万亿了。什么概念。这两年房价大涨。还得翻倍 外国人是你爹，他们不贪？ 高薪养廉屁话一句。 几百万算多？一个苹果十8千，请保姆一年十万，一个奔S600，，1百多万，包个小密，又要几十万，几个情人又几十万，吃的喝的用的，都要坐飞机，到美日欧那边买，又要几十万，还有手表金银，又要几十万，这样下来，感觉他比我还穷，不贪点，他能活下去吗。 说高薪养廉的，他本身就贪 流星月亮地球太阳系有发动机么？没有!他们却高速在宇宙中运行!为什么？因为他们的运行轨道本身就是太空高速时空隧道!他们的运行路线一半为去路一半为来路，周而复始地运行着!地球自转公转着，本就没有东西南北上下左右等方位!谁定的？我们的天父啊!目的只有一个，告诉人类我们天父的星座方位!所以九曲桥的方向始终对着东北方!在宇宙一切物质中，永远是子体围绕母体运动，这是恒定的!所以地球自转并围绕太阳公转!因地球是自转公转的，所以根据地球的东西南北是找不到星外文明的星座方位的!只有找到太阳的上下前后东西南北才能准确地给天父星座方位定位!我们天父星座方位在太阳系东北上方第九颗恒星那里!那里以双伴恒星为中心带动周围108颗恒星运动着! 干货 不贪都上不去 人心不足，蛇吞象。 高薪能养廉？？？你信吗！没钱时吃饱就好，有钱了JJ就硬了！ 贪是中国人的本性，犹如吃是猪的本能。😁 这说明高薪养廉就是伪命题，只有制度完善才能尽可能的杜绝腐败。 果真华为[窃笑] 反贪的最佳途经，就在於从重、从严、从速地惩处之！ 贪得无厌 我干了40年，照你要求应该有40套房了 这话说的，国家这么有钱干嘛还收养老保险啊 一年几百万，不这样花，那还这么努力干嘛。 因为干一年也买不到一套房 论贡献，他可以收入1000万 国有企业蛀虫多 要买飞机也不够,玩具飞机除外,,,,,,,, 因为灰色收入是好几个几百万啊 华为出人才 我想天堂也未必有这样的消费 铁道部老大27亿都要谈还几百万。 当年进各个省的运营商，靠的啥？ 你错了，贪是所有人类的本性 不知道中国贪官最多吗，比国外多几倍， 受人之托，我同学，女，25岁，未婚，成都市人，1.65米，体重50公斤，四川大学毕业。漂亮大方，爱好读书，健身，游泳，王者荣耀(偶尔也吃鸡)。目前在软件园一家500强公司任职，工作稳定:，年薪25万。成都市区有2套房，1套在九眼桥，1套在锦城湖。奥迪A6l车上班代步，人务实、不拜金，父部级别领导，母退休金7000元。一直没有合适的男朋友，她本人要求一点也不高且她家人现在非常着急，发动亲戚朋友想请大家给介绍一个，长按复制此消息，打开支付宝看照片和联系方式！0uNHoI29Zp 没有好好学习社会主义核心价值观的结果！ 猪的名言 流星月亮地球太阳系有发动机么？没有!他们却高速在宇宙中运行!为什么？因为他们的运行轨道本身就是太空高速时空隧道!他们的运行路线一半为去路一半为来路，周而复始地运行着!地球自转公转着，本就没有东西南北上下左右等方位!谁定的？我们的天父啊!目的只有一个，告诉人类我们天父的星座方位!所以九曲桥的方向始终对着东北方!在宇宙一切物质中，永远是子体围绕母体运动，这是恒定的!所以地球自转并围绕太阳公转!因地球是自转公转的，所以根据地球的东西南北是找不到星外文明的星座方位的!只有找到太阳的上下前后东西南北才能准确地给天父星座方位定位!我们天父星座方位在太阳系东北上方第九颗恒星那里!那里以双伴恒星为中心带动周围108颗恒星运动着! 这是我听到过得对猪最大的侮辱 就比如炒股一样，看着盈利1000，数字一会变成900，就感觉不爽了。虽然也是盈利的。所以说欲望是无穷的。 才几百万，够买什么 华为水军是华为团队中的精英！ 高薪养廉的政策下也没见他们少拿少贪啊。 穷人都自我安慰：知足常乐。富人觉得这句话，是真理。这样他们可以少付点工钱。 不贪不是中国人 贪婪与人欲是人与动物之间区分。 为什么跟猪做比较呢 人为财死。 几百万对于普通老百姓来说很多了，但是对他们来说可能也就够付个首付 几百万多吗？你们聊我去摆摊了！ 谁会嫌钱多 高薪养廉 只能算得上个带血的蚊子吧！ 为啥还要贪？放大成就感！ 这是规矩 他能代表中国人？傻喷子 提这个问题干嘛，谁也不会嫌钱多啊！ 没有最多，只有更多 捉一只大肥羊 几百万在深圳不够花啊，一栋别墅几千万 几百万算多？一个苹果十8千，请保姆一年十万，一个奔S600，，1百多万，包个小密，又要几十万，几个情人又几十万，吃的喝的用的，都要坐飞机，到美日欧那边买，又要几十万，还有手表金银，又要几十万，这样下来，感觉他比我还穷，不贪点，他能活下去吗。 参考谷将军 你不是痛恨贪，你是痛恨自己没有机会贪 钱还怕多吗？ 俗话说越有越贪，越没越懒[狗] 高薪养廉，这其实就是句谎言 为啥呀 贪是中国人的本性，犹如吃是猪的本能。😁 这样的蛀虫每个公司都有，已经深入到各行各业各个单位公司 人的欲望是无穷的。 我们的仆人权高位重一手遮天，都能呼风唤雨还成吨贪取呢！这个环境特色吗！ 说的是。钱少有钱少的好处，钱多就有钱多的去处。有时候高薪的人还不如低薪的人活得滋润。但绝对没有高薪的人体验的快感，这也是人心不足的根本原因。 贪欲，懂么？ 人心不足蛇吞象。 人贪婪是无限的，高薪是养不了廉的。 一水的163。啥意思？ 提这个问题干嘛，谁也不会嫌钱多啊！ 这是为什么 把这些人才全抓了送到四川凉山生活上10年！ 吃回扣而已，谁靠工资过活，职务上但凡有点权利的谁没想过捞点？ 同问，小编你不能用你的标准看。话说你觉得自己工资高吗？肯定觉得太低。同理，人家拿几百万的人想过年入千万人的生活。 私人游艇，飞机，国外的海边别墅还差钱，正常…… 高薪养廉这种事只能想想，不能在天朝实践 钱不够花，钱不够花，钱不够花 色诱 ",
        "Reply": 98
    },
    "Article": "（原标题：华为高管涉嫌受贿被带走调查！拿着几百万年薪，为啥还要贪？）华为消费者BG大中华区执行副总裁滕鸿飞已被带走调查的消息在网上发酵，华为方面对此回应称滕鸿飞日前因涉嫌非国家工作人员受贿罪，已被公安机关采取强制措施。在华为刚被曝出几百万年终奖的这个当口，紧接着曝出其高管受贿这件事，不由让人心生感慨——拿着几百万年薪，为啥还要贪？图片来源：视觉中国12月25日，运营商世界网援引知情人士消息称，华为消费者BG大中华区执行副总裁滕鸿飞已被带走调查。对于滕鸿飞被调查一事，华为方面告诉每日经济新闻（微信号：nbdnews）记者，原消费者业务中国区销售主管滕鸿飞日前因涉嫌非国家工作人员受贿罪，已被公安机关采取强制措施。因涉嫌刑事犯罪，警方正在侦查中，一切请以警方披露信息为准。华为一直秉承诚实与合乎商业道德的原则来开展业务，对内部腐败行为采取零容忍。2016年8月，任正非曾在一次内部座谈会上表示：“什么是人才，我看最典型的华为人都不是人才，钱给多了，不是人才也变成了人才。”这不禁让人对滕鸿飞的事心生感慨——拿着几百万年薪，为啥还要贪？上半年消费者业务占总收入近4成众所周知，华为旗下拥有三大业务集团，分别为运营商BG、企业BG和消费者BG，其中消费者BG业务覆盖华为手机、平板电脑、移动宽带、家庭终端、家庭媒体终端产品，以及模块产品、智慧企业等解决方案和服务。消费者BG对华为的营收贡献具有举足轻重的作用。根据华为披露的半年报：今年上半年华为消费者业务实现销售收入1054亿元，同比增长36.2%，占公司总收入的37.23%。今年10月20日，华为首次公布了2017年前三季度智能手机的销售情况：截至今年9月底，华为手机发货量1.12亿台，发货同比增长19%，而收入同比增长大于30%。在全球，华为手机的市场份额排名第二，当时甚至已经超过苹果。而脱胎于华为的荣耀也表现不俗，近日，荣耀总裁赵明透露，根据赛诺1~11月累计数据显示，荣耀手机以4968万台销量和716亿元销售额超过小米，登顶中国互联网手机品牌第一位。正因为华为消费者BG对华为的重要性，此次滕鸿飞出事也引发业内的高度关注。据媒体报道，滕鸿飞已经有一段时间未出现在公司里了，并且其本人的微博在本月19号后也停止了更新。不过截至完稿，记者发现其最近一条微博发布于9月22日。公开资料显示，滕鸿飞于2000-2003年就读于中山大学计算机信息管理专业，随后在2006-2008年于岭南学院获得MBA。早年在诺基亚工作，先后出任过诺基亚西区、南区总经理，2012年从诺基亚跳槽到三星，任三星电子华南区总经理。2014年5月，滕鸿飞跳槽到华为，任华为消费者BG大中华区执行副总裁，主管销售。▲截自滕鸿飞LinkedIn主页涉及供应商的部门成腐败高发区华为员工薪酬高，早已声名在外。据此前媒体报道，华为的薪酬主要包括三部分：工资、股票分红和奖金；当然如若外派国外，还有外派补助+艰苦补助。另外，华为实行职级制度，一般本科和硕士毕业生进入华为职级是13级，2年升一级，海外升级速度略快，17、18级一般是基层和中层管理人员，21-22级则到了总裁、副总裁级别。在华为内部系统可公开查询到别人的最高级别是22级，23级以上则属于级别非常高的boss，在系统上查不到。尽管难以获知滕鸿飞的具体收入情况，但考虑到“消费者BG大中华区执行副总裁”、“消费者业务中国区销售主管滕鸿飞”这样的头衔，可以推测其职级应该在21-22级。此外还有一定参考价值的是，2016年6月，一张流传于网上的华为22级员工的工资单显示，该员工2015年工资一年税前99万(税前)，分红307万(税后)，奖金46.5万(税后)，补助46.6万(税后)，上述4项目加起来，收入500万。拿着几百万年薪，为什么还要冒险去贪腐？对于滕鸿飞因受贿被带走一事，一位华为内部员工也感慨，本该是前途无量的人，如今却自毁前程。▲图片来源：新浪微博滕鸿飞James事实上，近年来华为屡次被曝出人员贪腐问题。早在2014年，华为便已查实内部有116名员工涉嫌腐败，涉及69家经销商，其中区域主任刘某伙同他人利用帮助客户获得项目、申请加价等方式，多次收受贿赂，受贿总额达到200万元。华为内部也经常发布反腐快报，将贪腐员工的姓名、工号、所属部门以及涉嫌腐败的原因进行通报（如下图）。华为员工也常在华为内部论坛“心声社区”上就反腐快报进行讨论、反思。▲截自华为心声社区记者注意到，华为内部贪腐的岗位较为分散，甚至包括园林的员工。不过，据上述华为内部人士透露，研发、采购、销售等涉及供应商合作伙伴的部门成为了腐败的高发区。而随着华为终端销量的持续增长，华为内部判断，今年消费者BG占据华为总营收的比例将进一步扩大，甚至超过运营商BG成为第一大收入来源。华为为了尽可能杜绝内部腐败，以自查自纠为主要手段的“反腐”行动甚至已经成为了一种“例行公事”。上述内部人士告诉记者，“华为的稽查部门是独立的，每个员工平均每两年就会被审计稽查一次，一经发现贪腐，即使离职了也跑不了。”今年年初，华为在深圳坂田基地召开了干部工作作风宣誓大会。华为创始人任正非带领华为高层和管理者进行的宣誓内容包括：不迎来送往，不贪污受贿，不动用公司资源，不说假话等8条。▲图片来源：华为心声社区任正非表示，华为维持生存的根本就是不能腐败；华为发展快而腐败少，得益于在管理和控制领域做出的努力。他还指出，公司不因为腐败而不发展，也不因为发展而宽容腐败；监督岗位更多履行个人负责制，要敢于坚持原则，实事求是。上述华为内部人士告诉记者，受贿对企业发展的伤害是巨大的。一方面，腐败会直接虚增企业的运营成本、侵蚀利润；另一方面，还会让企业的经营环境持续恶化。本文来源：每日经济新闻责任编辑：杨强_NN6027",
    "URL": "http://news.163.com/17/1226/14/D6JE1PV80001875P.html"
}