{
    "Title": "日媒:日本考虑引进F35B战机 或配备准航母_网易军事",
    "URL": "http://war.163.com/17/1225/14/D6GPLS8P000181KT.html",
    "Source": "Netease",
    "Comment": {
        "Total": 3694,
        "Reply": 150,
        "Content": "这个国家，已经与大部分人无关。 有能力就灭天草 日本人毁的有伪素慰矮卖国流氓毁的多么？ 汶歌后，中国几代人，都是听着日本歌曲长大的。。。。当然也包括你。<br><br>有邓丽君翻唱的日本歌曲，也有谭咏麟，张国荣，周华健，王菲，任贤齐，张学友，李克勤，莫文蔚，刘若英等人翻唱的大量的日本歌曲。。<br><br>原来的我，毎一步，相见不如怀念，千千阕歌，伤心太平洋，我只在乎你，《后来》，容易受伤的女人，有谁共鸣，遥远的她，《花》，四季歌，忘不了你，花心，《北国之春》，对你爱不完，好大一棵树，《让我欢喜让我忧》，跟往事干杯，让一切随风，再见我的爱人，女人的华尔滋，情已逝，风继续吹，飘雪，《我的亲爱》，又见炊烟，漫步人生路，冬恋，红日，一路上有你，每天爱你多一些，春风，雨丝情愁，星，祈祷，川流不息，跟着我飞翔，情愿一个人，哀愁的吉他，雨中的恋人们，一支小雨伞，漫漫前路，盛夏的果实，《流水年华》，泪光闪闪、等等等等。。日本是战后领导亚洲流行文化的国家，没有之一。 没有日本崛起，中国长城以北保不住，知道为什么有关东军吗？那是清政府邀请日本进驻抗衡老俄的，黄俄不敢提这段历史。 复兴还是复辟，未可知也。 跟苏联红军的后代有啥理可讲？ 小平改革开放是真真做了件对事 无视日本国民的感受，会带来灾难性的后果。<br><br>鸠山的下台与安倍的上台，完全是日本国民，不安情绪的强烈反应。<br><br>80年前；日本的科技与工业实力，能够支撑起，当年的航空母舰，成批量建造。<br><br>80年后；日本的科技与工业实力，同样能够支撑起，现代的航空母舰，成批量建造。<br><br>日本造与不造，不是日本说了算；而是邻国说了算。<br><br>如果，邻国无节制扩张海军，朝核问题、东海问题以及南海问题，不断的升级与恶化，那就怪不得日本复活当年的联合舰队了。<br><br>亚洲海军，高科技工业制造装备能力，日本是当之无愧的第一。<br><br>今天的日本，是高度文明发达的日本，不是昨天罪恶的军国日本。<br><br>跟今天的日本为敌，全世界都不会帮你的。<br><br>亚洲海军军备竞赛一旦开启，后果不堪设想；海军舰队，就是不折不扣的吞金怪兽。必将重创亚太经济，中日韩自贸区，以及亚太经济圈的建设，都将沦为海市蜃楼。<br><br>台湾要造的两栖攻击舰，实为F-35B上舰，打造的预制舰，印度在扩建航母战斗群，韩国也推出了航母建造计划，日本在酝酿下一级的准航母建造标准，并且都在编列巨额军备预算，这不是开玩笑。一战前的欧洲，就是这种局面。<br><br>当年的苏联经济，就是这样崩盘的。崩盘时，船台上还有两艘未建成的航空母舰。 毁你一座超市，给你盖个仓买，你就跪下感恩戴德了？ 胡适还说：美国人来了,有面包也有自由;苏联人来了,有面包没有自由;他们来了,没有面包也没有自由。 你们说的这些都是次要的，日本最大的贡献，是搞垮民国，协助黄俄夺权。 日本这个国家，要积极的看，比如，一次侵华，搞垮大清，二次侵华，搞垮民国，等等。 有一个人代表中国人民站起来了，哈哈哈哈，万幸的是，他死了，死得还不算很晚！！！ 遗臭万年。 日本自己可以生产 还提供很多援助资金，专门成立协助基金。援建很多医院等公用和公共设施，别的不清楚，水库大坝我参与日本协力基金帮建的2座。是八十年代末九十年代初的事。 这个思路本来就有问题吧，日本考虑有什么用？难道他近期下水的航母本没想用35B而打算用直升飞机的？美国马润门自己还没配全呢，英国航母还空着呢那就轮到你考虑了，你说美国考虑卖那是新闻。日本考虑买这也算新闻？ 军事专家，房病，房大炮说了，4艘日本准航母，没什么用，几分钟就灭了它---电视频道及嘉宾已经傻逼到何种程度了！ 支持萌君~！~镁认希 西方国家没那么好心，处处设障，暗中使拌，唯恐你超越他们。恨不得搅和你四分五裂流离失所才好，伊拉克、利比亚、阿富汗是最好的例子。西方国家对中国科技、军事封锁几十年，中国照样自己发展壮大起来。说中国离不开他们倒是笑话，问一问他们谁没用过madeinchina。日本福岛核电站事故处理是中国三一重工捐助它一台70米级混凝土泵车，才完成了填埋施工，连日媒都感叹我们怎么没有这东西。美国、英国航母制造船坞龙门吊皆是madeinchina，这个标志用国旗是盖不住的。只要中国人突击英雄，我敢断定十年后中国将会再造中华民族五千年辉煌。 你还是问问有小孩上幼儿园的家长吧，你以为愚民时代结束了？ 连幼儿园小班的小朋友都要强迫背诵恶心价直观的国家，想赶超日本？绝无可能！ 不好意思。你太监没什么乐趣也就会在这里瞎叫了。 退十步进一步，如此而已。所谓改革，无非就是一点点恢复解放前的政策而已。 你放什么屁，什么时候幼儿园要背书了？你来过中国么？你是不是还活在40年前？在日本就好好呆着！！ 二战之后，日本还真没做过什么对不住中国的事情。 这个帖子下居然有这么多人莫名其妙的高潮了😓😓😓<br>日本再好，是你的国吗？日本的利益，是你的利益吗？<br>知道这一百多年前日本为什么有那么多钱大力发展吗？里面有几亿两白银是清政府赔的！知道日本那个时候一年的GDP是多少万两白银吗？区区500多万两而已！傻子都算得出来，清政府赔的是多大的一笔款了！一百多年前的历史，你们为什么只讲一面不讲另一面呢？<br>谁以为日本当年对中国那些援助，背后没有政治交换条件，那真的是太幼稚了点吧。<br>中国在改革开放后，能够在这么短的时间里发展起来，真心不容易。要想达到日本的现代化水平，那肯定不是三五十年能够做到的。想想日本从明治维新到现在多少年了？<br>但是中国只要按照自己的节奏，稳稳当当的发展，不要战、不要乱，那么谁也挡不住中国成为世界顶级强国的步伐！<br>只知道仇日的脑残可悲，只知道媚日的脑残，同样可怜！<br>看到这满屏的高潮，我一直在想，什么时候中国普普通通的公民，能真正做到客观理智冷静的看待曾经发生的，正在经历的，和未来可能遇到的，那中国的民主自由法制社会就真的很近很近了！ 寒冬腊月，家里的窗户上没有一块玻璃，贴的都是窗户纸，小时候，大街上拖儿带女要饭的屡见不鲜，一直到1993年才废除了粮票。如有一句谎言，天打五雷轰。（此一时期为猫佐当家，是认珉逐步走向饥寒交迫的30年）。 日本是亚洲唯一一个高度文明发达的G7国家，引领亚洲是大势所趋，以仇恨灌输为目的的抗日神剧泡大的一代，基本属于脑残类。当局被自己几十年灌输的脑残绑架了，是没有脸来矫正了。。为了中日友好，民间人士必须站出来，铲除这种邪恶的，以灌输中日仇恨为目的的恶行，继续祸国殃民。。<br><br>如果，日本不是放眼未来；还会几十年如一日的，给中国提供海量的无息贷款，帮助中国发展经济吗？？还会帮助中国发展现代钢铁工业吗？没有日本的技术援助，就没有中国最现代化的宝钢。。没有日本的技术援助，就没有中国的现代电子工业。<br><br>所以，无休无止的纠结于中日过去的仇恨；不但毫无益处，更是祸国殃民。。放眼未来，为中日友好尽力，才是为利国利民做贡献。。抗日神剧与宫廷剧就是不折不扣的精神鸦片，凡吸食过量者必将脑残。可怕的是只要你打开电视，80%以上都是这种货色。电视本来是最应该用来开民智的，在中国恰恰相反，遍地脑残也就不奇怪了。<br><br>按十年树木百年树人来计算；中日差距至少1百年。现在在世的13亿中国人，我绝对敢肯定，无论你是婴儿还是老人，一直到你去世，你都不会看到中国，在科技文化法制经济节能环保教育医疗养老等领域，全方位追赶上日本。你能够看到的，只有前方日本远远领先的背影。<br><br>从1868年明治开国开始，日本就一直领先中国到现在，快150年了。。多少中国人从婴儿到去世，眼睁睁的，只能够看到前方日本远远领先的背影。 中国从来就不缺汉奸卖国贼，即使傲视群雄的今天也是如此。人不可没骨气，民族不可没有脊梁，毛主席创造中华近代史的奇迹，让中国人挺直腰杆做人，没有谁会再让中华民族弯腰低头。狼就是狼倭寇就是倭寇，至今还想修宪，改变自卫的本质，骨子里帝国之心不死。连倭人自己都承认如今除了相机汽车，日本还有什么可炫耀的，倒是有民族败类为其鼓吹。提高民族素质，继承和发扬民族精神，凝聚民族气节，再造五千年华夏奇迹，让中国重回世界巅峰才是我华夏子孙之梦！ 民国之后再无大师。 全部形容坏人的成语放到他身上，都不为过。 美国驻日本占领军像日本的女人们问候新年好，感谢这一年来日本女性的殷勤伺候，感谢日本男人们辛苦的看门端尿壶，送纸巾！更是感谢这些年生下的儿子们这么孝心，你们虽然身在中国，但是我们想着你们！在新的一年里，我驻日本占领军会再接再厉，也希望日本女人能多喊几句亚麻跌……————大不列颠.美跌.驻日韩占领军 唯一站起来的那个人，已经陈尸广场，或将遗臭万年。 至少比你这个脖子里栓着链条的太监狗强！ 毕和任说了句实在话，就被封嘴了，可见，这个国家有多无耻。 人家可没赖你战争赔款，是你主动不要的。 日本用了两个20年；不是60年。<br>一个是在殖民时期，只用20年，就跨入世界一流列强。（跟中国洋务运动同时起步）<br>一个是二战后重建，只用20年，就跨入世界一流科技经济强国。（二战后在一片废墟下，跟中国同时起步）。 我现在禁止家里的孩子看国产影视剧，以免被弄脑残。 胡适说，“现在有人对你们说：‘牺牲你们个人的自由，去求国家的自由！’我对你们说：‘争你们个人的自由，便是为国家争自由！争你们自己的人格，便是为国家争人格！自由平等的国家不是一群奴才建造起来的！’”------引自胡适《介绍自己的思想》，洪治纲主编《胡适经典文存》。 日本工业的现状。<br>1：日本工业的利润继续向汽车集中，汽车产业是日本的最大支柱。<br>如果说以前日本工业是有多根支柱的话，那么现在随着日本在电子，半导体，造船，钢铁等行业的衰落，日本工业已经渐渐出现了向汽车工业聚集的趋势。日本工业在渐渐由多根支柱变成单根支柱。进入2000强的90家日本工业企业的总营业收入为19582亿美元，汽车业的营收占了90强企业的接近一半。<br>2：日本没有新的强大工业公司出现<br>日本90家进入世界2000强的工业企业，都是存在了几十年的老企业，没有一家是新公司。<br>对比下中国最近十几年出现了哪些新的强大工业企业？<br>OPPO2004年成立，VIVO2009年成立，小米科技2011年成立，<br>中国目前最大的电动汽车电池制造商宁德时代2011年成立<br>中国最大的光伏企业之一的晶澳2005年成立<br>中国最大的两家声学企业歌尔声学2001年成立，深圳瑞声科技2004年在成立；<br>欧菲光2001年成立，中国最大的手机玻璃生产商之一的蓝思科技2003年成立；<br>等等。<br>3：日本企业赚钱的都是中国还没真正崛起的产业，我们看下日本哪些企业还比较赚钱，就知道中国哪些产业还没有起来,主要有四类：<br>1）电子零部件（包括集成电路）<br>2）机械和设备<br>3）化工业（材料<br>4）制药业<br>不要认为世界级汽车公司坚不可摧，当年我们一样觉得松下，索尼不可战胜，今天呢？索尼的芯片业务收入在被海思，紫光赶超；索尼现在主要利润来源的游戏业务在被腾讯，网易赶超，索尼的家电业务被海尔，美的，格力国产三强赶超，索尼的手机业务被华为，OPPO,VIVO赶超。<br>松下今天在给特斯拉供应电动汽车电池，中国的比亚迪，宁德时代同样是世界级电动汽车电池公司，营收过百亿人民币。<br>到2025-2027年，中国的工业总产值再翻一倍，中国人均工业产值将会达到西方平均水平。工业产值总规模超过西方国家+日本之和，这是人类进入近代工业化以来，地球上第一个在工业产值上完全压倒西方的，一个空前绝后的超级工业国家。 大厦最担心的事情<br><br>终于发生了 看中日影视剧的巨大差距就知道了，现在继续愚民，在文化教育领域100年内绝不可能赶上日本。 分析的非常的透彻 台湾要造的两栖攻击舰，实为F-35B上舰，打造的预制舰，印度在扩建航母战斗群，韩国也推出了航母建造计划，日本在酝酿下一级的准航母建造标准，并且都在编列巨额军备预算，这不是开玩笑。一战前的欧洲，就是这种局面。 我排队买过杂粮面，买过碎煤（回家再团成煤球），以及成车的冬存菜。豆腐、糖、肉、蛋、奶，新鲜蔬菜及水果，都是清一色的奢侈品，过年才能够吃上一点所谓的点心与水果罐头。 这个值一块。 关你什么屁事呢？意淫真的可以强国？ 你站起来过？ 我给算着呢！不是说失败吗？我倒要看看F-35产量能不能达到4000架。。 有能力就灭天草 是啊，种种的弊端太多了，已经变成了习惯，要改正过来，难啊。。。 上面那个确实蠢，大家都知道二战日本姑且需要稳定的市场和收入来维持战争，最多洗劫一下那座超市，而把超市的管理层进货渠道资本店面人员等全都从根底里破坏殆尽的其实另有其人。 日本工业的现状。<br>1：日本工业的利润继续向汽车集中，汽车产业是日本的最大支柱。<br>如果说以前日本工业是有多根支柱的话，那么现在随着日本在电子，半导体，造船，钢铁等行业的衰落，日本工业已经渐渐出现了向汽车工业聚集的趋势。日本工业在渐渐由多根支柱变成单根支柱。进入2000强的90家日本工业企业的总营业收入为19582亿美元，汽车业的营收占了90强企业的接近一半。<br>2：日本没有新的强大工业公司出现<br>日本90家进入世界2000强的工业企业，都是存在了几十年的老企业，没有一家是新公司。<br>对比下中国最近十几年出现了哪些新的强大工业企业？<br>OPPO2004年成立，VIVO2009年成立，小米科技2011年成立，<br>中国目前最大的电动汽车电池制造商宁德时代2011年成立<br>中国最大的光伏企业之一的晶澳2005年成立<br>中国最大的两家声学企业歌尔声学2001年成立，深圳瑞声科技2004年在成立；<br>欧菲光2001年成立，中国最大的手机玻璃生产商之一的蓝思科技2003年成立；<br>等等。<br>3：日本企业赚钱的都是中国还没真正崛起的产业，我们看下日本哪些企业还比较赚钱，就知道中国哪些产业还没有起来,主要有四类：<br>1）电子零部件（包括集成电路）<br>2）机械和设备<br>3）化工业（材料<br>4）制药业<br>不要认为世界级汽车公司坚不可摧，当年我们一样觉得松下，索尼不可战胜，今天呢？索尼的芯片业务收入在被海思，紫光赶超；索尼现在主要利润来源的游戏业务在被腾讯，网易赶超，索尼的家电业务被海尔，美的，格力国产三强赶超，索尼的手机业务被华为，OPPO,VIVO赶超。<br>松下今天在给特斯拉供应电动汽车电池，中国的比亚迪，宁德时代同样是世界级电动汽车电池公司，营收过百亿人民币。<br>到2025-2027年，中国的工业总产值再翻一倍，中国人均工业产值将会达到西方平均水平。工业产值总规模超过西方国家+日本之和，这是人类进入近代工业化以来，地球上第一个在工业产值上完全压倒西方的，一个空前绝后的超级工业国家。 你家孩子都会背什么啊？说出来让大家听听，又不是只有你一个人有孩子，看看大家的孩子会不会背就完了 我家的小朋友还不少，包括幼儿园中班小班各一个，一年级的一个，不同的学校，放学回来全部会背那个东西，如果不是真理部统一规划，会如此步调一致！！！ 鸡国和棒棒的存在是好事，没有你们，日本怎么修宪呐，航母，核武，太空武器这些对日本来说都是探囊取物，慢慢习惯就好了😁 这是现行的问题，抄的还不好，当你抄的值得原创研究了，那么你就成现在的目标，创新型国家，工业4.0；目测还需要十年，那个时候喷子真的只能喷了，看不到一点希望 小平改革开放是真真做了件对事 临时很难，过几年就好一点，不过仿品也就会有了，比如：F2 你们除了骂以外真没见过你们有讲道理的时候 毁你一座超市，给你盖个仓买，你就跪下感恩戴德了？ 跟苏联红军的后代有啥理可讲？ 分析得很客观，日本这几艘说是航母，但就是太小，排水量才2万来吨，只有辽宁号的三分之一，而辽宁号也就放二十几架歼15，他们这个能放10架都谢天谢地，没办法，他们不敢刺激美国，只能打打擦边球，与其说军事目的，不如说政治目的更强，为了不断试探美国底线，为将来有一天造大航母作政治准备。 军事专家，房病，房大炮说了，4艘日本准航母，没什么用，几分钟就灭了它---电视频道及嘉宾已经傻逼到何种程度了！ 你意淫一下，这些傻x天天吃泡面住地下室怎么活下去 你妹在冲绳被上了？ 有一个人代表中国人民站起来了，哈哈哈哈，万幸的是，他死了，死得还不算很晚！！！ 整死千万人口的腌肉还被3楼跪拜呢 中国想发展巴基斯坦就得先安定他的社会，没有稳定的社会经济发展不起来。好比有人拿日本战后二十年经济就腾飞，也就是有稳定的社会基础。一切发展归于稳定的社会环境。 小日本🇯🇵神经病战机 还原创呢，连斗嘴皮子都只会抄了，工业4.0那是德国概念。有点出息。 哎呦呦~~~~超生游击队啊？<br><br>游击队的你来跟大家说说，你家孩子到底背的是什么啊？<br><br>我们大家都很好奇啊？为啥你家孩子就这么特殊？别人家孩子连听都没听过呢？ 日本有狼性但无包容之心，虽然可怕但不致命。汉族和倭族哪个更致命？算算千年，汉族灭亡了多少民族而倭族灭亡了多少民族。作为农耕民族，东亚能耕种的土地都让汉族占光了，处于封建社会已经没有扩张的动力。进入工业社会，资源遍布全球，汉族狼性和贪婪迟早要被唤醒。 日本自己可以生产 这个思路本来就有问题吧，日本考虑有什么用？难道他近期下水的航母本没想用35B而打算用直升飞机的？美国马润门自己还没配全呢，英国航母还空着呢那就轮到你考虑了，你说美国考虑卖那是新闻。日本考虑买这也算新闻？ 还提供很多援助资金，专门成立协助基金。援建很多医院等公用和公共设施，别的不清楚，水库大坝我参与日本协力基金帮建的2座。是八十年代末九十年代初的事。 明白人。 日本人毁的有伪素慰矮卖国流氓毁的多么？ 从明治开始算，有多少代人呀。20年？200年还差不多。 七言诗阳春凌霄岩张耘华春光诗社阳春日报凌霄溶洞天下雄.内生乾坤风云涌;恰似飞龙腾气象，万层钟乳滴神功！嫦娥出浴水底月，银川叠盏落九重;更留底河载仙客，世间壮景尽所容！广东省阳春市凌霄岩风景区由玉溪三洞、玉溪二洞和凌霄岩组成，游览完领略溶洞之天下雄（山之天下雄为泰山）！<br><br><br>七言诗南岭国家森林公园夏日游张耘华2017年仲夏于韶关南岭氧吧天下凉，心旷神怡时间长；天外瀑布九重落，宛如九龙下岭央；旁林绿荫接青天，潭吟轻涛风静赏；美景迷人君再来，风调雨顺国运昌！南岭国家森林公园位于广东省韶关市乳源县境内，韶关市南岭国家森林公园一日游！ 已经在日本生产出来了，虽然是组装的。以后日本会逐步国产化。 楼上真是SB中的极品。不说十年以后，就是现在日本在很多领域已经被中国超越了。 南非用二十多年，从发达国家变贫穷落后国家 明白人！ 自己生产和零部件组装是一回事吗？ 日本有狼性但无包容之心，虽然可怕但不致命。汉族和倭族哪个更致命？算算千年，汉族灭亡了多少民族而倭族灭亡了多少民族。作为农耕民族，东亚能耕种的土地都让汉族占光了，处于封建社会已经没有扩张的动力。进入工业社会，资源遍布全球，汉族狼性和贪婪迟早要被唤醒。 于是你终于可以跪下去了 连幼儿园小班的小朋友都要强迫背诵恶心价直观的国家，想赶超日本？绝无可能！ 航母舰防护雷达网中应充分考虑反隐身的防护，现代的隐身战机和隐身反舰导弹也是很先进的！ 站着说谢主隆恩？活腻了吗？ 退十步进一步，如此而已。所谓改革，无非就是一点点恢复解放前的政策而已。 你难道不知道日本的所谓生产只是把美国做好的零部件总成装配一下吗！没有美国做好的机体日本怎么生产？ 没有。。。 日本用了两个20年；不是60年。<br>一个是在殖民时期，只用20年，就跨入世界一流列强。（跟中国洋务运动同时起步）<br>一个是二战后重建，只用20年，就跨入世界一流科技经济强国。（二战后在一片废墟下，跟中国同时起步）。 那是现实，不用意淫 网易都是些什么人啊这是…… 然后你超生生了三个孩子，为啥啊？ 哦？那么关键部件的生产权呢？机载软件的源码向当地厂商公开了吗？发动机是整机运送还是米帝几千个部件一起运过去？ 日本是亚洲唯一一个高度文明发达的G7国家，引领亚洲是大势所趋，以仇恨灌输为目的的抗日神剧泡大的一代，基本属于脑残类。当局被自己几十年灌输的脑残绑架了，是没有脸来矫正了。。为了中日友好，民间人士必须站出来，铲除这种邪恶的，以灌输中日仇恨为目的的恶行，继续祸国殃民。。<br><br>如果，日本不是放眼未来；还会几十年如一日的，给中国提供海量的无息贷款，帮助中国发展经济吗？？还会帮助中国发展现代钢铁工业吗？没有日本的技术援助，就没有中国最现代化的宝钢。。没有日本的技术援助，就没有中国的现代电子工业。<br><br>所以，无休无止的纠结于中日过去的仇恨；不但毫无益处，更是祸国殃民。。放眼未来，为中日友好尽力，才是为利国利民做贡献。。抗日神剧与宫廷剧就是不折不扣的精神鸦片，凡吸食过量者必将脑残。可怕的是只要你打开电视，80%以上都是这种货色。电视本来是最应该用来开民智的，在中国恰恰相反，遍地脑残也就不奇怪了。<br><br>按十年树木百年树人来计算；中日差距至少1百年。现在在世的13亿中国人，我绝对敢肯定，无论你是婴儿还是老人，一直到你去世，你都不会看到中国，在科技文化法制经济节能环保教育医疗养老等领域，全方位追赶上日本。你能够看到的，只有前方日本远远领先的背影。<br><br>从1868年明治开国开始，日本就一直领先中国到现在，快150年了。。多少中国人从婴儿到去世，眼睁睁的，只能够看到前方日本远远领先的背影。 谈判让巴沙尔地盘越来越大，解散联合国 我们没有主子，不过我们很理解你们这些跪着做奴才的人<br><br>让你们站着你们认为别人在害你们，只有跪着才是正确的方式，别人站着都是错的<br><br>俗话怎么说？奴性深入骨髓，烂泥扶不上墙啊 那是授权生产，不授权他才不敢 我现在禁止家里的孩子看国产影视剧，以免被弄脑残。 人家说的是，日每次质的飞跃，都只需大约20年，而天朝，动则以世纪来算。 出云级240米长，如果改装成滑跃式飞行甲板的话，完全可以满足F35满载短距起飞的要求，就不知道这一次加贺号进船坞是做什么改动。 国产化是不可能的，最多就是一些飞机小零件日本自己生产，核心设备和技术只能向美国购买。 有钱不挣，你傻啊，你不挣韩国、欧洲、美国都会投资，又不欠他的，低息也好无息也罢都是有附加条件的，比如出口煤炭、石油 反正都是忽悠来的，你不投资有的是投资的，比如普桑，这车转了多少专利费。 嗯，本子有生产线 就要是没有这一下，现在恐怕还更吃土呢 日本组装的早下线了 台湾要造的两栖攻击舰，实为F-35B上舰，打造的预制舰，印度在扩建航母战斗群，韩国也推出了航母建造计划，日本在酝酿下一级的准航母建造标准，并且都在编列巨额军备预算，这不是开玩笑。一战前的欧洲，就是这种局面。 日本正确的方向同周边国家合作，而不是搞对抗，虽然有美国在背后，但有大哥的同时注定自己就是小弟，没有自主自由的权利，虽然日本经济发达，但是，日本打不起现代战争，战争的后果日本根本无法承受，战争无法给日本带来更多的利益，相反反倒会让日本经济急速衰退，国民生活水平倒退，这是日本民众根本不允许的事情，然而日本是两难境地，一有美国压制，二想合作却要看大哥脸色，实在可悲。 需要吹牛逼的傻逼，和动不动东风核平某某一样。吹的时间长了，就没人相信了。 是啊，差距太大了，日本很多80年代的技术，天朝现在还是一片空白。。。 你站起来过？ 黑龙江人少地多，你可能理解不了南方人均5分地是什么概念。 这个国家，已经与大部分人无关。 不用去跟遥远的欧美比较，跟身边的日本去比较就可以了。<br>中国国土面积960万平方公里，日本38万平方公里（与云南相当）。<br>中国人口13亿，日本人口1.27亿。<br>中国地大物博，日本资源贫乏。<br><br>日本用了两个20年；不是60年。<br>一个是在殖民时期，只用20年，就跨入世界一流列强。（跟中国洋务运动同时起步）<br>一个是二战后重建，只用20年，就跨入世界一流科技经济强国。（二战后在一片废墟下，跟中国同时起步）。<br><br>日本从内心深处拥抱世界，中国恰恰相反。<br>世界没有中国，照样飞速发展。。中国离开世界，立刻重现大秦帝国。。<br>万岁，万岁，万万岁立刻就会在全国响起。<br><br>日本人不痛恨美国佩里将军，还在日本给他树立了铜像，感谢他用大炮威逼日本明治开国，迫使日本走向了世界。。日本人不痛恨麦克阿瑟，还感谢他为日本规划了发展蓝图，日本从此走上了繁荣发展的康庄大道。。日本顶层从内心深处拥抱世界，中国恰恰相反。<br><br>明治开国；第一步，脱去了封建外衣的束缚；第二步，穿上了资本的跑鞋，从此在亚洲一骑绝尘。 美国驻日本占领军像日本的女人们问候新年好，感谢这一年来日本女性的殷勤伺候，感谢日本男人们辛苦的看门端尿壶，送纸巾！更是感谢这些年生下的儿子们这么孝心，你们虽然身在中国，但是我们想着你们！在新的一年里，我驻日本占领军会再接再厉，也希望日本女人能多喊几句亚麻跌……————大不列颠.美跌.驻日韩占领军 没有日本崛起，中国长城以北保不住，知道为什么有关东军吗？那是清政府邀请日本进驻抗衡老俄的，黄俄不敢提这段历史。 复兴还是复辟，未可知也。 反正。。。。<br><br>哈哈~~~还要在地上打滚哭着说这才有感染力对吧？ 呵呵~~~~我们从来不会傻逼到限制孩子看是否为中外的影视剧，我们从来不把自己的喜好加到孩子头上，我不喜欢看海绵宝宝，难道我也不让孩子看？你这种傻屌行为是以自我为中心的控制狂，懂？你不但自我而且自私 民国之后再无大师。 这个思路本来就有问题吧，日本考虑有什么用？难道他近期下水的航母本没想用35B而打算用直升飞机的？美国马润门自己还没配全呢，英国航母还空着呢那就轮到你考虑了，你说美国考虑卖那是新闻。日本考虑买这也算新闻？ 醒醒吧兄弟，你去过日本吗？在日本仇华的人比例有多高你知道吗。说道技术援助这些都是我们花大价钱买的而却还只能是民用领域涉及到高科技和军用对我国限制比俄罗斯还严。无息贷款确实八十年代就有了当时好多发展中国家都有，这是为了占领中国市场好让自己的产品倾销，八、九十年代我们的电器不都是日本的吗。国与国只有利益没有大公无私的爱。 日本直升机航母配垂直起降的F35. 胡适还说：美国人来了,有面包也有自由;苏联人来了,有面包没有自由;他们来了,没有面包也没有自由。 职业舔犬 你们说的这些都是次要的，日本最大的贡献，是搞垮民国，协助黄俄夺权。 好啊，造谣死我全家，没造谣死你全家。 1868年明治开国开始，日本就一直领先中国到现在，快150年了。。多少中国人从婴儿到去世，眼睁睁的，只能够看到前方日本远远领先的背影。 日本这个国家，要积极的看，比如，一次侵华，搞垮大清，二次侵华，搞垮民国，等等。 你这傻逼活的就是浪费粮食 遗臭万年。 我们幼儿园分官办和民办两种，官办费用高一些，设施好服务好还安全，孩子基本不教东西，只是天天带着你玩，所以孩子愿意去官办幼儿园<br><br>民办条件差一些，但是教东西，写字和算数天天都要学，也仅仅是这些东西而已，从来特么的没听说过哪个幼儿园强迫孩子背诵文章了，除非这幼儿园收的全是神童，否则，字都认不全怎么背文章？<br><br>楼上的，幼儿园的东西你就别特么拿出来忽悠我们了好么？就你那点仅存的智商能骗的了大家么？你特么怎么不说上幼儿园强迫孩子学微积分呢？ 你有孩子的话估计也知道了，所以我才能断定你没孩子。 都弄死个球滴～除了极少数文人，只剩下两种东西：奴才打手和断了脊梁骨滴软体动物。 美人希 反正上个世纪末，中国农村尚未解决温饱问题。 呵呵~~~~你这种行为就已经证明你是个彻彻底底的脑残了<br><br>而且，我特么都怀疑你压根就没有孩子 分析的非常的透彻 武士！<br>加油！ 西方国家没那么好心，处处设障，暗中使拌，唯恐你超越他们。恨不得搅和你四分五裂流离失所才好，伊拉克、利比亚、阿富汗是最好的例子。西方国家对中国科技、军事封锁几十年，中国照样自己发展壮大起来。说中国离不开他们倒是笑话，问一问他们谁没用过madeinchina。日本福岛核电站事故处理是中国三一重工捐助它一台70米级混凝土泵车，才完成了填埋施工，连日媒都感叹我们怎么没有这东西。美国、英国航母制造船坞龙门吊皆是madeinchina，这个标志用国旗是盖不住的。只要中国人突击英雄，我敢断定十年后中国将会再造中华民族五千年辉煌。 支持萌君~！~镁认希 人不可没骨气，民族不可没脊梁。伟人毛泽东创造近代历史的奇迹，让中华民族挺直腰杆站立起来，自此没有任何人如何国家再让国人低头。狼就是狼，江山易改本性难移，至今不遗余力的发展军事，力推修宪，改变不许拥有攻击性武器的本质，帝国之心不死呀！改革开放几十年，中国发展巨大，一跃成为世界第二大经济体，经济、民生、科技、军事蓬勃发展，不是自吹自擂，现实就是如此。不要总贬低自己抬高他人，数一数中国至今有多少世界第一就知道了。中国对世界经济发展的贡献率达到百分之三十以上，不为中华民族自豪却大肆辱没祖国，何理而来之？ 苏联的蛋蛋更大更多，然，并，卵。该崩溃时还是要崩溃。 那叫组装，和自主生产两码事 这个和“加贺”号进入维修船坞有没有关联？ 连幼儿园小班的小朋友都要强迫背诵恶心价直观的国家，想赶超日本？绝无可能！ 所以说，赶紧下饺子啊！<br>这边就等着造类似于伊丽莎白女王级那样的中型空母呢…… 还提供很多援助资金，专门成立协助基金。援建很多医院等公用和公共设施，别的不清楚，水库大坝我参与日本协力基金帮建的2座。是八十年代末九十年代初的事。 你还是怀疑点别的吧，怀疑我有什么用。 完全无视复兴党革命卫队的“煎两蛋”！ 二战之后，日本还真没做过什么对不住中国的事情。 这个帖子下居然有这么多人莫名其妙的高潮了😓😓😓<br>日本再好，是你的国吗？日本的利益，是你的利益吗？<br>知道这一百多年前日本为什么有那么多钱大力发展吗？里面有几亿两白银是清政府赔的！知道日本那个时候一年的GDP是多少万两白银吗？区区500多万两而已！傻子都算得出来，清政府赔的是多大的一笔款了！一百多年前的历史，你们为什么只讲一面不讲另一面呢？<br>谁以为日本当年对中国那些援助，背后没有政治交换条件，那真的是太幼稚了点吧。<br>中国在改革开放后，能够在这么短的时间里发展起来，真心不容易。要想达到日本的现代化水平，那肯定不是三五十年能够做到的。想想日本从明治维新到现在多少年了？<br>但是中国只要按照自己的节奏，稳稳当当的发展，不要战、不要乱，那么谁也挡不住中国成为世界顶级强国的步伐！<br>只知道仇日的脑残可悲，只知道媚日的脑残，同样可怜！<br>看到这满屏的高潮，我一直在想，什么时候中国普普通通的公民，能真正做到客观理智冷静的看待曾经发生的，正在经历的，和未来可能遇到的，那中国的民主自由法制社会就真的很近很近了！ 寒冬腊月，家里的窗户上没有一块玻璃，贴的都是窗户纸，小时候，大街上拖儿带女要饭的屡见不鲜，一直到1993年才废除了粮票。如有一句谎言，天打五雷轰。（此一时期为猫佐当家，是认珉逐步走向饥寒交迫的30年）。 日本是亚洲唯一一个高度文明发达的G7国家，引领亚洲是大势所趋，以仇恨灌输为目的的抗日神剧泡大的一代，基本属于脑残类。当局被自己几十年灌输的脑残绑架了，是没有脸来矫正了。。为了中日友好，民间人士必须站出来，铲除这种邪恶的，以灌输中日仇恨为目的的恶行，继续祸国殃民。。<br><br>如果，日本不是放眼未来；还会几十年如一日的，给中国提供海量的无息贷款，帮助中国发展经济吗？？还会帮助中国发展现代钢铁工业吗？没有日本的技术援助，就没有中国最现代化的宝钢。。没有日本的技术援助，就没有中国的现代电子工业。<br><br>所以，无休无止的纠结于中日过去的仇恨；不但毫无益处，更是祸国殃民。。放眼未来，为中日友好尽力，才是为利国利民做贡献。。抗日神剧与宫廷剧就是不折不扣的精神鸦片，凡吸食过量者必将脑残。可怕的是只要你打开电视，80%以上都是这种货色。电视本来是最应该用来开民智的，在中国恰恰相反，遍地脑残也就不奇怪了。<br><br>按十年树木百年树人来计算；中日差距至少1百年。现在在世的13亿中国人，我绝对敢肯定，无论你是婴儿还是老人，一直到你去世，你都不会看到中国，在科技文化法制经济节能环保教育医疗养老等领域，全方位追赶上日本。你能够看到的，只有前方日本远远领先的背影。<br><br>从1868年明治开国开始，日本就一直领先中国到现在，快150年了。。多少中国人从婴儿到去世，眼睁睁的，只能够看到前方日本远远领先的背影。 F-35B，部署在贯通甲板驱逐舰上，加上刚决定装备的巡航导弹，那就是进攻性武器装备了！超出了自慰队自卫的范围，严重违宪！希望美国，不要一错再错！ 他得意门生吴晗临死的时候笑了，心说：踏马迪，大师就是大师啊。。。 全部形容坏人的成语放到他身上，都不为过。 可能无关吗？如果做出一副与我无关、漠不关心的样子，那最后大厦倒下来，别以为你会跑掉，一样砸死你。 无视日本国民的感受，会带来灾难性的后果。<br><br>鸠山的下台与安倍的上台，完全是日本国民，不安情绪的强烈反应。<br><br>80年前；日本的科技与工业实力，能够支撑起，当年的航空母舰，成批量建造。<br><br>80年后；日本的科技与工业实力，同样能够支撑起，现代的航空母舰，成批量建造。<br><br>日本造与不造，不是日本说了算；而是邻国说了算。<br><br>如果，邻国无节制扩张海军，朝核问题、东海问题以及南海问题，不断的升级与恶化，那就怪不得日本复活当年的联合舰队了。<br><br>亚洲海军，高科技工业制造装备能力，日本是当之无愧的第一。<br><br>今天的日本，是高度文明发达的日本，不是昨天罪恶的军国日本。<br><br>跟今天的日本为敌，全世界都不会帮你的。<br><br>亚洲海军军备竞赛一旦开启，后果不堪设想；海军舰队，就是不折不扣的吞金怪兽。必将重创亚太经济，中日韩自贸区，以及亚太经济圈的建设，都将沦为海市蜃楼。<br><br>台湾要造的两栖攻击舰，实为F-35B上舰，打造的预制舰，印度在扩建航母战斗群，韩国也推出了航母建造计划，日本在酝酿下一级的准航母建造标准，并且都在编列巨额军备预算，这不是开玩笑。一战前的欧洲，就是这种局面。<br><br>当年的苏联经济，就是这样崩盘的。崩盘时，船台上还有两艘未建成的航空母舰。 这个奇葩，是日本侵略中国时留下的野种！日本一直阻挠中国的发展包括统一，在他的嘴里都变成了日本帮助中国发展了，真是一个奇葩精神幻觉。 唯一站起来的那个人，已经陈尸广场，或将遗臭万年。 醒醒吧兄弟，你去过日本吗？在日本仇华的人比例有多高你知道吗。说道技术援助这些都是我们花大价钱买的而却还只能是民用领域涉及到高科技和军用对我国限制比俄罗斯还严。无息贷款确实八十年代就有了当时好多发展中国家都有，这是为了占领中国市场好让自己的产品倾销，八、九十年代我们的电器不都是日本的吗。国与国只有利益没有大公无私的爱。 醒醒吧兄弟，你去过日本吗？在日本仇华的人比例有多高你知道吗。说道技术援助这些都是我们花大价钱买的而却还只能是民用领域涉及到高科技和军用对我国限制比俄罗斯还严。无息贷款确实八十年代就有了当时好多发展中国家都有，这是为了占领中国市场好让自己的产品倾销，八、九十年代我们的电器不都是日本的吗。国与国只有利益没有大公无私的爱。 毕和任说了句实在话，就被封嘴了，可见，这个国家有多无耻。 人家可没赖你战争赔款，是你主动不要的。 你站起来过？ 喷子们都过来学着点，看看人家科班出身的职业舔是什么样的水平，在看看你们自己，知道差距了吧？ 中国援非跟日本援华完全两码事。 胡适说，“现在有人对你们说：‘牺牲你们个人的自由，去求国家的自由！’我对你们说：‘争你们个人的自由，便是为国家争自由！争你们自己的人格，便是为国家争人格！自由平等的国家不是一群奴才建造起来的！’”------引自胡适《介绍自己的思想》，洪治纲主编《胡适经典文存》。 还在做梦。 城头变幻大王旗，关老子屌事。 毁你一座超市，给你盖个仓买，你就跪下感恩戴德了？ 我们那是打水漂啊！ 醒醒吧兄弟，你去过日本吗？在日本仇华的人比例有多高你知道吗。说道技术援助这些都是我们花大价钱买的而却还只能是民用领域涉及到高科技和军用对我国限制比俄罗斯还严。无息贷款确实八十年代就有了当时好多发展中国家都有，这是为了占领中国市场好让自己的产品倾销，八、九十年代我们的电器不都是日本的吗。国与国只有利益没有大公无私的爱。 如果腐朽的大夏倒下来，我心甘情愿大笑着死去。 日本自己可以生产 中国从来就不缺汉奸卖国贼，即使傲视群雄的今天也是如此。人不可没骨气，民族不可没有脊梁，毛主席创造中华近代史的奇迹，让中国人挺直腰杆做人，没有谁会再让中华民族弯腰低头。狼就是狼倭寇就是倭寇，至今还想修宪，改变自卫的本质，骨子里帝国之心不死。连倭人自己都承认如今除了相机汽车，日本还有什么可炫耀的，倒是有民族败类为其鼓吹。提高民族素质，继承和发扬民族精神，凝聚民族气节，再造五千年华夏奇迹，让中国重回世界巅峰才是我华夏子孙之梦！ 大厦最担心的事情<br><br>终于发生了 日本用了两个20年；不是60年。<br>一个是在殖民时期，只用20年，就跨入世界一流列强。（跟中国洋务运动同时起步）<br>一个是二战后重建，只用20年，就跨入世界一流科技经济强国。（二战后在一片废墟下，跟中国同时起步）。 这三个字都难打出来了？ 关你什么屁事呢？意淫真的可以强国？ 没关系，历史上，从古代中国有记录以来，一直到中国明朝末年，日本都不如中国，日本都一直在“追赶”中国，那是多少时间，你自己去算。现在，按照你说的，日本仅仅领先短短的150年而已，相比而言，时间不算长。至于“全方位追赶上日本”，这是无稽之谈，只有全方位落后，才需要全方位追赶，但是，我们的量子通信技术已经超过日本。这个世界上，没有哪个国家敢说自己全方位超越中国，所以，中国不需要“全方位”追赶任何国家，当然包括日本。我们感激国外日本对中国的各种援助，但是，这不是放手让日本发展军国主义的借口。我们的国家还不完善，需要我们每个人去努力，但是，我们从不只观看莫个人的背影，我们要放眼世界。 不用去跟遥远的欧美比较，跟身边的日本去比较就可以了。<br>中国国土面积960万平方公里，日本38万平方公里（与云南相当）。<br>中国人口13亿，日本人口1.27亿。<br>中国地大物博，日本资源贫乏。 汶歌后，中国几代人，都是听着日本歌曲长大的。。。。当然也包括你。<br><br>有邓丽君翻唱的日本歌曲，也有谭咏麟，张国荣，周华健，王菲，任贤齐，张学友，李克勤，莫文蔚，刘若英等人翻唱的大量的日本歌曲。。<br><br>原来的我，毎一步，相见不如怀念，千千阕歌，伤心太平洋，我只在乎你，《后来》，容易受伤的女人，有谁共鸣，遥远的她，《花》，四季歌，忘不了你，花心，《北国之春》，对你爱不完，好大一棵树，《让我欢喜让我忧》，跟往事干杯，让一切随风，再见我的爱人，女人的华尔滋，情已逝，风继续吹，飘雪，《我的亲爱》，又见炊烟，漫步人生路，冬恋，红日，一路上有你，每天爱你多一些，春风，雨丝情愁，星，祈祷，川流不息，跟着我飞翔，情愿一个人，哀愁的吉他，雨中的恋人们，一支小雨伞，漫漫前路，盛夏的果实，《流水年华》，泪光闪闪、等等等等。。日本是战后领导亚洲流行文化的国家，没有之一。 F35A要5亿这个B得8亿吧 我排队买过杂粮面，买过碎煤（回家再团成煤球），以及成车的冬存菜。豆腐、糖、肉、蛋、奶，新鲜蔬菜及水果，都是清一色的奢侈品，过年才能够吃上一点所谓的点心与水果罐头。 这个思路本来就有问题吧，日本考虑有什么用？难道他近期下水的航母本没想用35B而打算用直升飞机的？美国马润门自己还没配全呢，英国航母还空着呢那就轮到你考虑了，你说美国考虑卖那是新闻。日本考虑买这也算新闻？ 寒冬腊月，家里的窗户上没有一块玻璃，贴的都是窗户纸，小时候，大街上拖儿带女要饭的屡见不鲜，一直到1993年才废除了粮票。如有一句谎言，天打五雷轰。（此一时期为猫佐当家，是认珉逐步走向饥寒交迫的30年）。 ",
        "Link": "http://comment.war.163.com/news_junshi_bbs/D6GPLS8P000181KT.html"
    },
    "Article": "（原标题：日媒：日本考虑引进F35B战机或配备准航母）【环球网军事报道】据日本共同社12月25日报道，日本防卫省目前正在考虑从美国引进F-35B垂直起降隐形战机。如果日本引进成功的话，未来将配备在海上自卫队的“准航母”上，届时日本将拥有具备较强进攻能力的真正航母。日媒称，目前在日本政府内部还没有就此事达成最终共识，因为这关系到日本自卫队“专守防卫”的必要限度。如果决定引进的话，将应用于西南诸岛长度较短的机场上，或者是改造和新建军舰使用，以应对“中国日益活跃的海洋活动”。日本航空自卫队此前确定将引进42架美制F-35A战斗机，如果决定引进F-35B的话将以何种方式引进呢？目前有两种方案，一种是在之前订单的基础上，将部分战机直接改成F-35B，另一种则是需要追加预算新购。本文来源：环球时报-环球网。更多精彩，请登录环球网http://www.huanqiu.com责任编辑：李曦_NN2587",
    "PublishTime": "12/25/201714:20:52",
    "KeyWords": "日本,战机,军舰,防卫省"
}