{
    "Article": "（原标题：代孕产业链做到东南亚：钱到位啥都包办）#endText.video-infoa{text-decoration:none;color:#000;}#endText.video-infoa:hover{color:#d34747;}#endText.video-listli{overflow:hidden;float:left;list-style:none;width:132px;height:118px;position:relative;margin:8px3px0px0px;}#entText.video-lista,#endText.video-lista:visited{text-decoration:none;color:#fff;}#endText.video-list.overlay{text-align:left;padding:0px6px;background-color:#313131;font-size:12px;width:120px;position:absolute;bottom:0px;left:0px;height:26px;line-height:26px;overflow:hidden;color:#fff;}#endText.video-list.on{border-bottom:8pxsolid#c4282b;}#endText.video-list.play{width:20px;height:20px;background:url(http://img1.cache.netease.com/video/img14/zhuzhan/play.png);position:absolute;right:12px;top:62px;opacity:0.7;color:#fff;filter:alpha(opacity=70);_background:none;_filter:progid:DXImageTransform.Microsoft.AlphaImageLoader(src=\"http://img1.cache.netease.com/video/img14/zhuzhan/play.png\");}#endText.video-lista:hover.play{opacity:1;filter:alpha(opacity=100);_filter:progid:DXImageTransform.Microsoft.AlphaImageLoader(src=\"http://img1.cache.netease.com/video/img14/zhuzhan/play.png\");}if(/(iPhone|iPad|iPod|Android|NETEASEBOBO|blackberry|bb\\d+)/ig.test(navigator.userAgent)||/safari|chrome|firefox/i.test(navigator.userAgent)&&navigator.plugins&&!navigator.plugins[\"ShockwaveFlash\"]){varstr1='<videocontrols=\"controls\"preload=\"auto\"width=\"100%\"poster=\"http://vimg3.ws.126.net/image/snapshot/2017/12/K/Q/VD5VFHSKQ.jpg\"style=\"max-height:100%\">';varstr2='<sourcetype=\"video/mp4\"src=\"http://flv.bn.netease.com/videolib3/1712/30/zAKsE1711/SD/zAKsE1711-mobile.mp4\">您的浏览器暂时无法播放此视频.</video>';document.getElementById(\"FPlayer1404863609673\").parentNode.innerHTML=str1+str2;}代孕产业链做到东南亚：钱到位啥都包办（来源：~）window.NTES&&function(d){varf=function(c){varb=c.getAttribute(\"flashvars\"),a=c.getAttribute(\"repovideourl\").replace(\".flv\",\"-mobile.mp4\");h=d(c.parentNode.parentNode.parentNode),g='<embedsrc=\"http://v.163.com/swf/video/NetEaseFlvPlayerV3.swf\"flashvars=\"'+b+'\"allowfullscreen=\"true\"allowscriptaccess=\"always\"quality=\"high\"wmode=\"opaque\"width=\"100%\"height=\"100%\"type=\"application/x-shockwave-flash\"/>';if(/(iPhone|iPad|iPod|Android|NETEASEBOBO|blackberry|bb\\d+)/ig.test(navigator.userAgent)){g='<videocontrols=\"controls\"preload=\"auto\"width=\"100%\"height=\"100%\"><sourcetype=\"video/mp4\"src=\"'+a+'\">您的浏览器暂时无法播放此视频.</video>';}h.$(\".video\")[0].innerHTML=g;},e=function(b){vara=d(b.parentNode.parentNode.parentNode);a.$(\"li\").removeCss(\"on\"),b.addCss(\"on\"),a.$(\".video-title\")[0].innerHTML=\"string\"==typeofb.textContent?b.textContent:b.innerText,a.$(\".video-title\")[0].setAttribute(\"href\",b.getAttribute(\"url\")),a.$(\".video-from\")[0].innerHTML=\"（来源：\"+b.getAttribute(\"source\")+\"）\",f(b);};window.continuePlay=function(){vara,b=d(d(\".video-list.on\")[0].nextSibling);3==b.nodeType&&(b=d(b.nextSibling));if(b&&d(\".video-innerinput\")[0].checked){e(b);}},function(){vara={init:function(){if(d(\".video-listli\")[0]){d(d(\".video-listli\")[0]).addCss(\"on\"),this.eventBind();}},eventBind:function(){d(\".video-listli\").addEvent(\"click\",function(b){e(d(this)),b.preventDefault();});}};a.init();}();}(NTES);#endText.video-infoa{text-decoration:none;color:#000;}#endText.video-infoa:hover{color:#d34747;}#endText.video-listli{overflow:hidden;float:left;list-style:none;width:132px;height:118px;position:relative;margin:8px3px0px0px;}#entText.video-lista,#endText.video-lista:visited{text-decoration:none;color:#fff;}#endText.video-list.overlay{text-align:left;padding:0px6px;background-color:#313131;font-size:12px;width:120px;position:absolute;bottom:0px;left:0px;height:26px;line-height:26px;overflow:hidden;color:#fff;}#endText.video-list.on{border-bottom:8pxsolid#c4282b;}#endText.video-list.play{width:20px;height:20px;background:url(http://img1.cache.netease.com/video/img14/zhuzhan/play.png);position:absolute;right:12px;top:62px;opacity:0.7;color:#fff;filter:alpha(opacity=70);_background:none;_filter:progid:DXImageTransform.Microsoft.AlphaImageLoader(src=\"http://img1.cache.netease.com/video/img14/zhuzhan/play.png\");}#endText.video-lista:hover.play{opacity:1;filter:alpha(opacity=100);_filter:progid:DXImageTransform.Microsoft.AlphaImageLoader(src=\"http://img1.cache.netease.com/video/img14/zhuzhan/play.png\");}if(/(iPhone|iPad|iPod|Android|NETEASEBOBO|blackberry|bb\\d+)/ig.test(navigator.userAgent)||/safari|chrome|firefox/i.test(navigator.userAgent)&&navigator.plugins&&!navigator.plugins[\"ShockwaveFlash\"]){varstr1='<videocontrols=\"controls\"preload=\"auto\"width=\"100%\"poster=\"http://vimg3.ws.126.net/image/snapshot/2017/12/I/7/VD5VNGLI7.jpg\"style=\"max-height:100%\">';varstr2='<sourcetype=\"video/mp4\"src=\"http://flv.bn.netease.com/videolib3/1712/30/cfGBR0141/SD/cfGBR0141-mobile.mp4\">您的浏览器暂时无法播放此视频.</video>';document.getElementById(\"FPlayer1404863609673\").parentNode.innerHTML=str1+str2;}“代妈”们的疯狂：出租子宫成了门生意（来源：~）window.NTES&&function(d){varf=function(c){varb=c.getAttribute(\"flashvars\"),a=c.getAttribute(\"repovideourl\").replace(\".flv\",\"-mobile.mp4\");h=d(c.parentNode.parentNode.parentNode),g='<embedsrc=\"http://v.163.com/swf/video/NetEaseFlvPlayerV3.swf\"flashvars=\"'+b+'\"allowfullscreen=\"true\"allowscriptaccess=\"always\"quality=\"high\"wmode=\"opaque\"width=\"100%\"height=\"100%\"type=\"application/x-shockwave-flash\"/>';if(/(iPhone|iPad|iPod|Android|NETEASEBOBO|blackberry|bb\\d+)/ig.test(navigator.userAgent)){g='<videocontrols=\"controls\"preload=\"auto\"width=\"100%\"height=\"100%\"><sourcetype=\"video/mp4\"src=\"'+a+'\">您的浏览器暂时无法播放此视频.</video>';}h.$(\".video\")[0].innerHTML=g;},e=function(b){vara=d(b.parentNode.parentNode.parentNode);a.$(\"li\").removeCss(\"on\"),b.addCss(\"on\"),a.$(\".video-title\")[0].innerHTML=\"string\"==typeofb.textContent?b.textContent:b.innerText,a.$(\".video-title\")[0].setAttribute(\"href\",b.getAttribute(\"url\")),a.$(\".video-from\")[0].innerHTML=\"（来源：\"+b.getAttribute(\"source\")+\"）\",f(b);};window.continuePlay=function(){vara,b=d(d(\".video-list.on\")[0].nextSibling);3==b.nodeType&&(b=d(b.nextSibling));if(b&&d(\".video-innerinput\")[0].checked){e(b);}},function(){vara={init:function(){if(d(\".video-listli\")[0]){d(d(\".video-listli\")[0]).addCss(\"on\"),this.eventBind();}},eventBind:function(){d(\".video-listli\").addEvent(\"click\",function(b){e(d(this)),b.preventDefault();});}};a.init();}();}(NTES);历时2个多月，澎湃新闻暗访多地代孕机构、“代妈”生活基地，以及中部某省多个村庄，发现地下代孕非法产业链在国内畸形发展，并向东南亚等境外延伸。专家呼吁应整治。本文来源：澎湃新闻责任编辑：王征_NN7526",
    "PublishTime": "12/30/201710:57:48",
    "URL": "http://news.163.com/17/1230/10/D6TA1KPH0001899N.html",
    "Comment": {
        "Content": "全套包办啊，有关系这都是小事儿。 这个贵了，我一个朋友代孕30万，而且保证是儿子 求联系方式 我、包你怀孕、打钱！ 什么都能代替啊 要想自己生孩子可以找正规的不孕不育医院，千万不要去地下黑机构，当心受骗上当。 代出精子，18到30之间。当面交货！ 可我怎么觉得代孕挺好的，有些人没办法自己生孩子，却也希望有自己的孩子，有些人没钱希望以此赚钱，只是要正规起来才好 当然可以，你太孤陋寡闻了 这种黑色产业链你明明都知道存在很多年了，也从来没发现认真治理过 留下微信我gay以后会考虑的 不能把视频里的内容整理成文字？ 什么都能代替啊 关键户口怎么上 应该开放，计划生育害了二代人，失独的人现在想要孩子又不能生了。各取所需不挺好吗 你才是傻逼<br>欧美贵一倍 就是出租自宫呗，靠身体挣钱不偷不抢造福不孕不育为郭嘉培育接盘侠还来钱快比贪官强吧？ 不信拉到，我们做这个很多年了，很多中国夫妇都是通过去美国代孕，从父亲和母亲体内各取精子和卵子，植入代孕妈妈体内，同样怀胎十月，顺产剖腹产都可以，而且这个是100%自己的孩子，对于比较传统的中国人来说，非常合适！选择代孕的原因有很多，有的是没有时间，忙于事业，有的是身体不够好，自然怀孕有难度，也有的是因为年纪较大，总之，这个在美国完全合法，费用也不是天价，不要不懂，然后靠猜测，多了解了解不是坏事！ 社会上稀奇古怪事情看多了，我觉得代孕这工作没什么不体面。赚到钱，没有不体面的。也没有危害谁。<br>国考个个那么热，呵呵，你们不知道里面都是个个拿红包，受贿贪污的主？(别跟我撒播正能量，底层临时工去混球团团那里装清纯)。这被认为很体面的工作。 对我一个朋友就这样，自己子宫畸形不能生，她和她老公感情很好，现在就在找代孕 你给我100万，我带你去，手续齐全，合法合规，外送美国护照一本！ 什么都能代替啊 这是骗人的，生男生女是不可能预测的，完全是由男子的精子染色体决定的，不可能人为操纵。 不知道说什么了、社会发展的太快 强烈支持代孕 我有钱买你老婆肚子吧 多缴点税应该就能合法了 有美女老公不能生育的，我可以免费给你交配。交配到怀孕为止。 小子哎，敢抢洒家的生意！看拳！ 我也觉得挺好的，从前还可以收养，现在连这条路都断了，那么不孕不育的家庭也要给条路走啊，这也是家庭稳定的必要因素啊。 我觉得吧~！~60万换成9万刀只要自己身体素质尚可完全可以拿去尝试找个外国老婆~别说孩子，连自己的绿卡都解决了......如果你不嫌弃毛子的国籍差.....那这个数可以娶2.3没毛病..... 商品经济，就是为他人作嫁衣裳，只怕没人买 某省？哪省？ 哪儿做的？求问 欧美谁给你怀？人家又不缺这点钱，30万？起码300万 这是个好事情耶[微笑][微笑][微笑] 金钱面前谈人格 我可以包怀孕！免费 敢问二楼你是象牙塔里的人吧？医院有关系可以告诉男女的，本地熟人都找我们这的一个B超大夫看男女 要男的不 borninusa1999 放你妈个屁！你给老子60万，老子保证找人给你代孕一个孩子，还送一本美国护照！ 我家母狗继续人工受精，快留联系方式！ 好的，我要你……😍😍😍 傻逼真他妈的多，宁愿偷偷摸摸去东南亚，欧美全是光明正大，合法，这些智障不去！ 这个贵了，我一个朋友代孕30万，而且保证是儿子 求联系方式 有钱人寻求优良基因无可厚非 代孕是非法的，我国政策不允许代孕。 什么都能代替啊 要想自己生孩子可以找正规的不孕不育医院，千万不要去地下黑机构，当心受骗上当。 代出精子，18到30之间。当面交货！ 可我怎么觉得代孕挺好的，有些人没办法自己生孩子，却也希望有自己的孩子，有些人没钱希望以此赚钱，只是要正规起来才好 请各位易友注意，网易评论区已有一群长期受境外NGO资金资助的轮子盘据在各大门户网站带节奏。它们特别点是任何新闻都采取攻击、嘲讽、影射或各种阴谋论等形式带节奏走极端。请各位易友注意！ 这很好 当然可以，你太孤陋寡闻了 能提供下你朋友联系方式吗？我想找代孕，谢谢！ 留下微信我gay以后会考虑的 肤浅啊……给你点赞的也是太肤浅的考虑了 应该开放，计划生育害了二代人，失独的人现在想要孩子又不能生了。各取所需不挺好吗 我觉得吧~！~60万换成9万刀只要自己身体素质尚可完全可以拿去尝试找个外国老婆~别说孩子，连自己的绿卡都解决了......如果你不嫌弃毛子的国籍差.....那这个数可以娶2.3没毛病..... 你才是傻逼<br>欧美贵一倍 你好，有联络方式吗？我想咨询下 计生的本意就是：淘汰末位男渣，引进异国女郎，促进民族融合，发挥杂种优势。说它们是汉奸，不算冤枉吧？ 就是出租自宫呗，靠身体挣钱不偷不抢造福不孕不育为郭嘉培育接盘侠还来钱快比贪官强吧？ 不信拉到，我们做这个很多年了，很多中国夫妇都是通过去美国代孕，从父亲和母亲体内各取精子和卵子，植入代孕妈妈体内，同样怀胎十月，顺产剖腹产都可以，而且这个是100%自己的孩子，对于比较传统的中国人来说，非常合适！选择代孕的原因有很多，有的是没有时间，忙于事业，有的是身体不够好，自然怀孕有难度，也有的是因为年纪较大，总之，这个在美国完全合法，费用也不是天价，不要不懂，然后靠猜测，多了解了解不是坏事！ 社会上稀奇古怪事情看多了，我觉得代孕这工作没什么不体面。赚到钱，没有不体面的。也没有危害谁。<br>国考个个那么热，呵呵，你们不知道里面都是个个拿红包，受贿贪污的主？(别跟我撒播正能量，底层临时工去混球团团那里装清纯)。这被认为很体面的工作。 对我一个朋友就这样，自己子宫畸形不能生，她和她老公感情很好，现在就在找代孕 哈哈 borninusa1999 都是为了钱 我有钱买你老婆肚子吧 那五千万光棍怎么办，就活该断子绝孙？？ 重金求子电线杆上不都是吗 淘汰末位男渣，引进异国女郎，促进民族融合，发挥杂种优势。 你跑题了 强烈支持代孕 你给我100万，我带你去，手续齐全，合法合规，外送美国护照一本！ 介绍给我 代交配有吗？ 有美女老公不能生育的，我可以免费给你交配。交配到怀孕为止。 锅厕的本意就是：淘汰末位男渣，引进异国女郎，促进民族融合，发挥杂种优势。说它们是罕见，不算冤枉吧？ 对于因病摘除子宫或者其他怀孕易引起并发症的人，代孕是一条出路。 我也觉得挺好的，从前还可以收养，现在连这条路都断了，那么不孕不育的家庭也要给条路走啊，这也是家庭稳定的必要因素啊。 男人不背这个锅！吾予汝一江春水，汝只取那一瓢饮，是吾之罪？是汝之罪？ 商品经济，就是为他人作嫁衣裳，只怕没人买 光棍只要拿出代孕的钱不就能有孩子了吗？不用买房出彩礼，还包男孩儿。 某省？哪省？ 哪儿做的？求问 欧美谁给你怀？人家又不缺这点钱，30万？起码300万 有这需求的请关注我，试管选男女 祝你们在一起快乐性福 我可以包怀孕！免费 敢问二楼你是象牙塔里的人吧？医院有关系可以告诉男女的，本地熟人都找我们这的一个B超大夫看男女 你是个母的？ 傻逼真他妈的多，宁愿偷偷摸摸去东南亚，欧美全是光明正大，合法，这些智障不去！ 生出来病儿管不 整治 好的，知道啦，谢谢！ 家族祖传龙凤胎技术，有需要请与楼下秘书联系！ 我家母狗继续人工受精，快留联系方式！ 好的，我要你……😍😍😍 这是骗人的，生男生女是不可能预测的，完全是由男子的精子染色体决定的，不可能人为操纵。 这个良心价啊 也要看档次的 社会上稀奇古怪事情看多了，我觉得代孕这工作没什么不体面。赚到钱，没有不体面的。也没有危害谁。<br>国考个个那么热，呵呵，你们不知道里面都是个个拿红包，受贿贪污的主？(别跟我撒播正能量，底层临时工去混球团团那里装清纯)。这被认为很体面的工作。 请明天到凤姐办公室一趟 全套包办啊，有关系这都是小事儿。 这个贵了，我一个朋友代孕30万，而且保证是儿子 现在30万不够了，6-7十万起码的。 哈哈，京城内可没养猪场。 我、包你怀孕、打钱！ 关键户口怎么上 不知道说什么了、社会发展的太快 我这租售种子 多缴点税应该就能合法了 金山让人道德沦丧 有需求就有市场 小子哎，敢抢洒家的生意！看拳！ 这些人真神通广大，很难想象纯黑背景 这种黑色产业链你明明都知道存在很多年了，也从来没发现认真治理过 今天真的大开眼界 无法生育的女性，怎么办？？！？ 子宫~又打错了 什么都能代替啊 什么行业都有专家啊！代孕都有专家？ 什么都能代替啊 这是个好事情耶[微笑][微笑][微笑] 我免费送你 金钱面前谈人格 我可以包怀孕！免费 菲律宾🇵🇭柬埔寨🇰🇭泰国🇹🇭代妈 你好，有联络方式吗？我想咨询下 要男的不 就是出租自宫呗，靠身体挣钱不偷不抢造福不孕不育为郭嘉培育接盘侠还来钱快比贪官强吧？ 不能把视频里的内容整理成文字？ 隔壁有头老母牛深信不疑 哈哈，京城内可没养猪场。 什么都能代替啊 什么都能代替啊 哦，谢谢，哈哈 ",
        "Link": "http://comment.news.163.com/news2_bbs/D6TA1KPH0001899N.html",
        "Total": 2774,
        "Reply": 94
    },
    "Source": "Netease",
    "Title": "媒体暗访代孕机构:68万啥都包办 业务做到东南亚_网易新闻",
    "KeyWords": "产业链,东南亚,代孕,非法"
}