{
    "PublishTime": "12/31/201709:19:02",
    "Comment": {
        "Total": 5450,
        "Reply": 387,
        "Link": "http://comment.sports.163.com/sports2_bbs/D6VMPHD100058781.html",
        "Content": "鸟大湿的比赛没意思，还不如新曼联球迷洗地看的过瘾😂 生姜头难得发话，这才是真正的曼联人。主场踢成这样，球队必须有所改变了 到哪里都有内鬼，你演无间道啊？？？ 什么叫国米这样的球队，国米很差吗，鸟去国米时，国米在意甲一家独大，联赛三连冠。 我只想看看曼联球迷们的忍耐力 社会在变球员和技战术都在变你老穆还守旧的话注定被淘汰啊…… 人不能靠功劳铺活着，成绩比他光鲜的又不是没有 活生生从曼联球迷转为曼城球迷！真的需要多欣赏曼城这样的球队踢球，看多了曼联折寿[大哭] 所以瓜帅就被它们喷成“伪君子”，鸟叔是“真性情”。 生姜头你想干嘛？竟敢质疑世界第一主教练战术训练，你行你上啊 鸟汪这些年被巴萨球迷爆出翔了，有心理阴影了，走哪儿都忘不了它们的巴萨爹们[喷水][喷水] 哈哈哈哈<br>你和穆里尼奥很熟悉啊？<br>哈哈哈<br>知道穆里尼奥去切尔西，说的是什么？<br>哈哈哈哈 傻逼鸟粪 楼上的顶贴数看得出这里的巴汪数量 佩服这都能扯到c罗和皇马 💊💊💊💊 鸟走后十年内：<br>成绩好了是鸟留下的遗产<br>成绩不好是没了鸟曼联就是垃圾 莫耶斯执教场面都比你好看！不会出现看了睡着的情况！ 鸟汪含着憋说话 鸟粪哪来的脑子，思维混乱就是它们这个群体的特质，简称傻逼 踢这些烂队曼联都要靠点球才能赢了……鸟的作风只适合小球队，跟豪门的气质不符 说实话，看鸟比赛没有喷鸟粪有意思哈哈 哎你喷爵爷垂帘听政这个点应该告诉你鸟爹啊下一轮输了可以让爵爷背锅了 波尔图我不了解但是国米当时队里全是老炮教练固然很重要但是也得看球员别神化一个人而且我觉得切尔西一期算是他巅峰不过也已经是10年前了 那倒未必，新曼联球迷是要把社区盾，联赛杯这些都算上去的，按这些冠军，穆说不定真的挺多。😂 想起了中国四大发明，结果……呵呵 开局几连胜，麻痹！媒体吹上天 波尔图内鬼在哪里？<br>国米内鬼在哪里？ 抱怨是有点多，但是哪个教练不抱怨？鸟抱怨就会无限放大，为什么很多评论说鸟批评球员？我为啥就没看<br>到鸟哪里公开批评球员了？哪怕输球都说队员踢的很好，很卖力。每个教练有自己的技战术风格，鸟的风格就是防反，我不知道人家大巴防守有什么好喷的，打不出犀利的反击球员执行不到位，看看现在曼联的阵容、四任教练风格球员组成的首发，结果不好看说实话也在情理之中，真正穆氏风格的球员，德赫亚、卢卡库，博格巴、林德罗夫、巴伊、罗霍、马蒂奇、林加德；（马夏尔、马塔、扬、瓦伦西亚，伊布）这几个只能算半个穆氏风格球员，每个教练都有其擅长的风格和体系，瓜迪奥拉还不是花两个赛季才打造成自己的体系球员、从门将到后防到中前场都是擅长自己风格的球员，至少绝大多数是，曼联目前最多也就一半阵容是穆氏风格的球员。所以说现在这个结果虽然在意料之外也在情理之中，不知道一天哪里那么多喷子不是舔瓜喷鸟就是舔鸟喷瓜的。 斯科尔斯？这是啥球员？我们新曼联球迷不承认你！坚决拥护鸟，做最合格的鸟粪 生姜头小心了，下次新闻发布会你就是靶子 卡佩罗里皮表示不服，比以往荣誉竟然不说我们？ 又来赖巴萨，我就知道得有人去怪巴萨，穆里尼奥这几年得罪的球迷太多了，你以为就跟一家树敌？他是四处树敌好吧，我擦，鸟迷怎么都跟进了邪教似的 穆里尼奥虽然最近够次，但这个sb你当评论员就好，不要大言不惭，曼联就是没事就名宿出来装逼，弗格森坐在看台，跟他妈垂帘听政似的， 鸟再怎么不行，最起码在四个不同的联赛都拿了冠军，而且带领波尔图和国米这样的球队夺得欧冠，恐怕这种奇迹50年都很难找出第二个 波尔图那个冠军有心的去看看吧裁判帮助很大 斯科尔斯是谁？穆养犬们给我咬😂 这家伙人品太次了。这么多教练里谁战绩不行都不会被球迷和媒体喷成这样。唯独它，小人得志时，大家隐忍。小人失志时，墙倒众人推破鼓万人捶。 就爱看鸟迷细数鸟曾经的辉煌，依稀看到有人抱着一个牙齿掉光的老妪声嘶力竭的大叫：“都滚开！你们知道个屁！她八十年前可是绝世美人，我就是非她不娶！” 媒体就是这样<br>穆里尼奥应该思考：<br>1.不要抱怨太多<br>2.人员轮换，那么大的投入……又不是第一年打英超<br>多研究策略和对手，抱怨没有用，伤病那么多，不能够只怪运气不好，因为运气本来就是一部分<br>巴汪太多了<br>这个标题也是典型的巴汪用语 看看C罗的新闻……<br>确定穆里尼奥和C罗人品都很差<br>皇马也是垃圾球会 不管怎样，鸟都没错，错在球员！ 某迷：我们遥遥排第二，3456只能望其我背；我们进球第二多难道不华丽？我们失球第二少难道不铁血？我们上赛季三冠难道没冠军底蕴？我们豪门历史难道不悠久？我们投入少战术难道不好？裁判老是针对我们难道公平？ C罗只说过一次正确的话：我绝不会往自己吃饭的盘子里吐痰 嗯，C罗人品太次，所以被喷<br>皇马太垃圾，所以被喷 鸟汪啊，每一个顶帖点赞的可都是你的巴萨爹爹们，你是要磕头叫爹的啊 论冠军，特拉帕托尼不比鸟多多了？ 凭本事甩的锅，为什么要负责任？ 主要赢了自己狂，输了别人扛，教练一般不会公开批自己的球员，更不会点名批，瓜弄走了哈特也没批过哈特，不让图雷上场也没批过图雷，就连摄政王都在维护，穆里尼奥只要球队表现不好就群批甚至点名，球员被甩多了锅之后自然失去对主教练的信任，这也是穆里尼奥在一个球队呆不长的原因之一，批一次可能知耻而后勇，批三次就没人愿意跟你合作了 鸟粪的智商啊，你自己翻翻这么多年来穆鸟的谈话，你看看他谈过波尔图吗，用去切尔西时候的言辞来反驳我只不过再一次证明了你的低智商罢了，你知道波尔图案发是什么时候吗？ 你等着挨骂吧 怎么拿的冠军心里没点逼数吗 鸟粪的智商真不是盖的，穆鸟自己都尽量避免提及葡萄牙的事，你这是揭他的短知道吗 以前挺喜欢穆帅现在有娘娘们了老是抱怨 球员拼命穆鸟居功至伟是穆鸟激活了球员潜能属性。<br>球员摆烂球员态度有问题没有职业道德，球队主帅出淤泥而不染。 鸟大湿的比赛没意思，还不如新曼联球迷洗地看的过瘾😂 确实，为什么都是别人的错？难道这些球员以前都不会踢球吗？来这里踢不出来因为战术，还要背锅，谁不反他！ 老鸟，是不是看破红尘，每到一队就签高新，混3年，然后逼着球队解约。。休息还能赚钱。。。。。。卧槽，可别是真的。 鸟的问题是太保守了，太自恋了。 鸟粪是人类最无耻，最不要脸的群体，没有之一 没母鸟，曼联以前的老球迷会回来更多，谢谢 人不能靠功劳铺活着，成绩比他光鲜的又不是没有 鸟粪是人类最无耻，最不要脸的群体，没有之一 我发现其他队伍板块人回帖少的可怜，曼联人气真是旺，以前鸟在切尔西的时候切尔西板块气也很旺，现在都来曼联这边喷鸟了，你们是为黑鸟才跟着鸟的吗，靠鸟养活着的？没有自己的主队吗？ 鸟粪：斯科尔斯巴狗，根本没看过球。曼联是球员不行，高层舍不得钱买球员。居然说穆鸟是堕落的根源。根本不懂球。 斯科尔斯算哪根葱啊，又来蹭热点，没母鸟，谁看曼联啊 瓜不群阴了梅西一下 穆帅，我们一起努力吧，当我们一起成功的时候，他们的讽刺，就像笑话，共勉 哈哈哈哈<br>你和穆里尼奥很熟悉啊？<br>哈哈哈<br>知道穆里尼奥去切尔西，说的是什么？<br>哈哈哈哈 穆鸟的精神力战法和千年不变的防反早就被吃透了。正常。。。 懂了，高级黑[狗] 楼上两条鸟粪什么不撒泡豿尿照照自己？<br>你们的女良，女乃之前究竟得被“多少人”操爽了，才能有你们的四处乱吠！ 没有也差不多了吧，以前没人有三个欧冠时，鸟屎那个吹天下第一教练，安胖教它做人，现在怎么不吹了，狗屎第一个欧冠，安德拉德蹭一下前队友德科别演，结果被红牌下去了，那年一路红牌点球，那是鸟发迹的开始，鸟屎给吹成啥样 你真的是曼联的球迷？伪的吧！ 这群人当初把卡西骂成翔，虽然卡西不管在俱乐部还是国家队都是全满贯，荣誉比鸟还多，现在别人骂鸟的时候又说你们这群屌丝有资格骂他？不要脸的双标狗。 我只想看看曼联球迷们的忍耐力 鸟屎们要准备把生姜头归类为巴X么？😂😂😂 你个傻逼操的，斯科尔斯在曼联的历史长河中占有很重的位置，一个傻逼鸟能比? 实话说真有点忍不住了一再觉得自己能看出来的问题穆帅不可能看不出那么很有可能是我错了但是当半场后曼联还在坚持踢边路传中而不是短传渗透的时候我真的看不懂了假如双塔或者卢卡库费莱尼甚至只有卢卡库的时候坚持下底传中抢头球哪怕对面的中卫头球也很出色你还是坚持这样我可以认为是队内训练这个战术比较有效但是昨天所有的条件都在反面前锋是小快灵还是坚持了一整场的下底传中穆帅在干嘛是不是真的现在曼联队内训练进攻环节只有这一个项目？传切去哪了？抛开这个不谈几个前锋在传接配合中至少三次很低级失误传中手的准头基本只有杨教授是合格的前锋抢头球能力也只有卢卡库是有能力抢到的如果是这种情况为什么还要坚持下底传中看不懂……昨天四个后卫很好马蒂奇体能下降依旧还是在撑马夏尔敢突马塔小技术不错博格巴的调度也很稳健问题就出在战术上…姆希塔良几个传茨的球都是因为在左边传中用的是逆足毫无准头可言啦师傅似乎还没有完全走出上一场的阴影 我只想说为什么曼联高层不能学学巴萨，让自己人重执教鞭，例如吉格斯。 明显来闹事的又黑曼联又黑鸟技战术不懂比赛不看醒来一看新闻就来喷的专业喷子 92一代是百年曼联精神的传承，他们的教练是爵士弗格森，他们年轻时候的带头大哥是国王坎通纳！试问这两位大佬言传身教带出来的人，会是娘炮？会像个祥林嫂似的抱怨再抱怨？穆里尼奥，像个男人一样去战斗吧，谁都会遇到挫折，如果把挫折当成你不成功的原因，而不是因为不够强大，那干脆撞头死了算了。 的确，现在的曼联没有拼劲，没有斗志，应该换上年轻人去冲击，去拼搏 思科尔斯是谁!?又来靠穆帅蹭热度!?😂😂😂😂😂😂 老黄历，两个欧冠都是10年以前，而且幸运因素大于技术因素。10年以后至今八个赛季，只得两个联赛冠军，且第二年必然被炒，去年夺个欧联杯，今年应该是博炒了。 怪球员为什么怪球员你看看穆怪球员那几场的比赛是不是怪球员昨晚战术失当球员表现努力虽然没打出战术要求的东西（其实就是战术要求和场上球员特点不符导致）穆喷了谁了么？姆希塔良一整晚在左路传中里迷失但是态度还是可以穆难道不知道是左路限制了他的发挥？前几场比赛如果你看过就知道某些球员确实在那几十分钟里没有打出应该有的水平我觉得如果要喷要黑那就是不管花钱多不多瓜二期不仅捏合了新阵容还拿到好成绩而穆二期的曼联怎么看都好像是这个赛季才开始踢球的尤其的尤其是进攻端几个进攻队员的串联 鸟永远都想不到异国他乡有一帮人追捧他，几乎像把他们奶奶操舒服了哈哈😝 其实大家都明白，不用你，大部分是你不适合而已，瓜做的好，伊布这么多年喷瓜，都没回嘴，这才是真男人，因为不可能为你埋没梅西，这不是正常的选择吗？跟鸟有本质区别，鸟越来越怪阵中队员，自然引人不满 穆帅我以前视你为偶像，但现在我改变观点了，就因为你没有担当，在自己的主场和对手一样射正三次，城门没失完全得益于德赫亚的逆天表现否则你就是失三分而不是取一分，红魔需要的是创造更多的得分良机而不是用一个点球来决定胜负。 卡西当时表现确实不好，穆里尼奥下课，安切洛蒂上来，卡西依然是替补 去大巴黎吧，瓜应该不会去那里 斯科尔斯？这是啥球员？我们新曼联球迷不承认你！坚决拥护鸟，做最合格的鸟粪 媒体就是这样<br>穆里尼奥应该思考：<br>1.不要抱怨太多<br>2.人员轮换，那么大的投入……又不是第一年打英超<br>多研究策略和对手，抱怨没有用，伤病那么多，不能够只怪运气不好，因为运气本来就是一部分<br>巴汪太多了<br>这个标题也是典型的巴汪用语 这家伙发福啦 网络不稳定的情况可能性比较大,再就是球员乱跑位,现在球员站位很重要,协防慎用,不然球员在往自己的位置跑的时候就会出现各种失误 安切洛蒂还闲赋在家 鸟再怎么不行，最起码在四个不同的联赛都拿了冠军，而且带领波尔图和国米这样的球队夺得欧冠，恐怕这种奇迹50年都很难找出第二个 这家伙人品太次了。这么多教练里谁战绩不行都不会被球迷和媒体喷成这样。唯独它，小人得志时，大家隐忍。小人失志时，墙倒众人推破鼓万人捶。 穆鸟比较固执，想在曼联复制自己在皇马和切尔西的防反战术。但是可惜，就比如最近打南安普顿这场。防反的机会出来了，打不成。拉师傅，这是个挥霍机会的孩子；姆希塔良，现在完全没状态；马夏尔，有时候隐身；林加德，能力有限。好几次的反击，机会很好，但是到了前场就被断了，无法形成有效射门，这是大问题。这些人员实现不了战术意图。瓜意识到这点之后大刀阔斧改革，但是穆鸟有点反应慢，固执，到现在该卖的也没卖，该买的也没买全。 哇擦。。国米这样的球队[被黑] 曼联名宿还是很容忍的，这点不像足坛好来污 内鬼第一季 想起了中国四大发明，结果……呵呵 这人十分固执，一意孤行 10年前？你回家洗洗睡吧，别出来丢人 我的92班啊……[色色] 木鸟就是个自恋狂。 主要赢了自己狂，输了别人扛，教练一般不会公开批自己的球员，更不会点名批，瓜弄走了哈特也没批过哈特，不让图雷上场也没批过图雷，就连摄政王都在维护，穆里尼奥只要球队表现不好就群批甚至点名，球员被甩多了锅之后自然失去对主教练的信任，这也是穆里尼奥在一个球队呆不长的原因之一，批一次可能知耻而后勇，批三次就没人愿意跟你合作了 你个狗揍的，话都看不明白，你也配上网易逼逼？ 这次同意生姜头，曼联现在进攻梳理完全靠蒙，连鸟引以为傲的快速反击现在都打不出来了，教练在球员调教和战术整理方面让人看不出任何头绪。感觉鸟现在在遵循曼联传统压出去打和遵循个人习惯收回来打之间犹豫不定，直接导致战术和人员调整上完全没有明确目的。 生姜头难得发话，这才是真正的曼联人。主场踢成这样，球队必须有所改变了 得势太狂，失势就要被捶 水果园在世界足坛的两大骗子 鸟永远都想不到异国他乡有一帮人恨他入骨几乎到操了他们娘那样恨哈哈 斯科尔斯，也叫死磕耳屎💩，去死吧，你还没有资格点评教练，听听弗爵爷怎么说。 穆里尼奥在切尔西二期下课前说：我得过多少个冠军…<br>里面就包括了波尔图的冠军<br>想不到鸟黑对穆里尼奥的每一句话和心理都了如指掌<br>佩服佩服 小编先说一下老外怎么说的祥林嫂 单看成绩…米卢带中国出征世界杯，是不是应该排第一 呵呵，刚说完就抓到一鸟粪😂 开局几连胜，麻痹！媒体吹上天 傻逼鸟粪，不要拿过去给自己台阶下 生姜是谁，穆帅冠军数能把你压死 球队表现不佳，怨天怨地怨球员怨俱乐部怨球迷怨对手怨裁判怨足协怨草皮怨赛程，能背锅的都背锅了，就tmd不是你教练的问题，那你是吃屎的吗？拿那么高的薪水好意思吗？ 开局几连胜，麻痹！媒体吹上天 鸟说太多了。以前用这招打心理战可能还有用。但现在感觉不但裁判，对手，足总对着干，自家球员也有逆反心理，毕竟不是谁都喜欢成为大魔王的感觉 人不能靠功劳铺活着，成绩比他光鲜的又不是没有 活生生从曼联球迷转为曼城球迷！真的需要多欣赏曼城这样的球队踢球，看多了曼联折寿[大哭] 曼联现在不行了 六楼，国米时期成绩掩盖了这些，克鲁兹之流不是没说过话 斯科尔斯算哪根葱啊，又来蹭热点，没母鸟，谁看曼联啊 生姜头发福了 斯科尔斯恶懂鲁迅 距离下课不久了 国米，皇马不都很成功嘛？这还算小俱乐部？ 你也不去打听一下葡萄牙那边的人啥德行跟我们有个地方的人差不多 斯科尔斯还人品次？哪怕人品再次，帮曼抬拿了11个联赛冠军、1个欧冠、1个三冠王（不是去年那种屌丝中的屌丝三冠王），这种伟大的球员（绝对的忠诚），批评下现在的曼抬状态，你他吗叽叽歪歪个几把啊？ 斯科尔斯懂鲁迅 看来这轮捉内鬼已经玩不转了，得学习打老虎了 你想象力不是地球人啊 踢这些烂队曼联都要靠点球才能赢了……鸟的作风只适合小球队，跟豪门的气质不符 成绩和成就是两回事。成就可以拿来吹，但不是现在成绩不好的理由。瓜迪奥拉可是六冠王，去年成绩不好，最终排名第三，不照样被批成shit了。 说实话，看鸟比赛没有喷鸟粪有意思哈哈 现在鸟粪真他妈不要脸……斯科尔斯可是当年曼联的灵魂人物……他还需要蹭热度…… 违约金准备到手了，下一家大巴黎，走起！[窃笑][窃笑][窃笑] 一直都是 想起了中国四大发明，结果……呵呵 。。。。。。 胸前广告是主因 我只想说，拿成绩说话吧，看看隔壁，看看海因克斯，穆里尼奥真以为大巴就是无敌了？也许杯赛决赛守住还能踢点球，但是联赛？是拿积分的！而且大巴也不是万能，为啥踢每支球队都是大巴？时代在改变，基本可以看出来大巴已经不太适合如今这个控球年代了 某些中国人天天谩骂，讽刺…为何不亲自去鸟的推特，非死不可，或者新闻发布会去怼他呢？天天在国内论坛骂，取笑一个年薪上千万欧元的外国人，真是操碎了心…[窃笑] 鸟叔疯了。。。 鸟粪:球员没有职业道德。 国米这样的球队？？？摆大巴，运气好是可以的 莫耶斯执教场面都比你好看！不会出现看了睡着的情况！ 鸟再怎么不行，最起码在四个不同的联赛都拿了冠军，而且带领波尔图和国米这样的球队夺得欧冠，恐怕这种奇迹50年都很难找出第二个 你说明白点,怎么打的啊. 看看球员进攻时那重复跑位，我都怀疑鸟演练过进攻吗 好汉不提当年勇。 这家伙人品太次了。这么多教练里谁战绩不行都不会被球迷和媒体喷成这样。唯独它，小人得志时，大家隐忍。小人失志时，墙倒众人推破鼓万人捶。 买去摆大巴还不是没用？😂 媒体就是这样<br>穆里尼奥应该思考：<br>1.不要抱怨太多<br>2.人员轮换，那么大的投入……又不是第一年打英超<br>多研究策略和对手，抱怨没有用，伤病那么多，不能够只怪运气不好，因为运气本来就是一部分<br>巴汪太多了<br>这个标题也是典型的巴汪用语 让大家看清楚某鸟粪的原话：<br>穆里尼奥虽然最近够次，但这个sb你当评论员就好，不要大言不惭，曼联就是没事就名宿出来装逼，弗格森坐在看台，跟他妈垂帘听政似的，<br>锅已经甩到弗爵爷了[窃笑] 那智商还能用的了手机也是厉害的！ 看到一楼二楼的名字，我就知道咋回事了。哎，现在瓜不在巴萨了，鸟也不在皇马了，还跟着咬过来。你俩干脆改成曼彻斯特城足球俱乐部得了。 主要赢了自己狂，输了别人扛，教练一般不会公开批自己的球员，更不会点名批，瓜弄走了哈特也没批过哈特，不让图雷上场也没批过图雷，就连摄政王都在维护，穆里尼奥只要球队表现不好就群批甚至点名，球员被甩多了锅之后自然失去对主教练的信任，这也是穆里尼奥在一个球队呆不长的原因之一，批一次可能知耻而后勇，批三次就没人愿意跟你合作了 球员水平真是不行，看着马塔很积极，但是瞎跑，林加德也不能说不努力，但是没有灵性，拉师傅的越来越没灵性了，卢克肖动不动就漏人，传中都传不出来 圣徒的胜利 生姜头难得发话，这才是真正的曼联人。主场踢成这样，球队必须有所改变了 穆鸟人品不知道，但是嘴是真欠！ 更衣室又要失控了，没有精气神，那叫病夫，谁瞧得起 都别骂了，曼联要是舍得给穆鸟买十亿欧的前锋线还会是这样子吗？ 哪四个联赛？ 说的好像当时国米的阵容很差一样 我也是一直郁闷这个问题，按理说穆鸟也算是个聪明人，怎么连这么简单的道理都不懂 弗格森的老兵与穆里尼奥互怼太正常了。。 穆里尼奥现在最擅长的就是娘炮抱怨 看不懂二楼意思？ 以前挺喜欢穆帅现在有娘娘们了老是抱怨 穆里尼奥就是死鸭子嘴硬 看了直播，曼联踢的太保守了。进攻时人数太少，第二点基本上都是南安普敦的，又没有球员上去积极反抢，丢掉球权就知道回防，场面一点优势也没有。 我怀疑这次呆不了三年了踢得太难看了，对不起曼联豪门的脸面… 说的一点都没错，就看看瓜秃的曼城，那才是曼联要去学习的。。。。。。。 他不能永远躺在功劳簿上， 斯科尔斯？这是啥球员？我们新曼联球迷不承认你！坚决拥护鸟，做最合格的鸟粪 怎么还没有怪到队医头上，等的好急 范加尔也不错啊 。。。。。。。。。。。。 你特么先别匿名，让我们看看你的评论高见，知道你喷了哪些粪 我是鸟粪，我无条件永远支持鸟，鸟的球队输球我不高兴，赢了我就高兴，来喷我吧 自从穆里尼奥要求加薪开始曼联就掉链子了你们知道的啦 人不能靠功劳铺活着，成绩比他光鲜的又不是没有 楼上的顶贴数看得出这里的巴汪数量 开局几连胜，麻痹！媒体吹上天 他的风格就适合那种短期想出成绩的，久而久之就会跟队中的进攻球员起冲突，你让阿扎尔，梅希塔良这样灵巧型的人长期待禁区附近防守，没法发挥他们的进攻长处 楼上新曼联球迷威武，一说曼联就提曼城，你们眼里全是曼城？斯科尔斯评论你主子的话完全可以用来放在你们身上嘛 鸟走后十年内：<br>成绩好了是鸟留下的遗产<br>成绩不好是没了鸟曼联就是垃圾 什么叫国米这样的球队，国米很差吗，鸟去国米时，国米在意甲一家独大，联赛三连冠。 穆里尼奥最大的错误就是客场踢利物浦摆大巴，等于在死敌面前认怂了，那场之后曼联球员就没了该有的骨气 一楼真正的鸟迷，这跟弗格森有关，他从不说一句，来现场看球不成了，自已天天在公开批评球员，不管对强结弱的有几个人只要不伤一直用到死这样成，不反思下， 从理性角度分析我会站在生姜这边，最近的曼联有点跟去年的曼联相似，平局开始多，进不了球，禁区内不死人没点球 鸟粪哪来的脑子，思维混乱就是它们这个群体的特质，简称傻逼 不管怎样，鸟都没错，错在球员！ 是呀，斯科尔斯这小人，落井下石 傻逼鸟粪 国米怎么了？看不起国米？ 的确令人失望，曼联我现在基本都不看了。严重缺乏创造力，配合生疏，球员的特点没有得到发挥。想赢怕输、畏手畏脚，这些都是教练而责任！ 真是狗屎了 想起了中国四大发明，结果……呵呵 跟球迷有什么关系？ 斯科尔斯是谁？穆养犬们给我咬😂 裁判眼睛看不见，球员太懒，对手太幸运。 其实穆鸟最错误的是没买达尼洛，看看瓜秃自从撸来达尼洛以后，球队开始大杀四方 黄金一代阿……再也看不到了 当年的电话门事件，使意甲形象遭到了毁灭性的打击，大批球星纷纷逃离意甲，国米也趁火打劫了很多的好球员。国米作为该事件的最大受益者，又招来了“只要能赢球被人按在地上狠操全场也无所谓”的穆里尼奥，这才借势完成了近30年来从无联赛冠军的国米，一下子联赛五连冠的“伟业”。近50年来唯一一个欧冠冠军，就是在这个背景下完成的。<br>近50年的国米，一直混迹于联盟杯，受益于电话门事件，才开始时不时的在欧冠上露脸，尽管多数时候都是十六郎的命。最近几年随着尤文图斯复苏，那不勒斯崛起，国米又开始混迹于联赛中游，降到联盟杯上晃悠。<br>就这么一个欧洲四流俱乐部，如果我是她的球迷，我真不好意思提当年的欧冠。 看评论，又一条巴汪<br>巴汪干嘛喜欢四处跑？ 卡佩罗里皮表示不服，比以往荣誉竟然不说我们？ 心里阴暗区过大，技术都靠犯规 看看人家隔壁 穆里尼奥虽然最近够次，但这个sb你当评论员就好，不要大言不惭，曼联就是没事就名宿出来装逼，弗格森坐在看台，跟他妈垂帘听政似的， 鸟再怎么不行，最起码在四个不同的联赛都拿了冠军，而且带领波尔图和国米这样的球队夺得欧冠，恐怕这种奇迹50年都很难找出第二个 666 凭本事甩的锅，为什么要负责任？ 国米夺欧冠没有巡游而是直接飞去马德里，这就知道是一个垃圾教练。之后皇马切尔西2次到现在曼联都是臭名远播被驱赶出来 斯科尔斯说得还有道理，小编这个标题就是瞎喷<br>穆里尼奥应该反思为什么会这样<br>不能够只是抱怨，因为抱怨没什么用 这家伙人品太次了。这么多教练里谁战绩不行都不会被球迷和媒体喷成这样。唯独它，小人得志时，大家隐忍。小人失志时，墙倒众人推破鼓万人捶。 媒体就是这样<br>穆里尼奥应该思考：<br>1.不要抱怨太多<br>2.人员轮换，那么大的投入……又不是第一年打英超<br>多研究策略和对手，抱怨没有用，伤病那么多，不能够只怪运气不好，因为运气本来就是一部分<br>巴汪太多了<br>这个标题也是典型的巴汪用语 黄黄而已 鸟汪啊，每一个顶帖点赞的可都是你的巴萨爹爹们，你是要磕头叫爹的啊 某迷：我们遥遥排第二，3456只能望其我背；我们进球第二多难道不华丽？我们失球第二少难道不铁血？我们上赛季三冠难道没冠军底蕴？我们豪门历史难道不悠久？我们投入少战术难道不好？裁判老是针对我们难道公平？ 别匿名啊黄狗 穆鸟🐤必须下课曼联才有希望～这种状况曼联不可能会振兴的 是这届曼联不行 上一场被热刺打成筛子这场找回防守球队自信 主要赢了自己狂，输了别人扛，教练一般不会公开批自己的球员，更不会点名批，瓜弄走了哈特也没批过哈特，不让图雷上场也没批过图雷，就连摄政王都在维护，穆里尼奥只要球队表现不好就群批甚至点名，球员被甩多了锅之后自然失去对主教练的信任，这也是穆里尼奥在一个球队呆不长的原因之一，批一次可能知耻而后勇，批三次就没人愿意跟你合作了 顺便喷，大不了再被炒鱿鱼，鸟帅在满脸至少打破了自己的记录，再创传奇，穆三年摇身一变穆二年 新曼城球迷厉害，已经宇宙队 不服不行鸟和瓜不在一个档次虽然很不喜欢瓜 国米怎么了？ 生姜头你想干嘛？竟敢质疑世界第一主教练战术训练，你行你上啊 一直不是这样吗 实话 球员拼命穆鸟居功至伟是穆鸟激活了球员潜能属性。<br>球员摆烂球员态度有问题没有职业道德，球队主帅出淤泥而不染。 鸟啊不是哥说你，老同志也要加强学习，拿不出成绩你还能屌给谁看。 那么多角球定位球，那么多传中，就蒙不着一个吗 波尔图那个没有裁判你觉得能拿？还有国米米利托越位进球。 己失控，求助！ 我只想看看曼联球迷们的忍耐力 鸟叔可能真得自己反省下，曼联的比赛真的越踢越难看 该让吉格斯上了吧！ 马蒂奇和卢卡库真的要累死，用下年轻人会死啊！ 人不能靠功劳铺活着，成绩比他光鲜的又不是没有 曼联最近状态的确差啊，赶紧找原因总结吧 鸟急了 鸟粪，醒醒吧 曼联92黄金一代随便一个带曼联都不至于现在的大巴曼联那么难看。为曼联球迷感到可惜了，大曼联搞成酱紫！！！ starfarming 生姜头小心了，下次新闻发布会你就是靶子 卧槽这又是曼城阵容好了 斯科尔斯退役就没有锻炼身体过了吧 看不起波尔图和国米？ 鸟汪含着憋说话 改变也没到换教练的时候，唉 这算哪门子奇迹？这种记录又有什么意义？弗爵爷在曼联一支球队创造的辉煌和奇迹都比这种伪繁荣更值得称道. 斯科尔斯著名🐦喷，我们新曼联球迷不认识你！要是🐦，世界上哪有人看曼联的比赛，是我🐦让曼联从默默无闻的球队变成了世界上首屈一指的球队。 只可以六冠王球迷到处喷，不可以指出他们是谁？<br>哈哈哈 感觉像泄气的皮球 楼上的顶贴数看得出这里的巴汪数量 又一个理性客观中立六冠王球迷 哎你喷爵爷垂帘听政这个点应该告诉你鸟爹啊下一轮输了可以让爵爷背锅了 你要是能踢个5比0，裁判就算黑你一两个也不影响你拿分啊！大巴没前途 定律永远都是定律！ 想起了中国四大发明，结果……呵呵 开局几连胜，麻痹！媒体吹上天 斯科尔斯？这是啥球员？我们新曼联球迷不承认你！坚决拥护鸟，做最合格的鸟粪 鸟老了，思维僵化了。 历史有用吗？那曼联赶快把贝利马拉多纳买来吧 生姜头踢球的时候，你还是小蝌蚪呢，难怪不懂…… 斯科尔斯胖了 穆里尼奥虽然最近够次，但这个sb你当评论员就好，不要大言不惭，曼联就是没事就名宿出来装逼，弗格森坐在看台，跟他妈垂帘听政似的， 鸟再怎么不行，最起码在四个不同的联赛都拿了冠军，而且带领波尔图和国米这样的球队夺得欧冠，恐怕这种奇迹50年都很难找出第二个 斯科尔斯想借这个机会出名吧，不喷鸟谁认识你？赶紧摘了曼联队徽！ 看完这照片不得不说岁月真是把杀猪刀啊，斯科尔斯肥得都快认不出来了<br>哎，连当年的曼联小将弗兰都老到退役 不行就换帅吧。。穆帅争议太大了，不过换谁能干的过瓜帅呢？ 这家伙人品太次了。这么多教练里谁战绩不行都不会被球迷和媒体喷成这样。唯独它，小人得志时，大家隐忍。小人失志时，墙倒众人推破鼓万人捶。 巧妇难为无米之饮，这阵容打到现在不错了。要换曼城的阵容，穆里尼奥早提前10轮夺冠了。 媒体就是这样<br>穆里尼奥应该思考：<br>1.不要抱怨太多<br>2.人员轮换，那么大的投入……又不是第一年打英超<br>多研究策略和对手，抱怨没有用，伤病那么多，不能够只怪运气不好，因为运气本来就是一部分<br>巴汪太多了<br>这个标题也是典型的巴汪用语 老实人孤立他 这是主场1:2输给曼城后所有人都泄气了一样……振作起来啊 这辣鸡谁，敢喷咱穆大师😂😂😂😂 👍 你这杂种又出来了 做个烟花的都都蹲监狱了，还敢提四大发明。 C罗只说过一次正确的话：我绝不会往自己吃饭的盘子里吐痰 嗯，C罗人品太次，所以被喷<br>皇马太垃圾，所以被喷 请分新老，谢谢，这不是我认识的红魔，鸟没有让曼联复兴，感谢穆里尼奥，好一个平局赔率顶高的。剩下看曼城和阿森纳了。 生姜头难得发话，这才是真正的曼联人。主场踢成这样，球队必须有所改变了 不如看看这里的热帖多少是巴萨曼城球迷？<br>再去看看C罗皇马新闻热帖，就知道这里的热帖都是什么网友了<br>你咋不佩服热帖网友？ 队员想要做掉穆里尼奥 说实话，就是太功利了，为了赢放弃了球员的尊严，球员总是觉得跟强队踢就得示弱，这种踢法一直能赢奖杯还可以，一旦四大皆空精气神就涣散了，谁也不想示了一个赛季的弱结果什么也没拿到，哎....现在的曼联太缺少统治力，总是被人压过半场，然后防下来就是一脚开到前场，然后又开始半场防守，弗格森的曼联，即使碰上如日中天的巴萨也没有胆怯，从不是示弱，因为球员心里知道，曼联是英格兰最优秀的球队，他们代表的是英格兰 大巴司机真的不行了，红魔再不抓紧就掉下去了 生姜头作为基本所以现代中场大师都疯狂赞扬的人他说话了说明问题已经很严重了 你是没看过卡里克纪念赛，场上的长传和带球，真特么可以在英超再打个轮换 熬个夜看了这么场球[石化] 无球跑动太少太少了.....说的没啥毛病...真的要改变！！ 穆鸟千万别走。走了英超就少了太多乐趣了。 巴萨是百年豪门气质高贵像什么斯坦福桥惨案逆转大巴黎干爹队G14闹独立套球衣皮看穿哈大嘴布教授倒贴法暴力鸟倒脚队怂恿罢训叛徒内马尔不默哀踩人头拉影球场喷水红点套餐三场五点得点最多被点最少红牌最少对手红牌最多围裁判打滚高素质球迷反力学翻转普拉蒂尼草皮绊倒点球角球没开点球没听见哨红牌门将吹哨咬人假摔点球羞辱门将队友受伤对手停攻抢球打反击客场更衣室成猪窝等都是子虚乌有百度都查不到梅西是真正的球王阳光励志正能量像什么拖鞋发布会四十秒红牌激素助长上帝之手藏门将身后等开球肘击门牙散步不防守领袖气质高薪报答俱乐部踢看台球迷窜广告牌杀机偷税子罪父偿开基金会骗善款一己之力进决赛青梅冰清安东内拉怒退国家队推裁判骂娘等等更是子虚乌有听说都没听说过萨迷梅吹们是一个高素质有教养的群体从来不人身攻击污言秽语晒父母口器官讽地域比手机不同意见会据理反驳用铁的事实证明自己的理念身为皇马C罗的球迷真的羡慕嫉妒好气好气小编您看这样说行吗求您不要派火星网友带走我的帖子了我发不出去的帖子都能出一本书了 鸟就是这种风格，给鸟二十年时间，定能带领曼联重新崛起！弗格森不是也用了很多年才称霸英超吗？曼联要用耐心。 博格巴，一坨屎，3分变1分 二楼 我只想看看曼联球迷们的忍耐力 什么时候有个曼联新球迷了？求解 魔法用完了，不会进攻了。 人不能靠功劳铺活着，成绩比他光鲜的又不是没有 说实话，从波尔图奇迹开始追随魔力鸟一直到现在。中间有过失望但是还是一如既往的支持。但是现在真的挺不下去了。首先根本没什么战术，所谓的防守战术就是所有人都给我回到禁区里堵住大门，随你们射。进了就算倒霉。不进，就是防守大师。进攻就更简单了，前面放个黑又硬，直接大脚开给他，这个黑又硬拿到球抗翻几个后卫抡脚就射，进了就是防反大师，不进就是运气不好，继续来。如果输球了，就甩锅。输给强队，甩锅的原因就是裁判有误判。输给土豪球队，就甩锅自己投入不如土豪。如果被弱队，升班马，常年保级的球队逼平导致积分被土豪球队甩开，甩锅原因依然是自己投入不如土豪球队。他就不想想你被这些弱队逼平也是因为土豪球队投入多，影响到你自己实力下降还是让这些弱队得到了升华？这些弱队的投入有你的几分之一？被他们逼平和土豪球队投入大有个毛线关系。从此粉转路转黑。 鸟没来时候的前两任，曼联联赛第几？ 对呀，没有什么本事。 熬夜看球结果糊了一眼屎 请问国际米兰历史上几次欧冠？ 开局几连胜，麻痹！媒体吹上天 💊💊💊💊 别再找什么大牌教练了，都不好使。曼联的精神就是传承，让吉格斯或者生姜头来带队都可以，效果一定比名帅好 我靠，胖了好多啊，斯科尔斯。 虽然我知道不会有人为我点赞ﾟ∀ﾟd，<br>但我还是要说：瓜帅，真帅！ 最近没看 穆鸟成了怨妇 直接换瓜秃,反正瓜秃也在曼买房了,一家呆个四五年省得到处跑.那样以后曼市德比就变成最和谐的德比了,大家都不好喷 踢这些烂队曼联都要靠点球才能赢了……鸟的作风只适合小球队，跟豪门的气质不符 所以这和我说的有什么关系吗？??诅咒梅西的帖子你是没看到那你得有多瞎?而且巴萨新闻板块是和谐的?那你不是假瞎了，是真瞎啊，哪个板块没有巴沟和黄狗咬来咬去?我能承认有巴萨极端球迷不算球迷就是巴沟，你还在护犊子，你敢承认有罗狗有黄狗吗？ 三次 什么叫国米这样的球队，另外听说过阿贾克斯吗 想起了中国四大发明，结果……呵呵 作为曼联球迷忍不了啦 然后转会到了曼城……<br>哈哈哈 墙倒众人推…唉…现实就是如此艹蛋… 斯科尔斯？这是啥球员？我们新曼联球迷不承认你！坚决拥护鸟，做最合格的鸟粪 确实<br>巴萨球迷都不喷了<br>到时候穆里尼奥去哪里，六冠王球迷就跟着去 生姜头踢球的时候，你还是小蝌蚪呢，难怪不懂…… 我也拥护 曼联传奇很好用 说实话，从波尔图奇迹开始追随魔力鸟一直到现在。中间有过失望但是还是一如既往的支持。但是现在真的挺不下去了。首先根本没什么战术，所谓的防守战术就是所有人都给我回到禁区里堵住大门，随你们射。进了就算倒霉。不进，就是防守大师。进攻就更简单了，前面放个黑又硬，直接大脚开给他，这个黑又硬拿到球抗翻几个后卫抡脚就射，进了就是防反大师，不进就是运气不好，继续来。如果输球了，就甩锅。输给强队，甩锅的原因就是裁判有误判。输给土豪球队，就甩锅自己投入不如土豪。如果被弱队，升班马，常年保级的球队逼平导致积分被土豪球队甩开，甩锅原因依然是自己投入不如土豪球队。他就不想想你被这些弱队逼平也是因为土豪球队投入多，影响到你自己实力下降还是让这些弱队得到了升华？这些弱队的投入有你的几分之一？被他们逼平和土豪球队投入大有个毛线关系。从此粉转路转黑。 现在的曼联，都不如莫耶斯时代的风格 鸟粪会喷死你的！ 大哥，别总是往回看，往前看，看现在…成绩表现摆在这儿，好牌打出效果，主教练责任很大[微笑]<br>等他退役后评价他地位时候再回来看他过去的成就不迟。 鸟再怎么不行，最起码在四个不同的联赛都拿了冠军，而且带领波尔图和国米这样的球队夺得欧冠，恐怕这种奇迹50年都很难找出第二个 赛季初一帆风顺，说明穆里尼奥不是没有能力……但是现在？<br>对比一下瓜迪奥拉，没有很严重伤病，而且伤病也没有什么大的影响，人员配置充裕，而且有套路<br>穆里尼奥应该少点抱怨和批评，开朗一点，然后更多思考研究进攻防守和对手，现在这样的话，2月份可能像阿森纳崩溃<br>因为抱怨是反作用的，而且给球员心理压力 高端黑？ 条件反射 这家伙人品太次了。这么多教练里谁战绩不行都不会被球迷和媒体喷成这样。唯独它，小人得志时，大家隐忍。小人失志时，墙倒众人推破鼓万人捶。 媒体就是这样<br>穆里尼奥应该思考：<br>1.不要抱怨太多<br>2.人员轮换，那么大的投入……又不是第一年打英超<br>多研究策略和对手，抱怨没有用，伤病那么多，不能够只怪运气不好，因为运气本来就是一部分<br>巴汪太多了<br>这个标题也是典型的巴汪用语 曼联球迷路过，没感觉了麻木 看来超不过三年了 忍个几把，俱乐部不换教练，球迷能咋的 曼联必胜。 嗯……看到大过年的诅咒C罗的评论上热帖……相信不是脑残的人都可以知道……<br>现在，全网易只有巴萨曼联梅球王新闻是一片和谐……而且，已经很多年了 挺喜欢鸟的，比较有个性的教练，能力也有，但是有一点不太喜欢，没有一个领导者的担当，公开批评球队，批评球员，这种事情不是好事，在爵爷时代更是很少见的发生 怎么拿的冠军心里没点逼数吗 你行你上，逼逼尼玛币 豪门要求的是赢，并且要赢的漂亮，主力球员都是顶配的，怎么可能帮你摆大巴，长期下来，球员和球员都会不满意。所以说穆不适合豪门是有道理的。 莱斯特城我也听说过 😄 一生仁迷是拜仁球迷吧 "
    },
    "Title": "曼联传奇狂批穆帅:负点责任吧 球员在场上像死人_网易体育",
    "Source": "Netease",
    "KeyWords": "曼联,穆帅,穆里尼奥",
    "URL": "http://sports.163.com/17/1231/09/D6VMPHD100058781.html",
    "Article": "网易体育12月31日报道：曼联最近的成绩陷入低谷，遭遇联赛三连平，丢掉了联赛第二的位置，仅领先第四的利物浦1分。对于曼联的低迷表现，穆帅并没有从自身找原因，他批评队员、嘲讽对手、指责裁判。曼联名宿斯科尔斯看不下去了，他怒斥穆帅“祥林嫂”式的抱怨，指出穆帅才是曼联的坠落之源。今日的比赛中，南安普敦后卫吉田麻也在禁区里手球，裁判没有判罚。赛后，穆帅揪着这一点不放，他称裁判犯了一个严重的错误，曼联遭到了错判。另外，穆帅还称曼联最近一段时间一共被黑了三个点球。除了今日的比赛，曼联对阵莱斯特城和曼城的时候也有疑似点球被漏。斯科尔斯认为穆里尼奥不要总是找外界的原因，而是主动去发现自己的问题。“曼联队员的表现太糟糕了，但主教练同样有着很大的责任。曼联最近一直都很差劲，主教练应该为此负责。曼联看上去就像是一个疲劳的队伍，他们似乎这赛季已经踢了50-60场比赛，但实际上现在才过了半程。”生姜头表示：“主场球迷看上去很安静，但球队踢成这样，你不能怪球迷没有热情。显然，曼联球员不能让球迷兴奋起来。球场上，球员们就像是死了。我向上帝发誓，曼联得赶紧振作起来，身后的热刺、利物浦、阿森纳正在紧追。穆里尼奥必须听听别人的建议。”球员时期，斯科尔斯曾帮助曼联拿到11个联赛冠军。他认为穆帅缺乏领袖气质：“穆里尼奥已经执教很多年了，但我依然认为他在球场上缺乏领导才能。曼联的球员其实都不差，但穆里尼奥得想办法把球员融入到一起。年轻的球员并没有得到年长球员的帮助。”枪手名宿基翁则怀疑穆帅已经失去了对曼联更衣室的控制。“穆里尼奥好像无法控制这批球员了。他在场边很激动，看上去很生气。他的球员在场上如同一潭死水，真让人伤心。曼联的球员都不赖，但穆帅却未能让他们发挥出应有的能力。”本文来源：网易体育作者：风过乡责任编辑：朱楷正_NS4807"
}