{
    "Comment": {
        "Total": 9358,
        "Reply": 670,
        "Link": "http://comment.news.163.com/news2_bbs/D756JDKM0001899N.html",
        "Content": "银行是冻结你200亿冻结的完了，知道银行为什么冻结你吗？因为发现了你在往美国转移资产，银行怕自己血本无归。看来冻结你冻结对了，但是冻结的太晚了。 老子不会回来，你能把爸爸咋滴？ 好样的！ 我觉得还是不要回来的好。回来了钱就是真的关不上了，不回来努力做好汽车才有可能还上债务给大家和社会一个交代。何必毁了一个人呢。小贾，加油 普普通通一句话，贾总说出来咋就那么感人呢，眼圈一红我忒玛又信了，别把人老往坏处想，，，何况贾总长得那么实在，也不像坏人呵 下周回国贾跃亭！ 自刎乌江吧，别再回来祸害江东父老了！ 那么问题来了贾还有翻身的机会吗？ 宁愿把自己女人推到前台，也不敢自己回国处理问题？ 隔着太平洋说，负责到底，放屁都听不到。 下周回国，尽责到底。<br>不管你信不信，反正它信了 下周回国假药婷 一个站在女人背后的男人？ 他还有尊严吗，一楼是脑残 用曹德旺的话说，就是一帮臭虫。贾跃亭再不是，至少能一步一步去实现自己的理想。反观骂人的臭虫，你又为社会做了什么？贾跃亭再不是，至少养活了几万人。贡献了多少税？ 担当了所有责任不是普通人能做到的，贾的品性让人敬仰，把所有债务背到身上是他自信 一直负责到死，没毛病 其实也很同情他.墙倒众人推.其实他没什么不对的.只是一个创业失败了而已 哪家银行机构啊？ 每次恐怖组织袭击完了，也说负责 不要脸。第一，公司出问题自己先带领全家套现。第二，欠大家一屁股账，果断出国逃避。第三，承诺给乐视的无息借款，出尔反尔。第四，承诺下周回国，说话不如放屁。第五，害怕债务追缴，把法拉第股份转给其他人名下。<br>第六，欠一屁股债却拿钱在美国买豪宅。第七，一边做着以上毫无诚信的事情，还一边不断信誓旦旦说会负责到底。我去你妈了个比，不要脸到了极点了。现在还相信贾跃亭的都是脑子进了屎了。 跃亭真是厚道人呐，身在美国，心系散户，赞！！ 嗯，下周回国 2月30号星期八我就回国负责！ 反正就是不回国 充值了三年乐视会员，就整出这么大的事，我申请退钱还不行吗[大哭] 个人觉得要给他时间！是个想办事的人！媒体就是添乱银行也是起哄 言必信，行必果，<br>硁硁然，小人哉。<br>说到不如做到！ 你倒是回来尽责啊……你说要尽责人却跑了，然后一年都过去了 跟贴被火星网友带走啦~ 跟贴被火星网友带走啦~ 我一直想吃💩老贾不给机会 回来后就再也出不去了，不回来是对的，只有不回来才能有机会发展电动车，才有希望东山再起。当前环境确实不适合回来。 谢谢贾总，我的新闻语言，多亏你没回来，我狠狠赚了一把！ 我看到贾先生的函，真的很感动，作为一个男人在实现理想和抱负过程中遇到的困境和挫折能够勇敢面对去解决问题，不愧是大丈夫～因为再多的金钱换回不来作人的尊严 按照乐视巅峰期的估值，如果是正常企业，这点负债真不会搞的这么狼狈，可现在的实际情况这样，可见国内某些所谓的上市企业水分有多大，全他妈PPT忽悠人的企业 跟贴被火星网友带走啦~ 我也不信贾，区区三千万就被冻结了二百多亿，你以为法院是吃屎的，这说出去谁信啊 有，在床上翻 李晨:没事我不要紧的！ 说得好听。 如果我是他在美国，认什么都行，漂亮话谁不会说…还真有人捧臭脚！怎么还？拿什么还？如果他真这么负责怎么会违规套现！套完现出了国，跟国外说怎么负责负责的！ 殊不知国内有多少企业在担心贾跃亭能翻身。 你先huilai 负责到底？你怎么负责到底！ 静看 下周就回国，你们急什么？ 发通辑令给国际刑警，冻结它的海外资产，把这厮给引渡回国。 姓贾的流年不利啊… 李晨:没事我不要紧的！ 如果公司未授权也未追认,应当视为个人债务. 骂贾跃亭的应该都是乐视的投资人吧，某银行机构的目的达到了，你的“好处”没得够，但是你得到了很多人的支持，帮你们骂贾跃亭。 尽责到死那一天，所以等他死了再说，是这意思吧？ 滚出北京去 666 贾乃亮。我也不要紧的。 你不回来忘么承担 下周回去，你们急个毛 每次恐怖组织袭击完了，也说负责 回来进监狱里怎么尽责? 无奈 呵呵 不要脸。第一，公司出问题自己先带领全家套现。第二，欠大家一屁股账，果断出国逃避。第三，承诺给乐视的无息借款，出尔反尔。第四，承诺下周回国，说话不如放屁。第五，害怕债务追缴，把法拉第股份转给其他人名下。<br>第六，欠一屁股债却拿钱在美国买豪宅。第七，一边做着以上毫无诚信的事情，还一边不断信誓旦旦说会负责到底。我去你妈了个比，不要脸到了极点了。现在还相信贾跃亭的都是脑子进了屎了。 嗯嗯知道啦我们会好好保护你媳妇的尽职到底 我早就说过了，拖延术 你倒是回来尽责啊……你说要尽责人却跑了，然后一年都过去了 上面在博弈贾先生很尴尬 三楼是个傻比啊，经营好好的，会还不上贷款利息？是利息可不是本金 貌似他替别的股东承担了非上市公司的债务,但其他股东都是他亲戚 乐视股民完蛋咯 乐视离退市不远了 你们太任性了，这次为什么这么自信?因为融到资了，只要FF91救活了，一切都能解决，他安排他老婆和他兄弟回过处理债务，就是自信能解决问题。这次你们再怎么喷，FF91不断的融资成功生产出来，就是他大步回国的时候，你们这些喷子到时候就要噎口水了，要是现在能让我投20万我一定会投，当你们在疯狂的谩骂就是抄底的时候到了 整点实际的吧.为梦想窒息,公司和债权人都窒息死了,你却高兴死了还说风凉话,装个无辜还有担当的样子. 贾董，下周八或下月32号回国。到时间一定回国。 游戏的规则，不是承诺的事。你违法了，你承诺下次绝不，你犯罪了不用承诺，你就是对兑也不成！ 假话不能听<br>假药不能停<br>停药能要命<br>还得贾跃亭 反正中美之间又没有引渡协议。 见过不要脸的，没见过这么不要脸的！ Mmmm 本来我就是有看看新闻的习惯，但是看到你们这些喷子，我真是想说说。第一不管做什么事情成败是正常的，不要拿别人的成败来当笑柄，这让我感到你们很无趣。第二，你们能理解的了那种高度的问题？他这样的属于什么情况？你们懂吗？如果是牵涉这么严重金额的犯罪，不用你说，会有人管的，这些啥比喷子都是他妈的土包子，还在这瞎比比？(不好意思，实在忍不住)这种状况只是你们这群闷比没见的“经济问题”。你看好了，这句话我放到这，那些现在看不起贾跃亭的，给他出难题的，等着后悔去吧！[鄙视][鄙视][鄙视] 只要你回来，我就信你 千言万语不如回乡一履 有人盛赞贾是伟大企业家，有人说他百折不挠，有人说贾意志顽强。的确是，但是就贾现在所做的所有产品来看，全都是垃圾，剽窃和山寨。这些人之所以睁眼说瞎话，仅仅是因为，仅仅是因为他们是乐视股民，而且大多都是孤注一掷血本无归的散户啊！还是别做梦了！ 你信了吗？不管你们信不信，反正我是信了。 贾药停：所有的债务我会负责到底的，这个期限是10000年！！！ 回来估计就没机会了，不回来也许有机会。 肯定水很深，怕涉及更高层所以回归。 假药停：急什么，下礼拜就回国了，不能等几天？ 我2017年回来。 对头！ 下周啊 对全世界说这样的谎，觉得应该不会。 贾跃亭<br>:让我们一起，为梦想…<br>证监局：为你mmp 看11楼，是说的门牌号 呵呵 这应该是我见过玩不要脸玩到如此不要脸的唯一一个人了 俩字，放屁！ 我只能说这家伙真是人才 B.B.bbbbbbbbbbbbbbbbn 我相信你，人生有起有落，担起责任重新来过，这个过程是痛苦的，哪有伟大的企业家不经过波折起伏而后就能成功的，我的声音可能瞬间被掩盖，仍然希望你能听到，不要放弃，希望你能成功。 有限责任公司，无限责任。 傻子才会回来 躲美国不敢回来了，怕坐牢，让自己女人出面，够渣 这个因为3000万冻结200亿是不是真的呢？现在假老板说话还有多少人信呢？ 他其实说了这三点：一，我有钱就是被冻结了；二，错不在我；三，我不回来​​​ 按照乐视巅峰期的估值，如果是正常企业，这点负债真不会搞的这么狼狈，可现在的实际情况这样，可见国内某些所谓的上市企业水分有多大，全他妈PPT忽悠人的企业 明明限制出国，贾跃亭是谁放跑的？ 公司的债务承担,问题呢? 贾总下周回国 你倒是回来尽责啊……你说要尽责人却跑了，然后一年都过去了 说实话，乐视产品真不错。喷你的都是赌徒，输了就这个样。老贾，支持你! 嘴炮王者 回来就会被抓，有这份声明最起码还让人心暖。真抓了，你的欠款先谁要？ 跟贴被火星网友带走啦~ 回来了又能怎样，在外面想办法赚钱填坑吧 没准哪天真的可以还钱也说不定…… 跟贴被火星网友带走啦~ 我就是不回来咋整哈哈 是个顶天立地的男子汉 回来问题就解决了？就能拿到钱了？ 中国从来不缺落井下石的人 跟贴被火星网友带走啦~ 哟，挺有骨气，那我就相信贾，赌一毛押他会回来[刷卡] 你来雪中送碳给贾老板 这小子肯定惹上不好惹的人了 下周回来解决 我也不信贾，区区三千万就被冻结了二百多亿，你以为法院是吃屎的，这说出去谁信啊 贾老板是真的牛逼，国内欠到一屁股债，在美帝还能融到钱！ 史上最不要脸的函书，前无古人后无来者 回来我就没法负责到底了，所以我们不能回来。 水深搞不清，凡事都有可能。看戏不说话。 为了负责，连机票钱都赔给供应商了 不要脸真是 看来中国的机构一点权威都没有 总部是河南 有人挖他祖坟吗？ 人家凭本事骗的钱为什么要还 是男人先回来再说！ 拭目以待！ 本应无息借给上市公司的70亿，抽走了，在刑事方向：可以是侵占罪。因为上市公司的多数股东是公众，公众公司的钱被抽走了，理当是侵占罪。民事方向：你抽走了本应是上市公司的70亿就算上不了刑罪那至少是当借钱吧，那至少得给付利息。。。有人说，那只是承诺贷款，不是合约。错。因为，如果没有这个借款承诺，证监会可能不批准股票减持 哪个银行，难道是招商 银行是冻结你200亿冻结的完了，知道银行为什么冻结你吗？因为发现了你在往美国转移资产，银行怕自己血本无归。看来冻结你冻结对了，但是冻结的太晚了。 有句老话说百年不赖，千年不还，贾总悟透了。 落井下石是个好成语 下周回国贾跃亭呀 李晨:没事我不要紧的！ 希望是又一个史玉柱 用嘴尽责 别说，这字签的挺漂亮 什么叫逾期仅仅两周？？麻痹中国人就是把信用看的低，逾期一秒你也是逾期。别扯别的 下周回国，尽责到底。<br>不管你信不信，反正它信了 隔着太平洋说，负责到底，放屁都听不到。 尽责到死那一天，所以等他死了再说，是这意思吧？ 唉…… 回来就会被抓起来！然后真的就还不了钱了！ 人都跑出去了，隔海对话 老贾真心不错，我支持你，加油吧，造出车也不要回来了！你在那里会比这里取得更多的成就！ 先回国 能回来才怪哪 你的话你自己都不信 我现在就去看看，回头没有，我嘛死一楼狗娘养的 回来了没？ 反正就是不回国 逾期一秒都是逾期 我大爷会帮我负责到底 我下周回国 墙倒众人推啊，世态炎凉啊 拭目以待！ 如果你有带着对乐视投资者的感恩之心，责任心踏实经营，而不是早就布局美国，狡兔三窟，乐视就不会沦落到这个地步!开脱罪责，把责任推脱给银行，银行也是个企业，没有任何义务代替你承担风险，OK?就你这样的人品，那些投资者也是瞎了眼 “2017年7月，某银行机构仅仅因为逾期两周未支付3000余万贷款利息(贷款余额12亿)，超倍冻结乐视非上市公司资产和我个人资产合计261.62亿元.=============请贾总站出来说清楚，哪一家银行有这么超能力，能够无缘无故，无凭无据获得法院支持，超20倍多冻结了你的资产？？？？哪个法院敢这么枉法审判？？？？ 准备看你的葬礼 可能就是手机电视太便宜了吧。口碑还不错。广大网友可能用的不多感触不深吧 骗子都会说：“会怎么怎么地” 重点是我不会回来 哎，改天弄个红色名单搞回来了 尽责到死那一天，所以等他死了再说，是这意思吧？ ，拒绝 范冰冰：你说啥？ 有些企业欠款几年不还，还告不过别人，这年头做事业的人，真让人佩服。 李晨:没事我不要紧的！ 如果是真的，请尽快偿还债务 回来吧 下周回国。。。[狗][狗][狗] 你先做出来个能忽悠人的ppt再说，站着说话腰不疼 人家不是说了吗下周回国！你们这帮看热闹的急个啥子。 星期八回来还账 官话啊，哈哈，没毛病 但是，我不回国。 回不到国内了吧 意思是不回来对吧？ 第一时间，高度重视……哈哈哈 你应该很孤单吧，一个人缓慢的翻着评论，看着评论，而这一秒，你正好看到了我的评论，这一秒你是属于我的，你好，陌生人，祝你新年快乐 回来就进去了，没机会给他精子 假药亭的ppt好吗？那是官商合作，非法洗钱。然后呢，官出事了，他也完了！ 等到苏联解体 如果你有带着对乐视投资者的感恩之心踏实经营，而不是早就布局美国，狡兔三窟，乐视就不会沦落到这个地步!开脱罪责，把责任推脱给银行，银行也是个企业，没有任何义务代替你承担风险，OK? 尽责而非负责 如果你有带着对乐视投资者的感恩之心踏实经营，而不是早就布局美国，狡兔三窟，乐视就不会沦落到这个地步! 自己逾期反咬银行！合同在他眼中就是分文不值！ 你倒是回来啊，你敢回来吗 人家说了贾现在一无所有了 负责和尽责是不同的概念 用曹德旺的话说，就是一帮臭虫。贾跃亭再不是，至少能一步一步去实现自己的理想。反观骂人的臭虫，你又为社会做了什么？贾跃亭再不是，至少养活了几万人。贡献了多少税？ 还没有立案，何来审判 能公正审判吗？中国就是这帮看热闹的傻逼！ 下星期回来 “第一时间高度重视，紧急制定了详细反馈函”<br>学学人家写PPT的本事吧，看看这两句，就是典型的：把不是什么事儿的事儿写成天大的事儿。 下周回来啊，都跟你说多少次了，怎么还问 尼玛还真能扯！ 让你举报快播！活该！ 谁要审判他了？他只是没道德而已，还算不上犯罪，所以谁要审判他了？你倒是说啊，欠债还钱，天经地义，要不你帮乐视还钱？那些银行和证券，供应商一定很开心的。 人在美帝，能把它咋样，换谁也这么说阿，而且一定要诚恳真挚信誓旦旦！哈哈 你们都继续等，我会回来的 也没欠你们一毛钱，洗洗睡吧 你倒是回来尽责啊……你说要尽责人却跑了，然后一年都过去了 贾总，别说了，我们信你还不成吗 在中国，能骗到钱也是能力的一种提现 给个机会让他拼一下吧，回来你们又能得到什么？ 没有诚信的人，已经不值得相信，所以所说的话都是屁 反正就是不敢回来。。。 说啥没人信你了，还钱退钱没什么好说的！ 那当然，贾的能力大的去了。但是，并不妨碍我喷他，就快播这一个事，我不能喷他吗？美国总统怎么样，全民娱乐。能因为他为社会做的贡献，养了多少员工而不能喷他？ 能公正审判吗？中国就是这帮看热闹的傻逼！ 贾跃亭：回国是不可能回国的，这辈子都不可能回国的，国外个个都是人才，在国外就像回到家一样 贾跃亭的衣食住行，都是农民创造。 嗯知道了，周四回来呗！ 这钱肯定还，就是没有钱 这太极打的牛逼 那如果国家给我贷款一千亿开公司，我也能养活几万人，那我是不是就可以不还贷款了？ 黄鹤：还有这一招！学习了 我空军建军节 负责和尽责的区别啊，哈哈 不回来就对了。 死了就不用还了 你先回国再说 老贾到死都在尽责中 一楼是发自肺腑的 回来，反击坏人的力量，又增加一个人。 所以你们的头目永远不敢上市 垃圾难道装进垃圾桶了就不是垃圾吗？？？ 骗子夫妻 是尽责而不是负责，高手。 有区别，假药停骗的钱够他花几辈子了，值。你朋友为了几千块连肯借钱给他的朋友都不要了，所以你那朋友是傻逼。 看来是要回来 李晨是属牛的，你认为松的，对于他来讲也许非常紧！ 这回答给力，看来国家给的条件不错啊 赖给银行 这和我借了朋友5000块，这孙子说一定会还我，5年了，一分没还过。有区别吗？？ 我看到贾先生的函，真的很感动，作为一个男人在实现理想和抱负过程中遇到的困境和挫折能够勇敢面对去解决问题，不愧是大丈夫～因为再多的金钱换回不来作人的尊严 他还有尊严吗，一楼是脑残 不傻逼，买个人就没当一楼是朋友，一个人借五千，一百个人就是五十万了，多好 别回来，回来他们整死你 那你要什么样的？ 用曹德旺的话说，就是一帮臭虫。贾跃亭再不是，至少能一步一步去实现自己的理想。反观骂人的臭虫，你又为社会做了什么？贾跃亭再不是，至少养活了几万人。贡献了多少税？ 贾明显因为后台倒了一起跟着倒了。 收声吧！[晕] 尽责和负责，是两个意思 废话所有欠钱的都说一定会还的 后台死亡，帮凶收敛。 小薇去过了，稳了 一楼真TM是傻逼 发帖领手机了[窃笑] 新闻越炒的火热，贾越危险。像这种人无非就是带了几个钱过去。国家如果下狠手，非送回来不可。 欠钱不还兑现出逃在楼上有些人眼里看来还那么正义，呵呵 还不起了，但能还多少就多少吧！ 药停、完成——美国梦！ 不错，是垃圾。但他身上还有钱呢！不弄干绝不放过的 隔着太平洋怎么负责到底？你也是先回来述职呀。日子过的挺滋润，一点没有破产的感觉。 下周回国 隔着大平洋放屁 不要乱说，老大是明白人 我觉得还是不要回来的好。回来了钱就是真的关不上了，不回来努力做好汽车才有可能还上债务给大家和社会一个交代。何必毁了一个人呢。小贾，加油 千万别回来，回来这帮傻逼肯定胡来 还了钱大别墅跑车拉菲还有高等教育你给出钱啊 等着领导回话呢！只要领导一句话啥债都将归零！于此说是缓兵之计！不如说是骗术有道啊！用两手来对付法制与债务！还将如此骗术去拿诺贝尔经济学奖！ 尴尬了😅北京 已经到这个地步了，说那些能有用吗？ 他是令的人所以被整 不会的，整死了有好处吗？大家都文明人了 等着领导回话呢！只要领导一句话啥债都将归零！于此说是缓兵之计！不如说是骗术有道啊！用两手来对付法制与债务！还将如此骗术去拿诺贝尔经济学奖！ 兄弟跑错片场了，这贾跃亭，不是假奶亮 大爷的，又在假惺惺作态 李晨:没事我不要紧的！ 述职?必须的 一楼高级黑 在哪儿领，是HUAWEI吗？ 你倒是回来尽责啊 贾老板，绝对的介入教科书操作。 甘薇，改嫁吧，让我来满足你！你这大半年见不到假药停，谁来满足你啊～～～～～下面都荒了吧 殊不知国内有多少企业在担心贾跃亭能翻身。 非上市公司所欠上市公司的债务从法律上讲不应由我个人承担，但是出于对上市公司的情感和责任，我自愿由我个人全部承担，并拿出我的一切来解决上市公司和非上市公司的债务问题。<br>老贾很精。有本事你丫自己回国。 真是逗……跑国外负责到底…… "
    },
    "Title": "贾跃亭:愿个人全部承担非上市公司欠上市公司债务_网易新闻",
    "KeyWords": "贾跃亭,上市,贷款,公司",
    "Article": "（原标题：关于《北京证监局责令贾跃亭回国履责通告》的回应函）尊敬的北京证监局：收悉通告内容后，我第一时间高度重视，紧急制定了详细反馈函，并与上市公司充分沟通形成债务解决意向，并委托贾跃民先生于2017年12月29日下午前往贵局进行了当面沟通和汇报。对乐视体系公司债务危机引发的影响，给社会、政府、投资人、股民、供应商、员工都带来了巨大负面影响和损失，我深感愧疚和自责，在此致以诚挚的歉意。我一定竭尽全力解决债务问题，想尽一切办法弥补造成的负面影响和损失。2016年下半年开始，因乐视体系公司在同一时间布局产业过多，公司管理能力没有及时跟上，导致公司经营情况恶化，从移动手机业务资金链断裂开始，问题持续发酵并不断扩大。2017年7月，某银行机构仅仅因为逾期两周未支付3000余万贷款利息(贷款余额12亿)，超倍冻结乐视非上市公司资产和我个人资产合计261.62亿元，引发诸多金融机构集中挤兑停止授信并提前追收贷款，绝大多数资产被司法冻结。非上市公司生产经营戛然而止，彻底休克，全面停顿，10000余名员工被迫解散，公司仅仅只能做的一件事情就是靠出售资产还债。部分自媒体的不实或恶意报道，也给公司经营带来巨大影响，导致非上市公司经营性流动资金枯竭，进而引发乐视体系公司全面陷入资金困境。虽然非上市公司的股东承担有限责任，非上市公司所欠上市公司的债务从法律上讲不应由我个人承担，但是出于对上市公司的情感和责任，我自愿由我个人全部承担，并拿出我的一切来解决上市公司和非上市公司的债务问题。首先，我积极与上市公司充分讨论沟通，提出明确的还款意愿和初步方案，双方形成债务解决意向，通过出售资产获得资金和以资产抵债的方式，解决上市公司的欠款问题，切实履行好上市公司股东责任。其次，美国FF公司融资已经取得重大进展，目前有好多工作需要我来推动，保障电动汽车FF91量产销售和按时交付。第三，为更好地解决上市公司债务问题，我已委托甘薇女士、贾跃民先生全权代理我行使上市公司股东权利和履行股东责任。包括资产处置等相关工作，也由甘薇女士、贾跃民先生全权负责处理。我会竭尽全力清偿债务和消除影响，配合上市公司解决债务问题，稳妥处置上市公司风险，切实保护投资者合法权益。我再次向社会公开郑重承诺，针对债务问题，我会尽责到底！特此回函汇报，谢谢！再次致以诚挚的歉意！贾跃亭2017年12月31日本文来源：澎湃新闻责任编辑：王征_NN7526",
    "URL": "http://news.163.com/18/0102/12/D756JDKM0001899N.html",
    "PublishTime": "01/02/201812:31:31",
    "Source": "Netease"
}