{
    "Article": "（原标题：监拍：男子驾车逆行撞死前妻及同行男）#endText.video-infoa{text-decoration:none;color:#000;}#endText.video-infoa:hover{color:#d34747;}#endText.video-listli{overflow:hidden;float:left;list-style:none;width:132px;height:118px;position:relative;margin:8px3px0px0px;}#entText.video-lista,#endText.video-lista:visited{text-decoration:none;color:#fff;}#endText.video-list.overlay{text-align:left;padding:0px6px;background-color:#313131;font-size:12px;width:120px;position:absolute;bottom:0px;left:0px;height:26px;line-height:26px;overflow:hidden;color:#fff;}#endText.video-list.on{border-bottom:8pxsolid#c4282b;}#endText.video-list.play{width:20px;height:20px;background:url(http://img1.cache.netease.com/video/img14/zhuzhan/play.png);position:absolute;right:12px;top:62px;opacity:0.7;color:#fff;filter:alpha(opacity=70);_background:none;_filter:progid:DXImageTransform.Microsoft.AlphaImageLoader(src=\"http://img1.cache.netease.com/video/img14/zhuzhan/play.png\");}#endText.video-lista:hover.play{opacity:1;filter:alpha(opacity=100);_filter:progid:DXImageTransform.Microsoft.AlphaImageLoader(src=\"http://img1.cache.netease.com/video/img14/zhuzhan/play.png\");}if(/(iPhone|iPad|iPod|Android|NETEASEBOBO|blackberry|bbd+)/ig.test(navigator.userAgent)||/safari|chrome|firefox/i.test(navigator.userAgent)&&navigator.plugins&&!navigator.plugins[\"ShockwaveFlash\"]){varstr1='<videocontrols=\"controls\"preload=\"auto\"width=\"100%\"poster=\"http://vimg3.ws.126.net/image/snapshot/2018/1/Q/P/VD6AUTFQP.jpg\"style=\"max-height:100%\">';varstr2='<sourcetype=\"video/mp4\"src=\"http://flv.bn.netease.com/videolib3/1801/03/uxlJZ6915/SD/uxlJZ6915-mobile.mp4\">您的浏览器暂时无法播放此视频.</video>';document.getElementById(\"FPlayer1404863609673\").parentNode.innerHTML=str1+str2;}监拍：男子驾车逆行撞死前妻及同行男（来源：~）window.NTES&&function(d){varf=function(c){varb=c.getAttribute(\"flashvars\"),a=c.getAttribute(\"repovideourl\").replace(\".flv\",\"-mobile.mp4\");h=d(c.parentNode.parentNode.parentNode),g='<embedsrc=\"http://v.163.com/swf/video/NetEaseFlvPlayerV3.swf\"flashvars=\"'+b+'\"allowfullscreen=\"true\"allowscriptaccess=\"always\"quality=\"high\"wmode=\"opaque\"width=\"100%\"height=\"100%\"type=\"application/x-shockwave-flash\"/>';if(/(iPhone|iPad|iPod|Android|NETEASEBOBO|blackberry|bbd+)/ig.test(navigator.userAgent)){g='<videocontrols=\"controls\"preload=\"auto\"width=\"100%\"height=\"100%\"><sourcetype=\"video/mp4\"src=\"'+a+'\">您的浏览器暂时无法播放此视频.</video>';}h.$(\".video\")[0].innerHTML=g;},e=function(b){vara=d(b.parentNode.parentNode.parentNode);a.$(\"li\").removeCss(\"on\"),b.addCss(\"on\"),a.$(\".video-title\")[0].innerHTML=\"string\"==typeofb.textContent?b.textContent:b.innerText,a.$(\".video-title\")[0].setAttribute(\"href\",b.getAttribute(\"url\")),a.$(\".video-from\")[0].innerHTML=\"（来源：\"+b.getAttribute(\"source\")+\"）\",f(b);};window.continuePlay=function(){vara,b=d(d(\".video-list.on\")[0].nextSibling);3==b.nodeType&&(b=d(b.nextSibling));if(b&&d(\".video-innerinput\")[0].checked){e(b);}},function(){vara={init:function(){if(d(\".video-listli\")[0]){d(d(\".video-listli\")[0]).addCss(\"on\"),this.eventBind();}},eventBind:function(){d(\".video-listli\").addEvent(\"click\",function(b){e(d(this)),b.preventDefault();});}};a.init();}();}(NTES);",
    "URL": "http://news.163.com/18/0103/21/D78OUKR30001875P.html",
    "KeyWords": "逆行,前妻,撞飞,身亡",
    "PublishTime": "01/03/201821:49:57",
    "Title": "男子驾车逆行将前妻及同行男子撞飞 两人当场身亡_网易新闻",
    "Comment": {
        "Content": "应该是的小孩好可怜啊这个渣子千刀万剐 开口就是“据说”的，傻逼的概率极大 这不是交通事故，而是故意杀人。 国家对枪械，管制刀具管的严。放任汽车普及，无异于给了武器。人口这么多，汽车这个东西在中国就不应该普及，说的难听点穷人就不配有车。 俩……… 心理不健康！受过不少磨难吧，小时候被保姆摔打过？ 可怜的孩子，亲眼目睹会留下多大的阴影 视频中的小孩别是他孩子吧 是的，我家楼下发生的事，我有多方位视频，正面视频轿车驶向那俩人的时候突然加速。是故意撞的。 什么叫穷人，花你家钱了吗，你再有钱能有1个亿的小标准不 它的思想来源于计划生育的优生优育理论，可计划生育的优生优育来源于纳粹（德意志国家社会主义工人党）的种族论。 人渣！ 这是故意杀人好吧！别说驾车逆行，驾车逆行正好撞飞前妻？ 噗一野撞飞,一个生命!! 故意杀人罪必判死刑！还要承担责任 你特么是个傻b 我家楼下发生的事，你们信不。。。 是人？ 应该是，一般小孩早吓傻了，不会第一时间跑过去看的。 警方的通报里说了，高某涉嫌故意杀人被刑拘。 夫妻感情纠葛你们就不要多嘴了吧，死逼们！清官难断家务事，你们都看看热闹散了吧！等你爸你妈闹到这份儿上自然由你来主持公道了 据说是因为女的借了很多钱，然后跟男的离婚，把债务全部推在男的头上，法官调查的时候女的完全不承认，男的就失控了 河南。。。。。 交通肇事罪，不要忘了，3证，驾驶证行驶证间歇证。 应该是的小孩好可怜啊这个渣子千刀万剐 赔偿责任 俩……… 国家对枪械，管制刀具管的严。放任汽车普及，无异于给了武器。人口这么多，汽车这个东西在中国就不应该普及，说的难听点穷人就不配有车。 感情出规，女人地位提高成果，女人就是祥夫教孑，男尊女悲不可能发生这事，精神文明，物质分配不均家庭教育不当造成的 据说是因为女的借了很多钱，然后跟男的离婚，把债务全部推在男的头上，法官调查的时候女的完全不承认，男的就失控了 可怜的孩子，亲眼目睹会留下多大的阴影 视频中的小孩别是他孩子吧 逆行？这里的与逆行有毛关系呀？！ 还有氧气，燃烧爆炸都需要，属于危险品，应该禁 噗一野撞飞,一个生命!! 是人？ 一楼的妈妈在怀它的八个月的时候流产了 我觉得砖头也能砸死人，不如把砖头也禁了吧，以后开发商盖房子就用纸糊好了。 这到底有多少狠啊，你应该去问问宝强~ 离婚家庭故事多 一楼真是个神奇的人物 故意杀人罪必判死刑！还要承担责任 应该是，一般小孩早吓傻了，不会第一时间跑过去看的。 估计也是被逼的够呛了 警方的通报里说了，高某涉嫌故意杀人被刑拘。 夫妻感情纠葛你们就不要多嘴了吧，死逼们！清官难断家务事，你们都看看热闹散了吧！等你爸你妈闹到这份儿上自然由你来主持公道了 什么叫穷人，花你家钱了吗，你再有钱能有1个亿的小标准不 这里面很复杂的 这下想象空间就大了 他是个傻逼不用和他计较居然说枪支和刀具管的太严你妈p要是有枪这俩人就被枪杀了你天天活在枪的恐惧下臭傻逼枪比车便宜 很有可能哦，很大的摩擦，比要高潮时候的摩擦还要狠！ 多大的摩擦至于这么狠 开口就是“据说”的，傻逼的概率极大 心理不健康！受过不少磨难吧，小时候被保姆摔打过？ 是的，我家楼下发生的事，我有多方位视频，正面视频轿车驶向那俩人的时候突然加速。是故意撞的。 它的思想来源于计划生育的优生优育理论，可计划生育的优生优育来源于纳粹（德意志国家社会主义工人党）的种族论。 混蛋东西 这是故意杀人好吧！别说驾车逆行，驾车逆行正好撞飞前妻？ 你是朝鲜人吗？？？赶快滚回去，死穷逼 这是他故意杀人的佐证啊。 你特么是个傻b 谋杀 看了视频，多大仇… 我家楼下发生的事，你们信不。。。 小孩好可怜！[可怜][可怜][可怜] 人渣！ 这不是交通事故，而是故意杀人。 扔下单车飞速查看，好心酸！ 债务纠纷，。。不懂内情不发表评论。 ",
        "Link": "http://comment.news.163.com/news_shehui7_bbs/D78OUKR30001875P.html",
        "Total": 324,
        "Reply": 47
    },
    "Source": "Netease"
}