{
    "Title": "巴萨官推用10种语言说新年快乐 这波操作一百昏!_网易体育",
    "PublishTime": "01/01/201814:25:16",
    "URL": "http://sports.163.com/18/0101/14/D72QMVFO00058781.html",
    "Source": "Netease",
    "KeyWords": "巴萨,新年,法语,西班牙语",
    "Comment": {
        "Reply": 60,
        "Content": "为什么没有世界第一语言-朝鲜语 二楼吃什么了？ 但是笔画不一定是最少的 人家说个中文最短得罪二楼了，惨 二楼好像也没错 最炫霉侏风<br>汪！吐！碎！佛！<br>百万的税款是我的爱，<br>芭莎的生长素是我等待，<br>什么样的大门它射呀射不开，<br>什么样的干爹才是最牛掰。<br>决赛点球飞机打下来，<br>退出国家队不和你们玩，<br>教练队友背锅是我在耍大牌，<br>一路边走边呕才是最自在，<br>我们要吐就要吐得最痛快！<br>你是我天边飞机的舞台，<br>让我一脚把你打下来（打下来）！<br>悠悠的唱着最炫的霉侏风，<br>赶忙退队不带你们玩（不带玩）！<br>你是我心中最美的税款，<br>亲爹出马把你偷下来（偷下来）！<br>永远都唱着最炫的霉侏风，<br>当了罪犯不用做劳改（偷下来）！<br>（哟啦啦呵啦呗）<br>（伊啦嗦啦呵啦呗呀）<br>我听见你呕吐动人的天籁，<br>下次点球照样飞天台~ 最可怕的不仅是二楼，还有七十个点赞的。 祝你被二哥（鬣狗）掏肛、 中文最短 看2楼id，这逼自己就是个喷子 中文干净利落 让精通其他九国语言的来学这四个字也许够他学到死 他没喷。。 傻逼，什么都有得喷 傻逼，你怎么知道一楼在喷？ 这正说明中文言简意赅啊。 这样说就是喷吗？你才是傻逼吧😄 2楼定律 短而精 简体好评 说明我们的文字最精简，嘴效率这也不算喷啊。 最近马戏团球迷不活跃啊 人家喷啥了，这人有毛病吧，自己是屎看啥都是屎 没有韩文 狗叫声不绝于耳 喷子就是比较神经，一楼说的实话，怎么喷了，到是你的名字出卖你才是真喷子 二楼自己就是个喷子还好意思说别人 什么也跟的喷 他没喷。。 你活跃因为你这条狗是需要发帖引骂战赚吃大便钱。 这是先进 抄袭啊，没水平 中文干净利落 看2楼id，这逼自己就是个喷子 哪里看出来这是喷了？ 过年过节，在给你全家女性送温暖我刚回来 呵呵 傻逼，你怎么知道一楼在喷？ 新年快乐(平平平平)新年快乐(平平平仄)新年快乐(平平仄平)新年快乐(平仄平平)新年快乐(仄平平平)新年快乐(平平仄仄)新年快乐(平仄仄平)新年快乐(仄仄平平) 简体好评 说明我们的文字最精简，嘴效率这也不算喷啊。 傻逼，什么都有得喷 这正说明中文言简意赅啊。 为什么不是太阳系第一？ 让精通其他九国语言的来学这四个字也许够他学到死 乞讨意图明显 是不是棒子网民又该喷了，没有大宇宙语音 差不多最少的 二楼好像也没错 没有韩语。不是有个韩国梅西在巴萨青年队么 二楼是巴犬輪它老母后的脑残产品。 为什么没有世界第一语言-朝鲜语 但是笔画不一定是最少的 人家说个中文最短得罪二楼了，惨 中文博大精深。 只看到二楼在喷 最炫霉侏风<br>汪！吐！碎！佛！<br>百万的税款是我的爱，<br>芭莎的生长素是我等待，<br>什么样的大门它射呀射不开，<br>什么样的干爹才是最牛掰。<br>决赛点球飞机打下来，<br>退出国家队不和你们玩，<br>教练队友背锅是我在耍大牌，<br>一路边走边呕才是最自在，<br>我们要吐就要吐得最痛快！<br>你是我天边飞机的舞台，<br>让我一脚把你打下来（打下来）！<br>悠悠的唱着最炫的霉侏风，<br>赶忙退队不带你们玩（不带玩）！<br>你是我心中最美的税款，<br>亲爹出马把你偷下来（偷下来）！<br>永远都唱着最炫的霉侏风，<br>当了罪犯不用做劳改（偷下来）！<br>（哟啦啦呵啦呗）<br>（伊啦嗦啦呵啦呗呀）<br>我听见你呕吐动人的天籁，<br>下次点球照样飞天台~ 最可怕的不仅是二楼，还有七十个点赞的。 二楼，人家哪里在喷啦？ 完了，竟然没韩文！ 只有中文最与众不同！ 。。 中文最短 狗叫声不绝于耳 祝你被二哥（鬣狗）掏肛、 没有意大利语 这样说就是喷吗？你才是傻逼吧😄 2楼定律 中文31笔。 最近马戏团球迷不活跃啊 日文说新年快乐这么麻烦 人家喷啥了，这人有毛病吧，自己是屎看啥都是屎 没有韩文 日语最难看，字母类的看着都差不多，还是中文最好看… 中文最短，日文最长 棒子很生气，后果很严重 二楼自己就是个喷子还好意思说别人 为什么没有世界第一语言-朝鲜语 支持加泰罗尼亚 有没有信心 貌似一楼也没喷啊[喷水] 一百昏一百昏! 短而精 居然不说是宇宙第一语言，炮决 傻逼，什么都有得喷 阿拉伯语和维吾尔语哈萨克语一模一样 加泰语排在西班牙语之前 中文最短 ",
        "Total": 415,
        "Link": "http://comment.sports.163.com/sports2_bbs/D72QMVFO00058781.html"
    },
    "Article": "网易体育1月1日报道：新年来临之际，巴萨在官推上用10种语言向全世界球迷送出了祝福，这10种语言分别是英语、加泰语、西班牙语、印度尼西亚语、日语、阿拉伯语、法语、中文、土耳其语和葡萄牙语……各位看懂了几种？本文来源：网易体育责任编辑：刘頔_NS4812"
}