{
    "Comment": {
        "Link": "http://comment.news.163.com/news_guonei8_bbs/D6KH9LPN0001875N.html",
        "Reply": 164,
        "Content": "降价抛。刚需的喜讯！ 河北省，廊坊市，三河县，燕郊镇。 每死一个哄抬房价的中介，我都会大笑三声！ 涨一百倍只要你不卖掉套现它也是水泥房子。 过段时间发一次，吓吓地方政府。 才刚开始，艰难的在后面呢！等着看好戏吧！ 那也是北京啊，燕郊算什么？河北廊坊三河燕郊而已 请这样的新闻以后不要发了，谢谢 5000腰斩到20000👍会玩 的确跌了不少，市里没有腰斩，也不少了。 在燕郊买房的人活着是看不到解套的一天了 这种虚假信息连续发了有半年多了吧 难日子还在后头呢😜 又是燕郊，这一个月都上3次新闻了有意思吗。。 挤泡沫，必须的 哈哈，好多北京的地方比燕郊差远了。 希望是 这样的新闻以后不要发了，没啥用。 万里长征第一步！ 8万房子，腰斩两万，跌了百分25，如果是八万入手的，三成首付，再跌一点就成负资产了，银行追收抵押品差价，付不清就爆仓了。 又在呼唤接盘侠了 三四五线城市鬼城连天铺地，房产税一来，怎么消化呀？ 2000我也不买 是不是最艰难不好说，现在只是艰难的开始吧。 刚来北京的时候燕郊3000 燕郊那穷乡僻壤非说成北京的 距离市区上班超过1小时，房价必下跌。来回两小时是极限。世界再大的城市，也没有这样时间的。时间成本是重要环节 专家不实名，，，就是无证狗! 我很不理解你为什么说燕郊是穷乡僻壤，你知道燕郊有多少外来人口租房住吗？你知道离燕郊一河之隔的通州什么价格吗？你知道燕郊到北京的在建的地铁吗？距离不是问题，唯一的问题是河北户口以及调控政策。你确定北京不会继续扩张吗？你确定调控政策不会松绑吗？我建议你少点废话，多关注一下你身边的需求 把屌丝们当傻子屌丝只是目前缺钱不缺智商玩数字游戏房价涨涨降降市场松松紧紧地主就高潮了 我媳妇大学同学三万多贷款买的留着升值年初时我说卖了吧不卖结果现在腰斩了😂 还没有跳楼的，不算什么 看把你急的，离你更远。 从前穷乡僻壤的海淀、丰台、朝阳呢，从前的农村通州、昌平、延庆、大兴、房山、平谷呢 活该，反正刚需的人是不管房价波动的 中介都是傻逼！ 明年会涨一倍 中介狗快点死绝 说实话跌到1万一平我也买不起 刘姥姥和王夫人的关系都比燕郊和北京的关系近 燕13年8月10号，我去燕郊，有5500一平的，有9500一平的，怎么现在25000还说的很低似的？ 买房不住为什么要解套 只有屌丝才会接盘……真相 中介，政府，开发商，富人，中产，唯一不希望涨的就只有屌丝……答案 北京东燕郊，牛逼 活着真累！ 没那么严重。 每死一个哄抬房价的中介，我都会大笑三声！ 是的，房子都是中介在帮开发商大肆宣传，哄抬价格，这些SB，搞到连自己都买不起房子 过段时间发一次，吓吓地方政府。 燕郊那穷乡僻壤非说成北京的 那也是北京啊，燕郊算什么？河北廊坊三河燕郊而已 请这样的新闻以后不要发了，谢谢 5000腰斩到20000👍会玩 哦了 在燕郊买房的人活着是看不到解套的一天了 现在好多都在混淆视听！燕郊就燕郊，就是河北省的边缘地带，跟北京能撤上什么关系——你们家邻居是老王，难道你妈就是老王他媳妇？……按照你们的思维，也是有可能的😂 这种虚假信息连续发了有半年多了吧 又是燕郊，这一个月都上3次新闻了有意思吗。。 没有北漂就没有高房价 燕郊距离天安门是30公里，距离北京通州是一座桥1公里。燕郊又堵又乱是事实，但是信口雌黄为黑而黑就没意思了。 呵呵房价决定提款机 河北的房子能卖2万应该算是冒烟了，很贵的好嘛 燕郊离北京都上百公里了 涨一百倍只要你不卖掉套现它也是水泥房子。 每死一个哄抬房价的中介，我都会大笑三声！ 嗯，属于河北，就是占地理位置的光了 我们宁愿把牛奶倒在大海里 河北省，廊坊市，三河县，燕郊镇。 8万房子，腰斩两万，跌了百分25，如果是八万入手的，三成首付，再跌一点就成负资产了，银行追收抵押品差价，付不清就爆仓了。 三四五线城市鬼城连天铺地，房产税一来，怎么消化呀？ ￠φ 中介根本就是畸形的产物应该全部禁止掉，国家公众平台有不是很难 最大的股东是才正部。。。。。。。。。。中介能有多少力量别天真了 没有人砸售楼部，没有中介关门就不是真正意义上跌 买不起就别说酸话，我就不说。 房中介意思是已经跌(涨)了，赶紧给老子买！ 房价 我觉着燕郊也就值5000，不能再多了。河北省廊坊市三河县<br>燕郊镇！ 燕郊房价6万还算跌的，可想而此这房价！ 距离市区上班超过1小时，房价必下跌。来回两小时是极限。世界再大的城市，也没有这样时间的。时间成本是重要环节 还会降 我很不理解你为什么说燕郊是穷乡僻壤，你知道燕郊有多少外来人口租房住吗？你知道离燕郊一河之隔的通州什么价格吗？你知道燕郊到北京的在建的地铁吗？距离不是问题，唯一的问题是河北户口以及调控政策。你确定北京不会继续扩张吗？你确定调控政策不会松绑吗？我建议你少点废话，多关注一下你身边的需求 看把你急的，离你更远。 从前穷乡僻壤的海淀、丰台、朝阳呢，从前的农村通州、昌平、延庆、大兴、房山、平谷呢 原始价格是多少？ 滚犊子，中介是没有哄抬的能力，真正哄抬的是谁大家都知道 这破地方比上海新闻更多 明年会涨一倍 中介狗快点死绝 呵呵 惠州大亚湾的房价太高，要整治一下，房子80%都是空着的 你语文老师死得早啊 降价抛。刚需的喜讯！ 你说错了。我就在燕郊。应该是河北省，廊坊市，三河市，燕郊开发区！ 降吧降嗓！在降我就买！ 不控制人口数量，什么都是白搭！ 你怎么不说2年挣了平时10年的钱呢？还尼玛最难一年 跌倒5000再说吧，别发这个了 好像离你更远。 青岛的房价还在涨😎 你腰斩你妈呢，乘以6接着乘0.8，就叫最艰难一年？ 价格回到2014年年初再叫唤！ 对于北京市场而言，有中介称，房价下跌20%左右，海淀一楼盘每平方米。下跌了约27元。燕郊房价下跌明显。 请这样的新闻以后不要发了，谢谢 没啥说的，提前祝大家元旦快乐吧 广告不是写了嘛，30分钟到国贸，哈哈 外地燕郊还能算北京？ 燕郊那穷乡僻壤非说成北京的 😒 5000腰斩到20000👍会玩 还没死，不到位 的确跌了不少，市里没有腰斩，也不少了。 在燕郊买房的人活着是看不到解套的一天了 2000就轮不到你了 多数双合同，网签价和实价完全不同！ 呵呵，还是买不起 …… 那年收到一份广告说是上海佘山别墅直降一千万，老子潇洒地一笑，还是贷款找一百万的 艰难个屁 难日子还在后头呢😜 以后会更艰难吗 万里长征第一步！ 又在呼唤接盘侠了 屌丝们又高潮了 2000我也不买 whobelieveit? 我家这没涨没跌不知道哪降价了？ 劳动仲裁 🤔🤔🤔 啥时候燕郊放假3-5K了，我也去买一套 把屌丝们当傻子屌丝只是目前缺钱不缺智商玩数字游戏房价涨涨降降市场松松紧紧地主就高潮了 谁有河北社保啊！呵呵。燕郊买房自助还好说，等涨的没戏了。 我媳妇大学同学三万多贷款买的留着升值年初时我说卖了吧不卖结果现在腰斩了😂 贺电 活该，反正刚需的人是不管房价波动的 还好还好 专家不实名，，，就是无证狗! 呵呵 说实话跌到1万一平我也买不起 湖北启航精工人力无五险一金。无社保，无公积金，无高温津贴，乱扣工资已是事实，可以法办。从讨工钱过程中可以看出，像这种小老板就是小人，就是骗子，多次聊天交流，长达数月无用。他们想利用法律，想利用你讨工钱不当，不合理不合法之处对你打击报复。还老是主动找你，问你要多少钱，一次性要多少钱，下回又是这样说。这就是只交流，不处理的行为，拖欠工资惯用伎俩。这就是小老板小人心态，一毛不拔的公司，没人性没底线的公司。以后遇到这种小老板小人大家要注意，最好直接法办。这种坑爹公司大家以后不要进了，跟这种小人搞不清楚，搞不清白。这种小人一毛不拔，还跟你称兄道弟，臭不要脸。揭穿启航面目，耍嘴皮孑动机。 去你妈的腰斩，两三年前同事要买燕郊房当时一个同学八九千左右买的，我帮问的，再尼玛腰斩两次还差不多。 刘姥姥和王夫人的关系都比燕郊和北京的关系近 请这样的新闻以后不要发了，谢谢 我的房子多花了200万，哭死了 燕郊是河北省，老他妈的拿燕郊说事，北京房价腰斩了吗！ 湖北启航精工人力无五险一金。无社保，无公积金，无高温津贴，乱扣工资已是事实，可以法办。从讨工钱过程中可以看出，像这种小老板就是小人，就是骗子，多次聊天交流，长达数月无用。他们想利用法律，想利用你讨工钱不当，不合理不合法之处对你打击报复。还老是主动找你，问你要多少钱，一次性要多少钱，下回又是这样说。这就是只交流，不处理的行为，拖欠工资惯用伎俩。这就是小老板小人心态，一毛不拔的公司，没人性没底线的公司。以后遇到这种小老板小人大家要注意，最好直接法办。这种坑爹公司大家以后不要进了，跟这种小人搞不清楚，搞不清白。这种小人一毛不拔，还跟你称兄道弟，臭不要脸。揭穿启航面目，耍嘴皮孑动机。 保定还说成北京那 希望是 明天早上去学校🏫 才刚开始，艰难的在后面呢！等着看好戏吧！ 燕郊2万一平米？ 在燕郊买房的人活着是看不到解套的一天了 不是吧 挤泡沫，必须的 政府不干涉才可能绷这下又托住了 杭州还没降！ 明年会这样吗 大家说说合地区的房价。上海，二手房跌了，新房涨的厉害 哈哈，好多北京的地方比燕郊差远了。 燕郊…… 整个河北不都是北京 能看到， 纯属扯蛋北京房价那降了，燕郊香河那是河北，小编你问问北京六城区有降价的吗？ 呵呵 好好 中介狗死光是房产市场正常的必要条件 06年2400 4月还热火朝天呢，哪有一年？😤 是不是最艰难不好说，现在只是艰难的开始吧。 十年翻十倍，艰辛的十年 燕郊那穷乡僻壤非说成北京的 明年会更难 十八环一通，我就是帝都屁民了，好期待…… 死不死啊你们 燕13年8月10号，我去燕郊，有5500一平的，有9500一平的，怎么现在25000还说的很低似的？ 这样的政策措施是有力的促进了房价下跌，为的是老百姓的利益，不要乱喷好吗 那是因为雄安和通州 不知道这种新闻啥意义。 房价降是短期的，长期要看后续政府行为，地价，廉租房等情况 啦咯啦咯啦咯啦 成都情况是成交价是一个价，备案是另一个价，买卖方少交税，政府调控有成绩。北京什么情况？不相信这些统计数据。 我们这儿小县城今年房价从2500涨到3200了咋不报道下 这是要刺激房地产再继续涨价吗 中介都是傻逼！ 没等解套呢，产权到期了😢 湖北启航精工人力无五险一金。无社保，无公积金，无高温津贴，乱扣工资已是事实，可以法办。从讨工钱过程中可以看出，像这种小老板就是小人，就是骗子，多次聊天交流，长达数月无用。他们想利用法律，想利用你讨工钱不当，不合理不合法之处对你打击报复。还老是主动找你，问你要多少钱，一次性要多少钱，下回又是这样说。这就是只交流，不处理的行为，拖欠工资惯用伎俩。这就是小老板小人心态，一毛不拔的公司，没人性没底线的公司。以后遇到这种小老板小人大家要注意，最好直接法办。这种坑爹公司大家以后不要进了，跟这种小人搞不清楚，搞不清白。这种小人一毛不拔，还跟你称兄道弟，臭不要脸。揭穿启航面目，耍嘴皮孑动机。 这叫壮士断腕 呵呵，燕郊那地方在我看来只值几千，腰斩毛线，回落五年前还差不多 只有屌丝才会接盘……真相 中介，政府，开发商，富人，中产，唯一不希望涨的就只有屌丝……答案 你脑子还是没转过弯来你根本没弄懂调控的意义 杭州1300 刚来北京的时候燕郊3000 我回帖不是为了充气娃娃，特此声明🙌 后面还有很多很多 呵呵呵呵呵呵呵呵呵呵 请这样的新闻以后不要发了，谢谢 5000腰斩到20000👍会玩 在燕郊买房的人活着是看不到解套的一天了 还没有跳楼的，不算什么 呵呵呵呵呵呵呵呵 呵呵呵呵呵呵呵呵 买房不住为什么要解套 逗你玩 技术性调整 他们忽悠成功了！ 哦！ 这是原罪的报复 已阅 有报应 这样的新闻以后不要发了，没啥用。 这样的新闻以后要多发，也一定会多发的，因为房价稳定、让普通老百姓有房住是民心所向。 各玩各的，最后一起玩完🙃 半夜听西风，对影人空瘦。<br>淡酒难敌几度寒，愁上眉头皱。<br>云散月如新，叶落冬还旧。<br>醉里梅花又飘香，独把芳姿秀。 你想怎么说就怎么说你有话语权 跟贴被火星网友带走啦~ ",
        "Total": 2816
    },
    "Article": "（原标题：北京部分房价下跌1-2万，燕郊“腰斩”，明年该不该买房？）经过2016年楼市的火热，随着政策调控不断加码，北京2017年房地产市场趋于稳定。国家统计局发布的数据显示，11月70个大中城市中15个热点城市房地产市场总体继续保持平稳。热点城市新建商品住宅价格走势总体平稳，多数城市已低于去年同期价格水平。北京二手房跌幅连续六个月居全国第一。有北京房产中介向新京报记者介绍称，其负责的区域房价已回落到2015年8月、9月水平。从成交量上看，根据中原地产研究中心统计的数据，截至12月24日，北京新建商品房合计签约量仅26253套，预计全年在2.65万套左右，创下北京楼市自统计网签数据以来的历史最低值，且同比下调45%。未来走势如何，专家称若政策层面不发生颠覆性的变化，预计2018年房地产市场走势和今年一样。根据中原地产研究中心统计的数据，截至12月24日，北京新建商品房合计签约量仅26253套，预计全年在2.65万套左右，创下北京楼市自统计网签数据以来的历史最低值，且同比下调45%。未来走势如何，专家称若政策层面不发生颠覆性的变化，预计2018年房地产市场走势和今年一样。【现状】部分区域二手房价降20%“北京房价基本上普降了10%到20%，有的均价甚至降了30%。”一直在看房子的北京市民谢女士告诉新京报记者。依据国家统计局数据，北京房价止涨，二手房价格环比跌幅连续六个月位居全国第一。国家统计局12月18日数据显示，11月北京二手住宅价格指数环比下降0.5个百分点，与南京并列，同比下跌0.9个百分点。中原地产首席分析师张大伟表示，北京二手房价格调整非常明显，从今年4月份开始到现在累计跌幅超过15%，部分区域房源价格跌幅接近20%，北京二手房价格已经接近2016年第四季度。房产中介对房价有着更直观的感受。丰台区我爱我家一网点房产中介张林（化名）告诉记者，其所在区域房价已经跌到2015年8月、9月的水平，“除了学区房依然坚挺，基本上各个区域价格都在下降。我负责的区域房价在年初为每平8万，现在为每平6万多，下降了20%左右。”丰台区链家一网点中介徐鹏（化名）也表示，目前北京地区房价已跌到2015年后半年的水平。“年初方庄地区房价为每平7万到7.2万，目前每平6万左右。”徐鹏介绍，此前其负责的芳群园小区的一房子去年年底价格为378万，近日该房子以322万的价位出手。记者查询链家成交记录，3·17新政前，方庄地区房价多在每平7万-8万元，个别价格为每平9万以上，也有成交价格为每平6万左右的。【调查】周边市场：燕郊房价几乎腰斩楼市严调控之下，北京周边区域的房地产市场也受到影响，呈现出加速下跌的态势。安居客数据显示，燕郊11月二手房均价为23733元/m2,环比10月大跌4.00%,创今年以来最大跌幅,连续7个月暴跌。燕郊11月新房均价为25100元/m2,大跌将近1万元每平方米，环比10月大跌28.29%。而此前，燕郊房价一路不断创新高。“我买的小区首尔甜城和通州仅一桥之隔，挨着北京地铁22线，在今年年初的时候这一小区房价一度飙升到每平4万多，现在每平2万左右。”一购房者表示。一负责环北京区域房产销售员孙阳（化名）向记者直言，燕郊地区平均房价由年初的每平3万以上降到2万左右，但目前燕郊房地产市场处于“有价无市”的局面。孙阳解释，在调控政策出来前，不少涌入燕郊的购房者为投资客，在每平3万到4万的高位价格入手多套房子，因此不会在“腰斩”时刻出售。另一方面，燕郊的调控政策之下，外地户籍购房者必须满足缴纳三年社保的要求，这一条件将不少外地购房者挡在了市场之外。多数投资者认为，房地产有周期，目前处于“抛物线”低谷，未来会反弹，因此持观望态度。“外地户籍购房者不符合购房条件，本地人购买力有限，因此，燕郊房价几乎被‘腰斩’，降了四到五成。”燕郊一房产中介刘星表示。“现在燕郊市场上可出售的二手房很少，只有一些当初用信用贷、高利贷、消费贷等方式借款炒房人现在因为资金周转不开，在撑不下去的情况下选择抛售房子。”在价格下跌的同时，燕郊房地产市场成交量锐减。“在上半年的调控政策出来之前，我卖出了两套房，新政策后，一套房都没有卖出去。”刘星说。【调控】今年楼市调控30余次，利率上调6次楼市降温，与房地产市场调控政策是分不开的。据中原地产统计数据，截至12月13日，北京市发布房地产调控政策超过30次。3月17日，北京市宣布提高二套房最低首付比例，普通住宅被提至60%，首套房认定标准恢复“认房又认贷”，房贷期限降为25年。随后一周内，北京又采取了包括上调房贷利率、个税要求从严、严查首付资金、离婚一年内房贷算二套等规定。3月26日，针对商办市场的调控政策出台，除实施限购外，还要求商办项目不得分割销售等。“限贷”是这一轮调控的重要手段，除了提升首付比例之外，房贷利率也不断上调。据新京报统计，从去年9·30新政至今，北京地区多家银行的首套房房贷利率经过共计6次调整。2016年9月30日之前，首套房贷利率8.5折为主流。自2017年1月1日起，所有银行贷款利率折扣实行最低九折。此后，“3·17新政”出炉，在“认房又认贷”的同时，购房首付比例继续提升。3月21日，16家银行北京分行一致决定，银行贷款利率上调为不低于贷款基准利率的0.95倍。4月30日晚间，新京报记者独家获悉，自5月1日起，各家银行首套房贷利率陆续回到基准利率，二套房贷利率则在基准利率基础上最低上浮20%。民生银行首套房贷利率6月5日起，执行在基准利率基础上最低上浮10%。9月中旬，北京地区多家银行宣布上调首套房房贷利率。彼时新京报记者从浦发银行北京分行获悉，该行近期首套房房贷利率在基准利率基础上上浮20%。四大行于9月14日、15日、16日调整了政策，首套房房贷利率从基准利率调升到基准利率的1.05倍。北京地区首套房贷利率多为在基准利率基础上上浮5%到10%。【未来】房地产税“没有三五年根本不可能完成”2017年即将过去，2018年楼市的走势成为大众关注话题。12月20日，中央经济工作会议对2018年楼市调控指明了方向。会上提出，要完善促进房地产市场平稳健康发展的长效机制，保持房地产市场调控政策连续性和稳定性，分清中央和地方事权，实行差别化调控。紧接着，12月23日，住建部部长王蒙徽在全国住房城乡建设会议上也，指出调控力度不放松，保持政策的连续性，实行差别化调控政策，支持改善需求，遏制炒房，去库存工作下沉，并首提县城楼市去库存。“我不想去对明年的房地产市场做预判，因为不知道2018年北京房地产市场有哪些确定因素和不确定因素。假如，2018年北京市的金融货币政策不发生变化、北京市改革思路没有发生颠覆性变化，预计2018年房地产市场走势和今年一样。”对于2018年北京市房地产市场走势，北京市房地产业协会副会长、秘书长陈志持有谨慎的态度。但他表示，按照目前中央的相关要求，明年房地产调控不动摇，保持政策连续性。对于最近引起热议的“房地产税”，陈志认为，现在讨论房地产税为时过早，房地产税推出的条件并不成熟。“我个人觉得，大家对财政部提的‘房地产税’存在误读，财政部只是表示说研究讨论此事，讲的是体制改革的事情。而且，财政部没有权力立法，需要人大授权。”陈志表示，房地产税本身复杂，在推出之前多个问题需要厘清：立法目的是什么、如何调整税制结构、技术问题如何解决等。“人大立法程序复杂，没有三五年根本不可能完成。”此外，在陈志看来，房地产税和降房价并无直接关系。声音中介：“从业五年来最艰难一年”市场火热局面不再，成交量在低位徘徊。与2016年相比，今年房产中介的收入落差很大。到2018年1月23日，房地产中介张林（化名）即将迎来从业的第五个整年，“这是我做中介五年来最艰难的一年。”张林介绍称其去年卖出23套房子，提成收入达40多万元，在老家湖北买了一套房子。但今年的销售成绩很不理想，“3月17号之前，我共卖出五套房，其后至今，共卖出去4套房，还都是小面积的房子。”其业绩在他们公司算是较高水平，今年有同事最多也就卖出十多套。销量下降成为行业常态。丰台区方庄区域链家的销售员徐鹏介绍，元旦到3月17日前，其一共卖出五套房，3·17至其离职的7月底，才卖出去一套房。而在2016年，他则保持着每个月至少卖出去一套房的纪录。市场惨淡导致行业从业人数萎缩。据张林介绍，2015年，我爱我家的销售员有无业绩，都可领取3000元左右的底薪。2016年初，按照公司新规，房产中介有业绩才能拿到底薪。但如今“当月没有业绩，就没有薪水。一些老中介还能依靠积蓄坚持，一些刚入行不久的中介，完全没法坚持。”张林称，“业绩不佳，不少同事选择离职。去年我们门店最多时有50多人，现在只有20多个人还在坚持。”徐鹏所在门店中介人员也在流失，今年离职6人，还剩16人，“除了市场影响下的主动离职，公司也在调整业务，解散了新房渠道业务员团队。此外，公司将中介的销售提成降低了5个点，变相裁员。”徐鹏表示自己从业来也经历过房地产调控，但没想到今年力度这么大。“从限贷限购到堵上‘假离婚’漏洞，基本上政策把所有投机的漏洞都堵上了。”张林和徐鹏均表示，今年印象较深的体验是，房地产市场投资者的身影鲜有再见。购房者：“市场趋稳可从容选房”最近这半年，赵莉（化名）终于可以从容看房、选房了。2016年下半年开始，北京房地产市场和全国市场一样“高歌猛进”，房价不断升高。彼时，毕业两年多、拥有北京户口的赵莉的心理随着房价的波动而起伏不安。“我来自外地，毕业后拿到北京户口，加上一直在北京读书，所以打算留在北京，而买房也是必须克服的困难。”甫一毕业，赵莉一边关注北京房价，一边攒首付。但2016年不断高涨的房价让她几乎知难而退，萌发了回老家的打算。“看中的一套通州的房子，半年涨了70万。”从去年9月30日开始，北京连续出台多项调控政策，北京房价止涨。“现在看，北京房价有所回落，降到了去年年底的价位。”赵莉最近去亦庄地区看了多套房，价格较年初降了每平一万元左右。“除了价格回落，市场稳定，也有了更多看房的时间和可供选择的房源，现在看房从容很多。”赵莉认为，北京房价依旧有上涨压力，计划在明年年底前入手一套房子。不过，赵莉对银行多次上浮首套房房贷利率的做法提出质疑。“首套房基本是刚需人群，为什么还要上浮房贷利率，这是不是另一种变相的‘薅羊毛’？”赵莉认为，政策也应该考虑到不要误伤刚需人群。本文来源：理财帮作者：侯润芳责任编辑：李天奕_NN7528",
    "PublishTime": "12/27/201701:11:21",
    "URL": "http://news.163.com/17/1227/01/D6KH9LPN0001875N.html",
    "Title": "北京部分房价下跌2万燕郊\"腰斩\" 中介:最艰难一年_网易新闻",
    "KeyWords": "北京,燕郊,房价,房产",
    "Source": "Netease"
}