{
    "URL": "http://news.163.com/18/0101/18/D739EA29000187VE.html",
    "Title": "咋回事?女子跨年夜乘车被关车站外 到家已是2018年_网易新闻",
    "KeyWords": "深圳,车站,汽车站,客运",
    "Article": "（原标题：跨年夜女子从深圳往家赶到车站发现一片漆黑！）南都讯买晚上8点15分的汽车票，8点零几分到车站就进不了站了？来深圳参加朋友婚礼的武女士（化名）向南都报料称，她买了一张从宝安客运中心汽车站到广州东站的汽车票，到了车站却发现车站大门紧闭，站内灯也都关了，根本进不了站。对此，宝安客运中心汽车站调度室相关工作人员称，武女士所要乘坐的车辆当晚有正常发车，晚上车站也有留门进站。后续车站将给武女士退票。武女士告诉南都记者，她于2017年12月31日当天在宝安客运中心汽车站的微信公众号买了一张从该站到广州东站的汽车票，发车时间是当晚8点15分。8点刚过，她到达车站，发现车站漆黑一片。“灯也关了，门也关了。”武女士回忆，当时周边就她一人。不久后，一名保安出现。保安告诉她，车站在7点50就关门关灯了。武女士难以相信，从该保安那里得到一个号码，打过去却无人接听。之后她又按照车站外LED灯上显示的号码打过去，却发现该号码为空号。“我没办法，只能坐地铁到深圳火车站，坐和谐号回广州。”南都记者了解到，武女士到广州已是当晚11点多，回到自己家已是2018年。2018年1月1日，南都记者拨通了宝安客运中心汽车站调度室电话。一工作人员称，武女士原本要乘坐的那班车当晚有正常发车，车站也留有进站的通道，武女士可能没有发现。在与保安的沟通中，可能有所误会，才会误车，车站会为武女士退票。1月1日下午，武女士收到退款。本文来源：南方都市报责任编辑：范姜国一_NN9138",
    "Source": "Netease",
    "PublishTime": "01/01/201818:37:00",
    "Comment": {
        "Link": "http://comment.news.163.com/news2_bbs/D739EA29000187VE.html",
        "Reply": 3,
        "Content": "明显就是服务不到位。出门在外，总有陌生的环境，怎样让初到此地的人找到该去的地方，体现着该地区的人性化程度。 退完款是就完了？这是铁路的软文吧？ 明显就是服务不到位。出门在外，总有陌生的环境，怎样让初到此地的人找到该去的地方，体现着该地区的人性化程度。 就退个款就完事了？ 退完款是就完了？这是铁路的软文吧？ ",
        "Total": 8
    }
}