{
    "Title": "外媒:17名外籍商人涉贪 与沙特王子一同遭拘捕_网易新闻",
    "URL": "http://news.163.com/17/1228/18/D6OUPUOT0001875O.html",
    "Source": "Netease",
    "Article": "（原标题：外媒：17名外籍商人涉贪与沙特王子一同遭拘捕）早前在当地五星级酒店中，疑似拍到王子和高官被囚禁在会议厅，被迫躺在地上睡觉。（图片来源：每日邮报）王子们及相关涉事人员被关押的丽思·卡尔顿酒店。（图片来源：《每日邮报》）海外网12月28日电自沙特阿拉伯国王11月初宣布成立最高反腐委员会，掀起一阵“反腐风暴”后，已有10多名王子、商人和高级官员涉贪被捕。据《每日邮报》报道，被捕的涉贪人员除了沙特王子外，还有17名来自美国、英国、法国等地的商人。消息称，17名被捕商人中包括8个美国公民、6个英国公民以及3个法国公民。这些人拥有在当地的工作许可证，这意味着他们是长期的外籍居民，而非来访商人。目前，沙特官方以及美国、英国、法国官方尚未对这一消息进行确认。据悉，在正常情况下，被拘留的外国国民有权与本国大使馆联系请求援助。美国国务院表示，限于隐私保护的规定他们无法置评，但对于申请援助的海外美国公民他们会认真对待。英国方面则表示，目前尚未收到向大使馆请求帮助的咨询。法国外交部尚未回应。沙特驻华盛顿大使馆的一位发言人表示，该国检察官是“依据相关法律法规”实施的逮捕，拒绝透露谁被逮捕以及是否有任何非沙特人被逮捕。消息人士近日透露，这些西方商人和被捕王子们一样，遭到了沙特当局的“酷刑”。消息人士此前向英国《每日邮报》透露，被捕的沙特王子和高管等人遭到了来自美国私人保安公司雇佣兵的殴打，而身为亿万富翁、有“中东巴菲特”、“中东股神”之称的阿尔瓦立德王子甚至遭到了倒挂的折磨。消息人士此前称，在被逮捕之后，王子们和高官面临的是“审讯”。“（雇佣兵们）殴打他们，折磨他们，掌掴他们，侮辱他们，想把他们毁掉。”本文来源：海外网责任编辑：赵亚萍_NN9005",
    "PublishTime": "12/28/201718:24:24",
    "Comment": {
        "Total": 53,
        "Content": "沙特怎么有点🇰🇵的感觉了？ 点个赞 先等等再说.谁知道咋回事呢. 二三层楼跳下去跑路啦 沙特怎么有点🇰🇵的感觉了？ 厉害了。 这17名商人要交多少钱？ ",
        "Reply": 6,
        "Link": "http://comment.news.163.com/news_guoji2_bbs/D6OUPUOT0001875O.html"
    },
    "KeyWords": "王子,沙特,美国,贪污"
}