{
    "Article": "（原标题：尼日利亚东南部一村庄遭袭至少５０人死亡）新华社阿布贾1月2日电尼日利亚东南部贝努埃州州长塞缪尔·奥尔托姆2日证实，该州一村庄当天遭到游牧部族富拉尼人袭击，造成至少50人死亡，另有多人受伤。奥尔托姆当天在该州首府马库尔迪表示，此次袭击是对村民的一种屠杀，遇难者中还包括很多儿童。贝努埃州属于尼日利亚所谓“中部地带”的一部分。在这一地带，游牧部族富拉尼人与从事农耕为主的基督徒之间关系紧张，时常发生冲突。本文来源：新华社新媒体专线责任编辑：张海桐_NN9053",
    "PublishTime": "01/03/201803:17:26",
    "URL": "http://news.163.com/18/0103/03/D76P9INM0001899N.html",
    "Source": "Netease",
    "Comment": {
        "Content": "因为你仆人给你戴了个眼罩，好好拉磨 地球拉圾人都在疯增，美国应掌控全球人口计划生育政策！ 是白左们眼中的和平宗教 南京的一个黑人大学留学生(相当于中国的初二肄业)，被查出患有艾滋病，要被遣送回国。在回国之前，疾控中心要求他说出和他发生关系的所有女生的资料。他竟这样告诉疾控中心工作人员：“我来中国2年了，我又没有女朋友，总要找个女孩解决一下个人问题。反正我每个星期都要找一二个，我也不知道她们怎么联系”工作人员在他的口袋里发现了两张照片，他也承认和这两个女孩发生过多次关系。在工作人员费尽周折找到两个女孩的学校时，女孩已经毕业。这两个女孩又和多少中国男人发生过性关系传播了多少艾滋病就更不清楚了。越来越多的黑人拿着中国援助的每年6-10万助学金在大学里不停变换玩弄中国女孩儿，社会上的黑人更肆无忌惮，这是很可怕的事情。广东查严了，黑人正向内地扩散，碳化愚化野蛮化国人。黑黑天性中的赖皮诈骗淫荡艾滋毒品暴力…就是在动物世界里也是最坏的家伙!越来越多的黑猿滞留中国无节制的繁殖小黑杂，广州底特律化加速，想想第57个民族是暴力艾滋黑，多么可怕!那些嫁给黑黑或同其滥交的浪荡女们请你们移民出去!!别自己一代糟蹋了还要生一堆黑渣祸害下一代污染中华民族的基因!! 如果美利坚挨着他们，也会不得安生。 那它们还哭天喊地的哭诉-----------美利坚的大棒 有高山就有沙漠，非洲就是人类沙漠 想起当年的卢旺达，真疯狂。 这还用提？难不成会是佛教道教基督教？ 为什么不提这个游牧民族信什么教的？ 还用问，当然是和平的宗教 农耕的人一般都聚集在一个地方安居乐业，而游牧的到处走能抢就抢，古代中国和世界都是游牧民族侵略掠夺强占农耕民族的地方！而且古代农耕主要是养牛耕地，而游牧主要是放马打猎，农耕的打不过游牧的，除非有强大的骑兵！ 2017年第一亲友帮出了这档子丢人事，有些人为了把盆子扣到米锅身上可是把脑花都快拧成大肠了。尼日利亚为非洲第一经济强国，第一人口大国，友帮都不知道，尼日利亚好朋友好心酸。 但他们拿着现代化的武器，很方便惬意地搞着屠杀。 很难想象21世纪还有如此残忍之事 非洲就是一个落后的代名词，那里冲突不断，小国太多，，如果非洲能够被一个强有力的人物统一，那么他们就可以真正崛起成为文明人类 跟贴被火星网友带走啦~ 热爱自爆，合法与9岁幼那个。 农耕的人一般都聚集在一个地方安居乐业，而游牧的到处走能抢就抢，古代中国和世界都是游牧民族侵略掠夺强占农耕民族的地方！而且古代农耕主要是养牛耕地，而游牧主要是放马打猎，农耕的打不过游牧的，除非有强大的骑兵！ 阿拉伯人也是游牧民族。 那个教的 人种有差异，非洲人还未进化完全，越秀区的黑鬼 一看这事就是你的同类干的，说开咬就开咬的货。 我就问是信什么教的，扯那么多干嘛？信什么教？ 尼日利亚犯罪率很高，诈骗抢劫强奸严重。一是社会治安差，安全局势不稳定。尼日利亚各地犯罪率普遍较高，偷盗、抢劫、绑架等暴力案件频发，种族和宗教冲突不断，局部动荡、恐怖袭击成为尼日利亚社会的常态。极端组织“博科圣地”的聚集地爆炸事件时有发生；以谋财为主的绑架抢劫案也时有发生，有的地方存在警匪勾结问题。据中国驻拉各斯经商室统计，平均每年有10来起针对华人的绑架事件，2014年有18起。由于治安形势严峻，当地中资企业必须雇佣武装力量加强安保。<br>二是基础设施建设落后，公共配套服务严重不足。尼日利亚的道路状况很差，运输成本非常高。当地生活用水和电力供应也严重不足，生活用水质量不稳定，饮用水也不达标。<br>三是政府效率低下，腐败丛生。尼日利亚有法不依、执法不严、人为因素影响执法和判决不公等司法腐败现象相当严重。受访的中资企业普遍反映，尼日利亚官员的腐败问题非常严重。<br>四是商业诈骗频发，社会信用状况极差。毕马威公司发布过一份“非洲欺诈晴雨表”，称尼日利亚是非洲大陆欺诈案件发生率最高的国家。受访企业普遍反映，尼日利亚的商业诈骗十分猖獗，令人防不胜防。从事诈骗活动的尼日利亚骗子数量之多、技巧之高超令人咂舌，为此在国际上甚至出现了“尼日利亚陷阱”“尼日利亚骗局”等专用词语。 原始社会吗～ 肯定是温和的，爱好和平的 为什么不遣返非洲大黑子阿三二黑子?越南、朝鲜的偷渡者是来打工或嫁人的，中国有的企业招工难，又有许多光棍，他们又属于同种，可是发现后立即遣返。而对于百万大摇大摆招摇过市的无所事事不愿打工的黑人骗子阿三视而不见，它们来到文明世界却仍以野蛮愚昧的部落方式行事，任其传播艾滋病贩毒诈骗盗窃滥交….艾滋病已全国泛滥成灾，应遣返黑人!恢复入境验血检疫，严禁艾滋病患者入境!辽宁舰反正也没什么真正切实的吊用，不如用来遣返黑煞，行至太平洋，问他们各自是哪国的，告诉他们不说出会直接丢进大洋，那都得坦白了。不过有收钱办证的内鬼，航母几年甚至用到报废都遣返不完的。 黑绿 斯大林不服 正解，那些就是披着人皮的动物 墨西哥表示呵呵 为什么对村民下手！ 如此发帖，证明你才是真正的势利眼。 老黑的动物本性 富拉尼人，社会分为贵族平民和奴隶，艺人被视为贱民等级，一夫多妻制，兄死后妻子要嫁给弟弟，盛行堂兄妹成婚 游牧民族历来不是什么好东西 没有进化好的黑人！和动物的本性现在还一样！ 不知道斗士们都是斗鸡眼吗？ 又是那个教的 这贴为什么没见自由斗士的身影？为何没人高呼今天都是尼日利亚人？还是说，因为尼日利亚太穷太弱了，所以，斗士们的势利眼发作，所以无视了？ 穷山恶水出刁民，越是贫穷落后的地方，出的地痞，流氓，黑社会，土匪，小偷，骗子越多，这些人的成长与父母及家庭教育有直接关系，<br>有大批父母为了不让孩子受欺负，对子女进行暴力，自私，贪婪的行为教育，这些子女长大后就变成对社会有危害的人，对子女的生存甚至生命<br>构成威胁。人是高级动物，与一些低等动物是有区别的。记得小时候，打砸抢的人特别多，当时社会的经济不是很富裕。经过1983年的严打，社会治安得<br>到有效的改善，当时东北三省的地痞，流氓特别多，这应该是南方人不喜欢东北人的原因吧。东北地区人口比较复杂，山东人，满族人，当地汉人，<br>回族人，日本人的后裔混杂在一起，加上长期受俄国人，日本人的分裂，使人形成了自私自利的思想，没有正义感，没有责任感，更没有社会担当。<br>这个地区也是出汉奸最多的地方，到现在仍然有一些当年为日本人做事的人的后代和日本人留在中国的后代，他们认为国人当汉奸是被逼无奈，是<br>没有错误的。有人说对这些人要采取教育的方法，其实教育有时不管用，只有对其采取措施才有效果。曾在黑龙江的火车上看到一个喝酒的男子抢<br>了一个车票有座位的小男孩的座，还骂这个小男孩，旁边几个男青年看不下去了，说了喝酒的男子几句，谁说他他骂谁，后来几个男青年就想揍他，<br>当着他的面说操他在场的姐姐，好激怒他，结果喝酒的男子没敢进车厢，在车厢连接处站到下车。同时加强中小学生的思想品德教育，思想<br>品德教育不应脱离社会现实，防止当他们走向社会后发现老师教的和现实不一样。1987年我从黑龙江坐火车到西安上学，在哈尔滨火车站遇到<br>一个无赖，他说媳妇不让他回家，非要抢我的座位睡觉。坐火车到了沈阳，上来好几个不三不四的人，到车上连偷带抢。那时社会治安不是太好。<br>火车到了天津，上来几个地痞，强行占座，有一个还躺在木制靠背椅中间的梁上，腰间还别着刀，火车到了北京，感觉首都人民很热情，问路都<br>细心的告诉，不象东北人说北京人那样问路往相反的方向指。火车到郑州站正好是半夜，上来一帮人把全车的人偷个遍。经过一路的旅行，感觉<br>人的素质和地区有很大的关系。 这个游牧部族富拉尼人信仰一定是.... 基督教教皇去哪里了？哦，在为罗兴亚人忙碌奔波呢，没空！ 还是物价太低吃得太饱才闹事 加拿大打它们狗脸 侵略了别人生存的地方，出现这种情况很正常。那里的基督徒几乎都是殖民者 和屠杀印第安人一样，属种族屠杀。美国白人不渎屠杀印第安人原罪，就只能是人权婊子。 是白左们眼中的和平宗教 南京的一个黑人大学留学生(相当于中国的初二肄业)，被查出患有艾滋病，要被遣送回国。在回国之前，疾控中心要求他说出和他发生关系的所有女生的资料。他竟这样告诉疾控中心工作人员：“我来中国2年了，我又没有女朋友，总要找个女孩解决一下个人问题。反正我每个星期都要找一二个，我也不知道她们怎么联系”工作人员在他的口袋里发现了两张照片，他也承认和这两个女孩发生过多次关系。在工作人员费尽周折找到两个女孩的学校时，女孩已经毕业。这两个女孩又和多少中国男人发生过性关系传播了多少艾滋病就更不清楚了。越来越多的黑人拿着中国援助的每年6-10万助学金在大学里不停变换玩弄中国女孩儿，社会上的黑人更肆无忌惮，这是很可怕的事情。广东查严了，黑人正向内地扩散，碳化愚化野蛮化国人。黑黑天性中的赖皮诈骗淫荡艾滋毒品暴力…就是在动物世界里也是最坏的家伙!越来越多的黑猿滞留中国无节制的繁殖小黑杂，广州底特律化加速，想想第57个民族是暴力艾滋黑，多么可怕!那些嫁给黑黑或同其滥交的浪荡女们请你们移民出去!!别自己一代糟蹋了还要生一堆黑渣祸害下一代污染中华民族的基因!! 猴群间的斗争 比较高难度的地狱模式 那它们还哭天喊地的哭诉-----------美利坚的大棒 基督教，伊斯兰教，万物有灵，祖先崇拜 想起当年的卢旺达，真疯狂。 啥新闻你都能开咬吗？ 尼日利亚犯罪率很高，诈骗抢劫强奸严重。一是社会治安差，安全局势不稳定。尼日利亚各地犯罪率普遍较高，偷盗、抢劫、绑架等暴力案件频发，种族和宗教冲突不断，局部动荡、恐怖袭击成为尼日利亚社会的常态。极端组织“博科圣地”的聚集地爆炸事件时有发生；以谋财为主的绑架抢劫案也时有发生，有的地方存在警匪勾结问题。据中国驻拉各斯经商室统计，平均每年有10来起针对华人的绑架事件，2014年有18起。由于治安形势严峻，当地中资企业必须雇佣武装力量加强安保。<br>二是基础设施建设落后，公共配套服务严重不足。尼日利亚的道路状况很差，运输成本非常高。当地生活用水和电力供应也严重不足，生活用水质量不稳定，饮用水也不达标。<br>三是政府效率低下，腐败丛生。尼日利亚有法不依、执法不严、人为因素影响执法和判决不公等司法腐败现象相当严重。受访的中资企业普遍反映，尼日利亚官员的腐败问题非常严重。<br>四是商业诈骗频发，社会信用状况极差。毕马威公司发布过一份“非洲欺诈晴雨表”，称尼日利亚是非洲大陆欺诈案件发生率最高的国家。受访企业普遍反映，尼日利亚的商业诈骗十分猖獗，令人防不胜防。从事诈骗活动的尼日利亚骗子数量之多、技巧之高超令人咂舌，为此在国际上甚至出现了“尼日利亚陷阱”“尼日利亚骗局”等专用词语。 把人命当蝼蚁 为什么不提这个游牧民族信什么教的？ 穷山恶水出刁民，越是贫穷落后的地方，出的地痞，流氓，黑社会，土匪，小偷，骗子越多，这些人的成长与父母及家庭教育有直接关系，<br>有大批父母为了不让孩子受欺负，对子女进行暴力，自私，贪婪的行为教育，这些子女长大后就变成对社会有危害的人，对子女的生存甚至生命<br>构成威胁。人是高级动物，与一些低等动物是有区别的。记得小时候，打砸抢的人特别多，当时社会的经济不是很富裕。经过1983年的严打，社会治安得<br>到有效的改善，当时东北三省的地痞，流氓特别多，这应该是南方人不喜欢东北人的原因吧。东北地区人口比较复杂，山东人，满族人，当地汉人，<br>回族人，日本人的后裔混杂在一起，加上长期受俄国人，日本人的分裂，使人形成了自私自利的思想，没有正义感，没有责任感，更没有社会担当。<br>这个地区也是出汉奸最多的地方，到现在仍然有一些当年为日本人做事的人的后代和日本人留在中国的后代，他们认为国人当汉奸是被逼无奈，是<br>没有错误的。有人说对这些人要采取教育的方法，其实教育有时不管用，只有对其采取措施才有效果。曾在黑龙江的火车上看到一个喝酒的男子抢<br>了一个车票有座位的小男孩的座，还骂这个小男孩，旁边几个男青年看不下去了，说了喝酒的男子几句，谁说他他骂谁，后来几个男青年就想揍他，<br>当着他的面说操他在场的姐姐，好激怒他，结果喝酒的男子没敢进车厢，在车厢连接处站到下车。同时加强中小学生的思想品德教育，思想<br>品德教育不应脱离社会现实，防止当他们走向社会后发现老师教的和现实不一样。1987年我从黑龙江坐火车到西安上学，在哈尔滨火车站遇到<br>一个无赖，他说媳妇不让他回家，非要抢我的座位睡觉。坐火车到了沈阳，上来好几个不三不四的人，到车上连偷带抢。那时社会治安不是太好。<br>火车到了天津，上来几个地痞，强行占座，有一个还躺在木制靠背椅中间的梁上，腰间还别着刀，火车到了北京，感觉首都人民很热情，问路都<br>细心的告诉，不象东北人说北京人那样问路往相反的方向指。火车到郑州站正好是半夜，上来一帮人把全车的人偷个遍。经过一路的旅行，感觉<br>人的素质和地区有很大的关系。 这些玩意就该灭绝 农耕的人一般都聚集在一个地方安居乐业，而游牧的到处走能抢就抢，古代中国和世界都是游牧民族侵略掠夺强占农耕民族的地方！而且古代农耕主要是养牛耕地，而游牧主要是放马打猎，农耕的打不过游牧的，除非有强大的骑兵！ 但他们拿着现代化的武器，很方便惬意地搞着屠杀。 很难想象21世纪还有如此残忍之事 刚TM看完沃伦 听不懂人话啊？ 热爱自爆，合法与9岁幼那个。 农耕的人一般都聚集在一个地方安居乐业，而游牧的到处走能抢就抢，古代中国和世界都是游牧民族侵略掠夺强占农耕民族的地方！而且古代农耕主要是养牛耕地，而游牧主要是放马打猎，农耕的打不过游牧的，除非有强大的骑兵！ 如果我们现在还是满清时代，恐怕退化得比没进化的黑人还要落后。 应该对整个游牧部落进行正义的审判！剥夺他们监护幼儿的权利！（这又牵涉到钱的问题）所以包括孩子都审判了算了 一看这事就是你的同类干的，说开咬就开咬的货。 所以，你的话更印证了你的逻辑思维有问题。巴黎之后，其它郭嘉介入巴黎了吗？显然没有。巴黎作为欧洲的一个标志性城市，作为发生在欧洲的恐袭，他们对自己的报道显然是不少的，影响更大，那么整个欧盟纪念自己的事情，有错么？尼显然是没有这个影响力的，大部分人都不知道这件事，你让他们如何纪念？至于其他郭嘉区别对待，一来这是其他郭嘉的事儿，你应该怼其他郭嘉而不是欧美，而来这影响力有区别，其它郭嘉的人不知道如何纪念？巴黎事件，我们反复报道，知道的人多了自然纪念，但这件事我们的媒体报道多少次？反复报道了吗？你这不是说我们区别对待，是势利眼么？第三，你咋知道欧美的媒体没有谴责？ 看来是游牧的（？？教）对农耕的基督教徒怀有深仇大恨啊！ 首先，有么？ 为什么不遣返非洲大黑子阿三二黑子?越南、朝鲜的偷渡者是来打工或嫁人的，中国有的企业招工难，又有许多光棍，他们又属于同种，可是发现后立即遣返。而对于百万大摇大摆招摇过市的无所事事不愿打工的黑人骗子阿三视而不见，它们来到文明世界却仍以野蛮愚昧的部落方式行事，任其传播艾滋病贩毒诈骗盗窃滥交….艾滋病已全国泛滥成灾，应遣返黑人!恢复入境验血检疫，严禁艾滋病患者入境!辽宁舰反正也没什么真正切实的吊用，不如用来遣返黑煞，行至太平洋，问他们各自是哪国的，告诉他们不说出会直接丢进大洋，那都得坦白了。不过有收钱办证的内鬼，航母几年甚至用到报废都遣返不完的。 还用问，当然是和平的宗教 愿主耶稣基督保佑死亡的人，愿他们在天国得以平安，喜乐，阿们。 黑绿 斯大林不服 美国警察呢？希望能过去把凶手缉拿归案。 有一部电影：太阳泪很经典就是描述尼日利亚的 你就是一喷狗。有事说事，没事滚回家去，别出来丢人现眼。 游牧民族历来不是什么好东西 如此发帖，证明你才是真正的势利眼。 跟贴被火星网友带走啦~ 富拉尼人，社会分为贵族平民和奴隶，艺人被视为贱民等级，一夫多妻制，兄死后妻子要嫁给弟弟，盛行堂兄妹成婚 这个杀人的游牧部族应该被追究。 “富在深山有远亲”...... 加拿大和墨西哥看来每年都会种族屠杀，都是老美的错。 没有进化好的黑人！和动物的本性现在还一样！ 太可怕；额。 没明白一楼怎么就变成势利眼了？ 这贴为什么没见自由斗士的身影？为何没人高呼今天都是尼日利亚人？还是说，因为尼日利亚太穷太弱了，所以，斗士们的势利眼发作，所以无视了？ ……… 我就问是信什么教的，扯那么多干嘛？信什么教？ 富拉尼人，非洲第四大族，多信仰伊斯兰教 基督教教皇去哪里了？哦，在为罗兴亚人忙碌奔波呢，没空！ 正解，那些就是披着人皮的动物 去年对中国最友好的国家和其人民不会这么差吧？ 还是物价太低吃得太饱才闹事 原来都是听不懂中国话的。 他们信尤尼教。 因为你仆人给你戴了个眼罩，好好拉磨 跟帖 哪里有压迫哪里就有反抗 这也是米帝的阴毛？ 嗯，歼10早去”深入过去未到之地“巡航了 2017年第一亲友帮出了这档子丢人事，有些人为了把盆子扣到帝国主义身上可是把脑花都快拧成大肠了。 那它们还哭天喊地的哭诉-----------美利坚的大棒 有高山就有沙漠，非洲就是人类沙漠 同意一楼。键盘侠快去高呼啊。逮到二楼一条键盘侠 这还用提？难不成会是佛教道教基督教？ 歼10不会去，米格23会去，可能还有米格21。 为什么不提这个游牧民族信什么教的？ 地球拉圾人都在疯增，美国应掌控全球人口计划生育政策！ 刁民 2017年第一亲友帮出了这档子丢人事，有些人为了把盆子扣到米锅身上可是把脑花都快拧成大肠了。尼日利亚为非洲第一经济强国，第一人口大国，友帮都不知道，尼日利亚好朋友好心酸。 多信伊斯兰教，部分信基督教或保持万物有灵信仰(见原始宗教)、自然崇拜和祖先崇拜。 但他们拿着现代化的武器，很方便惬意地搞着屠杀。 更可怕的是，还拿着现代的武器 非洲就是一个落后的代名词，那里冲突不断，小国太多，，如果非洲能够被一个强有力的人物统一，那么他们就可以真正崛起成为文明人类 跟贴被火星网友带走啦~ 肯定是温和的，爱好和平的 原始社会吗～ 阿拉伯人也是游牧民族。 那个教的 人种有差异，非洲人还未进化完全，越秀区的黑鬼 如今还有这种杀戮事件发生？ 不要用嘴斗，有本事把恐怖分子抓住！ 哈哈，如果介入，尔等是不是又要说侵略了？这关老美屁事？无论介入不介入，都是老美的错，这就是某些傻逼物贸的逻辑。 2楼个蠢B连1楼的意思都看不懂，1楼的意思是说美欧遭袭全世界哀悼，非洲拉美遇袭就无人作声，1楼的确是养猪场费屋的代表。 尼日利亚犯罪率很高，诈骗抢劫强奸严重。一是社会治安差，安全局势不稳定。尼日利亚各地犯罪率普遍较高，偷盗、抢劫、绑架等暴力案件频发，种族和宗教冲突不断，局部动荡、恐怖袭击成为尼日利亚社会的常态。极端组织“博科圣地”的聚集地爆炸事件时有发生；以谋财为主的绑架抢劫案也时有发生，有的地方存在警匪勾结问题。据中国驻拉各斯经商室统计，平均每年有10来起针对华人的绑架事件，2014年有18起。由于治安形势严峻，当地中资企业必须雇佣武装力量加强安保。<br>二是基础设施建设落后，公共配套服务严重不足。尼日利亚的道路状况很差，运输成本非常高。当地生活用水和电力供应也严重不足，生活用水质量不稳定，饮用水也不达标。<br>三是政府效率低下，腐败丛生。尼日利亚有法不依、执法不严、人为因素影响执法和判决不公等司法腐败现象相当严重。受访的中资企业普遍反映，尼日利亚官员的腐败问题非常严重。<br>四是商业诈骗频发，社会信用状况极差。毕马威公司发布过一份“非洲欺诈晴雨表”，称尼日利亚是非洲大陆欺诈案件发生率最高的国家。受访企业普遍反映，尼日利亚的商业诈骗十分猖獗，令人防不胜防。从事诈骗活动的尼日利亚骗子数量之多、技巧之高超令人咂舌，为此在国际上甚至出现了“尼日利亚陷阱”“尼日利亚骗局”等专用词语。 荒蛮之地，野蛮之种族 2017年对中国最友好的国家 为什么不遣返非洲大黑子阿三二黑子?越南、朝鲜的偷渡者是来打工或嫁人的，中国有的企业招工难，又有许多光棍，他们又属于同种，可是发现后立即遣返。而对于百万大摇大摆招摇过市的无所事事不愿打工的黑人骗子阿三视而不见，它们来到文明世界却仍以野蛮愚昧的部落方式行事，任其传播艾滋病贩毒诈骗盗窃滥交….艾滋病已全国泛滥成灾，应遣返黑人!恢复入境验血检疫，严禁艾滋病患者入境!辽宁舰反正也没什么真正切实的吊用，不如用来遣返黑煞，行至太平洋，问他们各自是哪国的，告诉他们不说出会直接丢进大洋，那都得坦白了。不过有收钱办证的内鬼，航母几年甚至用到报废都遣返不完的。 正解，那些就是披着人皮的动物 感觉像是一千多年以前 为什么对村民下手！ 戴了眼罩，方便给这些牲口喂屎 如此发帖，证明你才是真正的势利眼。 老黑的动物本性 富拉尼人，社会分为贵族平民和奴隶，艺人被视为贱民等级，一夫多妻制，兄死后妻子要嫁给弟弟，盛行堂兄妹成婚 没有进化好的黑人！和动物的本性现在还一样！ 2017年第一亲友帮出了这档子丢人事，有些人为了把盆子扣到米锅身上可是把脑花都快拧成大肠了。 民主、文明、自由、公正是世界一个向着文明发展的标杆，但往往被某国为了一已私欲用来分—裂竞争对手，巩固自己至高无上的地位，而其手段就是培养一批所谓的“自由斗士”，这些人往往智商低，容易被洗脑，被利用。 又是那个教的 这贴为什么没见自由斗士的身影？为何没人高呼今天都是尼日利亚人？还是说，因为尼日利亚太穷太弱了，所以，斗士们的势利眼发作，所以无视了？ 好悲哀的事情！ 我就问是信什么教的，扯那么多干嘛？信什么教？ 这个游牧部族富拉尼人信仰一定是.... 非洲就是一个落后的代名词，那里冲突不断，小国太多，，如果非洲能够被一个强有力的人物统一，那么他们就可以真正崛起成为文明人类 想不到，今天还有这种屠杀存在 动物一般果腹之后，不进行无意义的杀戮~···请用“畜生不如” 不知道斗士们都是斗鸡眼吗？ 跟贴被火星网友带走啦~ 不要有这种野蛮行了珍惜生命，人的生命只有一次，不要随意践踏， 6:4=啥！ 还是我大天朝安全！ 历史上的西戎、匈奴、突厥、女真、蒙古，这些都是游牧部落，不知屠杀了多少人。 墨西哥表示不服 这贴为什么没见自由斗士的身影？为何没人高呼今天都是尼日利亚人？还是说，因为尼日利亚太穷太弱了，所以，斗士们的势利眼发作，所以无视了？ ",
        "Reply": 103,
        "Total": 2790,
        "Link": "http://comment.news.163.com/news2_bbs/D76P9INM0001899N.html"
    },
    "Title": "尼日利亚一村庄遭袭致50人死亡 官方称其为\"屠杀\"_网易新闻",
    "KeyWords": "尼日利亚,屠杀,部族,阿布贾"
}