{
    "Comment": {
        "Reply": 19,
        "Total": 173,
        "Link": "http://comment.news.163.com/news2_bbs/D6TV0S4T00018AOQ.html",
        "Content": "对对对，直到打得乒乓球只有中国人玩…… 学会做人，你看喝酒就必不可少 原形毕露，又干起了打鸡血的老行当，哪怕屁股被其它狗咬去了一大半。 敏感詞 刘国微博梁 刘国梁变敏感词了吗？ 刘国微博梁？扣工资 相信刘国梁，支持国乒。 说别人是奴才，尔是个啥才？ 一楼是人才，你是畜才。 刘国梁也不过是个奴才 原形毕露，又干起了打鸡血的老行当，哪怕屁股被其它狗咬去了一大半。 这些都无法成为我的对手 郝海东不如许家印，国家队主帅让北京队主教练当。 我进来就是看大家骂小编的 能评论？ 刘国微博梁 刘国梁变敏感词了吗？ 刘国梁也不过是个奴才 对对对，直到打得乒乓球只有中国人玩…… 技术人员，业务领导的悲哀啊 对打败很多人，打败所有对手！ 敏感詞 你觉得如果刘国梁去卡塔尔当个乒乓球主教练 学会做人，你看喝酒就必不可少 刘国微博梁？扣工资 以为👀花了，又看了一遍 相信刘国梁，支持国乒。 说别人是奴才，尔是个啥才？ 一楼是人才，你是畜才。 "
    },
    "Title": "刘国梁寄语樊振东：放眼世界 打败所有对手_网易新闻",
    "Article": "（原标题：刘国梁寄语樊振东：放眼世界，打败所有对手）新华社北京12月30日电中国乒乓球协会副主席刘国梁30日在其个人微博上发文，寄语樊振东要放眼世界，打败所有对手。樊振东在不久前落幕的乒乓球世界巡回赛总决赛中夺得男子单打冠军，对此刘国梁表示：“2017年总决赛伴随着小胖两场酣畅淋漓的胜利收官了，小胖亟须这场胜利来提升信心，王皓也需要这次胜利来证明自己的执教能力。我想对小胖说：你的眼里不能只有马龙，你要放眼世界，才能打败所有对手。眼界决定你的境界、胸怀决定你的格局。”刘国梁也为国乒送上了新年祝福：“感恩国家的培养、感谢大家的关心。2018祝愿国乒更加强大，祝福大家身心健康。”图片：刘国梁微博本文来源：新华社新媒体专线责任编辑：邵小波_NN2479",
    "URL": "http://news.163.com/17/1230/17/D6TV0S4T00018AOQ.html",
    "Source": "Netease",
    "KeyWords": "刘国梁,樊振东,国乒,王皓",
    "PublishTime": "12/30/201716:57:39"
}