{
    "Comment": {
        "Total": 1921,
        "Reply": 168,
        "Link": "http://comment.news.163.com/news2_bbs/D75IB8FF0001899N.html",
        "Content": "26块5不谢 韩國一半人口在汉城，剩下在其他几个主要城市，其他众多小城镇其他和辽宁多数城市一样也是人口流失型，这种城镇根本没有上涨动力只有下跌动力 中国土地价格是因为土地高度垄断。<br>事实上看着960万土地，实际一年就放一点点土地出来。<br>市场上是买不到土地的。<br>这就是高价的原因。<br>而且还搞所谓的土地用途划分，盖房的不准开工厂，工厂的不准住人，住人的不准经商，简直就是压榨到骨髓。<br>而土地私有的国家，理论上土地供应是无限的。<br>你敢买就有无数人敢买。<br>涨起来立马打下来。。<br>还有更关键的，权力不集中，权力中心就没法抢劫周边资源给权力中心用。<br>所以城市就没法用周边农民的财产给自己盖房修路。<br>这样资源就分散，就导致价格更上不去。<br>只会小规模集中，比如学区房。 不奇怪，没说明地段，说不定在火星或北极呢？不是听说北极很多国家都有地么？ 看新闻这句话怎么看怎么别扭(;¬_¬) 便宜的很啊 崔顺实女儿nn好大！ 你辽宁和韩国比？还要脸？ 想把我们特色的社会拉入资本主义水深火热的制度真是痴心妄想！ 可是韩国人口密度比中国大很多，经济也发达。。。。这他妈的就搞笑了 甩锅大赛 你以为GDp全球第二是怎么来的呢？ 北极只有冰，没有地。南极才有地。 韩国？就那么大，能有多偏？ 你们都被地图给骗了，其实韩国领土比俄罗斯都大，不然不会那么便宜啊 赶紧到韩国买地去 我们这三线城市城中村改造给农民一分地135万一亩就要1350万 一处23万㎡的地块，市值或超过10亿韩元(约合人民币610万元)，棒子out了，23万平米的地皮都不如我大帝都一套两居室贵，咋混的😄😄😄 原来从农民手里征地是按韩国地价给的，征地接轨韩国 当然理解不透，因为她们已经是非正常人类 搁咱这就是屁大个事，算个毛啊！韩国就是没有大锅的气度。 瞎扯吧你，你们县城有面积达到三百多亩的空地？这么大的地那必须是相对偏远的农村了，而且依照韩国地理很可能还是山区。 多大了 便宜啊 你辽宁和韩国比？哪来的脸？ 23万㎡的地块，市值或超过10亿韩元(约合人民币610万元)。韩国的地是有多不值钱？ 万恶的韩国！怎么连总统也敢审判！正义的？公平呢？法律呢？ 23万平米，市值610万人民币？！我的天啊，韩国经济是不想好了 总关心人家外国啥意思？<br>你们不是中国人吗？网易现在什么都不敢报道，只许你批判欧美日韩台！ 理解不透，各位觉得这女儿做的对错？ 还真是小国，地那么的不值钱，大陆的地都超过200万一亩了，那点钱在大陆只够3亩地的。 26块人民币一平米 这个女儿要把她妈坑死😏 三星送的马，母亲让我就当自己的骑。🙂🙂 23万平米才610万人民币，韩国经济靠卖地和靠房地产是不可能的。韩国能崛起吗？ 草，23万平米才610万？？？ 韩国的地这么不值钱？？要是中国我们一个不入流的小镇一亩地都要40万起拍还不定到手！这么大片地要是以30万一亩起拍都不小的数目 去韩国买地吧，两万软妹币一亩 坑老娘坑总统的货 23万㎡地块合中国345亩，县城土地亩价都要五十万人民币及以上，总价值17250万人民币元。大城市亩价土地都在五百万人民币以上，那如在中国大城市价值总价能达17亿人民币，如在北上深那价值20亿人民币以上了。韩国土地按中国亩价值2万元人民币以下，太便宜了。 她女儿“胸”似乎挺鼓鼓囊囊的… 26块人民币一平米 23万平米合中国345亩，在中国大城市黄金地段610万人民币一亩地都难买到。 没有大量的信贷资金进去房地产，没有政府的限制土地供应，政策限制房地产卖出，就没有房地产的只涨不跌的预期。在电商如此发达的年代，地皮就没那么值钱了。 辽宁人民欢迎你们开发地皮，辉山的命运等着你们 韩國一半人口在汉城，剩下在其他几个主要城市，其他众多小城镇其他和辽宁多数城市一样也是人口流失型，这种城镇根本没有上涨动力只有下跌动力 中国土地价格是因为土地高度垄断。<br>事实上看着960万土地，实际一年就放一点点土地出来。<br>市场上是买不到土地的。<br>这就是高价的原因。<br>而且还搞所谓的土地用途划分，盖房的不准开工厂，工厂的不准住人，住人的不准经商，简直就是压榨到骨髓。<br>而土地私有的国家，理论上土地供应是无限的。<br>你敢买就有无数人敢买。<br>涨起来立马打下来。。<br>还有更关键的，权力不集中，权力中心就没法抢劫周边资源给权力中心用。<br>所以城市就没法用周边农民的财产给自己盖房修路。<br>这样资源就分散，就导致价格更上不去。<br>只会小规模集中，比如学区房。 你辽宁和韩国比？还要脸？ 戏真多 一切归国家所有 这女儿别是个智障吧。 这开始和美国比？ 大韩民国地多人少所以土地不直钱！ 好像你好懂的样子？ 哈哈 穿个运动服，这奶这身材 人家地面还小，操 韩国棒子最无耻 草，23万平米才610万？？？ 虎莓不食子， 草，23万平米才610万？？？ 韩国？就那么大，能有多偏？ 狱中风云 为毛不说在美国华尔街可以买多少平？ 23万㎡地块合中国345亩，县城土地亩价都要五十万人民币及以上，总价值17250万人民币元。大城市亩价土地都在五百万人民币以上，那如在中国大城市价值总价能达17亿人民币，如在北上深那价值20亿人民币以上了。韩国土地按中国亩价值2万元人民币以下，太便宜了。 关系. 租金都不止这个数 你辽宁和韩国比？哪来的脸？ 外面地都很便宜的，在日本也一样，靠近东京千葉那里盖一个300平左右的小别墅带草地院子只要100多万。 一处23万㎡的地块，市值或超过10亿韩元(约合人民币610万元)，棒子out了，23万平米的地皮都不如我大帝都一套两居室贵，咋混的😄😄😄 都是畜牲，都在一个锅里还在争，想不明白 是亲生的吗？ 同感 瞎扯吧你，你们县城有面积达到三百多亩的空地？这么大的地那必须是相对偏远的农村了，而且依照韩国地理很可能还是山区。 自由分为一微（小）空间，二维空间，三维空间，四维空间，2018，2019为你的自由升级!​​​ 呵呵 23万㎡的地块，市值或超过10亿韩元(约合人民币610万元)。韩国的地是有多不值钱？ 利益面前无亲情 😒😚 跟日本差不多 23万平米，市值610万人民币？！我的天啊，韩国经济是不想好了 撒哈拉沙漠里的地更便宜 高端撒逼大戏 还真是小国，地那么的不值钱，大陆的地都超过200万一亩了，那点钱在大陆只够3亩地的。 地方 呵呵 主持人真漂亮 万恶的韩国！怎么连总统也敢审判！正义的？公平呢？法律呢？ 太狗血了 毒蛇窝出来的会无毒？ 23万㎡，610万元，廉价到了什么程度，韩国的国土就这么不值钱吗？小心房开商去你哪里炒地哦？ 尼玛一平才30块钱，资本主义果然腐朽 辽宁人民欢迎你们开发地皮，辉山的命运等着你们 胸大无脑 她女儿“胸”似乎挺鼓鼓囊囊的… 26块人民币一平米 23万平米合中国345亩，在中国大城市黄金地段610万人民币一亩地都难买到。 坑老娘坑总统的货 26块5不谢 不奇怪，没说明地段，说不定在火星或北极呢？不是听说北极很多国家都有地么？ 看新闻这句话怎么看怎么别扭(;¬_¬) 便宜的很啊 怎么回事 狗咬狗。 哈哈哈😄 窝里斗 纯农村、山区多少一亩？ 窝里斗。 去韩国买地吧，两万软妹币一亩 离开 真扯 看看 什么？ 😄 草，23万平米才610万？？？ 呵呵呵 这个事情我支持崔顺实，她那女儿太自己，太损点，太不是东西，开车让拉百头的车侧翻连硬碰带埋才好，女棒子。 北极只有冰，没有地。南极才有地。 看看 摁住 呵呵 23万㎡地块合中国345亩，县城土地亩价都要五十万人民币及以上，总价值17250万人民币元。大城市亩价土地都在五百万人民币以上，那如在中国大城市价值总价能达17亿人民币，如在北上深那价值20亿人民币以上了。韩国土地按中国亩价值2万元人民币以下，太便宜了。 赶紧到韩国买地去 你以为GDp全球第二是怎么来的呢？ 我们这三线城市城中村改造给农民一分地135万一亩就要1350万 便宜啊 路过 23万㎡的地块，市值或超过10亿韩元(约合人民币610万元)。韩国的地是有多不值钱？ 虎毒还不食子，为自保，抛弃女儿。 呵呵 到底怎么了 这是冬奥与举办地平昌附近的山地带，她们知道这里不久后被开发，所以提前买了 撤回 这个女儿要把她妈坑死😏 韩国是大国，领土辽阔所以便宜。我们是小国，地少人多所以贵得离谱。嗯，一定是这样的。 三星送的马，母亲让我就当自己的骑。🙂🙂 好玩 可是韩国人口密度比中国大很多，经济也发达。。。。这他妈的就搞笑了 呵呵呵 呵呵 韩国 23万平米，市值610万人民币？！我的天啊，韩国经济是不想好了 找茬…… 26块人民币一平米 23万平米合中国345亩，在中国大城市黄金地段610万人民币一亩地都难买到。 没有大量的信贷资金进去房地产，没有政府的限制土地供应，政策限制房地产卖出，就没有房地产的只涨不跌的预期。在电商如此发达的年代，地皮就没那么值钱了。 ghhh哈哈哈 23万㎡的地块，市值或超过10亿韩元(约合人民币610万元)。韩国的地是有多不值钱？<br>草、韩国人这么不识做钱，派我们王大哥去吧！ 扯皮 23W平👿 哦哦 真有闲心。 韩国的地就是不值钱，两三斤猪肉就买一平米！😂，有钱的网友快去韩国买地吧！😂😂😂 郑维罗是韩国一号反骨女，也是全球一号败家女，也是人类史上最年轻的头号克星，既克死妈妈，又克死总统…不费一枪一弹就把总统母亲打倒… 韩国的地这么不值钱？？要是中国我们一个不入流的小镇一亩地都要40万起拍还不定到手！这么大片地要是以30万一亩起拍都不小的数目 什么才叫疯狂有数了吧 韓國人唔要得 .. 为了钱💰舍弃母女情深， 真便宜。。。 万恶的资本主义的人民怎么这么幸福？ 想把我们特色的社会拉入资本主义水深火热的制度真是痴心妄想！ 棒子的地皮太便宜了！ 郭黄河鬼棺 为了利益什么都不考虑 哈哈 然后盖楼卖给韩国普通老百姓。 我操这么便宜是不是小便那个瓜皮打错了 今晚冷面有毒 这个国，这个家，是真不靠谱，乱了。 韩国的地就是不值钱，两三斤猪肉就买一平米！😂，有钱的网友快去韩国买地吧！😂😂😂 路过 邪教母女 当然理解不透，因为她们已经是非正常人类 搁咱这就是屁大个事，算个毛啊！韩国就是没有大锅的气度。 妙啊，回答的真妙 没文化，我们国家农村里的一块地值多少钱？ 23万㎡的地块，市值或超过10亿韩元(约合人民币610万元)。韩国的地是有多不值钱？ 26块人民币一平米 活在当下猪圈里面让吸血鬼吸血是不是很爽啊，不要脸不知道羞耻的蠢猪们不要脸的华夏子孙，让满清祸害几百年现在又被满清余孽祸害几十年 理解不透，各位觉得这女儿做的对错？ 就你这脑子我都害怕，中标的人不一定是出价最高的，也许是背景最大的。仔细想去吧 hydnr 不科学啊！一块地价不如天朝一套房的价格，还是发达国家吗？ 抄来的新闻。 看看 万恶的资本主义的人民怎么这么幸福？ 应该是10亿人民币，误写不值钱的韩元。 还是钱重要 哈哈哈哈发货 23万㎡地块合中国345亩，县城土地亩价都要五十万人民币及以上，总价值17250万人民币元。大城市亩价土地都在五百万人民币以上，那如在中国大城市价值总价能达17亿人民币，如在北上深那价值20亿人民币以上了。韩国土地按中国亩价值2万元人民币以下，太便宜了。 她女儿“胸”似乎挺鼓鼓囊囊的… ★郑维罗是韩国一号反骨女，也是全球一号败家女，也是人类史上最年轻的头号克星，既克死妈妈，又克死总统…不费一枪一弹就把总统母亲打倒… ok 韩国人民水深火热啊 当然理解不透，因为她们已经是非正常人类 有土地真好 多大了 女儿是射手，老妈辅助， 23万㎡的地块，市值或超过10亿韩元(约合人民币610万元)。韩国的地是有多不值钱？ 你家10环外的北京市民，拆二代大款！汉城和釜山的都崇拜你 玩政治的人都挺有意思 有福一起享，有难你来当 23万平米，市值610万人民币？！我的天啊，韩国经济是不想好了 韩国的江原道平昌郡大概就像我们乡下的农村，不是合肥市郊。 理解不透，各位觉得这女儿做的对错？ 说啥子我民工敏敏 我决定妥协，让出祖宅给它们，去韩国买宅基地。 一平米20多块钱的地？？？ 66666 友谊的小船说翻就翻，这亲情的大船也说翻就翻？真是人不为己天诛地灭啊 草，23万平米才610万？？？ 几百亩地才一套房子 甩锅大赛 23万㎡地块合中国345亩，县城土地亩价都要五十万人民币及以上，总价值17250万人民币元。大城市亩价土地都在五百万人民币以上，那如在中国大城市价值总价能达17亿人民币，如在北上深那价值20亿人民币以上了。韩国土地按中国亩价值2万元人民币以下，太便宜了。 崔顺实女儿nn好大！ 看不懂啊，再说什么 我声音席子营hmmm 便宜 韩国的官员亲属是多危险，亲妈居然没给她弄个美国户口，还告她。看看朝鲜，人家……算了别说姑父，外人。看看朝鲜邻居吧！裸官 26块人民币一平米。靠，韩国太落后了吧？ 啥破地皮呀，一点都不值钱。 这么乱 她女儿“胸”似乎挺鼓鼓囊囊的… 总关心人家外国啥意思？<br>你们不是中国人吗？网易现在什么都不敢报道，只许你批判欧美日韩台！ 23万平米合中国345亩，在中国大城市黄金地段610万人民币一亩地都难买到。 23万平米才610万人民币，韩国经济靠卖地和靠房地产是不可能的。韩国能崛起吗？ 为了钱，母女当路人！ 原来从农民手里征地是按韩国地价给的，征地接轨韩国 "
    },
    "Title": "朴槿惠闺蜜崔顺实把女儿告上法庭:别随便卖我地皮_网易新闻",
    "KeyWords": "朴槿惠,崔顺实,法庭",
    "Article": "（原标题：崔顺实把女儿告上法庭：别随便卖我地！）韩媒报道截图海外网1月2日电据韩媒报道，“亲信干政门”事件发酵后，朴槿惠的闺蜜崔顺实与女儿郑维罗的关系日渐疏远。最近，两人还被曝出曾因一块地皮的出售问题，于去年10月闹上法庭。郑维罗据韩国《朝鲜日报》报道，崔顺实和郑维罗在江原道平昌郡有一处23万㎡的地块，市值或超过10亿韩元(约合人民币610万元)，产权归两人共有，各占一半份额。崔顺实母女曾在2015年以该地块为担保，在德国贷款25万欧元(约合人民币195万元)。去年10月底，崔顺实针对女儿郑维罗向法庭提交“假处分诉讼”，要求禁售平昌地块。崔顺实前夫郑润会对于起诉的原因，崔顺实表示，“女儿就连律师也无法会见，我这么做，是警告她别被人耍了随意处置财产。”而实际上，崔顺实与前夫郑润会也有过官司。2016年2月，崔郑两人离婚2年之后，郑润会突然因为财产纠纷，将崔顺实告上法庭。而韩国法律界人士则认为，崔顺实提起诉讼，也是为了展示自己在押期间毫不示弱的态度。法院接到崔顺实诉讼请求后，认为崔顺实母女是地块共同所有人，为了避免郑维罗受到损失，要求崔顺实提供担保。但崔顺实并未履行法院要求，法院于11月末将起诉驳回。由于崔顺实对此没有提出异议，法院驳回决定于12月初正式生效。去年7月，郑维罗在未与母亲崔顺实商量的情况下，以证人身份参加三星电子副会长李在镕的审判。而且，她出庭时还作了不利于崔顺实的证词，称“三星送的马，母亲让我就当自己的骑。”母女关系由此开始交恶。本文来源：海外网责任编辑：黄哲程_B9302",
    "URL": "http://news.163.com/18/0102/15/D75IB8FF0001899N.html",
    "PublishTime": "01/02/201815:56:47",
    "Source": "Netease"
}