{
    "URL": "http://news.163.com/17/1231/10/D6VR45LU000187V9.html",
    "Article": "（原标题：推特届扛把子特朗普发推：我用社交媒体，不是因为我喜欢，而是因为...）【环球网报道】美国总统特朗普虽年逾古稀，但仍活跃在社交媒体上，“推特治国”形象深入人心。当地时间30日晚，特朗普发推解释了一下自己总是用社交媒体的原因。特朗普说，自己用社交媒体不是因为喜欢，而是因为这是对抗不诚实不公正“媒体”的唯一途径，现在通常被称为“假新闻媒体(FakeNewsMedia)”。虚假的和不存在的“来源”正被越来越多地使用，许多故事和报道纯属虚构!不过，有网友不客气地表示，“你，总统先生，才是假新闻的主要来源”。还有网友留言，“假发、假总统”。也有网友挺特朗普，称“当美国人民需要真相时，就去看特朗普的推特。”特朗普推文中的“假新闻媒体”就是指《纽约时报》、美国有线电视新闻网(CNN)、全国广播公司(NBC)等媒体。自今年1月就职以来，他就一直斥责美国主流媒体散播针对他的假新闻。在其首场记者会上，特朗普怒斥CNN制造“假新闻”，还曾发推说要给CNN设立一个“假新闻奖”。FakeNews(假新闻)一词还被特朗普还带热，成为了柯林斯英语词典揭晓的2017年度热词。CNN7月的一项统计显示，特朗普上任头6个月，在社交网站“推特”上一共发了991条推文，其中82条用来驳斥“假新闻”或批评媒体。《经济学人》11月的一项调查显示，特朗普粉丝数量在过去一年内的增速则达到225%。在政治领域，特朗普的粉丝增速明显盖过了希拉里，这样的表现即使与体育、媒体类账号相比也显得极其突出。目前，其拥有4550万粉丝，不过还逊于他的前任-拥有9840万粉丝的奥巴马。本文来源：环球时报-环球网。更多精彩，请登录环球网http://www.huanqiu.com作者：丁洁芸责任编辑：李天奕_NN7528",
    "KeyWords": "特朗普,推特,美国,总统",
    "Source": "Netease",
    "Comment": {
        "Reply": 36,
        "Content": "大智若愚的老者值得尊重 天天站着凰易投调的那逼说什么了吗？ 土鳖 沙发 大家跟着记笔记、写心得就够了，还需要LD解释吗？ 我倒喜欢关心川普，你说的那些有点恶心还是别发了 所以美弟落后 花旗有媒体不姓川，忠承不绝对，都该被删抓关？ 为自己说话，不需要代言 你还是首先给俺说说“推特”是什么J8玩意吧 首先他能上得了推特 GDP的增长从2016年4季度的1,8%，2017年1季度的1,2%猛增到3季度的3,2，预计2017年4季度将超过4%；<br>失业率2017年一路下滑，据美国劳工部的最新统计，截至11月已下降到4,1%，为2001年以来最低，而领取失业金的人数，则达到1973年以来的最低，近一年的时间就创造了170万的就业。他的前任奥巴马在任时不断吹嘘就业人口增加，2016年2——5月增加就业1,5万；而特朗普2017同期却增加了39,5万，就业质量也大幅增加。 特朗普利用推特直接与人民对话，这样任何人都不可能歪曲他的话。 米国宣传应该为资本主义服务。这个部门需要好好整顿了 我觉得我们有责任解救川普先生偌大个总统一把手竟然能被喷，应该坚决取缔扼制这种不良之风. 宣传部呢？ 什么是推特？ 就经济指标而言，特朗普远远超过了他的前任。美股的几个数据：2016,12,29，美国的道琼斯开盘为19819·63点；仅过一年时间截至2017,12,29日开盘，已经涨到了24849·78点；仅仅一年时间涨幅足足超过5000点。这是道琼斯历史上增长最大的一年。自从特朗普当选截至目前，美股已连创84次历史新高，也是前所未有的。 GodblessAmerica 网易对川普真是操碎了心，一天好几篇，生活，工作，家庭…恨不得用什么厕纸都知道！就不能多关心关心咱们的老领导么，除了讲话就没别的了 奥巴马执政年限比特朗普长，粉丝肯定多些；但特朗普的人气这么爆棚，有两年的时间其粉丝人数会上亿。我都为美国民众感到庆幸，选上这么一位好总统。 我发现比起这边的我居然更了解美国总统 美的的总统真是水深火热 与彼岸的那个不可同年而语 考研英语一阅读 一些部门机构不好说的词语，可以在这里说。挺好。 一心为国为民的好总统 美国的主流媒体几乎都被老左收购了，老川也是被迫无奈啊 特朗普新世纪美帝国主义④想 Twitter 大智若愚的老者值得尊重 天天站着凰易投调的那逼说什么了吗？ 与彼岸的那个不可同年而语 土鳖 沙发 大家跟着记笔记、写心得就够了，还需要LD解释吗？ 我倒喜欢关心川普，你说的那些有点恶心还是别发了 所以美弟落后 花旗有媒体不姓川，忠承不绝对，都该被删抓关？ 为自己说话，不需要代言 你还是首先给俺说说“推特”是什么J8玩意吧 首先他能上得了推特 GDP的增长从2016年4季度的1,8%，2017年1季度的1,2%猛增到3季度的3,2，预计2017年4季度将超过4%；<br>失业率2017年一路下滑，据美国劳工部的最新统计，截至11月已下降到4,1%，为2001年以来最低，而领取失业金的人数，则达到1973年以来的最低，近一年的时间就创造了170万的就业。他的前任奥巴马在任时不断吹嘘就业人口增加，2016年2——5月增加就业1,5万；而特朗普2017同期却增加了39,5万，就业质量也大幅增加。 特朗普利用推特直接与人民对话，这样任何人都不可能歪曲他的话。 米国宣传应该为资本主义服务。这个部门需要好好整顿了 我觉得我们有责任解救川普先生偌大个总统一把手竟然能被喷，应该坚决取缔扼制这种不良之风. 宣传部呢？ 什么是推特？ 就经济指标而言，特朗普远远超过了他的前任。美股的几个数据：2016,12,29，美国的道琼斯开盘为19819·63点；仅过一年时间截至2017,12,29日开盘，已经涨到了24849·78点；仅仅一年时间涨幅足足超过5000点。这是道琼斯历史上增长最大的一年。自从特朗普当选截至目前，美股已连创84次历史新高，也是前所未有的。 GodblessAmerica 网易对川普真是操碎了心，一天好几篇，生活，工作，家庭…恨不得用什么厕纸都知道！就不能多关心关心咱们的老领导么，除了讲话就没别的了 奥巴马执政年限比特朗普长，粉丝肯定多些；但特朗普的人气这么爆棚，有两年的时间其粉丝人数会上亿。我都为美国民众感到庆幸，选上这么一位好总统。 美帝真会玩 我发现比起这边的我居然更了解美国总统 跟美团差不多 美的的总统真是水深火热 一心为国为民的好总统 考研英语一阅读 特朗普的推特需要专人护理吧！ 一些部门机构不好说的词语，可以在这里说。挺好。 fakenewsCNN 有些傻逼在吃第三个馒头时饱了，就认定前面的那两个完全是白吃了。 美国欠錢！話語權的聲音小了一点並非放棄話語權也非和平共处----長時期和平演变才能改變美国人的思维 美国的主流媒体几乎都被老左收购了，老川也是被迫无奈啊 特朗普新世纪美帝国主义④想 ",
        "Total": 1153,
        "Link": "http://comment.news.163.com/news2_bbs/D6VR45LU000187V9.html"
    },
    "PublishTime": "12/31/201710:27:00",
    "Title": "特朗普解释\"推特治国\":不是因为喜欢 是因为这原因_网易新闻"
}