{
    "Source": "Netease",
    "KeyWords": "广州,回迁村,房产",
    "URL": "http://news.163.com/17/1225/01/D6FCDA2R00014AEE.html",
    "PublishTime": "12/25/201701:09:42",
    "Comment": {
        "Content": "卖地政策实行后！<br>有些人就是靠拆迁发了！ 我们这也在拆迁，感觉和新闻里面完全两个世界。。。还有那个说十几套房的，如果不是因为村民的身份，编辑算不算造谣？ 干的好不如拆的好 广州会不会出现墓地资源枯竭的情况新快报记者近日走访广州市几个墓园了解到广州的墓地目前不限购 我们这也在拆迁，感觉和新闻里面完全两个世界。。。还有那个说十几套房的，如果不是因为村民的身份，编辑算不算造谣？ 分分分！说得好听，其实都是要自己付款购买的，只是楼价今非昔比看起来赚了不少。 卖地政策实行后！<br>有些人就是靠拆迁发了！ 以后物业费、房产税可有的收了 有的村民地多面积大，分的房子就多，比如有的农村的一家几代人住一个大院。另外，如果你这么说，那你分了几套？你为什么不和李嘉诚比啊，你拆迁了居然没李嘉诚有钱，那你多憋屈啊。你这么比有意思吗？拆迁现在都是农村最盼的事了，虽然分的利润有高有低，但是比没拆要强太多了，不是吗？ 干的好不如拆的好 分分分！说得好听，其实都是要自己付款购买的，只是楼价今非昔比看起来赚了不少。 这不一样啊，北上广那地多值钱，什么杨箕，猎德，石牌之类的都算是城中村，广州也发展了这么多年，随便动不得的 ",
        "Total": 21,
        "Link": "http://comment.news.163.com/news3_bbs/D6FCDA2R00014AEE.html",
        "Reply": 8
    },
    "Article": "（原标题：荔湾东漖村完成一期改造有回迁村民分得十多套房）新快报讯记者谢源源通讯员吴少敏报道12月23日晚上,广州市荔湾区新落成的东漖新村小区内，东漖回迁居民大摆千围宴席庆祝回迁。新快报记者了解到，回迁户中最多分得十多套房。新快报记者了解到，东漖是荔湾区首批进行整体改造的城中村之一，采取以村为改造主体、村企合作的改造模式。总体改造涉及1800多户村民、44万多平方米土地，改造规划建设计容建筑面积达123万平方米，是一个配套多所幼儿园、小学、酒店及写字楼的大型综合商住社区。改造工作于2010年启动，今年年初，东漖村完成复建一期的改造工作，1145套回迁房顺利交楼，500多户回迁居民来自原址的南埠、观兰坊、仁秀坊和河涌整治工程，分房原则为“先签先选房”。据村民介绍，基本上每个回迁户至少能分到两套房产，分得最多的有十多套。本文来源：金羊网责任编辑：姬雪莹_NN6784",
    "Title": "广州一村完成一期改造 有回迁村民分得十多套房_网易新闻"
}