{
    "URL": "http://tech.163.com/17/1227/16/D6M686SV00097U7R.html",
    "Comment": {
        "Total": 827,
        "Reply": 55,
        "Link": "http://comment.tech.163.com/tech_bbs/D6M686SV00097U7R.html",
        "Content": "抓到两个701 最近马云太忙了，昨天在杭州开建了阿里云总部，前几天又在广州开建了阿里云全国工业互联网总部 阿里巴巴的产品经理和程序员都他妈是煞笔 赶紧先弄个iPad版的天猫和淘宝 不明白闲鱼为何取消了网页版的功能。不知道是哪个高管脑子抽风了 真是牛B！毕竟首富！海军呀！ 老板是喜笑颜开啊，买个喷头设备又可以再战2年，一下子节省了8万多，万能的淘宝 网页版是有的啊？只是要搜索 牛逼全是水军 早有了，只是淘宝可以进天猫，为啥要多下个 你多虑了 上次给工厂车间买高压喷头，十几年前老设备了，线下找了6天没找到，上淘宝看看，嘿，还真的找到了，我的妈呀，吓人咯 海军网易 com结尾的基本都是水军 我在新闻上看到，有十个主播年薪超500万以上的，有一个最厉害的年薪2500万，曾创下一秒钟卖一千件衣服的记录，可以卖出的衣服她们收提成的 最近没有马云的新闻了，有种不祥的预感 天猫app感觉太花俏，打开还有点卡。 有很多卖家都很搞笑啊很欢乐😂 网页版只有浏览，搜索跟发布这些功能都没有了。 十八罗汉何在？ 国民亲爹马爸爸知道吗？ 难怪天猫出来个独立的APP 阿里现在的淘宝直播搞得很好，我夜里睡不着时都经常看看，搞得很红火24小时都有很多人买。 淘宝是不错，希望自建的阿里物流能马上搞起来。 马骗子该扣你工资了，所有有关阿里的新闻里，你都复制好几遍这相同的一段话，连个ip都不改，太懒了，让人一眼就看穿是水军 想多了，刚刚还看到马云拜孔夫子的新闻。马云这种马屁精比老王高多了。 5000亿市值就靠水军 逼你用手机端啊~手机端APP推广。手机浏览难对比，容易冲动消费。总之都是套路。 假货劣货太多，越来越不行了阿里。 你这段买手机套的故事我这个星期看到你说第三遍了。你能不能编个新故事讲讲 淘宝还真是好多宝，看各位眼光了，别想100块买个驴牌包包 对！淘宝上很多好东西，我都定做过一个别腰间的苹果手机套，皮质做工都非常好，款式也很美观，用了两年了，颜色都没退。 好多五金工具，机械零件，螺丝，电子产品，汽配零件我都在淘宝上买的，因为批发市场的要么没有，要么就是价格高质量差，淘宝上买的价钱合理质量还好 我可是化了一百七十元定制的，头层牛皮，皮质就像民国时期的手枪套那样的皮质 哪算什么，我记得前年买一个苹果5S的手机壳2元还包邮，我也是醉了，到现在手机壳还是好好的， 水军真多 整个阿里集团都是这么搞起来的 比较喜欢淘宝，只有你想不到的没有你找不到的！万能的淘宝呀，啥时候我能进口两个媳妇呢？！ 病句:任命XX出任XX，先学一下汉语语法吧 抓到两个701 阿里巴巴的产品经理和程序员都他妈是煞笔 好多五金工具，机械零件，螺丝，电子产品，汽配零件我都在淘宝上买的，因为批发市场的要么没有，要么就是价格高质量差，淘宝上买的价钱合理质量还好 真是牛B！毕竟首富！海军呀！ 老板是喜笑颜开啊，买个喷头设备又可以再战2年，一下子节省了8万多，万能的淘宝 上次开玩笑说政府发媳妇的那个被拘了几天，你这个国际玩笑怕是要几年了吧 牛逼全是水军 淘宝是不错，希望自建的阿里物流能马上搞起来。 你多虑了 快被抓了 天猫app感觉太花俏，打开还有点卡。 难怪天猫出来个独立的APP 阿里现在的淘宝直播搞得很好，我夜里睡不着时都经常看看，搞得很红火24小时都有很多人买。 所以说淘宝是万能的，有很多产品还可私人定制 马骗子该扣你工资了，所有有关阿里的新闻里，你都复制好几遍这相同的一段话，连个ip都不改，太懒了，让人一眼就看穿是水军 我可是化了一百七十元定制的，头层牛皮，皮质就像民国时期的手枪套那样的皮质 5000亿市值就靠水军 逼你用手机端啊~手机端APP推广。手机浏览难对比，容易冲动消费。总之都是套路。 假货劣货太多，越来越不行了阿里。 天猫，喵，不许差评，喵喵……喵喵喵…… 小鸭子 有分类的 整个阿里集团都是这么搞起来的 希望有能力的人才担当 没问题，实体智能娃娃很快就会上线！要多少媳妇就有多少媳妇！ 海军网易 网页版是有的啊？只是要搜索 com结尾的基本都是水军 早有了，只是淘宝可以进天猫，为啥要多下个 上次给工厂车间买高压喷头，十几年前老设备了，线下找了6天没找到，上淘宝看看，嘿，还真的找到了，我的妈呀，吓人咯 有的18万越南的 教你一招，两年后，用坏了，买个新的，然后退个坏的回去，商家拿你没有办法，又省钱了，其实现在就可以用坏的退回去。不少人这样搞，淘宝站在消费者一边，商家日子越来越难过。 赶紧先弄个iPad版的天猫和淘宝 我在新闻上看到，有十个主播年薪超500万以上的，有一个最厉害的年薪2500万，曾创下一秒钟卖一千件衣服的记录，可以卖出的衣服她们收提成的 最近没有马云的新闻了，有种不祥的预感 网页版只有浏览，搜索跟发布这些功能都没有了。 有很多卖家都很搞笑啊很欢乐😂 贼喊捉贼 十八罗汉何在？ 国民亲爹马爸爸知道吗？ 最近马云太忙了，昨天在杭州开建了阿里云总部，前几天又在广州开建了阿里云全国工业互联网总部 天猫的界面还没有淘宝好 听说不少淘宝卖家说，淘宝内部人士控制流量，把流量分给那些刷单信誉高的卖家。小卖家几乎都不给流量的，不知道是真的不？ 不明白闲鱼为何取消了网页版的功能。不知道是哪个高管脑子抽风了 你这段买手机套的故事我这个星期看到你说第三遍了。你能不能编个新故事讲讲 支持阿里 傻不傻，做淘宝天猫就是要花钱做推广做直通车 想多了，刚刚还看到马云拜孔夫子的新闻。马云这种马屁精比老王高多了。 水军真多 呵呵... 比较喜欢淘宝，只有你想不到的没有你找不到的！万能的淘宝呀，啥时候我能进口两个媳妇呢？！ 病句:任命XX出任XX，先学一下汉语语法吧 "
    },
    "Article": "（淘宝总裁蒋凡）（天猫总裁靖捷）网易科技讯12月27日消息，阿里巴巴集团CEO张勇在员工公开信中宣布，任命集团副总裁蒋凡出任淘宝总裁，任命集团副总裁靖捷出任天猫总裁。此外,淘宝、天猫将作为阿里新零售的基座，聚合阿里物流、金融、技术、云计算等基础能力帮助全社会商业升级。张勇在信中进一步明确了淘宝天猫作为阿里新零售两大柱石的发展方向和未来图景。即淘宝作为社会的创新基地以及帮助年轻人实现梦想的地方，将进一步升级成内容化、社区化、智能化平台。愈发丰富多元的淘宝生态将孕育出更多新物种，造就更多商业和就业机会。天猫作为全球品牌商业数字化转型升级主阵地，将从供应链、消费者互动、新渠道、线上线下互通等四个方面全面赋能品牌。同时，天猫作为社会消费升级主阵地，不仅要满足消费者现有需求，更要激发并满足消费者对美好生活的追求和向往。淘宝创新生态赋能中小商家和创业者，天猫帮助全球品牌打通线上线下贯穿海内海外。淘宝、天猫分进合击的背后，是阿里巴巴新零售战略的新征程和使命——不断用技术拓展商业边界，用商业力量解决社会问题，用互联网技术和大数据给消费者带来全新的服务和体验。以下为阿里CEO张勇内部公开信全文：各位阿里人，还有几天就要迎来新的一年。过去的2017年是令人激动的一年，集团各方面业务高速健康发展，新零售为代表的“五新”已成为全社会共识，整个商业正围绕人、货、场进行着全面重构。2018年新零售将进入全新阶段，淘宝、天猫也早已不是传统意义上的电商平台，而将成为阿里新零售基础设施的基座，集合集团在技术、物流、金融、云计算等方面的基础能力帮助全社会商业升级。新阶段需要更多年轻人的新视角和新思维。过去一年，集团内一批优秀的年轻管理者快速成长起来。新零售的全新拓展，需要他们承担起更多的责任。经集团研究决定，做如下任命：1、任命蒋凡出任淘宝总裁。蒋凡加入阿里的几年，始终保持创业者的冲劲，有敏锐的消费者洞察和产品洞察，在整个淘系无线化升级过程中起到了核心驱动作用。推动了淘宝走向数据驱动，实现千人千面。他还带领团队构建了淘宝内容体系，为淘宝内容生态打下坚实基础。万能的淘宝将继续升级内容化、社区化、智能化，让淘宝生态更加丰富，为消费者带去更多惊喜的服务和体验，让生活更有乐趣。同时，淘宝将继续成为创新基地以及帮助年轻人实现梦想的地方，在淘宝生态中孕育出更多新的物种，带来更多新的商业机会和就业机会。2、任命靖捷出任天猫总裁。靖捷有着丰富的商业经验，对客户痛点有较深的理解，并能依此做出清晰的业务策略。他此前作为天猫班委班长，已经承担了许多天猫组织方面的职责，并对于组织建设有自己独到的见解。天猫要做的是重构新世界。天猫将继续成为全球品牌数字化转型升级的主阵地，将从供应链、消费者互动、新渠道、线上线下互通等几个方面赋能品牌，让商业和互联网完美结合，产生新的化学反应。同时，天猫还将继续成为社会消费升级主阵地，天猫不仅要满足消费者现有需求，更要激发、创造消费者对美好生活的新追求。以上任命即日起生效。希望两位总裁带领淘宝、天猫团队，不忘初心、不惧将来，在新时代下继续践行阿里巴巴集团“让天下没有难做的生意”的使命，创造淘宝、天猫新的未来！阿里巴巴集团CEO张勇（逍遥子）2017年12月27日本文来源：网易科技报道责任编辑：王凤枝_NT2541",
    "KeyWords": "淘宝,天猫,任命,阿里",
    "Source": "Netease",
    "Title": "阿里任命两位高管：天猫和淘宝有了新\"掌门\"_网易科技",
    "PublishTime": "12/27/201716:36:47"
}