{
    "Source": "Netease",
    "KeyWords": "澳大利亚,墨尔本,汽车",
    "URL": "http://news.163.com/17/1224/11/D6DRR4CT0001875O.html",
    "PublishTime": "12/24/201711:00:58",
    "Comment": {
        "Content": "赛伊德，一听这名字就知道和默罕默德之类的是兄弟 绝对的！太不要脸了，我们都准备申遗了 精神病？好你个澳大利亚，一边骂中国，一边又学中国。 硬盤沒壞? 侵犯我国的知识产权。 精神病在哪都好使 一证在手世界我有[窃笑] 為什麼你們的硬盤質量這麼好? 澳大利亚墨尔本市5日下午发生劫持人质事件 绝对的！太不要脸了，我们都准备申遗了 精神病？好你个澳大利亚，一边骂中国，一边又学中国。 撞人?救人?监控还原真相 侵犯我国的知识产权。 一证在手世界我有[窃笑] 赛伊德，一听这名字就知道和默罕默德之类的是兄弟 硬盤沒壞? 澳大利亚发生的这件事完全是招摇！根本就是骗人的！澳大利亚这样的地方怎么可能有精神异常的人？澳大利亚政府一定是胡说八道！ 关我们屁事 精神病在哪都好使 為什麼你們的硬盤質量這麼好? ",
        "Total": 96,
        "Link": "http://comment.news.163.com/news_guoji2_bbs/D6DRR4CT0001875O.html",
        "Reply": 12
    },
    "Article": "（原标题：澳大利亚墨尔本汽车冲撞行人监控画面公布）#endText.video-infoa{text-decoration:none;color:#000;}#endText.video-infoa:hover{color:#d34747;}#endText.video-listli{overflow:hidden;float:left;list-style:none;width:132px;height:118px;position:relative;margin:8px3px0px0px;}#entText.video-lista,#endText.video-lista:visited{text-decoration:none;color:#fff;}#endText.video-list.overlay{text-align:left;padding:0px6px;background-color:#313131;font-size:12px;width:120px;position:absolute;bottom:0px;left:0px;height:26px;line-height:26px;overflow:hidden;color:#fff;}#endText.video-list.on{border-bottom:8pxsolid#c4282b;}#endText.video-list.play{width:20px;height:20px;background:url(http://img1.cache.netease.com/video/img14/zhuzhan/play.png);position:absolute;right:12px;top:62px;opacity:0.7;color:#fff;filter:alpha(opacity=70);_background:none;_filter:progid:DXImageTransform.Microsoft.AlphaImageLoader(src=\"http://img1.cache.netease.com/video/img14/zhuzhan/play.png\");}#endText.video-lista:hover.play{opacity:1;filter:alpha(opacity=100);_filter:progid:DXImageTransform.Microsoft.AlphaImageLoader(src=\"http://img1.cache.netease.com/video/img14/zhuzhan/play.png\");}if(/(iPhone|iPad|iPod|Android|NETEASEBOBO|blackberry|bbd+)/ig.test(navigator.userAgent)||/safari|chrome|firefox/i.test(navigator.userAgent)&&navigator.plugins&&!navigator.plugins[\"ShockwaveFlash\"]){varstr1='<videocontrols=\"controls\"preload=\"auto\"width=\"100%\"poster=\"http://vimg3.ws.126.net/image/snapshot/2017/12/8/M/VD5G1RJ8M.jpg\"style=\"max-height:100%\">';varstr2='<sourcetype=\"video/mp4\"src=\"http://flv.bn.netease.com/videolib3/1712/24/emyPq4109/SD/emyPq4109-mobile.mp4\">您的浏览器暂时无法播放此视频.</video>';document.getElementById(\"FPlayer1404863609673\").parentNode.innerHTML=str1+str2;}澳大利亚墨尔本汽车冲撞行人监控画面公布（来源：~）window.NTES&&function(d){varf=function(c){varb=c.getAttribute(\"flashvars\"),a=c.getAttribute(\"repovideourl\").replace(\".flv\",\"-mobile.mp4\");h=d(c.parentNode.parentNode.parentNode),g='<embedsrc=\"http://v.163.com/swf/video/NetEaseFlvPlayerV3.swf\"flashvars=\"'+b+'\"allowfullscreen=\"true\"allowscriptaccess=\"always\"quality=\"high\"wmode=\"opaque\"width=\"100%\"height=\"100%\"type=\"application/x-shockwave-flash\"/>';if(/(iPhone|iPad|iPod|Android|NETEASEBOBO|blackberry|bbd+)/ig.test(navigator.userAgent)){g='<videocontrols=\"controls\"preload=\"auto\"width=\"100%\"height=\"100%\"><sourcetype=\"video/mp4\"src=\"'+a+'\">您的浏览器暂时无法播放此视频.</video>';}h.$(\".video\")[0].innerHTML=g;},e=function(b){vara=d(b.parentNode.parentNode.parentNode);a.$(\"li\").removeCss(\"on\"),b.addCss(\"on\"),a.$(\".video-title\")[0].innerHTML=\"string\"==typeofb.textContent?b.textContent:b.innerText,a.$(\".video-title\")[0].setAttribute(\"href\",b.getAttribute(\"url\")),a.$(\".video-from\")[0].innerHTML=\"（来源：\"+b.getAttribute(\"source\")+\"）\",f(b);};window.continuePlay=function(){vara,b=d(d(\".video-list.on\")[0].nextSibling);3==b.nodeType&&(b=d(b.nextSibling));if(b&&d(\".video-innerinput\")[0].checked){e(b);}},function(){vara={init:function(){if(d(\".video-listli\")[0]){d(d(\".video-listli\")[0]).addCss(\"on\"),this.eventBind();}},eventBind:function(){d(\".video-listli\").addEvent(\"click\",function(b){e(d(this)),b.preventDefault();});}};a.init();}();}(NTES);澳大利亚媒体北京时间24日公布了“墨尔本汽车冲撞行人事件”的监控画面。21日澳大利亚维多利亚州首府墨尔本市中心发生汽车冲撞行人事件，导致19人受伤，目前仍有12人在医院接受救治，其中3人情况危急。该事件的嫌疑人，32岁的赛义德·努里23日被押送至法庭，并以多项罪名被起诉。赛义德·努里今年32岁，是阿富汗裔澳大利亚人，有服用毒品经历，还有精神健康问题。警方表示，此事是一起孤立的治安事件，暂无迹象表明嫌疑人与恐怖组织有关。本文来源：央视责任编辑：范姜国一_NN9138",
    "Title": "澳大利亚汽车撞人监控公布 嫌疑人有精神健康问题_网易新闻"
}