{
    "Article": "（原标题：台当局拖了半年再驱离\"尼驻台办事处\":不设期限）图为台外事部门召开记者会。（图片来源：台媒）海外网1月2日电2017年6月，尼日利亚要求“台驻尼办事处”更名并迁出首都阿布贾，可台当局却一拖再拖，在尼日利亚的再三警告和催促下，“台驻尼办事处”终于在2017年12月8日搬至拉各斯。而为了“报复”，台当局也曾驱离在台北的“尼驻台办事处”，但时隔半年，仍未有进展。今日（2日），台当局再次驱离“尼驻台办事处”但称“不给尼日利亚设限”。据台湾“中央社”消息，台外事部门“亚非司司长”陈俊贤2日表示，“台驻尼办事处”搬迁作业已于12月8日完成，1月5日将对外营运。此外，台当局也已正式发文要求“尼日利亚驻台办事处”搬离台北市。紧接着，陈俊贤缓和称，从阿布贾到拉各斯约800公里，路况不是很好，搬运车队需走20小时，尼日利亚政府有派15名武警全程护卫，还有提供协助。据了解，“尼日利亚驻台办事处”遭到台当局驱离后也一直未有动静，不过，2017年8月，尼方曾表示，因财政困难，恐无搬迁预算，尚不确定搬离台北市，还是干脆直接关闭“驻台办事处”。对此，尼日利亚2日回答媒体提问时，也仅仅表示目前还在等候上级指示，没有进一步评论。相比尼日利亚的“强硬态度”，听到此回应的台当局仅表示，“并不会给予尼日利亚搬迁期限”，不过，陈俊贤也表示，若尼日利亚“以拖待变”，台当局不会派警察去封锁，但“文明的政策手段还是有的”。据海外网早前报道，2017年1月，尼日利亚要求“台驻尼办事处”取消“伪称”，摘除“伪牌”，迁出首都，禁止尼政府官员和机构同台湾发生任何官方往来，并重申坚持一个中国政策。尼日利亚还曾明确表示若台湾办事处不改名、迁址，“就要采取激烈动作”。不过，时隔数月，台当局仍迟迟未有搬迁动作。直到2017年11月，台当局被尼日利亚下了“最后通牒”才放出消息称“打包工作已接近尾声”。尼日利亚于2017年年初举行记者会，表示基于“一中原则”，不再承认台湾是个“国家”，且要求“台湾办事处”改名并迁出尼日利亚首都。2017年1月11日，外交部长王毅在阿布贾与尼日利亚外长奥尼亚马共同会见记者时曾表示，尼方作出的这一政治决断，符合尼日利亚国家和人民的根本利益，符合国际法，符合联合国宪章的宗旨和原则，符合国际社会的共识，符合当今世界形成的一个中国格局。这件事再次证明，坚持一个中国原则是人心所向、大势所趋。中国最终实现国家的完全统一是谁也无法阻挡的浩荡潮流。本文来源：海外网责任编辑：谷莹_NN6577",
    "Title": "台当局拖了半年再驱离\"尼驻台办事处\":不设期限_网易新闻",
    "PublishTime": "01/02/201813:27:23",
    "Source": "Netease",
    "Comment": {
        "Content": "早该如此，明智之举！ 拍手👏👏👏👏👏👏 早该如此，明智之举！ 拍手👏👏👏👏👏👏 ",
        "Reply": 2,
        "Link": "http://comment.news.163.com/news2_bbs/D75DK6S300018AOR.html",
        "Total": 10
    },
    "KeyWords": "尼驻台办事处,驱离,台湾,尼日利亚",
    "URL": "http://news.163.com/18/0102/14/D75DK6S300018AOR.html"
}