{
    "Comment": {
        "Total": 2260,
        "Reply": 123,
        "Link": "http://comment.sports.163.com/sports2_bbs/D74SM5LQ00058781.html",
        "Content": "上海上港队跟您的描述特别贴切！进攻效率特别高！当然遇见技术更先进的小日本效率差很多！就像打巴萨一样！当然贝尔、C罗的灵光一现也会击溃巴萨！绿巨人的暴力远射也让日本球队韩国球队下跪！但时代在发展足球也在进步！02年身高马大的德国队（我非常喜欢巴拉克）被巴西队按在地上摩擦！英格兰被少一人的巴西队遛猴！现在呢，德国队的传控球堪比西班牙甚至高于巴西队，托尼克劳斯在皇马掌舵，二七二是5年内欧洲5大联赛总助攻王，希望京多安的膝盖能健康…英格兰5大U系列3个冠军！穆里尼奥是特殊的一个！但得做出改变了…齐达内之前是赋闲在家的安切洛蒂的助理教练！他俩最大的特点是用现有队员组合安排阵型发挥球队最大潜力！比如：主席卖了多欧冠功臣迪马利亚买了J罗安切洛蒂必须得用！当年在AC米兰4大前腰都是主席买到，安胖子必须得用！不花大钱，且听主席的话，跟大牌球星和睦相处，4大联赛冠军欧冠冠军的安胖才是战术大师我心目中的最佳教练！穆里尼奥花了3亿…可惜当年佛格森带队阿什利扬是转会头牌！ 说反了！曼联是穆尼尼奥肌肉足球的代表！伊布、卢卡库、博格巴、马蒂奇、费莱尼、斯莫林、连青年队上来的小孩麦克托米奈都1.91米以上！巴伊、林德罗夫、罗霍3人1.87米这些都是常规首发或主要轮换！包括那个小孩欧冠联赛都首发过！瓦伦西亚、菲尔琼斯、卢克肖这三人的身体素质在英超是顶级的，当然琼斯的打法太容易受伤！瓦伦西亚1.8米体重是惊人的166斤，参考意大利帅哥达米安1.82米，140斤！曼联是太强壮反而小技术有点粗糙！马塔叔叔、姆希塔良、埃雷拉远不及大卫席尔瓦、德布劳内、费尔南迪尼奥、京多安、甚至半退休的亚亚图雷！曼联中后卫组织出球能力更不及斯通斯、奥塔门迪！奥塔门迪是英超传球成功次数最多的队员（5大联赛唯一后卫领先的）斯通斯是英超传球成功率最高的队员！曼联只有林德罗夫有向前带球出球组织进攻的能力！但他还没有完全适应英超！肌肉足球有点落伍了，之前卡佩罗的皇马、马加特的拜仁曾经横扫欧洲的时代已经过去了……现在欧洲肌肉足球的代表是阿莱格里的尤文图斯！赫迪拉+马图伊迪+明年过来的埃姆雷詹+后防BBC进攻就靠迪巴拉的灵光一现、伊瓜因的捡漏、曼朱基奇的满场飞奔…这样得了欧冠就是足球的倒退！20年前这么踢没毛病！10年前的阿森纳里杰卡尔德的巴萨已经告诉大家⚽️是该如何踢！现在瓜秃子的足球中后卫都得有其他球队背10号的技术能力，守门员得有非常好的脚下技术…这是时代的发展… 卢卡库有没有小四高啊哈哈哈 一楼居然说的头头是道的哈哈！看的唯一一场足球比赛吧？这 一楼，卧槽尼玛的，骂曼联你就骂，戴上穆帅我就曹尼玛 我印象最深的是06年世界杯，荷兰一个叫范博梅尔的和葡萄牙的德科都被罚下去了。结果两位直接坐到一起开始聊球了，我当时年幼我问我爸爸，他们不是对手吗？爸爸说：友谊第一比赛第二不打不相识（长大后才知道他们是巴萨队友关系很好） 老穆好的就是这一口啊 网易难道有这么高质量的回复了 哥们：我想如果穆里尼奥带巴萨瓜秃子带皇马会怎样？瓜秃子肯定半场吊打穆鸟的巴萨穆鸟的巴萨靠梅西的反击赢球！穆里尼奥的足球特别像96年欧洲杯德国队！铁血防守+明星前锋（金色轰炸机）虽然赢得了96欧洲杯冠军，但后10年是德国足球的低谷…我也喜欢当年穿着阿玛尼风衣在诺坎普飞奔年轻的穆帅！但现在曼联的投入及队员真不如让范加尔带！穆当年用18岁桑顿，19岁巴洛特利！现在是越来越保守了… 鲁尼多伤心啊…… 哈哈，一楼的观点笑死了，没看到过出场前在球员通道寒暄的镜头啊？不要太正常，还对手完赛前不联系，你是来搞笑的嘛 马蒂奇卢卡库博格巴伊布拉丝富德蓬蓬头哪个不是190，一楼看球吗 他说的都是做贼心虚的那种[窃笑] 就和NBA一样，没了身体对抗全是花哨远投！说倒退有点夸张，萝卜白菜各有所爱吧 哈哈，你敢说猴子个矮🤙🤙🤙 因为虐曹了你们鸟粪们的废物嘢爹墓表，加上我天天点漕你们鸟粪们蟆-笔，爽不，儿子 2比天天有，今天特别多 二楼纯手打吗？如果是，那就太可贵了。 鲁尼：我不是来自东北的 别整那么尴尬 这批曼联队就像青年那样。身材小，又没一个是关键先生。赢球似乎要看对方运气。 说实话，二楼你分析足球只看阵容就分析得出踢法？不知道你们看过木鸟的皇马第二年没？全队防守严密，出球精确，效率极高，看得也是赏心悦目！ 你说的那是曼城 曼联队身材小你是看篮球来的吧 穆鸟：BG8，你*总发推能不能干点正事？ 不和头发多的人打招呼 木鸟最喜欢黑又硬，还要高，[窃笑] 撸你撸你 曼联身材小，一楼看球费电视 他可能只认识一个马塔。。。 最熟悉的陌生人是.镜中的自己. 老英式球员的作风，赛前不跟对面bb 足球是赛前打招呼，赛后跟仇人 现在黑又硬，身板都够了，缺少一个强大的控球中场，就像光有强壮的的四肢，没有灵活的大脑一样，曼联前场几个位置都不错，就是中场缺少莫德里奇，丁丁这样的球员[微笑] 曼联个个又黑又硬 可能1L有1米9呢 卧槽尼玛的，骂穆里尼奥你就骂，带上曼联我就草泥马 此女车龄35左右，车长大概1米65左右。车况保持一般，内饰较好，车前后保险杠脱落，疑似经常被追尾，排气管黝黑，烧机油严重。发动机巅峰状态，但拉缸严重。30分钟后下排气出水，缸内直喷。新手不建议入手，老司机方可一战，由于使用频率太高，磨损太大，建议要换大号加长加粗活塞，否则油耗高，感觉不到动力，老手能吃苦耐劳的尚可驾驶，新手看看尚可，滤芯儿更换不及时，造成通风不畅，有异味，千万不要轻易去碰，否则遗憾终身，根据我开车20年经验！两大灯少许下垂！打着后发动机噪音过大！缸筒活塞间隙过大！做过全车划痕处理！喷过全车漆！总结：此车长期被人野蛮驾驶，事故车！谨慎！谨慎！！！ 你个广东小矮个还嫌曼联矮…… 鲁尼：好大好大，这么大怎么办？<br>波霸：..... 看一眼说老子对曼联有旧情，这场比赛会灌水，不看说我冷血，丝毫没有同窗之情。做人好难。 这足以说明你没看过球 爪秃无地白容了？ 飞人博古特 垃圾废物曼联穆鸟🐦都是垃圾废物曼联穆 可能人家有一些规则，比如再熟络的朋友，一旦是这一场的对手，比赛完之前是不会联系的，记得弗爵爷都是赛后请对方主帅到办公室喝酒的，易建联以前在NBA比赛前遇到姚明，姚明也没理他，可能就是这个道理，博格巴年轻人不管这么多吧！ 上海上港队跟您的描述特别贴切！进攻效率特别高！当然遇见技术更先进的小日本效率差很多！就像打巴萨一样！当然贝尔、C罗的灵光一现也会击溃巴萨！绿巨人的暴力远射也让日本球队韩国球队下跪！但时代在发展足球也在进步！02年身高马大的德国队（我非常喜欢巴拉克）被巴西队按在地上摩擦！英格兰被少一人的巴西队遛猴！现在呢，德国队的传控球堪比西班牙甚至高于巴西队，托尼克劳斯在皇马掌舵，二七二是5年内欧洲5大联赛总助攻王，希望京多安的膝盖能健康…英格兰5大U系列3个冠军！穆里尼奥是特殊的一个！但得做出改变了…齐达内之前是赋闲在家的安切洛蒂的助理教练！他俩最大的特点是用现有队员组合安排阵型发挥球队最大潜力！比如：主席卖了多欧冠功臣迪马利亚买了J罗安切洛蒂必须得用！当年在AC米兰4大前腰都是主席买到，安胖子必须得用！不花大钱，且听主席的话，跟大牌球星和睦相处，4大联赛冠军欧冠冠军的安胖才是战术大师我心目中的最佳教练！穆里尼奥花了3亿…可惜当年佛格森带队阿什利扬是转会头牌！ 鲁尼有没有记录留在曼联？ 体脂率有时候也骗人中超球员体脂率基本达标…伊瓜因是个大胖子但能进球！ 说反了！曼联是穆尼尼奥肌肉足球的代表！伊布、卢卡库、博格巴、马蒂奇、费莱尼、斯莫林、连青年队上来的小孩麦克托米奈都1.91米以上！巴伊、林德罗夫、罗霍3人1.87米这些都是常规首发或主要轮换！包括那个小孩欧冠联赛都首发过！瓦伦西亚、菲尔琼斯、卢克肖这三人的身体素质在英超是顶级的，当然琼斯的打法太容易受伤！瓦伦西亚1.8米体重是惊人的166斤，参考意大利帅哥达米安1.82米，140斤！曼联是太强壮反而小技术有点粗糙！马塔叔叔、姆希塔良、埃雷拉远不及大卫席尔瓦、德布劳内、费尔南迪尼奥、京多安、甚至半退休的亚亚图雷！曼联中后卫组织出球能力更不及斯通斯、奥塔门迪！奥塔门迪是英超传球成功次数最多的队员（5大联赛唯一后卫领先的）斯通斯是英超传球成功率最高的队员！曼联只有林德罗夫有向前带球出球组织进攻的能力！但他还没有完全适应英超！肌肉足球有点落伍了，之前卡佩罗的皇马、马加特的拜仁曾经横扫欧洲的时代已经过去了……现在欧洲肌肉足球的代表是阿莱格里的尤文图斯！赫迪拉+马图伊迪+明年过来的埃姆雷詹+后防BBC进攻就靠迪巴拉的灵光一现、伊瓜因的捡漏、曼朱基奇的满场飞奔…这样得了欧冠就是足球的倒退！20年前这么踢没毛病！10年前的阿森纳里杰卡尔德的巴萨已经告诉大家⚽️是该如何踢！现在瓜秃子的足球中后卫都得有其他球队背10号的技术能力，守门员得有非常好的脚下技术…这是时代的发展… 卢卡库有没有小四高啊哈哈哈 我觉得曼联对鲁尼不薄！ 天天把尼玛献出来艹，也不考虑她老人家受的了受不了。 网易难道有这么高质量的回复了 沙币皮克 很欣赏 可能关系很一般 哥们：我想如果穆里尼奥带巴萨瓜秃子带皇马会怎样？瓜秃子肯定半场吊打穆鸟的巴萨穆鸟的巴萨靠梅西的反击赢球！穆里尼奥的足球特别像96年欧洲杯德国队！铁血防守+明星前锋（金色轰炸机）虽然赢得了96欧洲杯冠军，但后10年是德国足球的低谷…我也喜欢当年穿着阿玛尼风衣在诺坎普飞奔年轻的穆帅！但现在曼联的投入及队员真不如让范加尔带！穆当年用18岁桑顿，19岁巴洛特利！现在是越来越保守了… 就和NBA一样，没了身体对抗全是花哨远投！说倒退有点夸张，萝卜白菜各有所爱吧 楼上说的有道理[微笑] 因为虐曹了你们鸟粪们的废物嘢爹墓表，加上我天天点漕你们鸟粪们蟆-笔，爽不，儿子 2比天天有，今天特别多 迈克基恩可是跟博格巴一起青训出身的。应该最铁。 技术好不代表没有身体素质乔丹科比技术好身体素质更是惊人奥塔门迪亚亚图雷包括矮个子阿奎罗身体指标英超前10！你可以多看看身体素质测试榜还有NBA效率棒单纯的技术统计会骗人！ 二楼纯手打吗？如果是，那就太可贵了。 你说的那是曼城 这批曼联队就像青年那样。身材小，又没一个是关键先生。赢球似乎要看对方运气。 说实话，二楼你分析足球只看阵容就分析得出踢法？不知道你们看过木鸟的皇马第二年没？全队防守严密，出球精确，效率极高，看得也是赏心悦目！ 穆鸟：BG8，你*总发推能不能干点正事？ 呵呵呵 曼联队身材小你是看篮球来的吧 老英式球员的作风，赛前不跟对面bb 这个回复亮了。 不和头发多的人打招呼 木鸟最喜欢黑又硬，还要高，[窃笑] 照一楼这么说，92班属于残废级。。都不强壮，生姜头是个肺痨，小贝死慢盘带又差，吉格斯老嫖客带球扭秧歌一碰就倒，索尔斯克亚一年到头板凳上吃闲饭，内维尔兄弟在后卫里就是弱不经风的代表，巴特猴子一样的秃子还腰，基恩一脸暴躁身体一般，不说啥了，别人衬了约克科尔，又辅助了范尼潇洒哥，送红了西罗鲁尼特维斯，最后散发余热辅助着一帮别人认为的鸡肋拿到了英超冠军，重建王朝是从挖掘工兵和老骨头开始，真得感谢鸟叔这么信任这帮小伙子。多看球，少吹牛。 吹的没边了… 温格，服不服！ 说的有道理👍 他可能只认识一个马塔。。。 评论区2017条，我这是第2018条，祝大家新的一年顺利发财[大笑] 身材小？你说的是你自己吧 您看过？来，走两步！ 按身材选球员这不是我大天朝的眼光吗 现在黑又硬，身板都够了，缺少一个强大的控球中场，就像光有强壮的的四肢，没有灵活的大脑一样，曼联前场几个位置都不错，就是中场缺少莫德里奇，丁丁这样的球员[微笑] 蓬蓬头做队长也轮不到波巴吧 看欧超杯的时候，皇马身体对抗被曼联碾压，要不是技术高一个层次，还真赢不了曼联，当时我以为曼联联赛冠军稳了，谁知道曼城更牛逼 理你等下怎么放水？放水前低调下。 我就是普通球迷足球20年前天天踢！现在天天看NBA 看一眼说老子对曼联有旧情，这场比赛会灌水，不看说我冷血，丝毫没有同窗之情。做人好难。 完了，鲁尼还经常花天酒地，被你说得很担心他的未来 看多少眼都是那样 这足以说明你没看过球 爪秃无地白容了？ 真不容易呀 鲁尼每次回老特拉福德心里都五味杂陈 一楼，用你手机砸死皇马和C罗？ 你瞅啥 垃圾废物曼联穆鸟🐦都是垃圾废物曼联穆 可能人家有一些规则，比如再熟络的朋友，一旦是这一场的对手，比赛完之前是不会联系的，记得弗爵爷都是赛后请对方主帅到办公室喝酒的，易建联以前在NBA比赛前遇到姚明，姚明也没理他，可能就是这个道理，博格巴年轻人不管这么多吧！ 穆在波尔图就这么踢！高效率大巴防守+中场天才出球手+明星攻击手，卡瓦略+德科+麦卡锡，在国米萨姆埃尔+斯内德+米利托，在切尔西一期启用双边锋复古打法，特里+兰帕德+德罗巴，二期内讧就不谈了…哥们：皇马球星就是高洪波带也会放松严密传球精确 为什么之前那么多传中？？？就是因为曼联身高优势。 人家说的也没毛病。除了那几个黑白又硬的。拉师傅马球王马塔林加德拜利布林德扬教授埃雷拉等等确实还真是小快灵。 曼联队身材小，那岂不是其他的队都是儿童在踢球？⚽️ 曼联第2个球，就是鲁尼莫名其妙的无压迫状态下的传球失误。在那一刻，可能他真以为自己穿的还是红色球衣。 真不知道是谁没看过球.....<br>热血英超,记得当年曼市德比,转会曼城的舒梅切尔和当时的队长内维尔赛前打招呼,内维尔也是不理,专注于赛事.<br>前年吧,和阿森纳踢比赛,队长鲁尼也是不理阿森纳队员的招呼,专注于比赛,但同时别的同国家球员自顾自打招呼.<br>这种比赛前的专注与对立完全冲淡了,现在的球员更多的是为了钱来踢球,而不是像鲁尼这种老红魔老英超球员,为了喜爱的球队来踢球,这种爵爷时代或者说老英超时代留下的铁血精神现在的曼联已经很少了.<br>我表达的也许不到位,但是天下足球或者百度对这些都有介绍,可自行百度. 一楼，卧槽尼玛的，骂曼联你就骂，戴上穆帅我就曹尼玛 撸你撸你 老穆好的就是这一口啊 就是范博梅尔吧，巴萨队长啊。 鲁尼的心情可以理解 节奏狗 鲁尼多伤心啊…… 哈哈，一楼的观点笑死了，没看到过出场前在球员通道寒暄的镜头啊？不要太正常，还对手完赛前不联系，你是来搞笑的嘛 马蒂奇卢卡库博格巴伊布拉丝富德蓬蓬头哪个不是190，一楼看球吗 鲁尼就是个打拳击的有什么本事。。。 鲁尼是曼联的英雄 伊布：1米95，博格巴：1米92，费莱尼：1米95，马蒂奇：1米94，斯莫林：1米94，卢卡库：1米91，德赫亚：1米92，这阵容组个5小配置的篮球队应该都凑合吧。 真不知道是谁没看过球.....<br>热血英超,记得当年曼市德比,转会曼城的舒梅切尔和当时的队长内维尔赛前打招呼,内维尔也是不理,专注于赛事.<br>前年吧,和阿森纳踢比赛,队长鲁尼也是不理阿森纳队员的招呼,专注于比赛,但同时别的同国家球员自顾自打招呼.<br>这种比赛前的专注与对立完全冲淡了,现在的球员更多的是为了钱来踢球,而不是像鲁尼这种老红魔老英超球员,为了喜爱的球队来踢球,这种爵爷时代或者说老英超时代留下的铁血精神现在的曼联已经很少了.<br>我表达的也许不到位,但是天下足球或者百度对这些都有介绍,可自行百度. 鲁尼赛季中表现还是可以的<br>不过能不能够维持就很难说了 都快成曼切斯特天空城队了，还身材小啊 鲁尼是不爱当背景帝吧 现在曼联一堆傻大个，又傻又笨 这批曼联队就像青年那样。身材小，又没一个是关键先生。赢球似乎要看对方运气。 哈哈，你敢说猴子个矮🤙🤙🤙 最熟悉的陌生人是.镜中的自己. 曼联队身材小你是看篮球来的吧 飞人博古特 曼联身材小，一楼看球费电视 你是没看去年圣安跟曼联的欧联比赛，这逼没事就跟他哥哥骚聊 男人好难做人好难<br>白天男子汉晚上汉子难<br>有些承诺看来是要破产<br>可是青春就过了大半 我也有印象，应该是范布隆克霍斯特和德科，不是范博梅尔。 鲁小胖又回埃弗顿了 应该是只看过进球集锦的球迷。 足球是赛前打招呼，赛后跟仇人 你看过？你个傻b。 不过我们打过市区联赛<br>我们师范附中<br>打师范体校<br>其实都属于师范大学下属的<br>一般教练会动员一下<br>意思别看对面体校的，也和我们一样初中生，不用怕<br>那个年代还没通讯技术，基本上是放学回家都不爱一起走了 赛前情人，赛后仇人。要是我们国足就好，一切要安好。哈哈 可能1L有1米9呢 卧槽尼玛的，骂穆里尼奥你就骂，带上曼联我就草泥马 鲁尼就是垃圾 此女车龄35左右，车长大概1米65左右。车况保持一般，内饰较好，车前后保险杠脱落，疑似经常被追尾，排气管黝黑，烧机油严重。发动机巅峰状态，但拉缸严重。30分钟后下排气出水，缸内直喷。新手不建议入手，老司机方可一战，由于使用频率太高，磨损太大，建议要换大号加长加粗活塞，否则油耗高，感觉不到动力，老手能吃苦耐劳的尚可驾驶，新手看看尚可，滤芯儿更换不及时，造成通风不畅，有异味，千万不要轻易去碰，否则遗憾终身，根据我开车20年经验！两大灯少许下垂！打着后发动机噪音过大！缸筒活塞间隙过大！做过全车划痕处理！喷过全车漆！总结：此车长期被人野蛮驾驶，事故车！谨慎！谨慎！！！ 看看广东的身高就知道了 你个广东小矮个还嫌曼联矮…… 英糙还身材小，呵呵呵，就差和篮球一样靠蛮力了。 鲁尼：好大好大，这么大怎么办？<br>波霸：..... 垃圾废物曼联穆鸟🐦都是垃圾废物曼联穆 真不知道是谁没看过球.....<br>热血英超,记得当年曼市德比,转会曼城的舒梅切尔和当时的队长内维尔赛前打招呼,内维尔也是不理,专注于赛事.<br>前年吧,和阿森纳踢比赛,队长鲁尼也是不理阿森纳队员的招呼,专注于比赛,但同时别的同国家球员自顾自打招呼.<br>这种比赛前的专注与对立完全冲淡了,现在的球员更多的是为了钱来踢球,而不是像鲁尼这种老红魔老英超球员,为了喜爱的球队来踢球,这种爵爷时代或者说老英超时代留下的铁血精神现在的曼联已经很少了.<br>我表达的也许不到位,但是天下足球或者百度对这些都有介绍,可自行百度. 拜利？ 这足以说明你没看过球 上次在特拉福德，我下场之后你们狂灌，这次跟你亲热点，埃弗顿输了老子怎么交代？ 黑是黑，但不硬啊 有点尴尬哈哈 垃圾废物曼联穆鸟🐦🐦 可能人家有一些规则，比如再熟络的朋友，一旦是这一场的对手，比赛完之前是不会联系的，记得弗爵爷都是赛后请对方主帅到办公室喝酒的，易建联以前在NBA比赛前遇到姚明，姚明也没理他，可能就是这个道理，博格巴年轻人不管这么多吧！ 看一眼说老子对曼联有旧情，这场比赛会灌水，不看说我冷血，丝毫没有同窗之情。做人好难。 鲁小胖你变了[大哭] 鲁尼：我不是来自东北的 博格巴怕是不知道穆鳥的性格吧 看一眼说老子对曼联有旧情，这场比赛会灌水，不看说我冷血，丝毫没有同窗之情。做人好难。 不要这样，一楼说得那么认真 666 毕竟坚持到下半场才被发现，伪装者。 别整那么尴尬 这足以说明你没看过球 这批曼联队就像青年那样。身材小，又没一个是关键先生。赢球似乎要看对方运气。 你瞅啥 数这么准 博格巴，还有那个爆炸头，还有大奉先，你说曼联矮？巴萨矮我到相信你 但我觉得博格巴更有前途 卧槽，小编怎么知道不是十一眼[微笑][微笑][微笑][微笑] 曼联队身材小你是看篮球来的吧 死磕足球足球有古迪逊公园球场的监控 黑鲁胖的都是些什么人？？？小编在现场？还十眼，咋不说亲上了呢？一带节奏就上当。 可能人家有一些规则，比如再熟络的朋友，一旦是这一场的对手，比赛完之前是不会联系的，记得弗爵爷都是赛后请对方主帅到办公室喝酒的，易建联以前在NBA比赛前遇到姚明，姚明也没理他，可能就是这个道理，博格巴年轻人不管这么多吧！ 各为其主，曾经的岁月不堪回首 "
    },
    "Title": "博格巴看了10眼，但鲁尼就是不理，熟悉的陌生人_网易体育",
    "KeyWords": "博格巴,鲁尼,曼联",
    "Article": "博格巴是足球圈中的“社交帝”，他性格开朗，逢人就能聊，但即便是如此擅长社交的他，也会有“碰壁”的时候。根据《每日邮报》报道，博格巴在古迪逊公园球场的通道内和埃弗顿球员打招呼，看了鲁尼10次，鲁尼都没有和他打招呼。本场比赛，鲁尼回归后第七次担任埃弗顿队长，率队迎战老东家曼联，红魔队长是他的前队友博格巴。博格巴在通道内和施奈德林以及迈克尔-基恩等前队友一一打招呼，也都得到了回应，唯一不同的是鲁尼。当时鲁尼正在神情专注地思考，博格巴至少看了他10眼，可鲁尼甚至没有看一眼博格巴，也没有看其他曼联球员。跟他人社交时，最尴尬的莫过于“热脸贴上冷屁股”，这次一向精于沟通的博格巴也碰到了这种事，而且对方还是曾经并肩作战过的前队友，尴尬程度更是可想而知。但依照博格巴大大咧咧的性格，这次冷场相信并不会对他造成什么困扰。本文来源：网易体育作者：医生责任编辑：朱楷正_NS4807",
    "URL": "http://sports.163.com/18/0102/09/D74SM5LQ00058781.html",
    "PublishTime": "01/02/201809:38:16",
    "Source": "Netease"
}