{
    "Title": "普京为未来俄军装备划重点 核力量最为优先_网易军事",
    "URL": "http://war.163.com/17/1225/09/D6G8ED34000181KN.html",
    "Source": "Netease",
    "Comment": {
        "Total": 769,
        "Reply": 26,
        "Content": "假设世界各国都拥有核武器，国际关系将会是一个什么样的格局？ 霉鬼二崽的阴谋<br><br>实际上石油就是被霉鬼炒作的 不久又会出现一个切尔诺贝利爆炸。 除了用核武器威胁世界，普鸡还能做什么？看来你舔俄普鸡屁股津津有味啊 美帝重点发展防空反导系统是对的，一旦金刚罩起作用，俄锅佬的核威慑就会大打折扣，底气就不那么足了，被吓尿👖也是非常可能的。 普京敢扔一个，随后100个飞向俄罗斯。 已经25年了，结果现在的卢布都快变成手纸了！ 未来的规划，就是鱼死网破。 楼上舔俄普鸡屁股津津有味啊 当年赫鲁晓夫也是这么做的。然而并没有什么卵用！ 起码坑了煞笔几千亿美刀！ 就一刘芒 金刚罩不是主要问题，自爆才是要命的！ 过几年普京就会发现吓死人的核武压根用不上，而常规武器得不到资金保障连一个地区叛乱都难以镇压，总不能在自己国土放核弹吧 核能可以吃吗 不是还没到20年嘛，到了再说，看是用上粮票啦还是统治世界啦 对于有经验的老渔民来说，鱼会死，但网不会破。 不是普京最优先，核力量第二吗？？？ 还有2年。。。 假设曹县能打到美国了，会怎样 给我20年，我将还给你们一个强大的俄罗斯！普京这牛逼吹的！ 假设世界各国都拥有核武器，国际关系将会是一个什么样的格局？ 霉鬼二崽的阴谋<br><br>实际上石油就是被霉鬼炒作的 不久又会出现一个切尔诺贝利爆炸。 经济总量不如广东省 普京敢扔一个，随后100个飞向俄罗斯。 假设曹县能打到美国了，会怎样 楼上舔俄普鸡屁股津津有味啊 就一刘芒 金刚罩不是主要问题，自爆才是要命的！ 过几年普京就会发现吓死人的核武压根用不上，而常规武器得不到资金保障连一个地区叛乱都难以镇压，总不能在自己国土放核弹吧 不是还没到20年嘛，到了再说，看是用上粮票啦还是统治世界啦 对于有经验的老渔民来说，鱼会死，但网不会破。 已经没有能力更新换代常规力量了吧？上次演习的炮弹上都锈迹斑斑。前几年俄罗斯弹药库为什么爆炸？嘴上说意外，实际上普遍认为是弹药缺乏完善的管理，过期弹药引信爆炸造成事故。一个管理混乱的核武库对谁都危险。 再给八国龟孙队一万年、冠军也没我宏远一半！哈哈哈……😄😃😄 这个床位的病人哪去了？ 美帝重点发展防空反导系统是对的，一旦金刚罩起作用，俄锅佬的核威慑就会大打折扣，底气就不那么足了，被吓尿👖也是非常可能的。 除了用核武器威胁世界，普鸡还能做什么？看来你舔俄普鸡屁股津津有味啊 全球一体化。。。。。<br><br>俄罗斯与霉鬼的盒蛋都被太阳系智慧体没收过。。。。。。<br><br>参考百度视频美国核弹被外星人控制,50枚核导弹失控45分钟-UFO与外星人-觉醒 已经25年了，结果现在的卢布都快变成手纸了！ 未来的规划，就是鱼死网破。 还有2年。。。 当年赫鲁晓夫也是这么做的。然而并没有什么卵用！ 核能可以吃吗 给我20年，我将还给你们一个强大的俄罗斯！普京这牛逼吹的！ 不是普京最优先，核力量第二吗？？？ ",
        "Link": "http://comment.war.163.com/news_junshi_bbs/D6G8ED34000181KN.html"
    },
    "Article": "（原标题：普京为未来俄军装备划重点核力量最为优先）资料图：俄罗斯“白杨”-M洲际弹道导弹【环球网军事12月25日报道】“必须大力发展俄罗斯三位一体核力量。”俄罗斯总统普京在22日的国防部会议上表明了俄未来十年国家武器计划发展的重点方向。“今日俄罗斯”电视台23日报道称，普京强调，未来十年国家武器计划中，必须重视为部队装备高精确度的空中、陆地和海上武器，无人打击系统，先进侦察、通信和电子战系统，并关注核力量的现代化。他称，到2017年底，俄三位一体核力量中现代化武器比例达到79%，2021年前，陆基核力量新装备的比例应达到90%，这里指的是能够有效突破导弹防御系统的核导弹系统。俄国防部长绍伊古在会上称，今年在战略核力量建设上，空中核力量新装备了3架现代化改造的远程战略轰炸机。战略火箭军3个团换装了“亚尔斯”机动型战略导弹系统。明年，还将新装备11个此型洲际弹道导弹发射装置。俄罗斯塔斯社报道称，俄空天军前司令邦达列夫称，核威慑系统、高超音速导弹和高精度武器将成为2027年前国家武器计划的优先方向。战略核力量是最为优先的方向，战略火箭军装备更新计划包括：用“亚尔斯”导弹替代“白杨”，装备最新型“萨尔马特”和“边界”战略导弹。(柳玉鹏)本文来源：环球时报-环球网。更多精彩，请登录环球网http://www.huanqiu.com责任编辑：姚文广_NN1682",
    "PublishTime": "12/25/201709:19:37",
    "KeyWords": "普京,武器,导弹,俄军"
}