{
    "Article": "（原标题：普京为俄武器研发“划重点”押注未来高精度武器）参考消息网12月27日报道据俄罗斯《消息报》网站12月25日报道称，俄罗斯总统普京22日在国防部部务委员会会议上表示，发展高精度武器是国家武装计划的优先任务。这样一来，关于俄军发展重点的讨论就此画上句号。国家领导人强调，俄罗斯作好了击退全球非核打击的准备，国防部首次承认在叙利亚使用了“伊斯坎德尔”导弹，并宣布统一航天系统已经建成。在国防部部委委员会扩大会议上，普京和国防部长绍伊古对外国伙伴和本国军工业界发表重要讲话。国家元首指出，国家武装计划的重点不是建造新舰艇和飞机，而是多功能、高效率、高精度的攻击型武器。过去，美国的“即时全球打击”计划被俄罗斯视为重大威胁，但根据国防部会议的说法，在现代化导弹袭击预警系统的帮助下，俄罗斯已经作好击退和反击超高音速导弹的准备。普京在讲话中谈到了新国家武装计划的优先任务。他说，重点应放在为军队配备陆基、海基和空基高精度武器，无人攻击机，单兵作战装备和新型侦察、通信、电子战系统上。图为俄罗斯苏-57战斗机军事专家弗拉季斯拉夫·舒雷金对《消息报》表示：“普京的话终结了近一年来关于新国家武装计划的无数争议。从制订计划开始，俄罗斯国防业界就分成两个阵营：一方主张尽可能多地拨款制造坦克、大炮、飞机、直升机等‘新平台’；另一方要求把这方面拨款减少到合理水平，把最多的资金用于制造可控弹药、巡航导弹、弹道导弹和高超音速导弹等高精度武器上。可以说，即使是老式飞机，在装备高精度弹药和导弹后也将获得强大能力。普京给国防业界近来趋于白热化的争论画上句号——他支持发展高精度武器。”绍伊古在讲话中也主张发展高精度武器。国防部长指出，打击武装分子重要设施的正是高精度武器，如“口径”、X-101、“伊斯坎德尔”和X-55导弹。值得一提的是，他首次公开承认在叙利亚使用了“伊斯坎德尔”战役战术导弹系统。此前，国防部否认对“伊斯兰国”组织使用了这种武器。以“平台”和“弹药”来区分现代化武器已经不新鲜了。独立军事专家安东·拉夫罗夫对《消息报》表示：“如果说以前平台和弹药密不可分，那么随着高精度武器的问世，二者的生产商之间已经出现激烈竞争。比如，国家既可以购买新战机，也可以购买高精度导弹而放弃新飞机和其他武器。建造平台然后提供售后和改造服务，对军工企业来说更有利。”之前的国家武装计划侧重于制造平台。国防部将获得60架T-50歼击机、120架苏-35S歼击机、60架苏-30SM歼击机、37架米格-35歼击机、24架米格-29K/KUB舰载歼击机，以及约140架苏-34前线轰炸机。同时，对研制新型空袭武器的拨款则少得多。本文来源：参考消息网责任编辑：姚文广_NN1682",
    "Source": "Netease",
    "KeyWords": "武器,普京,导弹,歼击机",
    "Title": "普京为俄武器研发“划重点” 押注未来高精度武器_网易军事",
    "Comment": {
        "Total": 346,
        "Content": "軍火商发财不等于米的老百姓发财也不等于米府发财 为了特权，不惜一切，哪怕是认洋祖宗出卖领土和民族灵魂！<br>否则，很难解释卖国黄恶的所作所为。<br>就连一向沉稳的默克尔都忍不住送地图表达内心的不解和鄙视！ 没道义，武器好有用吗？！-----尼古拉二世武器很差吗？！ 小词拽的，好像那么回事似的，可惜还是改变不了你赚美分的可耻 一百多个国家反对美国承认耶路撒冷是以色列首都，川普因此大幅减少联合国经费 穷兵赎武死路一条... 感觉这句话非常适用于美国。 再来个20年 君子。言必行，行必果。当今如何之男子少之又少，当今如此之政客绝无仅有！选举许诺已成十件，何人敢掠其锋？川普，真大丈夫也！ 所谓的高精度就是先轰炸然后再圈目标 因为没时间复习所有的内容了<br><br>只能把有限的银子用在重点上 普京还需要20年 人家有人愿意买单，给别人当冤大头。 普京敢扔一个，随后100个飞向俄罗斯。 为了特权，不惜一切，哪怕是认洋祖宗出卖领土和民族灵魂！<br>否则，很难解释卖国黄恶的所作所为。<br>就连一向沉稳的默克尔都忍不住送地图表达内心的不解和鄙视！ 那恐怕你十代以内都看不到的。 20年后发现敌人又多了一打，就和国土一样。 一百多个国家反对美国承认耶路撒冷是以色列首都，川普因此大幅减少联合国经费 不说美帝大发战争财么？美帝经济越来越好，俄底越来越差，那句话适合谁呀？ 一百多个国家反对美国承认耶路撒冷是以色列首都，川普因此大幅减少联合国经费 穷兵赎武死路一条... 再来个20年 这算个毛的重点，这是现在最基础的常识好吗？<br><br>建议俄罗斯选我当他们的总统，我能画出比普京这个重点高明十倍的俄罗斯发展计划。 君子。言必行，行必果。当今如何之男子少之又少，当今如此之政客绝无仅有！选举许诺已成十件，何人敢掠其锋？川普，真大丈夫也！ 看来普鸡也是无所不能啊，仅次于我们。 不用看就知道，一定是重点发展核武器。 人家有人愿意买单，给别人当冤大头。 小词拽的，好像那么回事似的，可惜还是改变不了你赚美分的可耻 少花钱多办事。 20年后发现敌人又多了一打，就和国土一样。 为了特权，不惜一切，哪怕是认洋祖宗出卖领土和民族灵魂！<br>否则，很难解释卖国黄恶的所作所为。<br>就连一向沉稳的默克尔都忍不住送地图表达内心的不解和鄙视！ 要和你 軍火商发财不等于米的老百姓发财也不等于米府发财 普京还需要20年 没道义，武器好有用吗？！-----尼古拉二世武器很差吗？！ 因为没时间复习所有的内容了<br><br>只能把有限的银子用在重点上 一百多个国家反对美国承认耶路撒冷是以色列首都，川普因此大幅减少联合国经费 那恐怕你十代以内都看不到的。 所谓的高精度就是先轰炸然后再圈目标 普京敢扔一个，随后100个飞向俄罗斯。 为了特权，不惜一切，哪怕是认洋祖宗出卖领土和民族灵魂！<br>否则，很难解释卖国黄恶的所作所为。<br>就连一向沉稳的默克尔都忍不住送地图表达内心的不解和鄙视！ 感觉这句话非常适用于美国。 ",
        "Reply": 24,
        "Link": "http://comment.war.163.com/news_junshi_bbs/D6LG3HG8000181KT.html"
    },
    "PublishTime": "12/27/201710:09:46",
    "URL": "http://war.163.com/17/1227/10/D6LG3HG8000181KT.html"
}