{
    "Source": "Netease",
    "KeyWords": "ufo,美国,星飞船,飞行物",
    "Title": "美国UFO计划前负责人：外星飞船真的存在！_网易新闻",
    "PublishTime": "12/25/201714:33:00",
    "URL": "http://news.163.com/17/1225/14/D6GR2C0B000187V9.html",
    "Article": "（原标题：美国UFO计划前负责人：外星飞船真的存在！）外星人真的存在？美国国防部早前承认，曾斥资调查不明飞行物(UFO)。据英国《每日快报》12月24日报道，美国政府“先进航空威胁识别计划”前负责人路易斯·埃利桑多(LuisElizondo)表示，他认为外星飞船真的存在。他说：“在我看来，如果现在是在法庭上，我们已经到了‘合理怀疑’的阶段。我讨厌用‘不明飞行物’来称呼它们，因为我们真的看见了。”他补充道：“我相当确定这些飞行物不是我们国家的技术，也不是其他国家的技术。所以我们不禁要问，它们来自哪里。”据报道，虽然还有大量的细节仍在保密，但埃利桑多透露，这项工作已经取得了相当大的进展，足以测定相关的行为模式。他说：“我们能够看到事情发展的趋势，以及各相关事件间的相似之处，这就足够了。”他补充道：“我们可以看得很清楚，这些飞行物有极端的机动性、不会产生音爆的高超音速、时速每小时7000(11000公里)到8000英里(13000公里)……”他表示：“有很多证据可以证明这一点，包括雷达信号、飞机的摄像机镜头以及目击证人。”埃利桑多认为，“它们还没有显示出任何敌意，但操纵方式却是世界上其他任何人都做不到的，你(人们)必须意识到将来会发生什么。”据香港“东网”报道，民主党内华达州前参议员里德认为UFO关乎美国的国家安全利益，故大力促成“先进航空威胁识别计划”的成型。计划在2007年开始，至2012年结束，共花费2200万美元(约合14420万人民币)。本文来源：环球时报-环球网。更多精彩，请登录环球网http://www.huanqiu.com作者：查希责任编辑：韩佳鹏_NN9841",
    "Comment": {
        "Content": "那是你见识少，清晰的多了去了… 宇宙之太大了，任何东西事物都可能出现可以出现，科幻的东西现在无数的都变成了现实，没有发生不了的事情，只有人类想不到的事情，当外星人突然站在我们面前的时候，不是傻逼，而是傻眼了。 颤抖吧！渺小虚弱的人类！ 你们根本不懂这个世界的本质，所有说见过外星人的都可以无视 然而每当说到外星人，没有一张高清的照片或视频！ 兄弟，你怎么躺着尿尿？[大笑] 问题是蚂蚁还没有觉悟。。。。。。。。。四处找死 妖风的推手。 存在就存在被，难不成存在了就不用苦逼的活了？？ 你才蠢材，地球的资源外围星球上都有，如果一定要来地球那一定不会有好心。 我高中的时候也见过，整个班都看到了。 是真的么？ 是的，我当时也看到了 放心，我们比老虎聪明，老虎不是被我们保护着 如果地球一统了，人类的生产力，我敢肯定比现在高数陪，地球上的利益只是宇宙中的一粒沙，可偏偏人类为了一粒沙的利益，你争我斗，血流历史。人类要想得到最大的利益，必须先统一，然后集中生产力，飞向未来。地球统一的那天，星际技术自然会出现 楼上思维太奇怪了，就不能尿尿时抬头看天上？ 即使存在，除了位置问题，还有时间问题，不一定跟我们地球人处在同一时期，也许存在过，也许未来出现。 小学一年级的时候在寄宿学校，排队去寝室的时候，停下来整队，看见了一颗在夜空中移动的星星。告诉同学，同学也看见了，一会儿，星星停止了移动。你可以翻我的发言记录，我不胡编。 不要拿你的野蛮思维去代替别人的思想，蠢才！ 三体最后的描述才有意思，科技越高，越感觉自己象老鼠一样的躲在角落里，想方设法的消灭别人的世界！ 我相信外太空真是神秘的世界 2003年抢的板蓝根还没有喝完，口罩还没有用完 抗美援朝时期，志愿军抓了一些外国俘虏，在后期的改造中，人民教导员教育改造他们：我们人是古猿进化而来的，俘虏们头次听说，一脸懵逼状态！ 我小时候大概小学吧，夏天和几个伙伴在外面聊天。我看见天空北斗七星的第六颗星星飞走了，然后又飞过来一颗补到那个位置！<br>疑惑到现在，发誓亲眼所见，绝无瞎话！ 超过第三宇宙速度的陨星穿过大气层？ 我们一样的经历。初中时晚上睡前出来尿尿，那时候冬天还没什么雾霾，天上的星星看的很清楚。我就边撒尿边抬头看星星，一个点点一开始一动不动，突然拐了个弯很快的飞走 我觉得那种高等文明应该就像我们现在用的计算机，或许他们已经脱离了肉体把自己的思维植入到计算机里，这样即使设备坏了可以把内存转移到新的设备里实现永生，这也可以理解为什么UFO高速运动里面的驾驶员能承受的起那么大的过载，或许我们看到的就是一架飞行器里面根本没有肉体生命，操纵它的就是一个计算机，，，， 看看三体就知道 黑暗森林 下一項跟风去买长城车吧 找到就是作死，文明比你先进，科技比你强大，不灭你就要烧香了 宇宙那么大，说没有才不信呢…… 不想活在地球🌍了[被黑][被黑] 我是亲眼见过，有一晚半夜发现有颗星星挂在空中，总感觉有点不同，说不上来。盯着看十多分钟一动不动，正以为自己想多了，突然高速平移，消失在视野里，整个过程毫无声息 好莱坞拍的很多高清的。本文都说机密了，会拿出来？有骗经费的嫌疑。 不灭都不符合宇宙规律，留着低等级浪费资源吗？ 并不是所有文明都是以毁灭其他文明为目的。也许人类只是人家的一个试验品？谁知道呢。 ：我要宣布一件事情，大家还记得2011年的抢盐的事情吗？我家里的盐在今天，就是今天，终于吃完了，吃完了呀！我的个亲娘啊！终于给吃完了。​​​ 不知天高地厚的，才是真傻逼 你这个解释很新颖哦！有可能吧！不过还是希望是善良的。不然分分钟秒杀我们地球 没准就像小说里面，我们是第三纬度，人家是第六纬度，穿过大气层随便跳一下就过去了，我们换算出来就是速度超快。我们就像纸面的蚂蚁一样呗 我没见过，但相信它的存在。 看到的那不是外星人，而是未来的人类，他们的飞行器突然出现在我们的维度里。 吃得真快！血压应该很高了吧 也许人家不屑于，已经超出人类的认知 我们家03非典时期的盐还有三麻袋[不屑][不屑] 肯定存在撒 感觉就是为了骗取经费的！ 那是你见识少，清晰的多了去了… 外星人逃离飞船后,被秘密俘获,不过目前没有报道? 颤抖吧！渺小虚弱的人类！ 然而每当说到外星人，没有一张高清的照片或视频！ 兄弟，你怎么躺着尿尿？[大笑] 凡是关于外星人的照片和视频都是模糊不清的 颤抖吧，地球人！ 美爹说有，那就一定有! 看不懂，什么2007年开始，2012年结束。 我高中的时候也见过，整个班都看到了。 是真的么？ 事实证据呢?我还看见鬼了呢，但是没抓住！ 放心，我们比老虎聪明，老虎不是被我们保护着 你好，我在04年非典时期购买的板蓝根和醋到现在还没用完，你很不错了！ 我看过一个纪录片，科学家早有这种设想，外星人文明可能发展到不一定像人类以肉体存在，而是以人类无法理解的一种形式存在。就像你理解的把思想植入计算机，而把思想转换成数据，理论上是可行的，只是相当的庞大，目前人类的计算机还做不到。 楼上思维太奇怪了，就不能尿尿时抬头看天上？ 事实证据呢?我还看见鬼了呢，但是没抓住！ 即使存在，除了位置问题，还有时间问题，不一定跟我们地球人处在同一时期，也许存在过，也许未来出现。 是的，我当时也看到了 2003年抢的板蓝根还没有喝完，口罩还没有用完 ：我要宣布一件事情，大家还记得2011年的抢盐的事情吗？我家里的盐在今天，就是今天，终于吃完了，吃完了呀！我的个亲娘啊！终于给吃完了。​​​ 我小时候大概小学吧，夏天和几个伙伴在外面聊天。我看见天空北斗七星的第六颗星星飞走了，然后又飞过来一颗补到那个位置！<br>疑惑到现在，发誓亲眼所见，绝无瞎话！ Waix 早就知道了 近地卫星，小时候眼睛好，经常看见 虽然我也见过，但是没有实物就是死无对证啊 超过第三宇宙速度的陨星穿过大气层？ 血压没高，但是一楼能飞了，还长出一生物雷达来。 我们一样的经历。初中时晚上睡前出来尿尿，那时候冬天还没什么雾霾，天上的星星看的很清楚。我就边撒尿边抬头看星星，一个点点一开始一动不动，突然拐了个弯很快的飞走 那不是外星飞船,是个热气球飞艇. 都是我大帝国的修仙人士的玩具[大笑][大笑] 我真想说句话，能不能拿点东西出来别天天放屁。 你家真2B 😜😜😜 骗经费的吧，哈哈😄 不灭都不符合宇宙规律，留着低等级浪费资源吗？ 找到就是作死，文明比你先进，科技比你强大，不灭你就要烧香了 我是亲眼见过，有一晚半夜发现有颗星星挂在空中，总感觉有点不同，说不上来。盯着看十多分钟一动不动，正以为自己想多了，突然高速平移，消失在视野里，整个过程毫无声息 好莱坞拍的很多高清的。本文都说机密了，会拿出来？有骗经费的嫌疑。 千万不要被我们发现。否则就解放了他们 靠磁场飞行 并不是所有文明都是以毁灭其他文明为目的。也许人类只是人家的一个试验品？谁知道呢。 哈哈哈，这个我信，我记得你还捡起石头打掉一个呢，后来你还跟人说后悔了。 这个负责人隐瞒了一个最重大的科技信息：该飞船上有个2维码，用3维镜头扫描和6维软件读取的话，马老板就会自动放弃全部身家，飘然进入飞船。。。你们的余X宝一点也不受影响 我们家03非典时期的盐还有三麻袋[不屑][不屑] 你这个解释很新颖哦！有可能吧！不过还是希望是善良的。不然分分钟秒杀我们地球 没准就像小说里面，我们是第三纬度，人家是第六纬度，穿过大气层随便跳一下就过去了，我们换算出来就是速度超快。我们就像纸面的蚂蚁一样呗 那只是我们地球人的认知啊 来寻找宇宙第一真理来了 小学一年级的时候在寄宿学校，排队去寝室的时候，停下来整队，看见了一颗在夜空中移动的星星。告诉同学，同学也看见了，一会儿，星星停止了移动。你可以翻我的发言记录，我不胡编。 你好。非典是03年 吃得真快！血压应该很高了吧 也许人家不屑于，已经超出人类的认知 放心，我们比老虎聪明，老虎不是被我们保护着 那是我放的夜光风筝 外星人的飞行器是发光的，是靠光子推进。 环球时报发的消息从来就没靠谱过 呵<br>呵<br>！<br>美国本身就是不明物体！<br>在世界上乱窜！ 宇宙之太大了，任何东西事物都可能出现可以出现，科幻的东西现在无数的都变成了现实，没有发生不了的事情，只有人类想不到的事情，当外星人突然站在我们面前的时候，不是傻逼，而是傻眼了。 烧香，祷告保你不会被灭 很多都真的存在 你们根本不懂这个世界的本质，所有说见过外星人的都可以无视 这会不会是环球屎报今年唯一真话😂 流氓国家的阴谋 时间是没有方向的，过去，现在和未来分别存在与不同维度里，也就是平行宇宙。由于某种特殊原因未来的飞行器闯入现在的维度，于是被看见了。曾经也有报道说飞行员报告说看到了二战的机群在天上飞，这就是处于现在维度得人闯入了过去的维度。 肯定存在撒 存在就存在被，难不成存在了就不用苦逼的活了？？ 你才蠢材，地球的资源外围星球上都有，如果一定要来地球那一定不会有好心。 关进动物圆跟老虎对咬看谁厉害 怎么了呀 这就是人类命运共同体得最高境界 既然外星人这么发达，那肯定是知道地球有生物了，不接触地球人只能是因为它们根本就没兴趣理你，就象人类对路边的蚂蚁一样。<br>所以找不找到外星人对于人类的命运无关紧要。 说实话，2千多万美元的经费也就只够一个三五人的研究小组一年的开支，我并不清楚能有什么长足进展，不过话说我是相信外星人的，我希望看到不可推翻的证据，如此世界大战都将可能避免 近视眼看见了萤火虫 你会想着去破坏蚂蚁的家园吗？ 是调皮捣蛋的孩子开着老爸的飞船出来晃荡，回去他老爸屁股都要打肿，违反了星际法律，不仅要罚款，坐牢，还有禁飞时间、空域惩罚。人类就是他们培养器皿中的多单细胞生物，怎么可能来打扰你在里面吃喝拉撒睡。 我相信外太空真是神秘的世界 ：我要宣布一件事情，大家还记得2011年的抢盐的事情吗？我家里的盐在今天，就是今天，终于吃完了，吃完了呀！我的个亲娘啊！终于给吃完了。​​​ 看一楼跟帖 废话，当然得说存在，不然他这个UFO计划的资金哪来 超过第三宇宙速度的陨星穿过大气层？ 傻逼，艹 跟地球大？ 如果地球一统了，人类的生产力，我敢肯定比现在高数陪，地球上的利益只是宇宙中的一粒沙，可偏偏人类为了一粒沙的利益，你争我斗，血流历史。人类要想得到最大的利益，必须先统一，然后集中生产力，飞向未来。地球统一的那天，星际技术自然会出现 然后当对方到达地球，进入和我们相同的维度时就被挤死了 外星生物没有艺术没有文化没有信仰没有伦理只有技术 用自己固有的思想去揣测外围的事物这样你永远没有突破性的发展。想想封建社会就知道我们有多么的愚昧和无知，所以，不管他们用意如何，他们也藏在我们中间，如果我们不打开理解的态度和平和的心态，那我们如何去和未知的事物接触？ 看看三体就知道 中国人明年（2018年10月1日前）第一台国产UFO试飞，到时候一定会举国欢庆。 无人 我觉得看到的不明飞行物之类的是存在于人类的平行空间，由于环境因素影响在某一瞬间超生平行空间错位，就看到了不明飞行物 前几天美国军方披露了一段视频，视频中一个不明飞行物，在空中以极快的速度做出各种不可思议违法各种物理定律的高难度动作。疑似在调戏美国2架跟踪的大黄蜂战机。 我今晚就去会会她 下一項跟风去买长城车吧 找到就是作死，文明比你先进，科技比你强大，不灭你就要烧香了 宇宙那么大，说没有才不信呢…… 糊弄了我这么多年一次真的也没有见到我还能信吗 不想活在地球🌍了[被黑][被黑] 我是亲眼见过，有一晚半夜发现有颗星星挂在空中，总感觉有点不同，说不上来。盯着看十多分钟一动不动，正以为自己想多了，突然高速平移，消失在视野里，整个过程毫无声息 美帝的教授也是一个德行 三体最后的描述才有意思，科技越高，越感觉自己象老鼠一样的躲在角落里，想方设法的消灭别人的世界！ 抗美援朝时期，志愿军抓了一些外国俘虏，在后期的改造中，人民教导员教育改造他们：我们人是古猿进化而来的，俘虏们头次听说，一脸懵逼状态！ 不知天高地厚的，才是真傻逼 宇宙大到超乎想象，可能我们和最近的外星人都相聚10000000000000光年 蚂蚁就做蚂蚁该做的事就好，人类不用再找外星人来证明人类的卑贱了。知足常乐，难得糊涂，用在人类身就也正合用的。 黑暗森林 没准就像小说里面，我们是第三纬度，人家是第六纬度，穿过大气层随便跳一下就过去了，我们换算出来就是速度超快。我们就像纸面的蚂蚁一样呗 我没见过，但相信它的存在。 看到的那不是外星人，而是未来的人类，他们的飞行器突然出现在我们的维度里。 有没有一说，关没观测到一说。要批判这个言论，美国的这一观测计划负责人对他来说，肯定是说有ufo，赶紧继续启动计划，继续拨款。对他来说最有利。当然也不能就此否定，在没看到科学共同体认证的外星人之前，不承认目前已经发现了外星人。 连个图都不配。 吃得真快！血压应该很高了吧 不要拿你的野蛮思维去代替别人的思想，蠢才！ [大笑]抓到就是一顿打 妖风的推手。 英国每日快报都是脑残报刊好么，又支持分裂中国，又支持穆斯林恐怖。又说尼斯湖水怪 宇宙MB，海底来的 宇宙那么大，肯定有外星生命 相信永远都是UFO，因为从没见过有说服力的视频或图片，都是些看不清的，不明飞行物。 没准就像小说里面，我们是第三纬度，人家是第六纬度，穿过大气层随便跳一下就过去了，我们换算出来就是速度超快。我们就像纸面的蚂蚁一样呗 有没有和我们有个屁关系，有的话你又找不到，找不到还天天说有什么用哎 问题是蚂蚁还没有觉悟。。。。。。。。。四处找死 特靠谱不说，我不信 ....... 超过第三宇宙速度的陨星穿过大气层？ 应该有外星人 史前人类文明而已，不要太多担心，人家已经有了星际之门，不明飞行物只是他们的汽车 骗谁？ ",
        "Reply": 124,
        "Link": "http://comment.news.163.com/news2_bbs/D6GR2C0B000187V9.html",
        "Total": 1024
    }
}