{
    "Title": "中国性学教父：女性文化程度越高，无性的人越多_网易科技",
    "URL": "http://tech.163.com/17/1226/09/D6IQ7AS400097U7R.html",
    "Source": "Netease",
    "Comment": {
        "Total": 1132,
        "Reply": 76,
        "Content": "女人一旦考上研究生，研究生及以下的男人就自动归入鄙视链里了，所以追不上很正常咯。 不是五个傻逼吗 同性越多 我跟一楼差不多咯。。。喜欢个中南的直博小姑娘。本科双非而且还是专硕的就感觉被鄙视😭 之前有篇文章不是说出轨率最高的职业是教师然后是家庭主妇吗？ 呀，女性文化程度低是不是就老是挨炮 最高是家庭主妇，然后是教室行列。 你想多了 女的出轨率已经世界第一了！ 哈哈哈，没什么难不难骗，只看你有没有吸引到她的地方[大笑][大笑][大笑] 每天都看到那些女的转发什么好看的皮囊千偏一律，有趣的灵魂万里挑一，也不看下自己[狗] 此言差已，能不能撩妹纸和你和她的学历并无关系，我约过的研究生也不少，和妹纸相处主要是要懂得投其所好，知道妹纸需要的是什么，想听你对她说的又是什么，不要撩妹技术本来就差，还要整天埋怨妹纸高冷，瞧不上你，现在的很多妹纸，自身条件并不差，所以靠一点小恩小惠是上不了床的，主要还是要看自身的撩妹技术，当然，高冷的妹纸也有，但是相信我，那是少数，大多数你觉得是女神的妹纸，其实只是你不会撩而已，不然一样可以约一发，关键还是要提升自己的情商啊。 现在有几个传统女，兄弟，你还是多去了解了解现在的女人吧，所谓的传统女性，都不过是长得没法看的，又长得过去，又传统的女人，比熊猫还少 哈哈哈，让我来[色色][色色][色色] 思想越来越复杂，所以古人教育后人，女子无才便是德，蕴含着巨大的意义 用过震动棒算没有性生活么？ 毕竟灭绝师太不是白叫的 你有多封建？社会在发展时代在进步，这句话完完全全就是歧视，有些二货或渣男还当成经典。<br>大部分男性结婚的对象，还是想要找优秀的女性。至于无才低智的……再有德也不要。会拖累男人一辈子的。 这…… 我怎么感觉文化越高，越容易有性呢？ 一本正经的为渣男贱女开拓还上升到理论高度可以去看看动物世界了这不是专家向往的嘛 我不觉得这样有啥不好，一旦学习了西方性解放思潮，那种能令男人动心的中国传统女的基本也就快灭绝了！ 女人文化高骗炮就越难骗 又要回归母系社会咯！ 不管男女成年人每天生活压力这么大谁还有性趣。 我是渣渣辉～我系古田乐，贪玩蓝月，你没有玩过的船新版本[微笑] 古话说:女子无才便是德，这个话将来还是经典！ 对头了，日完还要主动放手，跟她说让她去追求更大的世界，更高的理想 哈哈哈哈哈哈 考研之前分手了，到现在两年多了还单着。身边的研究生女生看好的都太难追了。 俗话说:当背叛已经发生，其实原谅已经没有什么意义。引用俄罗斯总统普京大帝曾说过一句话：“原谅她是上帝的事情，而我的任务是送她去见上帝！”一次的背叛和一百次的背叛，其实没有什么很大区别。出轨是没有回头路，最终孤独终老吧。 一楼达不到那个点 越没文化，几率越大！ 女人文化越高，价格就越贵 。。 这都不重要，我就想知道怎么才能屏蔽陈小春，张家辉，古天乐，孙红雷与刘烨这五个传奇玩家 妇科病不仅不少反而更多 这是我当年能把老婆从山沟里骗出来的原因[刷卡] 这就是给别人绿帽的理由 在她考研之前一定要下手日了她 是人口最多的国家，也是性教育最落后的国家 现在的都有了 老夫当年学生物课的时候，那篇课文老师是跳过的，盼了很久盼来了一节自习课。 女人一旦考上研究生，研究生及以下的男人就自动归入鄙视链里了，所以追不上很正常咯。 最高是家庭主妇，然后是教室行列。 哪是你颜值、逼格、才华不够高，money不够多。。。 我跟一楼差不多咯。。。喜欢个中南的直博小姑娘。本科双非而且还是专硕的就感觉被鄙视😭 之前有篇文章不是说出轨率最高的职业是教师然后是家庭主妇吗？ 呀，女性文化程度低是不是就老是挨炮 同性越多 女的出轨率已经世界第一了！ 沈阳那个，找处女传统女，别去大城市，也别去农村。四线小镇里太多了，一抓一大把。 现在也没几个，bizemzishou 我是渣渣辉～我系古田乐，贪玩蓝月，你没有玩过的船新版本[微笑] 我怎么感觉文化越高，越容易有性呢？ 一本正经的为渣男贱女开拓还上升到理论高度可以去看看动物世界了这不是专家向往的嘛 我不觉得这样有啥不好，一旦学习了西方性解放思潮，那种能令男人动心的中国传统女的基本也就快灭绝了！ 女人文化高骗炮就越难骗 每天都看到那些女的转发什么好看的皮囊千偏一律，有趣的灵魂万里挑一，也不看下自己[狗] 进入游戏，@他们，右键点击他们名字，选择屏蔽。不谢 古话说:女子无才便是德，这个话将来还是经典！ 你确定你看的不是岛国动作片？ 哈哈哈，没什么难不难骗，只看你有没有吸引到她的地方[大笑][大笑][大笑] 考研之前分手了，到现在两年多了还单着。身边的研究生女生看好的都太难追了。 一楼达不到那个点 听老司机话，想找那种传统的处女，不要去大城市，也不要去农村。就去三四线小镇，一大把。 是要求高，谁也看不上 这都不重要，我就想知道怎么才能屏蔽陈小春，张家辉，古天乐，孙红雷与刘烨这五个传奇玩家 嗯，挺好，娶目不识丁的女人，连孩子功课都不会教。继续教出不会读书混日子的第二代，真好 二楼还很幼稚，不懂生活是什么。 那特么就单着吧！ 😂 老夫当年学生物课的时候，那篇课文老师是跳过的，盼了很久盼来了一节自习课。 不是五个傻逼吗 用过震动棒算没有性生活么？ 你想多了 此言差已，能不能撩妹纸和你和她的学历并无关系，我约过的研究生也不少，和妹纸相处主要是要懂得投其所好，知道妹纸需要的是什么，想听你对她说的又是什么，不要撩妹技术本来就差，还要整天埋怨妹纸高冷，瞧不上你，现在的很多妹纸，自身条件并不差，所以靠一点小恩小惠是上不了床的，主要还是要看自身的撩妹技术，当然，高冷的妹纸也有，但是相信我，那是少数，大多数你觉得是女神的妹纸，其实只是你不会撩而已，不然一样可以约一发，关键还是要提升自己的情商啊。 不好騙了🙃 所以还不如去日本！日本女性出轨率远远没中国高！只要你在日本找到处了那就恭喜你了！ 思想越来越复杂，所以古人教育后人，女子无才便是德，蕴含着巨大的意义 哈哈哈哈哈哈 这么多女的，就非要找女研究生呀 你有多封建？社会在发展时代在进步，这句话完完全全就是歧视，有些二货或渣男还当成经典。<br>大部分男性结婚的对象，还是想要找优秀的女性。至于无才低智的……再有德也不要。会拖累男人一辈子的。 说的对，考博士吧嘿嘿 也是最爱做梦的国家 又要回归母系社会咯！ 我比较蠢，上面砖家说了，男性一夜情比例增加大，女性却增加少！特妈的，难道增加的男性跟人妖搞？ 对头了，日完还要主动放手，跟她说让她去追求更大的世界，更高的理想 都往金字塔尖找，问题塔尖才几个人？你自己属于塔尖嘛？这就是女人的思维方式，只管自己欲望，不尊重客观现实。 你想怎么教育 俗话说:当背叛已经发生，其实原谅已经没有什么意义。引用俄罗斯总统普京大帝曾说过一句话：“原谅她是上帝的事情，而我的任务是送她去见上帝！”一次的背叛和一百次的背叛，其实没有什么很大区别。出轨是没有回头路，最终孤独终老吧。 越没文化，几率越大！ 没有道德操守，为什么要骗，伤害良家素人的感情，有没有考虑其他兄弟的利益?正常约很多女孩子还是能约的到的，谨记。 对对对，说的对，女的也不看下自己 大扎好，我系轱天乐，我四渣嘎辉，探挽懒月，介四里没有挽过的船新版本，挤需体验三番钟，里造会干我一样，爱象借款游戏。 难怪现在越来越泡不到妹妹了 百分之七啊，真有这么多吗？我怎么一个没遇到过 是人口最多的国家，也是性教育最落后的国家 这是我当年能把老婆从山沟里骗出来的原因[刷卡] 现在的都有了 被图骗进来的举手🙌 妇科病不仅不少反而更多 不支持不反对 一派胡言 考研之前分手了，到现在两年多了还单着。身边的研究生女生看好的都太难追了。 现在也没有几个了好吧？ 而这正是中国常有的现象。我们做过调查，中国夫妻中，只有30%是真的相爱的，剩下70%根本不相爱，但是他们也过性生活。??? 。。 哈哈哈，让我来[色色][色色][色色] ooxx还得磨磨叽叽整这整那，谁有空跟你浪费时间呀 女人文化越高，价格就越贵 这就是给别人绿帽的理由 是人口最多的国家，也是性教育最落后的国家 毕竟灭绝师太不是白叫的 不管男女成年人每天生活压力这么大谁还有性趣。 这…… 我不觉得这样有啥不好，一旦学习了西方性解放思潮，那种能令男人动心的中国传统女的基本也就快灭绝了！ 女人文化高骗炮就越难骗 对啊不需要取悦男性了啊性本来就是内心感受多一些<br>我女朋友从和我在一起到现在，越来越有感觉慢慢喜欢上了亲热<br>这时候，性才是真正为感情起到正面的作用 ",
        "Link": "http://comment.tech.163.com/tech_bbs/D6IQ7AS400097U7R.html"
    },
    "Article": "（原标题：「中国性学教父」：女性文化程度越高，无性的人越多）潘绥铭67岁了，从1985年在中国人民大学率先开设《性社会学》课程起，一直从事性社会学研究。这也是中国性观念发生巨变的年代。2000年起，这位被称为「中国性学教父」的学者率队，每5年进行一次「中国人的性生活与性关系」总人口随机抽样调查。在这项历时够长、问题具有可比性的研究中，中国人的性变化被折射了出来。看起来越来越多的中国女性向往美剧《欲望都市》的生活方式，数据却显示了更多面的图景：10%左右的中国女性，到30岁还没有过性生活，而且数据还在增长；市面上针对女性的情趣玩具越来越多，购买主体却不是女性。中国女性的情欲世界怎么了？采访｜陈墨金虹羽编辑｜金焰插画｜晁春彬《人物》：在你的研究中，30年来，中国女性的性发生了怎样的变化？潘绥铭：总的来说，我觉得最大的不同是，现在越来越多极化，而且极跟极之间差别越来越大。我们发现，27-35岁的人当中，无论男女，有10%的人从来没有过性生活，女性增幅远远高于男性，而且还在继续飙升。在女性群体中，文化程度越高，无性的人越多。这有主客观两方面原因。一方面，受教育越多、年龄越大，越有各种各样的顾虑、各种各样的衡量、各种各样的恐惧。另一方面，受教育程度越高，能在一起交流的人其实也相对变少了。但是同时，女人一生中有过多伴侣的人，在2000年的时候只有9.0%，可是在短短15年之后就达到30.5%，增加两倍还多。纵向比的话，总体状况比过去好多了。30年前，连夫妻过性生活这事儿都不能承认，现在起码大家不再羞于承认有性生活这回事，而且也希望为更好的性生活努力，这个进步就不小了。《人物》：这些年来，最让你意外的变化是什么？潘绥铭：最意外的是中国的婚外恋，无论男女，比例都在上升。尤其妻子的婚外恋，是全世界比例最高的。中国大约每3个丈夫和每7.5个妻子中，就有一个曾经出轨。值得一提的是，中国女性的婚外恋大部分是自己发起的，是真正的婚外恋，但是又有一大堆顾虑不敢离婚，很可能是出于无奈。我认为，其实是强求白头偕老的婚姻制度不合理。在发达国家，越来越多的人早就想清楚这个问题了。如果爱上婚外之人，自然就是解除原有的婚姻，再与那人结婚，所以根本就缺少偷偷摸摸搞婚外恋的需求。所以国外离婚和再婚的比例越来越高，一生中多次结婚的人越来越多，但是在每一次婚姻中双方都可以做到专一。《人物》：什么样的人更容易发生婚外恋？是那些对婚内性生活不满意的人吗？?潘绥铭：不能一概而论。一个比较有意思的发现是，婚内性生活满意的女性倾向于不去出轨，而男性婚内越满意越容易出轨。也就是女性倾向于把性生活满意集中在特定的人身上，认为是跟这个人这么好，跟另外一个人不一定。而男性相反，他会认为是自己能力强，跟别人也会很好，然后就老想出去证明证明。《人物》：除了出轨，女性对性生活不满意还有其他解决方式吗？比如自慰？潘绥铭：在女性自慰的调查中，我们发现了一个很奇怪的现象。从2000年到2015年，有过自慰的中国女性比例一路下滑，2000年时，有三分之一左右的女性有过自慰，2015年，这个比例减少了近10个百分点。如果单就已婚/同居的女性来看，在21世纪前10年中，自慰的比例一直在上升，但在2010到2015年期间，比例却在下降，而且减幅还不小。这其中的原因，说实话，我还没有搞清楚，也许是一些替代方式增加了。另外一个有趣的发现是，在关于中国人使用性玩具的调查中，我们发现，无论男女，购买性玩具的比例都在增加，但最新的调查中，也只有5.7%的女性承认购买过性玩具，这个数字只有男性的一半左右。需要注意的是，在中国市面上销售的性玩具，大部分是给女性使用的，所以这里面有两种可能：其一是，女人真的需要却不好意思去买，只能请男人代劳；第二种可能性就不那么光彩啦，是不是有一些男人在强制女人使用呢？??《人物》：从自慰和购买性玩具的数据来看，感觉女性还不能完全正视自己的欲望。中国女性不是越来越开放了吗？很多女性很向往美剧《欲望都市》的生活状态。潘绥铭：中国女性是在变化，但是离《欲望都市》远着呢。欧洲1920年代开始性革命，性观念是100年来慢慢转变的。中国在性这一块儿的变化，也就是1985年以后才开始的，短短三十几年之内，突然要变成一种新的人，就会恐惧、会焦虑。《人物》：这么说，中国女性在性关系的处理上仍然偏于保守？潘绥铭：是的，不过也有变化。比如我们统计过中国人发生一夜情的数据。发生过一夜情的男性比例一直在增加，2015年时，有13%左右的中国男性有过一夜情。从2010年到2015年，女性的数据没有多大变化，有4%左右的中国女性有过一夜情。需要区分的一个概念是，中国人的所谓「一夜情」，特别是女性的一夜情，有半数发生在熟人之间，至少也是双方以前就相互认识。像美国学术研究中定义的那种公众场所邂逅的一夜情，在有过一夜情的中国女性当中，只占6%。但这是我们2015年调查的数据，这两年又有新变化。2015年的时候，大家还在说一夜情，可是现在变成约炮了。一夜情好歹还有点情的成分，这个约炮已经一点都没有了，我们以后调查都不知道怎么办了。《人物》：关于女性约炮有相关的研究吗？潘绥铭：我的学生做过一个关于女大学生约炮的研究，针对约炮，不是一夜情，就发现有过两三次经历的还真不多，好多人都是一次，一次以后反馈不好就不再约了。因为看了照片约炮，信息到底有多准确都很难说，成功率就没那么高，所以她们传了一句话，叫做「自己约的炮，流着泪也要打完」。另外要注意的是，中国女性不一定是为了约炮才约炮的。有人在调查的时候把自己的行为认定为约炮，当初她可不一定这么想，可能是奔着一夜情去的，甚至以为是找男朋友呢。当然后来发现只约了一回就不再有下文，就说是在约炮，所以这个很复杂。《人物》：性在逐渐解放，男女交往却好像越来越困难？潘绥铭：现在男女的交往问题，不在于女性，而在于男性。随着独生子女的成长，一批有自我意识有思想充满魅力的新女性成长起来。我们的男性还在用过去的传统眼光去看女性，他们没办法控制这些女性，所以充满了自卑。并不是中国男性故意不进步，就是从小没受过这教育。其实独生子女的交往能力都变差了，缺乏跟同年龄异性相处的经验。所以现在的情况是要学会沟通和妥协，婚姻、爱情、性就像三原色，自己要清楚最看重哪一个，再去做选择。《人物》：随着人们性观念的变化，在婚姻关系的处理上会有怎样的趋势？潘绥铭：西方性革命的结果是，性和爱结合得更紧密，浪漫情爱彻底幻灭了，这不代表没有爱情，而是浪漫情爱变成了性爱，那种无性之爱没有了。所以在西方道德里面，爱一个人却不上床，是很奇怪的事。同时，不爱一个人却常上床，也很奇怪。而这正是中国常有的现象。我们做过调查，中国夫妻中，只有30%是真的相爱的，剩下70%根本不相爱，但是他们也过性生活。???中国的性革命已经开始很久了。我认为在未来，离婚会作为解决夫妻矛盾的手段之一兴起，离婚不是最好的手段，但它是必要手段。本文来源：人物责任编辑：白鑫_NT4464",
    "PublishTime": "12/26/201709:08:52",
    "KeyWords": "中国,约炮,性生活,婚外恋"
}