{
    "Article": "（原标题：列席省委常委会议次日，他成2018年首虎）据中纪委网站消息：陕西省副省长冯新柱涉嫌严重违纪，目前正接受组织审查。冯新柱是十九大后，继鲁炜、刘强、张杰辉后，被查的第四名省部级官员，也是2018年后的“首虎”。而十八大以来，除冯新柱外，陕西省已落马了3名副部级官员：陕西省政协原副主席孙清云，陕西省政协原副主席祝作利，陕西省人大常委会原副主任魏民洲。冯新柱最后亮相公开报道是在昨日（1月2日）。1月2日，陕西省委召开常委会议，传达学习中央农村工作会议、全国扶贫开发工作会议精神。据《陕西新闻联播》画面显示，冯新柱列席。出生于1960年7月，长期任职陕西。他曾在在陕西省乡镇企业经贸公司、陕西省农电管理局等单位工作，2001年6月任铜川市副市长。此后14年间，冯新柱的仕途一直在铜川，先后任市长、市委书记，主政这座“煤城”。“政事儿”（ID：xjbzse）注意到，在任职铜川市委书记期间，因怒斥滋事政协委员和人大代表，冯新柱备受舆论关注。2014年8月，铜川市政协委员、王益区人大代表杨大军等人，酒后滋事打砸酒店。九月初，铜川市委召开全市领导干部大会，冯新柱在会上怒斥砸店当事人“吃了豹子胆”。据报道，冯新柱在会上说，“带人吃饭还要赊账，不让赊账还要打砸，你是吃了豹子胆！”?他表示，这起事件让人十分气愤，作为公众人物，为了一点小事，酒后丧德，做出如此粗鲁举动，看似酒后滋事，实质上折射出个别干部和一些公众人物，长期以来缺乏法治观念、缺乏自律意识、漠视党纪国法，自以为手中有点小权力，就气焰嚣张，为所欲为，成为害群之马。2015年4月，冯新柱不再担任铜川市委书记，任职陕西省副省长，成为副部级官员。在当时离开铜川的全市领导干部大会上，冯新柱说：“我2001年到铜川工作，14年来，对这个城市从陌生到了解，从熟悉到融入，与84万人民同呼吸、共进步”，“我深知，自己性格比较急躁，有时批评同志不注意方式方法，无意中伤害了一些同志的感情，在此向你们表示深深的歉意。我也深知，虽然在铜川这14年做了一些工作，但因为个人能力所限，与上级的要求和干部群众的期望还有很大的差距，铜川转型发展还有很多工作和任务没有完成。”在被任命为副省长时，冯新柱作表态发言。他表示，将顾全大局、恪尽职守、开拓创新、勤勤恳恳、踏实工作，不辜负组织的重托和人民的期待。在以后的工作中要努力做到：始终向中央基准看齐，做到齐心齐力齐步；虚心向老领导老同志学习、向干部群众学习，深入基层调查研究，结合省情创造性地开展工作，提高应对复杂局面和解决实际问题的能力；要认真履职，虚心接受社会各方面的监督；要时刻保持尊民、爱民、为民的情感，勤政务实为民服务；要自觉维护班子的团结，以身作则，管好亲属和身边工作人员，做到权为民所用、情为民所系、利为民所谋，努力做人民满意的公仆。据陕西省政府官网显示，作为副省长的冯新柱，负责农村、农业、扶贫、救灾、民政、食品药品安全方面的工作。他具体分管省民政厅、省水利厅、省农业厅、省林业厅、省食品药品监管局（食安办）、省扶贫办、杨凌示范区管委会、省供销合作总社、省老龄办。联系省气象局、省残联、省双拥办、国家林业局西安专员办、黄河上中游管理局、中国水电建设集团十五工程局，陕西粮农集团、陕西水务集团。冯新柱简历冯新柱，1960年7月生，男，汉族，陕西洋县人，1981年7月参加工作，1985年6月加入中国共产党，在职研究生学历，高级会计师。1979年10月至1981年7月在西安统计学校学习；1981年7月至1989年11月任陕西省乡镇企业经贸公司计财科出纳、副科长、公司经理助理（其间1983年6月至1986年6月在陕西广播电视大学商业企业经营管理大专班学习）；1989年11月至1994年3月任陕西省农电管理局财务处副处长；1994年3月至1996年1月任陕西省农电管理局财务处处长（其间1993年8月至1995年12月在中央党校函授学院经济管理专业本科班学习）；1996年1月任陕西省农电管理局副局长、党组成员（其间1994年9月至1999年12月为陕西财经学院财政专业在职研究生）；2001年6月任铜川市副市长；2003年3月任中共铜川市委常委、常务副市长、党组成员；2004年8月任中共铜川市委副书记、常务副市长、代理市长、党组书记；2005年3月任中共铜川市委副书记、铜川市人民政府市长、党组书记；2006年4月27日在铜川市第十四届人民代表大会第一次会议上当选为铜川市人民政府市长；2011年1月任中共铜川市委委员、常委、书记；2015年4月任陕西省副省长、党组成员。（简历摘自陕西省人民政府网站）本文来源：政事儿责任编辑：荀建国_NN7379",
    "URL": "http://news.163.com/18/0103/15/D784REUL0001875N.html",
    "KeyWords": "常委,首虎,省委",
    "PublishTime": "01/03/201815:58:41",
    "Title": "列席省委常委会议次日 这名副省长成2018年首虎_网易新闻",
    "Comment": {
        "Content": "",
        "Link": "http://comment.news.163.com/news_guonei8_bbs/D784REUL0001875N.html",
        "Total": 5,
        "Reply": 0
    },
    "Source": "Netease"
}