{
    "Article": "杨紫与秦俊杰一同跨年被对方霸气抱在怀中2018年的第一天，杨紫与秦俊杰这一对情侣就给大家发糖了！秦俊杰正在上海拍摄《天衣无缝》，2017年的最后一天，女朋友杨紫前往探班，两人在跨年夜与剧组一起聚餐。在大合照里，老秦喝多了两杯，霸气拥抱女友，男友力爆表。元旦当天也有网友在上海某商场偶遇了他们两个。",
    "Title": "杨紫与秦俊杰一同跨年 被对方霸气抱在怀中_网易娱乐",
    "PublishTime": "01/02/201809:30:50",
    "Source": "Netease",
    "Comment": {
        "Content": "大家好！我是PGone！ 一定要好好幸福呀 我也喜欢秦俊杰 不要整天上头条秀恩爱，生米煮成熟饭接受事实有本事儿赶紧迎娶你女友杨紫她进门啊，回家生小孩儿去哇！秦俊杰哈哈 喜欢秦俊杰，千万不要变坏 老秦，你媳妇儿真不错 般配 跑去打个跨年炮 秦俊杰挺帅的呀 小雪这是千里送…… 最后也得和蚂蚱一样！根本不搭，女的火，时间长了就有距离了 挺好的 三图那妹子以前喝过我放在车顶的饮料 希望这对小情侣能一直在一起 祝福 祝福 我也喜欢秦俊杰 至少比鹿晗那一对看着舒服 不要整天上头条秀恩爱，生米煮成熟饭接受事实有本事儿赶紧迎娶你女友杨紫她进门啊，回家生小孩儿去哇！秦俊杰哈哈 老秦，你媳妇儿真不错 雪中送炭 祝福祝福 好般配 秦俊杰挺帅的呀 般配 [微笑] 沙发 挺好的 三图那妹子以前喝过我放在车顶的饮料 祝福 一群戏子 大家好！我是PGone！ 一定要好好幸福呀 有来全家买东西，我同事给买的单，一开始都没认出来。还有翟天临，萌萌哒的买了一份关东煮 是不是真的 结婚结婚早点让你男朋友秦俊杰他迎娶进门吧，早日步入婚姻殿堂呗！杨紫哈哈 喜欢秦俊杰，千万不要变坏 小雪这是千里送…… 跑去打个跨年炮 雪中送炭 [微笑][微笑] 西瓜 演艺界的，你不是你先出轨，就是她先出轨，大家且日且珍惜吧 [色色] 最后也得和蚂蚱一样！根本不搭，女的火，时间长了就有距离了 完全不认识秦[惊讶] 有情人终成眷属，祝:秦俊杰和杨紫她你们二个人永远幸福快乐，恩恩爱爱，白头偕老，好好在一起一辈子，好好珍惜彼此，一生难得找到真爱，总之恭喜恭喜祝福！哈哈 希望这对小情侣能一直在一起 [微笑] ",
        "Reply": 35,
        "Link": "http://comment.ent.163.com/ent2_bbs/PHOTJNRQ000300AJ.html",
        "Total": 147
    },
    "KeyWords": "杨紫,",
    "URL": "http://ent.163.com/photoview/00AJ0003/647034.html"
}