{
    "Source": "Netease",
    "KeyWords": "圣诞节,法国,巴黎,圣诞",
    "URL": "http://war.163.com/17/1224/09/D6DNDQ9Q000181KT.html",
    "PublishTime": "12/24/201709:43:47",
    "Comment": {
        "Content": "德国也也应该加强一下 法国女警察漂亮哈 欧洲圣母慢慢品尝自己酿下的苦酒吧 自从萨科齐上台以后，跟在美国后面，暴力袭击就不奇怪了！打不了主人，就打狗呗！ 法国警察的新闻，你配个德国polizei的图片.... 圣诞快乐 圣诞节来临，我的心情是多么的高兴啊！因为我是一名基督教徒。 防患于未然，应该的。 谢谢！ 认识你我很高兴…… 欧洲圣母慢慢品尝自己酿下的苦酒吧 不做亏心事不怕鬼敲门，高炉鸡跟着美国主子为非作歹，终究不得善报。利比亚、叙利亚、伊拉克的难民们，为了你们的同胞一定要让法国付出相应的代价 我也很高兴，又可以找机会打炮了 那是法国的内部矛盾，希望某些国人不要叫啥今夜我们都是巴黎人。 你太了解我了，我爱你…… 耶稣基督是残疾人 法国警察的新闻，你配个德国polizei的图片.... 防患于未然，应该的。 耶稣基督是残疾人 维稳费又要涨了 自从萨科齐上台以后，跟在美国后面，暴力袭击就不奇怪了！打不了主人，就打狗呗！ 极端宗教恐怖分子都是灭绝人性.丧尽天良. 美国干儿子入关美国不安检，腰揣手榴弹，手拿m16，喷子们赶紧去吧，看你美爹怎么欢迎你 圣诞快乐 你这用的什么手机 圣诞节来临，我的心情是多么的高兴啊！因为我是一名基督教徒。 西方不太平。 跟贴被火星网友带走啦~ 认识你我很高兴…… 引狼入室 这图片有加分了 冒充基督徒的代理人，专开拉仇恨。 淘汰手机 犹太教徒嗤之以鼻 我也很高兴，又可以找机会打炮了 加强安保了 欧洲圣母慢慢品尝自己酿下的苦酒吧 还需要10万辆自行车 坐等欧洲圣诞节头条 法国女警察漂亮哈 欧洲圣母慢慢品尝自己酿下的苦酒吧 对对对 跟贴被火星网友带走啦~ 跟贴被火星网友带走啦~ 泼类才泼类才 我确实是基督教教徒…… 呵呵送给你吧。 谢谢！ 忽悠，卖拐。 极端宗教恐怖分子都是灭绝人性.丧尽天良. 神经病 不做亏心事不怕鬼敲门，高炉鸡跟着美国主子为非作歹，终究不得善报。利比亚、叙利亚、伊拉克的难民们，为了你们的同胞一定要让法国付出相应的代价 德国也也应该加强一下 小编，别瞎配图，图片是德国警察 那是法国的内部矛盾，希望某些国人不要叫啥今夜我们都是巴黎人。 ",
        "Total": 735,
        "Link": "http://comment.war.163.com/news_junshi_bbs/D6DNDQ9Q000181KT.html",
        "Reply": 39
    },
    "Article": "中新社巴黎12月23日电(记者龙剑武)圣诞节前夕，由于面临“较高的恐怖主义威胁”，法国全境共动员近10万名警察、宪兵和军人加强对敏感地点和公共场所的安保。据此间媒体报道，法国内政部长科隆22日已指示各省警方负责人在24日、25日两天采取特别安保措施。为此，法国全境共部署54000名警察，36000名宪兵和7000名执行“哨兵行动”巡逻任务的军人，参与安保的军警人数总计达97000余人，比去年增加6000多人。法国内政部在一份公报中说，今年圣诞节期间恐怖主义威胁一直居高不下。因此，保障法国人民和游客安全成为内政部工作的首要任务。军警部署后，反恐预警方案“警惕海盗计划”对法国实现全覆盖，大型商场、圣诞集市、宗教场所、公共交通工具等成为安保重点。据报道，大巴黎地区的警力动员也创下记录，共有7000名警察投入圣诞节安保工作，尤其在全巴黎657处基督教教堂严加防范。巴黎警方称，将在上述宗教场所的传统圣诞庆祝活动期间加强戒备，巴黎圣母院周边还将设立警戒保护区。此外，全巴黎的45处圣诞集市、众多大型商超和著名旅游景点都将成为严密监控的对象。为确保圣诞节期间万无一失，参加“哨兵行动”的巡逻军人将为警方的安保行动提供支持。本文来源：中国新闻网责任编辑：马超_NBJ9865",
    "Title": "法国部署近10万军警加强圣诞节安保 _网易军事"
}