{
    "Title": "驻阿英军圣诞奖金人均1英磅 抱怨:活的不如流浪猫_网易新闻",
    "URL": "http://news.163.com/17/1226/15/D6JEP8LT0001899N.html",
    "KeyWords": "流浪猫,阿富汗,英国",
    "PublishTime": "12/26/201715:08:12",
    "Article": "（原标题：海外英军圣诞奖金人均1英磅抱怨:活的不如流浪猫）驻阿富汗英军圣诞奖金人均1英磅，抱怨称“活的不如流浪猫”。（图源：《每日邮报》）海外网12月26日电阿富汗反恐战争已历时17年，英国派驻阿富汗的部队大约有500名士兵，这是英国最大的海外派驻兵力。然而，有媒体曝，这些海外英军今年的圣诞节过得相当寒酸，平均每个人只得到1英镑的节日奖金。综合英国《每日邮报》等媒体报道，由于深陷财政困境，今年圣诞前夕，英国国防部只拨出500英镑奖金给驻阿富汗部的500名士兵，平均每位军人可分到1英镑，连多喝一杯咖啡的钱都不一定够。报道称，与英军形成对比的是，美军在阿富汗过圣诞节有圣诞树、有火鸡大餐，还可以观赏与本土同步播映的热门大片“星际大战8”，甚至还可以喂养军营里的流浪猫，这种待遇差距令许多英军牢骚满腹。一名驻喀布尔的英国军官说：“我了解英国处境，我们没有美国那么有钱，但是，即便是和丹麦等国驻阿富汗士兵相比，我们的待遇也不如他们。”另一名士兵说，正逢佳节，英军士气严重受挫，“他们（政府高层）甚至没有给我们足够的咖啡。美国人军营里的流浪猫吃的都比我们丰富。”阿富汗反恐战争虽然已进入第17年，但和平仍似乎遥遥无期，塔利班势力依然在周边伺机而动。在阿富汗市区，袭击事件时有发生，平民伤亡数字依然很高。驻阿富汗英军的任务也一直相当繁重。然而，因为战争打了太久，世人的关注度也越来越少，士兵们觉得自己逐渐被遗忘。唯一可以安慰他们的就是来自亲朋好友的信件。一位驻阿富汗的英国军官表示，寄到前线的家书与包裹数量很惊人，看到来自家人和朋友的信件和包裹，就感觉得到了慰藉。英国国防部发言人日前特别发表圣诞节慰词，吁请英国民众记住那些为国家安全而坚守前线的战士们，称“请每个国民记得，在圣诞节期间，英国有数千名勇敢和忠诚的战士们，正不辞劳苦地捍卫我们国家的安全。”本文来源：海外网作者：姚凯红责任编辑：李杭_BJS4645",
    "Comment": {
        "Content": "流星月亮地球太阳系有发动机么？没有!他们却高速在宇宙中运行!为什么？因为他们的运行轨道本身就是太空高速时空隧道!他们的运行路线一半为去路一半为来路，周而复始地运行着!地球自转公转着，本就没有东西南北上下左右等方位!谁定的？我们的天父啊!目的只有一个，告诉人类我们天父的星座方位!所以九曲桥的方向始终对着东北方!在宇宙一切物质中，永远是子体围绕母体运动，这是恒定的!所以地球自转并围绕太阳公转!因地球是自转公转的，所以根据地球的东西南北是找不到星外文明的星座方位的!只有找到太阳的上下前后东西南北才能准确地给天父星座方位定位!我们天父星座方位在太阳系东北上方第九颗恒星那里!那里以双伴恒星为中心带动周围108颗恒星运动着! 在狗的眼里，世界上要么是狗要么是主子。 继续黑 不是说为了阿富汗人民的自由民主事业吗？怎么介意这几个钱💰了？ 只有傻瓜信 日落了🌄 哦？哪个傻逼说的？ 这是要告诉我们🇺🇸生活很好吧 因为你们都是美帝养的狗，自然就是这待遇啦 连一瓶盖的茅台都买不起，好可怜。 我弟弟信尚帝;;;;;;;;;;;;;;; 流星月亮地球太阳系有发动机么？没有!他们却高速在宇宙中运行!为什么？因为他们的运行轨道本身就是太空高速时空隧道!他们的运行路线一半为去路一半为来路，周而复始地运行着!地球自转公转着，本就没有东西南北上下左右等方位!谁定的？我们的天父啊!目的只有一个，告诉人类我们天父的星座方位!所以九曲桥的方向始终对着东北方!在宇宙一切物质中，永远是子体围绕母体运动，这是恒定的!所以地球自转并围绕太阳公转!因地球是自转公转的，所以根据地球的东西南北是找不到星外文明的星座方位的!只有找到太阳的上下前后东西南北才能准确地给天父星座方位定位!我们天父星座方位在太阳系东北上方第九颗恒星那里!那里以双伴恒星为中心带动周围108颗恒星运动着! 然后烧死哥白尼？ 哦？哪个傻逼说的？ 继续黑 这男的还算是男的吗？ 日落了🌄 这是要告诉我们🇺🇸生活很好吧 在狗的眼里，世界上要么是狗要么是主子。 我弟弟信尚帝;;;;;;;;;;;;;;; 连一瓶盖的茅台都买不起，好可怜。 有就不错了 不是说为了阿富汗人民的自由民主事业吗？怎么介意这几个钱💰了？ 只有傻瓜信 因为你们都是美帝养的狗，自然就是这待遇啦 这制度落不了 这个世界还是好人多的，武汉大学樱花要开了，有时间去看看自己的心灵吧。 不是说为了阿富汗人民的自由民主事业吗？怎么介意这几个钱了？ ",
        "Total": 220,
        "Link": "http://comment.news.163.com/news2_bbs/D6JEP8LT0001899N.html",
        "Reply": 17
    },
    "Source": "Netease"
}