{
    "Article": "（原标题：男子地铁上蹭短裙女子臀部，疑似猥亵）#endText.video-infoa{text-decoration:none;color:#000;}#endText.video-infoa:hover{color:#d34747;}#endText.video-listli{overflow:hidden;float:left;list-style:none;width:132px;height:118px;position:relative;margin:8px3px0px0px;}#entText.video-lista,#endText.video-lista:visited{text-decoration:none;color:#fff;}#endText.video-list.overlay{text-align:left;padding:0px6px;background-color:#313131;font-size:12px;width:120px;position:absolute;bottom:0px;left:0px;height:26px;line-height:26px;overflow:hidden;color:#fff;}#endText.video-list.on{border-bottom:8pxsolid#c4282b;}#endText.video-list.play{width:20px;height:20px;background:url(http://img1.cache.netease.com/video/img14/zhuzhan/play.png);position:absolute;right:12px;top:62px;opacity:0.7;color:#fff;filter:alpha(opacity=70);_background:none;_filter:progid:DXImageTransform.Microsoft.AlphaImageLoader(src=\"http://img1.cache.netease.com/video/img14/zhuzhan/play.png\");}#endText.video-lista:hover.play{opacity:1;filter:alpha(opacity=100);_filter:progid:DXImageTransform.Microsoft.AlphaImageLoader(src=\"http://img1.cache.netease.com/video/img14/zhuzhan/play.png\");}if(/(iPhone|iPad|iPod|Android|NETEASEBOBO|blackberry|bbd+)/ig.test(navigator.userAgent)||/safari|chrome|firefox/i.test(navigator.userAgent)&&navigator.plugins&&!navigator.plugins[\"ShockwaveFlash\"]){varstr1='<videocontrols=\"controls\"preload=\"auto\"width=\"100%\"poster=\"http://vimg3.ws.126.net/image/snapshot/2018/1/A/I/VU69KUQAI.jpg\"style=\"max-height:100%\">';varstr2='<sourcetype=\"video/mp4\"src=\"http://flv.bn.netease.com/videolib3/1801/03/pGDAw3006/SD/pGDAw3006-mobile.mp4\">您的浏览器暂时无法播放此视频.</video>';document.getElementById(\"FPlayer1404863609673\").parentNode.innerHTML=str1+str2;}大叔地铁上蹭短裙女臀部，疑似猥亵（来源：original）window.NTES&&function(d){varf=function(c){varb=c.getAttribute(\"flashvars\"),a=c.getAttribute(\"repovideourl\").replace(\".flv\",\"-mobile.mp4\");h=d(c.parentNode.parentNode.parentNode),g='<embedsrc=\"http://v.163.com/swf/video/NetEaseFlvPlayerV3.swf\"flashvars=\"'+b+'\"allowfullscreen=\"true\"allowscriptaccess=\"always\"quality=\"high\"wmode=\"opaque\"width=\"100%\"height=\"100%\"type=\"application/x-shockwave-flash\"/>';if(/(iPhone|iPad|iPod|Android|NETEASEBOBO|blackberry|bbd+)/ig.test(navigator.userAgent)){g='<videocontrols=\"controls\"preload=\"auto\"width=\"100%\"height=\"100%\"><sourcetype=\"video/mp4\"src=\"'+a+'\">您的浏览器暂时无法播放此视频.</video>';}h.$(\".video\")[0].innerHTML=g;},e=function(b){vara=d(b.parentNode.parentNode.parentNode);a.$(\"li\").removeCss(\"on\"),b.addCss(\"on\"),a.$(\".video-title\")[0].innerHTML=\"string\"==typeofb.textContent?b.textContent:b.innerText,a.$(\".video-title\")[0].setAttribute(\"href\",b.getAttribute(\"url\")),a.$(\".video-from\")[0].innerHTML=\"（来源：\"+b.getAttribute(\"source\")+\"）\",f(b);};window.continuePlay=function(){vara,b=d(d(\".video-list.on\")[0].nextSibling);3==b.nodeType&&(b=d(b.nextSibling));if(b&&d(\".video-innerinput\")[0].checked){e(b);}},function(){vara={init:function(){if(d(\".video-listli\")[0]){d(d(\".video-listli\")[0]).addCss(\"on\"),this.eventBind();}},eventBind:function(){d(\".video-listli\").addEvent(\"click\",function(b){e(d(this)),b.preventDefault();});}};a.init();}();}(NTES);【男子地铁上蹭短裙女子臀部，疑似猥亵】1月1日，江西南昌，一男子在乘坐地铁时，下身贴近一穿着裙子的女生，做疑似猥亵的行为，被路人拍摄下来。女子一直在打电话，全然不知。男子被发现后，溜下地铁。本文来源：梨视频责任编辑：李天奕_NN7528",
    "PublishTime": "01/03/201809:52:11",
    "URL": "http://news.163.com/18/0103/09/D77FSCI10001875P.html",
    "Source": "Netease",
    "Comment": {
        "Content": "尼感觉这女的在配合啊🤣 我真nm服你回清朝吧 女生也很享受刺激 大上海这几天也没几个穿裙子的 大冷天穿短裙，这女的没问题？？ 很多年前在夜店玩，有个男的各种蹭一个不认识的妹子，我觉得有点过了，就伸手示意这是我朋友，然后那个男的走了。。妹子白了我一眼说没事儿。。。。。。。。。 傻逼，你是流浪狗在京城吗 公交🚃车也一样，记得在西安时候公交特别挤，上来个和我差不多大的女孩站在我前面，女孩前边是个大爷，那女孩就往后靠正好抵住我，当时就硬了（左右都是人我后边是那个扶手挪不开）没办法当时脸通红硬着头皮让她蹭！ 我可以“骚”，但是你不能“扰”。再说尼玛的你就看着啊你站出来啊 不对，好像那个女的后退了，想挨得更紧一点 我知道他是谁，我就是不说。。。 这个跟钓鱼是一样一样的，不是为了结果，是过程，刺激性奋<br>钓鱼的费用和时间够买几十斤了，关键是享受其中的乐趣。<br>尤其在摸的时候，心里又紧张又害怕，隔着胸罩摸，隔着裤子摸，虽不能肉豁肉，却别有一番滋味。<br>真花个几十几百的现场表演，反而没那么性奋冲动，水到渠成的事不会让人有成就感，每个人的心中都会有一个秘密，有的人放心里，有的人去奋斗。我想，这应该是第二种人吧。<br>在大街上看女人，也是一道风景线，说老实话我经常偷偷摸摸的看的，每个女人都有不同的造型，肉蛋型的，林黛玉型的，馒头型的，蝴蝶型的……<br>不过只敢看不敢摸，也许，这就是我最失败的地方吧。<br>偶尔有几次，盯着人家的那里看，被发现了，还会投来火辣辣的眼神，不知道为啥，反而我脸红了，不过我一点都不害羞，因为我是一个正直纯真的人，<br>正如池塘里的小荷，可观赏，不可亵玩。 厚的不得了的裤袜，蹭毛线啊！ 应该扒光了在小区门口，单位门口，村头……各游街一周……以后一个都没有了 他是安徽上海人 你确定不是重男轻女造成的？没计生光棍只会更多 江西人都是狗😄杀光江西人 当事人没感觉？看来地铁上经常发生摩擦 拍视频的竟然不用手上去阻止 标记下下班偷偷看 就不明白这样蹭一蹭就那么舒服吗？ 让人家喷一波国家能咋地，毕竟国家欠人家的太多啦 我以前在公交车上蹭我媳妇后面，故意贴得紧紧的，我媳妇害羞，一动不动，结果旁人以为我是色狼，差点要报警抓我，尴尬…… 好兴奋 我觉得你在上海那种国际大都市呆着，不应该对这种打扮感觉奇怪 问题是那个女子居然毫无感觉？是在享受呢？ 夜店和公交车是一个地方吗 见怪不怪，其怪自败！ 子非鱼，安知鱼之乐 此男有当灵道必备的潜力 你肯定没遇到或者听说过，听老辈人说：一个快临产的女的被强拉着流产去，生出来回来的不给上户口，把男的关进一个房间还抽打！ 掌嘴，蹭蹭不进去怎么了？闲的也是闲的 周瑜打黄盖～双方愿意，要你们狗咬吕洞宾。 一直是这个女的蹭来蹦去 97年那会就有，初中 穿这么骚就是为了让男人曹的 贫僧就爱东京热，立志成为电车狼<br>看到美女就掏枪，明年今日扶铁窗 这个女人愿意你拍有用吗？ 计生造成五千万光棍大军 摩擦、摩擦…似魔鬼的步伐…… 安徽省上海市有毛病吗？ 你记着下次带媳妇做公交别充气，这样别人就看不到了。 所以说不敢上去阻止而选择拍视频？ 这也能地域？ 路过。。。 家伙太小，别人没感觉到，差评！ 尼感觉这女的在配合啊🤣 按在地上摩擦 我真nm服你回清朝吧 光腿神器很火的 汁多才湿 去深圳坐坐公交车，蛮爽的 各有所需，各有所需嘛！😂 回头你妈在地铁上被人蹭的时候你这么说算你是个男人。 这么厚的衣服，有什么感觉啊 隔着这么厚的衣服蹭几下有意思吗？ 大冷天穿短裙，这女的没问题？？ 很多年前在夜店玩，有个男的各种蹭一个不认识的妹子，我觉得有点过了，就伸手示意这是我朋友，然后那个男的走了。。妹子白了我一眼说没事儿。。。。。。。。。 我20多时，坐班车也被性骚扰过，在后面使劲用上班身蹭我，靠，辛亏对方长的胖，认倒霉，闪了。 公交🚃车也一样，记得在西安时候公交特别挤，上来个和我差不多大的女孩站在我前面，女孩前边是个大爷，那女孩就往后靠正好抵住我，当时就硬了（左右都是人我后边是那个扶手挪不开）没办法当时脸通红硬着头皮让她蹭！ 你暴露了你的年龄 我可以“骚”，但是你不能“扰”。再说尼玛的你就看着啊你站出来啊 4楼这理解能力，高！ 达叔精神 一楼你是在江苏金山区吗 有时候地铁公车摸一下屁股,碰一下腰是挺爽的,上次摸完还加了,后面经常出来玩,说实话,我有时候都满足不了她 南昌还有地铁？ 这是扯淡，车子又不挤，有个人这样贴着你，你会感觉不到？ 肯定是在享受 现在臭屌丝男真多 你确定不是重男轻女造成的？没计生光棍只会更多 上海穷逼土著少了？有钱都是外地人。 楼主内裤洗多了，脑子坏了 短打了 现代时尚裸体吗？ 记得2008年看我从深圳龙岗回宝安，坐的公交车，当时人很多，一个20多岁的一少妇站在我后面，不知道是不是由于车刹车的原因，她的mm在后背顶了好几下，唉，搞得我都不好意思了，当时他老公也在车上！真人真事 这女的估计湿了 好兴奋 我觉得你在上海那种国际大都市呆着，不应该对这种打扮感觉奇怪 问题是那个女子居然毫无感觉？是在享受呢？ 九天寒冰玉女功～练功时须童男配合，釆阳补阴，你一打搅要走火入魔。 夜店和公交车是一个地方吗 一楼也可能住在燎原十七连，那边特别冷，可以理解😁😁😁 掌嘴，蹭蹭不进去怎么了？闲的也是闲的 周瑜打黄盖～双方愿意，要你们狗咬吕洞宾。 如果没计生第一胎是女孩，大部分会生下来。而不是打掉选择第二胎看是男是女[狗] 朋友不好意思，绝对不止5千万 偷拍者自己心里不干净而己，沒看出人家是有意为之…… 确实。。罚钱也要生个男孩。。 没感觉什么大都市不大都市 逗啊计生的严重性在于女方怀孕检查女孩即可做掉重新怀男孩生下来 你说错了吧！随便生就无所谓男女。只能生一个谁都想要男孩。当然是国策出了问题，所以现在正在纠正 计生造成五千万光棍大军 记得2008年看我从深圳龙岗回宝安，坐的公交车，当时人很多，一个20多岁的一少妇站在我后面，不知道是不是由于车刹车的原因，她的mm在后背顶了好几下，唉，搞得我都不好意思了，当时他老公也在车上！真人真事 真的挺配合的，刺激 打电话以为很挤？ 拍视频的竟然不用手上去阻止 衣服这么厚蹭个G8啊！！。。🙄🙄 记得2008年看我从深圳龙岗回宝安，坐的公交车，当时人很多，一个20多岁的一少妇站在我后面，不知道是不是由于车刹车的原因，她的mm在后背顶了好几下，唉，那种感觉，酥酥的、软软的，最后搞得我都不好意思了，当时他老公也在车上！真人真事 朋友，你现告诉我5000千万是多少 家伙太小，别人没感觉到，差评！ 摩擦摩擦是魔鬼的步伐 拍点儿别的不好吗？总弄这个无聊！ 没掏出来有毛用？ 女生也很享受刺激 我真nm服你回清朝吧 读书时候需要认真点，要知道怎么计算概率，别想当然 大冷天穿短裙，这女的没问题？？ 哈哈 谁能告诉我，这样真的刺激么[微笑][微笑][微笑] 站在道德制高点是不是觉得自己特别正直伟岸？ 计生造成五千万光棍大军 那女孩在练九天寒冰玉女功，你们管什么闲事？ 你拍这个放网上想干啥博眼球吗？也不是好鸟 车上不挤靠这么近，不用疑似了 肯定有感觉，但是是不敢反抗还是在享受就不知道了 不对，好像那个女的后退了，想挨得更紧一点 女孩为何穿短裙？ 不明液体…… 你确定不是重男轻女造成的？没计生光棍只会更多 从视频看罪名有点勉强。 挖坑，我認識他 当事人没感觉？看来地铁上经常发生摩擦 蹭一下又不会怀孕，怎么了？？ 都穿打底裤的，全是加绒的，真是少见多怪 明天来机关上班， 吸jing 吃饱了撑的。 拍照的人也不是什么好东西！你拍人家干么？你爰你也去，公共场所视野那么大不去拍，专拍那些？？？你是公安人员吧？ 确实是计生造成的。重男轻女只会导致女多男少，参考古代重男轻女更严重但不会出现光棍大军。重男轻女会让很多第一胎女儿的继续生第二胎，这就造成了很多家庭女孩比男孩多。计生就不一样了，只能要一个，导致第一胎女孩的没办法只能打掉要男孩，才导致男多女少。罪魁祸首就是计生，跟重男轻女的观念也有一点关系 拍视频的男子应该一边拍一边呵斥那个猥亵的大叔 这大冬天的<br>哪来那么大瘾 我觉得你在上海那种国际大都市呆着，不应该对这种打扮感觉奇怪 吃饱饭撑了，拍这个 问题是那个女子居然毫无感觉？是在享受呢？ 就是。<br>来把你妹找来，让大家每人蹭一下[色色] 妈蛋大冷天的大家相互挤挤取暖有错吗 感觉这女的在摩擦？ 你的IP应该是海上而不是上海吧 短裙不错啊 有种岛国片某场景的即视感 篱笆女人和狗 让人家喷一波国家能咋地，毕竟国家欠人家的太多啦 菊花古剑和酒 射吗 怎么都没有女的来蹭大叔哦，不公平。 这方面我只服达叔 现在不都是大冬天短裙配丝袜吗？很多女士都这么穿，很正常啊。而且女士冬天穿丝袜比夏天穿，看着更性感。我们公司的女性基本都这打扮。 这种人直接拍脸！别客气！反正他们也不要脸！ 300块解决的事 拍视频的才没道德呢，一个愿打一个愿挨！（女的不同意会躲或者给那男的一巴掌了）你管得着？ 穿这么骚就是为了让男人曹的 弄死吧！ 这女的就是光着，你也没权利碰她，你这个逻辑太搞笑了，难道你家没锁门，进去拿东西就不犯法了？ 顶族人真多 尼感觉这女的在配合啊🤣 我真nm服你回清朝吧 标记下下班偷偷看 男的后面好多空位，女的前面也好多空啊，拍视频的男的真是没事干 就不明白这样蹭一蹭就那么舒服吗？ 上海也分地方… 大冷天穿短裙，这女的没问题？？ 如果是我也控制不住唉 有问题吗？！ 一个沉默的年代 计生掐死多少女孩子，你懂吗？ 清朝好像冷热都穿裙子... 小女孩胆子小 传说中的擦边射，这种痛快你不懂 那时候没计划生育就不会堕胎！ 应该扒光了在小区门口，单位门口，村头……各游街一周……以后一个都没有了 人家很享受，你多管闲事。我也爱摸。哈哈 這不清真 外地浓b，和我一样，鉴定完毕 破坏人家和谐 这个跟钓鱼是一样一样的，不是为了结果，是过程，刺激性奋<br>钓鱼的费用和时间够买几十斤了，关键是享受其中的乐趣。<br>尤其在摸的时候，心里又紧张又害怕，隔着胸罩摸，隔着裤子摸，虽不能肉豁肉，却别有一番滋味。<br>真花个几十几百的现场表演，反而没那么性奋冲动，水到渠成的事不会让人有成就感，每个人的心中都会有一个秘密，有的人放心里，有的人去奋斗。我想，这应该是第二种人吧。<br>在大街上看女人，也是一道风景线，说老实话我经常偷偷摸摸的看的，每个女人都有不同的造型，肉蛋型的，林黛玉型的，馒头型的，蝴蝶型的……<br>不过只敢看不敢摸，也许，这就是我最失败的地方吧。<br>偶尔有几次，盯着人家的那里看，被发现了，还会投来火辣辣的眼神，不知道为啥，反而我脸红了，不过我一点都不害羞，因为我是一个正直纯真的人，<br>正如池塘里的小荷，可观赏，不可亵玩。 你确定不是重男轻女造成的？没计生光棍只会更多 我觉得你在上海那种国际大都市呆着，不应该对这种打扮感觉奇怪 顶上了 哈哈哈 这女滴享受惯了，无所谓 他在上海送外卖呢你以为呢 一大群人，闲吃萝卜……那个女的都没意见 发现一个俄毛残留东北的孤儿（卐阿亮），在网易到处咬，喷人底层喷华为，其实它用的就是一台魅蓝，看见此狗直接打死吧，特此告知 说得好，都特么智障 太厚了 如果是堕胎犯法估计为了要个男孩生女孩五六个后都会一直生下去 我以前在公交车上蹭我媳妇后面，故意贴得紧紧的，我媳妇害羞，一动不动，结果旁人以为我是色狼，差点要报警抓我，尴尬…… 我还以为是达叔又出新弹了 问题是那个女子居然毫无感觉？是在享受呢？ 子非鱼，安知鱼之乐 皇上不急，拍照的急了 达叔又栽了？ 我看着是这个女的在动啊。 明知有人在顶你，你不会闪开吗？ 江西贱畜一个个的 回清朝谁他妈敢这么穿，人家只是说天冷了，上身穿着羽绒服，下面穿着短裙，太不协调了，你激动啥啊 拍脸呀 说你煞笔绝对有人顶，，，因为银行的钱多你就能抢？ 计生造成五千万光棍大军 说不定已经湿了 又不是没穿。。一楼什么逻辑？？[惊讶] 我好像看到是女的在蹭？ 好刺激，辛亏拍的不是我 你记着下次带媳妇做公交别充气，这样别人就看不到了。 网易上屌丝多，宅男多，变态的也多！个人观点，不喜勿喷，谢谢 女子没反应，拍照的来高潮了 你妹啊，羽绒服，长统靴，厚丝袜，有什么好蹭的 我真nm服你回清朝吧 什么时候变成五千万了？不是五亿了么 人家对象2个人在体验刺激，被你个偷拍狂看到了，不揍你不错了 射了没 大冷天穿短裙，这女的没问题？？ 傻逼，你是流浪狗在京城吗 这女的没啥问题，你的脑子是真有问题 那女的或许正享受着呢！ 狗屁，要不是计生罚款，会有那么多人在查处是女孩之后就打胎？重男轻女只是对待的态度不同，但不会扼杀还在孕育中的小生命，楼上还为计生洗地，你脑子里都是浆糊吧…… 计生造成五千万光棍大军 这样做有什么意思吗？ 是有龌龊男，但是，拍视频的又是什么心理？学雷锋吗？ 没办法，地铁坐多了，屁股上已经起了一层厚厚的老茧 我知道他是谁，我就是不说。。。 大哥可以穿越啊， 跟你妈一样 拍照片可能嫉妒得也ying起来了吧。 你确定不是重男轻女造成的？没计生光棍只会更多 我觉得你在上海那种国际大都市呆着，不应该对这种打扮感觉奇怪 当事人没感觉？看来地铁上经常发生摩擦 好正常 江西人都是狗😄杀光江西人 人家正享受呢，又被你们多管闲事的吓跑了 穿什么没问题，只是不冷么，保暖也耐不住气温低吧[疑问] 哥，大清早亡了！ 这女的竟然没感觉？ 石器时代都比这开放 就是蹭什么呢，难道把袜子蹭坏咯 江西老表，没问题 一楼好像也没说穿短裙的活该 问题是那个女子居然毫无感觉？是在享受呢？ 只要没有光着就没有问题 朕的大清难道亡了？ 摩擦、摩擦…似魔鬼的步伐…… 封建社会重男轻女更严重吧，男女比例也没有失调哦，况且还是三妻四妾，没有计划生育的自然状态下，女娃出生率要比男娃多的，女性比例会略大于男性 偷拍也不是什么好东西 这女的也大条，打底裤穿的是钢筋混凝土的吧，这么剐蹭都没感觉？ 这算什么，我坐地铁人家老是把屁股往我这蹭，好无奈呀！ 那个女的心里在恨那个多管闲事的男的，老娘正在快活着呢 享受个暖蛋，只能证明这个猥琐男丁丁小且短 你个偷拍狂，你还有理了。 [大笑] 贫僧就爱东京热，立志成为电车狼<br>看到美女就掏枪，明年今日扶铁窗 哥，用力点 拍照的人在羡慕嫉妒恨吧？人家当事人都没说什么呢，说不定在享受呢。 困难一起扛 湿了 秦朝吧 南昌今天真的冷考个试搞个背头被风吹烂了 有没有射呢？ 拍视频的才是真有问题 我真nm服你回清朝吧 讨厌！非要说出来吗？ 拍的人脑子有问题，自己光盯着短裤女子 一个朋友怀孕四次，打掉三次，最后生了个儿子 女的早都知道有人在蹭她，舒服的不要不要的，白日春梦无痕 女的应该赶紧放个屁熏他丁丁 当事人都没有异议，路过的人看不下去了！ 大冷天穿短裙，这女的没问题？？ 拍视频的也不是啥好人！ 喷子们不知羞耻，可能与猥琐男有过同样经历 上下班高峰的时候你去挤地铁跟公交试试，前胸贴后背 女的没感觉？ 什么？大清已经亡了！ 清朝都没你们这么猥琐 我也想这样做 直接插进去怎么了？蹭尼玛币 什么问题？ 一楼刚出号子，住地下室， 你确定不是重男轻女造成的？没计生光棍只会更多 女孩故意公交最刺激的，男的如果大胆就能xxx 当事人没感觉？看来地铁上经常发生摩擦 人家女的自己都无所谓，管你鸟事，拍你妹拍 看着穿着yp无疑！ 女的下面早就湿了你拍有个蛋用 你个傻逼，去死吧！ 好久没见过一楼这么傻逼的直男了 正常生育光棍更多？脑子没问题吧？ 哈哈哈你太逗了 顶族大长老在南昌啊狂顶被拍啦…… 刚去上海的东北人吧？ 我觉得你在上海那种国际大都市呆着，不应该对这种打扮感觉奇怪 当事人在那左右蹭呢 所以说不敢上去阻止而选择拍视频？ 见怪不怪，其怪自败！ 这种接触，怎么可能不知道？ 一直是这个女的蹭来蹦去 拍视频的更猥琐！偷拍人家大腿半天了！ 可能地下室吧 这种事出的我坐车都不敢靠近女人。 这个女人愿意你拍有用吗？ 重男轻女怎么造成的？难不成你家生下女孩都掐死了？ 计生造成五千万光棍大军 有什么意思，我觉得还不如打飞机 安徽省上海市有毛病吗？ 溜了溜了 问题是那个女子居然毫无感觉？是在享受呢？ 人渣 安徽省南京市 路过。。。 ",
        "Reply": 261,
        "Total": 2567,
        "Link": "http://comment.news.163.com/news_shehui7_bbs/D77FSCI10001875P.html"
    },
    "Title": "男子地铁上蹭短裙女子臀部疑似猥亵 被路人拍下_网易新闻",
    "KeyWords": "短裙,猥亵,地铁"
}