{
    "URL": "http://ent.163.com/17/1231/10/D6VPENKB00038FO9.html",
    "Article": "浙江卫视致歉跨年舞台现大坑网易娱乐12月31日报道12月30日年浙江卫视举办的跨年演唱会上，陈伟霆以《女皇》和《Babydon’tcry》两首热歌领跑2018演唱会，谁料在表演中途，舞台上竟出现了一个大坑，引起了观众和粉丝的惊悸与担心。今天凌晨，浙江卫视节目组通过微博向陈伟霆及观众、粉丝道歉，解释大坑出现的原因是“地台装置闭合延时”，并表示“为了避免意外的发生已经在装置下层做了保护措施”。浙江卫视也在《致歉信》中承诺会把安全问题放在第一位。对于此次发生的舞台事故，粉丝大多感受到的是后怕和愤怒：“艺人的安全问题真的很重要啊，幸亏伟霆看到了，不然真的会出大事。”“在舞台上表演也有生命危险真可怕啧啧啧。”也有人表示不接受道歉：“怎么做保护措施？工作人员要不要试着跌一下看看？”本文来源：网易娱乐责任编辑：李彤_NK4455",
    "KeyWords": "浙江卫视,地台,延时",
    "Source": "Netease",
    "Comment": {
        "Reply": 82,
        "Content": "呵呵 抵制浙江卫视！！ 最重要的一个歉却还没道! 请向袁立道歉 好像还没给袁立道歉 江苏相亲台很有优越感？ 坑啊。。。 湖南卫视也是这么觉得的 想起了黄家驹跌落舞台，这种安全问题真不能忽视。 天意啊天意！这就是上天对浙江卫视堕落的警告！ 有没有向袁立道歉呢 录播漏洞都看不见。。真吭 请了天佑我就知道浙江卫视的老板是个东北喊麦的忠实粉丝了，浙江也是，已经是垃圾中的战斗机了 浙卫每年的慈善晚会捐款多少大家知道吗??就拿16年的慈善晚会来说吧，一个省级电视台居然可以请到那么多娱乐明星，基本上当红的明星一网打尽，浙卫利用自己的影响力为慈善做出巨大贡献，16年整场晚会共为芭莎县捐款7526万元。 浙江卫视这是怎么了？难道都是临时工了？ 远看一个坑近看还似坑，仔细一看那就似一个坑🌚 我没看，想问问看的人，这个晚会有跨年倒计时吗？如果有，不特么的尴尬死么 很明显，是智力延迟 我期待伊一别是主持人 从此不看浙江卫视 坑的地方多呢，音响灯光镜头字幕…… 道歉已经是浙江卫视的日常 30号跨个屁的年啊…… 不好意思，没有看这频道 这是浙江卫视自己给自己挖了个坑啊 什么坑，后期剪一下不就完了吗，浙江卫视拿手 之前湖南卫视我是歌手栏目曝出黑幕也很黑，可惜曝黑幕的明星没做公益，所以黑幕就不了了之了 半斤八两 不道歉他们怎么生存呢？ 谁叫之前不给袁立道歉，现在任何问题都会被无限放大。该！ 谁都可以说，你湖南最没资格说，一个逼样 浙江卫视估计要关门了！问题太多 湖南人当面都爆了你妈的菊 幸亏陈伟霆反应快不然后果不堪设想 道个屁啊，这点小事到什么歉，浙江卫视会道歉吗？ 之前湖南卫视我是歌手栏目曝出黑幕也很黑，可惜曝黑幕的明星没做公益，所以黑幕就不了了之了 垃圾电视台！ 湖南卫视跨年张艺兴的舞蹈惊艳到我了，跳太好 什么浙江卫视？蓝翔台差不多！ 我们这也刚录完3台合办的哈尔滨北京湖北。也是录播。。明星都唱2遍。就怕出漏洞。好剪裁。。浙江台业余了。。都是假唱。。明星来站10分钟就撤退了。前天去跟刘欢彩排。。上来站了了10分钟人家就走了！ 30号跨个哪门子的年？！！ 怎么没摔死天佑那个狗比玩意呢 活该！ 抵制浙江卫视！！ 湖南卫视这次没请大嘴猴算有点人性！ 什么坑，后期剪一下不就完了吗，浙江卫视拿手 不好意思，没有看这频道 早干嘛去了？ 请了天佑我就知道浙江卫视的老板是个东北喊麦的忠实粉丝了，浙江也是，已经是垃圾中的战斗机了 浙江卫视估计要关门了！问题太多 没有倒计时，因为浙江卫视没拿到31号的直播牌照，所以只能30号提前播了 坑啊。。。 我没看，想问问看的人，这个晚会有跨年倒计时吗？如果有，不特么的尴尬死么 时候未到 湖南人当面都爆了你妈的菊 30号跨个屁的年啊…… 30号跨尼玛的什么年 最没看头的跨年就在浙江卫视了 我都应该道歉了 湖南卫视也是这么觉得的 我期待伊一别是主持人 太不专业了 跨年？我以为我手机日历错了、一看是30号唱到31号，跨你妹啊！肯定又是那几个跑男在那自嗨的尬演尬唱，SB电视台。 道个屁啊，这点小事到什么歉，浙江卫视会道歉吗？ 之前湖南卫视我是歌手栏目曝出黑幕也很黑，可惜曝黑幕的明星没做公益，所以黑幕就不了了之了 期待浙江卫视跨年演唱会 跨年看哪个台呢? 整台晚会看得非常无聊，一帮人走马灯唱老歌挣快钱，音响效果、摄影角度、剪辑、调控各种一塌糊涂。 搞不懂为什么还有人看浙江卫视 好像还没给袁立道歉 不是不报 浙江已经沦陷。以后浙江也会化为东北产业基地 折姜卫视改为蓝翔卫视不错嘛 录播漏洞都看不见。。真吭 浙江卫视这是怎么了？难道都是临时工了？ 远看一个坑近看还似坑，仔细一看那就似一个坑🌚 很明显，是智力延迟 道歉已经是浙江卫视的日常 从此不看浙江卫视 有没有向袁立道歉呢 什么浙江卫视？蓝翔台差不多！ 傻逼不要瞎逼逼有种就来， 这是浙江卫视自己给自己挖了个坑啊 不道歉他们怎么生存呢？ 30号跨个哪门子的年？！！ 谁叫之前不给袁立道歉，现在任何问题都会被无限放大。该！ 垃圾电视台！ 唱的太难听 湖南卫视跨年张艺兴的舞蹈惊艳到我了，跳太好 浙江每年都是跑男在尬演 没有底线只为赚钱不出事才怪呢 抵制mc天佑，浙江卫视竟然请这种人跨年？ 呵呵 要警察干嘛？ 无语了 幸亏陈伟霆反应快不然后果不堪设想 有...... 珍爱生命，远离浙江卫视[被黑] 在瑞丽这个美丽的地方,云南卫视邀您共赏精彩演出! 浙江卫视怎么这么多事 Babydon’tcry……[大笑] 想起了黄家驹跌落舞台，这种安全问题真不能忽视。 录播漏洞都看不见。。真吭 最重要的一个歉却还没道! 浙卫每年的慈善晚会捐款多少大家知道吗??就拿16年的慈善晚会来说吧，一个省级电视台居然可以请到那么多娱乐明星，基本上当红的明星一网打尽，浙卫利用自己的影响力为慈善做出巨大贡献，16年整场晚会共为芭莎县捐款7526万元。 之前湖南卫视我是歌手栏目曝出黑幕也很黑，可惜曝黑幕的明星没做公益，所以黑幕就不了了之了 搞得我非常想看下倒计时回放 我没看，想问问看的人，这个晚会有跨年倒计时吗？如果有，不特么的尴尬死么 坑的地方多呢，音响灯光镜头字幕…… 垃圾中通老 我们这也刚录完3台合办的哈尔滨北京湖北。也是录播。。明星都唱2遍。就怕出漏洞。好剪裁。。浙江台业余了。。都是假唱。。明星来站10分钟就撤退了。前天去跟刘欢彩排。。上来站了了10分钟人家就走了！ 我们这也刚录完3台合办的哈尔滨北京湖北。也是录播。。明星都唱2遍。就怕出漏洞。好剪裁。。浙江台业余了。剪裁导演都不看？。都是假唱。明星谁有档期谁先来录录完就走。明星来站10分钟就撤退了。前天去跟刘欢彩排。。上来站了了10分钟人家就走了！ 道歉已经是浙江卫视的日常 。。Z 反正我也不看，所以说，你不用道歉的 谁说看不见，腾讯上面的还有。 怎么没摔死天佑那个狗比玩意呢 这不好说 一个卖肥料种子的电视台靠着浙江那种马云特色的装逼风格吵到了一线卫视，迟早滚回三线 请向袁立道歉 天意啊天意！这就是上天对浙江卫视堕落的警告！ 请那个什么天佑就不会看。 30号跨个屁的年啊…… 江苏相亲台很有优越感？ 我们这也刚录完3台合办的哈尔滨北京湖北。也是录播。。明星都唱2遍。就怕出漏洞。好剪裁。。浙江台业余了。。都是假唱。。明星来站10分钟就撤退了。前天去跟刘欢彩排。。上来站了了10分钟人家就走了！ 我在看湖南台跨年晚会 ",
        "Total": 1350,
        "Link": "http://comment.ent.163.com/ent2_bbs/D6VPENKB00038FO9.html"
    },
    "PublishTime": "12/31/201710:05:34",
    "Title": "跨年舞台现大坑 浙江卫视致歉：地台装置闭合延时_网易娱乐"
}