{
    "Title": "曝威尔希尔有机会踢世界杯 索斯盖特将关注其状态_网易体育",
    "URL": "http://sports.163.com/17/1225/19/D6HBG5GC00058781.html",
    "Source": "Netease",
    "Comment": {
        "Total": 73,
        "Reply": 20,
        "Content": "只差活力,乖了但状况好像老了.. 最强之人已在阵中 太子今年面貌焕然一新，这是要帮教授省下续约大眼的钱呀😂 三喵明年又是段子原料，完全不看好本土主帅索盖 此人要在瓜的手中。。。。 不啰嗦，求曼城大爷速度买走，英格兰的希望啊！😂 哈(•̀⌄•́) 其实上一场踢利物浦表现不错，态度很积极 三喵明年又是段子原料，完全不看好本土主帅索盖 只差活力,乖了但状况好像老了.. 我大英人才凋敝到只有太子才会传直塞 最强之人已在阵中 嗯嗯 完了，阿森纳要完蛋 惊，阿森纳元老被征召，恐身价堪比内马尔。 瓜迪奥拉明年准备去法甲证明自己了，要不又有中国球迷骂瓜迪奥拉不行了。 （｡◕‿◕｡）嗯，ks三三九！！！自去年欧洲杯之后，威尔希尔就没有再被招入国家队，不过索斯盖特并没有排除他的回归，一切取决于他的身体状态和能否持续出战的能力。（▿）：凯时！！ 太子今年面貌焕然一新，这是要帮教授省下续约大眼的钱呀😂 不啰嗦，求曼城大爷速度买走，英格兰的希望啊！😂 难怪教授不买人 买太子送坐骑🐯 想要成为巴西队的主力队员确实很难,能去世界杯是很多罗纳尔多迷都希望看到的,去世界杯当替补也不错 技术和球感还在，意识真得提高 曝威尔希尔有机会踢世界杯索斯盖特将关注其状态 这个比难道不是威尔士的吗？ 此人要在瓜的手中。。。。 ",
        "Link": "http://comment.sports.163.com/sports2_bbs/D6HBG5GC00058781.html"
    },
    "Article": "根据《每日镜报》报道，阿森纳中场威尔希尔仍有机会踢明年的世界杯，前提是他健康并且状态好。该媒体表示，三狮军团主帅索斯盖特并没有对威尔希尔关上大门，前者将在下半赛季持续密切关注小威胁的状态。最近几周，威尔希尔已经逐渐回到了枪手的主力阵容，他正在为续约而努力，他与球队的合同将在明夏到期。不过，枪手还没有给出续约的暗示，由于曾遭受一系列的伤病，他们对威尔希尔的稳定性有些怀疑。自去年欧洲杯之后，威尔希尔就没有再被招入国家队，不过索斯盖特并没有排除他的回归，一切取决于他的身体状态和能否持续出战的能力。索斯盖特曾表示，他不会带任何一个有伤病隐患的球员去世界杯。本文来源：肆客足球APP责任编辑：郑鑫桐_BJS5086",
    "PublishTime": "12/25/201719:32:19",
    "KeyWords": "索斯盖特,世界杯,阿森纳"
}