{
    "Article": "",
    "KeyWords": "网易订阅、rss、新闻、资讯",
    "Source": "Netease",
    "Title": "隐身飞机雷达吸波材料背后的“魔法”_网易订阅",
    "Comment": {
        "Link": "http://comment.war.163.com/news_junshi_bbs/D6OQTQSS051593PM.html"
    },
    "URL": "http://dy.163.com/v2/article/detail/D6OQTQSS051593PM.html",
    "PublishTime": "12/28/201717:16:40"
}