{
    "Title": "北京首个\"新年宝宝\"降生 是个体重9.5斤的大胖小子_网易新闻",
    "PublishTime": "01/01/201808:30:00",
    "URL": "http://news.163.com/18/0101/08/D726CFC90001875P.html",
    "Source": "Netease",
    "KeyWords": "新年,产妇,产房,分娩",
    "Comment": {
        "Reply": 44,
        "Content": "超重儿，预防糖尿病 祝福。 东北宝宝 9.5斤的大胖子[大笑] 第一炮谁打响的！ 还是属鸡的 这么大，肯定是剖腹产，那就不算首个了啊。。。 你真有福气! 这群艾斯比天天闲的蛋疼？千禧年首宝宝还活着吗？出来走两步！ 我初中同学，二胎10.8斤，太恐怖了d(ŐдŐ๑)！！不知道控制饮食啊，以为越重越好 都知道了吧，新年帝都又降临了个大胖小子呢，还九五之重呢 真特么无聊！ 这也是新闻啊 天拿！成十斤的大冬瓜一只，嘎嘎嘎 恭喜恭喜 剖腹的就没什么意义了 有亲戚一个9斤，一个12斤都是顺产，真厉害 你真有福气! 东北宝宝 9.5斤好重啊。 现在的孩子发育都特别好。 太重 这也是新闻啊 恭喜恭喜 9.5斤的大胖子[大笑] 剖腹的就没什么意义了 西晋 这么大，肯定是剖腹产，那就不算首个了啊。。。 都知道了吧，新年帝都又降临了个大胖小子呢，还九五之重呢 生个孩子有什么后门，这么大个超重儿妥妥剖腹啊，非常不好生 都知道了吧，新年帝都又降临了个大胖小子呢，还九五之重呢 真特么无聊！ 剖的还是顺的？如果是剖的，不能算第一个。 天拿！成十斤的大冬瓜一只，嘎嘎嘎 大胖子 超重儿，预防糖尿病 现在小孩都挺大 还是属鸡的 小编的弟弟? 京城出生的就是不一样 生的我佩服，刨的我想到的是走了后门 这种新闻年年有，记者也是真够闲。算起来当初的世纪宝宝要参加高考了吧。 太胖了 估计你儿子17岁就死了不在了 恭喜恭喜。 祝福。 这群艾斯比天天闲的蛋疼？千禧年首宝宝还活着吗？出来走两步！ 第一炮谁打响的！ 这也能上新闻？ 怎么不叫狗蛋，开玩笑 超重lu，预防低血糖 我出生也是九斤半，现在奔三十了还是只有120斤 我初中同学，二胎10.8斤，太恐怖了d(ŐдŐ๑)！！不知道控制饮食啊，以为越重越好 过度保孕养胎的结果 别酸了，这是北京本地报纸发的本地新闻，网易吃饱撑的转出来被你看见罢了，你们本地报纸一样登这些东西。 这倒霉孩子，对不起妈妈。 一般9斤都是儿。 你应该很孤单吧，一个人缓慢的翻着评论，看着评论，而这一秒，你正好看到了我的评论，这一秒你属于我的，你好，陌生人，愿你愿你早日找到自己的良人，我的评论从来不会火，就像我爱的人从来不属于我。 鸡蛋黄笑哭了 宝宝的体重是14.6斤. ",
        "Total": 270,
        "Link": "http://comment.news.163.com/news_shehui7_bbs/D726CFC90001875P.html"
    },
    "Article": "（原标题：2018“新年宝宝”诞生）法制晚报看法新闻2018年1月1日零时8分，2018年首位新年宝宝在北京妇产医院降生。凌晨1时25分，另一位男宝宝“蛋蛋”也和爸爸妈妈见了面，他的父亲表示，还希望再要一个女儿，小名叫“蛋白”。昨日23时30分许，多名家属已经等候在北京妇产医院产房外，期待着家中新生命的到来。今天凌晨零时8分，第三分娩室内传出嘹亮的啼哭声，2018年北京市第一位“新年宝宝”降生。摄/记者武玉姗这位新年宝宝是个男孩，体重4770克。得知宝宝的降生，等候在产房外孩子的奶奶和姥姥都十分欣喜。孩子的奶奶告诉法制晚报?看法新闻记者，儿子和儿媳都在北京工作，她们一个月前就从老家黑龙江赶来，儿媳今年24岁。孩子的奶奶表示，在产妇怀孕4个月的时候，家里便给宝宝想了名字，“名字是根据家谱想的。”对于孩子的小名，产妇的家人表示不愿透露。“希望孩子长大后能成为优秀的人才，我们全家人幸福美满。”孩子的奶奶说。凌晨1时25分，第五分娩室也传来了喜讯，小男孩“蛋蛋”出生了。初为人父的黄先生告诉记者，孩子重3330克，“正好是六斤六两六，我的阴历生日还是六月初六的。”黄先生告诉记者，儿子的小名叫“蛋蛋”。“因为我姓黄，今年又是鸡年，又赶上元旦，就是‘鸡蛋黄’，最有营养的宝宝。”黄先生说，孩子长得像妈妈，希望他将来当老师。“我们还想再要一个女孩，小名叫‘蛋白’。”看着妻子和她怀中的儿子，黄先生满是疼爱。本文来源：法制晚报-看法新闻作者：武玉姗责任编辑：谷莹_NN6577"
}