{
    "URL": "http://news.163.com/17/1227/14/D6LUHT130001899N.html",
    "Comment": {
        "Total": 3595,
        "Reply": 139,
        "Link": "http://comment.news.163.com/news2_bbs/D6LUHT130001899N.html",
        "Content": "哼哼 你一个交警，调查个JB线索 喷可以，别瞎喷。是刑警，不是交警 他们总能完美的找到借口 还行吧，警车长安面包，够低调了。 这很中国！ 好警察，返程路上都还要额外加个班调查线索。 嘴是两张皮咋说咋有理，是谁说的王子犯法与庶民同罪，但是有谁见过吗，为什么官有两个口民是一张口，什么时候都能说住老白性的 我擦你喷也得看完啊开车的是刑警 哦哦 不是是不是的问题，而是信不信的问题。 警察知道古玩都是假的 这不正常吗？记者一天吃饱没事干 公车之中警车真的很低调了，虽然也有个别的豪车，毕竟是少数。看看军车，清一色的都是普拉多 嗯嗯 个破面包，也有人跟他较劲？嫖娼让警察抓过吧？😃😃😃😃😃😃 这难道是紧急任务？ 呵呵 调查谁？要小心了 这个老板比警察还恶心 古玩店主原来是火云邪神 他敢不这么恶心吗？？还想在那混不？？？ 交警到古玩店调查个屁线索，而且这线索还是古玩店主提供的，难不成在店里看到了什么车辆肇事…… 好公民！ 不管你信不信，反正我是信了 肯定不是办案 调查就可以违停是这个意思？呵呵 路上看到一般的警车，违章停车，我不会理会。但是交警的违章了，对不起，我一定拨打110报警。 没看到扫黄抓赌啊？ 跟贴被火星网友带走啦~ 被盯上的、出风头的怎么都喜欢嫖娼呢？ 他妈的，老虎头上拍苍蝇，胆大妄为！ 刑警开交通队的车？？我没看错吧。有点驴唇不对马嘴 刑警出门开着交警大队的车？ 俩亲戚能说什么？ 贴的好 你们相信店主说的话吗？ 嗯，你想好了再说话…… 如果是你呢？你敢不这么说？不想做生意了？ 如果这个店主说谎了，算不算伪证呢？ 跟贴被火星网友带走啦~ gl8改装的壳子 紧急情况？？？谁说了算？？？ 不是是不是的问题，而是信不信的问题。 我可耻的信了 还行吧，警车长安面包，够低调了。 嘴是两张皮咋说咋有理，是谁说的王子犯法与庶民同罪，但是有谁见过吗，为什么官有两个口民是一张口，什么时候都能说住老白性的 除非有确实的证据，一般还是不要写这种纸条的好，因为警察办案是没有违停之说的，而且国内也不会公布有关办案的详细信息，你如果没证据说你造谣你还真没地讲理去。 谁信了? 如果这个店主说谎了，算不算伪证呢？ 好像也不是什么紧急任务 哪个路口路边停的警车、路政、交通、城管、城建车里有几个不是在玩手机？现在不玩扑克就进步了！ 有一种电子装置叫监控探头，在这种古玩店很有可能会安装，而且在门口也有可能安装，能拍到门口马路上的情况。 调查谁？要小心了 交警干起了刑警的活 跟贴被火星网友带走啦~ 必须是公干！ 可能调查古董案子好吧我信了 欲盖弥彰 跟贴被火星网友带走啦~ 什么案件线索啊古玩身上有什么线索都不详细说说么在说你要看你能不能换个地方文章里说了是长时间看 不紧急的情况下按紧急处理吧…… 店主一看就是奸商，算伪证。 不然还能咋说？又是朋友！ 那地方？！ 瞎喷，看过全文再喷 公务员好耶！ 最紧回避一下吧 刑警出门开着交警大队的车？ 这很中国！ 细思极恐… 你们让老板怎么说，他也不敢说实话啊 你一个交警，调查个JB线索 线人，懂不懂 信了你的鞋 我擦你喷也得看完啊开车的是刑警 所以办案不能去古玩店？ 如果是你呢？你敢不这么说？不想做生意了？ 这个老板比警察还恶心 交警到古玩店调查个屁线索，而且这线索还是古玩店主提供的，难不成在店里看到了什么车辆肇事…… 区伯天天发微博！ 肯定不是办案 调查就可以违停是这个意思？呵呵 路上看到一般的警车，违章停车，我不会理会。但是交警的违章了，对不起，我一定拨打110报警。 只是说行驶不受限制，没说可以违停，上次新闻说过了 被盯上的、出风头的怎么都喜欢嫖娼呢？ 大胆刁民 线人敢对着镜头说自己是警察的朋友？ 怎么查这个老板说的都是真的！！！！！！ 美国警察办案，都是先找停车位，再去抓人的 重点在民警跟古玩店老板是朋友 你们相信店主说的话吗？ 跟贴被火星网友带走啦~ gl8改装的壳子 goodjob 还行吧，警车长安面包，够低调了。 是应该搞清楚 他们是爷爷耶😁😁😁 刑警队开着交警队的车，隐蔽性强不被敌人发现。 我本不想骂人的。文章里明确说了是交警大队的车。疵獒 小心15天拘留 如果这个店主说谎了，算不算伪证呢？ 个破面包，也有人跟他较劲？嫖娼让警察抓过吧？😃😃😃😃😃😃 贴“罚单”的要小心了 调查谁？要小心了 他敢不这么恶心吗？？还想在那混不？？？ 伞底下的人，说的话有可信度吗？ 这才说明这车能停在任何地方 停车枫林晚 大家争做好公民！ 也就是派出所的民警，绝对不是刑警 这难道是紧急任务？ 表示呵呵 只有政府部门遵守法律，才能带动居民守法。现实是政府部门违法了，总是有各种合法的违法理由，难道居民都是傻子。 好公民！ 嗯，你想好了再说话…… 你信吗？ 啥线索？无间道？ 好一个人民群众，厉害了 喷可以，别瞎喷。是刑警，不是交警 他们总能完美的找到借口 呵呵，查也是白查 鬼吹灯 过来问一下 哪里写着交警? 不能知法犯法 难道你们重庆的警车都是奔驰宝马？？ 公车之中警车真的很低调了，虽然也有个别的豪车，毕竟是少数。看看军车，清一色的都是普拉多 我只能呵呵呵 简直可怕 哪位官爷要栽了？ 就算是你在上班在查案！那我们上班也能顺便停车啰？ 好的😄 这个老板比警察还恶心 交警到古玩店调查个屁线索，而且这线索还是古玩店主提供的，难不成在店里看到了什么车辆肇事…… 刑警开交通队的车？？我没看错吧。有点驴唇不对马嘴 这结果都不用出来大家都已经知道调查结果了😂 警察在古玩店收集古代悬疑案证据，请群众谅解 牛逼啊，交警大队的车，开车的是民警，去还东西，又顺道办案，这话让人怎么信？ 都那个样。。。。。洗洗更健康。。。 一楼不长眼 知法犯法 这都是基层的车而已，我们这基层的还是奇瑞能。领导的车丰田福特别克多了。 我们现在都习惯他们那样了，只要他们少干点伤天害理的事就行了！ 哼哼 交警调查古玩案件？开玩笑 还行吧，警车长安面包，够低调了。 警察以后不要在办案了 呵呵 有些东西你需要一个力量去制约。 如果这个店主说谎了，算不算伪证呢？ 分析的有道理 因为中国军队是日本人管的。所以都是日本车。而且政府也是。只是你们不知道而已。 这年头有什么事多说不清 哈哈，反了反了 肯定是辅警了！ 警察知道古玩都是假的 要有证据证明 请问哪位科普下警察的常态工作是干嘛的？什么时候常态工作变成违法违规的理由借口了。 人家想怎么说就怎么说，你再问那就是办案机密了，呵呵 这老板没说在实话 这文章写的好给小编加鸡蛋 贴的好 眼瞎了吗？是分局的警车 俩人认识！呵呵. 店主，小心做假证哦 好警察，返程路上都还要额外加个班调查线索。 那个店主满嘴谎话，不过也没办法，说真话的都进去了 我们民警以后不要出警办案，成了什么世道了。以后出警先找停车位，反正怎么都是违法。 哪说是交警 人家再给局座挑礼物，非法持有文物，没收，这种事以前不少吧！ 当事民警姓李，是他的朋友 嘻嘻 公车之中警车真的很低调了，虽然也有个别的豪车，毕竟是少数。看看军车，清一色的都是普拉多 嗯嗯 这种事情不少见，深圳警车🚓违停然后吃饭喝酒。举报无门。 呵呵 宝宝心里苦啊。。 这个老板比警察还恶心 下了班就是奥迪宝马 古玩店主原来是火云邪神 哈哈哈哈哈哈哈哈哈哈 国家养育了你们，不喜欢就去美国阿 交警到古玩店调查个屁线索，而且这线索还是古玩店主提供的，难不成在店里看到了什么车辆肇事…… 不管你信不信，反正我是信了 交警在查案子，大家不要乱猜了。 没看到扫黄抓赌啊？ 这不正常吗？记者一天吃饱没事干 j假话连篇了、 俩亲戚能说什么？ 警车长安面包，够低调了。 真是不知好歹，执法者是你管得着的？ 嗯嗯 他妈的，老虎头上拍苍蝇，胆大妄为！ 呵呵 哦哦 "
    },
    "Article": "（原标题：汉中群众给“违停”警车开“罚单”警务督察已介入）#endText.video-infoa{text-decoration:none;color:#000;}#endText.video-infoa:hover{color:#d34747;}#endText.video-listli{overflow:hidden;float:left;list-style:none;width:132px;height:118px;position:relative;margin:8px3px0px0px;}#entText.video-lista,#endText.video-lista:visited{text-decoration:none;color:#fff;}#endText.video-list.overlay{text-align:left;padding:0px6px;background-color:#313131;font-size:12px;width:120px;position:absolute;bottom:0px;left:0px;height:26px;line-height:26px;overflow:hidden;color:#fff;}#endText.video-list.on{border-bottom:8pxsolid#c4282b;}#endText.video-list.play{width:20px;height:20px;background:url(http://img1.cache.netease.com/video/img14/zhuzhan/play.png);position:absolute;right:12px;top:62px;opacity:0.7;color:#fff;filter:alpha(opacity=70);_background:none;_filter:progid:DXImageTransform.Microsoft.AlphaImageLoader(src=\"http://img1.cache.netease.com/video/img14/zhuzhan/play.png\");}#endText.video-lista:hover.play{opacity:1;filter:alpha(opacity=100);_filter:progid:DXImageTransform.Microsoft.AlphaImageLoader(src=\"http://img1.cache.netease.com/video/img14/zhuzhan/play.png\");}if(/(iPhone|iPad|iPod|Android|NETEASEBOBO|blackberry|bb\\d+)/ig.test(navigator.userAgent)||/safari|chrome|firefox/i.test(navigator.userAgent)&&navigator.plugins&&!navigator.plugins[\"ShockwaveFlash\"]){varstr1='<videocontrols=\"controls\"preload=\"auto\"width=\"100%\"poster=\"http://vimg3.ws.126.net/image/snapshot/2017/12/6/B/VD5O4U96B.jpg\"style=\"max-height:100%\">';varstr2='<sourcetype=\"video/mp4\"src=\"http://flv.bn.netease.com/videolib3/1712/27/erfgV5714/SD/erfgV5714-mobile.mp4\">您的浏览器暂时无法播放此视频.</video>';document.getElementById(\"FPlayer1404863609673\").parentNode.innerHTML=str1+str2;}汉中群众给“违停”警车开“罚单”警务督察已介入（来源：~）window.NTES&&function(d){varf=function(c){varb=c.getAttribute(\"flashvars\"),a=c.getAttribute(\"repovideourl\").replace(\".flv\",\"-mobile.mp4\");h=d(c.parentNode.parentNode.parentNode),g='<embedsrc=\"http://v.163.com/swf/video/NetEaseFlvPlayerV3.swf\"flashvars=\"'+b+'\"allowfullscreen=\"true\"allowscriptaccess=\"always\"quality=\"high\"wmode=\"opaque\"width=\"100%\"height=\"100%\"type=\"application/x-shockwave-flash\"/>';if(/(iPhone|iPad|iPod|Android|NETEASEBOBO|blackberry|bb\\d+)/ig.test(navigator.userAgent)){g='<videocontrols=\"controls\"preload=\"auto\"width=\"100%\"height=\"100%\"><sourcetype=\"video/mp4\"src=\"'+a+'\">您的浏览器暂时无法播放此视频.</video>';}h.$(\".video\")[0].innerHTML=g;},e=function(b){vara=d(b.parentNode.parentNode.parentNode);a.$(\"li\").removeCss(\"on\"),b.addCss(\"on\"),a.$(\".video-title\")[0].innerHTML=\"string\"==typeofb.textContent?b.textContent:b.innerText,a.$(\".video-title\")[0].setAttribute(\"href\",b.getAttribute(\"url\")),a.$(\".video-from\")[0].innerHTML=\"（来源：\"+b.getAttribute(\"source\")+\"）\",f(b);};window.continuePlay=function(){vara,b=d(d(\".video-list.on\")[0].nextSibling);3==b.nodeType&&(b=d(b.nextSibling));if(b&&d(\".video-innerinput\")[0].checked){e(b);}},function(){vara={init:function(){if(d(\".video-listli\")[0]){d(d(\".video-listli\")[0]).addCss(\"on\"),this.eventBind();}},eventBind:function(){d(\".video-listli\").addEvent(\"click\",function(b){e(d(this)),b.preventDefault();});}};a.init();}();}(NTES);最近，一位群众手写的罚单被贴在了汉中市公安局文柳分局的警车上，群众称警察在上班时间看古玩，民警称他们是在执行公务，那么事情真相究竟如何？记者前往事发现场进行了调查。从照片中可以看到，一辆停靠在汉中城固汉白路天桥附近的警车被贴上了一张手写罚单，罚单落款为“人民群众”，内容为：陕F0969警，违停时间之长，上班时间开着警车看古玩，请务必到城固交警大队接受处罚。那么，这辆警车是否违停？警察是否真的在上班时间看古玩？记者来到这张照片的拍摄地点调查发现，当时警车停放的位置属于机动车行车道，并不是路边的划定的停车位。但是按照《中国道路交通安全法》第五十三条规定，警车执行紧急任务时，在确保安全的前提下，不受行驶路线、行驶方向、行驶速度和信号灯的限制，其他车辆和行人应当让行。那么，这辆警车当天为什么会停放在这里呢？警察到底有没有去过古玩店呢？在距离警车停放位置大约50米处，就有一家古玩字画装裱店，店主梁先生表示，当天确实有警察来过他的店。古玩店店主梁小龙：“他们跑过来，他们有公事干，顺路跑过来问了一下。”梁先生说，当事民警姓李，是他的朋友，之前，他曾向李警官反映过一条案件线索，而李警官之所以到他们店里，也是来调查那条线索的。古玩店店主梁小龙：“因为我跟那个警察原先也认识，我也相信他，有些啥事我就问他，他过来，就遇到了这么个情况。”记者：“那车和警察是哪里的？”古玩店店主梁小龙：“警察是柳林（文柳分局）的，车也是柳林（文柳分局）的。”记者随后来到了汉中市公安局文柳分局，一位负责人表示，当事警车是交警大队的车，警察是汉中公安局文柳分局刑警队的民警。事发当天，两位民警开着车，去城固县公安局还宣传展板，在回程的途中，到古玩店调查线索。目前汉中市公安局表示，警务督察部门已经介入调查。本文来源：西部网责任编辑：王征_NN7526",
    "KeyWords": "警车,违停,罚单,汉中",
    "Source": "Netease",
    "Title": "市民给违停警车贴罚单:上班看古玩 警方称在查案_网易新闻",
    "PublishTime": "12/27/201714:22:16"
}