{
    "PublishTime": "12/27/201719:53:55",
    "Source": "Netease",
    "Comment": {
        "Link": "http://comment.news.163.com/news2_bbs/D6MHH5KM0001899N.html",
        "Total": 409,
        "Reply": 23,
        "Content": "有啥聪明，真聪明就不参与了 朋友圈：“关我啥事？” 哈哈哈哈 你说对了，你母亲的确厉害，每次搞得我精疲力尽😉😉 犯罪团伙已成功拿下方总 不怕贼偷，就怕贼惦记[微笑] 女子晒富无非二种：一是上她的人牛比，一是上她妈的人牛比。 财不外露一点都不知道 方总悄悄的擦了把冷汗 张某才是里面最聪明的人 幸好发现的早 财不外露一点都不知道 你说对了，你母亲的确厉害，每次搞得我精疲力尽😉😉 全款拿下 哈哈哈哈 万能的朋友圈 有啥聪明，真聪明就不参与了 微商危险了 明白人，看到她是一个人生活，长得还不错 犯罪团伙已成功拿下方总 我差点就上当了 从标题图来看，这篇文章就想骗我买迈凯轮嘛，突出了店里的师傅够细心～～ 扫帚捅马眼吗 此地无银三百两。隔壁王八不曾偷。 方总悄悄的擦了把冷汗 张某才是里面最聪明的人 有人在晒豪宅 不晒不会死咯 不怕贼偷，就怕贼惦记[微笑] 女子晒富无非二种：一是上她的人牛比，一是上她妈的人牛比。 幸好发现的早 朋友圈：“关我啥事？” 低调点嘛 张某不会是爱上这个女人了吧 "
    },
    "Article": "（原标题：千万别在朋友圈晒这东西了！苏州一对母女被跟踪，女儿差点遭绑架……）现在很多人都离不开微信，时不时就要刷一刷朋友圈，看看朋友们都分享了些什么。朋友圈里，晒幸福的、晒娃的、晒名牌包包的更是大有人在。然而，在收获点赞的同时，也有可能带来一些未知的危险。女子接到提醒电话发现车底被装定位器不久前，苏州市民何女士接到了一个陌生电话，一名男子称有人要对她不利。刚开始，何女士以为是恶作剧，并没有理会。可两天后，何女士到4S店给汽车做保养时，工作人员告诉她，她的汽车底盘上被人安装了一个东西，“我也从来没有给汽车加装过什么东西，我就让师傅把东西取下来，他们看了一下说很可能是GPS。”想到之前的陌生电话，何女士赶紧报了警。民警鉴定后，确认何女士车上装的的确是一个定位装置，里面还有一张电话卡，对卡内信息进行技术处理后，警方掌握了一名嫌疑人的身份。苏州市公安局枫桥派出所民警李家鼎介绍，该嫌疑人在何女士报警前一周之内从外地来到苏州，并且到了苏州后还和另外三名男子在旅馆同住在一起。随后，民警将这四名嫌疑人抓获，经何女士辨认，四人中有一人竟是她的小学同学胡某，但两人从来没有联系过，只是有各自的微信。朋友圈晒照炫富被同学盯上险遭绑架嫌疑人交待，何女士经常在朋友圈里晒豪宅、豪车以及名牌包包，还晒出了孩子上学的学校等等。由此，欠了一屁股债的胡某产生了绑架敲诈的想法，还找来了三名同伙，对何女士展开了跟踪。胡某和他的同伙一行，正是从何女士晒出的女儿上学的地点入手，开始实施跟踪。为了方便跟踪，胡某还在何女士的汽车上装了GPS定位。通过十多天的跟踪，胡某等人掌握了何女士的生活轨迹，正准备动手时被警方抓获。审讯中民警了解到，之前打电话给何女士作出提醒的神秘男子，正是其中一名嫌疑人张某。绑匪中有人良心发现偷偷通风报信原来，张某在跟踪何女士一段时间后，了解到何女士一个人带着女儿生活，便产生了同情之心，于是偷偷联系了何女士。“我想了一个晚上，我外面欠的钱不多只有十几万，我打工三年左右就能还完，绑架她或者绑架她女儿她怎么办？”案发后，民警在胡某等人的面包车内查获了刀具、头套以及胶带等准备实施绑架的工具。目前，胡某等三人因涉嫌绑架罪已被批准逮捕，而张某因有自首情节，被取保候审。本文来源：江苏新闻责任编辑：徐萌_NN7485",
    "Title": "女子在朋友圈晒豪宅豪车 被同学盯上动手绑架其女_网易新闻",
    "URL": "http://news.163.com/17/1227/19/D6MHH5KM0001899N.html",
    "KeyWords": "朋友圈,绑架,豪车"
}