{
    "Source": "Netease",
    "PublishTime": "12/25/201719:09:44",
    "KeyWords": "十九大,中共中央,党务,中国共产党",
    "Title": "十九大后首部党内条例发布 一图get\"党务公开\"重点_网易新闻",
    "Comment": {
        "Link": "http://comment.news.163.com/news2_bbs/D6HA6QSR0001899N.html",
        "Total": 4,
        "Content": "",
        "Reply": 0
    },
    "Article": "【重磅！一图秒懂“党务公开”核心点】彰显中国共产党自信与自觉、气魄与决心！中共中央制定的《中国共产党党务公开条例（试行）》25日全文公布，这是党的十九大后发布的首部条例，也是党务公开领域的基础主干法规。“公开什么”“向谁公开”“如何公开”……想速览条例说了什么，就看这张图：本文来源：新华视点责任编辑：徐萌_NN7485",
    "URL": "http://news.163.com/17/1225/19/D6HA6QSR0001899N.html"
}