{
    "Article": "（原标题：女大学生轻信被骗损失千余元网络主播也连声叫屈称账号被盗）直播骗局?如今，一提到“直播”二字，想必很多人的第一反应不再是电视机上的现场直播，而是会想到一些App里某某主播的直播间。我们今天要说的就是发生在快手直播上的一场骗局。受害者小雪（化名）是家住公主岭市的一名大学生，她讲述了去年12月20日的遭遇。如果你也看到了她所看到的信息，那么最好问一问自己：是不是也会上当？一条“广告”！“为回馈粉丝，前100名添加主播微信的网友，将会得到我们送出的一部苹果X手机。但要先支付50元快递费，邮费在邮件到达时快递员会返还。”如果你像小雪一样相信了这个“广告”，并添加对方微信好友后，会收到大致这样一条微信内容——“您是活动范围内前100名，获得正品苹果X一台！绝对正品国行。统一发顺丰快递……没有邮费，快递不给发！不理解的就不要参与了！2~3天到货，下单还会送名牌香水和面膜。”如果，你接着询问对方活动是否真实的话，会收到如下回复——“很多人问我真假！不信可以不参与！没必要为了几十元伤了几十万粉丝！也没穷到骗粉丝的地步！”就这样，小雪掉入了这个骗局，但她被对方骗的不是50元，而是它的20多倍——1150元。对方是谁？谁在直播间里发布的送苹果手机内容？是谁骗走了小雪的钱？是不是主播？说到这，直播间的主人——黑龙江某高校在读的主播小王直称委屈，因为“账号被盗了！那人不是我”。这究竟是怎么回事？新文化记者对此事进行了调查核实，并采访了通讯方面的技术人员徐先生。徐先生对小雪和小王所说的遭遇还进行了复盘。小雪说是自己贪了小便宜50元小雪平时喜欢看各种直播。“我在快手上关注一对黑龙江情侣的直播很久了，他们除了跟粉丝聊天互动外，还会录一些段子，都挺有意思的。”小雪说。去年12月20日下午，小雪像往常一样，打开了快手直播，在该主播的房间内看到了前文所说的“广告”，一来二去，他开始给对方转钱。小雪先用微信红包付给对方50元作为快递费。之后对方又说需要核实账户，需要交100元费用，并且要小雪提供身份证号、支付宝账号、手机号、邮寄地址等。“我当时也提出了疑问，不是只需要50元快递费吗？”小雪说，“但对方说，因涉及到开户，手机需要激活，并且要求实名制等一堆理由。”100元+200元之后小雪给对方转账100元“核实账户”费。但随后对方又要她缴纳200元激活手机的费用。在小雪转账之后，微信聊天界面突然出现了提醒。“对方账号有严重异常，极有可能已被盗号，与其发生资金往来可能存在风险，请注意核实身份，涉及汇款、转账等业务必须电话确认，谨防诈骗。”??300元+400元+100元小雪看到这条提示非常紧张，马上给对方发微信视频请求，但旋即被对方挂断。“他说回馈是给真的粉丝的，不是给喷子的，你不信就走远点！”因为先前已经给对方350元，小雪当时选择了继续相信。之后对方又要她支付300元保证金、确定开户信息费400元，最终又让她交了100元运费险。但此时，对方突然不再回消息，再搜索对方账号已无法显示。反思自己太容易相信别人虽然早有预感，但在发现真的被骗的那一刻，小雪还是无法接受，觉得被那名主播骗了。“后来那名主播用新号发消息称，自己的账号被盗了。”小雪说，“我当时还是有点怀疑的，微信可能被盗，快手怎么也能被盗？”事后，小雪将这件事发到了微博上，引来了很多网友的关注和评论，并且有很多评论都很刻薄。“我就是太相信那名主播不会骗粉丝的钱，但我也知道自己贪了小便宜，因为要实习，刚巧手机不好用，就碰到了这件事……”小雪说，“昨天看微博上的人骂了我一天，我也知道自己真的很蠢。”对于小雪的遭遇，徐先生表示很无奈。“在她支付200元的时候，微信已经弹出提醒，账号存在严重异常。”徐先生说，“如果这时候他终止支付，至少不会损失之后的800元钱，这是一个骗中骗的骗局，一方面骗直播者，一方面骗粉丝的钱财。”小王说快手账号被盗QQ邮箱收到一封邮件在小雪为自己的损失懊恼时，1月3日上午，新文化记者辗转联系到了这名主播小王，他和女友都在黑龙江省某高校读书。小王讲述了他的遭遇：我和朋友一共有两个快手账号，我们玩快手有一年多吧，就是想通过这个平台赚点生活费。被盗的那个号有十多万粉丝了，那是我们辛辛苦苦培养了一年的号啊！我和女友除了直播外还做微商。去年12月19日9点多，有人联系我买东西，对方说无法微信转账，要给我发张“充值卡”，说是能直接充值到我QQ账号财付通里面。随后对方给我的QQ邮箱里发了一封邮件，单从邮件内容上看，很逼真，特别像财付通发来的内容。对方催促我点击邮件中的“立即查收”链接，说查收后，里面的钱就可以提现。但我点击后发现，钱包里没有任何变化，并且在10点左右时，我发现快手账号登录不上去了，再一查，快手账号绑定的手机号也被改了。虽然我不知道对方是通过何种技术手段盗取了我的快手账号，但可以肯定的是，那封邮件一定有问题。应该是木马一类的病毒程序吧！曾试图要回账号我想把账号要回来，给对方发消息：（快手）里面的钱都没有了，你是不是绑定了你的手机号了？“嗯嗯。”骗子回答说。我让对方把账号还给我。“你支付宝给300（元）过来，号我可以给回你。”骗子说。我担心对方收到钱后也不给我账号，就试图阻止对方登录我的快手账号。我也担心骗子会利用我的号去骗粉丝，我联系了客服，客服人员要求我们提供身份证等信息，在三个工作日内解决。我和女友曾反复登录账号，让系统给骗子绑定的手机发送验证码，最终造成“账号异常”无法登录的情况，阻止对方登录账号。但后来我们还是发现，有人在利用我们的账号进行游戏直播。那和真人直播不一样，游戏直播只能听到声音。直播者是一个操着南方口音的男子，一边直播一边说可以送粉丝游戏人物皮肤和苹果X手机。我和女友以及一些熟悉我们的粉丝一直在下面打字，提醒大家，这并不是本人，是骗子，大家不要相信。但很快，我们都被拉黑了，并且被禁言。我也是受害者“在我们一直申诉下，账号终于被冻结，但当时我也不知道真的有粉丝被骗了，直到我们在微博上看到了小雪的遭遇。”小王说，骗子的手段并不高明，一部256G的苹果X官网售价9688元，送100部就是将近100万元，要是真的回馈粉丝，还差50块钱邮费吗？挺拙劣的。小王说，他在这件事上和女友也是受害者。其快手账号目前还是冻结状态，账号里价值1000多元钱的虚拟物品也都没了，还损失了不少粉丝。“最近我听说不少快手主播的号都被盗了，甚至不乏有数十万粉丝的大主播。”小王透露。记者在快手App内以“大号被盗”为关键词进行搜索，发现有近百人的名字都改成了“大号被盗，关于钱财勿信”之类的名字。1月3日下午，新文化记者试图联系快手官方客服，但截至发稿时至，一直未得到对方回复。徐先生看了骗子发给小王的“支付卡”截图，表示虽然页面很逼真，但发件人却显示是个人邮箱，并不是腾讯的官方邮件，如果留意，可能不会上当；此外，小王点击了邮件中的“立即查收”链接，则犯了“不点击任何来历不明的链接”这一大忌；之后骗子让他交300元赎回账号，小王没有支付是正确的，否则可能会陷入骗子更深的套路之中。本文来源：华商网-新文化报。更多精彩内容请登录华商网(http://www.hsw.cn)责任编辑：张海桐_NN9053",
    "URL": "http://news.163.com/18/0104/00/D792I4BB00018AOP.html",
    "KeyWords": "支付宝,微信,网络主播,骗子",
    "PublishTime": "01/04/201800:37:42",
    "Title": "主播送苹果X?女大学生贪便宜被骗 主播为何也叫屈_网易新闻",
    "Comment": {
        "Content": "一般都是送苹果付X，这种低级骗术都有人信。 吸取教训把网络这种的是虚拟的很难 这不会是这个女大学生第一次上当，也不会是最后一次上当。因为智商属于硬伤。 吸取教训把网络这种的是虚拟的很难 一般都是送苹果付X，这种低级骗术都有人信。 这不会是这个女大学生第一次上当，也不会是最后一次上当。因为智商属于硬伤。 ",
        "Link": "http://comment.news.163.com/news2_bbs/D792I4BB00018AOP.html",
        "Total": 9,
        "Reply": 3
    },
    "Source": "Netease"
}