{
    "Article": "沈梦辰透视纱裙仙气飘飘脸部僵硬不像本人12月28日，沈梦辰出席某活动，当晚的她身穿连衣纱裙，身姿曼妙仙气十足，只不过笑起来的时候脸部略显僵硬，看上去很不自然。",
    "URL": "http://ent.163.com/photoview/00AJ0003/646898.html",
    "Source": "Netease",
    "KeyWords": "沈梦辰,",
    "Comment": {
        "Reply": 92,
        "Link": "http://comment.ent.163.com/ent2_bbs/PHOTJNNI000300AJ.html",
        "Total": 693,
        "Content": "丑货 脸部僵硬不像人 看着太假了！！ 这脸怎么啦 又整了 整容又失败了 脸削了吧 她就算了吧 确定不是蜡像吗？ 鼻子变了 這臉嚇到人啦 她的性生活怎么解决的？ 这刘海不能忍[疲惫][疲惫][疲惫] 刚打完玻尿酸 性格还是挺好的 哈哈，这么瞧不起杜海涛？ 这整的亲妈都认不出来了吧. 鼻子回炉了，猪鼻子变鹰钩鼻了 这脸还算正常啊 蜡像 不敢大笑了哈哈 赞小沈<br>一帘白纱裹腰身，好似仙子如凡尘。<br>月供虽好空寂寂，逼仄台阁日晕晕。<br>小蛮颜色世所希，都与金翁乱乾坤。<br>纤指遥遥送君前，让君沉醉酒一尊。<br>坎离交媾寻常事，猪狗何处不销魂。<br>独依珠箔闲度日，操扫金屋吟黄昏。<br>愿君三更化莲台，了如春梦乐观阴。 看着别扭不自然 这么久没出来闹腾，原来去做鼻综合了。以前朝天现在好多了 又变脸了 还真是看不出来是沈梦辰 鼻子确实不一样了啊。。。这。。 隔着屏幕，都闻到那股騒气 哦，大鼻孔整没了 假脸 结婚结婚早点让你男朋友杜海涛他迎娶进门吧，早日步入婚姻殿堂呗！沈梦辰哈哈 完全认不出来啊！！！！这伙是她！！！！？ 我去这脸僵的 对不起以前张什么样我也不知道 像个廉价的充气娃娃，淘宝款的 玻尿酸也能过期？ 不像本人？<br>是不像人吧 这脸是要崩的节奏 这他妈是沈梦辰？ 天呐真心认不出来 40几啦 丑货 哦，大鼻孔整没了 又变样了 整容又失败了 脸削了吧 刚打完玻尿酸 确定不是蜡像吗？ 这脸还算正常啊 這臉嚇到人啦 她的性生活怎么解决的？ 皮肤坑坑洼洼为啥整容后遗症会这样 呵呵 呵呵 隔着屏幕，都闻到那股騒气 哈哈，这么瞧不起杜海涛？ 呵呵 呵呵 呵呵 是挺漂亮的呢 整容失败典型案例！ 呵呵 看着别扭不自然 给我艹，我还是愿意的 又变脸了 噜噜噜噜噜噜噜噜 还真是看不出来是沈梦辰 能p成这样真不容易 很美 有点不一样 蜡像 玻尿酸打多嘞 鼻子 完全认不出来啊！！！！这伙是她！！！！？ 快整成充气娃娃了。 对不起以前张什么样我也不知道 这是沈梦辰？真的假的？ 像个廉价的充气娃娃，淘宝款的 玻尿酸也能过期？ 不像本人？<br>是不像人吧 好想来股风把她的刘海吹开，吹开！ 这脸怎么啦 丑货 脸部僵硬不像人 看着太假了！！ 赞小沈<br>一帘白纱裹腰身，好似仙子如凡尘。<br>月供虽好空寂寂，逼仄台阁日晕晕。<br>小蛮颜色世所希，都与金翁乱乾坤。<br>纤指遥遥送君前，让君沉醉酒一尊。<br>坎离交媾寻常事，猪狗何处不销魂。<br>独依珠箔闲度日，操扫金屋吟黄昏。<br>愿君三更化莲台，了如春梦乐观阴。 这次支持一下小编说的没错 这不是那头猪的配偶吗 B真就行 她就算了吧 千年刘海 鼻子变了 好漂亮好新鲜好柔软好性感好好用 会所随便有砖头拍一个都比她好看。 这刘海不能忍[疲惫][疲惫][疲惫] 不要整天上头条秀自己，生米煮成熟饭接受事实有本事儿赶紧让你男朋友杜海涛他迎娶进门啊，好好回家生小孩儿去哇！沈梦辰哈哈 性格还是挺好的 别卸妆。 不疆啊，比死人好多了 这整的亲妈都认不出来了吧. 又整了 感觉挺自然的呀 仙气飘飘 不敢大笑了哈哈 还是挺好看的呢 这是整了吗 鼻子回炉一下好看点了 马桶台混的靠不要脸吸眼球 挺好的呀这不 长得那么漂亮何必再去整呢 濃好了鼻子比之前漂亮多了 哎。之前脸虽然整了但有辨识度你现在一整都感觉崩啦 假脸 结婚结婚早点让你男朋友杜海涛他迎娶进门吧，早日步入婚姻殿堂呗！沈梦辰哈哈 說啥 额。。。。 我去这脸僵的 鼻子变了 你这话问的。。你这不是难为一楼嘛。。 讨厌 家中宝 鼻子重新做过了 给你艹你不要？ 这他妈是沈梦辰？ 又整了 鼻子确实不一样了啊。。。这。。 天呐真心认不出来 天呐真心认不出来 明星每天都长得不一样呢 鼻子确实不一样了啊。。。这。。 这脸是要崩的节奏 鼻子回炉了，猪鼻子变鹰钩鼻了 这么久没出来闹腾，原来去做鼻综合了。以前朝天现在好多了 "
    },
    "Title": "沈梦辰透视纱裙仙气飘飘 脸部僵硬不像本人_网易娱乐",
    "PublishTime": "12/29/201708:11:03"
}