{
    "URL": "http://tech.163.com/17/1227/13/D6LQB59T00097U7S.html",
    "Comment": {
        "Total": 1487,
        "Reply": 203,
        "Link": "http://comment.tech.163.com/tech_bbs/D6LQB59T00097U7S.html",
        "Content": "京东换菜100出头。。。。有那么难么？ 呵呵，在上海银看来，上海就是有钱人，除非别人用钱砸他，否则他就是最有钱的 用户自己会去换车胎的，要你汽车公司操心？正常汽车50000公里换轮胎，难道苹果牌汽车为了不换轮胎，过了50000公里就限速60? 用户手中的手机可不是苹果免费送的，而是花高价买来的 中消协在等苹果公司的烟纸贡品呢，等不到就要以人民的名义约谈他们，还不上路那就只能罚款啰 6S新手机三个月以后就降频了，再怎么洗地也无法自圆其说 换电池能方便便宜就没那么多事了 自从用了华为我都不敢乱评论了 此新闻每天能看见18次 不要把那傻逼随意代表上海人，谢谢。现在上海的非户籍人口是户籍人口的数倍。不是买张火车票来了上海，ip显示上海就是上海人了。 官方售后换电池，哪个大品牌不贵的？你去路边摊换块拆机二手电池，当然300以内就能搞定。 很多对用户不友好的举动都是苹果首创的，无法更换电池，不能加SD卡，取消耳塞孔，果粉们甘心受虐啊！ 中国消协表示：很淡定！ 电池封装在机器内，表示电池是终生免维护的。否则就应该做成可换电池模式 你试过吗？会被灭口吗？谁被灭口了举一个例子出来让我们看看 塞了一个限速装置，还可以跟其他品牌并驾齐驱。是你不行，还是你的手机也塞了？ 你想多了，很多人甚至于连汽车要保养都不知道的，更别说换轮胎了 跟贴被火星网友带走啦~ 美国人就是好，居然敢起诉苹果，我们连三星都不敢起诉 12年老板美国带回来的macbookair电池因为杯子倒了进水坏了，去售后，说7000块，惊了，后来找外面修1000搞定 中国的个别傻逼果粉还在洗地 电池废了你就用短点时间，降频这种行为真心太恶心，不知道是不是库克个烂菊花的主意还是谁的主意，这种行为太小人了 苹果牌6S型号的汽车原本时速可以达到180码，用户高价买苹果牌6S型汽车就是因为开起来快，飙车爽，换挡顺畅。苹果公司耍了一个花招，骗用户去升级，偷偷给你塞一个限速装置，让你的车子最多只能跑60码。为啥它要干这事呢？因为他这车有问题啊，开快了容易熄火。反正苹果用户也没脑子，苹果料定他们不会发现的，即使发现了也没有人敢跟财大气粗富可敌国的苹果公司较量。问题真的被掩饰住了，若干年以后苹果更新款的汽车出现相同的问题，苹果公司故技重施，这次是在全球范围内限速，惹怒了洋人，洋人可没那么好欺负，马上就拉开架势起诉苹果。苹果厚颜无耻的辩解说这样做为你安全着想，怕你开快了翻车，还可以为你省油，延长车子的寿命，苹果为用户操碎了心。 新买的6S才三个月就开始降频，换电池有什么卵用，除非你三个月换一次电池，否则就得忍受降速 不是换电池就好了吗？ 苹果、迪斯尼都散发着老美的傲慢<br>可它们低估了我作为一个有尊严的消费者的更大的傲慢<br>苹果更恶劣的地方在于软骨头，主动下架梯子软件<br>对比谷歌坚决不作恶的骨气，我只能呵呵了<br>反正在我有生之年，除非被迫，或者它痛改前非，我是不会再买任何苹果的商品了 这个性质上和德国大众尾气检测造假有得一拼。 都灭口了还能告诉你？😇 中国能诉讼吗？估计会有的 打电话给官方问了，换电池要608元妈卖批 你是说当年的华硕？ Apple才不怕呢！中国有大量稳定的果粉呢，苹果放个屁都是香的，没事儿！美国人不地道，苹果总部直接搬中国来算了！！ 数码港之类的地方随便找家店换一下就行，电池不放心可以自己买 你没车把，竟然有这种奇葩的想法 自己天猫上买电池换100搞定，还送工具 淘宝买了电池自己换的效果很好 还是比华为好用!!!!!!!!!!!!!!!!!!!!!!!!!!!!!!!!!!!!!!!!!!!!!!!!!!!!!!!!!!!!!!!!!!!!!!!!!!!!!!!!!!!! 一块电池608，这生意不做除非苹果是傻子 这就是老板和打工者的区别 玩笑终于成真了:新版本修复了旧手机过于流畅的BUG。[大笑][大笑][大笑] 苹果50%的用户在中国。有趣的是，我家附近一个开超市的老板，月入十万的老板用的是安卓机，反倒是月入不到两千的四个女店员有三个用苹果。 傻逼 物极必反，店大欺客。 真正民主法治自由的就是不一样哈，不管你是谁，不管你如果牛逼，不管你如何恶霸，只要违反了就可以起诉可以告他。在某地，那怕将整个手机部件都作假诈骗过不仅不会被起诉，不仅连个道歉和认错都没有，还继续当消费者是250的坑蒙拐骗继续。。。 这就叫店大欺客了？华为那个算什么？ 要是敢让他们完全垄断了，鬼知道还敢干出什么事情。。。 居然对6，SE，7限制，这才一年，有些还是今年买的用户吧，太狠了 没有那个锂电池只能用一年，这就是故意要你买新手机的。 什么叫美国人都怒了，苹果“降频门”本来就是他们先发现的，但是他们有专门诉讼程序、律师…只要iPhone的消费者联合诉讼，不需要全部人都打官司，只要起诉的这些人赢了，其他人也可以赢的赔偿。（其他公司的集体诉讼也一样）所以，各国有别，法律案件不通用，希望我们的法律也更健全，以保护消费者。 这就相当于省吃俭用积攒了50万元买了一部豪车，车没开到半年就跑不动了，车子越开越慢越开越慢。打开引擎盖一看，里面的发动机被售后偷换成了长安面包车的发动机，这事放在谁身上都不会忍气吞声。<br>一心一意替库克洗地的果残除外。 既然已经知道锂电池老化不可避免，为何不设计成可更换电池的结构？现在很多手机都跟风将电池内置做成一体化，普通用户无法自己换电池。就这点来说，我只想喷苹果 早就过保甚至停产的手机，还能给你准备好新的备件搭理你的售后需求，已经很不错了，你去问问渣星菊花为试试？ 车胎快磨没了，还开180? 呵呵，在天朝喷子看来，有钱是一种原罪，除非别人可以免费把钱和东西送给他们，否则他们就要开喷 傻逼太多了，妈的智障库克拉泡屎它们吃了都说香 新买的6S才三个月就开始降频，换电池有什么卵用，除非你三个月换一次电池，否则就得忍受降速 呵呵，在上海银看来，上海就是有钱人，除非别人用钱砸他，否则他就是最有钱的 用户自己会去换车胎的，要你汽车公司操心？正常汽车50000公里换轮胎，难道苹果牌汽车为了不换轮胎，过了50000公里就限速60? 所以你跟🐔一个身份？ 多大的事，不是有群脑残在支持吗。老子出一款新产品你们就买，不然市值怎么过万亿。 说苹果手机好，那是盲从心理在起作用。实际上苹果手机既难看又难用。<br>你把粪坑里的石头捞起来洗干净放在檀木盒子，对外宣称这是上古时代的陨石，人们会用放大镜仔细观察石头的每一条裂纹，并发出嗤嗤的惊叹，大口呼吸来自远古的独特味道，为大自然的鬼斧神工所折服。<br>今天的苹果手机就是粪坑里的石头，人们被盛装石头的檀木盒子迷惑了 还用2年前6的都是缺钱的主，换个电池太贵了 乔断背下了一步臭棋，11的系统肯定有问题，对电池有很大影响，然后为了这个弥补问题选择了悄悄降频，麻蛋苹果要死在乔断背手里了 自己不去起诉，盼望有人替你做主，中国人普通都是这种心态。自己不去争取能怪谁？ 换电池能方便便宜就没那么多事了 看来买手机还是要买plus 苹果牌汽车20000公里轮胎开始老化龟裂，不换新后果自负。 没关系，天朝果残多的是，哪怕苹果出了一坨屎，也会有果残扑上去抢着买 围观果蛆。。还得自己动手换电池??你为什么不学造电池技术呢？真能忍 很多对用户不友好的举动都是苹果首创的，无法更换电池，不能加SD卡，取消耳塞孔，果粉们甘心受虐啊！ 中国脑残粉活该 可以 中国消协表示：很淡定！ 我本果粉，这次库克死基佬，老阴逼。 你以为人都像你一样没脑子？ 塞了一个限速装置，还可以跟其他品牌并驾齐驱。是你不行，还是你的手机也塞了？ 重庆那边买手机还得分期？真难为你发帖子赚钱了。 中消协在等苹果公司的烟纸贡品呢，等不到就要以人民的名义约谈他们，还不上路那就只能罚款啰 电池废了你就用短点时间，降频这种行为真心太恶心，不知道是不是库克个烂菊花的主意还是谁的主意，这种行为太小人了 我才换外面不放心 这不是穷不穷的问题，这是傻逼不傻逼的问题 今天刚换的电池，的确手机反应快了 自己买自己换，简单便宜 明明还能将就用凭什么要换，我就不能用到不能用为止吗 降频可以，但是要告诉用户，而且告知用户解决的办法。偷偷摸摸搞就太坑人了 苹果牌6S型号的汽车原本时速可以达到180码，用户高价买苹果牌6S型汽车就是因为开起来快，飙车爽，换挡顺畅。苹果公司耍了一个花招，骗用户去升级，偷偷给你塞一个限速装置，让你的车子最多只能跑60码。为啥它要干这事呢？因为他这车有问题啊，开快了容易熄火。反正苹果用户也没脑子，苹果料定他们不会发现的，即使发现了也没有人敢跟财大气粗富可敌国的苹果公司较量。问题真的被掩饰住了，若干年以后苹果更新款的汽车出现相同的问题，苹果公司故技重施，这次是在全球范围内限速，惹怒了洋人，洋人可没那么好欺负，马上就拉开架势起诉苹果。苹果厚颜无耻的辩解说这样做为你安全着想，怕你开快了翻车，还可以为你省油，延长车子的寿命，苹果为用户操碎了心。 升个级苹果在电池那块又赚了不少，果然是有良心的美国企业。哈哈 淘宝买了电池自己换的效果很好 说苹果手机好，那是盲从心理在起作用。实际上苹果手机既难看又难用。<br>你把粪坑里的石头捞起来洗干净放在檀木盒子，对外宣称这是上古时代的陨石，人们会用放大镜仔细观察石头的每一条裂纹，并发出嗤嗤的惊叹，大口呼吸来自远古的独特味道，为大自然的鬼斧神工所折服。 你是说当年的华硕？ 不要把那傻逼随意代表上海人，谢谢。现在上海的非户籍人口是户籍人口的数倍。不是买张火车票来了上海，ip显示上海就是上海人了。 外国货还不给换 打电话给官方问了，换电池要608元妈卖批 自己换吧 这就是老板和打工者的区别 玩笑终于成真了:新版本修复了旧手机过于流畅的BUG。[大笑][大笑][大笑] 苹果50%的用户在中国。有趣的是，我家附近一个开超市的老板，月入十万的老板用的是安卓机，反倒是月入不到两千的四个女店员有三个用苹果。 还好我没升级ios11，苹果X有影响么 傻逼 车胎快磨没了，还开180? 物极必反，店大欺客。 真正民主法治自由的就是不一样哈，不管你是谁，不管你如果牛逼，不管你如何恶霸，只要违反了就可以起诉可以告他。在某地，那怕将整个手机部件都作假诈骗过不仅不会被起诉，不仅连个道歉和认错都没有，还继续当消费者是250的坑蒙拐骗继续。。。 这就叫店大欺客了？华为那个算什么？ 要是敢让他们完全垄断了，鬼知道还敢干出什么事情。。。 先用用再看吧 手中的苹果手机越来越卡了。可那是吃了3个月泡面首付，分期2年买来的，分期还没有付完怎么舍得丢呢？SSSS店换电池要608元又得连吃两个月泡面了。怎么办呢？当然是照着网上的教程自己换电池了。 不错，有华为海军风范！ 自己打开手机换电池，并因此而洋洋自得，100%屌丝一枚。 老板逼格不一样，他们炫耀的是豪车豪宅，只有穷人炫耀他们唯一买得起的富人的东西-----苹果手机 反正中国人肯定会息事宁人的， 什么叫美国人都怒了，苹果“降频门”本来就是他们先发现的，但是他们有专门诉讼程序、律师…只要iPhone的消费者联合诉讼，不需要全部人都打官司，只要起诉的这些人赢了，其他人也可以赢的赔偿。（其他公司的集体诉讼也一样）所以，各国有别，法律案件不通用，希望我们的法律也更健全，以保护消费者。 中国如果有集体诉讼，那些以弱势群体自居的公司估计没法活了 这就相当于省吃俭用积攒了50万元买了一部豪车，车没开到半年就跑不动了，车子越开越慢越开越慢。打开引擎盖一看，里面的发动机被售后偷换成了长安面包车的发动机，这事放在谁身上都不会忍气吞声。<br>一心一意替库克洗地的果残除外。 既然已经知道锂电池老化不可避免，为何不设计成可更换电池的结构？现在很多手机都跟风将电池内置做成一体化，普通用户无法自己换电池。就这点来说，我只想喷苹果 路过 自作自受 三星爆炸，苹果自动降频是对的 再能忍也忍不过一点报废的安卓 也比买个新手机便宜！ 美国的老乡这么不给面子！！！ 关键是换电池就恢复了？ 想想以前诺基亚时代的可更换电池真是业界良心啊 这就是你不换电池的理由？有点可怜。 京东换菜100出头。。。。有那么难么？ 用户自己会去换车胎的，要你汽车公司操心？正常汽车50000公里换轮胎，难道苹果牌汽车为了不换轮胎，过了50000公里就限速60? 在这里没有权益去追讨！但苹果你听着！你会死得比三星还惨！不过！有钱人是不会计这钱的，因为一二年就换一台了！ 美国人就是好，居然敢起诉苹果，我们连三星都不敢起诉 换电池能方便便宜就没那么多事了 电子发票也行啊 按比率来说，你这个假设的前提是其他普通车子的售价在20～40万，而且车子跑了3个月就卡的跑不动了，越来越慢每个月得进行一次保养。打开引擎盖一看，已经快报废了，还不给你换个能用的。 此新闻每天能看见18次 已经第20次了 你以为像明主一样，法律是人民的？那是属于某些人的，为什么毛要农村包围城市，因为农村人蠢容易骗，这就是为什么大多数传销窝点在农村的原因 叉的前屏后盖占了一半的成本 苹果，伟大的良心公司 没用的，去年电池门事件的时候新6S三个月以后就开始降频了，除非你3个月换一次电池，否则就必须忍受降频。另外，降频的原因是硬件缺陷，容易死机，电池只是背锅的。用电池背锅就可以避免大规模的召回 找有关部门[窃笑] 这个性质上和德国大众尾气检测造假有得一拼。 你试过吗？会被灭口吗？谁被灭口了举一个例子出来让我们看看 你想多了，很多人甚至于连汽车要保养都不知道的，更别说换轮胎了 哈哈一样的，所以不买保险肯定不行啊 ipx的屏幕色彩确实很好，我老婆的手机跟我的7放在一起差距太大了。 国内没人去诉讼吗？ 这就高潮了？ 更换的电池比不过原装用过4年的电池。。。原装电池想换的慎重。一个好好的备用机就这样毁了 iPhone6sp电池有问题吗 苹果牌6S型号的汽车原本时速可以达到180码，用户高价买苹果牌6S型汽车就是因为开起来快，飙车爽，换挡顺畅。苹果公司耍了一个花招，骗用户去升级，偷偷给你塞一个限速装置，让你的车子最多只能跑60码。为啥它要干这事呢？因为他这车有问题啊，开快了容易熄火。反正苹果用户也没脑子，苹果料定他们不会发现的，即使发现了也没有人敢跟财大气粗富可敌国的苹果公司较量。问题真的被掩饰住了，若干年以后苹果更新款的汽车出现相同的问题，苹果公司故技重施，这次是在全球范围内限速，惹怒了洋人，洋人可没那么好欺负，马上就拉开架势起诉苹果。苹果厚颜无耻的辩解说这样做为你安全着想，怕你开快了翻车，还可以为你省油，延长车子的寿命，苹果为用户操碎了心。 风光66 苹果、迪斯尼都散发着老美的傲慢<br>可它们低估了我作为一个有尊严的消费者的更大的傲慢<br>苹果更恶劣的地方在于软骨头，主动下架梯子软件<br>对比谷歌坚决不作恶的骨气，我只能呵呵了<br>反正在我有生之年，除非被迫，或者它痛改前非，我是不会再买任何苹果的商品了 只有电池电量上来才会恢复速度，只有换电池。 自从用了华为我都不敢乱评论了 我的ip4s就是因为升级变得电池发热三个小时准没电，当时还是14年的时候就知道事苹果捣鬼 站队 这个比喻好，v10，被改成… oled的颜色效果很棒的、能看黑色的物体。 我的5C就被我换坏了，而且换的电池超级不耐用，第一个电磁用了一个星期就鼓起来了，怕爆就立即拆掉，第二个不小心把屏幕排线弄松了，用几天就要掰开捏几下，在继续用。。。。 作为果粉我也怒了 都灭口了还能告诉你？😇 Apple才不怕呢！中国有大量稳定的果粉呢，苹果放个屁都是香的，没事儿！美国人不地道，苹果总部直接搬中国来算了！！ 这里消费者是用来消费的 数码港之类的地方随便找家店换一下就行，电池不放心可以自己买 …… 电池损耗大的才会 打电话给官方问了，换电池要608元妈卖批 还是比华为好用!!!!!!!!!!!!!!!!!!!!!!!!!!!!!!!!!!!!!!!!!!!!!!!!!!!!!!!!!!!!!!!!!!!!!!!!!!!!!!!!!!!! 该！ 怎么起诉，我打算起诉他们 确实恶心，快赶上保护中小投资者了 不在这里瞎BB吧还很多人又是你身边亲戚和朋友吗？有几个有车的不知道保养的？你以为4S店吃素的？ 我国就怕收了钱不管啊。。。。。参照各种召回事件 我的6S经常无缘无故无法唤醒，电话响了无法接听。保修期内去SSSS检查，他们装模作样的一番检查，然后宣称一切正常，一如既往的最后抛出了杀手锏：苹果公司欢迎你起诉！ 哪有？基本见不到，苹果公关很到位。 美国人敢怒敢言 6S卡死了很多次。来电话还不亮屏，按键没反应只有用静音键关闭声音等待自动挂断 保险公司业务员和SSSS勾结，把结算金额算成3W。保险公司年末一结算：亏了！下一年把保费提高一倍。美国的保险公司就是这样绑架所有人的。保险费逐年提高，老百姓不参保自己又修不起 马勒戈壁、垃圾苹果去死吧！！ 居然对6，SE，7限制，这才一年，有些还是今年买的用户吧，太狠了 什么叫美国人都怒了，苹果“降频门”本来就是他们先发现的，但是他们有专门诉讼程序、律师…只要iPhone的消费者联合诉讼，不需要全部人都打官司，只要起诉的这些人赢了，其他人也可以赢的赔偿。（其他公司的集体诉讼也一样）所以，各国有别，法律案件不通用，希望我们的法律也更健全，以保护消费者。 男女都一样有。 2楼苹果汽车打算把最高速度给你限制到1码，然后苹果汽车官方告诉你：100万公里你都不用换胎 好歹买车的时候厂家会告诉用户多少公里推荐你换轮胎，而且你爱怎么换找谁换是你的自由。不像苹果正面绷着脸装13，而且已经拉了一裤裆了，还在这儿装！！ 这就相当于省吃俭用积攒了50万元买了一部豪车，车没开到半年就跑不动了，车子越开越慢越开越慢。打开引擎盖一看，里面的发动机被售后偷换成了长安面包车的发动机，这事放在谁身上都不会忍气吞声。<br>一心一意替库克洗地的果残除外。 上次，有个脑残傻逼还说iPhoneX那屏幕好 如果我手里有正式发票，去年就起诉了 怒了的中国人在哪里？点个赞！ 无缘无故唤醒是因为开了自动抬起唤醒功能。电话响无法接听就是个骗子大问题了 艹华为定律！是这么喷吧？ 如果我起诉苹果赢了苹果能陪我多少钱？ 车胎快磨没了，还开180? 在这里没有权益去追讨！但苹果你听着！你会死得比三星还惨！不过！有钱人是不会计这钱的，因为一二年就换一台了！中低端就不同了！ 鼓掌👏🏻 喜大普奔，希望起诉能赢，刷回IOS9 国内也能告然后走召回程序 新手机3个月就开始降频了，你让苹果怎么写说明书？难道建议用户三个月换一次电池？ 跟iPhone7比自然是的和我的s7比感觉就差不多了 淘宝50元电池就解决的问题，讨伐半天，一群枪杆子 只能说心凉了以后都不买了 点播一首歌送给库克，凉凉 6S新手机三个月以后就降频了，再怎么洗地也无法自圆其说 换电池能方便便宜就没那么多事了 亩产万斤的习惯。看到一篇报道说是最狠报复！全球轰动！举国沸腾！以为什么天大的事，一看，是架飞机试飞，别国50-60年前就生产过，而且更大。不知哪儿出问题了。可能是阿Q也疯狂了。 苹果那个降频补丁不从新版IOS撤下，你换了电池也没用啊 从没检讨自己 我都换了个手机了 降频门去年就在威锋论坛6S板块刷屏了，咋个是洋人先发现的？ 这比喻完全不相关，应该说本来一部可以保300公里的电动车，因为电池衰败只能跑180公里，为了尽可能延长你的续航，车厂给你限速了，以达到续航的最大化。因为内燃机本身不存在续航的问题，而电动车作为比喻更加贴切，因为问题同为电池寿命的衰败引起的。以上，是我代你的语文老师教你的。 用户自己会去换车胎的，要你汽车公司操心？正常汽车50000公里换轮胎，难道苹果牌汽车为了不换轮胎，过了50000公里就限速60? 这就叫大数据。你看一个新闻，立刻就有好几篇内容相似的等着你。这数据也真够大的！ 每年都有来自投资人的业绩压力，你们手机不坏不卡我很难办啊，今年还有这么多高价手机要卖，对不起只能让你们的手机再卡点了 2L不要偷换概念，电池容量减小顶多是相当于汽车油箱容量减少，厂商无权限制车速。 好玩的都在这公道自在人心！！！公道自在人心！！！公道自在人心！！！公道自在人心！！！公道自在人心！！！公道自在人心！！！公道自在人心！！！公道自在人心！！！关注“22点tv” 苹果出钱换电池就好了 ipx的屏幕色彩确实很好，我老婆的手机跟我的7放在一起差距太大了。 我今年买的啊没升级用得贼爽我才不去试验新系统等你们都测试完了我再决定升级不哈哈 淘宝60不到自己换 中国的个别傻逼果粉还在洗地 苹果牌6S型号的汽车原本时速可以达到180码，用户高价买苹果牌6S型汽车就是因为开起来快，飙车爽，换挡顺畅。苹果公司耍了一个花招，骗用户去升级，偷偷给你塞一个限速装置，让你的车子最多只能跑60码。为啥它要干这事呢？因为他这车有问题啊，开快了容易熄火。反正苹果用户也没脑子，苹果料定他们不会发现的，即使发现了也没有人敢跟财大气粗富可敌国的苹果公司较量。问题真的被掩饰住了，若干年以后苹果更新款的汽车出现相同的问题，苹果公司故技重施，这次是在全球范围内限速，惹怒了洋人，洋人可没那么好欺负，马上就拉开架势起诉苹果。苹果厚颜无耻的辩解说这样做为你安全着想，怕你开快了翻车，还可以为你省油，延长车子的寿命，苹果为用户操碎了心。 屏幕色彩好那也是人家三星的屏幕好~ 不是换电池就好了吗？ 因为庶民同罪 这就相当于省吃俭用积攒了50万元买了一部豪车，车没开到半年就跑不动了，车子越开越慢越开越慢。打开引擎盖一看，里面的发动机被售后偷换成了长安面包车的发动机，这事放在谁身上都不会忍气吞声。 会不会有赔偿？我要不要入个二手6？在线等，挺急的……😂 此新闻每天能看见18次 可以换品胜电池，感觉还不错。 中国能诉讼吗？估计会有的 人家以前用LG的时候色彩也很好，其实调教也很重要。 打电话给官方问了，换电池要608元妈卖批 美国实施的是案例判决的机制。只要一个赢了，其他相同情况的就都会赢。想看看苹果这次怎么应对。 天子犯法，你他吗来抓我啊？ 我用了一年多都没降频，你平时用火烤手机吗？三个月电池容量缩小？不知道你是水军还以为你是高级黑呢。 国人不是都说是为用户着想的么，标准果残都是这么说的 只降中文版就好了 我国打赢官司估计判苹果公司赔原告一部新款手机，就那么回事，在这里，洋大人永远是洋大人。。。。 简配没有疏油层虚假宣传的菊花为表示情绪稳定 居然对6，SE，7限制，这才一年，有些还是今年买的用户吧，太狠了 没有那个锂电池只能用一年，这就是故意要你买新手机的。 再过八百年也健全不了，因为🇨🇳的法律就是给屌丝定制的 中国呢 上次，有个脑残傻逼还说iPhoneX那屏幕好 T特Appleinside更早！ 呵呵 下个手机安卓了再忍忍 什么叫美国人都怒了，苹果“降频门”本来就是他们先发现的，但是他们有专门诉讼程序、律师…只要iPhone的消费者联合诉讼，不需要全部人都打官司，只要起诉的这些人赢了，其他人也可以赢的赔偿。（其他公司的集体诉讼也一样）所以，各国有别，法律案件不通用，希望我们的法律也更健全，以保护消费者。 ㅊㅍ포ㅗㅎㅊㅊ 车胎快磨没了，还开180? 这件事曝光之前，苹果对于老机型变卡的解释可不是电池老化，而是处理器和内存不够blablabla……[微笑][微笑] 苹果越来越没品了，故意降速，以后还换MTK芯片替代高通，没品 换电池不就好了吗 傻逼太多了，妈的智障库克拉泡屎它们吃了都说香 曹尼玛，汉奸！ 美国人不会玩，在天朝改成依法降频谁敢告 自己换120飞毛腿 免费换电池？？？ 最后美国用户赔偿，中国用户会怎么想 打电话给官方问了，换电池要608元妈卖批 苹果一直致力于修复旧款产品或许流畅的bug，让人用上最新的挤牙膏黑科技，实在是用心良苦👏🏻 换电池能方便便宜就没那么多事了 "
    },
    "Article": "网易科技讯12月27日消息，据国外媒体Fortune报道，自苹果承认一年前开始通过软件变动来让旧款iPhone变慢以来，美国各地的联邦法院已经出现8起起诉该公司的诉讼。它们称，苹果那么做是欺骗iPhone用户。那些诉讼认为，在过去一年里，该软件改动会给尝试解决问题的iPhone用户造成误导。所有的这些诉讼——在加州、纽约和伊利诺伊州的美国地方法院提起——寻求共同起诉，代表全美潜在的数百万iPhone用户。纸媒Haaretz报道称，周一，在一家以色列法院，有人提起类似的诉讼。苹果没有回应置评请求。上周，该公司首次具体地坦言，自“去年”以来为iPhone6、iPhone6s、iPhoneSE和iPhone7提供的操作系统升级，包含一项“消除”电池供电问题的功能。苹果称，不进行该项调整的话，手机会因为一项防止零部件被烧坏的预防机制而意外关机。在此之前，iPhone性能测量应用开发商PrimateLabs在12月18日发布分析文章，称旧款iPhone的处理速度会减慢，由此断定这背后苹果肯定有实施软件变动。上周四在旧金山提起的一起诉讼称，在没有软件补丁的情况下，“电池无法处理处理器速度引起的需求”是个缺陷。“苹果没有通过向所有受影响的iPhone免费提供电池更换来解决电池缺陷，而是寻求掩盖该缺陷。”起诉书说。该案件的原告代表是律师杰弗里·法齐奥（JeffreyFazio），他也曾在2013年与iPhone保修处理相关的诉讼中担任原告代表，最终与苹果达成5300万美元的和解协议。部分诉讼指出，现在的问题在于，过去一年用户可能将应用奔溃和性能变慢归因于计算机处理器老化，因而选择购买新机，而手机真正的问题可能只是电池衰退，用户可以将其换掉，省下一大笔钱。专攻消费者科技法律的波士顿大学教授罗里·范·卢（RoryVanLoo）说道，“如果真相是消费者早就知道苹果软件升级的本质的话，他们会选择更换电池而不是购买新的iPhone，那苹果可能得开始为某种误导或者欺诈找个更加充分的理由。”不过，伯克利法律与技术中心学术主任克里斯·胡夫纳格尔（ChrisHoofnagle）在电子邮件中称，苹果或许没有做错。胡夫纳格尔说，“我们还没有形成围绕老化产品的消费者保护规范。”他以带有安全缺陷的设备为例指出，“合理的做法可能包括性能限制甚至功能禁用。”那些诉讼寻求损害赔偿金，但未说明具体数额。有几起诉讼请求法院禁止苹果限制iPhone的处理性能，或者要求该公司以后给予事先通知。（乐邦）本文来源：网易科技报道责任编辑：白鑫_NT4464",
    "KeyWords": "iphone,苹果,电池,法院",
    "Source": "Netease",
    "Title": "美国人都怒了，苹果已因降频门遭到8起诉讼_网易科技",
    "PublishTime": "12/27/201713:08:41"
}