{
    "Source": "Netease",
    "KeyWords": "盆地,华北,大雾,霾天气",
    "URL": "http://news.163.com/17/1225/07/D6G1VDHT00018AOQ.html",
    "PublishTime": "12/25/201707:19:00",
    "Comment": {
        "Content": "重庆四川都废了，昨天监测总站官网数据，重点监测的337个城市，重庆空气质量排名325，重度污染，四川大部分城市都是重度污染，勒是霾都 这是大雾，白色的！雾霾，黄色的！你们要看清楚了！ 都怪四川美女太多，雾霾一进四川，就不想岀来了。。。。经济相当于广东三分之一，雾霾广东三到五倍。。。 今年北方雾霾少啊，怎么都去南方了 华北的冬天，没有雾霾才是新闻！ 雾霾 太好了就喜欢雾霾天，又可以偷楼道里的女内裤了 全国性的了？ 撸完记得放回去，隔壁还有老铁等着 这是大雾，白色的！雾霾，黄色的！你们要看清楚了！ 其实老铁已经先撸为敬了，不信你闻闻。 今年北方雾霾少啊，怎么都去南方了 没事，我们已经适应了。 好冷 雾霾 南方艳阳里大雪纷飞 加大治理环境，留给子孙一片蓝天 华北的冬天，没有雾霾才是新闻！ 太好了就喜欢雾霾天，又可以偷楼道里的女内裤了 都怪四川美女太多，雾霾一进四川，就不想岀来了。。。。经济相当于广东三分之一，雾霾广东三到五倍。。。 川西北还不错 这个何时才能休止 ：我要宣布一件事情，大家还记得2011年的抢盐的事情吗？我家里的盐在今天，就是今天，终于吃完了，吃完了呀！我的个亲娘啊！终于给吃完了。​​​ 重庆四川都废了，昨天监测总站官网数据，重点监测的337个城市，重庆空气质量排名325，重度污染，四川大部分城市都是重度污染，勒是霾都 全国性的了？ 撸完记得放回去，隔壁还有老铁等着 幸福感爆棚 ",
        "Total": 412,
        "Link": "http://comment.news.163.com/news2_bbs/D6G1VDHT00018AOQ.html",
        "Reply": 18
    },
    "Article": "（原标题：四川盆地中南部有大雾27日起华北黄淮等地将有霾）中新网12月25日电据中央气象台网站消息，24日夜间至26日，受弱冷空气影响，华北中南部、黄淮等地大气扩散条件较好。27日至29日，大气扩散条件将转差，华北黄淮等地有轻至中度霾。此外，25日早晨至上午，四川盆地中南部有大雾天气。具体预报如下：京津冀及周边区域24日夜间至26日，受冷空气影响，大气扩散条件较好。27日至29日，大气扩散条件转差，中南部地区将有轻至中度霾。长三角区域24日夜间，受冷空气影响，霾天气将减弱消散。26日至29日，大气扩散条件较好。珠三角区域24日夜间起，受传输影响，广西、广东部分地区有短时霾天气。25日至30日，大气扩散条件较好，无明显霾天气。华中区域24日夜间至26日，湖北中东部、湖南中北部等地的部分地区有轻度霾，部分时段中度霾。西南区域24日夜间，受冷空气影响，四川盆地大部地区霾略有减弱。25日早晨至上午，四川盆地中南部有大雾天气，局地有能见度低于50米的特强浓雾。东北区域24日夜间至26日，受冷空气影响，大气扩散条件较好。27日和29日，辽宁、黑龙江中南部大气扩散条件再次转差。西北区域未来一周，西北大部地区大气扩散条件较好，无大范围霾天气。25日夜间至29日，陕西关中有轻至中度霾天气。本文来源：中国新闻网责任编辑：邵小波_NN2479",
    "Title": "四川盆地中南部有大雾 27日起华北黄淮等地将有霾_网易新闻"
}