{
    "Article": "（原标题：男子倒卖70枚雷管，赚了50元获了三年刑）现代快报讯连云港赣榆男子盛某在朋友圈发现一段用雷管炸鱼的视频后，觉得贩卖雷管是个不错的生意，于是做起了中间商，先后通过微信售出雷管70枚，共计获利50元。现代快报记者了解到，盛某在想着赚钱的时候，殊不知自己的行为已经触犯了法律，最终被法院依法判刑。2016年4月，专门做微商生意的盛某在微信朋友圈看到一段雷管炸鱼的视频。视频中，有人将一颗类似圆筒状爆竹的雷管点燃后扔进池塘，雷管在水底一声闷响爆炸后，水面产生一片水花，随后池塘中的鱼便在水面上翻了身。这段视频一时在朋友圈广为流传，很多人看到后便开始询问在哪里可以购买雷管。盛某觉得这是个商机，有利可图，于是便跟微商卖家刘某联系，并成为其下线，开始为其代理销售雷管，并从中赚取差价。随后，盛某将上述视频在朋友圈转发宣传，果然吸引了不少意向客户。盛某在与买家谈好购买数量、价格后，通过微信将购买者的信息、货款转发给上线刘某，刘某将雷管打包快递发送给买家，盛某从中赚取差价。2016年4月27日至5月11日，盛某通过微信平台共售出雷管10盒70枚，获利50元。经公安部门鉴定，盛某所出售的雷管均为爆炸物。赣榆法院经审理认为，被告人盛某违反国家关于爆炸物管理的规定，多次非法买卖爆炸物，其行为侵犯了公共安全，构成非法买卖爆炸物罪。考虑到被告人系初犯，且其犯罪行为并未实际造成社会危害后果等因素，赣榆法院判处被告人盛某有期徒刑三年，缓刑四年，并将被告人盛某违法所得予以追缴，上缴国库。本文来源：现代快报责任编辑：程钢_NN7377",
    "Source": "Netease",
    "KeyWords": "法院,犯罪,雷管",
    "Title": "男子想赚钱做微商倒卖70枚雷管 赚了50元获刑3年_网易新闻",
    "Comment": {
        "Total": 1526,
        "Content": "确实需要公开 盛某：早知道倒卖雷管也判刑，俺还不如倒卖原子弹了，左右都是判刑…… 还好缓刑了，50还收缴国库了 女教师在公园被退伍🐶杀，第一时间抓了个造谣的😄😄 恭喜方总拿下雷管！！ 恭喜方总全款提得雷管一枚[狗] 杨志卖刀——无人识货 掏鸟窝十年，卖雷管三年，枪战三年半，仿真枪无期…………<br>懂法的更觉得可怕 无畏的人是不会向强权屈从的 法是个好东西！要看怎么用？ 才50元？这脑子也只能做传销了 城会玩 挣50元和三年大牢，很励志的微商。 这智商基本就告别微商了！！ 觉得这个人好可怜呵呵 70枚才50元生意不好做啊这年头 楼上描述的真生动！画面感很强[石化][石化][石化] 用雷管炸鱼真尼玛缺德！！！ 你已经走到了犯罪的边缘 你这个筷子生产线成本低！就是噪音要控制好 老家一个人用割麦子的镰刀削雷管，爆炸后左手就剩两个手指，墙上都是血，地上碎指头，刀尖断裂飞进脖子里，说话冒血泡，啧啧，还活下来了 炸药大人到处放，雷管倒藏的好好的！ 哀民生之多艰 不懂法真可怕 年轻时玩雷管，把碗口粗的竹子用钉子打个小洞，然后把雷管塞进去。点燃导火索后就拼命跑，要跑好远才回头看。一声巨响，聋子也听得见，就是五脏六腑也在震动的那种。再看竹子已经变成了筷子，一条条一直碎到根部。 现在哪里还有卖的 无知真可怕。 领导贪污几百万也才三年而已，屁民呵呵。 赚钱的生意都写在刑法里了 最近对百姓的都是从重处罚了，真没法说了 别拿掏鸟巢的说事，那个人故意的，也许你不了解但别胡说 上缴国库，国库管理者不公开他们的钱和用途，与抢劫何异 小时候在矿山，雷管都是一盒一盒玩！ 小时候把雷管放兜里当爆竹，炸药TNT受潮了，直接在马路边的矮围墙上晾晒。。。。。。没事就弄个炸药包去偷鱼，炸狗 这种也敢卖，大胆！ 不先提个车再做微商吗？ 被淘宝的货要便宜坑了吧，你做军火交易没有500%以上的利润你也敢做 嫖宿幼女，2年三个月 确实需要公开 楼上描述的真生动！画面感很强[石化][石化][石化] 一个赚几毛钱？去死吧 恭喜方总拿下雷管！！ 一楼是说他也听得见😀 法是个好东西！要看怎么用？ 以前小时候矿山，雷管当鞭炮玩，买大量的鞭炮拆出硝，用酒瓶子装着，塞个雷管，口上用纸屑塞死，留个导火线头去炸鱼，有时候还玩点更刺激的，玻璃渣子与黑硝一半一半，威力相当的猛，比白色炸药还猛，会不会被请喝茶🍵[可怜]，这都是小时候的事了 我村先后有两人用炸药炸鱼，手掌都没了，手臂漏出一节骨头 城会玩 TNT扯淡吧 最近对百姓的都是从重处罚了，真没法说了 这利润，低的警察都看不下去，恭喜警察拿下盛总 觉得这个人好可怜呵呵 赚50厉害了 不懂法真可怕 70枚才50元生意不好做啊这年头 危险品也做，真的是胆大妄为。 炸药大人到处放，雷管倒藏的好好的！ 别拿掏鸟巢的说事，那个人故意的，也许你不了解但别胡说 年轻时玩雷管，把碗口粗的竹子用钉子打个小洞，然后把雷管塞进去。点燃导火索后就拼命跑，要跑好远才回头看。一声巨响，聋子也听得见，就是五脏六腑也在震动的那种。再看竹子已经变成了筷子，一条条一直碎到根部。 这哥们是照着刑法条款做的生意吧 💣💣💣💣💣😂😂😂😂 雷管非常小，像半根烟。引爆炸药的用的， 我一天抢微信红包都能抢50多😄 上缴国库，国库管理者不公开他们的钱和用途，与抢劫何异 姐我好多年没见过雷管耶[羞羞][羞羞][羞羞] 改行吧 整天拿掏鸟窝来喷。。量刑很重要。 聋子也能听见？？[微笑][微笑][微笑][微笑][不屑][大笑] 买雷管的呢？不抓吗？ 了解你们这帮煞笔才知道人类成群后是多么可怕的一种生物。 女教师在公园被退伍🐶杀，第一时间抓了个造谣的😄😄 掏鸟窝十年，卖雷管三年，枪战三年半，仿真枪无期…………<br>懂法的更觉得可怕 领导贪污几百万也才三年而已，屁民呵呵。 才50元？这脑子也只能做传销了 8楼命大素质差 居然用火雷管炸鱼，这智商也是欠费停机了 你玩的是雷管？雷管炸了只有枪声大小。<br>我看你玩的是鱼炮。 古人说得好：犯法的别做，毒人的别吃。 无畏的人是不会向强权屈从的 良心微商啊 你这个筷子生产线成本低！就是噪音要控制好 老家一个人用割麦子的镰刀削雷管，爆炸后左手就剩两个手指，墙上都是血，地上碎指头，刀尖断裂飞进脖子里，说话冒血泡，啧啧，还活下来了 不懂法真可怕 雷管不是炸弹吗？这也能卖？ 传销遇到微商，立马跪下称臣 恭喜恭喜，这些东西只能在微商里卖！ 我也这么想，既然是违禁品，风险和收入完全是反比 操着那个白粉的心.赚着买白砂糖的钱 一块钱一根都赚不到，这能力也就吃里面的饭了，外面混迟早饿死！ 没什么他们不敢卖的！ 这么牛逼？当年我们都是当鞭炮玩的，当年我一学弟还要送我一盒我都没要 还好缓刑了，50还收缴国库了 被淘宝的货要便宜坑了吧，你做军火交易没有500%以上的利润你也敢做 嫖宿幼女，2年三个月 作死吗这不是 盛某：早知道倒卖雷管也判刑，俺还不如倒卖原子弹了，左右都是判刑…… 微商大法好 恭喜方总全款提得雷管一枚[狗] 生意兴隆 杨志卖刀——无人识货 挣50元和三年大牢，很励志的微商。 犯法 不先提个车再做微商吗？ 这智商基本就告别微商了！！ 用雷管炸鱼真尼玛缺德！！！ 不作死就不会死 不好意思.我笑尿了 逗逼，才获利50元就进局子😂 这是我见过吊最炸的微商了 哈哈哈哈哈哈傻瓜啊 无知真可怕。 哀民生之多艰 这还得了，应该炮决 其实没什么，东北人在外地干这些已经不奇怪的了。 方总是谁啊一直见到 2018做大事 这还得了，应该炮决 哈哈啥 这种也敢卖，大胆！ 赚钱的生意都写在刑法里了 瞎么没看缓刑四年么 这钱也敢赚 这尼玛是有多脑残 ",
        "Reply": 89,
        "Link": "http://comment.news.163.com/news_shehui7_bbs/D6NP2POD0001875P.html"
    },
    "PublishTime": "12/28/201707:25:07",
    "URL": "http://news.163.com/17/1228/07/D6NP2POD0001875P.html"
}