{
    "PublishTime": "12/30/201701:33:54",
    "KeyWords": "黑熊,缅甸,枪杀,非法",
    "Source": "Netease",
    "URL": "http://news.163.com/17/1230/01/D6S9PH78000187VI.html",
    "Comment": {
        "Link": "http://comment.news.163.com/news2_bbs/D6S9PH78000187VI.html",
        "Total": 23978,
        "Content": "听说那🐻伤人了，还好没人死亡，你让他们赔钱他们就会安静了 尊重当地法律和风俗！杀了吃了就吃了，没什么大不了 不是道德婊，这事既然当地允许了也没啥好扯的，但是还是觉得挺残忍，熊🐻好无辜啊让你们这样对待 有被抓的，一个就足够说明问题了，对吧？！ 大熊猫也可以这样玩吗？ 缅甸跟你们有叼关系真特么闲 在云南就应该知道啊，那边杀个人都没事 反正我去了回来也没怎么着啊。 你还真听他说的黑熊伤了人，这个熊被他们杀了吃了，尤其是熊掌，还有不吃熊是当地风俗也太假了，我去耿马那里也全部是佤族，他们吃的很溜，你们也信这条山东人说的话，佤邦我也去过 允许杀人这种话都说的出来 但你发出血腥视频图片在国内传播这个可是违反互联网规定的 在这点上，只能说你幼稚了。 一面之辞，他说在缅甸就在缅甸吗？ 好，你的解释对路，赞一个先！不有不少人也发言表态了，还发起攻击，他们缺少学习的态度！另外一个你提到的问题，说动物是国外的就可以免责，请问，中国的法律有特别说明吗？杀害野生动物的人是中国人哦，主体是国人，不受中国法律管辖？ 你吃肉吗？你吃的时候有没有收到良心的谴责，你这种人才是正在的变态，一面冠冕堂皇，一面做着龌蹉的事情！ 屁话！你的卡号！我怎么给你打钱啊？ 让道德婊来的话，他们更残忍 吃了又如何，你去判刑去啊 圣母们，发挥你们的力量吧，让这个家伙坐牢去，要不你们情以何堪啊…… 不要说废话，请按上面的说法去试下好吗？ 是呀，我也觉得是 在澳门赌场赌钱还能被抓，你脑子进水了吧 我去这是枪不在缅甸国内早抓了。 活熊取胆这个残忍缺德的链条砸断了没有？ 今晚上杀只狗！ 这家伙当时以为自己很牛逼吧？ 嘴上说着开旅馆，实则干嘛的边境的人应该能看得出。跟军队有来往的，打AK能打那么稳的（AK后座力是非常大的）傻狗们别上来就喷，我只想告诉你们，这人确实没犯法，但这个人并不只是一个旅馆老板那么简单。<br><br>——一个越南跟广西两边跑的人留 那不可以，受害者是中国人按照中国法律可以有管辖权的！但是杀个动物和持枪这个就要看当地的法律规定了.. 我想要冒蓝火的，你有吗？就是那个加特林，哒哒哒哒哒哒，冒蓝火那个 把四楼的引申，假如你县里衙役因为点事追着你打，就像某化工事件。视频传到国外，老外说，中国衙役揍中国人不违反中国法律，围观的散了吧。 赵铁柱你调皮了 人渣，下得了手，残忍，至少心理变态 那可以去抓发布出来的那个游客。。。 道德圣母婊何在，全部跪下打自己脸！ 施主签个名就走，未免太谦。 关键是杀且吃到底违不违法当地法律及行为规范？不违反就别废话！！！<br>网民依自己的标准去谴责他国的事情，是在搞笑吗？<br>人山东小哥照顾下道德婊的情绪，安抚一下说个善意谎言怎么了？去告他啊？？ 杀只吃人的缅甸熊而已。为民除害！ 军队逮到的让你开枪射杀，小伙子背景不错 没有，仍然可以买到熊胆。只是迫于舆论压力，没有上市。 晕，不抓你但不是不可以抓你啊！要不你改天去下派出所，把你在澳门赌博的文字视频出入境证明等等证据提交给警察叔叔试试看好吗？ 真尼玛闲，都管到国外去了！ 傻逼 众生皆畏死，无不惧刀杖，以己度他情，勿杀勿行杖。 就问一句话，马云在英国打猎，用枪，而且还有视频跟新闻，请问楼上各位，犯法不？是否应该抓起来？ 既然是必杀的动物，谁来杀都一样。 不知道你这法律跟谁学的，中国人民共和国公民在境外触犯法律，3年以下徒刑的不予追究，3年以上徒刑的适用刑法，也就是说只有刑法中3年以上徒刑的，才会被追究，赌博谁会来管你 就跟去澳门赌博一个道理，内地赌博违法，但不能追究你去澳门赌博的行为。 佤邦首府邦康的菜市场里，天天都在杀熊，熊掌卖二百元人民币一斤，公开吆喝，有什么大惊小怪的呢 一枪爆头总比活体取胆死的安乐 那这样的话，如果国外允许杀人的话，他是不是在国外杀完人把视频放到国内?这不是道德绑架，这是道德不容许的。 被伤的两个村民不无辜吗？ 律师表示，只有依据中国刑法和外国刑法都认定为犯罪的，才可以按照中国的刑法追究刑事责任。但根据张林的解释，其行为如果在缅甸并不违法，也不需要在国内承担刑事责任。最后这段已经说明了。你说杀人这是杀熊，杀人在那个国家都是违法的。 内地赌博犯法吧，澳门赌博合法，去澳门赌博的内地人不少吧回来有几个被抓的。 律不一样你非得把中国法律通用到外国。不用外国，香港，在香港仿真枪大街上就有卖的旺角广华街，那里的仿真枪都是合法的，去香港照样玩只要不带回到大陆就没事，怎么了。 最后律师说的逻辑是否成立？那个能解释清楚？如果是在外国杀了本国人呢？可以免罪吗？ 我觉得也是，至少这游客传谣 当时没了解清楚就喷的那些人尴尬了 听说那🐻伤人了，还好没人死亡，你让他们赔钱他们就会安静了 一楼的，人家不简单又咋了，人家就算是个私人军阀又咋了，，只要没犯法，说其他的干卵 缅甸的他们也能管？ 黑熊熊好可爱，为什么要杀死她 哎，奇怪的人竟然他想体验就让他体验他是什么样的人 两天五次，不吃熊掌也没问题啊 人活着本身就是伤害动物的生存环境，为了减少对动物的伤害您这样高尚的请自裁吧！谢谢！ 缅甸跟你们有叼关系真特么闲 一楼没被做成叉烧包么😏😏😏 视频一开始出现的时候多的是谩骂和声讨！包括我也一样，真相出来以后很多人一下360度转变态度，开始责骂那些一开始评论的人，中国人就这样，墙头草！！！要觉得我说错了，请下面排队喷吧！ 枪杀黑熊完整版，爱奇艺上面有视频的，开枪山东人整个人脸很清晰的，有违法不可能这么露脸的。与此人描述不符的是，当场是好几个山东人，说的都是山东话，没有缅甸军警，拍摄也很靠近，几乎是对着脸拍摄的，不存在偷拍的，地上一只黑熊已经被肢解，几个山东人正在扒皮，地面上一大盆水，跟农村杀猪一样。另一只在笼子里被AK爆头，视频没有中断，很明显，肢解的黑熊是被这些山东人食用了，扔到山上的话，没有必要这么费劲扒皮。你能相信一群中国人会将8只熊掌扔到山上吗？ 人家扔不扔管你们屁事？杀你家的熊了？ 有只小白兔，一天它挖到一只好大的胡萝卜，往家里搬的时候，半路上杀出一只穿山甲一把抢走了小白兔的胡萝卜。小白兔生气冲着穿山甲说：“你干什么呢！”穿山甲说：hG3nDR931p小白兔听了以后，立马撅起屁股。穿山甲到底说了什么？复制整条消息，打开支付宝，答案自己出现。 这人面相不是好人 一群人闲的蛋痛，只会在键盘上谴责 谎话连篇，竟然都有人信，，，“不准拍摄，不知道视频怎么就传播到国内”，这么近的拍摄，还不知道？明显故意显摆，，，“解剖后扔回山里了，以此吓跑其他黑熊”，这谎话说的熊都信了，，， 澳门赌场上线了 不知道你这法律跟谁学的，中国人民共和国公民在境外触犯法律，3年以下徒刑的不予追究，3年以上徒刑的适用刑法，也就是说只有刑法中3年以上徒刑的，才会被追究，赌博谁会来管你 山东人去缅甸杀黑熊！不是了不起，而是惹不起。 让道德婊来的话，他们更残忍 有种去缅甸跟他当面谴责啊！ 这个民族就这样了 上次在景宏，听当地年轻人说，他有次吃了整只熊掌，鼻血流不停，两天做了五次大保健才平息下来 在缅甸没什么大惊小怪的，早几年和做金矿的朋友过去不夜城玩，广西老乡在那里开赌场的，过来接我们时候直接带着几个人手上都拿着Ak。我们还是山上打猎呢 我想说国人真的没救，你们喜欢骂我道德婊我接受，因为出于你们口不意外！去看看海豚湾，蓝色星球，看看挪威杀鲸的视频吧，贪婪和落后是不分国界的！不管真假当事人都有悔意了，你们还在这里喷什么圣母婊！真心觉的人不如动物活的有价值 不说多了汪峰在国外赌钱的照片和视频网上都有，怎么没见人去抓他 中国人不但开枪，而且杀生！这可把政府给吓死了！赶紧抓！赶紧抓！！！哦，原来在国外… 万物平等 还好写了山东人，不然我以为是东北的呢 这家伙当时以为自己很牛逼吧？ 嘴上说着开旅馆，实则干嘛的边境的人应该能看得出。跟军队有来往的，打AK能打那么稳的（AK后座力是非常大的）傻狗们别上来就喷，我只想告诉你们，这人确实没犯法，但这个人并不只是一个旅馆老板那么简单。<br><br>——一个越南跟广西两边跑的人留 干涉内政之嫌 假惺惺的仁慈！在一个合法的、政府允许的、国外地面杀死一只对人有威协的黑熊、干啥把你们激动这样？ 你家吃的鸡鸭鱼肉猪牛羊之类的肯定都是自杀的.... 我是你爷爷 任何伤害动物的人都遭报应。 必须要安乐死，<br>哪领钱 美帝也与中国人没有关系网易喷子美狗天天舔 然后呢？ 肯定比你牛逼啊 杀只吃人的缅甸熊而已。为民除害！ 我想起小学课本上鲁迅的作品了 没什么奇怪的啊，到缅甸做生意不养私人军队或者不跟军阀合作的等于免费帮缅甸打工，合作了搞几只枪很简单的啦 反转 晕，不抓你但不是不可以抓你啊！要不你改天去下派出所，把你在澳门赌博的文字视频出入境证明等等证据提交给警察叔叔试试看好吗？ 缅甸的🐻不是🐻，就好比某地的人不被当人一样 人侵占黑熊家园，破坏动物的生存环境，伤人怎么了？杀人也不为过，你怎么不想想人类都干什么事了？？？ 国外掏枪国内人却闲的蛋痛，怎么身边的不平之事不见他们出来说两句？ 人家说了两边国家都犯法他就是犯法了，请问在哪个正常国家准许随便杀人？这和杀的什么人没关系。当地就把你抓了，哪里还需要你回国再抓你？前段时间那个中国女孩不就是被中国人杀的，日本都在开庭审理了。你这个比喻完全不对啊。 大家快来参观，这只监饭东西就是用免费华为👋🐔的赵新觉俄:大黄狗同志😁 看看你肯定就是个爱国奴，听不得奴才这个字眼 有什么好试的绝对不会被抓，如果仅仅是因为你在国外合法赌博的地方赌钱被抓，最大原因是因为你用于赌博的钱有问题，不是你自己的。 一楼的，，你听说的可能是假的吧，熊掌不就是块肉吗，哪有那么神奇的能量，，，吃人参流鼻血那是中毒了，难道熊掌也有毒不成。。 二楼是疯狗吗？ 三年以下不追究的前提是在境外触犯法律，人家境外当地赌博合法触犯个毛的法律了？合法杀当地的熊还能归中国法律管辖？只要不涉及到中国境内的贩卖之类的犯罪行为人家杀的就是合法的，根本不存在犯罪还扯什么三年以上以下的？ 在澳门赌博回来会被抓？？？有没点法律常识……即使你在国外杀人，跑回来了，国内知道也没办法对你进行起诉，只有第三方国家向你所在国家进行引渡，拉回去判刑。违法的地点才决定处罚你的人，并不是你是哪个国籍就由哪个国家判。14楼小学生么？ 他了679 武松的棺材板要盖不住了，打虎还得了，国家保护动物啊，圣母们呢 有例外的情况就是被害者是中国公民，这样按照现有法律中国司法部门就有管辖权了！ 不管在那，做法上过于残忍，应该有当地部队处理，怎么这么爱出风头呢！这下好了中国人都认识你了，你网轰了 它们蹦跶不了几天了 二楼好狗一条 奴才看什么都觉得是奴才，人家讨论法律问题你要扯到奴才上，自卑到这种程度的煞笔真是少见 刚要喷，一看是缅甸的…… 最后律师说的逻辑是否成立？那个能解释清楚？如果是在外国杀了本国人呢？可以免罪吗？ 听说那🐻伤人了，还好没人死亡，你让他们赔钱他们就会安静了 黑熊不是重点重点是他手中的ak47 熊肉和熊掌是不可能扔掉的，扔的是内脏骨头，在北美狩猎期可以买猎熊票，不能杀带小熊的母熊，而且猎杀的熊必须带回家食用，否则就是浪费，那就违法了要罚款 缅北在打战，有枪正常 不惭愧不道歉就要被圣母婊们喷死啊， 圣母婊真多 当时不知道情况跟风骂过他，对不起 去缅甸噢搞个枪玩 你妈在卖 枪杀黑熊完整版，爱奇艺上面有视频的，开枪山东人整个人脸很清晰的，有违法不可能这么露脸的。与此人描述不符的是，当场是好几个山东人，说的都是山东话，没有缅甸军警，拍摄也很靠近，几乎是对着脸拍摄的，不存在偷拍的，地上一只黑熊已经被肢解，几个山东人正在扒皮，地面上一大盆水，跟农村杀猪一样。另一只在笼子里被AK爆头，视频没有中断，很明显，肢解的黑熊是被这些山东人食用了，扔到山上的话，没有必要这么费劲扒皮。你能相信一群中国人会将8只熊掌扔到山上吗？ 道德婊绝对不会放过你的 人家扔不扔管你们屁事？杀你家的熊了？ 合情合理！ 我就在想，如果华人去美国探亲，遇到可以开枪的情况要不要开枪？如果不开枪自己就完了，如果开枪就可能杀人，违反了国内的法律，肯定比枪杀熊更严重，这真是一个非常头疼的问题。 圣母婊开始大做文章 道德婊呢？ 我艹，我也想试试玩枪。缅甸走起！ 建议绝地求生加入野生动物元素[微笑] 两年前，我曾经从北京乘火车到山海关，该列火车是从北京发往东北的一个城市。火车开动半小时侯，不少东北人就开始相互唠嗑，香烟在车厢里点燃了，列车员经过几次劝告之后毫无办法，只好由着他们可劲的造吧。4、5元一瓶的白酒拿上了台面，女士们用牙咬开啤酒盖直接用瓶子对碰起来，还有那些花生、毛磕之类的小食品在嘴巴里熟练的嚼着，时不时的一口浓痰便射到了车厢走廊里，还有那与秋林红肠一样的“中汇”小肠子，面包屑……。感觉他们的精神特别好，丝毫看不出旅途中的劳累，随着乌烟瘴气逐步浓厚，他们感觉到了热血沸腾，有的把鞋脱了，有的还把袜子脱了。不知不觉间，一只手就抠起了奇痒的脚丫子，还是那只手，再抓起秋林肠啃上一口，还是那只手擤了鼻涕之后再在脑门上擦上一把汗。激动之中，他们脱掉外衣，一些粉厚汗多的女士被自己摸成小花脸，汗水夹杂着脂粉顺着脖子流到了肥硕的胸部上。那些把毛衣塞到裤子里的东北人来回交替着上厕所，每一次路过我的身旁，都夹带着尿臊的气味。火车的晃动与铁轨的喀喀声中，他们达到了几近完美的自我境界。 所以说现在网络热点真心坑！为了创造热点一件事他就不给你讲白了，等舆论发酵后再拿出真相又是个新的热点！所以说下回这些头条真得过个几天看有没有避谣再去转发和评论！ 哈哈，一开始无脑喷的傻逼了……😂 让道德婊来的话，他们更残忍 那也是他的本事啊 一群傻逼，来龙去脉都没搞清楚就乱喷 中国人过越南海关要被敲诈多少钱？ 你吃的都不是被电击的，那你吃什么吃？ 写这么细啊，辛苦你了 第一眼看到这视频的时候，老子就知道不会是在国内 圣母婊，自己国内吃喝嫖赌，无恶不作，还管人家缅甸 ISIS杀人姑且还带个面罩，缅甸人还不如ISIS 我可以卖你打钱 人渣，下得了手，残忍，至少心理变态 不把武松挖出来打死，他残忍的打死了老虎 啪！啪！啪！这脸打的！ 这么看来有点大惊小怪了 人家山上居然还有熊... 缅甸允许持枪 众生皆畏死，无不惧刀杖，以己度他情，勿杀勿行杖。 熊掌不能吃？你逗我吧 有什么问题？ 你吃肉吗？你吃的时候有没有收到良心的谴责，你这种人才是正在的变态，一面冠冕堂皇，一面做着龌蹉的事情！ 杀只吃人的缅甸熊而已。为民除害！ 并不一样怎么没见你去枪决死刑犯 中国键盘侠太多，没了解事情真相的情况下就乱喷！ 你每天都在杀死无数生灵，你自己不知道吗？ 我就不信杀了熊后把熊掌也扔了 既然是必杀的动物，谁来杀都一样。 道德婊，出来洗地 黑熊吃你父母的时候，你把你的脑袋也交上去好了。毕竟他饿了，他只是要吃饱 不论是否出于圣母婊的心态，历史是动物伤人了也不应该决杀了，那是动物而不是人动物是出于不知情的，这不人跟动物过不去吗？ 真没关系只要不犯法当然是指所在国 似乎有点厉害… 你这个问题去问政府，他们是支持集体屠宰的 “不符合中国道德，我很惭愧”<br><br>惭愧什么？ 嘴上说着开旅馆，实则干嘛的边境的人应该能看得出。跟军队有来往的，打AK能打那么稳的（AK后座力是非常大的）傻狗们别上来就喷，我只想告诉你们，这人确实没犯法，但这个人并不只是一个旅馆老板那么简单。<br><br>——一个越南跟广西两边跑的人留 老子在缅甸做的事。你们中国都要管，真的是太平洋的警察啊 之前报道还以为在山东持枪杀熊，还能高调的发布网上，原来如此 听说那🐻伤人了，还好没人死亡，你让他们赔钱他们就会安静了 狩猎是娱乐，你谈的是生态平衡，或者是没办法的底层生态平衡。这个中国男子的行为就是贪娱 已经抓起来何必要剥夺它的命 看视频他的表情也挺慌的，故作镇定 动物是不分国界的，黑熊是中国跑到缅甸的，此人是必须严惩的！ 有本事放它出来和它单挑 要真相可以，可别事情还没水落石出的时候就要打要杀的，在道德上谴责别人，这样的盲从才真的悲哀…… 到缅甸生活不搞几把枪防身那才是脑子有毛病，泰国都可以买枪而且合法。 道德圣母婊何在，全部跪下打自己脸！ 到加拿大去看看，买个猎熊许可证(很便宜)，就象杀个猪一样，别大惊小怪 屁话！你的卡号！我怎么给你打钱啊？ [微笑] 符合道德，不用道歉。发视频的是傻逼 是你们想多了，这件事上还没看到什么过激的评论，只是你们上来就给别人套个圣母婊的帽子 拍了也不会抓好不，照怎么说这楼说澳门两字赌博两字也被抓？ 好，16楼说的在理！ 完全驴头不对马嘴，如果是伤害村民的熊，肯定是直接带枪捕杀，为什么会好好的在铁笼里呢？这个时候才杀 我国圣母婊太多 让道德婊来的话，他们更残忍 没有过激评论？？？果然你只能看到你自己想看的…… 圣母们，发挥你们的力量吧，让这个家伙坐牢去，要不你们情以何堪啊…… 传播暴利 估计现在也比你牛逼 留下熊掌和熊胆，其它扔回森林吓呼其它野熊 没做错什么啊，事发地点是缅甸，得到政府允许，即使自己不动手别人也得动手，对结果没有影响，有什么可指责的？！ 这家伙当时以为自己很牛逼吧？ 老鼠偷吃粮食也是天性，我们是不是不该提倡灭四害？ 调查清楚了，在缅甸合法的，大家洗洗睡吧。 什么想多了，你看看有关此事的上一篇报道里的跟帖评论…… 你将执行者和随心者等同，我如何与你谈 一群道德婊，首先得看缅甸的法律！ 一看人家在缅甸各部门各围观网易呆B都傻眼了[大笑] 呵呵，当知道喷错后，有人道歉吗？ 像你这种马后炮的人更可恶 施主签个名就走，未免太谦。 最完蛋操，不过中国人。 这不是很正常吗？又没有违反当地法律。难不成去澳门吃喝嫖赌，回内地还要坐牢？准备明年3月份跟老总他们几个准备去非洲猎狮子，现在有点担心回国后会不会被判刑啊？ 你的道德说说看？至少＂道德圣母婊＂表明了态度！估计你屁都放不出！ 黑熊自古以来，就是xx的。。。[羞羞] 中国的SB屌事多，管得地球了 国内不能持枪，所以很稀奇 圣母们都应该去草原吃草。老想着为低等动物跟人类争取平权。人类经过千万年的进化，是踩着无数物种的血肉尸骸才走到今天这个文明程度的。 真尼玛闲，都管到国外去了！ 刑法第七条中华人民共和国公民在中华人民共和国领域外犯本法规定之罪的，适用本法，但是按本法规定的最高刑为三年以下有期徒刑的，可以不予追究。 傻逼 貌似缅甸旅游娱乐休闲项目，赚外汇 只想说快手等视频app坑人 微信打啊 这根本就不是施暴，就算施暴也应该是那只熊先动手的吧！这和我说的死刑执行者是一个道理，你说是不是这样！ 众生皆畏死，无不惧刀杖，以己度他情，勿杀勿行杖。 娱乐也好、平衡也罢、贪欲又如何？我就问从结果和手法来看，有什么区别？因为这熊伤人了，被杀了，杀它的是中国人，就是错的--即使当事人在当地是合法持枪和捕杀，对吗？因为我们不够文明和包容，对吗？以文明和包容著称的老美，同样是合法的持枪和狩猎干掉了无数野生动物，也是高大上的，因为老美是有计划的在维持生态平衡、保护环境，对吗？ 来来来，再说个完全不危害人的生命的；澳大利亚，野兔泛滥，把牧草啃光了，当地的羊饿死了不少，这个从表面上来看，起码对人类不构成致命的威胁对吧？当地是怎么收拾野兔的？投放天敌、下毒、布陷阱、枪杀…杀得多还奖钱；为什么呢？因为你野兔危害到我的荷包了；澳大利亚人真心不文明，连特么的野兔都不能包容 你吃肉不，吃鱼不，不杀灭吗？傻逼 我想给他爆了 看看热评这些人的素质多差，讨论新闻就讨论新闻一个个跟狗一样张口就骂人 14楼是真傻逼，鉴定完毕 真较劲，人家在缅甸合法，你抓什么 灭杀行为不叫施暴，难道是善行 缅甸人人有枪！民主的缅甸真好！ 呵呵 性本恶！若无执刀，何以立足？豺狼虎豹，介食血肉，佛门愿以身饲之，我等可不愿。百族同地，争一线生机，若无人举刀，怕不是要落个身死族灭。汝门之执，亦佩之！吾辈之执，亦有若持。 听说那🐻伤人了，还好没人死亡，你让他们赔钱他们就会安静了 让道德婊来的话，他们更残忍 可是你现在吃的肉大部分都不是电击的。死之前也承受了很多痛苦。你居然还吃的下去？ 人家在缅甸，持枪合法，经过同意，枪杀伤人黑熊，一大群道德婊，圣母婊 道德圣母婊何在，全部跪下打自己脸！ 一群蠢货！法律首先是主权原则，依主权管辖。主权原则的延伸就是属人管辖。治外法权是强权主义，想管外国的事，那得看你的拳头硬不硬。别人在外国杀个熊，当地法律都不管，你们操心什么?他即便是中国人，你也管不了，如果行为损害国家利益，才是我们的法律处罚。那个熊就目前来看，没有证据说明它说国语、持中国护照，所以，我们管不了。 我谈是是六楼所谓的包容[窃笑]…… 必须的，niubi 圣母们，发挥你们的力量吧，让这个家伙坐牢去，要不你们情以何堪啊…… 所以说耳听为虚，眼见不一定为实！ 散了吧 这就是吃饱撑的系列。 那你去跟缅甸政府说呀！说你们这是不文明的，说文明人要有包容心，不能因为这熊伤人就杀了 你揍人违法，某些人跟你可不一样 伤人有没有错不知道，反正老美对待伤人的猛兽都是干掉；普通人（受害者或家属）搞不定有猎人、警察，再搞不定还有军队；详情请参照11年2月的黑猩猩伤人毁容事件、受害者叫查拉.纳什；还有就是16年5月的小孩子在动物园掉进大猩猩馆事件，两个猩猩都被干掉了，后者大猩猩并没有伤害那个小男孩；是怪老美不够文明？还是该怪老美不够包容？ 这些整天同情熊和老虎的傻逼，就应该让他们进虎山熊洞跟它们谈谈心。 你吃肉吗？你吃的时候有没有收到良心的谴责，你这种人才是正在的变态，一面冠冕堂皇，一面做着龌蹉的事情！ 主要是国内的太监太狂躁 123夫妻对拜。 管好你自己再说吧，闲得蛋疼 杂种大傻逼。。辣鸡粪 人類才是必殺的動物 熊掌没扔回山里吧！ 谁跟你说揍人不违法了？ 你不服去判他刑啊，天朝有几个地方有熊？而且人家身份都说出来了难道查不到他在哪里？ 键盘侠嘛！ 是很牛逼啊，你们能把他咋滴 这家伙当时以为自己很牛逼吧？ 跟杀羊杀牛有什么不一样吗？除非你不吃肉 你擀了面皮，非要包龟头，你做得了？ 人渣，下得了手，残忍，至少心理变态 这个事情结局挺好的呀，发现是不违法不违规的，小伙没受到惩罚，也没必要去嘲讽那些为这个屠熊发声的网友们，它体现了我们开始关注野生动物和人道主义，这是文明的提现。没必要一定要喷出个高低 这个政府问题，你去问政府，政府是支持集中屠宰的 杀只吃人的缅甸熊而已。为民除害！ 你的道德说说看？至少＂道德圣母婊＂表明了态度！估计你屁都放不出！ 对的，吃过肉的人都没资格逼逼！ 这明显是个动物园好吧。 当时没了解清楚就喷的那些人尴尬了 矫情的国人，好像都是祖传三代吃素似的。 残忍的人，就算伤人了也不要枪击啊！给它安乐死不是更好吗 我吃肉，但我支持集中屠宰，外国屠宰都是电击的，不到0.1秒就死芒，动物没有痛苦 中国道德里有不杀狗熊这一条么 缅甸跟你们有叼关系真特么闲 如果人家国家都允许这么做了，那就是合理合法的了，不是在国内那就没理由用国内的法规来审视~自然也没必要道歉。 大块tmd人心。 不用这么激动吧，就这快骨头等下丢地上让你啃。 圣母在世，天降雷罚送圣母上天任职 真的呀，大家努力吧。 既然是必杀的动物，谁来杀都一样。 看了视频是吧，电死的肉能吃？？ 我立贴说是佤邦，果然说对 别骂什么圣母婊的！换你下的去手吗？祖宗教我们的“不已恶小而为之，不已善小而不为”，最起码做到前一句不难！ 太多法盲了，中国法律管的是在中国境内的人，而不是所有中国人，港剧里开船到公海杀人都不犯法。 还是缅甸好啊 喷子又没脸，怎么会尴尬 能不能就事实说话？这个事情只有一个问题，就是违不违法。男子行为并没有违法就已经说明问题了，你们扯别的是不是扯蛋？我发现道德婊最擅长的就是根据自己喜好，不顾事实真相来随意批判谴责，这也叫表明态度？什么态度？颠倒是非的态度？你们赢了，，， 幸亏你是在国外 一面之辞，他说在缅甸就在缅甸吗？ 活捉一只圣母婊…… 一群键盘侠而已！看事情只看一个点！ 还特么扯到文明了，来来来，你继续扯，老美文明不？老美手持持枪证和狩猎证，干掉的动物何止一头熊？法国文明不？法国鹅肝怎么来的你心里没点B数？西班牙斗牛如何？日本捕杀鲸鱼如何？不见你们圣母佛光普照？ 道德绑架 听说那🐻伤人了，还好没人死亡，你让他们赔钱他们就会安静了 我就想问问哪国法律允许随便杀人？ 叫这些人给被伤的群众捐款，这帮人立刻就安静了 政府允许了还有什么说的 真不明白这个也能火，就单单从他杀狗熊的枪来看就不是在中国！在中国顶多武器是菜刀！ 傻帽，别人叫你杀你就啥? 执行死刑是不是谁来做都一样？ 我把你妈在国外杀了 道德圣母婊何在，全部跪下打自己脸！ 中国就这样，法律办不了你，那就用道德来绑架你 地球呀，它们就这样孽杀您孕育出的生灵，您何时才能生气呢? 缅甸跟你们有叼关系真特么闲 还用谴责他？把他照片名字已公布他还有脸回山东吗，就连他家里人一起鄙视👎 此事说明一个问题：做人还是要低调。 哈哈哈哈哈 屠杀牛我知道直接用铁锤击打头，我支持电击，动物没有痛苦 傻逼，别人杀不杀关你啥事？ 别说杀胸了那边杀个人也就那样了 知道所在国家就知道结果了，各个还判罪笑死我了 关键是视频是谁发的 中国圣母婊傻逼们，管好自己吧 让道德婊来的话，他们更残忍 现在微信朋友圈害死多少人! 在终果除了人不是保护动物！别的都是一级保护动物！！！[被黑] 就凭当事人自己的解释，这么多无知脑残就开始攻击别人，要先搞清楚当事人说的是不是真的，真是为这些脑残捉急，对啊，圣母和道德们都去问候脑残无知们的家人了，都在伺候他家的女人了，那有时间管这些脑残货。 是呀，我也觉得是 还不是人把熊的家园侵犯了，熊伤人是本能 表明了什么态度？你们这帮子圣母都是些什么鬼态度？扯些什么鬼歪理邪说？说来听听？这黑熊在我国是保护动物，缅甸就一定要列为保护动物？杀熊地点在境外、当事人是合法持枪，杀熊的手法是一枪撂倒、也不存在虐杀一说；你们这帮圣母还有什么可说的？ 三人成虎，看来以后说话得慎重 这家伙当时以为自己很牛逼吧？ 小编是不是闲的蛋疼，这破新闻跟咱们有个屁关系，还不如放个你幸福了吗。 我觉得他应该是贩毒的，逮到熊的应该是制毒的 就凭当事人自己的解释，这么多无知脑残就开始攻击别人，要先搞清楚当事人说的是不是真的，真是为这些脑残捉急，对啊，圣母和道德们都去问候脑残无知们的家人了，都在伺候他家的女人了，那有时间管这些脑残货。 熊就该把这些乱说话的吃掉，圣母婊 因为至少有两个国家不是文明国家，其中一个现在在转变，另一个还在特色中，伤熊在这两个国家是通病，凶手不是中国人吗？ 人渣，下得了手，残忍，至少心理变态 你也说文明国家，那始发地不是文明国家不就得了 人家家里有三把枪，你有吗？不比你牛逼？ 太残忍了！ 你该去喂熊 前面的评论真的冷血，不是在中国就应该杀？不是在中国就应该不闻不问？不能发表自己的看法？无论在哪个国家。我想都不应该容忍这样的血腥吧 你的道德说说看？至少＂道德圣母婊＂表明了态度！估计你屁都放不出！ 在所在地枪支不犯法，杀熊也不犯法。至多可以谴责一下，要是入刑，出国打猎的富豪那？在国外持有枪支的国人那？还是依照所在地法律执行 军队逮到的让你开枪射杀，小伙子背景不错 在中国玩个仿真玩具枪都被判无期！！！[骷髅] 又不是他放的视频 人家就是牛逼 所谓的道德，绑架了善良老实的中国人。 我有个朋友14年去越南玩，花26万买了个老虎，然后杀了吃肉泡酒。 缅甸跟你们有屁关系，闲扯淡。人 你去杀牛场看看，看了保证你不会这样说。 红色高棉是那里的？ 既然是必杀的动物，谁来杀都一样。 沟通一份6。的 自己都过不好，还管别人！ 可惜了两对熊掌[狗] 散了吧，散了吧。别人家的事，别操心了 那这样的话，如果国外允许杀人的话，他是不是在国外杀完人把视频放到国内?这不是道德绑架，这是道德不容许的。 说到点子了。还有这人主动请缨也是想过把杀熊瘾。 ",
        "Reply": 1274
    },
    "Article": "（原标题：“枪杀黑熊”当事人：缅甸杀熊获当地允许）视频截图“开枪杀熊”视频引关注27日，一则标题为“枪杀黑熊完整版”的视频在网上热传。视频时长约28秒。视频中，一名男子端着“步枪”，枪口对着一头关在笼子里的黑熊。在一声枪响后，黑熊应声倒地。随后，视频传出“快点”、“就这样”等汉语。接着，视频画面出现黑熊残肢，有人正“切割”黑熊尸体。但视频时长较短，且并未交代事发地点、当事人身份等信息。28日，该视频已经得到数万次转发，一时引起网络关注。“持枪”、“杀熊”等关键词一时间成为热点话题。网友对视频中的杀熊行为表示“谴责”的同时，也呼吁有关部门介入调查。不少网友通过视频中画外音的口音，猜测开枪男子籍贯，并转发微博提醒相关执法部门介入调查。12月28日上午，新京报记者拨打国家林业局举报电话，对方称，已经接到对此事件的举报，正在搜集更多线索。当事人称杀熊得到当地政府允许28日晚间，有媒体报道称该视频事发地为缅甸。29日，新京报记者从云南省西双版纳森林公安政治处确认，经调查，上述视频中的开枪男子为中国山东人，事发地点确认在缅甸。记者随后联系到视频中的开枪男子张林。他表示，网传视频内容发生时间是12月27日，事发地点在其目前居住地缅甸佤邦。对于事发当时的情形，他回忆说，“当时有两头黑熊从山上下来，伤了两个村民，后来黑熊被军队抓了，要处死。在军队的允许下，我出于好奇心，开枪杀了黑熊。”张林告诉新京报记者，在杀熊前，当地政府曾告知现场人员不许拍摄，“在场的有中国游客，也有当地人，不知道视频怎么传到国内了。”张林表示，自己家在山东，赴缅经商已经十余年，目前在佤邦勐波县经营一家旅馆，平时也招待中国游客。对于国内网友的指责，张林解释称，“在缅甸持枪是合法的，我也是在当地政府的允许下杀了黑熊。”他表示，黑熊被杀后并没有被吃掉，而是由当地人解剖后扔回山里，以此吓跑其他野生黑熊。同时，张林也对自己的行为表示“道歉”。“有点残忍，影响不好，这次事件也对我本人造成很大影响，希望得到原谅。”12月27日，一则标题为“男子枪杀黑熊”的视频在网上热传。画面中，一名男子手持步枪，朝着一头关在笼中的黑熊开了一枪后，黑熊应声倒地。两天内，这一视频引起数万网友转发，“谴责”声一片。由于视频并未交代更多事发细节，当事人身份成“谜”。昨日上午，新京报记者从云南省西双版纳森林公安处获悉，经调查，视频中开枪男子为中国山东人，但拍摄地点在缅甸。随后，新京报记者与视频中的开枪男子张林（化名）取得联系，对方证实，视频内容系3天前其在缅甸佤邦所为，“黑熊伤了村民，在当地政府的允许下，我开了枪。”对话“不符合中国道德，我很惭愧”昨日上午，张林接受新京报记者采访时表示，身在国外的他起初对国内的舆论风波并不知情，直到12月28日，山东警方前往其老家询问情况方才知晓。谈及他在视频中的所为，他表示“在缅甸不违法”，没想到会在国内引发声讨，“精神压力很大。”黑熊伤人被围捕处决新京报：你什么时候来到缅甸的？张林：我的户籍在中国山东，2004年一个人来到缅甸做生意，后来跟一个当地人组建了家庭，已经在缅甸生活了十几年。新京报：“开枪杀熊”的经过是怎样的？张林：那是3天前的事情。当时我在缅甸佤邦勐波县，我生活的地方。这里是个山村，那天有两头野生黑熊从山上跑下来，还伤了两个村民，后来当地的军队把它们围捕了关在笼子里，准备处死。当时这里有很多中国游客，既是出于好奇，又想告诉中国游客这里会很安全，我就跟地方政府申请，由我来执行开枪。新京报：被杀的熊最后怎么处置的？张林：视频里出现了熊被解剖的画面，但没有人吃掉它。按照当地风俗，熊不能吃。解剖后的熊被当地人扔回山里，用来吓跑其他的熊，以免再出现黑熊下山伤人的事。新京报：视频是怎么流传到网上的？张林：当时在场的有当地村民，军人，还有不少中国游客。当地政府不许拍摄。但我开枪打死黑熊后，也不知道有人拍视频了。至于怎么传到国内的，我就不知道了。希望得到大家原谅新京报：你什么时候知道这个视频在国内引起关注的？张林：直到12月28日，警察到我老家山东找我家人问情况，我才知道。国内警方后来也找我调查了。视频在国内疯传了，现在看来视频内容挺残忍的，我感到很抱歉，希望得到大家的原谅。新京报：这件事对你有什么影响？张林：这两天很多朋友都给我转发这个新闻，还有很多人打电话发信息骂我，我的精神压力很大。老家的父母知道后，以为我犯了法，直接病倒了。新京报：怎么看待网友的指责？张林：在缅甸，居民是可以持枪的，我家就有3把枪。另外，这头黑熊是地方决定处死的，我开枪也得到当地政府许可。当然，这不符合中国法律和道德，我很惭愧，以后再不杀害动物。律师说法不触及缅甸法律国内不承担刑责北京康达律师事务所韩骁律师介绍，黑熊被我国政府列为二类保护动物，如果上述视频行为发生在中国，那么当事人张林至少会涉嫌两个罪名：非法持有、私藏枪支弹药罪和非法猎捕、杀害珍贵、濒危野生动物罪，必将面临刑事处罚。对于中国公民在国外的行为触犯中国法律是否需要担责，韩骁表示，可分为两种情况看待。“一，如果其行为在缅甸和中国都违法，那么还需看此行为在中国的刑罚等级，如果最高刑在三年以下，可追究也可不追究。二，如果张林持枪杀熊的行为并不触犯缅甸法律，则其同样不需要因此在国内承担刑事责任。”根据我国《刑法》三百四十一条规定，非法猎捕、杀害珍贵、濒危野生动物罪：非法猎捕、杀害国家重点保护的珍贵、濒危野生动物的，或者非法收购、运输、出售国家重点保护的珍贵、濒危野生动物及其制品的，处五年以下有期徒刑或者拘役，并处罚金；情节严重的，处五年以上十年以下有期徒刑，并处罚金；情节特别严重的，处十年以上有期徒刑，并处罚金或者没收财产。律师表示，只有依据中国刑法和外国刑法都认定为犯罪的，才可以按照中国的刑法追究刑事责任。但根据张林的解释，其行为如果在缅甸并不违法，也不需要在国内承担刑事责任。本文来源：新京报责任编辑：赵亚萍_NN9005",
    "Title": "\"枪杀黑熊\"当事人:杀熊获当地允许 父母气得病倒了_网易新闻"
}