{
    "Article": "（原标题：跨年夜，杭州男子飞奔、打滚、狂砸救护车！原因大跌眼镜）2018年1月1日凌晨3点左右,一辆疾驰的救护车接到指令正赶往320国道与杭州富阳新桥新路口救助一名醉酒男子。救护人员在路口发现了一名醉酒的男子以及同行男子潘某。但是让人没想到的是，醉酒男子忽然像发狂了一样用拳头、石头敲打救护车，甚至捡起了地上的窨井盖向救护车的挡风玻璃砸去……银湖派出所民警张翔接110指令后迅速赶往现场，将男子控制住，并传唤回所内醒酒。后经调查该男子姓胡，2017年12月31日晚与几个兄弟在银湖街道一家烧烤店里喝酒、撸串、侃大山，共同跨年。酒过三巡，大家各自散了。胡某醉了，就由后来到的潘某照顾。潘某本想自己开车将胡某送回家去，但胡某硬是不肯上车。于是胡某在前面走，潘某开车跟在后面，可是走到新桥新路的路口时，胡某开始发酒疯了。“他一会乱窜、一会狂奔、一会打滚，还要躺在斑马线上，我实在无法控制他，就拨打120求助。”潘某说。救护人员到达现场后，询问了潘某要将胡某送到哪个医院，潘某却说把胡某送回家就好了。医护人员正在与潘某解释救护车服务只能是送往医院的时候，胡某开始发疯似的敲打救护车。一开始是用拳头敲打，后来用路边捡起的石头砸，最后捡起了地上的窨井盖向救护车砸去，最终造成了救护车挡风玻璃破碎，引擎盖多处划伤，雨刮器破损，车内线路损坏等多处损坏。等胡某酒醒，民警问他为什么这么做。胡某只称喝多了酒，什么都不记得了。醉酒不会成为逃避法律制裁的理由，最终胡某因涉嫌寻衅滋事罪被刑事拘留，目前该案正在继续调查中。本文来源：钱江晚报作者：鲍亚飞责任编辑：黄哲程_B9302",
    "Title": "男子跨年夜抬起井盖砸向救护车 原因令人大跌眼镜_网易新闻",
    "PublishTime": "01/02/201817:35:54",
    "Source": "Netease",
    "Comment": {
        "Content": "原因令人大失所望 我实在无法控制他，就拨打120求助。”潘某说===========把这潘某一块儿拉走吧，两人都送精神病医院。 酒后看本质，借口酒后发疯的人都是平常过的不如意的那种！ 傻逼昨不死呢 原因令人大失所望 胡闹！[暴怒] 傻逼昨不死呢 力气挺大啊！农村需要你 我实在无法控制他，就拨打120求助。”潘某说===========把这潘某一块儿拉走吧，两人都送精神病医院。 酒后看本质，借口酒后发疯的人都是平常过的不如意的那种！ 赔多少钱 ",
        "Reply": 7,
        "Link": "http://comment.news.163.com/news2_bbs/D75O0ON70001899N.html",
        "Total": 72
    },
    "KeyWords": "醉酒,跨年夜,救护车",
    "URL": "http://news.163.com/18/0102/17/D75O0ON70001899N.html"
}