{
    "Article": "（原标题：79岁王大爷小餐馆前卖红薯年轻老板娘每天给他送菜送饭）12月27日中午，杭州同顺路上一家菜馆的老板娘小汪端着一碗红烧肉、西红柿炒鸡蛋和一大碗米饭，出了店门。她不是去送外卖，而是端给在店门口摆摊卖烤红薯的王大爷，“他这段时间都在门口摆摊，这么大岁数不容易，多照顾一点。”王大爷叫王洪才，79岁，安徽阜阳人。“这家饭店老板真好，我来这里十几天了，都让我摆在门口，中午还端饭给我吃，给钱也不要，给红薯、玉米也不要。”他告诉记者。王大爷说，他以前在老家养猪种菜，2014年老伴去世后去北京打工，2015年到杭州，买了辆二手三轮车和烤炉，天气暖和时卖水果，天冷卖烤红薯、烤玉米、烤土豆，现在每天能挣几十元到一百元。王大爷有五个子女，四个在老家，他和三儿子在杭州租住，儿子卖水果，他卖烤红薯，“我这辈子没求过人，娶媳妇、盖房子从来没借过钱。我身体好，干得动，不需要孩子们养我。”这时，老板娘小汪又端来一碗汤：“大爷，你尽管吃，我们开饭店的，吃不垮。”本文来源：都市快报责任编辑：程钢_NN7377",
    "Source": "Netease",
    "KeyWords": "烤红薯,水果,老板娘",
    "Title": "餐馆老板娘每天给门口摆摊老汉送饭:尽管吃 吃不垮_网易新闻",
    "Comment": {
        "Total": 912,
        "Content": "打了为富不仁的脸 好人一生平安 安徽是个奇特的地方，因为，安徽的古徽州一带自古就是出名人，能人，达人，人杰的地方！但是，安徽又是出人渣，骗子，小偷，乞丐的地方，如阜阳及附近地区！ 民间自有真情在! 老板娘很漂亮 前年在石碣上班，每天下班都会看到那个人背上背着大被子，穿着不堪，看她很可怜，每天我都会送饭给她，最后一天见她，我跟她说让她等我，我回去拿钱给她买衣服，结果我从租房出来就不见了她。 并不觉得，大爷心疼自己娃不给自己娃添乱，别人心疼大爷，大爷欣然接受，何来圣母之心 好人一生平安 杭州是个有人情味的城市 很快老板娘就看不到这个摆摊的老汉了…… 真的是好人。 还是好人多大爷的这个冬天心里应该是暖和呃呃呃的 这个社会，这股清流，难能可贵！！人美心更美 同情心是人类最高贵的品质，人类普遍具有一种照顾和保护老弱的心理情结（有时会是一种补偿心理，觉得自己孝顺没敬够，等等）。事儿虽小，但精神很伟大！…… 活该一辈子做老板。 好人啊 暖心 好心有好报。 好人一生平安！ 那陈胜，刘福通，这些人被你吃了。 给你赞一下 是什么都能喷，666 好人 老板娘,你很漂亮,但我却没有勾引你的色心,善良不可亵渎 给一个卖烤红薯的天天送饭，你们不觉得这个新闻很奇怪吗 好人一生平安 烤红薯生意好也挣钱啊。 冬天里的一股暖流这么大岁数还在奔波的爷爷 好人有好报 是个好人 老汉推车 城管也不管管，这样烤摊还污染空气环境 前年在石碣上班，每天下班都会看到那个人背上背着大被子，穿着不堪，看她很可怜，每天我都会送饭给她，最后一天见她，我跟她说让她等我，我回去拿钱给她买衣服，结果我从租房出来就不见了她。 民间自有真情在! 就怕有一天，老板娘没有给老人送饭，老人过来把店砸了 明目张胆地胡说。 还是好人多大爷的这个冬天心里应该是暖和呃呃呃的 “我这辈子没求过人，娶媳妇、盖房子从来没借过钱。我身体好，干得动，不需要孩子们养我。”兄弟服你，我也50多岁了和你的想法和做法是一样的！ 好人一生平安 暖心 好人一生平安 人美心善良 奇怪哪里？说说看，说不出来闭嘴 是什么都能喷，666 老板娘,你很漂亮,但我却没有勾引你的色心,善良不可亵渎 老漢不推車了，老闆娘就不幹了！ 并不觉得，大爷心疼自己娃不给自己娃添乱，别人心疼大爷，大爷欣然接受，何来圣母之心 二楼这辩证法似乎也有道理！那我们在网上众筹他人看病，也随便骂句他的祖宗八代及七大姑八大姨之类咯……老板娘表达爱心仅限于对这个老人，和老人的子女无关！请相信生命轮回，扬善积德！ 打错了，是老哥！ 你是小吊！！！ 店家地址来一个 有心了 用对药,能治. 好人好良心 杭州是个有人情味的城市 好美的老板娘 这个社会，这股清流，难能可贵！！人美心更美 只相信一楼所说，网上众筹的我是不敢相信。 活该你特么生意兴隆。腰缠万贯。 你真是个锤子 啊啊啊，只要人人都献出一点爱… 好人啊 [石化] 活该一辈子做老板。 同情心是人类最高贵的品质，人类普遍具有一种照顾和保护老弱的心理情结（有时会是一种补偿心理，觉得自己孝顺没敬够，等等）。事儿虽小，但精神很伟大！…… 这么大岁数了还是不能安享晚年是他付出的少吗?是他不劳动吗？ 好人一生平安！ 噢噢噢哦哦 中华脊梁 给你赞一下 给一个卖烤红薯的天天送饭，你们不觉得这个新闻很奇怪吗 好人一生平安 比上海稍微强点，越大的城市越没人情味 流星月亮地球太阳系有发动机么？没有!他们却高速在宇宙中运行!为什么？因为他们的运行轨道本身就是太空高速时空隧道!他们的运行路线一半为去路一半为来路，周而复始地运行着!地球自转公转着，本就没有东西南北上下左右等方位!谁定的？我们的天父啊!目的只有一个，告诉人类我们天父的星座方位!所以九曲桥的方向始终对着东北方!在宇宙一切物质中，永远是子体围绕母体运动，这是恒定的!所以地球自转并围绕太阳公转!因地球是自转公转的，所以根据地球的东西南北是找不到星外文明的星座方位的!只有找到太阳的上下前后东西南北才能准确地给天父星座方位定位!我们天父星座方位在太阳系东北上方第九颗恒星那里!那里以双伴恒星为中心带动周围108颗恒星运动着! 恋老头辟！ 烤红薯生意好也挣钱啊。 五十多了你给他叫兄弟？ 老汉推车 按照惯例，有十个摆摊老汉已经在来饭馆的路上。 这个社会还是好人多，我在深圳，有个饭馆，吃饭不用钱，一般都是打工族去吃，老板是一位老人说话很干脆，家父生前是毛主席身边人， 打了为富不仁的脸 好人一生平安 安徽是个奇特的地方，因为，安徽的古徽州一带自古就是出名人，能人，达人，人杰的地方！但是，安徽又是出人渣，骗子，小偷，乞丐的地方，如阜阳及附近地区！ 有人要找你麻烦，你把有关部门的活干了，让人家没活干(关健是没面子) 老板娘很漂亮 好人 好人一生平安 很快老板娘就看不到这个摆摊的老汉了…… 真的是好人。 问老板娘是好人，可是问题是你那么多儿子，你自己还挣钱。凭什么让人家白白付出？你可以选择不来！ 冬天里的一股暖流这么大岁数还在奔波的爷爷 好心有好报。 好人有好报 是个好人 城管情何以堪，一顿热饭对一张罚单，，，， 城管也不管管，这样烤摊还污染空气环境 好人一生平安！ 那陈胜，刘福通，这些人被你吃了。 ",
        "Reply": 67,
        "Link": "http://comment.news.163.com/news_shehui7_bbs/D6O4D9GS0001875P.html"
    },
    "PublishTime": "12/28/201710:43:06",
    "URL": "http://news.163.com/17/1228/10/D6O4D9GS0001875P.html"
}