{
    "Comment": {
        "Link": "http://comment.war.163.com/news_junshi_bbs/D6ITF4I6000181KT.html",
        "Reply": 75,
        "Content": "历史事实表明，儿童更容易被洗脑教唆，更不怕死。 3楼傻逼，你连我在2楼说什么都没看明白就急着出来，是急着来认爹吗？ 扯淡，放你妹的放。14岁以下犯罪是不能判刑，但是并不意味着治不了你。没听过什么叫工读学校？现在有的叫特殊教育学校。基本上就是少年犯监狱，里面的管理跟监狱一样的。 现在一点都不同情欧洲的那些圣母婊。对白帽教各种宽容救助，对无宗教或信佛、道的中国人是从心底各种鄙视。 法國是个本来很多元的，原来就有很多中东北非的殖民地，让它切割和北非中东是不可能的 人生而平等，是那个狗杂说的？？和宗教关系真不大，信季度的国力换在这个位置一样这样干，别忘了十字军的事。 自作孽不可活 只要信了某教，就算是本族人也会变成外族人，他们会以讲阿语为荣，把阿拉伯国家当成自己的祖国，更想把自己现在住的地方绿化。 你们这些咖啡乐既不肯信教，又不肯去死，让我很为难啊。 问题说半天，却回避最重要的东西。独狼式的袭击怎么办？这个基本上是无解的，谁也防不住。 就跟亚洲鲤鱼在美国泛滥一样的道理可能到最后杀都杀不光 法国装圣母，自找的，记住这是个无情的世界，谁包容外族，谁就走在灭亡的道理上 美佬说，人生而平等；请问你说的这些是人吗？？？ 对恐怖分子决不能手软，要斩草除根 极端宗教恐怖分子都是灭绝人性.极度凶残. 世界恐怖分子：希特勒，拿破伦，唯多利亚，斯大林，萨达姆，卡扎菲，苏哈托，莫索里尼等 确实，说明法国佬真不昨地，13岁的小孩都不放过！对法国内的控制到了和老特勒一个水平 和宗教关系真不大，信季度的国力换在这个位置一样这样干，别忘了十字军的事。 对IS分子还客什么气i，直接活埋了是最好的 这回不提普世了！ 学学以前的苏联或现在的朝鲜，成本不会大 不说人生而平等了 那是灵道的亲兄弟 当时是外族，所以要驱赶他们 过度宽容往往会让自己深受其害。。。 2013年沙特外交副大臣透露，沙特在过去三十年间共计对95个国家提供1030亿美元的对外援助金额，这些援助包括：<br>1、援建清针寺，1991年以来沙特在国外援建清针寺4200座，分布在亚欧非各洲；<br>2、支助去沙特留学，学习内容自然不会是天文地理而是伊斯拦教义；<br>3、培养啊訇向外输出。据不完全统计，2008年以来中东国家包括沙特定向向宁夏,新疆,陕西等地资助金额达3.5亿美元,资助新建清针寺达560个,培训啊訇为1450个,资助赴阿留学生3280人； 莫非你就是恐怖分子，说到你的痛处了？ 非我族类其心必异支持2楼 搞些对抗用不了多少钱。但想解决这个问题的时候需要的却是数倍于此的钱也不一定搞得下来。 所有大胡子和黑人都是可疑的.... 而参考消息这样说，无非就想说法国不人道，对13岁的小孩都不放过！ 几年前法国对自己的民族大融合是很自豪的，说自己是世界上种族融合最好的国家 巴黎斯坦你以为是白叫的吗？ 2013年沙特外交副大臣透露，沙特在过去三十年间共计对95个国家提供1030亿美元的对外援助金额，这些援助包括：1、援建清真寺，1991年以来沙特在国外援建清真寺4200座，分布在亚欧非各洲；2、支助去沙特留学，学习内容自然不会是天文地理而是伊斯兰教义；3、培养阿訇向外输出。据不完全统计，2008年以来中东国家包括沙特定向向宁夏,新疆,陕西等地资助金额达3.5亿美元,资助新建清真寺达560个,培训伊斯兰阿訇为1450个,资助赴阿留学生3280人 4楼就是个鼓动别人的键盘瞎！人生而平等，狗都可以有爱狗粉，何说人呢？？我们是爱人粉 广州的*人算外族吗？ 和平的宗教，别人为此得付出巨大的额外成本。 确实要严防外来物种的。。。。。 你又是什么？语言的恐怖分子？ 对丧尽天良极端宗教恐怖分子.必须格杀勿论. 监控有用吗，圣母婊 毒瘤你也学？？？是不是说你本质就是一个毒瘤 13已经很危险了，还是10年前，在天涯看到有人说当时的未成年，商议14岁生日前强奸女同学。<br>还有个案子，特别恶劣的，13岁强奸了女同学，批评教育，赔了几千块钱，然后他爸爸说他：你有本事强奸怎么不杀了她，害老子赔钱。。。这个恶少年就夜里去女同学家里把女孩母亲杀死了。然后又批评教育，放了。 邪教才能使的13岁儿童都被监控。 2楼，你的意思是你没听过的，就代表世界没有？你以为你是谁？？？？我是你失散多年的野爹，我现在告诉你了。土鳖。 历史事实表明，儿童更容易被洗脑教唆，更不怕死。 确实要严防外来物种的。。。。。 3楼傻逼，你连我在2楼说什么都没看明白就急着出来，是急着来认爹吗？ 纵容的人可以枪毙 相信每个人都希望世界公平正义，没有无缘无故的爱，也没有无缘无故的恨！为何以前西方国家很少有恐怖分子？因为那时西方国家没有干涉入侵中东社会，没有在中东推广“皿煮”！冷战后到处推广皿煮自游，结局只能是搞乱别人，也祸害自己！ 扯淡，放你妹的放。14岁以下犯罪是不能判刑，但是并不意味着治不了你。没听过什么叫工读学校？现在有的叫特殊教育学校。基本上就是少年犯监狱，里面的管理跟监狱一样的。 现在一点都不同情欧洲的那些圣母婊。对白帽教各种宽容救助，对无宗教或信佛、道的中国人是从心底各种鄙视。 一群虚伪的东西，IS不是欧美自己人吗？ 极端宗教恐怖分子都是灭绝人性.极度凶残. 东方最大的is何时来解决？ 那是灵道的亲兄弟 确实，说明法国佬真不昨地，13岁的小孩都不放过！ 人生而平等，是那个狗杂说的？？和宗教关系真不大，信季度的国力换在这个位置一样这样干，别忘了十字军的事。 圆明园是谁烧的？你可别告诉我也是is干的😂😂，谁也别说谁，先把你们自已的屁股擦干净再说。 黑+绿=无解 对恐怖分子决不能手软，要斩草除根 自作孽不可活 法國是个本来很多元的，原来就有很多中东北非的殖民地，让它切割和北非中东是不可能的 法兰西斯坦 你们这些咖啡乐既不肯信教，又不肯去死，让我很为难啊。 问题说半天，却回避最重要的东西。独狼式的袭击怎么办？这个基本上是无解的，谁也防不住。 就跟亚洲鲤鱼在美国泛滥一样的道理可能到最后杀都杀不光 法国装圣母，自找的，记住这是个无情的世界，谁包容外族，谁就走在灭亡的道理上 美佬说废死是普世 美佬说，人生而平等；请问你说的这些是人吗？？？ 法基斯坦 这回不提普世了！ 世界恐怖分子：希特勒，拿破伦，唯多利亚，斯大林，萨达姆，卡扎菲，苏哈托，莫索里尼等 乱扣帽子，红卫兵重生了？ 确实，说明法国佬真不昨地，13岁的小孩都不放过！对法国内的控制到了和老特勒一个水平 和宗教关系真不大，信季度的国力换在这个位置一样这样干，别忘了十字军的事。 对IS分子还客什么气i，直接活埋了是最好的 只要信了某教，就算是本族人也会变成外族人，他们会以讲阿语为荣，把阿拉伯国家当成自己的祖国，更想把自己现在住的地方绿化。 是那些信基毒的干的！！ 美佬说，人生而平等；请问你说的这些是人不？？？ 4楼就是个鼓动别人的键盘瞎！人生而平等，狗都可以有爱狗粉，何说人呢？？我们是爱人粉 不是你美爹弄出来的？ 学学以前的苏联或现在的朝鲜，成本不会大 不说人生而平等了 当恐怖袭击变的没有底线，那反恐也会相应升级。恐怖主义从娃娃抓起，似曾相识不？ 香港也出傻逼？不科学啊。 毒瘤你也学？？？是不是说你本质就是一个毒瘤 莫非你就是恐怖分子，说到你的痛处了？ 过度宽容往往会让自己深受其害。。。 2013年沙特外交副大臣透露，沙特在过去三十年间共计对95个国家提供1030亿美元的对外援助金额，这些援助包括：<br>1、援建清针寺，1991年以来沙特在国外援建清针寺4200座，分布在亚欧非各洲；<br>2、支助去沙特留学，学习内容自然不会是天文地理而是伊斯拦教义；<br>3、培养啊訇向外输出。据不完全统计，2008年以来中东国家包括沙特定向向宁夏,新疆,陕西等地资助金额达3.5亿美元,资助新建清针寺达560个,培训啊訇为1450个,资助赴阿留学生3280人； 当时是外族，所以要驱赶他们 非我族类其心必异支持2楼 到中国拉人，保证上千万人都愿加入is😂 13已经很危险了，还是10年前，在天涯看到有人说当时的未成年，商议14岁生日前强奸女同学。<br>还有个案子，特别恶劣的，13岁强奸了女同学，批评教育，赔了几千块钱，然后他爸爸说他：你有本事强奸怎么不杀了她，害老子赔钱。。。这个恶少年就夜里去女同学家里把女孩母亲杀死了。然后又批评教育，放了。 而参考消息这样说，无非就想说法国不人道，对13岁的小孩都不放过！ 这根本是两码。广州的算外来客商。<br>法国是收为公民，或者预备公民。<br>法理上，如果需要就翻脸，把外国客人全送走。<br>而一旦是公民半公民就难处理了。<br>就如社会上，哪怕打炮很平常。<br>但生孩子啊扯证啊就麻烦。 几年前法国对自己的民族大融合是很自豪的，说自己是世界上种族融合最好的国家 基毒教就有好东西吗？都一个吊样，好在进入国内，就要符合同内宗教法，因为国内历代以不就是实用主义大于宗教，比如进入同办的和尚教就改吃素了 所有大胡子和黑人都是可疑的.... 胡说八道，我们包容那么多真理人也没见有什么问题 搞些对抗用不了多少钱。但想解决这个问题的时候需要的却是数倍于此的钱也不一定搞得下来。 巴黎斯坦你以为是白叫的吗？ 2013年沙特外交副大臣透露，沙特在过去三十年间共计对95个国家提供1030亿美元的对外援助金额，这些援助包括：1、援建清真寺，1991年以来沙特在国外援建清真寺4200座，分布在亚欧非各洲；2、支助去沙特留学，学习内容自然不会是天文地理而是伊斯兰教义；3、培养阿訇向外输出。据不完全统计，2008年以来中东国家包括沙特定向向宁夏,新疆,陕西等地资助金额达3.5亿美元,资助新建清真寺达560个,培训伊斯兰阿訇为1450个,资助赴阿留学生3280人 希望法国当局及欧盟各国重视民间不同民族群众的诉求，尊重不同政见者的意见并采取切实行动缓解宗教冲突，避免此类毫无意义的暴力事件再次发生。 4楼就是个鼓动别人的键盘瞎！ 剁了喂猪 和平的宗教，别人为此得付出巨大的额外成本。 广州的*人算外族吗？ 你又是什么？语言的恐怖分子？ 你就是个儿同吧 监控有用吗，圣母婊 哦？你祖上强奸了别人的女人，别人的后人就必须得强奸你母？ 怎么会无解，全消灭不就行了 法国这个已经是大融合了，很难区分了 邪教才能使的13岁儿童都被监控。 圣母婊，把黑人接到你家去吧 2楼，你的意思是你没听过的，就代表世界没有？你以为你是谁？？？？我是你失散多年的野爹，我现在告诉你了。土鳖。 黑+绿+督+美狗+俄毛=傻逼 ",
        "Total": 804
    },
    "Article": "（原标题：法国反恐形势严峻：监控4000名危险人物包括13岁儿童）参考消息网12月26日报道法国《费加罗报》11月13日发表题为《IS袭击法国的意愿并未改变》的报道称，2015年11月13日，由IS派遣的恐怖分子行动小组在巴黎及郊区杀害了130人，并导致数百人受伤。总统马克龙和前总统奥朗德都到袭击案发地参加纪念活动。在法国回首悲剧之际，今年7月上任的国内安全局局长洛朗·努涅斯接受了专访。作为法国反恐部门的负责人，他尤其担心法国国内的恐怖威胁，而且恐怖分子的袭击手段日益先进。他不排除IS从叙利亚伊拉克地区遥控战斗小组策划恐袭的可能性。《费加罗报》：2016年春，你的前任曾在国民议会国防委员会上表示“法国目前很明显是受威胁最大的国家”。现在情况依然如此吗？洛朗·努涅斯：法国受到的威胁确实很大，就像IS宣传所证明的那样。这种威胁的鼓噪会长期存在。让我们担心的始终是由在叙利亚和伊拉克的恐怖团队策划的恐怖袭击图谋。对我们来说，我们花大力气防范的这种外来威胁仍需严肃对待。我们最担心的问题是，IS或“基地”组织仍有能力向法国派遣恐怖分子小组实施袭击。我们很清楚，恐怖分子实施行动的意愿并未改变。关键问题是要弄明白，他们是否还有能力这么做。IS正在崩溃，很多极端分子在战区被杀，其中就有281名法国人被“宣布死亡”。据最新的情况汇总，在叙利亚和伊拉克总共有686名法国籍男女或有法国居住身份的人。图为法国警察在恐袭现场附近巡逻问：10月18日，马克龙在其国内安全讲话中宣称，恐怖主义威胁会“长期维持较高水平，会越来越转向内生型”，那么“低成本”袭击会不断增多吗？答：袭击转向内生型实际上是我们担忧的第2个问题，应该说这种可能性很大。由于几乎不再有人赶赴叙利亚和伊拉克，那些接受IS思想以及准备效忠的人很希望使用简陋的装置发动袭击，或者像在马赛那样用刀棍等冷兵器造成极大的精神创伤，或者像在尼斯那样驾车冲撞行人以造成最大伤亡。IS有关唆使个人在其生活的地方发动袭击的宣传特别活跃。这种情况在整个欧洲都能看到。与2015年相比，我们面对的是这种类型的袭击更为专业化。在过去一年里，我们挫败了一些发动炸弹袭击的阴谋。今年5月的曼彻斯特恐袭案和巴塞罗那恐袭案使用的都是这种方法，恐怖分子想要制造数百公斤炸药并付诸实施。在被捣毁的马赛或维勒瑞夫制造窝点，我们也发现了从IS网址上下载的辅导手册。今后，炸弹可能会更加先进，例如我们在巴黎沙内街一栋房屋角落里发现的能和手机连通在一起的手工制作炸弹。在这方面，汽车炸弹袭击和自杀式炸弹袭击的可能性都不能排除，尽管我们到目前为止还没探查到类似计划。我们对辅导手册的扩散感到担忧，它们可以让“新手们”更快地接受制造和使用爆炸物的培训。这种行动方式可以扩展到任何地方，我们对此十分关注。问：随着IS在战区不断遭受挫败，是否要担心那些“归来者”呢？答：到目前为止，有244人已经回到了法国，其中包括58名儿童和未成年人。大部分成年人都已被司法部门掌控，他们都被国内安全局盯着呢。青少年则有一个教育援助机构来负责。现在，首要的问题还不是人员的大规模回归。水龙头已经没水了：从1月份至今，只有9起回国个案，其中有6起是妇女带着一个或多个孩子。我们今后要面对的是那些比较坚定地待在IS地盘的圣战分子，他们有可能分散到马来西亚、印度尼西亚或阿富汗等地。但是，也正因如此应该长期地与各情报部门加强交流以避免出现死角。这是局内反恐部门的主要关注点，它要将所有一线的情报人员汇总到国内安全局交流情况，包括国外安全局、军事情报局、国防部安全与情报局以及海关情报与调查局等；也要联络国土情报部门或监狱情报部门等二线单位。各部门都有自己的数据渠道，信息要进行实时交流。我们也要与外国的情报部门通力协作。国内情报局与160个国家和地区有联系，可以“勾画出”各国“归国者”的路线。我们紧盯可能会来到法国的法国人或外国人。问：妇女和儿童，通常被比作“人体炸弹”，他们是一种威胁吗？答：有些法国女性接受了IS的意识形态，其中还有人参加了战斗或者战区的自杀式袭击行动。IS在比较新的宣传中鼓动女性参加行动。在我国，我们挫败了一些由女性策划甚至准备亲自实施的恐袭阴谋，例如2016年9月巴黎圣母院周边的行动。对于未成年人，我们知道一些青少年参加了战斗，而岁数比较小的人出现了令人担忧的精神创伤，必须要进行治疗以避免以后出事。在这方面，进行了一些跨部门的安排。问：2015年11月13日的恐袭案表明恐怖分子根本没把欧盟的边界放在眼里。自那以后情况有变化吗？答：变化的是在政府间机制内各国情报部门的合作大大加强了，无论是双边合作还是多边协作。在“反恐小组”（汇集了欧盟成员国和瑞士、挪威等国的情报部门）内部，我们在常态化交流情报。这个小组2016年以后在海牙拥有了一个行动平台，并且建立了所有可疑人员的数据档案。这是非官方的，运转良好。与欧盟之外的其他大国的合作也是一样。半个月前，我们与一个北非国家就共同的目标交流了信息，这让我们可以盯住那些在该国有恐袭计划的人，而其中有一个人正试图来法国发动袭击。问：今年7月，国内安全局在同时跟踪2000名与叙利亚战争有关的嫌疑人。此后这些“目标”的数量和性质有什么变化吗？答：其中有些是“有意愿但还没行动的人”，他们曾希望或还想着要离开，还有些人则正在叙利亚或伊拉克。我们跟踪的4000个目标被列入了恐怖主义性质的极端化预防名单，当然也包括上述说到的这些人。既有想要发动袭击的13岁儿童，也有被法国叛了刑的年近5旬“老兵”。问：自今年1月份以来已经挫败了13起恐袭阴谋，其中有时候好像就是凭运气。能确保法国不成为恐袭案受害者吗？答：零风险根本不存在。永远都不能排除恐袭案发生的潜在可能性，例如一个独立个人可能会对IS的宣传做出响应并通过简陋的装置实施行动。我们是在尽一切努力减小威胁。问：国内安全局的行动成果有哪些？答：自从2013年叙利亚和伊拉克发生一系列战事以来，我们挫败了46起恐袭图谋，有17起恐袭阴谋宣告失败，发生了10起恐袭案。国内安全局前后因581起案件拘留过798人。有357人被判入狱服刑。（编译/芦龙军）本文来源：参考消息网责任编辑：姚文广_NN1682",
    "PublishTime": "12/26/201710:05:34",
    "URL": "http://war.163.com/17/1226/10/D6ITF4I6000181KT.html",
    "Title": "法国反恐：监控4000名危险人物 包括13岁儿童_网易军事",
    "KeyWords": "法国,反恐,恐袭,叙利亚",
    "Source": "Netease"
}