{
    "Source": "Netease",
    "KeyWords": "小泡芙,",
    "Title": "小泡芙梳哪吒头甜美满分 宛如小公主_网易娱乐",
    "PublishTime": "12/25/201710:53:06",
    "URL": "http://ent.163.com/photoview/00AJ0003/646648.html",
    "Article": "小泡芙梳哪吒头甜美满分宛如小公主12月24日，王婉霏晒出和女儿小泡芙的合照。母女两人都梳着“哪吒”式的双丸子发型，十分可爱。小泡芙身穿白裙子靠坐在儿童推车里，甜美宛如小公主。",
    "Comment": {
        "Content": "可爱 教养很好 可爱的单眼皮泡芙 妈妈化了妆好漂亮，爸爸里看起来很普通。 好可爱 一看就喜欢，一看她笑，心都被融化了！ 好可爱 可爱 妈妈化了妆好漂亮，爸爸里看起来很普通。 美美哒 小编不敬业拿图都不处理水印 可爱 好喜欢泡芙，萌萌哒！很善良、很可爱，说话又流利[羞羞] 露毛的大婶，是你吗？ 张根硕？ 小裙子什么牌子的啊，美的来 教养很好 可爱的单眼皮泡芙 ",
        "Reply": 13,
        "Link": "http://comment.ent.163.com/ent2_bbs/PHOTJNFO000300AJ.html",
        "Total": 101
    }
}