{
    "Article": "（原标题：非洲父子强奸10名小学生被赦免后歌颂总统）海外网1月3日电据BBC网站报道，坦桑尼亚总统马古富力最近会见了三周前被他赦免的两名强奸犯，这两人是乐师，因2003年强奸10名小学女生被判终身监禁。这两人是父子关系。据坦桑尼亚《公民报》报道，他们感谢马古富力总统的赦免，并在前往总统府的路上歌颂马古富力。马古富力获悉后说，“你们不应该感谢我，应感谢上帝，只有他拥有赦免的权力”。儿童维权人士谴责释放这对强奸犯父子。他们入狱13年后被赦免，被强奸的女学生在6岁到8岁之间。马古富力在独立日演讲时赦免了61名强奸犯，其中包括这对父子。本文来源：海外网责任编辑：荀建国_NN7379",
    "URL": "http://news.163.com/18/0103/16/D787ANPB0001875O.html",
    "KeyWords": "强奸,歌颂,总统,非洲",
    "PublishTime": "01/03/201816:41:59",
    "Title": "非洲父子强奸10名小学女生 被赦免后歌颂总统_网易新闻",
    "Comment": {
        "Content": "感谢上帝，哈哈哈哈，这个锅甩的响亮 恳请美国爸爸快来收拾收拾 难道说没有先阉割在赦免吗？！ 坦赞铁路，美国和坦的关系是最近几年才改善的，和中国则是几十年的了 好歹坐牢13年，某喜欢减刑国用不上特赦也坐不上13年牢 我们辽阔的祖国，是我生长的地方～ 上帝说过不要以我的名义行不义之事。 看看我们的好朋友 哎呀是老朋友呀 王八蛋国家 中国人民的老朋友 出来接着奸再接着蹲监狱 二楼这种傻屌活着就是浪费空气 看看我们的老朋友都是什么东西就知道自己是什么东西了 垃圾 这种人可以特赦，说明这个国家真的垃圾 再给非洲一万年也不可能发展起来。 哈哈，流氓的朋友，还是流氓。 真的垃圾这个国家 非洲老朋友 这个华为绝对是自己买的 别乱说，是我们的老朋友，援建了铁路呢。 sb 又是学大哥 非洲人民的独立就是猪被散放了，野兽成了国家的主宰。 傻逼也能当总统 和李天一一起犯案的那几位是谁都不知道 这种国家都有朋友的话，也必是垃圾无疑。 以前只是看见有报导说黑人在广州，但是具体数量不是很清楚，不单是在广州而且现在已向全国其他地方乱窜的趋势，最近在油管(大陆人网上都把西方一个放视频的网站称为油管，因为油管在中国被禁的，所以中国人看不到)。这里有世界各地的人把各种视频放上去，我无意中看到有黑人在中国的报道。下面有上千条的评论，里面很多欧洲白人美国白人的留言，大部分都是警告中国人不要放任黑人流进中国。因为百多年前，欧洲美国引进黑奴，这些黑人后代都留下了，一直就是社会毒瘤，黑人几乎就是贩毒，罪犯代名词。当黑人到了一定数量的时候，他们一定会起到破坏作用，对社会，对各人都是很危险的。在美国，黑人大部分都聚集在黑人贫民窟，敢在黑人区走动的只有黑人。如果是白人区，陆续搬进黑人，这里的白人就会陆续搬走，不是歧视，而是大部分黑人智商低且有暴力倾向(犯罪的人通常智商都低)。欧洲人和美国人因为当年引进黑奴留下黑人泛滥在他们国家这样的问题，他们已经没有办法赶走这些黑人了。而我们中国有着千百年来自己的悠久传统文化，我们没有必要引进黑人，我们中国人为什么总是对自己人那么厉害。在西方，大家都知道黑人男人是除了不喜欢他们黑人女人，其它人种(只要皮肤比他们浅)的女人都喜欢，所以西方人都知道黑人不管是男人和女人，最想mix(就是混)的人种就是浅肤色人种。有些黑人男人到中国来的目的就是娶个中国老婆，他们常常在网上问关于到中国去学习和找女人的事情，中国人因为不懂英文，所以不知道这些。我觉得我们是时候团结一致坚决抵制黑鬼了。另外一个就是黑人的繁殖力非常强。如果他们跟中国人通婚，然后定居下来，也许因为外籍身份，可以多生，那么以后的黑人后代就越来越多，要知道黑人的DNA非常强，几乎黑人跟浅色人种婚后的孩子几乎就是个黑人，黑人要混血几代才能慢慢去掉一些黑人的特点，如果不尽快加以解决的话试想未来是有多可怕！ 老王八蛋的小弟啊 黑人是人么？ 那可是老美的盟友多看看书对你没坏处 中国人民的老朋友嘛 都是我们的老朋友，缺钱就吱声那种 英国造航母的龙门吊是中国产的。中国在重工业领域还是颇有建树的。 这是上帝被黑的最惨的一次 艾滋和埃博拉某种意义上是闭环生态系统自我平衡的产物<br>仁慈的外来干预事实上起到了强化生态失衡的作用，导致现在非洲年增3千万人口，环境也在急剧恶化，到2030年，伴随越来越多的非洲难民扩散到全世界，全球大气污染中的工业污染物和颗粒物将有55%来自非洲地区 老朋友果然喜欢嫖宿 中国的老朋友[窃笑] 买不起房子说明你低能啊 嫖宿幼女罪来罚酒三杯 弄的好象它的朋友拆拿能发展似的，除去房价你还能剩啥?清问，哪个生产设备不是进口的?请举例! 不是吧。 大龙门吊是用来造大船的好不好？无知无觉就別乱喷！ 2楼肯定是弱智，鉴定完毕 全世界最穷人渣国家 我们辽阔的祖国，是我生长的地方～ 上帝说过不要以我的名义行不义之事。 啥子国家哦？ 😄😄 在蹲不蹲不好说，接着奸可能性很大，而且这回还是扛着皇旗奸，奸完了还得告诉你这是你荣幸我可是有总统做靠山的人，这回牛逼大发了。 非洲，哈哈，老朋友了 那些嫁黑鬼的中国女人，圆满的演示了人类后代从人还原到猿的整个过程，与其子女半人半兽饱受歧视排挤，还不如就让这些垃圾女人和后代永远留在非洲再继续交配几代，彻底还原成纯黑吧! 和李天一一起犯案的那几位是谁都不知道 再给非洲一万年也不可能发展起来。 摊商你丫也是中国人民的老朋友 恳请美国爸爸快来收拾收拾 这种人可以特赦，说明这个国家真的垃圾 法语区的穷棒子 老朋友！ 听上去和嫖宿幼女有点相似 哇楼上这货是不是典型的不吃饭只吃屎然后说饭恶心 当需要自己做设备的时候就会自己做出来了，关键是现在不需要自己做出来也能很好。 以前只是看见有报导说黑人在广州，但是具体数量不是很清楚，不单是在广州而且现在已向全国其他地方乱窜的趋势，最近在油管(大陆人网上都把西方一个放视频的网站称为油管，因为油管在中国被禁的，所以中国人看不到)。这里有世界各地的人把各种视频放上去，我无意中看到有黑人在中国的报道。下面有上千条的评论，里面很多欧洲白人美国白人的留言，大部分都是警告中国人不要放任黑人流进中国。因为百多年前，欧洲美国引进黑奴，这些黑人后代都留下了，一直就是社会毒瘤，黑人几乎就是贩毒，罪犯代名词。当黑人到了一定数量的时候，他们一定会起到破坏作用，对社会，对各人都是很危险的。在美国，黑人大部分都聚集在黑人贫民窟，敢在黑人区走动的只有黑人。如果是白人区，陆续搬进黑人，这里的白人就会陆续搬走，不是歧视，而是大部分黑人智商低且有暴力倾向(犯罪的人通常智商都低)。欧洲人和美国人因为当年引进黑奴留下黑人泛滥在他们国家这样的问题，他们已经没有办法赶走这些黑人了。而我们中国有着千百年来自己的悠久传统文化，我们没有必要引进黑人，我们中国人为什么总是对自己人那么厉害。在西方，大家都知道黑人男人是除了不喜欢他们黑人女人，其它人种(只要皮肤比他们浅)的女人都喜欢，所以西方人都知道黑人不管是男人和女人，最想mix(就是混)的人种就是浅肤色人种。有些黑人男人到中国来的目的就是娶个中国老婆，他们常常在网上问关于到中国去学习和找女人的事情，中国人因为不懂英文，所以不知道这些。我觉得我们是时候团结一致坚决抵制黑鬼了。另外一个就是黑人的繁殖力非常强。如果他们跟中国人通婚，然后定居下来，也许因为外籍身份，可以多生，那么以后的黑人后代就越来越多，要知道黑人的DNA非常强，几乎黑人跟浅色人种婚后的孩子几乎就是个黑人，黑人要混血几代才能慢慢去掉一些黑人的特点，如果不尽快加以解决的话试想未来是有多可怕！ 你的呢？😂 这还能赦免？没有是非曲直的国度！ 牛逼牛逼我服了 没有杀无赦 广东黑人大部分是偷渡过来的，他们不说自己的国籍，在广东吃喝嫖赌抽，从事非法职业的很多，污染了广东的环境，带来了很多社会问题。 看看我们的老朋友都是什么东西就知道自己是什么东西了 这个事情是最近几年的吧 在黑人的国家你永远不知道下一刻会发生什么 垃圾 和李天一一起犯案的那几位是谁都不知道 除了基建，还有啥，说来听听 这里全是寄生虫！从古至今，这里土著没有什么创造，甚至大脑根本没有进化！！！ 上帝想背这个锅吗？肯定不想吧，请上帝赶快把他俩带走吧 中国人民的老朋友 上帝说了不可奸淫、光这条就足以弄死那两个傻逼 不删帖不封号?你表骗我!百姓的话能在新闻联播发表?你表骗我 不删帖不封号? 这个华为绝对是自己买的 别乱说，是我们的老朋友，援建了铁路呢。 至少不是生活在你这底层蝼蚁的世界里 我只是说经济问题，你月收入在100美元以下么？垃圾东西？ 这尼玛什么鬼，黑叔叔信上帝都能信成这个样子 王八蛋国家 嫖宿幼女罪来罚酒三杯 这种国家都有朋友的话，也必是垃圾无疑。 都是我们的老朋友，缺钱就吱声那种 钱别白花了指着他们说话呢 坦赞铁路，美国和坦的关系是最近几年才改善的，和中国则是几十年的了 出来接着奸再接着蹲监狱 中国的老朋友[窃笑] 我是网易发的[羞羞] 弄的好象它的朋友拆拿能发展似的，除去房价你还能剩啥?清问，哪个生产设备不是进口的?请举例! 不是吧。 三鹿奶粉不是进口的<br>地沟油不是。。。 所以说非洲穷不是没有原因的。 例如你妈，难道生产你还要从非洲进口你黑人爹？ 这不是我们的老朋友吗？我们交往的都是些什么东西？ 这样的总统不知天高。 王八蛋国家 二楼这种傻屌活着就是浪费空气 种族灭绝不是没有道理的，伟大的元首万岁 再给非洲一万年也不可能发展起来。 真的垃圾这个国家 买不起房子说明你低能啊 感谢上帝，哈哈哈哈，这个锅甩的响亮 以前爆米花的机器应该是自主品牌[大笑][大笑][大笑][大笑] 傻逼也能当总统 黑人是人么？ 中国人民的老朋友嘛 非洲兄弟欢迎来广东 老朋友[挨揍] 二楼，为什么要否定自己国家的进步？不盲目自大，但你的话走向否定的极端，更是没有道理。国家好，每个人才能好，如果国家真的什么都没有，或者像那些战乱国家，普通老百姓才是最受苦的。 老朋友果然喜欢嫖宿 你是有多自卑啊!难道尼妈和黑子杂交生下你这个小杂种 自己不管好，逼逼别人，嫖宿幼女罪，戴套不算强奸，这都发生在哪？ 如果没有黑人？ 果然比较黑 一楼说拆哪很好了么？一楼说的有错么？非洲本来就垃圾 艾滋和埃博拉某种意义上是闭环生态系统自我平衡的产物<br>仁慈的外来干预事实上起到了强化生态失衡的作用，导致现在非洲年增3千万人口，环境也在急剧恶化，到2030年，伴随越来越多的非洲难民扩散到全世界，全球大气污染中的工业污染物和颗粒物将有55%来自非洲地区 这不就是广州火星狗他老爹，非洲黑猩猩吗？ 看看我们的好朋友 物以类聚，人以群分 你傻子似的，布鲁克林去了，比武昌安全多了，少看点环球时报新闻联播 拉去做蜈蚣 多的是沙比 这种人可以特赦，说明这个国家真的垃圾 哈哈，流氓的朋友，还是流氓。 感觉夜神月开始的做法很值得称赞 二楼这酸的！移民美国去吧，纽约市布鲁克林欢迎你 不好意思，先摆渡一下。 又是学大哥 非洲人民的独立就是猪被散放了，野兽成了国家的主宰。 坦桑尼亚是我朝的好兄弟！！！！！！！！是不是也叫嫖宿幼女啊！！！！！！ 黑鬼 上帝应该劈死他 这可是民主国家，老美的盟友，你别乱说啊！ 坦赞铁路，美国和坦的关系是最近几年才改善的，和中国则是几十年的了 非洲就是还没进化完全的类人猿 老王八蛋的小弟啊 弄的好象它的朋友拆拿能发展似的，除去房价你还能剩啥?清问，哪个生产设备不是进口的?请举例! 老朋友？！？！？[疑问]草泥马了 丢人，家里外头现眼。 我们的朋友！你不要乱说 出来再搞会更隐蔽 难道说没有先阉割在赦免吗？！ 这种人可以特赦，说明这个国家真的垃圾 好歹坐牢13年，某喜欢减刑国用不上特赦也坐不上13年牢 非铁， 我觉得把所有的核武器都废除到非洲大地吧 我们的兄弟国家[窃笑][窃笑] 我弟弟信上帝.他认为他的存在就是在帮助上帝拯救人类.每次打完电话他都会说愿上帝保佑你,各种为我祈祷.他很乐意与我谈论信上帝的好处.并全身心投入工作和关爱家人,只因他觉得主耶稣是他学习的榜样--我不认为他们的信仰会造成交流障碍.即使我认真问他:上帝是否存在?而他总会回答:若爱存在,上帝就存在.因为上帝就是创造爱的源头上帝永远住在爱里，上帝爱世界上所有人包括想悔改的罪人想要信耶稣的可以到本地教堂买一本圣经看看每个地方都有教堂的信耶稣此生平安来世得永生有所信仰就会有所敬畏，有所敬畏就会知何事可为与何事不可为，知道了什么事可为什么事不可为，就不会干出背理天意人伦的逆天大错，遵从了天意人伦的法则就会一生安宁幸福这就是大道之法则，也就是爱的法则，神之道！ 这是要放天一[疑问] 我们的月亮就是一个鸡蛋，我们的地球系就是一个鸡蛋!我们的太阳系就是一个鸡蛋，我们的天郎双星系就是一个鸡蛋，我们的银河系就是一个鸡蛋!坯胎为中心，蛋黄，蛋清，蛋壳层层立体包围着坯胎!固体地球为中心，大气层，平流层，电离层等等以及最外层真空遂道层层立体包围着固体地球!而月亮飘流在地球最外层空间真空遂道里，就像船儿飘流在大气层和海平面之间的空间是一样的!以此类推至太阳系天郎双星系银河系及任何物质!月亮在地球最外层空间真空遂道里绕着地球自转公转着，地月绕着太阳在太阳系第三层真空遂道里自转公转着，太阳系绕着天郎双星在天郎双星系最外层真空遂道里自转公转着!任何物质皆如此运动，天地人合一，阿门 我们的月亮就是一个鸡蛋，我们的地球系就是一个鸡蛋!我们的太阳系就是一个鸡蛋，我们的天郎双星系就是一个鸡蛋，我们的银河系就是一个鸡蛋!坯胎为中心，蛋黄，蛋清，蛋壳层层立体包围着坯胎!固体地球为中心，大气层，平流层，电离层等等以及最外层真空遂道层层立体包围着固体地球!而月亮飘流在地球最外层空间真空遂道里，就像船儿飘流在大气层和海平面之间的空间是一样的!以此类推至太阳系天郎双星系银河系及任何物质!月亮在地球最外层空间真空遂道里绕着地球自转公转着，地月绕着太阳在太阳系第三层真空遂道里自转公转着，太阳系绕着天郎双星在天郎双星系最外层真空遂道里自转公转着!任何物质皆如此运动，天地人合一，阿门 垃圾 非洲国家的人民风非常纯朴人很善良是中国人民的老朋友 广州欢迎你 非洲老朋友？ 这个国家看来挺垃圾的 垃圾，赦免杀人也不该赦免这俩畜生 黑鬼的国度... 黑鬼真尼玛恶心 感谢上帝，哈哈哈哈，这个锅甩的响亮 非洲老朋友 和一个人比起来他弱爆了是谁我不说 蹲大牢十三年才给赦免了？我们这前些日子有个老叫兽才判了六年！ sb 这是上帝被黑的最惨的一次 出来接着奸再接着蹲监狱 黑鬼应该灭绝 物以群分 多好的核心 也就这样了 ",
        "Link": "http://comment.news.163.com/news_guoji2_bbs/D787ANPB0001875O.html",
        "Total": 3154,
        "Reply": 132
    },
    "Source": "Netease"
}