{
    "Source": "Netease",
    "PublishTime": "12/26/201706:02:29",
    "KeyWords": "朝鲜,俄罗斯,演习,联合军演",
    "Title": "俄外长:美曾有意暂停军演并与朝对话 但中途食言_网易新闻",
    "Comment": {
        "Link": "http://comment.news.163.com/news_guoji2_bbs/D6IFI1SD0001875O.html",
        "Total": 3,
        "Content": "",
        "Reply": 0
    },
    "Article": "（原标题：俄外长：美曾有意在明年春天前不军演并与朝对话，但中途食言）俄罗斯外长拉夫罗夫视觉中国资料图俄罗斯外长拉夫罗夫25日表示，美国曾有意在明年春天之前与朝鲜进行对话。当天在接受俄罗斯媒体采访时，他再次敦促美国和朝鲜对话，称俄罗斯已准备好为此提供便利。俄罗斯卫星通讯社25日报道，拉夫罗夫当天称，俄罗斯从美国获得华盛顿有意进行朝鲜问题对话的信号，“今年9月，我们收到了美国方面的信号，表示他们有意开始对话，在2018年春天之前都不会进行预定中的军事演习。在明年春天计划中的演习时间到来前，可以利用这一空当来建立起某种对话。”他补充称：“我们转达了这一信号，它未被拒绝，但当一切准备工作在进行之中的时候，美国人宣布他们准备举行计划外的演习。（美国）10月份举行了计划外的演习，规模还很大。”据新华社此前报道，美国与韩国两军10月16日至20日在朝鲜半岛附近海域启动联合军事演习，旨在强化美韩同盟防御及应对朝方活动的能力。美军“罗纳德·里根”号航母战斗群、“密歇根”号核潜艇以及美军特种部队等将参加。18日，朝鲜谴责此次演习，称此举“将当前紧张局面推向最严重的爆发边缘”。目前，韩国再次向美提议推迟明年的联合军演，营造对话氛围。据央视新闻客户端报道，韩联社称，韩国总统文在寅19日表示，如果朝鲜一直到明年2月平昌冬奥会开幕前“不挑衅”，韩美两国有可能推迟联合军演。韩方已按照这个思路向美方提出相关提议，美方也在考虑当中。针对当前的半岛局势，中方提出了朝鲜暂停核导活动、美韩暂停大规模联合军演的“双暂停”倡议与并行推进半岛无核化和建立半岛和平机制的“双轨并行”思路，为半岛核问题走出“怪圈”、打开“死结”提供了切实可行的解决方案。中方多次呼吁有关国家保持克制，为缓和半岛紧张局势，妥善解决半岛问题作出积极和建设性努力。12月23日，安理会针对朝鲜11月发射洲际弹道导弹一致通过了第2397号决议，朝鲜外务省称这是“战争行为”，并称此次制裁决议造成的一切后果完全由赞成决议通过的国家承担。对此，中国外交部25日再次强调，决议适度强化对朝制裁措施，同时强调不应对朝平民产生不利人道影响，不影响正常经济活动与合作、粮食援助和人道援助，不影响驻朝外交使团活动，并重申维护朝鲜半岛和东北亚和平与稳定，呼吁以和平、外交和政治方式解决问题，支持恢复六方会谈，还强调有关各方应当采取措施降低半岛紧张局势。中方希望有关各方都能全面、平衡执行包括第2397号决议在内的安理会涉朝决议。本文来源：澎湃新闻作者：南博一责任编辑：李天奕_NN7528",
    "URL": "http://news.163.com/17/1226/06/D6IFI1SD0001875O.html"
}