{
    "PublishTime": "12/27/201711:11:37",
    "Source": "Netease",
    "Comment": {
        "Link": "http://comment.news.163.com/news2_bbs/D6LJKP9A0001899N.html",
        "Total": 24,
        "Reply": 20,
        "Content": "这是时代的趋势 必然会统一的 本来就是一家人呀 必然会统一的 这是时代的趋势 本来就是一家人呀 反对任何阻止两岸和平统一的人 反对任何阻止两岸和平统一的人 本来就是一家人呀 必然会统一的 这是时代的趋势 本来就是一家人呀 必然会统一的 本来就是一家人呀 反对任何阻止两岸和平统一的人 这是时代的趋势 这是时代的趋势 必然会统一的 反对任何阻止两岸和平统一的人 反对任何阻止两岸和平统一的人 "
    },
    "Article": "（原标题：台湾学生怕被查不敢与大陆学生交流?国台办回应）海外网12月27日电12月27日上午，国务院台湾事务办公室举行例行新闻发布会。国台办发言人安峰山就两岸政党交流、两岸军事互信和两岸文化往来等热点问题回答记者提问。有记者问，24日在台湾举行的两岸青年官员论坛上，因为受新党王炳忠事件影响，台湾学生不敢和大陆学生交流，他们担心和大陆学生交流会因为所谓的“国安法”受到迫害。这个事件已经在台湾岛内引发了寒蝉效应。发言人对此有何看法？安峰山表示，我想再次强调，任何打压和迫害主张两岸和平统一的力量和人士的做法，都必将遭到两岸民众的强烈愤慨和共同反对，更无法阻止两岸民众交流交往的趋势。本文来源：海外网责任编辑：王征_NN7526",
    "Title": "台湾学生怕被查不敢与大陆学生交流?国台办回应_网易新闻",
    "URL": "http://news.163.com/17/1227/11/D6LJKP9A0001899N.html",
    "KeyWords": "国台办,台湾,新党"
}