{
    "Source": "Netease",
    "PublishTime": "12/26/201706:10:33",
    "KeyWords": "伊能静,",
    "Title": "伊能静全家外出聚餐 儿子帅气女儿可爱_网易娱乐",
    "Comment": {
        "Link": "http://comment.ent.163.com/ent2_bbs/PHOTJNHK000300AJ.html",
        "Total": 1154,
        "Content": "图三把我吓醒了[鄙视] 女儿好丑 那又关你屁事？ 大儿子长的不错，眼睛大大的，很萌。 图111213这种剪刀腿，表示骚劲十足 幸福的一家嘛 这女人非常骚鉴定完毕 这能改变出轨黄维德的事实么？ 48岁了身型保持这么好za看像少女一样也很会穿搭衣服简直楷模女人都要这样活永远有少女心 这个年纪有这姿色已经不错了，还是美的！ 女儿像奶奶，这隔代遗传太严重了吧？ 哈哈哈哈哈 以前嫁庾澄庆的时候偷偷摸摸，庾澄庆的母亲看不起她，庾澄庆也没有给她一个婚礼，嫁进门后被他母亲嫌弃。<br>现在嫁秦昊，秦昊父母鼓励他娶她，秦昊给了她一个盛大的婚礼，嫁进门后秦昊的父母把她当作亲闺女那样爱。<br>伊能静是一个温暖、向阳的女子，秦昊性情冷色调，伊能静给他创造了一个温馨的家，给他生了一个可爱的孩子，他能娶到伊能静是他的福气！ 所以说，嫁对了人很重要，对的人要有够宽容和慈爱的父母，恋爱十几年都熬过来了，输在了婚姻，其实还是输在了家庭背景。祝福她，挺好的，苦尽甘来吧 没有原因，没有理由，真心不喜欢她 有思想有见识的明星。 一看评论，我知道，照片P了33天，水军请了33万！ 如果一个女人能让老公多年不碰你几次，你该看看自己是不是裤袋太松了，性格太绿茶了，婊子出轨都能洗，楼上婊子一名 为啥上一条的新闻是马荣，这一条是他 实话实说不好看 丑逼说成帅，颠倒黑白 保养的挺好的四十多了还是很漂亮的 这大妈不是嗮娃就是装少女，能不能除了这些有没有其他新闻！？别老是把自己的孩子当炒作工具！ 幸福就好 宝宝很可爱*^o^* 感觉她也挺能折腾的，这么大年龄了，一般的都快当奶奶了，这么再重新搞一次，不但要有一颗年轻的心还要有那个精力，没有嘲讽她的意思 确实不错的女人 疯狂输出一波？ 一个女人可以hold住这么多家人必须是个有能力的女人 奶奶笑眯眯，感觉挺慈祥的。 儿子帅气？没有下巴。女儿可爱？丑不丑自己看吧。[微笑] 你不说，我还没留意她儿子的脸型太怪了 食量可能比较地大 关你屁事 她儿子的眼镜真好看哪里买的？ 听说她很骚？ 说的太好了 都是婚内出轨的货 爸爸妈妈都有了新家庭都有了新宝贝虽然肯定还爱他可是总有孤零零的感觉 女儿是真心丑啊 一个男人若是能天天啪啪啪让老婆腰酸腿疼，我相信没有一个女人会出轨的。带了绿帽要找自身原因。 那又关你屁事？ 儿子很丑，没有下巴！ 这女人非常骚鉴定完毕 这能改变出轨黄维德的事实么？ 48岁了身型保持这么好za看像少女一样也很会穿搭衣服简直楷模女人都要这样活永远有少女心 结果秦出轨了可以把猎场里面罗伊人的音乐送给她。最起码伊还是挺好的祝福吧 很丑 ……… 有思想有见识的明星。 如果一个女人能让老公多年不碰你几次，你该看看自己是不是裤袋太松了，性格太绿茶了，婊子出轨都能洗，楼上婊子一名 流星月亮地球太阳系有发动机么？没有!他们却高速在宇宙中运行!为什么？因为他们的运行轨道本身就是太空高速时空隧道!他们的运行路线一半为去路一半为来路，周而复始地运行着!地球自转公转着，本就没有东西南北上下左右等方位!谁定的？我们的天父啊!目的只有一个，告诉人类我们天父的星座方位!所以九曲桥的方向始终对着东北方!在宇宙一切物质中，永远是子体围绕母体运动，这是恒定的!所以地球自转并围绕太阳公转!因地球是自转公转的，所以根据地球的东西南北是找不到星外文明的星座方位的!只有找到太阳的上下前后东西南北才能准确地给天父星座方位定位!我们天父星座方位在太阳系东北上方第九颗恒星那里!那里以双伴恒星为中心带动周围108颗恒星运动着! 丑逼说成帅，颠倒黑白 她儿子头的大小和脖子差不多下巴是没有的显得很奇怪 他儿子的下巴呢 [微笑][疑问][大笑] 美美美 [疲惫][狗][鄙视] 儿子帅气？没有下巴。女儿可爱？丑不丑自己看吧。[微笑] 确实不错的女人 挺好的 她儿子的眼镜真好看哪里买的？ 说的太好了 [疲惫][狗][鄙视] 为啥她老是上榜有啥可看的？ LV包包，特马我买不起 有少女心没问题，真你到了48岁就知道了，48岁脸上的皮肤就像发起的面一样，不在紧致，皮肤松弛，身材保持好，年轻人的衣服你可以穿的进去，但和脸真的不搭了 你妈你老婆都不让你操，是吧？一个月也赚不了几个B钱，；你妈能让你白操吗？ 这个年纪有这姿色已经不错了，还是美的！ [可怜][被黑][鄙视] 可爱 唉哪里帅了 一看评论，我知道，照片P了33天，水军请了33万！ 屡次屏蔽都能看见她真烦 儿子确实下巴有畸形 真心丑。 一个女人可以hold住这么多家人必须是个有能力的女人 保养的挺好的四十多了还是很漂亮的 以前嫁庾澄庆的时候偷偷摸摸，庾澄庆的母亲看不起她，庾澄庆也没有给她一个婚礼，嫁进门后被他母亲嫌弃。<br>现在嫁秦昊，秦昊父母鼓励他娶她，秦昊给了她一个盛大的婚礼，嫁进门后秦昊的父母把她当作亲闺女那样爱。<br>伊能静是一个温暖、向阳的女子，秦昊性情冷色调，伊能静给他创造了一个温馨的家，给他生了一个可爱的孩子，他能娶到伊能静是他的福气！ 感觉她也挺能折腾的，这么大年龄了，一般的都快当奶奶了，这么再重新搞一次，不但要有一颗年轻的心还要有那个精力，没有嘲讽她的意思 疯狂输出一波？ 没有原因，没有理由，真心不喜欢她 瘦的好快 食量可能比较地大 关你屁事 [可怜][大笑] 听说她很骚？ 实话实说不好看 啊啊啊可爱 图三把我吓醒了[鄙视] 女儿好丑 那个儿子是哈林的？ 幸福的一家嘛 儿子帅气？没有下巴。女儿可爱？丑不丑自己看吧。[微笑] 图111213这种剪刀腿，表示骚劲十足 一般不怎么好看的就喜欢用可爱形容。 终极老黄瓜 女儿像奶奶，这隔代遗传太严重了吧？ 哈哈哈哈哈 以前嫁庾澄庆的时候偷偷摸摸，庾澄庆的母亲看不起她，庾澄庆也没有给她一个婚礼，嫁进门后被他母亲嫌弃。<br>现在嫁秦昊，秦昊父母鼓励他娶她，秦昊给了她一个盛大的婚礼，嫁进门后秦昊的父母把她当作亲闺女那样爱。<br>伊能静是一个温暖、向阳的女子，秦昊性情冷色调，伊能静给他创造了一个温馨的家，给他生了一个可爱的孩子，他能娶到伊能静是他的福气！ 所以说，嫁对了人很重要，对的人要有够宽容和慈爱的父母，恋爱十几年都熬过来了，输在了婚姻，其实还是输在了家庭背景。祝福她，挺好的，苦尽甘来吧 女儿是真心丑啊 大儿子长的不错，眼睛大大的，很萌。 你是被自己吓醒的吧 女大十一变女大十一变女大十一变女大十一变女大十一变女大十一变女大十一变一十大女变一十大女变一十大女变一十大女变一十大女变一十大女变一十大女变一十大女变一十大女变，看起来有弯弯的吗？ 好不错 儿子可以的，女儿不行，基因真是强大 她老公呢？这女儿……嗯，真好看 我有一个大胆的想法，不知当讲不当讲[微笑] 这小辫子[鄙视] 这大妈不是嗮娃就是装少女，能不能除了这些有没有其他新闻！？别老是把自己的孩子当炒作工具！ 这孩子和包饺子一样，长的都像奶奶 怎么不见老公 幸福就好 宝宝很可爱*^o^* 哈哈哈哈😂 丑逼！！ 她儿子长一般啊 儿子帅气真的不敢恭维，但娘气是真的 小贱货，40多了把自己当公主，跟傻逼李湘不分上下 奶奶笑眯眯，感觉挺慈祥的。 伊能静全家外出聚餐儿子帅气女儿可爱 你不说，我还没留意她儿子的脸型太怪了 😁 绿茶婊鼻祖 她儿子的眼镜真好看哪里买的？ 没有吧 都是婚内出轨的货 爸爸妈妈都有了新家庭都有了新宝贝虽然肯定还爱他可是总有孤零零的感觉 为啥上一条的新闻是马荣，这一条是他 眼睛大大的，很萌 一家人颜值都很高 ",
        "Reply": 89
    },
    "Article": "伊能静全家外出聚餐儿子帅气女儿可爱25日，伊能静带着全家外出聚餐，大儿子帅气出镜，女儿米粒穿着小红袄十分可爱，伊能静穿着短裙、红靴十分靓丽。",
    "URL": "http://ent.163.com/photoview/00AJ0003/646708.html"
}