{
    "URL": "http://tech.163.com/17/1228/17/D6OSH2LE00097U7R.html",
    "Comment": {
        "Reply": 49,
        "Content": "e代干e代插马上推出敬请期待 喝死算谁的？雇主？还是平台？有保险么？最高配付多少？ 我家有两头母猪刚好要配种，太感谢你了，你什么时候来呀 哈哈 这也行？为啥不请土地公公代喝啊，酒量大还不花钱。 “王总，你酒量不错啊，都喝倒8个e代喝了”<br>“哪里哪里，赵总您都喝倒10了” 十个老酒鬼，八个e代喝 花钱买酒给别人喝？ 我要出一个易代啪，免费 按性别、年龄最有用 结果两个真正吃饭的人一滴没喝 另一个约炮的平台出现了 e代干e代插马上推出敬请期待 喝死算谁的？平台？自己？还是顾客？ 喝死算谁的？雇主？还是平台？有保险么？最高配付多少？ 哈哈哈 这也行？为啥不请土地公公代喝啊，酒量大还不花钱。 代艹app马上出炉 十个老酒鬼，八个e代喝 丑陋的中国人 结果两个真正吃饭的人一滴没喝 按性别、年龄最有用 全是小姐，不存在约炮，只是花钱找服务而已。 lbs 以前有个搞笑视频，夫妻在边上玩手机，各自请的2个代啪的床上嗨皮 早说啊我家也有头母猪老在发情期就等你了。 滴滴打人 我家有两头母猪刚好要配种，太感谢你了，你什么时候来呀 不是我看不起你们真要有e代啪你们真的能胜任吗？一天要你干20炮马上气绝身亡 E代啪，帮您传宗接代 哈哈 拿命代喝 我有个朋友,跟这作者差不多,也是爱编故事去年走的,走的时候并不安详,尸体在太平间抽搐了三天,火化的时候烧得滋滋响,嘴里还在嚎叫,烧了几个钟头才烧完,烧完以后上了灵车,出门就翻车了,骨灰洒了一地,还被风吹走了不少,刚想把剩下的扫起来,迎面来了一辆洒水车,唉…… 找来个傻逼怎么办，遇到一群傻逼怎么办？这玩意有人用吗？ 谈生意吃饭喝酒就是个过场而已！ e代陪 哈哈哈哈哈哈哈哈哈 哈哈 这平台能活两年就算成功 “王总，你酒量不错啊，都喝倒8个e代喝了”<br>“哪里哪里，赵总您都喝倒10了” 骗人，根本没有 E代孕，E快感，E男友 有没谁要我帮忙啪啪的？ 宋喆投资的项目？ e代炮 我要出一个易代啪，免费 这就是约炮升级版 代喝的来了是站在我身后呢，还是要给他加一个座位，添加一符碗筷，这样样不变向的我请他吃饭了嘛 喝死了怎么赔？ 蛮恐怖的，喝死不知算谁的 你要通过e代驾的在线考试,公司才会通知你去面试 别说了，我找了一个代喝的，喝了我几瓶白酒不算，还喝得大醉，打伤了客人 好了？ 花钱买酒给别人喝？ 小日本，关你什么事 52°白酒一斤还能开车，有人找我吗[不屑] e睡即将推出 意义何在？朋友之间喝酒谁让你代喝啊，还不如不来呢。应酬的话，也用不着这个吧，万一来个二愣子不会说话得罪客户还不如不请呢，话说请人吃饭喝酒还找不到两个酒量大的陪客的话那你还应酬啥啊，先交两朋友去吧。 另一个约炮的平台出现了 他媳妇就是那两头母猪 ",
        "Total": 701,
        "Link": "http://comment.tech.163.com/tech_bbs/D6OSH2LE00097U7R.html"
    },
    "Title": "你没有看错！e代喝真的来了_网易科技",
    "Source": "Netease",
    "KeyWords": "e代驾,代喝,app",
    "PublishTime": "12/28/201717:44:36",
    "Article": "网易科技讯e代驾上线代喝业务“e代喝”，e代喝通过互联网LBS定位，开放用户互交功能，实现代喝功能。据悉，打开e代驾APP客户端，就能看到e代喝的入口。而在进入之后，首先要进行的是定位。随后就可以点击“找人代喝”，而找人代喝还能根据不同的类别进行针对性寻找。如“按酒量”、“按标签”、“按距离“等。当然，如果你对自己的酒量有自信，也可以点击“我也能喝”进行注册，成为e代喝中的成员。据悉，“e代喝”上线前期覆盖北京，上海，广州等全国一线二线36个城市服务。从最基本的功能看，e代喝是满足了人们找人代喝酒的刚性需求。基于中国酒桌文化的根深蒂固，在酒桌上很容易就让人们打成一片，e代喝无疑适用于多个场景中。而在使用代喝功能后，就有极大可能与其他人建立深度联系，扩展自身的社交圈。此外，深入观察即可发现，其实通过e代喝这个全新产品e代驾试图构建自身的闭环社交、发力社交领域这一“金矿”。与此前的社交工具不同，e代喝是基于喝酒这一频繁互动活动充分给予了用户交友的自由性。如果人们想要找志趣相投或者想了解不同的人，可以按照标签进行针对性的选择。如性别、年龄、爱好、星座等标签等，能够让用户迅速且精准地触达至其他人。标签赋予的高自由度，让社交行为更加便利。可以预见的是，届时必然会有很多“美女代酒师”出现。e代喝事实上是以LBS定位为基础，以多种交友策略为形式打造的一个社交入口。对于e代驾来说，能够通过e代喝在串联起海量用户社交诉求的同时，顺利杀向社交领域。随着e代喝功能的全面落地和普及，e代驾的闭环社交或许也将就此形成。本文来源：网易科技报道责任编辑：姚立伟_NT6056"
}