{
    "Article": "（原标题：QQ日迹圈子存大量色情视频，腾讯回应虎嗅：已暂时关闭圈子）12月29日下午，有人向虎嗅透露，QQ的日迹圈子里存在大量少儿不宜的黄色视频，随后虎嗅进行了核实，发现在某些圈子里的确存在大量情色视频，画面不忍直视。打开QQ，点开底部菜单栏“动态”页面，就能看到“日迹”，点开后可以在“广场”里看到不少账号的视频分享，如果你对这个号感兴趣，点它的头像进入这个账号的主页面，可见主页面分为“小视频”和“圈子”，“小视频”是自己上传的，“圈子”则是你加入的一些圈子（类似于QQ群和微信群）。这些略过不表，问题主要出在圈子里。当我循着举报人给我分享的视频，点开该用户的头像，然后在他的圈里就可以看到从几千到几万人不等的几个群，比如“同志成人用品大全”，显示成员有21351人，该群里有5726个小视频；“加94”有成员13204人，有7180个小视频；“进进出出”有成员36070人，小视频高达13680个，这些视频清一色的都是黄色小视频，有袒露胸部和生殖器的，有自己动手丰衣足食的，有借助第三方情趣工具的，有嘴里喊着老婆的，当然，最多的是男性与男性之间互爱的……不一而足。这些小视频显示浏览量至少5万，有很多十几万点击量的，视频底部也会显示评论区，随手点开一个，会看到有人在认真的评论观感，也有的人趁机求加各种QQ号卖视频的……随后虎嗅向腾讯的公关负责人进行求证，在我提供了相关截图后过了差不多半个小时，该负责人告诉我，产品已经在跑数据，随后该负责人把相关工作人员拉到了一个群，要求他们跟我对接和同步处理结果。在18:00许，腾讯一位工作人员向我通报道：“感谢您的关注监督，目前你举报的两个日迹圈子都已经进行了关停，并会对涉及的QQ账号进行封停处理；目前已经关停了所有的日迹圈子，进行全面排查，发现有害信息将会及时清理并对涉及的QQ账号进行处理。”随后我再次点开上述几个账号，已无法看到小视频和圈子了，随后我在“广场”查看那些健康无害的分享，随便点开了几个用户，发现这些用户只有“小视频”一栏有自己分享的视频，但点开“圈子”均显示“暂无圈子”。随后该工作人员对我表示：“我们会全力配合，尽快把处理情况及进展给到您，之前提供的不是最终版本，仅先第一时间供您了解。后续我也会密切跟进，同步最新进展。”晚上20:00许，腾讯给虎嗅发来一份正式的处理结果：今天，QQ安全团队收到用户举报：日迹产品中存在有用户发布不雅视频的行为。QQ安全团队第一时间进行核实并确认，被举报的圈子确实存在此类行为。我们已经采取了以下措施：1、对被举报的圈子和涉事的账号进行了封停处理；2、为了杜绝潜在风险，我们已经启动了对所有日迹圈子进行审核排查的工作。在审核排查期间，日迹圈子无法查看；同时，我们也暂停创建新日迹圈子，以及在圈子内发表视频的功能。一旦在排查中发现违规行为，我们将立即封停，绝不姑息。3、我们会对目前的技术打击和过滤方式进行检测和优化，不断提升技术打击的精准性和打击效率。QQ坚决打击平台内的任何违法违规行为。我们深知，对不良信息特别是涉黄信息的攻防是一场持久战。目前，面对复杂的情况，我们采用的是技术过滤、人工审查、用户举报的组合打击方式。QQ安全团队也希望广大用户积极参与进来，对违规行为和违规帐号进行举报。除产品端的举报入口外，用户也可以通过http://110.qq.com、腾讯客服（http://kf.qq.com）等通道随时举报，一旦确认违规行为将立即封停。对于情节严重者，我们还将向司法机关举报。在此，QQ安全团队也想郑重提醒：发布传播扩散淫秽色情内容信息属于违法行为，需要承担法律责任。QQ安全团队将不断努力，也希望广大用户和我们一起维护一个清朗、健康的网络环境。无疑，腾讯的处理速度是迅速的、果断的。据悉，QQ日迹是2016年9月底上线的，圈子功能是2017年9月初上线的。也就是说，圈子上线至今已经3个多月了，而上述我们发现的每个圈子就有几千到几万个这种低俗视频、评论区也有很多敏感词汇。按理说，腾讯每天都在宣扬自己的技术多么强大、腾讯云多么流畅、人工智能多么强悍、算法多么牛逼，不可能无法监测到这些视频内容和评论内容。为什么能让一个圈子上传几万个视频而毫无察觉，以至于要靠媒体撞大运式的来帮腾讯发现这些色情视频呢？不知道腾讯尤其是QQ团队的产品、技术和运营平常都在忙什么？还是说对此行为视而不见？涉黄向来是挑动社会各方敏感神经的话题，去年支付宝因推出的“白领日记”“校园日记”里被发现有黄色内容，引起轩然大波，对支付宝的形象造成了严重的伤害，最后，彭蕾公开道歉、彻底关闭日记功能，并从此之后了支付宝不再提做社交这件事儿了。今年，小密圈因涉嫌涉黄被关闭了好几个月，改名改姓改头换面才得以再次上线。日前，360因水滴直播和旗下的智能摄像头涉嫌侵犯用户隐私引起全民关注，同样也造成了轩然大波，最终导致360宣布彻底关闭水滴直播。作为拥有QQ和微信两大社交软件的巨头、中国市值最高的企业，腾讯的一句一动都非常受关注。在3Q大战后的开放战略，也让人对腾讯和马化腾刮目相看，何以被一个小小的“圈子”绊住？根据11月15日发布的截至2017年9月30日的腾讯第三季度财报显示，虽然与去年同比下滑，但QQ的月活依然高达8.43亿，同时，腾讯一直称，QQ的用户群体以年轻用户为主。而这些视频里看上去大多数都是年轻人甚至90后、95后、00后……腾讯欠父母和年轻人一个道歉。本文来源：虎嗅网责任编辑：姚立伟_NT6056",
    "URL": "http://tech.163.com/17/1229/23/D6S1058M00097U7R.html",
    "Source": "Netease",
    "KeyWords": "qq,腾讯,虎嗅,支付宝",
    "Comment": {
        "Reply": 431,
        "Link": "http://comment.tech.163.com/tech_bbs/D6S1058M00097U7R.html",
        "Total": 9471,
        "Content": "哪里有 怎么不把马化腾抓起来？腾讯你怎么不转型？ 关键是那一句当然最多都是男性和男性互爱的？ 这马赛克打的真是丧心病狂 以后禁了就别报，我就当没听说过。 怎么弄的？说具体点啊 有谁看到新闻后马上就打开QQ日迹群寻找答案的…… QQ部落里也是大把色情[微笑] 腾讯为什么不转型？？？ 知道晚了[大哭] 建议参照快播案立案，这模式不是一样的吗?服务提供商，为什么腾讯暂时关闭了就没事了 1024不是一直都在这些没什么意思露个腿挤个胸的还要收费 以后这样的新闻及时推送，总是迟到[狗] 粉豹男人团万客星女郎火狼老王金彩秀蝌蚪窝老铁们不怕肾虚你们就浪 每次都是被关停了我才知道 哈哈，这两流氓。。。。 还有好多色情宣传机器人在QQ空间点赞，我试着举报腾讯说我举报不属实，一看就是腾讯在纵容甚至支持！！ [喷水]同道中人啊兄弟… 自从手机安装了tumblr，身体越来越差了 1024裡面很多拍圖下面黑得不能再黑了， 每次都是翻车后才知道 也没见你说说。。这都翻车了才说[喷水][喷水][喷水] 哎，为什么总这样？上一次是支付宝校园，这次是qq圈子。都是被禁才知道[被黑] 每次都是出事了我才知道[可怜][可怜][可怜] yusexp免费随便进 快播真他妈的冤枉 痛心疾首，每次都是翻车了才知道 之前看过很多，很精彩[狗][狗] 按照快播标准马化腾是不是应该抓起来？ 都没有分享精神 为什么总是事情发生到结束被禁之后我才知道 关闭了就算了，tm小便自己看完后还打马[喷水] vibratingpanties<br>Remotevibratingeggcontrol<br>Sexmachine<br>😁 每次都是被关停了我才知道 我踏马的消息太不灵通了 同志们，我们又来迟一步。 115才是神器。。。 大佬带个路！[微笑] 银角大王将宝葫芦倒置，喊了一声：“周鸿祎。”周鸿祎应了一声，嗖地便被吸了进去。银角大王查看时，里面除了周鸿祎，还有360杀毒、360压缩、360浏览器、360安全卫士、360游戏大厅等熙熙攘攘一干人。银角大王惊讶道：“怎的来了这许多。”宝葫芦开口言道：“我就只点了个‘下一步’。”这时李彦宏在旁边呵呵的笑，银角大王怒了，刚要将宝葫芦倒置，李彦宏嗖的一声已经飞进了宝葫芦，银角大王查看时，除了李彦宏，还有百度贴吧，百度外卖，百度浏览器等等黑压压上万人，银角大王大惊怎的比周鸿祎还多！宝葫芦摇摇头我什么都没点😓😓😓 网易新闻绝对差评…全马赛克了 你不说我都不知道万年不登QQ了失策失策 可恶可恶，不知道独乐了不如众乐乐嘛[不屑][不屑][不屑] 1024注册免费激活要钱 咋玩啊？ 为什么我总是后知后觉 什么？ 电报，汤不热更多，要下APK去下个APKpure全play版还没墙 特么的为什么每次我都是最后一个知道！ 每次都不知道有这趟车 吗妈妈说了 快播都没了虎嗅你还要干什么 记着真你妈恶心，老是举报 怎么没有91？ 马克 总是翻车了才知道。 又翻车了才知道 马克 👍👍👍这是目前最稳的车了🚌 1024不是一直都在这些没什么意思露个腿挤个胸的还要收费 每次都翻车了才知道[晕][晕][晕] 为啥不像抓王欣那样把马化腾抓了？ appstore里还有梯子吗？ 粉豹男人团万客星女郎火狼老王金彩秀蝌蚪窝老铁们不怕肾虚你们就浪 mark 我以为骗人的..结果复制2Hnt8y02G4这个开支付宝真有红包啊\u00146积分给了86.8元 mmp，每次都是关了才晓得 9494 1024裡面很多拍圖下面黑得不能再黑了， ？？ 表示不懂跪求解释 yusexp免费随便进 我的车还不够快呀…… 预定肾宝片100盒 马克 马赛克也要打正规好不好，这打得跟被抹布擦过似得惨不忍睹啊 每次坠机了，我才发现有这趟航班 🐎一下 男性与男性！！！ 翻了车才知道[喷水] 用啥英文词汇中文词也是大把抓随便用个汉字关注一个系统会给你推荐无数个 我怎么不知道 [刷卡][刷卡] 为什么每次都..我插 犯贱，广大同志的福利越来越少了 每次都是被关停了我才知道 此文意在，阁下该回归QQ了。 百度pornjam，赞我不谢 没有假药停举报啊 跪求怎么上啊 tumblr到底是啥玩意儿？ 还有这么好的东西我不知道？我尼玛 你他妈打码成这样怎么让群众认知！ 无孔不入 你不说我都不知道万年不登QQ了失策失策 卸载好几次了[微笑] 自从手机安装了tumblr，身体越来越差了 我都还没有上车怎么就翻了啊 封闭可能的不和谐渠道而已。 [喷水]同道中人啊兄弟… 看完默默的骂了句：虎嗅，CNM 楼上营养快线靠边站<br>肾宝接受预定包邮 我快播哥放出来了，为什么不抓马化腾 刚想去看看，可惜关掉了 不判刑吗？ 腾讯都是黄赌毒的总队长 你为什么不转型？？？ 唉，每次都是翻车了才知道 这是个锤子新闻，还不如不放图 就是啊 不知道 哎知道晚了 易友，特么一点良心都没，早没人说这事儿！ 后知后觉[喷水] 现在都还有 mlgb，每次都是翻车了我才知道 万恶的马赛克。 以后这样的新闻及时推送，总是迟到[狗] 我特么每天用qq我都不知道，现在上车怎么这么难。 还能看啊，抓紧最后的机会吧！骚年们 赶紧把马化腾抓了，服务器上绝对也有！ 你这马打得都看不出是啥 每次都是翻车了才知道。妈的 哎又是这样 每次都是被关停了我才知道 拖出来，城东打到城西，整条街1500米900户商家1800人[大笑] 举报人自己就是整天无所事事专门找色情圈，然后在贤者时间举报 呵呵 小编自己看了又撸了然后打上马赛克 每次都是被关才知道 晚了晚了 哈哈清一色的评论 艹，你他么看过了不跟我们说？ 看了你们都才知道我就放心了 玛德每次都是翻车了才知道 这比 之前看过很多，很精彩[狗][狗] 痛心疾首，每次都是翻车了才知道 最多的是男人和男人之间的 腾讯为什么不转型 还是那句老话：马赛克是........ 卧槽，为什么总是翻车了我才知道 这码打的。。。 马赛克是阻止人类进步的阶梯！！ 搞什么鬼，关闭了说个毛线，男人明知道飞机多了伤身，但总是忍不住，为什么？ 哎总在翻车后才知道 谁举报的？ 知道的太晚了 等我知道什么都晚了 [报警] 信号真差 唉。。。怪我知道的太晚 我日啊[大哭][大哭][大哭] 麻花疼的不要逼脸，也是天下无敌了 [微笑]都是男男的，没看到好像很亏似得 你把图片搞花了我咋知道是不是色情？ 众里寻他千百撸，那人却在灯火阑珊处 这是扣扣广告，让我赶紧登录了一下 哎！错过了 尼玛，每次都是关了我才知道。 在哪里啊我怎么你看见啊老司机开车不带我啊 为什么不转型 第一张有像我本初中系列 我还没上车呢 留个脚印 为什么总是在翻车了以后才知道 [喷水]同道中人啊兄弟… 这些死基佬是阻碍人类文明的最大绊脚石！ superVPN免费的 啥牌子 每次晚一步不说，还打码！！！ 為什麼馬化騰不坐牢，之前那個不是坐牢了 115一个月60的会员，买不起买不起 怎么我的搜索关键词全是同志片[可怜] 每次都是出事了我才知道[可怜][可怜][可怜] 和有夫之妇一夜情，约炮，很多时候是一种无奈，黄抓的太严，生理上又饥渴难耐，也不想破坏人家家庭，哎 相亲，女方挺不错的，彼此问道怎么来的，男:坐公交来的。女：我电动车。吃完饭她也不让送，最后两人停车场相遇，看看女的A6，男的X5对视一笑。。。<br>然后各自回家，下午又在租车公司相遇～互相面子上感觉过不去，想出去放松一下，晚上在洗浴中心又再次见到。男的碰巧点了她。他们拥抱相吻，男人伸手探向其神秘地带。。。。。。。。。。<br><br>她邪魅的一笑说道：“大不？”<br>男子羞涩一笑，弯下了腰。。 我还没上车呢 每次封我才知道。。妈的 这个和快播比，应该什么罪 又tm车翻了才知道 我艹，qq卸载半年了 又来晚了！ 115才是神器。。。 老司机，求带路 离线盒子才是王道，可以解码读种子 微信漂流瓶也有，随便捞几个肯定有卖视频的 广告 哈哈 我又没赶上[喷水] 自从手机安装了tumblr，身体越来越差了 什么高科技，现在才知道 又是关闭了才知道，MMP 你的ID 举报的人有病吧，又要去看，看了还要举报？？ 我靠，早点不说 为什么不转型？ [惊讶] 附近可以发表说说和图片的怎么没有了，早知道就不更新了 下一个爱奇艺泡泡 要翻车了以后才能看到车祸现场，还是马赛克[可怜] 影梭 妈的有来迟了 又想骗人去下载QQ 收藏 快播就抓，QQ就呵呵。这个无法制的国家。 都没有分享精神 撩播里面全是这东西，看多了身体吃不消 司机停车、这不是去幼儿园的车我要下车 我靠真人秀啊，可惜了 还有好多色情宣传机器人在QQ空间点赞，我试着举报腾讯说我举报不属实，一看就是腾讯在纵容甚至支持！！ [喷水]同道中人啊兄弟… 。。。。。 又来晚了 腾讯欠父母和年轻人一个道歉。 总是后知后觉 每次都翻车了才知道 哎，为什么总这样？上一次是支付宝校园，这次是qq圈子。都是被禁才知道[被黑] 消息太闭塞 每次都被封了才知道。 在汤不热发帖也不知不觉成为一种习惯了。期间收获了很多朋友的关注和喜欢。在这里衷心的向你们说一声:非常！非常！非常谢谢你们，老铁们！<br>但是也不得不和你们说声，本博客现在起只提供部分作品的番号。愿意赞助我的朋友将会获得所有更新的番号。 马克 娱乐圈里真热闹男人耍酷女淫笑装模作样当贵族其实大多是荡妇花旦生得像侏儒满屏替身还抠图鲜肉长的僵尸脸脏了千万观众眼导演摆谱当大咖爱把演员乳房抓 之前看过很多，很精彩[狗][狗] 醉了又错过 这码现在都这样打了? 老司机也不早 又迟来一步 腾讯传播色情视频为啥不查处？ 每次都是被关停了我才知道 腾哥，怎么又是你的产品。。。 山寨企鹅🐧还特么是黄色企鹅🐧 每次只有到翻车了才知道，[大哭] 刚下了tumblr链接不上啊 我翻墙了也没有中国区不提供这个软件赶明儿去香港下载 翻车才知道……这个命啊 Qq浏览器可直接登录外国😍情网！想起快播就觉得冤！ 没看出哪色情，不是油画的调色板吗 求推荐一个VPN 为什么不把麻花腾抓了？ 网易也很黄网啊，[色色] 自从手机安装了tumblr，身体越来越差了 为什么总是关了才知道？ 咋玩啊？ 小编不厚道！吃独食！差评！ 不关心 不忍直视[大笑] 扣扣原来也有好东西呀😁😁😁😁😁😁 腾讯为什么不转型？ 后知后觉 校园管支付宝什么事？ 多么痛的领悟 马勒戈壁，我为什么不知道，艹 我来晚了 不知道快播那位看了这些之后什么感想 网易为什么不能关闭自动视频？设置了也没有 又错过了 怎么不把马化腾抓起来？腾讯你怎么不转型？ 万恶的马赛克 为什么？苍天啊[大哭]翻车了才知道 那些自己不坐车还扰乱交通秩序的人，应该被拉出去鞭刑 腾讯就是靠这个起家的 ss是啥，求老哥指点一二 [喷水]同道中人啊兄弟… 妹的，日了狗了 看完了举报？麻蛋，咋不早点告诉我 马化腾变鸡婆了[大笑] 每次翻车我才知道 为什么不抓？ 影梭 哎，为什么总这样？上一次是支付宝校园，这次是qq圈子。都是被禁才知道[被黑] 每次都是后知后觉 汤还是别上了，里边太疯狂了 等两天再关啊， 小便这马赛克打得有点过了哈[挨揍] 现在空间大巴这些视频。 我踏马的消息太不灵通了 翻车了我都还没明白是个啥！ 校园日记啊都是泪啊每次都是关了才知道 一色的都是黄色小视频，有袒露胸部和生殖器的，有自己动手丰衣足食的，有借助第三方情趣工具的，有嘴里喊着老婆的，当然，最多的是男性与男性之间互爱的…… 每次都是被关停了我才知道 没关啊，特意看了下搜不到小编看的视频 麻花疼不跟快播一样？ 兴趣部落里都是骗子[色色][色色][色色] 人民喜欢的他们都反对 又是翻车了才知道[喷水] 就不能有点荤腥的嘛 下次提前说，少放马后炮！ 汤被和谐了，没以前大尺度了， 我把你网易都打上马赛克是不是也可以关闭了？ 自从手机安装了tumblr，身体越来越差了 怪不得当年要举报快播 qq和微信存在非常多这类问题，这只企鹅却视作不见，责任哪里去了？？ "
    },
    "Title": "QQ日迹圈子存大量色情视频 腾讯：已暂时关闭圈子_网易科技",
    "PublishTime": "12/29/201723:00:27"
}