{
    "Source": "Netease",
    "KeyWords": "中国海警,钓鱼岛,舰船",
    "URL": "http://news.163.com/17/1224/09/D6DMDTA900018AOQ.html",
    "PublishTime": "12/24/201709:19:00",
    "Comment": {
        "Content": "天天去，常态化！ 佩服，厉害 支持、坚持！ 要经常化巡航，国家毅志！ 常态化了 必须顶啊，爱我中华 我们要常态化去看看我们的国土，看着就有提气。 要经常化巡航 中国强大！ 天天向上 要在祖国的山河、领空、领海经常巡航！ 收复钓鱼岛 天天去，常态化！ 佩服，厉害 支持、坚持！ 中国海警舰船编队在中国钓鱼岛领海巡航时可以直接登陆钓鱼岛上进行测量工作，这样才能够使小日本死心。 天天向上 中国强大！hao. 常态化了 中国海警舰艇编队必须立即采取常态化战备巡逻钓鱼岛领海领空！！！ 必须顶啊，爱我中华 我们要常态化去看看我们的国土，看着就有提气。 要经常化巡航 中国强大！ 要经常化巡航，国家毅志！ 要在祖国的山河、领空、领海经常巡航！ 收复钓鱼岛 ",
        "Total": 859,
        "Link": "http://comment.news.163.com/news2_bbs/D6DMDTA900018AOQ.html",
        "Reply": 15
    },
    "Article": "（原标题：中国海警舰船编队12月24日在中国钓鱼岛领海巡航）资料图：海警舰艇。中新社发罗文炫摄中新网12月24日电据国家海洋局网站消息，12月24日，中国海警2306、2502、2106舰船编队在中国钓鱼岛领海内巡航。中国国家海洋局网站截图另据海外网：12月24日电2017年12月24日，中国海警2306、2502、2106舰船编队在我钓鱼岛领海内巡航。日媒称，有3艘中国海警船进入其所谓的“领海”。据日本NHK新闻报道，日本海上保安厅确认3艘中国海警船进入钓鱼岛12海里内航行。当地时间23日上午9点29分，日本政府将设置在首相官邸危机管理中心的情报联络室升格为官邸对策室，进行情报收集和警戒监视。中国海警船（来源：日本NHK新闻）据此前报道，22日上午，4艘中国海警船在钓鱼岛海域外侧毗连区巡航执法。日本海上保安总部无理警告中国海警船勿靠近其所谓的“领海”，并持续进行监视。中国外交部发言人华春莹曾就钓鱼岛问题表示，钓鱼岛及其附属岛屿自古以来就是中国领土。中国政府公务船在有关海域的巡航执法正当合法。中国维护领土主权和海洋权益的决心和意志坚定不移，今后将继续开展有关巡航执法活动。本文来源：中国新闻网责任编辑：李杭_BJS4645",
    "Title": "中国海警舰船编队12月24日在中国钓鱼岛领海巡航_网易新闻"
}