{
    "URL": "http://sports.163.com/17/1231/05/D6V8RU2O00058781.html",
    "Article": "网易体育12月31日报道：曼联和南安普敦的比赛，第8分钟就出现意外，卢卡库后脑被南安普敦中卫霍特头撞到，卢卡库当即昏迷倒在地上，曼联只能被动换人。本场穆里尼奥没有选伊布进大名单，因此替补席上中锋的唯一人选是拉什福德，临危受命的拉什福德或许是准备不足，他替补上场的表现让人失望了。拉什福德在曼联青年队就踢中锋，当初被范加尔火线提拔到一线队一炮走红，是因为当时曼联的中锋都受伤了。但在穆里尼奥眼中，拉什福德并不是中锋的好人选，因此他在去年夏天引入了伊布，今年夏天又引入了卢卡库。在穆里尼奥麾下，拉什福德只能偶尔踢中锋，他踢中锋的比赛要么是伊布、卢卡库受伤或轮休，要么就是特定的比赛，譬如说强强对话进攻只靠反击。在面对弱队打阵地战时，穆里尼奥觉得拉什福德作用并不明显，本场比赛验证了穆里尼奥的观点。衡量现代中锋，射门得分并不是唯一的标准，背身拿球、做球能力就是一项重要的指标，而拉什福德毫无这方面的能力，这从拉什福德本场的传球次数就能看出。本场拉什福德是第14分钟替补上场，踢的时间不算短，但他总共只有7次传球，这传球次数就能看出拉什福德基本没有背身接球、传球。拉什福德有这方面的意识，但他没法完成，他的身体比较单薄，和南安普敦两名中卫吉田麻也、霍特一对抗就难以站稳，这样的情况下无法背身接球。拉什福德本场的射门表现也不敢恭维，首先他因为对抗不佳在禁区内要抢到点就很难，其次在机会来临时他也没把握好：第30分钟，阿什利-扬右路突破传中，拉什福德无人防守下6码处头球攻门，但他对球的落点判断有问题跳早了，导致最后只是头皮蹭了下球；第77分钟，马夏尔左路突破下底传中，拉什福德10码处没直接射门而是调整了一下，等他调整好了再射封堵的后卫也到位了。拉什福德错失良机本场比赛，拉什福德唯一有好表现的时候是在几次反击中的带球和跑位，制造了一定的威胁，但在阵地中，拉什福德没有发挥出任何作用，这也是本场曼联看起来进攻踢得热闹但没实际效果的原因。卢卡库近期饱受诟病，但本场受伤后曼联球迷发现，没了卢卡库就更不行了。伊布也将缺阵一个月本场赛后，穆里尼奥证实头部受伤的卢卡库将缺席下周一和埃弗顿的比赛以及足总杯，此外穆里尼奥还表示伊布上轮受伤将缺席1个月。这也就意味着拉什福德会成为曼联未来两场中锋的唯一人选。但以拉什福德本场的表现，就算是面对足总杯对手英冠队德比郡，恐怕都不能让球迷放心。本文来源：网易体育作者：恒山责任编辑：冯昊天_NSJS2656",
    "KeyWords": "卢卡库,伊布,拉什福德",
    "Source": "Netease",
    "Comment": {
        "Reply": 120,
        "Content": "用来摆乌龟阵，谁来都是一样的，1楼傻冒。你将前场球员给渣叔，瓜秃看看？呵呵，鸟屎真是下贱，这还在洗 你给补解约金那? 曼联都是被波霸连累的，就是他诅咒表妹球员受伤，结果这话把自己队方着了，都怪波霸没脑子，不懂玄学 鸟很快就四大皆空了看来比范加尔好不到哪里去一个培养新人一个毁新人 NMP，烧了三亿，原来是跟老子抢四的啊？---温格 做教练得差距怎么就这么大呢 不一定，欧联杯在你眼里都是屎，不知道你拿过什么杯 穆帅，自己写辞职报告吧，这样大家都体面。<br>踢的什么鬼啊 四大皆空？范加尔的足总杯可比你的联赛杯高几个档次 在范加尔手下可是踢的风生水起 卢卡库伤了，不进球的锅又要重新分配了😂 卢卡库受够了鸟粪的黑锅…妈的，受伤，不给你们玩了…！😂😂😂 这叫以牙还牙。 没有了前锋，更可以肆无忌惮摆大巴了😂 是谁说四大皆空的？足总杯冠军不算冠军？联赛杯才算冠军？ 就曼联这个预算这个工资这个阵容你换瓜来带看看，依旧虐英超 鸟粪：垃圾卢卡库，垃圾马蒂奇<br>城迷：德布劳内真大腿<br>军迷：萨拉赫真爸爸<br>车迷：MMP<br>萨拉赫、德布劳内：还好把老子卖了<br>卢卡库、马蒂奇：赶紧把老子卖了 风生水起？所以范加尔的比赛昏昏欲睡？四大皆空？ 拉师傅：终于可以回到中路，接下来看我的表演[窃笑] 你拉倒吧，瓜来英超前就说了，曼联阵容底子不行，给他两年3个亿都搞不定 萨拉赫在鸟手下可是踢不上球的废物哦，现在是可以一个人力挽狂澜的那种球员？ 鸟大湿的比赛没意思，还不如新曼联球迷洗地看的过瘾😂 前场那几个球员真的不如利物浦的萨拉赫库鸟，萨拉赫属于可以一个人力挽狂澜的那种，真的不愧梅西名号，切尔西坎特防守能力跟马蒂奇差不多、但是更快更灵巧，进攻更好，阿扎尔更是没人可以比的，热刺的凯恩埃里克森也不是曼联这帮人可比的，阿森纳有374272，曼联这套阵容拜利博格巴卢卡库中轴线都不伤的话还是有战斗力的 说实话，看鸟比赛没有喷鸟粪有意思哈哈 曼联进攻核心德赫亚。 赛季初可以各种嘲笑其他队的哦，莫拉塔软蛋，我魔抢到小魔兽，感谢破车的马蒂奇，伊布续约要拿冠军，博格巴开窍了，感谢鲁尼的离开，威武 拉什福德前几轮状态都低迷到令人吃惊，还是不信任马夏尔。下半场仅有的威胁都是马夏尔上场后出来的。木鸟用人太有问题了！ 三德子菊花一紧冬窗又要烧钱了 鸟帅：绝对是赛程的问题 以后坐公车孕妇都得给曼联球员让座了，毕竟重度老弱病残是需要社会多关心的 换温格，给温格3亿转会费，娜娜估计都争冠了 妈的，评论百分之90的人都是傻逼，完全是为喷而喷，没点技术含量，你们都是垃圾。虽然我也不满穆鸟，但以事论事，前场球员确实能力不行，都浪费多少机会了，速度，带球，传球，射门都差，穆鸟的防守反击很难打出来，而这帮球员脚下技术好的又没几个，配合又打不出，只有身高优势，所以只能打传中了。防守没多大问题，曼联再买一个前锋，一边锋，穆鸟的防反就回来了。 拉什福德确实难堪主力大用 [微笑][微笑]你这是要气死多少鸟粪才甘心啊，哈哈 真是历历在目啊[不屑] 当大家都在玩乌🐢阵🐢王也没辙了哈…… 好吧，给你换萨内、斯特林、热苏斯，再不行阿圭罗也换给你，这样够你摆王八阵了吧？ 上一场我就说了，用大伊布和换下大伊布，曼联更衣室已出问题。不解决这个问题，曼联继续低迷。<br>穆的解决办法是拉拢本地球员比如拉师傅....可惜，穆又走错路了……拉师傅和马夏尔选哪个你自己不知道吗？😭 前几年的利物浦锋线才是真正的老落病残组合兰伯特老博里尼弱斯图里奇病巴洛特利脑残。。。。 说得母鸟带的很有趣一样？ 一群吃泡面的键盘侠去喷一年比你一辈子挣钱多的人 还号称穆二年😰 关键进攻端没什么套路啊，摆大巴打防反倒可以，但如果对面是弱队，人家率先摆大巴，鸟就不知道怎么办了，打到哪算哪，靠球星灵光一闪解决问题 穆鸟走了换谁来？ 曼联整体弱势的情况下，拉师傅处子赛季17战8球，完全可以说风生水起。范加尔带的无聊，不代表拉师傅不行，基本逻辑应该要有吧？ 反正都是进不了球，我魔无所谓啦 你这算落井下石吗？ 喷子们掂量着以牙还牙的寓意而真正的球迷可能是用落井下石这个成语故事在开玩笑哦⊙∀⊙！ 曼联都是被波霸连累的，就是他诅咒表妹球员受伤，结果这话把自己队方着了，都怪波霸没脑子，不懂玄学 被漏哥把诅咒反弹了？ 鸟很快就四大皆空了看来比范加尔好不到哪里去一个培养新人一个毁新人 当年在国米，鸟如果不走，下个赛季也得崩盘，往死里用！<br>所以那些吹鸟某个时代的人就歇歇吧<br>从来没有鸟的什么时代，就是投机分子！ 拉倒吧，温格有几个冠军？ NMP，烧了三亿，原来是跟老子抢四的啊？---温格 现在看来还是莫拉塔值钱 谁买的？ 下一场咋干？ 不一定，欧联杯在你眼里都是屎，不知道你拿过什么杯 如果阿根廷队夺冠……. 漏哥自带诅咒反弹属性，慢抬中枪。 穆帅，自己写辞职报告吧，这样大家都体面。<br>踢的什么鬼啊 在范加尔手下可是踢的风生水起 穆里尼奥现在真的差 拉什福德就一坨屎 这叫以牙还牙。 合适的时间出现在了合适的地点罢了。 曼联的锋线单拎出来都是牛逼人物，凑在一起这么没效果，真服了穆大师了。 卢卡库伤了，不进球的锅又要重新分配了😂 说换鸟的都是站着说话不腰疼我特别讨厌鸟的推卸责任和摆大巴但比起前面两位至少争四还是有希望的 拉什福德还是适合边路突击 反正都是球员的错！ 曼狗何须前场，对大巴毫无影响 老弱病残孕及抱小孩的同志？ 那就重新分配吧。 就曼联这个预算这个工资这个阵容你换瓜来带看看，依旧虐英超 就会欺负老实人😁 风生水起？所以范加尔的比赛昏昏欲睡？四大皆空？ 鸟应该感谢厨师，没有厨师强硬留下黑鸭，争6都困难。不是说鸟的能力比厨师差，而是鸟不合适重建的队伍，重建的队伍需要年轻化，但现在看来是老龄化了。鸟适合那种有夺冠实力，但又没办法突破天花板的球队，鸟的心理攻势往往能鞭策球员雄起一下，所以在车仔和皇马能够确定成功，但曼联很难。曼联应该让厨师再干两年，队伍年轻化后，也练好级了，让鸟再来接手两年，刺激一下，然后让王老吉接手，这样曼联有可能又是一段辉煌。当然，瓜来英超，一切就不好说了？ 我们国家弱，是因为手足相残，同胞互喷 大家别怪人家摆大巴了，人家也不愿意啊，一个正牌前锋都没有，不摆大巴，摆什么 拉师傅：终于可以回到中路，接下来看我的表演[窃笑] 拉什福德确实难堪主力大用 好！有希望了~ 萨拉赫在鸟手下可是踢不上球的废物哦，现在是可以一个人力挽狂澜的那种球员？ 换温格，给温格3亿转会费，娜娜估计都争冠了 你拉倒吧，瓜来英超前就说了，曼联阵容底子不行，给他两年3个亿都搞不定 前场那几个球员真的不如利物浦的萨拉赫库鸟，萨拉赫属于可以一个人力挽狂澜的那种，真的不愧梅西名号，切尔西坎特防守能力跟马蒂奇差不多、但是更快更灵巧，进攻更好，阿扎尔更是没人可以比的，热刺的凯恩埃里克森也不是曼联这帮人可比的，阿森纳有374272，曼联这套阵容拜利博格巴卢卡库中轴线都不伤的话还是有战斗力的 是谁说四大皆空的？足总杯冠军不算冠军？联赛杯才算冠军？ 热刺的主教练很看好他，年轻，热刺这么点投入还搞得不错，青训也很好！ 曼联进攻核心德赫亚。 赛季初可以各种嘲笑其他队的哦，莫拉塔软蛋，我魔抢到小魔兽，感谢破车的马蒂奇，伊布续约要拿冠军，博格巴开窍了，感谢鲁尼的离开，威武 曼联战术单调，死气沉沉的，没有主心骨 拉什福德前几轮状态都低迷到令人吃惊，还是不信任马夏尔。下半场仅有的威胁都是马夏尔上场后出来的。木鸟用人太有问题了！ 三德子菊花一紧冬窗又要烧钱了 进攻不是还有马夏尔吗？ 必须的。德赫亚才是曼联的灵魂。 以后坐公车孕妇都得给曼联球员让座了，毕竟重度老弱病残是需要社会多关心的 你这说法不客观。关键问题是，鸟已经被时代淘汰了，他那一套玩意，已经玩不转了，现在都是九零后，将来零零后的球员，谁稀罕场场放手？前锋当后卫，哪个前锋愿意？就上次利物浦那一场、明明可以打一次对攻，提升士气，就是龟缩，现在对中下游球队也是龟缩，这实在看着来气。总之一句话，鸟真的是不行了。 妈的，评论百分之90的人都是傻逼，完全是为喷而喷，没点技术含量，你们都是垃圾。虽然我也不满穆鸟，但以事论事，前场球员确实能力不行，都浪费多少机会了，速度，带球，传球，射门都差，穆鸟的防守反击很难打出来，而这帮球员脚下技术好的又没几个，配合又打不出，只有身高优势，所以只能打传中了。防守没多大问题，曼联再买一个前锋，一边锋，穆鸟的防反就回来了。 看看皇马没有漏哥的下场 便宜又好用（渣叔会用）<br>裤底鸟走的可能是百分之九十九 逮住一个往死里用，不伤才怪 好吧，给你换萨内、斯特林、热苏斯，再不行阿圭罗也换给你，这样够你摆王八阵了吧？ 上一场我就说了，用大伊布和换下大伊布，曼联更衣室已出问题。不解决这个问题，曼联继续低迷。<br>穆的解决办法是拉拢本地球员比如拉师傅....可惜，穆又走错路了……拉师傅和马夏尔选哪个你自己不知道吗？😭 管他谁买的，反正都是菜。穆里尼奥进攻训练太垃圾了，100分的球员最多能发挥70分，所以，买120分的球员吧。 一群吃泡面的键盘侠去喷一年比你一辈子挣钱多的人 都是内鬼害的，连续三场碰顶级强队，三场拿到三分，不容易 看来还是怼温格要顺手一点。 库蒂尼奥估计留不住了，渣叔把姆希塔良买去吧 曼联前场几个人也配叫豪华？？这几个放到前四的队里都他妈打不上首发。 关键进攻端没什么套路啊，摆大巴打防反倒可以，但如果对面是弱队，人家率先摆大巴，鸟就不知道怎么办了，打到哪算哪，靠球星灵光一闪解决问题 穆鸟走了换谁来？ 曼联球员太容易受伤 真没看出来那豪华，如果伊布年轻还可以。 你这算落井下石吗？ 曼联都是被波霸连累的，就是他诅咒表妹球员受伤，结果这话把自己队方着了，都怪波霸没脑子，不懂玄学 感谢努力。 不把穆里尼奥换掉！曼联永无出头之日！ 三德子菊花一紧冬窗又要烧钱了 做教练得差距怎么就这么大呢 [大哭] 曼联这锋线敢说豪华？虐菜卢卡库伤了都找不到人顶，伊布年纪大了能打全场？ 穆帅，自己写辞职报告吧，这样大家都体面。<br>踢的什么鬼啊 你给补解约金那? 在范加尔手下可是踢的风生水起 如果在隔壁会不如斯特灵？再待下去信心都打没了 説的現在賽季結束了一樣 应该会比斯特林表现好吧 别转移话题，曼联的今天都是穆婊害的 本来就不咋地 没有了前锋，更可以肆无忌惮摆大巴了😂 辞职吧，分手快乐 妈的，评论百分之90的人都是傻逼，完全是为喷而喷，没点技术含量，你们都是垃圾。虽然我也不满穆鸟，但以事论事，前场球员确实能力不行，都浪费多少机会了，速度，带球，传球，射门都差，穆鸟的防守反击很难打出来，而这帮球员脚下技术好的又没几个，配合又打不出，只有身高优势，所以只能打传中了。防守没多大问题，曼联再买一个前锋，一边锋，穆鸟的防反就回来了。 现世报！[窃笑] 鼓破任人捶 风生水起？所以范加尔的比赛昏昏欲睡？四大皆空？ 买买。 从FM的使用看，用威尔逊比拉好用 拉什福德确实难堪主力大用 靠，虽然没嘲笑过别对，但也说的让我无言以对 曼城可是有达尼漏。玄学什么的。一点不虚😏😏 下轮埃弗顿，从曼城身上拿过分，估计曼联又要丢分 前场不是不行，是不太符合老穆的习惯。目前风格和老穆搭的我看就卢卡库和林加德，但都不突出，波霸本来是牛叉的，但缺一个节拍机，不能像当年国米米利托埃托奥斯耐德，皇马笨马字母罗天使272，二期车仔科斯塔阿球王威廉小法那样快反了 靠！伊布上轮不是中场休息的时候被调整换下的吗，怎么说又伤了？！ 鸟大湿的比赛没意思，还不如新曼联球迷洗地看的过瘾😂 舅服你 赛季初可以各种嘲笑其他队的哦，莫拉塔软蛋，我魔抢到小魔兽，感谢破车的马蒂奇，伊布续约要拿冠军，博格巴开窍了，感谢鲁尼的离开，威武 感觉穆鸟又要卷铺盖走人的感觉。 喷子！你行你上，站着说话不腰疼。 卢卡库受够了鸟粪的黑锅…妈的，受伤，不给你们玩了…！😂😂😂 节奏差不多，今年过去，明年那解约金 鸟粪：垃圾卢卡库，垃圾马蒂奇<br>城迷：德布劳内真大腿<br>军迷：萨拉赫真爸爸<br>车迷：MMP<br>萨拉赫、德布劳内：还好把老子卖了<br>卢卡库、马蒂奇：赶紧把老子卖了 本来前锋做后卫用！现在更专业后卫上场了 [微笑][微笑]你这是要气死多少鸟粪才甘心啊，哈哈 真是历历在目啊[不屑] 当大家都在玩乌🐢阵🐢王也没辙了哈…… 風個毛線，樓上就是傻逼，拉屎上賽季鳥帶着就踢的不錯，2樓新球迷，沒聽過大圈戰術誰發明的？ 这个傻逼标题，啦师傅给瓜用看看？ 还号称穆二年😰 前几年的利物浦锋线才是真正的老落病残组合兰伯特老博里尼弱斯图里奇病巴洛特利脑残。。。。 说得母鸟带的很有趣一样？ 反正都是进不了球，我魔无所谓啦 别摆大巴了，很难看。 [挨揍][挨揍][挨揍][挨揍][挨揍] 穆鸟用无缝战术呀。 曼联整体弱势的情况下，拉师傅处子赛季17战8球，完全可以说风生水起。范加尔带的无聊，不代表拉师傅不行，基本逻辑应该要有吧？ 马夏尔可以打中锋啊 ",
        "Total": 2163,
        "Link": "http://comment.sports.163.com/sports2_bbs/D6V8RU2O00058781.html"
    },
    "PublishTime": "12/31/201705:15:41",
    "Title": "伊布卢卡库倒下 拉师傅难堪大用 红魔豪华锋线成\"老弱病残\"?_网易体育"
}