{
    "PublishTime": "01/02/201807:21:00",
    "Comment": {
        "Total": 1,
        "Link": "http://comment.news.163.com/news2_bbs/D74LGU6F000187V9.html",
        "Reply": 1,
        "Content": "挽尊 "
    },
    "Article": "（原标题：最古老玩具：西伯利亚古墓现4500年前玩偶雕像）【环球网综合报道】据英国《每日邮报》12月28日报道，俄联邦西伯利亚地区哈卡斯共和国的一个幼童古墓里发现了具有4500年历史的玩偶雕像，墓中还含有一个骨制龙形兽首。这些发现被收纳到“世界上最古老的玩具收藏”中。该玩具由由皂石制成，被认为是迄今为止发现的最古老的玩偶。该玩具制作精细，有明显的面部特征，包括浓密的眉毛和高高的颧骨。早时在埃及曾发现一个同时期的木偶，但这些木偶被刻上了复制符号，所以不可能是玩具。该幼童坟墓被认为与奥库涅夫文化有关。墓葬规格不是社会上层人员规格，这表明普通人家的孩子可以接触到制作精美的玩具。考古学家们认为，几年前由垂钓者从西伯利亚河中拔出的一个异教神雕像是一个孩子的玩物，或者是拨浪鼓，用来抵挡恶灵。本文来源：环球时报-环球网。更多精彩，请登录环球网http://www.huanqiu.com责任编辑：程钢_NN7377",
    "Source": "Netease",
    "Title": "俄罗斯发现4500年前玩偶雕像 或为世界最古老玩具_网易新闻",
    "KeyWords": "玩具,雕像,玩偶,木偶",
    "URL": "http://news.163.com/18/0102/07/D74LGU6F000187V9.html"
}