{
    "URL": "http://news.163.com/17/1228/10/D6O2V8P800018AOQ.html",
    "Article": "（原标题：中央环保督察完成31省份全覆盖已问责超1.8万人）环保部：中央环保督察完成31省份全覆盖已问责超1.8万人中新网客户端北京12月28日电28日，环保部举行例行新闻发布会，介绍第一轮中央环保督察有关情况。记者从会上了解到，自2015年12月启动河北省环境保护督察试点来，经过两年努力，中央环保督察完成全国31省份全覆盖。第一轮督察共受理群众信访举报13.5万余件，累计立案处罚2.9万家，罚款约14.3亿元；立案侦查1518家，拘留1527人；约谈党政领导干部18448人，问责18199人。本文来源：中国新闻网责任编辑：范姜国一_NN9138",
    "Source": "Netease",
    "PublishTime": "12/28/201710:09:00",
    "KeyWords": "环保部,督查,问责",
    "Comment": {
        "Content": "支持中央加大反腐力度 坚决要求立马进行土地督察!! 全覆盖支持。 走，到我家去坐坐！帮忙净化一下空气！ 支持中央加大反腐力度 支持 坚决要求立马进行土地督察!! 全覆盖支持。 ",
        "Total": 23,
        "Link": "http://comment.news.163.com/news2_bbs/D6O2V8P800018AOQ.html",
        "Reply": 5
    },
    "Title": "中央环保督察完成31省份全覆盖 已问责超1.8万人_网易新闻"
}