{
    "Title": "伦敦一不起眼老宅有403年历史:躲过内战和二战_网易军事",
    "PublishTime": "12/31/201711:58:43",
    "URL": "http://war.163.com/17/1231/11/D6VVTTU4000181KT.html",
    "Source": "Netease",
    "KeyWords": "二战,伦敦,内战,英国",
    "Comment": {
        "Reply": 89,
        "Content": "故宫知道不？ 民宅，知道不？ 这在西方已经算是老宅子了？ 还不拆？ 很快就会拆了 呵呵，在中国过了几个七十年了吧，早就是它们的了。 这不是钉子户嘛！！！！ 故宫那是皇宫，不是普通老宅子。故宫能改成酒馆不？？ 不管是现在还是古代，只要搞一次运动，或者一次变革，许多老房子就人为的一把火给烧了或者人为拆掉重建。不知为什么，好像咱们很有钱似的，还是太霸道了呢？ 拆了能赔多少 英国不交 还想赔？给你断水断电，门前挖条护城河，再送你几条毒蛇 不好意思误拆了，对不起完事 补一句，香港和纽约宁可让位给深圳当摩天王，也不希望牺牲名煮和公权 这有什么，我潮有保存大量六百年以上的古建筑，经历了金兵南下，蒙古入侵，后金入侵，长毛祸害，鬼子入侵......要不是辣肉君搞XXXX,这样的古屋我潮不知道有多少????????? 在一所大教堂旁边。 如果有关部门看上就被破四旧立四新 表达的就是中国还是有很多这种古村的 也就其中几个房子其中大部分都是后期原样重建了只不过做旧看不出来而已 发动内战的人没有到处放火，二战时在美国本土没有发生过战争。 不能动的都可以幸运下来。那天打起核战争了。哪怕就是核冬天也会有少数幸存者。然后在开始新的人类发展。 我们这里墙上就用油漆喷个拆字…然后哈哈哈哈 故宫算不？ 国内几百年的老宅，躲过了满洲人，躲过了日本人，却躲不过某些人。 这GDP咋上？ 湖南某人故居还在呢 英国人对风水嗤之以鼻 强拆它，建高楼 在鸡国拆了也赔不了几个卵钱 。。。不知道你楼上要表达的意思！ 有的，我们这有整村都是老房子的 拆了卖地啊～一点也没有“特色”。------那地方到处看到的都是假历史。 1614年咱们还是明朝，你那儿还有明朝的房子？ 已经被定位文物保护村落了， 伦敦的旧象征着私有财产神圣不可侵犯，上海的新象征着政绩与强拆！ 故宫也有不少清代重建的 我们早就拆了。拆完了再仿一个 400年前就有飘窗 这栋房子的风水绝对不错，值得考察探究。 北京除了故宫能达标估计也没啥建筑能有这岁数了 明宫早被闯贼一把火烧了 开发商定价 跟贴被火星网友带走啦~ 在中国除了北京还有完整的古城紫禁城，历史上那些有名的古城还有吗？北京很多古建筑拆掉了重建，然后后悔了又拆了有建回去，但是重新建的古建筑已经不是过去那个了 这么一大栋房子，又是文物，又是位于英国首都，才不到5千万。 祝法拉第早日量产！ 故宫也被李闯烧了部分 故宫知道不？ 民宅，知道不？ 那时因为以前没有——403forbidden，所以躲过第一第二，就不一定能躲过第三了！历史不是已经摆在眼前了吗？那些知道了还假装不知道的，很快就会知道什么是末日！ 这在西方已经算是老宅子了？ 太不力了。 🔫🔫有文物不上缴为国有，你想混了不 在北京呢不是么？ 英国人对风水嗤之以鼻 很快就会拆了 呵呵，在中国过了几个七十年了吧，早就是它们的了。 这不是钉子户嘛！！！！ 故宫那是皇宫，不是普通老宅子。故宫能改成酒馆不？？ 我这有明朝的城楼，算数不？ 拆了能赔多少 还想赔？给你断水断电，门前挖条护城河，再送你几条毒蛇 这么一大栋房子，又是文物，又是位于英国首都，才不到5千万。 真是福利呀 宁波老宅很多的，因为多才没被珍惜 这质量非常好呀 这有什么，我潮有保存大量六百年以上的古建筑，经历了金兵南下，蒙古入侵，后金入侵，长毛祸害，鬼子入侵......要不是辣肉君搞XXXX,这样的古屋我潮不知道有多少????????? 故宫是民宅吗？ 如果有关部门看上就被破四旧立四新 无力吐槽，势利啊 我有钱我就买下来 因为穷！没钱建新房子！ 我们家原来就是建于明朝的宅子，因为没有出过名人就被城建改造什么老年大学，旁边的范宅因为出过太师变成文物保留下来 发动内战的人没有到处放火，二战时在美国本土没有发生过战争。 故宫算不？ 国内几百年的老宅，躲过了满洲人，躲过了日本人，却躲不过某些人。 让人败家。 1614年咱们还是明朝，你那儿还有明朝的房子？ 湖南某人故居还在呢 都是翻修过10次 按你这意思，人家的古城堡该怎么算？？ 派夏德仁去给拆了 👍 明朝的房子怎么没有，宋朝的还有呢 强拆它，建高楼 在鸡国拆了也赔不了几个卵钱 在私人财产神圣不可侵犯的国度，几百年的民宅会比较多。 伦敦的旧象征着私有财产神圣不可侵犯，上海的新象征着政绩与强拆！ 我要是找出明朝的房子你打算给多少钱 这GDP咋上？ 补一句，香港和纽约宁可让位给深圳当摩天王，也不希望牺牲名煮和公权 不是危房，不是违建？还没被拆掉？ 在中国除了北京还有完整的古城紫禁城，历史上那些有名的古城还有吗？北京很多古建筑拆掉了重建，然后后悔了又拆了有建回去，但是重新建的古建筑已经不是过去那个了 这栋房子的风水绝对不错，值得考察探究。 二楼大智慧啊 危房。最多一万。 运气太好了 恩，一个孩子宁可学习成绩倒数第一，也不愿意放弃天性和个性！！请问，说得还行吧？？够格去领美分了吗？？ 开发商定价 应该不会有，那么久，不是危房就是违建，早被扒了。 真好的提防 拆了卖地啊～一点也没有“特色”。------那地方到处看到的都是假历史。 不能动的都可以幸运下来。那天打起核战争了。哪怕就是核冬天也会有少数幸存者。然后在开始新的人类发展。 我们这里墙上就用油漆喷个拆字…然后哈哈哈哈 这房子成精了 满篇文章里到处都是“？？？？？？”，让我想起了小编母亲卷曲的下身长毛。 这在西方已经算是老宅子了？ 呵呵 400年。 为什不拆了开发房地产 在一所大教堂旁边。 亨利?里奇,网易就这水平? 明宫早被闯贼一把火烧了 英国不交 1614年咱们还是明朝，你那儿还有明朝的房子？ 中国有很多老房子国家政府已经把它们强拆咯。 刨了，国家的好吧！ 400年。 紫禁城......... 这栋房子的风水绝对不错，值得考察探究。 简单呀，美国都是按照自己给自己交房租来计算GDP的，就算是你自己的私产，统计GDP时候也相当于你给自己交了12个月房租。 还不拆？ 也就其中几个房子其中大部分都是后期原样重建了只不过做旧看不出来而已 👍👍👍 400年前就有飘窗 我们早就拆了。拆完了再仿一个 这GDP咋上？ 跟贴被火星网友带走啦~ 呵呵 不好意思误拆了，对不起完事 ",
        "Total": 1273,
        "Link": "http://comment.war.163.com/news_junshi_bbs/D6VVTTU4000181KT.html"
    },
    "Article": "【环球网综合报道】据英国《每日邮报》12月27日报道，近日，英国历史学家菲奥娜?鲁尔(Fiona?Rule)在其《伦敦最古老的房屋》一书中介绍了一座名为“41-42?Cloth?Fair”的房屋，它建于403年前，经历过英国内战，躲过伦敦大火和“二战”轰炸，成为幸存下来的瑰宝，现价值550万英镑(约合人民币4829万元)，隐藏在法灵登街里一条保留着中世纪风格的小巷子里。起初，这座房屋是“朗德斯?格林广场”计划的一部分，此计划共包括11座中间带有庭院的房屋，其灵感来源于皇室家族亨利?里奇(Henry?Rich)的朋友，所有房屋于1614年冬天完工，如今只有它是广场中唯一幸存的房屋。随后，1666年的一场大火，让伦敦基本化为废墟，在圣巴塞洛缪大教堂高墙的庇护下，它躲过一劫。“二战”期间，在德军对伦敦的轰炸中它再次幸免于难。自建成后，这座房屋便被租给成功的中年商人威廉姆查普曼(William?Chapman)，他将底层房间改造成酒馆。在19世纪工业革命期间，该房间又被改为餐具厂。到20世纪以后，这座房屋一直作为住宅使用。现在，心理医生马修?贝尔(Matthew?Bell)是它的主人。他在书中提到，“当人们进入这座房子时，一定会吃惊，甚至会有些失望，因为它真没那么宏伟。房间的格局有点像迷宫，总之是需要花点时间来感受它。”菲奥娜表示，直到“二战”后，英国遗产组织才开始珍视老房屋的价值。她希望，人们可以走进书中那些带有故事的老房屋，去感受历史与现实的交融。(实习编译：张柳溪?审稿：朱盈库)本文来源：环球时报-环球网。更多精彩，请登录环球网http://www.huanqiu.com责任编辑：赵亮亮_NN6671"
}