{
    "Source": "Netease",
    "KeyWords": "航母,英国,伊丽莎白女王级,",
    "URL": "http://war.163.com/photoview/4T8E0001/2286748.html",
    "PublishTime": "12/22/201710:25:12",
    "Comment": {
        "Content": "老外把最麻烦需要人力最多的粗大累活给咱干，给一些250乐的够呛够吹10年牛逼的 日不落帝国曾经把人权文明散播到了世界各地，现在仍然在为人类的自由与和平贡献力量。 滑跃起飞也能让你高潮？ 双舰岛要多不方便有多不方便 这牛皮吹的。属于大英帝国的荣光，已经过去100年了。 你个脑残，说燃气轮机技术差距就是“喷自己祖国”？是什么样的脑残教育驯化了你们这群毫无廉耻的东西？！你说“瓦良格”世界无敌，就是“热爱祖国”吗？你是不是精神分裂症啊？！-------你要知道：愚昧不是荣耀，也不是崛起，愚昧是下三滥、是猪，是你身为奴才的必要条件。 管我鸟事，物价油价房价又涨了生存压力越来越大了 大赞，说的对 跟贴被火星网友带走啦~ 漏水？用棉被堵就可以了。 但是君主与国民签订契约，以法律形式确定了国民的权利这一荣光，永远属于英国，不会随着岁月流逝！ 跟贴被火星网友带走啦~ 就F35那个航程，短腿. 伊丽莎白的滑跃台看着真的很low不过是可以拆的，真要买美国的弹射器美国还会不卖吗？当年马岛战争两个都是盟友美国还不是变态支援英国，所以真不要意淫了 那块掉壳的模型吃了多少回扣啊，哈哈 装备的是F35B短垂起降隐形战机。不需要弹射。不过没有弹射不能起飞重型预警机。只能靠直升机无人机预警。 原设计方案里有装备弹射器的，还准备装备f35c，只是大英自有国情在[狗] 是啊，牛逼把船都吹坏了，现在不敢吹了吧，低调了吧 鱼鹰倾转翼预警机正在研发中。 女王的航母一直没有弹射器？ 因为它们没有全民所有制土地可以高价倒卖给它的国民啊～没一点特色！仅此而已。。。呵呵呵～恭喜你笑话英国没钱啊～关键是英国首相没有家丁、打手啊。。。 气急败坏请神诅咒都出来了？呵呵 没有他我们就不能活。。。。。。 下水就是两艘航母，全新革命性动力装置，牛逼啊！-----英帝国告诉你：擅长吹牛逼的土鳖是啥样。 老外把最麻烦需要人力最多的粗大累活给咱干，够吹10年牛逼的 梅中堂：我大英帝国自有国情在，修什么航母？老佛爷的园子还修不修了？ 有人说没有这龙门吊，欧美就造不出航母，老子默默的笑了 英国和美国是爸爸和儿子的关系 米格29K那小短腿都不说话了。 国民的权利，首先是要承认皇室的特权！！！不承认这一条，就没有国民的权利。 呵呵～用着米帝发明的计算机和互联网诅咒抹黑米帝，用着英国人发明的燃气轮机咒骂英帝国日落西山、坐着美英德法日的房车诋毁国际主流社会，广泛贪腐无处不在的一群人竟然高唱马勒隔壁的新时代～真踏麻地是一个精神分裂国度。 没有了美国，美人希们就失去了做狗的意义。 这就是你对做人的理解。 没有某某地球就不会转了 052C型驱逐舰郑州舰在训练中遇大浪，位于舰尾的一个设备舱门被猛烈的海浪冲开，船内进水。两名士兵去关门，结果被海浪瞬间打翻，一名士兵被当场打晕，身受重伤，检查后发现门牙折断，眉骨骨折。当时郑州舰内涌入大量海水，严重威胁航行安全。随后舰上调动大批官兵，一面组织排水，一面用木梁撑住进水的舱门，从视频中可以看到，即使用多人同时撑住舱门，在巨大的浪压作用下，漏水的舱门仍不断撼动，最后损管人员紧急将舱门焊死。 没办法，中国的产品质量好，技术高，销售手段多。 5楼，是不是上海女人都找了洋狗，你也被传染了？？？？ 斜叫那些垃圾港机都是按出售废铁的单位“吨”来卖的~！~一个机器以重量单位出口.....可见其技术含量也就值废铁价了~其中大概还有斜叫想换点$的因素吧O(∩_∩)O哈哈~ 发现一个好玩的楼，拿钱喷自己祖国，天英美，什么样的组织干这种事情？很好奇你们的雇主是谁 尼米兹10艘，没有那个龙门吊照样造出个世界无敌，我也不信没有那个谁屠夫，就得吃连毛猪 一战之前也没人待见美国，所以，还是打铁需要自身硬，努力提高自己的实力吧。 可别添了，35B没有弹射只有半载起飞，和J15一个吊样。还专家，就是没钱好吧！~3个方案，牛牛选择了最便宜的那个而已！~ 行不行，经过海试才知道～另一些造舰国就算是海试出问题，也不会让你知道。差别只是在这里而已，不是航母有没有问题的事情。 英美新加澳是血亲，其他人是比不得的。 什么叫没有中国航母强，人家航母起降效率能比？甲板和机库面积能比？升降机能比？就连被国内媒体黑得体无完肤的F35其实信息化程度比F22还高 沙笔~能吊起的分量沙笔都明白的事还用说么~和你想的正相反~你没看错.就是按照其分量出口的~ 你是不是团伙发帖的？怎么连自己在3楼说的另一个造舰国都喷。 航母有短距隐身战机已经足够。人家有美英同盟、北约同盟，联合对外，凡兵器不一定全套拥有。这跟那些孤家寡人的军备思路肯定有差异啊～遇有战事一起上，米帝11艘核动力航母、舰载机、护航舰队以及战略资源没有不给用的道理。如今，就算这两艘航母，除了米帝，哪家能比？ 没有弹射器，没有弹射器，没有弹射器。除了舰岛科幻，好像没有啥比中国航母强。 帝国主义的空母不是出故障就是有毛病，只有东边儿的大拖鞋是最完美的。。。 是不是上海女人都找了洋狗了，让你也被传染了？？？？ 不能这样说，女王号和辽宁舰一样是滑跃起飞，于是就拼三样东西，机库，甲板，和电子设备。机库和中国新航母相当，甲板面积只有中国航母的三分之二，电子设备更是差一代。 ZPMC振华重工 铁血飞扬看多了。。。 别给济南人丢脸了，我都替你脸红 跟贴被火星网友带走啦~ 把起飞甲板垫高当成滑越式，牛牛是不是跟白象学会了这种特殊技能能--乱改。。。。 呵呵～人家铁杆盟友拥有核动力航母11艘，都是弹射起飞方式啊～你没看见过米英联合演习中英国战机在米帝航母上演练弹射起飞和钩索降落的过程吗？ 一个破仿冒版，就算好，光荣也是属于数列，和中国有毛关系。而英国是自己设计制造，计入很多先进技术 原设计方案里有装备弹射器的，还准备装备f35c，只是大英自有国情在[狗] 电动机没大轴？你在监狱也是蠢出一个高度了。 说了这么多，它航母甲板还是翘的，你这论调不就是虽然我很穷，但我兄弟有钱呀。希望下次马岛战争时英国人能租到美国佬的尼米兹，不然还是从翘翘板上起飞。 你叫服刑中的人翻“墙”？我去，亏你想得出来。 原以为螺旋桨电动了，没想到还用大轴，而且还在漏水，还堵不住。呵呵呵，这我就奇怪了。这是什么破玩意，还两艘，这里面该有多少腐败。 世界各地都是奴隶交易和鸦片战争，这就是人权？ 这牛皮吹的。属于大英帝国的荣光，已经过去100年了。 皇室的权利，一样在契约里规定，国王的权利并不能超出宪法规定之外！一旦超出了，国民就有权利反对这样的国王，废黜甚至处死这样的国王！ 一会又说宪法，一会又说人格魅力，你这洗地洗得很分裂。 你个脑残，说燃气轮机技术差距就是“喷自己祖国”？是什么样的脑残教育驯化了你们这群毫无廉耻的东西？！你说“瓦良格”世界无敌，就是“热爱祖国”吗？你是不是精神分裂症啊？！-------你要知道：愚昧不是荣耀，也不是崛起，愚昧是下三滥、是猪，是你身为奴才的必要条件。 “添”是你说的吧？看清你骂人在先吧？------症制？有钱，德行不一定正义啊，这不是症制吗？座山雕有很多金条，你欢呼个屁呀？你知道啥叫“文盲”？ 你在监狱狗笼里服刑傻掉了吧，电动机没大轴？狱卒教你的？ 可是它还是滑跃的 跟贴被火星网友带走啦~ 你个智障吧35B采用STOVL方式作战半径就是450海里。奸屎撸只有356海里。 不说别的，最牛的发动机是美国和英国的，发动机意味着什么，懂军事科技发展史的都明白。好比一个人心肺功能差，玩什么项目都白搭。 你不犯罪，因为你在监狱狗笼里意淫傻掉了。 全世界都是殖民地和鸦片 你不犯罪，因为你在监狱狗笼里意淫傻掉了。你蛾爹台风尺寸是美的三倍，但载弹量却远不如美的。 女王级是目前除了尼米兹以外放飞和调度能力最强的航母，哪位军盲在那胡扯甲板小。甲板可以把全部40架载机都停下不影响同时起降。B美军都非常满意，除了航程稍差点其他屌的很，起降灵活性更是绝对优势。另外ABC空战没什么区别，B的推力实际最高。实际老美还有取消C用B的计划. 但他还是王，还有特权，还有财产，谁愿意跪谁跪去吧 英国伊丽莎白女王号航母 君主立宪后的国王，特权取决于自身的人格魅力！否则，就没有特权......维多利亚登基前几年，到处都是反对她的人......啥也通不过去......直到她表哥帮她，提出了福利这个概念并实施！ 鬼扯！伊丽莎白女王是英国的！ 竟然也是滑跃起飞 日不落帝国曾经把人权文明散播到了世界各地，现在仍然在为人类的自由与和平贡献力量。 预留了装弹射器的空间，以后可以改成常规起落航母 那又如何，甲板面积小。除了F35其他飞机起降困难啊 美英军工现在是一体化，BAE都把总部搬美国去了，你中有我我中有你，无所谓什么所谓的独立自主，一家人。F35多的是英国的零件甚至代码，武器兼容，有钱一起挣风险一起扛。 女王的航母一直没有弹射器？ 我跟你说军事，你跟我谈政治，文盲不能理解中心思想？？好好看看你1楼自己的帖子！~ 不远的将来，F-35B起飞首先是满载弹药，然后途中使用“黄貂鱼”隐形加油机实施中途加油后再奔赴战场。------三、四代机基本上会被团灭。什么“短腿”？统统那都是瞎扯淡。 滑跃起飞也能让你高潮？ 下水就是两艘航母，全新革命性动力装置，牛逼啊！-----英帝国告诉你：擅长吹牛逼的土鳖是啥样。 英米有情报共享协议，另外英国也有米帝驻军，大西洋还有米帝核动力航母战斗群。只要英米不开战，这俩哥们可以说就是自己一家人啊～这个根本不是酸葡萄整天抹黑的那么烂，信它的那都是猪的智商。 英国是衰落但绝对不是二流强国哈，英国很多核心技术美国都没，美国都要花钱找英国佬买。英国仍然是世界上仅次于美国的第一强国。 有人说没有这龙门吊，欧美就造不出航母，老子默默的笑了 英国和美国是爸爸和儿子的关系 英国双航母时代来了。。伊丽莎白女王号，威尔士亲王号。。 自己竖靶子自己打？这谁说瓦良格世界无敌？是你吗？那你是愚昧是下三滥是猪还是奴才？你是不是精神分裂啊？ 电动机 斜叫那些垃圾港机都是按出售废铁的单位“吨”来卖的~！~一个机器以重量单位出口.....可见其技术含量也就值废铁价了~其中大概还有斜叫想换点$的因素吧O(∩_∩)O哈哈~ 不能这样说，女王号和辽宁舰一样是滑跃起飞，于是就拼三样东西，机库，甲板，和电子设备。机库和中国新航母相当，甲板面积只有中国航母的三分之二，电子设备更是差一代。 西安老狗杂TM的吃饱了猪粪又在做美梦了？TM的全家S绝的狗东西，对着山寨壳子货又在意淫了 它在监狱狗笼要它去屎啊 你不犯罪，因为你在监狱狗笼里意淫傻掉了。 没办法，中国的产品质量好，技术高，销售手段多。 长宽面积你不会算？哈哈哈哈。真蠢啊。 英国反正是美国的跟班，它的航母只会跟着美国航母走，可以靠美军预警。<br>它连护航驱逐舰都省了，加入美军舰队，护航舰也是美军的。 其实法国航母还行，就是有点心脏病，但是起码有弹射器有预警机和阵风，伊丽莎白级就差个预警机，F35B其实秒杀红色阵营任何灰机了 你动力装置牛逼你上电弹啊 西安老狗杂TM的吃饱了猪粪又在做美梦了？TM的全家S绝的狗东西，对着山寨壳子货又在意淫了 滑跃起飞？你好好看看这两艘航母的动力装置吧：全世界只有它！-------你以为这是那艘破裤子的滑跃式起飞的航母吗？！ 尼米兹10艘，没有那个龙门吊照样造出个世界无敌，我也不信没有那个谁屠夫，就得吃连毛猪 确实，没有zpmc他们也能造航母，但是钱要多花很多了 傻逼 你不犯罪，因为你在监狱狗笼里意淫傻掉了。国产狗笼质量太好搞你狗牙都咬断好几颗。 美国英国航母苏联的大型载机巡洋舰法国中型核航母，不比战斗力，各有特色完全自主思维开发思路没有照猫画虎，西方人独立思考能力强，为什么西方人获诺贝尔奖为人类社会进步各自做出贡献 说的好像那些给县太爷和城管下跪的不是你的同胞似的 装备的是F35B短垂起降隐形战机。不需要弹射。不过没有弹射不能起飞重型预警机。只能靠直升机无人机预警。 是啊，牛逼把船都吹坏了，现在不敢吹了吧，低调了吧 造两艘航母壮胆，咦，虽然社会性质不同，但我为什么想到了洋务运动？？？ 就是，自己废铁堆一个，何必大老远去买 天天盯着黑烟，这就不喷了？ 林则徐，晚清第一睁眼看世界之人，给朋友信里说，洋人喜食肉食，用茶来消化，断绝茶叶贸易，西夷皆胀肚而亡。 ZPMC振华重工 皇室的特权，都以宪法的形式规定好了。所谓的民众遵守宪法，不过是遵守皇室的特权而已。 航母连舰载机都没有，训练用的是美国特地给定做的模型，英国也是能搞 相比a和c，b确实差一点，但也绝不是歼15那些货色可比 所以他们为什么报道出来，不懂保密？ 9楼的，两年前柳州机场这里掉下来一架飞机，没掉零件，后来他们说是F22 中国的就是苏联二手舰仿造版，还不会自主设计 日不落帝国曾经把人权文明散播到了世界各地，现在仍然在为人类的自由与和平贡献力量。 滑跃起飞也能让你高潮？ 原以为螺旋桨电动了，没想到还用大轴，而且还在漏水，还堵不住。呵呵呵，这我就奇怪了。这是什么破玩意，还两艘，这里面该有多少腐败。 哈哈哈，拢共就19艘驱护舰，要两艘航母干嘛？航母出海靠游艇护航？ 议会一直要求削减军费，，没钱造不起了。。。 这牛皮吹的。属于大英帝国的荣光，已经过去100年了。 造谣一直都是它们的强项你不知道？ 但是人家说的是事实啊… 不能打脸不能打脸 港独就是英国指使的，香港的港独要判刑全跑英国去了 是不是上海女人都找了洋狗了，让你也被传染了？？？？ 跟贴被火星网友带走啦~ 你不犯罪，因为你在监狱狗笼里意淫傻掉了。 航母有短距隐身战机已经足够。人家有美英同盟、北约同盟，联合对外，凡兵器不一定全套拥有。这跟那些孤家寡人的军备思路肯定有差异啊～遇有战事一起上，米帝11艘核动力航母、舰载机、护航舰队以及战略资源没有不给用的道理。如今，就算这两艘航母，除了米帝，哪家能比？ 哟，那你算算2000万美元一个龙门吊，这个龙门吊是几吨废铁造的？废铁单价200美元一吨贵不贵？ 全文没一个字说是什么故障，你让大家怎么喷？ 那块掉壳的模型吃了多少回扣啊，哈哈 装备的是F35B短垂起降隐形战机。不需要弹射。不过没有弹射不能起飞重型预警机。只能靠直升机无人机预警。 原设计方案里有装备弹射器的，还准备装备f35c，只是大英自有国情在[狗] 是啊，牛逼把船都吹坏了，现在不敢吹了吧，低调了吧 这个美欧日都有，价格贵几倍而已。 你这人渣还是好好坐牢吧，省得一出监就被750撞死。 “拿钱发帖”、“妄自菲薄”？------你听吹牛逼听多了吧？你按下心来查查资料、研究一下英米燃气轮机技术和这项技术在天朝的发展现状，你实事求是结论自然会有。不要拿你愚昧无知在网上炫耀！为啥？啥是燃气轮机你自己都搞球不清楚，还在这凑热闹跟贴？！明着跟你说吧：燃气轮机技术距世界领先水平差距50年！ 女王的航母一直没有弹射器？ 起降效率，哈哈哈哈，英国的起降效率现在是零。航程，是零。甲板面积是中国的三分之二。至于F35，哈哈哈哈。你说的那个飞起来掉零件的东西？ 你妈个老破鞋更完美 英国：美国小弟，以后老大你来当，脏活累活你来干，哥哥我老了。 跟贴被火星网友带走啦~ 有人说没有这龙门吊，欧美就造不出航母，老子默默的笑了 议会一直要求削减军费，，没钱造不起了。。。 准备配合美军作战的，不需要重型预警机 那你说说什么面积算大，你的蠢才倒是蛮大的 国民的权利，首先是要承认皇室的特权！！！不承认这一条，就没有国民的权利。 只要不打仗不威瑟英国的航母弱点无所谓。但对于我们来说，我们的对手是美和俄就不能不飞重型的预警机了。 从澳大利亚进口的铁矿石，加上国内廉价的冶炼和制造再出口，在国外就是赔钱，而国内是赚钱的，这差距在哪？ 你是不是团伙发帖的？怎么连自己在3楼说的另一个造舰国都喷。 老人家要是还活着,看了这,肯定大手一批,指出: 长宽面积你不会算？哈哈哈哈。真蠢啊。 所以他有什么重大故障 铁血飞扬是个啥东东？裘科普 你这么不给它们面子，会被咬九条街的 没办法，中国的产品质量好，技术高，销售手段多。 看军舰上标志，只有英格兰的十字，苏格兰和爱尔兰的标志呢？分裂了？ 明着说吧：一点也不夸张，燃气轮机技术距离世界先进水平差距至少50年。 可能米钱拿。。妄自菲薄的人呢。呵呵 5楼，是不是上海女人都找了洋狗，你也被传染了？？？？ 斜叫那些垃圾港机都是按出售废铁的单位“吨”来卖的~！~一个机器以重量单位出口.....可见其技术含量也就值废铁价了~其中大概还有斜叫想换点$的因素吧O(∩_∩)O哈哈~ 铁血飞扬看多了。。。 尼米兹10艘，没有那个龙门吊照样造出个世界无敌，我也不信没有那个谁屠夫，就得吃连毛猪 一战之前也没人待见美国，所以，还是打铁需要自身硬，努力提高自己的实力吧。 30年后的美核动力航母都拆丢下海了，有没有？ 议会一直要求削减军费，，没钱造不起了。。。 下水就是两艘航母，全新革命性动力装置，牛逼啊！-----英帝国告诉你：擅长吹牛逼的土鳖是啥样。 肯定是锅炉爆炸两死一伤,赶紧断网 重型设备，西方已经停止研发了，只有我们这个基建狂魔还在搞，各种工程太多了。老外因为基建是隐型债务，普遍状态消极。 什么事实啊。没有就说你造不出，造出了就说是山寨，造出了美国没有的就说没用骗经费 我是你老子，你这孙子！另外没有人这么说过，孙子你自己说的！ 梅中堂：我大英帝国自有国情在，修什么航母？老佛爷的园子还修不修了？ 别舔了，直说吧，螺旋桨推进轴吃了多少回扣。^_^ 没有弹射器，没有弹射器，没有弹射器。除了舰岛科幻，好像没有啥比中国航母强。 帝国主义的空母不是出故障就是有毛病，只有东边儿的大拖鞋是最完美的。。。 有啥可笑的？中国人不织袜子裤衩，美帝就茹毛饮血了兹道不？ 呵呵～人家铁杆盟友11艘核动力航母，护航舰艇数百艘，你以为孤家寡人啥都必须自己造啊～你知道现代文明社会重要生产力发展的有效方式之一就是专业分工与协作吗？当然军备技术发展也不例外。------<br>苏修去哪儿了？知道为啥吗？当然，后面还会有。 你母亲被蛾狗炮决不屎，比马桶还强。 别铁杆盟友了，美国有美国的利益，美国人又不为英国人打仗。英国人还不至于像你这么弱智，认为美国的军力就是自己的军力。 不能这样说，女王号和辽宁舰一样是滑跃起飞，于是就拼三样东西，机库，甲板，和电子设备。机库和中国新航母相当，甲板面积只有中国航母的三分之二，电子设备更是差一代。 ZPMC振华重工 孩子，这是你自己再说 😀，30年后还有它吗？ 笑喷了！！！ 中国企业税务大幅高于美国，根据世界银行的测算，2016年中国企业的总税率为70%，美国为44%。<br>2017年特朗普的减税计划主要集中于减少企业税率、降低个人税负。企业税直接从2016年的35%降至20%，个税起征点也提高近一倍（联合早报）。<br><br>英国也准备把企业税收，从原来已经很低的25%再降到15%，所以英国当局没有钱，像下饺子一样的造军舰，英国是藏富于民，英国如此低的税收，英国人享受的福利，却是世界顶尖的，天朝的富豪们，在香港李超人的示范下，疯狂在英国置产兴业。 日不落帝国曾经把人权文明散播到了世界各地，现在仍然在为人类的自由与和平贡献力量。 连鸦片战争都没学过，小学肆业生 滑跃起飞也能让你高潮？ F35B满载不需要滑跳起飞距离是167米，加这个甲板冗余度更大。 这里都是牧羊犬，要淡定 跪的太久了，膝盖疼不？ 給我 按照你的逻辑，你的价格等于你的体重乘以垃圾的单价！ 大赞，说的对 漏水？用棉被堵就可以了。 F35B满负荷起飞也就167米，垂直起飞是75%负荷。 阿黄就是阿黄。 你妈的航公近来好像被骟了 跟贴被火星网友带走啦~ 就F35那个航程，短腿. 引起家丁热烈反响。 老外把最麻烦需要人力最多的粗大累活给咱干，给一些250乐的够呛够吹10年牛逼的 装备的是F35B短垂起降隐形战机。不需要弹射。不过没有弹射不能起飞重型预警机。只能靠直升机无人机预警。 嗯，不敢比技术，不敢比制造。于是出来两张大嘴。至于脸，就完全不要了。 原设计方案里有装备弹射器的，还准备装备f35c，只是大英自有国情在[狗] J-7,J-8,J10,J20,J31，随便派出一架，调打全宇宙 女王的航母一直没有弹射器？ 帝国主义的空母不是出故障就是有毛病，只有东边儿的大拖鞋是最完美的。。。 起降效率，哈哈哈哈，英国的起降效率现在是零。航程，是零。甲板面积是中国的三分之二。至于F35，哈哈哈哈。你说的那个飞起来掉零件的东西？ 第一艘还在窝里爬着呢 物贸说没有这龙门吊，欧美就造不出航母，我竟然无言以对 。。。。不就是没钱凑合的产物，这都能添？？看看其他2个方案，那是什么！~ 两个傻逼，一个在傻笑，一个成哑巴。 下水就是两艘航母，全新革命性动力装置，牛逼啊！-----英帝国告诉你：擅长吹牛逼的土鳖是啥样。 F35的腿是很短。载弹量也少。不过从数据上比中国的J16要先进。谁知道呢，前两天两架F22被一架SU35玩的死去活来。 老外把最麻烦需要人力最多的粗大累活给咱干，够吹10年牛逼的 又尼玛开始吹，还要把美国爸爸带上，美国爸爸都不屌你 F35短腿？那F16等一大批飞机不得哭死 再说白点就和出口的钢材等一众废铜烂铁一样~！~按分量走~ 有人说没有这龙门吊，欧美就造不出航母，老子默默的笑了 双舰岛是很好看，但是不是好用就不清楚了。 哈哈哈哈哈哈，小黄惊慌失措。 双舰岛要多不方便有多不方便 看好，你骂人在先啊～你个杂种艹滴～你这奴才除了骂人能耐，就是过着猪一样的日子！------你主子因为有你们而能持续贪腐几十年，但是也是因为有你们这些蠢货，你主子连一支1963年的“德拉古诺夫”膛线都造不出来！ 斜叫那些垃圾港机都是按出售废铁的单位“吨”来卖的~！~一个机器以重量单位出口.....可见其技术含量也就值废铁价了~其中大概还有斜叫想换点$的因素吧O(∩_∩)O哈哈~ 没有了美国，美人希们就失去了做狗的意义。 看到这些航母，就想到诺亚方舟，也许真的有诺亚方舟的用意？ 这就是你对做人的理解。 起重机他们自己生产不了。 其他两个方案有一个排水量比现在的还小呢 052C型驱逐舰郑州舰在训练中遇大浪，位于舰尾的一个设备舱门被猛烈的海浪冲开，船内进水。两名士兵去关门，结果被海浪瞬间打翻，一名士兵被当场打晕，身受重伤，检查后发现门牙折断，眉骨骨折。当时郑州舰内涌入大量海水，严重威胁航行安全。随后舰上调动大批官兵，一面组织排水，一面用木梁撑住进水的舱门，从视频中可以看到，即使用多人同时撑住舱门，在巨大的浪压作用下，漏水的舱门仍不断撼动，最后损管人员紧急将舱门焊死。 世界上从来都是争霸的，哪有什么民主自由，美国人如果不是老大还不是到处发动战争。 米帝F35短腿？你没看看“黄貂鱼”是干啥用滴～你没想想米英军事专家是干啥滴？ 动力装置比中国落后一代。舰岛雷达比中国落后一代。 你有脸吗？ 二楼在傻笑。 全通甲板，起飞重型预警机还是有可能的 这不是美国人宣传F22的口吻吗？不过，前两天两架F22被一架SU35玩的死去活来。狠狠的抽了个脸 滑跃起飞？你好好看看这两艘航母的动力装置吧：全世界只有它！-------你以为这是那艘破裤子的滑跃式起飞的航母吗？！ f35飞起来是你把他零件扔下来的？人家14006磅燃油带4反舰导弹和4制导导弹以及全部弹药只要600英尺滑跑距离作战半径就能有1019公里，你告诉我这不行？ 唉，现在的小编也是无语了，：“英首艘航母刚爆出重大故障”，多重大的故障？不就是船尾推进器密封不好，每小时渗入200升海水么？小编你只航母有多少蜜蜂隔舱不？这点事对一个造舰工业科技强国也叫个事？那法国戴高乐海试事尾桨都掉了一个，按你这逻辑那戴高乐号直接可以进炼钢厂了.多看看别人的长处，找找自己的不足，中国有句老话：“谦虚使人进步”。对了你要是只会德文和俄文那就没办法了，你可以继续高潮。友情提示提示：“多准备卫生纸，注意身体”. 哈哈，没有中国的油漆刷子，欧美造出的航母也立马生锈。 什么叫没有中国航母强，人家航母起降效率能比？甲板和机库面积能比？升降机能比？就连被国内媒体黑得体无完肤的F35其实信息化程度比F22还高 我代表日落大淫帝国衷心感谢各位小畜们高潮迭起的欢吠！嗯，很好，继续吠。哪天我们那快见上帝的老女王高兴了一不小心就会给你们每窝快递一顶你们狗主子希拉里绿帽子，以作打赏并用此去换点狗粮哦！ 航母有短距隐身战机已经足够。人家有美英同盟、北约同盟，联合对外，凡兵器不一定全套拥有。这跟那些孤家寡人的军备思路肯定有差异啊～遇有战事一起上，米帝11艘核动力航母、舰载机、护航舰队以及战略资源没有不给用的道理。如今，就算这两艘航母，除了米帝，哪家能比？ 是啊，牛逼把船都吹坏了，现在不敢吹了吧，低调了吧 航母是不是自主创新的，看看外形不就好了。 这好像是宣传F22的口吻嘛，结果两架F22被一架SU35爆菊 英帝的潜艇、护卫舰还真都在趴窝 你知道造了多久吗？你知道这航母妥协了什么吗？双舰岛好NB对吧？ 英国最大的失误就是退役海鹞式舰载机。 你有技术？你们除了在网易打嘴炮还能干啥，说说看 ZPMC振华重工 别给济南人丢脸了，我都替你脸红 ENGLISH英语 这速度变太啊， 管我鸟事，物价油价房价又涨了生存压力越来越大了 振华重工每股年利润都不到一毛钱，BAE一股的股息是多少，这就是造吊车和造航母的区别，什么时候振华能造军舰了就牛了。 英国真的这么惨了吗，造了这么大的航母还用滑跃起飞，如果用弹射器，作战性能成倍提升。 ",
        "Total": 2769,
        "Link": "http://comment.news.163.com/photoview_bbs/PHOT25P4S00014T8.html",
        "Reply": 218
    },
    "Article": "英首艘航母刚爆出重大故障二号舰立马下水据英国海军官方社交媒体12月22日刚刚发布的消息称，英国海军第二艘航母，伊丽莎白女王级航母二号舰威尔士亲王号正式下水。作为英国未来第二艘航母，威尔士亲王号非常重要，但是英国并未对该舰下水做过多的宣传。",
    "Title": "英首艘航母刚爆出重大故障 二号舰立马下水_网易军事"
}