{
    "Source": "Netease",
    "KeyWords": "贾跃亭,法拉第未来,圣诞,乐视汽车",
    "Title": "贾跃亭发圣诞祝福，法拉第未来员工集体合影_网易科技",
    "PublishTime": "12/25/201713:02:14",
    "URL": "http://tech.163.com/17/1225/13/D6GL5T3R00097U7R.html",
    "Article": "网易科技讯12月25日消息，一直在美国法拉第未来工厂造车的贾跃亭今天发布微博祝圣诞快乐，配图是法拉第未来全体员工在工厂大楼前的合影。有消息人士向《证券日报》记者透露，乐视汽车中国在冬至当天（12月22日）召开了一次全员大会。会上，乐视汽车公司COO高景深确认了美国FF融资到位的消息，并表示资金已陆续到账，他激励所有员工拼搏创业，实现战略目标。他还表示，FF将实施中美双主场战略，乐视汽车员工将成为FF中国的员工。不过，对于FF融资具体金额及投资人背景，高景深并未在大会中透露。据了解，乐视汽车接近300名的所有员工或将会很快转签FF。此外，火星小说创始人、中汇影视创始人侯小强也发声力挺贾跃亭：“今天在洛杉矶试了FF91，设计、性能，原地打转，加速…堪称惊艳。见了贾跃亭、甘薇，身为创业者，由衷地为他们高兴。期待量产的一天。”本文来源：网易科技报道责任编辑：白鑫_NT4464",
    "Comment": {
        "Content": "相信乐视能够走过困难，走向成功，依然支持 这是不是拉路人有偿拍的，不是就当玩笑了[狗] 你要这样就没意思了。下一个，还有没有贴20的？ 100美元一位，5分钟时间，来到就是赚到，快来踊跃报名参加 至于吗？什么想法！他要是能出量产车，我们应该支持他！ 这是旧照片之前有现场采访老贾工厂的新闻里配过这张图 你给我100美刀，我配合你拍一天 贾总，你把你公司原来前台那个肖婷婷的联系方式给我，你欠我的钱就一笔勾销。 可能是老假的美国老婆被认错了吧 我们这个国家，这块土壤，容不下敢于冒险者，从评论能看出内心狭隘，落井下石，背后捅刀子 不是说没有员工了，一下出来那么多 甘薇不是在国内么？ 30不能在少了 市场就是这样被带坏的，我出三十，要签名哦 甘薇不是在北京吗？ 祝福你圣诞快乐，老贾！期待早日看到FF91 假总顾了不少群演 就这点人就量产汽车？ 不发PPT，改发图了。 我五十就够了，不好意思家里困难，抢个生意 没跑路之前贾跃停那吊样一直都不看好！吹牛的都没什么好下场，京东的刘二手，华伪的余臭嘴都没什么好下场！ 没办法！现在撒谎都不打草稿滴 车不是手机这个是关乎人命的。就假药停这人品他出的车你敢买？ 经常性晒图，发博发圈？？这跟某商很像哦[大笑][大笑][大笑] 美国圣诞节是夏天过吗？ 希望你能感受到我在远方的祝福 没办法大众各种跟风说话不动脑子其实内心是希望贾总能够东山再起的。。。 我不要钱管饭就行 它们出场费应该比我们高吧 一群智障 拍完照的到我这来领盒饭。 贾总的思维广阔而系统，能够纵览全局 给我150就行。我说的是RMB 乐视FF91完爆保时捷，希望早日上市 有盒饭吗？ 不用报道贾跃亭怎么怎么样了，就是个彻头彻尾的骗子，发了个车的照片，还有很多明星说要买一个。艹，骗了钱逃在美国过幸福的生活 又开始下周回国了吗？ 这么多群众演员 明天回国 国家赶紧把他抓回来 能够于假总合照，我倒贴10美金 得，最后那个就你了 看新闻这意思是也跑了 海阔天空-信乐团<br>词：姚若龙<br>曲：JunYoungChoi<br>我曾怀疑我走在沙漠中<br>从不结果无论种什么梦<br>才张开翅膀风却变沉默<br>习惯伤痛能不能算收获<br>庆幸的是我一直没回头<br>终于发现真的是有绿洲<br>每把汗流了生命变的厚重<br>走出沮丧才看见新宇宙<br>海阔天空在勇敢以后<br>要拿执着将命运的锁打破<br>冷漠的人<br>谢谢你们曾经看轻我<br>让我不低头更精彩的活<br>凌晨的窗口失眠整夜以后<br>看着黎明从云里抬起了头<br>日落是沉潜日出是成熟<br>只要是光一定会灿烂的<br>海阔天空在勇敢以后<br>要拿执着将命运的锁打破<br>冷漠的人<br>谢谢你们曾经看轻我<br>让我不低头更精彩的活<br>海阔天空狂风暴雨以后<br>转过头对旧心酸一笑而过<br>最懂我的人<br>谢谢一路默默的陪我<br>让我拥有好故事可以说<br>看未来一步步来了 卧槽，管饭吗？ 值此佳节，祝你全家圣诞快乐 不是有句话嘛：非常现实的一段话：创业后你就活明白了。你会发现，最先买你货的是陌生人；从不买你货的是熟人；最先和你保持距离的是你帮助过的人；最先拒绝给你帮助的是好友；最看不好你的是亲戚。 甘薇是去美国救场的，带着群演去的 有人不希望他回来 贾总加油，支持您。希望您下周八中午12点61分准时下飞机打喷子们的脸[微笑] 一下凑这么多流浪汉也是不容易。 你给我100美刀，我配合你拍一天 腾讯有当支部。 甘薇是自个划船过去的吗？ 希望能够早日看到老贾的PPT91 多少钱一水，求带路 热评居然全是乐视员工or水军or被套者[喷水][狗][微笑] 乖，快点下矿挖煤去，别在这瞎逼逼 为什么不发红色通缉令，把这沙壁抓回来 贾跃亭！成功人士！圣诞快乐！ 甘薇也走了？ 甘薇不是在北京吗？ 香港乐视已经破产了 跑了已经O(∩_∩)O哈哈~ 勾结谁了？有证据？上市资料有问题，是审核部门的问题和上市公司本身能有多大关系了？你审核不严格呀？拖欠供应商工资，融创都收购了，债务问题还没屡清楚么。明知道贾跃亭有问题还让出国，出国后在爆出来问题！是有人压事？还是贾跃亭过于聪明了？现在你手里拿着N多钱，美国有房，有事业，你还请自回来处理债务问题不？这贾跃亭一骗你让买股票，二没骗你投资，东西都投资了，实体也有？你咋抓人家？ 刚说的一人打卡呢？ 没办法！现在撒谎都不打草稿滴 人设已崩，将来有没有人买也是问题了 还有钱请群演啊[大笑] 它们出场费应该比我们高吧 我只想说一句：“有种你回来！” 没人看出后面的楼是P上去的吗？ 红色通缉令，咋发？你说？ 树是绿的还有穿短袖的，美国难道跑南半球去了 原来他老婆也跑了 发的盒饭不好吃，这就是我不在里面的原因 我擦。这都有水军？ 上哪儿找那么多群演啊？ 傻逼，12.30日见 刚一领到去年的水费，评论就活跃起了，纵观前排！ 傻逼 干微去美国收公粮 勾结证监会官员，低门槛上市；内幕交易；恶意骗贷；故意拖欠合作商应付款项，哪项不是 仔细一看，照片不对，现在美国是冬天，照片肯定不是近期在美国拍的 相信乐视能够走过困难，走向成功，依然支持 我不知道这么多支持的人哪里来的？我是真正支持过他的，买了两个电视机，五年的乐视体育会员，和两年影视会员，花了一万多，现在电视机坏了没有售后，会员等于白买。真的很好奇，你们的支持从何而来？难道真有这么多水军？ 乐视FF91完爆保时捷，希望早日上市 快播含笑九泉 这么多群众演员 真的希望贾能翻身 这么多人试车。就没留下一段视频 国家赶紧把他抓回来 下周上市法拉第 乐视网贾骗子成功套现百亿，证监会那帮孙子得负责 图羊图星坡 真筹到钱了，163水军阵势不小 此地无银三百两，但愿是真的吧 不是说没有员工了，一下出来那么多 晕，果然是，左边的那幢楼，明显是P上的啊，这水平。。。。 走着瞧😂😂😂 北美洲穿短袖过圣诞？ 创业者都值得尊敬，别的我不知道反正以前我看足球属乐视最清晰，现在这些播放网站不但收费还不清晰。 骗！！！！ 你们这些二流子，扰乱群演市场，拉出去打二十大板 法拉第未来老板是中国的乐视老板贾跃亭 不包括法拉第未来其实乐视汽车是不是只有几个员工 你给我100美刀，我配合你拍一天 上回看新闻有记者去，不都荒了么……他不看跟自己有关的新闻么… 水军司马 我家买的乐视电视，送了两年会员，现在资源好几个月没更新了，打开乐视影视里面好多电影要跳转到广电的app里面，先要看需要再开会员 不是说没有员工了，一下出来那么多 没跑路之前贾跃停那吊样一直都不看好！吹牛的都没什么好下场，京东的刘二手，华伪的余臭嘴都没什么好下场！ 看来还是有钱的啊水军那么多 二楼，澳洲两千万一张移民票你买不？ 我就好奇老赖 甘微也去美国了！？假药停不可能再回来了 跑路了。。。而且就贾布思现在的名声谁敢给他融资。另外的消息是乐视汽车在美国的工厂还是一片空地呢。 快播之仇不能忘 这招太OUT了。中介死皮赖脸的拉人免费一日游。包吃包喝包路费。拍胸膛承诺。就算帮小弟个忙吧，差点跪下。一车人拉到一大楼门口停下。你们在这休息一下，我去联系用餐。一去人影不见。大家自然的走进大厅，大厅中间有一沙盘模型。闪光灯一闪一闪。明天头条大幅面XX楼盘一开盘疯抢。 骗子 这逼货过的不错啊。 骗！！！！ 关键的是你得量产出来卖，才是真。 ff91一块破的不能再破的遮羞布 还在继续骗？还有人信？ 希望这一切都是真的 甘薇不是在北京吗？ 消息称乐视汽车将从本月开始停发中国员工四个月工资 逃出去了？ 移民 水军多的，就算车造好了还有人敢买吗？企业最重要的是诚信，靠ppt套现的上百亿，车造好了万一哪天跑到哪里去了找谁去？ 已经不是乐视汽车了，是美国人贾跃亭自己的ff。与中国无关。 没办法大众各种跟风说话不动脑子其实内心是希望贾总能够东山再起的。。。 祝福你圣诞快乐，老贾！期待早日看到FF91 前几天还只有一个看门的，一下子就招募了300勇士，假总真假[微笑] 近则嫉，远则羡，说通俗点知道你过得不好我就安心了 说的太对了 参加一个合影活动，我领取100美金，还有便当，美滋滋。 相信贾总，相信梦想！ 这得请了多少水军，PPT你们也信，高位减持骗钱怎么说，下周回国怎么说[微笑][窃笑][惊讶][喷水][狗] 蔚来发来贺电 美国群演比国内的贵多少？ 苹果都早不出来，你融的几个钱能早啥，这么高端的车光生产就得投个千把亿的，那还得两年才能量产。 祝福你圣诞快乐，老贾！期待早日看到FF91 牛掰 我们这个国家，这块土壤，容不下敢于冒险者，从评论能看出内心狭隘，落井下石，背后捅刀子 号外，号外，黑中介，我爱我家，诈骗购房款，拒担责，不赔一分钱，说“我们有法务”。买房租房的朋友注意了，别上当受骗，详情见微博“杯子9527”，现在房东急过户，要我们赔违约金，我爱我家不管。求大家转发，传播正能量。跪求大家，我现在该怎么办？ 这货老赖名单撤了吗？ 你可以到网上查找节日祝福来查找,希望采纳,谢谢 现在看到媒体新闻，不知道哪篇真哪篇假。媒体的能力就是强，也许只有里面工作的人才知道到底什么是真什么是假 希望蔚来也越做越好 的确如此！世界上最难测的就是人性！ 配合孙演习，就等乐视复牌 (⊙o⊙)哇好多人去兼职诶 有意思吗？正常的评论就来这个 上市祸害人命？油门踩下去松不了，按喇叭雨刮器动？踩刹车亮大灯？开双跳自曝？ 是法拉第未来员工吧。。。 果然赚钱不能有良心 可能是老假的美国老婆被认错了吧 回国不 真希望他能成功！死地而后生才有意思。 所以说，这就是不还供应商钱的理由？ 厉害👍👍👍👍，还在坚持。 还是有希望，快点贾总！ 看到马化腾举报快播我记得你已经不再那么讨厌希望你用实力删喷子脸 甘薇不是在北京吗？ 国外的群演也供盒饭么？ 值得人佩服，不用出钱做广告，天天可以免费上头条，全世界刷存在感 一楼反讽你们都看不出来。啥智商 水军真特么多 又你妈在做秀了，真给俺们山西人丢脸呀…… 请问发一帖多少钱？去哪领钱？ 呵呵 法拉第的未来员工！贾总估计已经没有未来了！ 乐视FF91完爆保时捷，希望早日上市 话说白了，就是劣根性 主要是你这个公司才几年？别的公司几年？你用了这几年搞了别人那么多年没干的事，不搞你搞谁 上次不报道，只有一把绣锁锁门，里面两个不懂英语的西班牙人？ 贾总请这么多人破费了 甘薇牛逼 真佩服这种心里素质和不要脸的精神！ 没办法大众各种跟风说话不动脑子其实内心是希望贾总能够东山再起的。。。 你开过么？ 哈哈哈 还是拖延时间，还有傻逼相信， 就说，之前这些事，就算完了？车造的成，造不成，国内这些事，就没说法了？违规吗？违法吗？都没事，那我们之前批评他打击他干嘛？合着全国都吃饱了撑的。太特色了。 美国群演什么价位？ 快说啊楼上的，哪里报名 一个骗子活的这么好，很符合我国国情，很欣慰 创业者的艰难，刘强东，马云，如果没有别人的风险投资，他们会成功吗？我相信贾跃亭如果有足够的钱，一定可以成功，你们这些人，看见大佬成功就天天捧，看见失败的就落井下石，幸灾乐祸，一个个都什么心态 甘薇也去洛杉矶了？？？ 带我一个啊怎么报名本人有五毛经验善于颠倒黑白 甘薇在美国的西海岸？ 赶快把sb老美骗破产。谢了贾跃亭 又是什么虚头 加油 我们这个国家，这块土壤，容不下敢于冒险者，从评论能看出内心狭隘，落井下石，背后捅刀子 假药停是在示威啊，哈哈哈 性福人生，造假开始 理想中的未来是美好的，现实是非常残酷的[车珠子] 贾总应该真融到钱了，最近的水军比前一段时间活跃多了 我就不明白，贾跃亭你们凭什么看不起他，他很努力，之前乐视做的很好，做汽车怎么了，别说贾跃亭了，就是一汽红旗投资那么多少也没把车造的让大家满意啊，那可是五百亿啊。相信贾跃亭能成功， 评论被屏蔽了我试试这词爱国贼？？ 你要这样就没意思了。下一个，还有没有贴20的？ 老贾牛 曹尼玛，曹尼玛，曹尼玛，曹尼玛 跟微商没什么区别了 跟上次那个现场照片是天壤之别，谁真？ 为啥把车挡起来 你给我100美刀，我配合你拍一天 贾跃亭老婆可以出境？不是说限制出境吗 一盘大棋哦，，， 不是说没有员工了，一下出来那么多 100美元一位，5分钟时间，来到就是赚到，快来踊跃报名参加 不仅ppt无人能敌，ps也是独领风骚 麻痹！这是一个畸形时代，有钱就是爷，如果成了，你麻痹放个屁都是经典，如🐎某人，如果败了，你麻痹就是臭狗死，如假💊停！我们不要去责怪世态炎凉，因为麻痹破产与吃瓜的群众无关，只与投肉者有关，与水军赚钱有关，一句话与利益有关！其他就是吐几吐沫！ 市场就是这样被带坏的，我出三十，要签名哦 甘薇不是在北京吗？ 都有记者去他工厂了，到处都是蜘蛛网，荒芜 不发PPT，改发图了。 这点人要做汽车……… 不发工资，秘书跑了，没人给做屁屁涕了 没办法！现在撒谎都不打草稿滴 乐视FF91完爆保时捷，希望早日上市 多少钱一次 甘薇什么时候从北京去的洛杉矶？现在的有些人，说话还能要脸么。 神经兮兮的，人家圣诞节放假谁上班啊，就像我们这的大年初一…真不容易啊 去年的吧？ 老贾又雇的起水军了，好现象 哈哈，看明白的没几个。。。话说老外圣诞节放假是雷打不动的，早多少天就放假了 美国圣诞节是夏天过吗？ 找了半天的，没找到贾跃亭 希望你能感受到我在远方的祝福 信不信随你，反正我不信！ 请群演不花钱吗？ 讲真，抛开其他的不谈，老贾真的还是挺牛B的 这么多群众演员 就这点人就量产汽车？ 欠的钱什么时候还？ 你们能过去再说，都在这满嘴跑火车！ 我就说我看好你，下周回国先把钱还了吧！ 有盒饭吗？ 美国群演 贾跃亭加油啊！坚持下去！能成大事者都是疯子！ 成功是努力的结果！支持FF91 看来咸鱼翻身最根本的一条是要学会当老赖！中国人向来只认有钱人 呃，这个，不好意思啊，现在我兑不到美刀，20软妹币行吗？ 传奇 老贾：来，我给大家唱一首《我们不一样》 估计老贾这辈子都不敢去日本了，仇家那么多，反正就20年。 写小说的 快要成功了 我也愿意资助甘薇！无偿的，身体需要也可以 FF91我昨天在街上见到真车了真拉风 贾总下周回国吗快18年了啊 相信乐视能够走过困难，走向成功，依然支持 100元买不了车买不了房买不了姑娘做新娘…耳边响起了卖菜刀的大爷在集市上的单口相声…哈哈 100美元一位，5分钟时间，来到就是赚到，快来踊跃报名参加 美国58同城兼职模块最新兼职，拍合影2小时100美元 乐视FF91完爆保时捷，希望早日上市 贾跃亭神出鬼没，连他的员工都是神出鬼没 你给我100美刀，我配合你拍一天 贾总，你把你公司原来前台那个肖婷婷的联系方式给我，你欠我的钱就一笔勾销。 多读书不会错，真的，首先无人驾驶技术并不是这世界上任何一家公司发明的，他最初来源于美国大学的教授学生研究项目，后得到美国国防先进研究局的资助，才得以被企业所关注，再有企业注资独享或共享的状态下组织大规模研发投入最终实现量产面试。 药店碧莲吧 没办法！现在撒谎都不打草稿滴 原地打转 甘薇不是在北京吗？ 放错板块了 乐视薯片还是不错的 看看啦 虽然乐视不是他的了，可不知道为啥，还是希望他成功，这样我的20年会员可能还有点用，不然啥用都没有了 风生水起啊到底是谁投的钱这么不怕风险 对呀，这也是我的疑问，贾总全家不是都在北京吗 都是演员 刚骗到10亿刀，请这点人算多吗？ 恭喜贾总三个月造新车？ 骗了坑了那么多人，还都是信任他的人，拿那种钱会心安吗？都是要还的。<br>不羡慕。 他不是搞互联网的。高互联网的造车都不错，Google，Baidu，无人驾驶汽车。 我倒是希望贾跃亭的汽车能成功。这种在别人落难时刻落井下石和嘲笑别人的人，我们生活中最痛恨但是我们又有多少人正在扮演这样的角色呢？ 看来真的融资了，大家看，水军又开工了！ 看来工厂的人还是挺多的！[喷水] 经常性晒图，发博发圈？？这跟某商很像哦[大笑][大笑][大笑] 可能在美帝的土壤涅槃重生吗？ 一个搞互联网的，没技术底韵就去造车本就是个笑话。还有就这两天常见面的蔚来，牛都吹上天了，在我看来就是个狗屁！ 甘薇要是还能随随便便出国那真是日了狗了··· 据了解，乐视汽车接近300名的所有员工或将会很快转签FF。<br>转签完立马裁员工龄归零妙计 农民也会英语了 100人民币我就来 甘味也去啦。这下都安全着陆了 嗯，仅此一辆 这么多群众演员 贾总的思维广阔而系统，能够纵览全局 这都招的群众演员吧 哪里来的群众演员 给我150就行。我说的是RMB 十年之后能造好吗？ 老赖帽子下了么 一年乐视会员就这么嚣张，婷婷毫毛都别想碰。 一群傻逼人家不会动啊看她老公不行吧 FF91能驼着一头牛飞上天，保时捷可以吗？ 甘薇也跑路了啊 看来真的融资了，大家看，水军又开工了 贾总搞什么互联网，专注ppt30年 煞笔 风生水起啊到底是谁投的钱这么不怕风险 老贾好好玩！！😹😹😹 牛逼，假总要挺住啊 不是说没有员工了，一下出来那么多 有消息人士向《证券日报》记者透露这个消息我不知道，到这个证券日报记者肯定是贾丽😂 ",
        "Reply": 463,
        "Link": "http://comment.tech.163.com/tech_bbs/D6GL5T3R00097U7R.html",
        "Total": 12767
    }
}