{
    "URL": "http://news.163.com/17/1228/20/D6P51JSC0001875P.html",
    "PublishTime": "12/28/201720:13:26",
    "Article": "（原标题：灯下黑！男子入室盗窃61万元竟将57万藏在案发地待风头过后来取）12月19日，云南昭通威信县公安局刑侦大队成功破获了一起特大入室盗窃案。蹊跷的是，男子盗窃61万现金后，竟将57万藏在案发地。监控显示，12月8号晚上8点01分，一名身穿黑色外套的男子走在街道上，随后男子在街对面驻足观察，便进入了对面的居民楼里。半小时后，男子背了一个背包离开了。第二天，警方接到报警，称一居民楼四楼的一间出租房门锁被破坏，屋主放置在简易衣柜里的60多万现金及一些财物丢失。接警后，警方根据监控锁定了嫌疑男子。12月14日，迫于压力，嫌疑男子吴某向公安机关投案自首。可是，吴某却只上交了4万多元现金，以及镀金项链等财物。经民警审讯，嫌疑人吴某进入出租屋，发现屋主藏在简易衣柜里的大量现金后，为了避人耳目，他先拿走了其中的4万多元现金和香烟、镀金项链等一些财物，剩下的57万元现金被他用两个胶袋装起来藏在了床底下，打算等风头过去了再去取，结果被警方全城追缉。目前，吴某已被刑事拘留，案件正在进一步办理中。本文来源：看看新闻Knews责任编辑：赵亚萍_NN9005",
    "Comment": {
        "Link": "http://comment.news.163.com/news_shehui7_bbs/D6P51JSC0001875P.html",
        "Total": 757,
        "Reply": 78,
        "Content": "这个案值怎么算？🤣🤣🤣 那这个量刑是按4万还是按61万? 如果是偷贪官家的，根本没必要提心吊胆，直接花了就是，没人会报警的 应该按4万。第一他并没有拿走余下的钱，即使他打算分两次盗取余下的钱，但由于公安机关的介入并没有得逞属于未遂！ 61万，如果他说害怕，没敢拿那么多，就把钱还放在她家了，那就4万算，论懂法的重要性，哈哈 如果是正常官员，谁会没事放60多万在家？不过这家伙敢报警，应该不是当官的。 镀金项链？这么多钱买不起金项链吗，可能镀金项链骗女人吧 长点儿心吧。 最多也就5年 长点儿心吧。 这算巨额吗？人家没拿走私 二种罪名：一．4万是盗窃罪，二，57万是盗窃未遂罪 没有拿走不算偷吧[惊讶] 我也想问 出租屋这么多现金，卖白粉的吗？ SB一个，没做好准备就不要犯罪，我和搭档出来都两个多月了也没碰到过大货，愁死了，保险柜都没见过，有准备的人就是碰到上百万也会毫不手软的拿走， 请把“贪”字去掉。 你挪动了就算盗窃，当然按照61万算，床底下不过是藏匿点 要不就是养小三的！ 如果是偷贪官家的，根本没必要提心吊胆，直接花了就是，没人会报警的 这是个老司机，先拿几万用着听一下风声，结果不是官人的， 如果是正常官员，谁会没事放60多万在家？不过这家伙敢报警，应该不是当官的。 61万，如果他说害怕，没敢拿那么多，就把钱还放在她家了，那就4万算，论懂法的重要性，哈哈 这算巨额吗？人家没拿走私 关键一分钱还没发 南京法官表示不喝酒也能糊判 看给👮多少了 我也想问 [被黑][被黑] SB一个，没做好准备就不要犯罪，我和搭档出来都两个多月了也没碰到过大货，愁死了，保险柜都没见过，有准备的人就是碰到上百万也会毫不手软的拿走， 请把“家”字去掉。 57万并未脱离原占有，只能算未遂 就偷了4万，要是判61万，这人要哭了，哈哈😄 狗血的初中同学聚会，切，破鞋会。原莆田三中（新县）的陈礼f和陈赛h这对狗男女，借同学聚会、在其他校友起哄怂恿下勾搭成奸。陈礼f道德败坏，公开宣淫陈赛h时，又与另校友XX萍姘居，还骗取陈赛h家财。陈礼f这没人性的来自山沟里的畜牲比某些都市痞子更加肮脏邪恶… 传销的 4万即遂，57万未遂 年关了，大家防火防盗吧 61万，如果他说害怕，没敢拿那么多，就把钱还放在她家了，那就4万算，论懂法的重要性，哈哈 应该按四万吧 我也这么做过，不过钱是我家的[微笑] 出租屋这么多现金，卖白粉的吗？ 61万，他到手61万，他只是把他藏起来了，主观是想占为己有的，一定按61万算，但看到情节量刑会低点，但也达到了数额巨大了。<br>如果他说害怕，没敢拿那么多，就把钱还放在她家了，那就4万算，论懂法的重要性，哈哈。 关键看法官审案时有没有喝酒，还有就是心情好不好？ 等房价涨上去了，然后 这是一个有想法的小偷拿这钱买房 这孩子也傻，咬死就是拿四万不就行了 楼上三位直接拉出去枪毙 这小偷很有创新精神 应该按4万。第一他并没有拿走余下的钱，即使他打算分两次盗取余下的钱，但由于公安机关的介入并没有得逞属于未遂！ 61万，如果他说害怕，没敢拿那么多，就把钱还放在她家了，那就4万算，论懂法的重要性，哈哈 。。 藏在案发地，卧槽~这应该怎么算，算你们没找到？ [被黑][被黑][被黑] 好一个无关不贪 [被黑][被黑][被黑] 按4万元量刑，余下57万只是挪了地方并未失去控制 [被黑][被黑][被黑] 未遂57万 没有拿走不算偷吧[惊讶] [被黑][被黑][被黑][被黑] 本大法官表示：那得看他背景如何了……[狗][狗][狗] 那这个量刑是按4万还是按61万? 这都被抓了你不是在用嘴放屁吗 额你说呢 请把“贪”字去掉。 几十万该报还得报，要是偷几千万估计就不敢报警了。 医生家也是 没脑子 61万，因为盗窃已成既遂！ 贪心不足，如果只拿走4万，失主肯定想不到是被盗 偷东西的农民才是好人？ 61万量刑 全部接触过当然按全部金额量刑、南京法官定律 喂，妖妖零吗 这个案值怎么算？🤣🤣🤣 如果是偷贪官家的，根本没必要提心吊胆，直接花了就是，没人会报警的 你能进狗官家去算你牛逼！ 也可能是被骗买了假货了 想多了 长点儿心吧。 看图编故事系列 蠢贼一个。 长点儿心吧。 是该说你笨还是说你笨呢。 镀金项链？这么多钱买不起金项链吗，可能镀金项链骗女人吧 反侦查能力不够强 那这个量刑是按4万还是按61万? 我晕，真是个奇葩 会不会是领导的小三家 给了它发财的机会，没有把握好 最危险的地方最安全。 出租屋这么多现金，卖白粉的吗？ 当然按大的算了，四万屁都不是，六十万可是可以立功的 智商 哪个功劳大按哪个算！ 假的 "
    },
    "KeyWords": "案发地,盗窃,现金,居民",
    "Title": "男子入室盗61万现金 将57万藏案发地待风头过后取_网易新闻",
    "Source": "Netease"
}