{
    "Article": "电影网报道孙楠曾经历过两次婚姻，他和第一任妻子买红妹于2000年结婚，婚后买红妹放弃事业，为孙楠生下了一儿一女。然而，这段在当时传为佳话的婚姻并未能维持长久，2009年3月两人协议离婚。2009年底，孙楠与旅游卫视主持人潘蔚结婚。潘蔚1969年出生于安徽，先在安徽阜阳担任播音员，后在珠海电视台、安徽卫视担任主持工作。旅游卫视开播后，潘蔚成了第一批节目主持人，并从2004年开始主持高尔夫球节目，国内主持过英国公开赛、美国公开赛、美国名人赛三大国际高尔夫赛事。长春国贸看到曾有爆料称，热爱打高尔夫的孙楠正是在某次高尔夫比赛中与潘蔚结识，彼此投缘最终走到了一起。2011年9月，潘蔚为孙楠生下了一个可爱的女儿。潘蔚早前在接受采访时被问及孙楠最吸引她的地方是什么？潘蔚回答，因为孙楠单纯、阳光，能带给人快乐。作为一个靠自己形象吃饭的歌手，他难道不知道离婚对他意味着什么吗？他难道不知道这会对他的事业造成影响吗？他难道不知道他的公众形象会因此受到多大的伤害吗？他知道，但他仍然娶了我，这点让我对他很仰视。本文来源：电影网责任编辑：宋玉鑫_NK6612",
    "PublishTime": "12/30/201706:41:37",
    "URL": "http://ent.163.com/17/1230/06/D6SRCI9200038FO9.html",
    "Comment": {
        "Content": "我怀疑你从小的美术老师对你对美的熏陶和影响！ 买红妹出轨导致离婚 现在是俩熟猪头，简称猪头对决 这绝逼是真爱 从离婚到结婚挺麻利的[挨揍]。居然没找个小20的， 孩子都不要了，畜生 但这个女的看着挺端庄大气的 渣男 能这样对一个无过错的前妻也会对下一个你的。时间问题或者老了折腾不动了 也许遇到过什么挫折 好好唱老鼠爱大米不好吗？ 孙楠自己一付丑相 靠形象吃饭的歌手…… 中国乃至世界最丑和最装逼的歌手！ 小三上位？ 神似巩新亮 渣男，吃软饭的 好好的跟董小姐激吻不好吗 董洁真是瞎了眼 美女 真恶心 这么老跟他妈似的 当红？谁看过她主持的节目… 没买红妹好 和买红妹真像 从五官和脸型典型的江南美女，2楼问问你父母去你的审美教育缺失了，<br>69年出生现在也是49岁了， 并不是男人都喜欢年轻貌美的 看起来很朴素，看来是真爱啊 小3！这是洗白文！ 赞同！看过这个女的微博，虽然是长得不算漂亮，但是气质很优雅！是一个很懂得生活的女人！ 说实话，长得比买红妹还老，也没多突出，可能王八瞅绿豆了 熟女爱好者 长相端庄清雅，气质如书卷、如兰香，岂是买红妹之俗能相比。就事论事，不喜勿喷。 也许床上功夫好呢 渣男 看照片他俩有点夫妻相 结婚就是搭伙过日子，过得来就行 有人 女的嘴巴是歪的、一看就是小三。 人家经验丰厚知道哇 我怀疑你从小的美术老师对你对美的熏陶和影响！ 现在是俩熟猪头，简称猪头对决 责任编辑：宋玉鑫_NK6612，标题狗？最爱老公哪点啊？ 好好唱老鼠爱大米不好吗？ 靠形象吃饭的歌手…… 神似巩新亮 渣男 真恶心 当红男生组合.....哪个是你最爱..... 没买红妹好 从五官和脸型典型的江南美女，2楼问问你父母去你的审美教育缺失了，<br>69年出生现在也是49岁了， 看起来很朴素，看来是真爱啊 赞同！看过这个女的微博，虽然是长得不算漂亮，但是气质很优雅！是一个很懂得生活的女人！ 长相端庄清雅，气质如书卷、如兰香，岂是买红妹之俗能相比。就事论事，不喜勿喷。 但这个女的看着挺端庄大气的 你真有才。真都能成美女。 孙楠十足的傻逼，垃圾一个 人家经验丰厚知道哇 买红妹出轨导致离婚 能这样对一个无过错的前妻也会对下一个你的。时间问题或者老了折腾不动了 当红？谁看过她主持的节目… 孩子都不要了，畜生 渣男 也许遇到过什么挫折 孙楠自己一付丑相 得此一妻,此生无憾! 中国乃至世界最丑和最装逼的歌手！ 小三上位？ 渣男，吃软饭的 好好的跟董小姐激吻不好吗 董洁真是瞎了眼 美女 小编是不瞎 这么老跟他妈似的 和买红妹真像 喜欢他的淡定....有经历的男人... 好好唱老鼠爱大米不好吗？ 说实话，长得比买红妹还老，也没多突出，可能王八瞅绿豆了 小3！这是洗白文！ 熟女爱好者 也许床上功夫好呢 看照片他俩有点夫妻相 结婚就是搭伙过日子，过得来就行 有人 辛欣呢？王大治 女的嘴巴是歪的、一看就是小三。 并不是男人都喜欢年轻貌美的 这绝逼是真爱 从离婚到结婚挺麻利的[挨揍]。居然没找个小20的， 把婚内搞破鞋都能写得这么高尚也只有小编的才华了！ 老婆面相看着挺贤惠的，孙楠看着是坨屎啊 说实话，长得比买红妹还老，也没多突出，可能王八瞅绿豆了 孙楠 小三有什么好捧的，那么，小编祝福你爸给你找个小妈。 第一张照片没有美图修修一下 又看到王治郅的新闻 ",
        "Link": "http://comment.ent.163.com/ent2_bbs/D6SRCI9200038FO9.html",
        "Total": 922,
        "Reply": 55
    },
    "Source": "Netease",
    "Title": "孙楠48岁妻子曾是当红主持人 最爱老公这点_网易娱乐",
    "KeyWords": "孙楠,买红妹"
}