{
    "Title": "男子禁空区放烟花表白致航班延误？天津机场辟谣_网易新闻",
    "URL": "http://news.163.com/17/1229/14/D6R5E8GE000187VE.html",
    "Source": "Netease",
    "Article": "（原标题：放烟花表白致航班延误？天津机场称系误传）@北京青年报图@北京青年报12月29日消息，28日晚10时许，位于天津滨海国际机场西侧的中国民航大学北院19号公寓前突然燃起了烟花，北京青年报记者从目击了事情经过的该校学生那里了解到，当时是有一名男子燃放烟花向住在19号公寓的一名女生表白，而燃放烟花的位置距离天津滨海国际机场的跑道只有300米左右的距离。烟花燃放后不久，天津滨海国际机场的进出港航班信息显示，有多趟进出港航班出现了延误的情况。29日上午，北青报记者电话联系了天津滨海国际机场宣传部的工作人员称，他们表示在28日晚上确实有多趟航班延误，但属于正常情况下的延误，并不是由于网上所传的“民航大学里放烟花一事”所导致。该工作人员同时表示，28日在机场附近确实有人燃放烟花，机场方面也已经联系过民航大学，了解后得知是一名社会男子为了追求该学校的学生，才去校内放的烟花，“虽然不是烟花使航班延误，但是燃放烟花的位置确实属于禁空区。”多趟航班延误本文来源：北京青年报作者：付垚刘思佳责任编辑：李天奕_NN7528",
    "PublishTime": "12/29/201714:50:00",
    "Comment": {
        "Total": 72,
        "Content": "北19是空乘专业的宿舍楼 烟花:打飞机都不行啊 深层次的想一想这名女学生是如何结识这名社会男子的呢 不是我们学校的，是外校的追着表白表到这儿来的 直接说放烟花把飞机打下来了多震撼。一天天没事找事。放烟花影响飞机。一听就扯淡。[微笑][微笑] 这是正宗的要打飞机了。[微笑][微笑][微笑] 放烟花，哇塞，我就想问表白成功了没哟？ 威胁航空安全，本身还民航专业，这样的学生应该开除 雾霾的原因吧？还没散呢。 北19是空乘专业的宿舍楼 雾霾的原因吧？还没散呢。 烟花:打飞机都不行啊 你去机场附近试试去，看看能不能打到进场的飞机。 只能说咱们的空乘姐姐太棒了！！！[狗] 😱 这是正宗的要打飞机了。[微笑][微笑][微笑] 哦哦哦 做这样的事情，真的不好的哦. 做个调查物，价油价房价上涨工资不涨感觉生存压力越来越大的点支持 受浮沉天气的影响,今日喀什航班均有不同程度的延误!请广大旅客耐心等待! 放烟花，哇塞，我就想问表白成功了没哟？ 不是我们学校的，是外校的追着表白表到这儿来的 百度(毛卑零），就明白大幂幂为什么会火，不知道被多少个名导给潜了，那里真的是黑，去瞧瞧 直接说放烟花把飞机打下来了多震撼。一天天没事找事。放烟花影响飞机。一听就扯淡。[微笑][微笑] 百度(姚漫奴），就明白大幂幂为什么会火，不知道被多少个名导给潜了，那里真的是黑，去瞧瞧 鍾國四大垃圾，煙花爆竹，短髮文化，香煙拜神，傳統思想。 威胁航空安全，本身还民航专业，这样的学生应该开除 深层次的想一想这名女学生是如何结识这名社会男子的呢 ",
        "Reply": 19,
        "Link": "http://comment.news.163.com/news2_bbs/D6R5E8GE000187VE.html"
    },
    "KeyWords": "表白,烟花,机场,天津"
}