{
    "Comment": {
        "Total": 2,
        "Reply": 2,
        "Link": "http://comment.tech.163.com/tech_bbs/D77FU0GO00097U7T.html",
        "Content": "骨骼支撑身体.肌肉保护骨骼 啥时候造高达 "
    },
    "Title": "设计极为精密！日本造重现人类肌肉骨骼的机器人_网易科技",
    "KeyWords": "机器人,肌肉,日本,资料",
    "Article": "（原标题：设计精密！日本造出重现人类肌肉骨骼的机器人）据《日本经济新闻》报道，日本东京大学教授稻叶雅幸等人开发出再现日本人骨骼肌肉构造的机器人。机器人各部位的肌肉和骨骼长度与日本人的平均值几乎相同。除了脸部和手部以外，这款机器人有114种关节的活动方式，可以模拟人的姿态和动作。由于可以通过该机器人进行动作解析和运动评估，因此其可被用于运动和康复训练方面的研究。这款机器人名为“腱悟郎”，身高167厘米，体重56千克，参考了日本男性的平均身体数据。骨骼采用铝、碳纤维材料，肌肉采用化学纤维材料的弹性弦。通过马达缠绕弹性弦模拟肌肉活动，机器人上搭载的传感器还可测量施加到弹性弦上的力量。和日本人的身体数据相比，机器人各部位的肌肉和骨骼长度只有1%左右的差别，重量比人类重约16%。机器人可以模拟人体约39%的肌肉种类。除了使小指头活动的肌肉等细微部位外，重现了人体的大部分肌肉、骨骼。由于可以测量施加到各部位肌肉上的力量，因此这款机器人可用于解析运动。而现有的测量肌电位等解析方法难以进行详细调查。本文来源：环球网责任编辑：侯维铖_NT4124",
    "URL": "http://tech.163.com/18/0103/09/D77FU0GO00097U7T.html",
    "PublishTime": "01/03/201809:53:04",
    "Source": "Netease"
}