{
    "Title": "云南4男童烤火身亡 父亲:临走前叮嘱过要开窗透气 _网易新闻",
    "URL": "http://news.163.com/17/1229/16/D6R9GRT40001875P.html",
    "Source": "Netease",
    "Article": "（原标题：云南巧家县“4男童烤火身亡”父亲：临走前叮嘱过要开窗透气）新京报快讯12月25日中午，人在昆明的陈才本收到家乡派出所的电话，说留在家里的4个孩子“出事了”。新京报此前报道，2017年12月24日晚，云南省巧家县包谷垴乡青山村青山梁子社，一户陈姓人家的4个孩子在家烤火，因门窗关闭严密，空气不流通，导致疑似中毒，4人全部死亡。陈才本是这4个孩子的父亲，事发前，他正在昆明看望被拘留的长子。事发后第五天，陈才本用操办后事的忙碌，来麻痹自己。在接受新京报记者采访时，陈才本说，几个孩子平时“听话得很”，自己出门前特意叮嘱，烤火时要开窗透气，“一直到现在，都心乱得很”。“平时不会把火盆端进屋里”新京报：还在处理孩子的后事?陈才本：几个孩子今天下葬了，还有一些人来家里看我，主要是忙一些后事。新京报：平时你和爱人都在家里?陈才本：我们就是农民，身体都还可以，平时都在家里种地，也照看4个孩子。新京报：为什么出事时，家里会没有大人?陈才本：我家大儿子今年18岁，在昆明打工。上个星期五，接到昆明官渡公安局的电话，说他“抢劫”了，关在看守所里，我们夫妻就到昆明去看他。新京报：临走之前跟孩子叮嘱过什么吗?陈才本：主要交代了一些家里的事情，还有就是烤火要注意。去昆明那几天，天气坏得很，冷，我们这边取暖一般是靠烧木炭，我提醒他们要开窗通风。新京报：孩子听到后什么反应?陈才本：听到就说知道了，我们以前烤火都不会在睡觉的地方烤，不会把火盆端到房间里。“现在心乱得很”新京报：家里房屋的格局是什么样的?陈才本：房子是地震后修的，借了几万块钱，两个房间。平时我们夫妻一个房间，几个孩子在另一个房间住，4个人睡一个房间。新京报：几个孩子都是多大年纪?陈才本：老二是11岁，老三9岁，老四8岁，老五才4岁，几个人平时都听话得很。新京报：什么时候知道家里出事了?陈才本：这个星期一，我联系家里联系不到，就打电话给学校老师。结果老师说，几个孩子都没有来上课，问了邻居，也说没见到人，后来就报警了。家里的门打不开，是派出所开的门。那天中午11点多，派出所给我打电话，说孩子出事了。新京报：当时就往家赶了?陈才本：坐了五个多小时的车，从昆明回家，但是已经晚了，几个孩子都不在了。新京报：现在家里还有什么需要帮助的?陈才本：谢谢关心，如果有人愿意帮助我们家，感谢你们。一直到现在，我的心都乱得很，还顾不上这些。本文来源：新京报作者：王煜责任编辑：韩佳鹏_NN9841",
    "PublishTime": "12/29/201716:10:09",
    "Comment": {
        "Total": 1595,
        "Content": "五个孩子都很听话，老大进去了，后四个却把自己熏死了，真想不出要是不听话会是怎样的结果 越穷越生越生越穷，管生不管养 色会煮义害得物价太高，父母都停不下来教育 不环保 谁允许他生恁多孩子的！ 以前养孩子，就是以有口饭吃，把你养大的态度在养，我爸说的 何不着皮草 傻逼！为什么要夫妻都去昆明呢，也不动动脑子，留那么小的孩子在家里，一个监护人都没有，也没委托人看管，不能好好带还生那么多，辣鸡 要不是长子抢劫，也不会有后面的事，唉！ 何不食肉糜? ....哎 辛辛苦苦生五个，现在全没了，老大无好过有 问题是五髦渣自己都是穷人，而且是缺良心的那种。 可怜啊、心痛啊 为啥不用空调呢 云南巧家Ｂ事最多 人伦惨剧，但个人觉得，孩子不在多，重质不重量，数量再多要和长子那样抢劫，有不若无，家里越穷孩子越多，也是中国农村的特点，也难怪现在加快农村和城市结合，城市别说养5个孩子，就是生5个孩子都是一大笔开销 昆明好玩啊。大城市 在美国，这种将未成年子女单独留家里，会被判虐童重罪，更别说导致死亡了。而在我们这里则不但不会被追刑责，反而会收获普遍的同情：“唉呀，你看本来就穷人家家的不容易，又遇到这种悲剧，真是老天不公，专欺负老实人，太可怜了！” 那个地方吃饭问题才解决，你说用空调？灯泡都不敢用25瓦以上的 农村山区根本就没有用空调的概念 穷逼地方还生这么多。父母和猪一样愚昧无知这么小的孩子放家里。不留一个大人看护穷有穷的道理 生而不养，养而不教，父母造孽啊 计划生育，就东北、苏南、浙北、上海搞得好，其它地方基本都是超生游击队一大堆，越穷越爱生。 这种无知的父母看了都来气，一般最多父亲一个人去看那个孩子，家里留一个照顾剩下的四个，或者托人关照一下。四条生命就这样断送了 12岁以下儿童不能单独在家的法律还是很有道理的……可惜不是我国。 虽然我也是昭通人但是作为有点脑子的父母不应该犯这种低级错误吧非得两个一起来昆明？？ 这个老大会内疚痛苦一辈子 这夫妻俩应该抓起来不知道如何当父母为何为了一个爽生这么多 貌似五髦渣都恨不得杀光穷人，比如楼上。 夫妻两去一个人不行吗，非要去两个，这么小的孩子留家里，心真大 第一个儿子教育成抢劫犯… 悲剧！父母的无知造成的，可怜了孩子了！愿四个孩子在那边健康快乐！衣食无忧！ 你知道那是什么地方吗 这种垃圾狗东西，就只会图你一时的爽，有种生怎么没有种尽到一个父亲的责任好好的照顾他们。 哈哈哈哈哈 昭通这样的报道每年都出。珍爱花朵的生命吧！ 越穷越生，越生越穷，生了又不管!这是四条生命死了，不是四只蚂蚁好吗? 超生，愚昧 昭通人均GDP云南省倒数，尤其大关镇雄，没去过简直不能想象的穷 穷人，弱者 傻逼穷鬼山区垃圾爹生五个娃娃大的还他妈的死进拘留所活该。可怜了娃娃 唉，可怜的浙北啊，我其实很想有个兄弟，姐妹的，一个人长大很孤独的 五个孩子都很听话，老大进去了，后四个却把自己熏死了，真想不出要是不听话会是怎样的结果 七言诗阳春凌霄岩张耘华春光诗社阳春日报凌霄溶洞天下雄.内生乾坤风云涌;恰似飞龙腾气象，万层钟乳滴神功！嫦娥出浴水底月，银川叠盏落九重;更留底河载仙客，世间壮景尽所容！广东省阳春市凌霄岩风景区由玉溪三洞、玉溪二洞和凌霄岩组成，游览完领略溶洞之天下雄（山之天下雄为泰山）！<br><br><br>七言诗南岭国家森林公园夏日游张耘华2017年仲夏于韶关南岭氧吧天下凉，心旷神怡时间长；天外瀑布九重落，宛如九龙下岭央；旁林绿荫接青天，潭吟轻涛风静赏；美景迷人君再来，风调雨顺国运昌！南岭国家森林公园位于广东省韶关市乳源县境内，韶关市南岭国家森林公园一日游！ 主要是我们这些农村地区，只有生男孩，乡里面大队才会给你家划拨新的土地，再加上生男孩可以养老，你说要你的话，生不生？ 楼上你个杂种，你有菊花？ 不环保 奇葩的逻辑，好喷子！ 你脑子有病吗？在美国孩子是不能独自在家，原因是美国有相关法律，这里有吗？！更何况了，村里人会不知道他们两口子去看大儿子？这种事几小时就能传开，当地爱民的某些人怎么不去关心一下无人看守的几个孩子？！你喷之前可不可以用用脑子！ 何不食肉糜? 辛辛苦苦生五个，现在全没了，老大无好过有 感觉咱们河南也管的挺严的吗 你懂个屁，越穷越木有文化不会上网只会看新闻联播的越为色会主意歌公颂德呢，什么刚解方时一穷二白，啥时候断过收税了?什么穷是因人多，49后至80农民有过收λ吗，断过各种运动桥腾吗?农民今天现状，就是因果! 生了好多娃娃，可怜了娃娃 你说小孩可怜，责任在谁呢 色会煮义害得物价太高，父母都停不下来教育 何不抱着一楼老母取暖 嘲笑多生的，嘲笑父母没安全意识的，下次肯定轮到你们家，可怜的四个孩子 昆明好玩啊。大城市 满屏的无脑言论，舅服你！ 那个地方吃饭问题才解决，你说用空调？灯泡都不敢用25瓦以上的 生而不养，养而不教，父母造孽啊 你傻吧父母，你就不能把玻璃去掉一块儿！无知家文盲注定要付出代价 这种无知的父母看了都来气，一般最多父亲一个人去看那个孩子，家里留一个照顾剩下的四个，或者托人关照一下。四条生命就这样断送了 心痛。上天怎不给我一个 象猪一样，要是再生个10个，我估计5瓦的都用不上了 辛辛苦苦生了五个儿子，老大抢劫，下面四个全死~~哎 这次不是贵州毕节了？超生游击队，只管生，不管教养，一锅端掉，算解脱了！ 夫妻两去一个人不行吗，非要去两个，这么小的孩子留家里，心真大 超生四个，被天收了 哈哈哈哈哈戳到两个废物菊花啦 超生，愚昧 穷人，弱者 农村人没有这么娇气，11岁，9岁，8岁这几个在农村几天不看他们一般都没有问题。 你让这对穷夫妻进国企或者事业单位，我保证他们只生一个！越穷对未来越是没指望，就会越生。那些端着铁饭碗，都知道自己几岁退休，能拿多少养老金的跟吃了这顿没下顿的人谈理想和国家政策，你别开玩笑了！！ 穷得买不起套套，所以生这么多 虽然我也是昭通人但是作为有点脑子的父母不应该犯这种低级错误吧非得两个一起来昆明？？ 你脑子有病吗？在美国孩子是不能独自在家，原因是美国有相关法律，这里有吗？！更何况了，村里人会不知道他们两口子去看大儿子？这种事几小时就能传开，当地爱民的某些人怎么不去关心一下无人看守的几个孩子？！你喷之前可不可以用用脑子！ 老大十八就抢劫了，老二，老三，老四，老五要地长大，估计也差不多，反正只管生，不用教育。 超生大户 何不着皮草 要不是长子抢劫，也不会有后面的事，唉！ 12岁以下儿童不能单独在家的法律还是很有道理的……可惜不是我国。 JC,害的 看到这样的新闻，心里难受 为啥不用空调呢 美帝还没发明出来。 那个鸟地方 貌似五髦渣都恨不得杀光穷人，比如楼上。 我回复二楼。 悲剧！父母的无知造成的，可怜了孩子了！愿四个孩子在那边健康快乐！衣食无忧！ 穷逼地方还生这么多。父母和猪一样愚昧无知这么小的孩子放家里。不留一个大人看护穷有穷的道理 计划生育，就东北、苏南、浙北、上海搞得好，其它地方基本都是超生游击队一大堆，越穷越爱生。 儿童是社会的未来，他们出生本该得到平等的照顾，看这里的评论，我只想说一句，操热贴和顶热贴他们的妈 在美国，这种将未成年子女单独留家里，会被判虐童重罪，更别说导致死亡了。而在我们这里则不但不会被追刑责，反而会收获普遍的同情：“唉呀，你看本来就穷人家家的不容易，又遇到这种悲剧，真是老天不公，专欺负老实人，太可怜了！” 愿小朋友在天国也能过上儿童节吧! 真是悲剧。一共五个孩子，大的在派出所，小的照顾不到全去了。这种典型的只管生不管养啊 作为一个父亲看了好痛心，既然照顾不了那么多为什么还要生？？？！！！！！ 还有意义吗？煮了父母来吃？ 精准贫困户！估计电费都是可免交的！ 此话怎讲？ 哈哈哈哈哈 留守儿童好，户籍证测秒 生那么多干嘛？把一个培养好就不错了，这下好了一个都没了 傻逼穷鬼山区垃圾爹生五个娃娃大的还他妈的死进拘留所活该。可怜了娃娃 唉，可怜的浙北啊，我其实很想有个兄弟，姐妹的，一个人长大很孤独的 我就是云南的，村子里没有人帮的大部分都是平时为人不好的，我们小时候大人不在经常都是别人家帮忙 可怜啊、心痛啊 人多死了随你怎么说 以前养孩子，就是以有口饭吃，把你养大的态度在养，我爸说的 何不食肉糜 这个父亲看起来很平静 宇宙的探索是离不开我的话的，只有把围绕地球公转的一切物质包括气体计算在地球体积之内才能找到地球真正的边和角，那是反引力汇聚地，是真正的真空隧道，宇宙高速路，太阳系内的动脉!把围绕太阳公转的一切物质包括气体计算在太阳体积之内才能找到恒星与恒星的边和角，那是恒星与恒星之间的真空高速隧道，找到真空隧道以近光速超光速飞行那不是个事!宇宙飞行器也不能按照飞机的二维结构原理制造，飞机是不能高速自转的，但只有高速自转才能产生真空电磁场，以近光速飞行，未来的宇宙飞行器必须按地球原理制造，八层以上结构，你看地球高速自转着前进，我们人坐在地球上有啥不适感觉吗？ 在美国，这种将未成年子女单独留家里，会被判虐童重罪，更别说导致死亡了。而在我们这里则不但不会被追刑责，反而会收获普遍的同情：“唉呀，你看本来就穷人家家的不容易，又遇到这种悲剧，真是老天不公，专欺负老实人，太可怜了！” 人伦惨剧，但个人觉得，孩子不在多，重质不重量，数量再多要和长子那样抢劫，有不若无，家里越穷孩子越多，也是中国农村的特点，也难怪现在加快农村和城市结合，城市别说养5个孩子，就是生5个孩子都是一大笔开销 给他们开一下窗就这么难么？ 昭通这样的报道每年都出。珍爱花朵的生命吧！ 山沟里供电都不足如何能承受空调的大功率消耗？ 疏忽照顾了 又是一场痛苦的离别 太悲哀了，可惜 为啥不用带烟筒的蜂窝煤，非得用炭盆 这个老大会内疚痛苦一辈子 第一个儿子教育成抢劫犯… 你知道那是什么地方吗 在美国，这种将未成年子女单独留家里，会被判虐童重罪，更别说导致死亡了。而在我们这里则不但不会被追刑责，反而会收获普遍的同情：“唉呀，你看本来就穷人家家的不容易，又遇到这种悲剧，真是老天不公，专欺负老实人，太可怜了！” 好危险 在美国，这种将未成年子女单独留家里，会被判虐童重罪，更别说导致死亡了。而在我们这里则不但不会被追刑责，反而会收获普遍的同情：“唉呀，你看本来就穷人家家的不容易，又遇到这种悲剧，真是老天不公，专欺负老实人，太可怜了！” 农村山区根本就没有用空调的概念 那个当年奸杀姐弟两的李的家乡又出事了！ 越穷越生越生越穷，管生不管养 谁允许他生恁多孩子的！ 完美的不在场证明 雪上加霜啊 安全意识是个很严重的问题，我大姨两口子就是没有安全意识，就这样去的 何不食肉糜 为啥不用空调呢 云南巧家Ｂ事最多 如果我家孩子说不想上学我就不会让他去上学 在美国，这种将未成年子女单独留家里，会被判虐童重罪，更别说导致死亡了。而在我们这里则不但不会被追刑责，反而会收获普遍的同情：“唉呀，你看本来就穷人家家的不容易，又遇到这种悲剧，真是老天不公，专欺负老实人，太可怜了！” 为啥不开中央空调？ 为什么云南不能供暖气？ 做个调查物，价油价房价上涨感觉生存压力越来越大的点支持 我们这边家里不太装空调 这夫妻俩应该抓起来不知道如何当父母为何为了一个爽生这么多 农村不太会互相帮这类忙我老婆家父母就不太可能会一起出门家里就几头猪而已但总是说找不到人帮忙喂收庄稼的时候有人帮今天别人帮你过几天你帮别人或者出钱不给钱的忙几乎不会帮比城里都不如楼下租房子的人有次有事上来让我家带下一岁多的小孩我家也帮带了根本就不熟的这家四个小孩自己过也是逗这种村里很多都是亲戚却不帮这种忙我就云南的老婆家也是云南村里的一个村就几个姓全是亲戚村子里才是最爱谈钱的绝对没乱讲没钱的最被人看不起 每次看到你出来说这些就生气，你压力大个人去死 这种垃圾狗东西，就只会图你一时的爽，有种生怎么没有种尽到一个父亲的责任好好的照顾他们。 越穷越生，越生越穷，生了又不管!这是四条生命死了，不是四只蚂蚁好吗? 昭通人均GDP云南省倒数，尤其大关镇雄，没去过简直不能想象的穷 傻逼！为什么要夫妻都去昆明呢，也不动动脑子，留那么小的孩子在家里，一个监护人都没有，也没委托人看管，不能好好带还生那么多，辣鸡 ....哎 小孩不懂事，大人也是的哦 又是巧家……[大哭] 可怜了 愿天堂没有痛苦…… 在美帝，独自留儿童一人在家是犯法[狗] ",
        "Reply": 117,
        "Link": "http://comment.news.163.com/news_shehui7_bbs/D6R9GRT40001875P.html"
    },
    "KeyWords": "儿童安全,煤气,昆明,男童"
}