{
    "Article": "国务院任免国家工作人员。任命孔铉佑为外交部副部长；任命高翔为国家互联网信息办公室副主任；任命李树深为中国科学院副院长；任命阎庆民为中国证券监督管理委员会副主席；任命张军为北京理工大学校长；任命李言荣为四川大学校长（副部长级）；任命吴普特为西北农林科技大学校长（副部长级）。免去郑栅洁的国务院台湾事务办公室副主任职务；免去任贤良的国家互联网信息办公室副主任职务；免去王恩哥的中国科学院副院长职务；免去殷晓静（女）、林武的中央人民政府驻香港特别行政区联络办公室副主任职务；免去张通的中央经济责任审计工作联席会议办公室主任职务；免去胡海岩的北京理工大学校长职务；免去谢和平的四川大学校长职务。孔铉佑简历孔铉佑资料图孔铉佑，男，1959年7月生，黑龙江省人，大学毕业。此前在外交部任边界与海洋事务和领事工作的部长助理，兼中国政府朝鲜半岛事务特别代表。1976-1979黑龙江省林业勘察设计局工人1979-1983上海外国语学院日阿语系日语专业学习1983-1985外交学院一系外交学专业学习1985-1989中华人民共和国驻大阪总领馆职员、领事随员1989-1995外交部亚洲司三秘、副处长1995-1999驻日本国大使馆二秘、一秘1999-2000外交部亚洲司一秘、处长2000-2002河南省开封市市长助理2002-2003外交部政策研究室参赞2003-2005外交部亚洲司副司长2005-2006驻日本国大使馆公使衔参赞2006-2011驻日本国大使馆公使2011-2014驻越南社会主义共和国特命全权大使2014-2015外交部亚洲司司长2015-2018外交部部长助理（来源：外交部）本文来源：新华社责任编辑：程钢_NN7377",
    "Title": "孔铉佑任外交部副部长 曾兼朝鲜半岛事务特别代表_网易新闻",
    "PublishTime": "01/02/201809:42:20",
    "Source": "Netease",
    "Comment": {
        "Content": "支持 恭喜 支持 恭喜 厉害了 ",
        "Reply": 3,
        "Link": "http://comment.news.163.com/news2_bbs/D74STKKR0001899O.html",
        "Total": 57
    },
    "KeyWords": "孔铉佑,外交部,国务院",
    "URL": "http://news.163.com/18/0102/09/D74STKKR0001899O.html"
}