{
    "URL": "http://news.163.com/17/1228/16/D6ONOAFU0001899N.html",
    "Article": "国防部发言人任国强：我国第二艘航母正在按计划全面推进系泊试验。本文来源：中国之声责任编辑：张海桐_NN9053",
    "Source": "Netease",
    "PublishTime": "12/28/201716:21:10",
    "KeyWords": "国防部,航母,试验",
    "Comment": {
        "Content": "中<br>国<br>航母加油！ 中<br>国<br>航母加油！ ",
        "Total": 8,
        "Link": "http://comment.news.163.com/news2_bbs/D6ONOAFU0001899N.html",
        "Reply": 1
    },
    "Title": "国防部：第二艘航母正按计划全面推进系泊试验_网易新闻"
}