{
    "Comment": {
        "Link": "http://comment.ent.163.com/ent2_bbs/PHOTJNJL000300AJ.html",
        "Reply": 37,
        "Content": "还不错。 没对比就没伤害呀，papi和圆圆的眼睛一比😃 我是来看papi酱的 芷若嫣然一笑。。<br>轻轻的于发簪处一拍。。须臾间满头的青丝便如水银泻地般铺展开来。。<br>宽大的衣服也随之滑落。。。<br>还有这种操作？<br>忍不住一招“抓奶手”抓去。。芷若笑着闪开。。<br>哪知只是虚招。。一抓结结实实抓在她浑圆的大PP上。。<br>芷若惨叫一声。。粉臀上登时一片殷红。。<br>红白相间。。煞是好看。。 今天机场放假？？ 圆圆很美啊 赵又廷你。。。。。。 你说你是不是犯贱，不想看还点进来，点进来还要评论，你可以选择自挖双眼了。 芷若 丸子头我的最爱 不老容颜女演员:高圆圆， 黄晓明请你不要再出现在我们的视线里好嘛？谢谢！ 甜美可人高圆圆，真是极品娇妻啊 这高圆圆长相是真的挺好 我说呢，圆圆后面那个这么眼熟，原来是papi酱。 圆圆还是狠美的 我说呢，圆圆后面那个这么眼熟，原来是papi酱 papi酱总感觉怪怪的有点 还不错。 颈纹严重 没对比就没伤害呀，papi和圆圆的眼睛一比😃 我是来看papi酱的 芷若嫣然一笑。。<br>轻轻的于发簪处一拍。。须臾间满头的青丝便如水银泻地般铺展开来。。<br>宽大的衣服也随之滑落。。。<br>还有这种操作？<br>忍不住一招“抓奶手”抓去。。芷若笑着闪开。。<br>哪知只是虚招。。一抓结结实实抓在她浑圆的大PP上。。<br>芷若惨叫一声。。粉臀上登时一片殷红。。<br>红白相间。。煞是好看。。 黄的穿衣品味，真是不好评价。基本上还停留在90年代的潮男份！ 圆圆很美啊 赵又廷你。。。。。。 又不是不想生，只是还没怀上而已 这高圆圆长相是真的挺好 支持圆圆，支持电影 好像是妖妖灵吧？名字都打错了？ 黄晓明，加油。 圆圆还是狠美的 papi酱，网红届的一股清流 美美哒 今天机场放假？？ 1234 永远支持一直喜欢着你到老的粉丝们，不老容颜女演员:高圆圆，还有你最经典的电视剧代表作品（倚天屠龙记）（咱们结婚吧）（秦王李世民）等等永远看不完，非常庆幸和开心让我认识了你，无论多少年以后，无论你变成什么模样，我依然永远陪伴你到老的，也祝:我们之间的友谊永远地久天长，不要忘记还有一位你的忠实粉丝哦，高圆圆我是刘奕含永远爱你呦！哈哈 老了 噢，papi 你说你是不是犯贱，不想看还点进来，点进来还要评论，你可以选择自挖双眼了。 芷若 不要整天上头条秀自己，既然已经成为人妻了，那就好好回家生小孩儿去哇！高圆圆哈哈 黄晓明，加油。 丸子头我的最爱 123 不老容颜女演员:高圆圆， 黄晓明请你不要再出现在我们的视线里好嘛？谢谢！ 不要整天上头条秀自己，都一把年纪岁数大的老男人，既然已经成为人夫为人父为人家庭主管了，那就好好回家照顾带小孩儿去哇！黄晓明哈哈 确实是犯贱 甜美可人高圆圆，真是极品娇妻啊 我说呢，圆圆后面那个这么眼熟，原来是papi酱。 123456 我说呢，圆圆后面那个这么眼熟，原来是papi酱 想看焦俊艳 ",
        "Total": 291
    },
    "Article": "高圆圆丸子头配西装帅美兼备黄晓明潮范足2017年12月26日，北京，电影《妖铃铃》首映发布会。主创吴君如、陈可辛、焦俊艳、papi酱、赵英俊、潘斌龙现身。黄晓明、高圆圆等众多明星纷纷到场助威。",
    "PublishTime": "12/27/201707:42:06",
    "URL": "http://ent.163.com/photoview/00AJ0003/646773.html",
    "Title": "高圆圆丸子头配西装帅美兼备 黄晓明潮范足_网易娱乐",
    "KeyWords": "高圆圆,",
    "Source": "Netease"
}