{
    "KeyWords": "手机,去世,家暴",
    "PublishTime": "01/02/201808:30:46",
    "Comment": {
        "Link": "http://comment.news.163.com/news2_bbs/D74OQIGF0001899N.html",
        "Content": "果然就有3楼这样的傻逼跳出来现身说法。 当年一帮老头害怕辐射让拆基站，到处拆，能不能起诉他们。 他儿子一定动用了电子战飞机。 不喷不偏，如果说老人所在的区域是一个村庄，我觉得运营商就有责任。如果老人所在的区域的确很偏僻，周围都没什么其他人，运营商就没责任 应该负有一定的连带责任，毕竟早已投诉过，而且很长时间就没有信号，我花了钱，就应该享受服务，至于你是否能安装发射装置与我无关，如果小区居民不让你按，你可以告诉我此地无信号，可以换一家运营商，你收了我的钱，就该有相应的服务，那边那位举例逃票和坐飞机不妥，但商场摔死可以，前者是主观行为，后者是客观原因，连带责任是有的。 精神病人对社会危害性很大，光持证这一点都极具杀伤力了，只能说是悲剧 儿子问题还要想办法搞钱，人心啊！ 逮到一只睁眼瞎 升级几个月么？而且文中说，苦主之前投诉移动时已经说明了可能造成的危害，还是几个月无果。苦主和移动有通信合同关系，以前信号好，现在信号差，投诉无果，移动的不作为造成伤害扩大是无争议的，应该有少量责任。 精神病孩子、年老的父母……人间悲剧 根据死哪讹哪定律，手机运营商具有不可推卸的责任，应该负责 又想让信号好，又不想要发射塔，你们谁牛逼谁干。 仔细想想，逃票的翻铁轨被车压死，找铁路赔偿。坐飞机的突发疾病，找开飞机的要钱。带着小孩逛超市，把小孩摔死了，找商场要钱。。现在已经升级到了，被人打死了找运营商要钱，以后办卡前先签一个免责声明吗？ 国家也有很大责任的，应该告国家… 太负能量了，下次别发了 其实信号不好，还有可能是手机的问题。[疑问][疑问][疑问] 你讹人，是因为你还没死。 你总是依赖别人，别人来晚了，就能打死你。 死者家属认为，老人家中手机事发前几个月经常处于无信号状态，老人抢救不及时后身亡，手机运营商应该承担相应的责任。<br>被儿子打死，找手机运营商索赔… 当然有因果关系，如果信号正常老人活命的希望极大 死在深山老林是不是也可以告他们，，因为手机没信号，打不了求救电话啊！ 那么多女儿，儿子被惯坏了！老人自食其果 这是准备讹运营商了？ 我可不可以说是手机问题，要不要讹手机制造商？ 110来晚了，就能打死你。 13楼的有道理 我在的这地方三个运营商的信号都不好，这个是不是可以告他们？ 这新闻本末倒置。。。。打死人的是死者的精神病儿子，精神病不用负责任，就把责任责怪到通讯营运商的头上，家属也很大责任，把两个老人和精神病人放一起生活。还有，几个电话接了就断线，那做女儿的还不赶紧回家看看发生什么事。死者其实可以直播110或120，没信号都能通。现在家属怪运营商，觉得有点冤。 虽然我看不惯三大运营商，但是这次我想说这特么也能讹上？ 广告吹的满天飞，号称地球上每个角落都会有信号。其实就是胡扯，说白了就是骗子！ 但是也不能怪人家啊，运营商又不是神仙，网络要升级，又不能几个月前预知到老人会被儿子打。 我看地球的责任最大，谁让他生在地球上的呢？ 上午10点过，自己一度接到过母亲罗琴打来的电话，“但一接就断线了，打过去又打不通”一接就断线了，打过去又打不通”。肯定是出事了还不赶紧打电话联系附近亲戚朋友去家里看下 看到有质疑女儿的终于放心了<br>这女儿接到那么多电话，再加上有个神经病哥哥竟然还不赶紧回家看看。<br>是不是女儿主张索赔的？拿父母挣钱？ 很多高层信号覆盖不太好，物业不给力不让设信号塔，运营商也是干着急没办法，铁塔公司成立后希望能有所作为。 是住户不让建基站 我只想说一句,这家人穷疯了吧,这TM关移动运营商个P事啊,这跟到人家公厕去拉S拉不出来,你说人家公厕装修不合你味口TM有什么区别,真想说脏话. 没信号是什么电话都打不出去的，110跟120可以不装电话卡就拨打，但是前提是有信号。没有信号的话，啥也打不了啊。。。 跟别人同样的扣费标准享受不了同样的服务在你眼里也是正常？ 该运营公司？看了全篇，硬是没找到到底是哪个运营商。[微笑] 对啊就是因为有你这样的，搞得整个小区都没有信号，前段时间还上了新闻的，然后哭着喊着要手机信号的和开始说怕辐射的都是一批人。你怕辐射就别用手机嘛。 装上信号塔，很多老头老太太孕妇都会感觉自己被辐射身体要垮了 她有心就不会放下年迈的父母和精神病的哥哥啦[大笑][大笑][大笑] 没用的。。。大把人被所谓的辐射吓尿 以前没好过那告了也没用，但是以前好现在差，可以告，在法制中国也能赢 老汉被精神病儿子暴力致死，和通讯网络不存在必然的因果关系。挣死人钱可不是这么个挣法。 你们看完再喷，以前有信号，最近没信号 没信号我花那么多钱干嘛的？那你全额退钱？本身信号不好那不怪你，开始有信号，后来没有了，我花钱不该享有用的权利？交钱容易退钱不可能，服务不到位，你们不好好看新闻吗， 看标题比较偏向家属的感觉…因为打不出电话所以延误了救治…说起来为什么不直接拨打120或者110？信号差也可以接通的，根本没影响 他妈的逼臭，用打死死家里人来骗钱，现代的科学发明，批准专利。 通信公司张姓负责人不负责任的讲话说这家公司不好可以用其他公司是可以换，但是前提消费者交了钱得不到应有的服务，营运商应当赔钱。换句话来说你没办法办好营运商的脚色可以下马换其他营运商来做同样道理！ 穷风了人吃人的社会了快！ 精神病人对社会危害性很大，光持证这一点都极具杀伤力了，只能说是悲剧 我想知道是哪个运行公司？ 哪家营运公司？看标题以为又碰见碰瓷了，结果是这种情况确实令人气愤！中国三大营运公司底子多硬啊，出了人命媒体都不敢说那家公司，现在就是信息时代，一个电话真能救人一命！ 我的妈！这女儿心真够大的！电话打不通不知道回家看看？不能让邻居看看？老两口住的这么偏僻，周围都是老人，信号不好也正常 高的人很多保守估计可以得到3到10亿赔偿，第一个告小区，第二个告开发商，第三个告生产手机的，第四个告卖手机的商家，第五个高卖手机的售货员，第六个告通信公司，第七个告通信公司给他办理业务的柜员，第八个告生产手机卡的，第九个告手机卡派送的司机和搬运工，第十个告国家 自古 很多手机，不需要信号就可以拨打紧急求救电话。 第一个告小区，第二个告开发商，第三个告生产手机的，第四个告卖手机的商家，第五个告卖手机的售货员，第六个告通信公司，第七个告通信公司给他办理业务的柜员，第八个告生产手机卡的，第九个告手机卡派送的司机和搬运工，第十个告国家 上午10点过，自己一度接到过母亲罗琴打来的电话，“但一接就断线了，打过去又打不通”一接就断线了，打过去又打不通”。肯定是出事了还不赶紧打电话联系附近亲戚朋友去家里看下 现在有的人出来了总要赖上点什么好挽回损失，这个估计真赖不上了。现在我看到老人都绕行[不屑] 先抛开责任…每一个正常人在遇到这种情况，心里不问候通信公司都不是正常人！ 运营商不能说全无责任，但主要还是精神病的儿子打死你啊 国家也有很大责任的，应该告国家… 电话只要一通，那怕一秒，断线也是要收费的。 信号不好为啥不装座机 自古二楼出傻逼 国家对电信运营商的信号质量是有要求的，这点没争议吧 是哪讹哪升级版 哪家运营商，秦霜你可以找你大哥步惊云和二哥聂风去灭了他们 死者家属认为，老人家中手机事发前几个月经常处于无信号状态，老人抢救不及时后身亡，手机运营商应该承担相应的责任。<br>被儿子打死，找手机运营商索赔… 你呵呵什么，物业开发商当然都有责任，这已经定性了，在举证而已。 沙比，看内容了吗？ 告运营商没错。但是中国的法律体系没还是白扯。这个不是一直没有信号，而是最近没有，所以运营商是有责任的，如果在美国会重判的。 为了河蟹，为了生意，必须要保护它们嘛 又学了一招以后我要是摔倒了我就打移动，因为我打救护车打不通电话，要移动陪我钱 难道你就不会下楼去找别人借电话手机打电话求助吗? 儿子肯定是主要责任啊，但是运营商有没有责任就要到法院诉讼了。就像杭州那个一家四口被烧死，主要责任肯定是保姆，至于消防和开发商有没有责任呢？呵呵 这新闻本末倒置。。。。打死人的是死者的精神病儿子，精神病不用负责任，就把责任责怪到通讯营运商的头上，家属也很大责任，把两个老人和精神病人放一起生活。还有，几个电话接了就断线，那做女儿的还不赶紧回家看看发生什么事。死者其实可以直播110或120，没信号都能通。现在家属怪运营商，觉得有点冤。 其实有时候跟手机也有关系吧，山寨机，所谓的老年机，我觉得都应该告 精神病儿子关起来了吗，不要再把老太太打死了，有闲心思去关心信号不如早点把凶手锁上铁链子，穿上倒衣。 110来晚了，就能打死你。 全村人用了你们的电话卡，用了几年你就搞到没信号，这是欺骗消费，换电话卡很麻烦的 支持告国家！ 凑，这tmd叫啥事 很多高层信号覆盖不太好，物业不给力不让设信号塔，运营商也是干着急没办法，铁塔公司成立后希望能有所作为。 国家的几大运营商确实收钱积极，做实事就不在了 根据死哪讹哪定律，手机运营商具有不可推卸的责任，应该负责 中国式碰瓷 其实，无线信号对身体的影响，都不如自家电灯对身体的影响大 社区，精神病院，都应该负责 该运营公司？看了全篇，硬是没找到到底是哪个运营商。[微笑] 移动的，只有这个才说得通，现在移动很多地方信号不好 移动公司好可怜，信号覆盖之地，都容易 刁民，通信行业三家运营商，哪家建个基站都是百姓阻挠，并且剪断光缆电源，哪家运营商都想提供好的信号，但是百姓阻挠不让建，所以无法实现信号全覆盖 如果死者家人起诉它，大家就能看到了吧 看看有没有保证他们村信号的合同条款。我觉得全世界都没有运营商会怎么搞。既然没有保证，那信号弱没信号，你可以不缴费，没人强制你缴费吧。 她有心就不会放下年迈的父母和精神病的哥哥啦[大笑][大笑][大笑] 顶14楼 讹人讹出新高度！ 我用电信4G网玩游戏总掉线投诉好多次也没啥用 手机生产厂家也有不可推卸的责任，应该内置基站 肯定是连桶了 自找的请不要怪通信公司 建议全国行动，扑杀精神病患者 电信?移动?联通?这个时候还升级2G/4G?猜到谁了.. 这要是在国外，要告到电信商大出血吧。 住高层。以前信号时有时无，那个气啊。 哎，可怜的人，运营商我感觉是有点责任 信号不好那么长时间了，为什么不换个运营商呢？家里安装固定电话不是更好？ 铜塔成立也没蛋用运营商愿意投入规划也不少一谈要么物业大开口要么业主以辐射为由阻拦施工有些基站室内分布建好才开通没几天不是设备被盗就是光缆被剪…通信狗太苦逼出事了出来喊叫了 手机信号不好打不出电话，但你说110、120都打不通那就是瞎扯！你打了五个小时，才拨了40次？每小时平均8次。拨8次用不了十分钟。剩下的四个多小时你干嘛去了？打不通电话找邻居呀！喊啊！就这么执着打电话？<br>总之一句话，就是为了讹人！ 上午10点过，自己一度接到过母亲罗琴打来的电话，“但一接就断线了，打过去又打不通”一接就断线了，打过去又打不通”。肯定是出事了还不赶紧打电话联系附近亲戚朋友去家里看下 法拉第问题更大，居然发现电磁定律， 有个这样的儿子真是悲剧， 国家也有很大责任的，应该告国家… 铁塔来装基站一帮老年人就来拉横幅，控告物业和铁塔侵犯人权增加辐射，铁塔装不了塔站，运营商一家都进不去，移动电信联通用户都是受害者。 老爸被儿子打死找营运商要钱？这个报道只有这几个字我是理解得来的，其余全都是没道理的。 铁塔早就成立了，他们又不负责信号 我有一个大胆的想法，需要一个厌世的人配合 。。。。 当年一帮老头害怕辐射让拆基站，到处拆，能不能起诉他们。 安个固定电话啊 死者家属认为，老人家中手机事发前几个月经常处于无信号状态，老人抢救不及时后身亡，手机运营商应该承担相应的责任。<br>被儿子打死，找手机运营商索赔… 你是对的，你去要回月租是有可能的 三个都一样没一个好东西 就算一点信号都没又如何？谁叫你用了？你换卡啊，你换座机啊，你也可以不用电话 该说脑子脑子有问题，不知道叫邻居吗。 不偏不帮，事主之前信号满格，最近几个月才信号不好或者无信号，投诉几次都是网络升级没解决问题，事主消费没有打折扣，可运营商服务打了折扣，事主花了钱需要你服务的时候运营商没信号，导致急救电话打不出去，一点责任都没有是不可能的 因为有人想生男孩，结果生了女孩，也要医院赔钱？ 不能，你只能找运营商，至于捣乱的是运营商和他们的事情跟用户无关 首先不是没信号是信号弱，儿子投诉的信号不好不是信号没有。本质的区别。信号不好不代表打不了电话。信号弱你是可以打电话的，你可以到阳台你可以窗户附近，肯定能打通电话的。既然有信号那肯定可以拨通110120的。<br>其次，这起案件是一个疯儿子误伤老人导致老人死亡。你投诉运营商信号不通可以寻求理赔。你说信号不好导致你打不了求援电话就是瞎掰。<br>最后，人死了，孩子既然有病那就送专业机构吧。 有啥悲剧的儿子精神病打死人不犯法接着陪着老太太 老夫在网上约炮，明明头像是个美女，结果约到了一个恐龙，我是不是该找网站索赔？ 这新闻本末倒置。。。。打死人的是死者的精神病儿子，精神病不用负责任，就把责任责怪到通讯营运商的头上，家属也很大责任，把两个老人和精神病人放一起生活。还有，几个电话接了就断线，那做女儿的还不赶紧回家看看发生什么事。死者其实可以直播110或120，没信号都能通。现在家属怪运营商，觉得有点冤。 110来晚了，就能打死你。 南方人....... 正因为知道家里信号不好，所以没当回事，这很正常吧。 很多高层信号覆盖不太好，物业不给力不让设信号塔，运营商也是干着急没办法，铁塔公司成立后希望能有所作为。 该舍弃没舍弃，死了怪自己，不该怪运营商 要怪就怪自己没教育好自己的孩子 有因就有果。因果报应。 电话打不通，不会向龄居求救?死人了就要讹诈，奇葩 如果是手机坏了该赔钱的是不是就是手机厂商了 精神病只要无故伤人三次，或致人死亡一次就应该安乐死。凭什么他们不受制裁呀？不正常的疯狗要打死，到伤人的疯人怎么就不行了呢？ 合同成立的结果就是你收费，我必须要交钱，但你提供的服务得让我享受到服务，你月租费到月底结算扣除了，那么你就得要有相应的服务，不是吗。你没服务凭什么收我的钱，收钱没能支撑服务造成了人的死亡是时间消耗过程中的死亡，没有直接关系，但是并不是说就没有关系，这有毛病吗？ 养儿不教，父之过 和运营商打官司？累死你 不这样不能提现人道主义精神，死哪讹哪的精神如何发扬？ 直接曝光吧😊 我们公司市内电话信号也不好，只有两格信号 [狗][狗][狗] 该运营公司？看了全篇，硬是没找到到底是哪个运营商。[微笑] 这儿子用了电子技术干扰国家信号。 运营商给点人道赔偿吧，虽然责任也不怪运营商，但，有什么办法呢？现在舆论就是有力度。 推脱 这也行？ 大批百姓嫌辐射大联名要求运营商拆除信号塔的新闻你没看过？ 错，首先追究凶手制造者（嗯，死者为大，免予追责），其次追究板凳制造商，然后追究手机运营商。 什么都能讹了太不要脸了 你得分清楚情况先，很多小区的业主看到运营商要在自己小区搞个信号塔就好像要了他们的命一样，各种抗议驱赶，好了，没法起信号塔就来怨人家信号不好，太难服侍了 你怎么不说是你手机质量不好，同样的小区接收信号没有其他手机信号强，去告手机厂家啊？ 我用的是联通，晚上门面关门以后手机就没信号了。 牲口毙掉 那肯定要啊。我好几次打电话没信号的错过了几次商机，好几段姻缘。我觉得中国移动整个赔我，可能还差点。 根据死哪讹哪定律，手机运营商具有不可推卸的责任，应该负责 医疗鉴定应当可以鉴定出延迟救治导致损害扩大吧？<br>通讯公司违反合同，应承担一定责任。<br>至于说可以选用别家这种说词也好意思说，没有金刚钻揽什么瓷器活？<br>连个信号都没有，凭什么运营通信？既然运营了，就必须完成基本的义务。 国家也有很大责任的，应该告国家… 市里信号盲区都大把是运营商不管的 她女儿也是逗，电话接了就断，打了又无法接通，难道不知道回家看看吗？ 哪里 这样的爹妈就是，自己的孩子永远没错，有错了也是别人造成的，所以养出了这样的神经病儿子 基本义务就是人到任何地方都必须有信号？ 反正是死哪讹哪 有时候没信号很难解决的,运营商想建基站,居民不愿意,那没办法,不建了,居民又继续投诉没信号,如果建在村里更麻烦,村民说来说去就是要钱,而且还要很多,那也没办法,不建了 叫隔壁人打下啊或者叫保安叫其他人要是一直打不通是不是等尸变啊？ 死者家属认为，老人家中手机事发前几个月经常处于无信号状态，老人抢救不及时后身亡，手机运营商应该承担相应的责任。<br>被儿子打死，找手机运营商索赔… 该怪谁 😖😪😉😏😏😡😚😄😣😜 不要说没用的，信号不好很急人。如果一个事只要打电话后10分钟完成，打不通信号不好，要1小时后才能完成，你们说急不急？ 要查查死者头部是不是在墙上磕过，有的话，一定要连带告上房地产开发商！ 这样的人应该全家都死了 我写信给苍井空老师求爱，结果邮局不给我寄给她，导致她现在嫁给了那个光头DJ，必须给我赔钱 我觉得运营商有一定责任，收钱的时候你也没说自己网络不好，你说自己网络不好人家换一家，钱都收了打不出电话耽误治疗，5个小时啊，说不定人命能救回来呢 脑子不好是对的信号不好还不换一家。 什么人都有 不用问了吧，联通呗！五个小时跑到医院去叫人也用不了五个小时吧！这狗杂种是顾意的，事到临头还要找人来替死。这个狗杂种不死还有什么用？ 怎么打的？拿什么打的？挨个告一遍！ 儿子打死的能够叫运营商的事，我也是醉了，无语 作孽啊…… 钱铝土矿 通讯公司信号不能完全覆盖你应该给人家要不退卡，要不告知人家信号达不到覆盖范围，还厚着脸皮收人家钱，出了事情了又推卸责任，真是不要脸到极致。 很多高层信号覆盖不太好，物业不给力不让设信号塔，运营商也是干着急没办法，铁塔公司成立后希望能有所作为。 这是手机生产商的事，手机不好才没有信号， 这些人就是贱，跟我们这个片区的人一个鸟样。 老汉被精神病儿子暴力致死，和通讯网络不存在必然的因果关系。挣死人钱可不是这么个挣法。 没覆盖到的地方有没通知？有没减免月租？有没停止宣传？ 该运营公司？看了全篇，硬是没找到到底是哪个运营商。[微笑] 如果曾经投诉过。那就是不作为。也就是说有过错。与老人死亡有因果关系。肯定要承担相应的责任。没毛病。赔钱吧！ 死哪讹哪！ 你的手不小心被被割了，血流不止，120到场后，邻居拦住120车不允许走，后来你由于失血过多死亡。请问邻居应该负责吗？你的死是你自己不小心割到手流血死亡的，应该跟邻居没关系。他只是阻止120通过，又没有阻止你求医对吧？<br>通信运营商在建设基站之后，消费者觉得有信号才会使用你的号段进行消费和沟通，等大部分消费者都购买了你们的号段之后，你就把基站撤了，导致消费者使用的号段成了摆设，遇到紧急情况不能及时的求助，你认为运营商该不该承担责任？ 相隔十分钟的女儿为什么不开车过来看一下？五个个小时。我爸妈打电话打不通。我都急死了，让亲戚看一下。要告，也顺便告他女儿啊 找人将赔款者打一顿,然后如数再赔给他们. 5个小时，就不能去村委会打电话么 在这个神奇的地方是这样的，作为消费者，你必须学习各种知识以保证自己不被坑。因为一些人把信用都消费光了，导致社会性的信用缺失。而且说实话。你几个运营商，也实在没什么信用可言。 呵呵 架信号塔的时候，被老头老太太以有辐射为名，不准在自家小区架设。。。但是塔太远信号又不好。。。于是都希望架在隔壁小区，于是自己不受辐射，而信号又满格。。。可是隔壁也是这样想的 人都受伤了，也不急不缓的在家里拨了5个小时的电话，麻痹的，五个小时就找不到个人来帮忙送医院？乡里乡亲的大喊几声也能有人帮忙的。五个小时就盯着一个电话打？打不通就坐家里等死？真服了，先不说运营商有多少责任，打电话这个应该先做一下精神鉴定，感觉也不正常 我炒股时突然网络断了，造成我股票损失一千万，网络运营商要赔我一千万损失？ 俩个老人的儿子是来讨债的 这个儿子应该下地狱了。。把父母打死后，还要利用死去的父母讹一笔钱。。。。。那个鉴定意见书，还是他去弄的。。。 我们不就一家么？ 刚看到工信部二把手调任福建，一楼就提到了工信部，你存心是不 上午10点过，自己一度接到过母亲罗琴打来的电话，“但一接就断线了，打过去又打不通”一接就断线了，打过去又打不通”。肯定是出事了还不赶紧打电话联系附近亲戚朋友去家里看下 我想要发射塔，可惜一帮SB也不让建。 精神病人对社会危害性很大，光持证这一点都极具杀伤力了，只能说是悲剧 想不到？这。。。不是和尚头上的虱子吗？ 美国如何？能保证每一处都有信号？ 那个地方是不是所有运营商的信号都不好？如果不是为什么不换个运营商？如果信号都不好就干脆用座机吧。 简直是不可思议，能在5个小时内不停的拨打电话，就不能到门口喊几声吗？这家人没有左邻右舍吗？五个小时啊！有很多办法与外界联系，就一定抱着个手机给女儿打电话吗？人死了怨恨人家运营商，实在是觉得可笑！愚蠢至极！无理取闹！ 这尼玛是哪个运营商？ 又想让信号好，又不想要发射塔，你们谁牛逼谁干。 电话打不通，就不知道喊一声吗？左邻右舍也会帮忙报警啊！干嘛非得一定给你女儿打电话？再说了，作为女儿来讲，接到自己母亲的电话多次，就不应该安排人过来看看吗？归罪于信号或者物业，实在是无理取闹！自己儿子杀人反而没人说了！这是一家子啥东西啊？ 感觉的确是因为信号问题而延误了求救和报警，嫑喷我， 二楼这个傻逼，又忘了给智商充值了吧。 国家也有很大责任的，应该告国家… 这情况在很多小区都有，运营商要在小区内装个信号塔，个个都强烈抗议反对，有的甚至暴力驱赶施工人员，没信号的时候又投诉运营商不作为，你们也太难服侍了 死的活该，凭本事教出来的儿子，被打死，为什么要叫交互车？ 有责任通信运营商！必须的 暴力倾向的精神病人伤人的好多如果能送到精神病公益医院这样的事会不会少些呢 下次在远海出事，是不是也可以投诉索赔了，发财致富新道路。 打110没信号可以打通 死者家属认为，老人家中手机事发前几个月经常处于无信号状态，老人抢救不及时后身亡，手机运营商应该承担相应的责任。<br>被儿子打死，找手机运营商索赔… 死哪讹哪 该运营公司？看了全篇，硬是没找到到底是哪个运营商。[微笑] 希望有关部门可以调查清楚 其实仔细想想运营商真的有责任 注意。人家是有投诉的。而且开始信号是覆盖的很好的 全国信号塔都设你家，怎样？ 靠，这也能讹上移动运营商，哈哈哈 为什么不去告那个儿子，还有老人也有责任，自己养的儿子。 ，运营商的责任大小咱先不说，既然很早就发现手机信号不好为什么不安装固定电话或者换其他运营商的手机，作为老人的子女你们是不是没尽到孝道！！！ 运营商是否有责任，确实很难说清楚，如果是在深山老林碰到意外打不通电话确实没法，但在居民区，而且还有明确的时间段出现这个问题，运营商肯定有责任，至于这个责任是不是导致老人死亡的间接原因，这个现在还说不清楚。 幸好去珠穆朗玛登山的用的是卫星电话，要不那谁在上边出事，哪个运营商 精神病孩子、年老的父母……人间悲剧 打联通客服投诉联通?你们太天真了，难道你们不知道他们的主管单位叫工信部吗？保证一投诉就见效。 这新闻本末倒置。。。。打死人的是死者的精神病儿子，精神病不用负责任，就把责任责怪到通讯营运商的头上，家属也很大责任，把两个老人和精神病人放一起生活。还有，几个电话接了就断线，那做女儿的还不赶紧回家看看发生什么事。死者其实可以直播110或120，没信号都能通。现在家属怪运营商，觉得有点冤。 电话覆盖不到的地方多了去了，不然卫星电话公司都饿死了。<br>无数高山、海洋，没信号的地方多了。 110来晚了，就能打死你。 死哪讹哪！竟然连运营商都有责任，厉害！为什么不怪自己的女儿没有责任感？没有孝心？父母联系打电话，肯定有什么紧急情况，就算手头有再大生意也要丢掉。父母才是最重要 怎么回事呢 很多高层信号覆盖不太好，物业不给力不让设信号塔，运营商也是干着急没办法，铁塔公司成立后希望能有所作为。 以为是三家，结果骗大家，呵呵 是住户不让建基站 这个话觉得有失偏颇。为什么一定是出事了？会不会是不住在一起喊你回家吃个饭？会不会是叫你买个东西之内的。你家人给你打电话信号不好。你第一时间会往坏处想吗？ 国内没几家运营商 自己人打死的赔不到钱找手机运行商是个不错的方法我只能呵呵了 协商吧！大公司你告的动吗 那一个都一样，出这种事都不会负责的 说说用的是哪个运营商？好更改自己的资费 主要责任没人关心，矛头全指向了次要责任，哎，这就是他们想要的。 哈尔滨安国街大面积无移动信号1年之久我接电话必须去凉台把头伸到窗外才能断断续续接听哈尔滨冬天零下23度站在凉台听领导墨迹20多分钟你知道是什么感受吗？楼上孕妇因家里无信号不敢独自在家回了娘家楼下房屋中介和接外卖的小酒馆苦不堪言多次打10086人工服务的回复总是对不起先生耽误您的正常使用了我给您转接其他电话请你咨询然后就是无人接听过几天再打还是无人接听永远的无人接听对移动真是绝望 这是怎么了。 新闻没看？他儿子是神经病，不用负责的 如果在西方万恶的资本主义国家，运营商要赔个底掉吧 精神分裂症 如果信号好的话老人能得到及时的抢救是不是能挽回一条生命呢？信号不好，如果发生其它的突发事件（比如火灾）也不能及时报警啊。 悲剧 联通呗，不过你管他那个运营商，这运营商没有法律规定必须要所有地方都有信号吧。这明显是这种武疯子精神病怎么在家待着？当地民政部门都干嘛去了 3楼，你这都看不懂的话，还是别混论坛了。 这样的儿子天理难容，应天诛地灭。 是精神病吧 是住户不让建基站 [国旗]圣贤和真善美：节日期间，宣传保护生态安全、国家财产安全、人民生活安全的各城市500YING的岗位责任制。 精神病人对社会危害性很大，光持证这一点都极具杀伤力了，只能说是悲剧 现在的手机信号越来越差 楼上说的是，自己做不好，可以让别人做，但是他们垄断啊，让别人做不了，不怪他们怪谁？ [国旗]圣贤和真善美：120救助有功德。 上午10点过，自己一度接到过母亲罗琴打来的电话，“但一接就断线了，打过去又打不通”一接就断线了，打过去又打不通”。肯定是出事了还不赶紧打电话联系附近亲戚朋友去家里看下 精神病大国 早成立了，鸡肋公司 那没信号就只能活该了……你用电信就不让联通的做基站，那联通的也得让你没基站。 客观说，与运营商真没有什么关系，既然早就知道“老家信号不好，电话打不出、接不了的情况，”，那么你可以选择退出该运营商的服务，另择其他运营商。 都别说了，先看看几家运营商的广告，然后说说应不应该出现信号不好的事情，这是合同服务。有人说，是儿子打的，死了和运营商没关系。这还真是二楼说的。110怠慢出警超过规定就会出现死人的事，这种事以前还不少，110都被罪责了。 个人一直觉得精神病应该加重一级处罚，能死刑尽量死刑。<br>别说什么人道了，精神病集体处死未必不是一种最好的人性。<br>精神病犯罪，不确定什么时间、什么地点、针对什么人、伤到什么程度，太可怕了。 三女儿、为什么母亲多次打来电话都短线了、那肯定是有事为什么才十分钟车程都不回去看看 不管什么老年幼年精神病，只要犯罪就要一视同仁，难道被精神病或者未成年捅死，就白死了？ 看看吧，那些要求把基站搬走说辐射大的以后不要告人家啊…… 满篇文章都是在针对信号问题。呵呵呵。是手机信号太弱杀了两个老人吗？ 当然有因果关系，如果信号正常老人活命的希望极大 文章都说了这几个月信号都不好啊 信号不好的应该是联通我有深刻体会，在同一个地方三个手机联通、电信、移动就他们两个有信号，他妈的我联通信号一点都没有！ 这他妈很中国，很特色 不回家看看不去打110不去找邻居帮忙就只会打女儿电话然后去讹运营商？以前发生过某小区不让基站进来然后没信号现在又怪运营商？ 找不到人赔钱了，就怪人家运营商了、我去 精神病院有钱不管是不是真的先关了再说，没钱想进门都没有 卧槽，老人被儿子打了，因为手机信号不好死了居然要起诉通讯公司，真是活久见 三个女儿都打过电话了，接电话的联系不上老人，都不想想再给自己姐妹打个电话问问。我在外地，要是我打不通妈妈电话，就会联系在老家的姐姐最近有没有联系父母 这新闻本末倒置。。。。打死人的是死者的精神病儿子，精神病不用负责任，就把责任责怪到通讯营运商的头上，家属也很大责任，把两个老人和精神病人放一起生活。还有，几个电话接了就断线，那做女儿的还不赶紧回家看看发生什么事。死者其实可以直播110或120，没信号都能通。现在家属怪运营商，觉得有点冤。 公关做的好。 正常的没信号是怪不了运营商，不过文章中运营商只管收钱，提供服务确实不到位，升级网络导致该地区几个月信号不稳定不提供代替方案？怎么人死了信号放大器就来了？还恬不知耻的说不想用可以换别家，你特么到是别靠垄断啊。 110来晚了，就能打死你。 你怎么不说运营商的广告宣传可是和现在说的不一样？收了电话费不提供服务，你很有理是不是。<br>你有理，可你有脸吗？ 该死 应该是移动通信公司的，我们这里也是这样，投诉N次了，过来给加了一个家庭接收机 对此，该通信运营公司南江分公司负责人认为，事情系死者儿子精神方面有问题，把父母打了，伤得严重导致父亲去世，公司没有责任。虽然客户用了该公司的信号，但是公司不一定每个地方都能够覆盖到，也没有谁规定该公司的信号要覆盖完所有片区。<br>律师认为，通信公司的信号不好与死者的死亡没有直接关系；要证明通信公司有责任，需要满足多个前提，就目前的情况来看举证难度很大，建议双方协商处理。***************************************************<br>傻逼律师为什么不解释一下他们宣传的广告？他们的广告可不写，用他们的信号，有的地方能覆盖有的地方不能覆盖。 秦国术的二女儿秦学佳介绍，当天上午10点过，自己一度接到过母亲罗琴打来的电话，“但一接就断线了，打过去又打不通”。也是直到下午2点左右，才接到母亲罗琴的电话说“家里出事了”<br>这闺女心得多宽，还是真的毫不在乎 [国旗]圣贤和真善美：节日期间，宣传保护生态安全、国家财产安全、人民生活安全的各城市500YING的岗位责任制。 怎么不装座机呢， 两老头教育就有问题 收费的时候全部覆盖！ 19岁大学毕业那年找工作，面试我的人事经理是个漂亮的白富美，她肤白个高，长发长腿，不足之处是颧骨较高。她问我：你能干多长时间？我有些诧异，但还是老老实实回答：一般半个小时，状态好的时候四十分钟。她红着脸低声说：我是说你在这儿能干多久？我环顾四周，有些羞涩的说：这我可能放不开，我从没当着这么多人，真的不太习惯。三天后我被录取了，原来她是老板娘。她送给我一本《能量决定命运》，让我学习红浅学。三个月后她挺着肚子辞职离开公司，临行前嘱咐我一定认真学习，不学红浅学，赶不上马化腾，娶不起林志玲。不读《能量决定命运》，富不过刘强东，跑不过贾跃亭。二十年后孩子会来认你的。一个月后我也因肾病离职回乡休养。 该运营公司？看了全篇，硬是没找到到底是哪个运营商。[微笑] 运营商有责任 不提名意在保护运营商，若没猜错的话，我想应该是中国联通 国土部门也有责任，山包把信号挡住了 看到有质疑女儿的终于放心了<br>这女儿接到那么多电话，再加上有个神经病哥哥竟然还不赶紧回家看看。<br>是不是女儿主张索赔的？拿父母挣钱？ 老汉被精神病儿子暴力致死，和通讯网络不存在必然的因果关系。挣死人钱可不是这么个挣法。 这个时候居然不打110 没打120试试 很多高层信号覆盖不太好，物业不给力不让设信号塔，运营商也是干着急没办法，铁塔公司成立后希望能有所作为。 这事我觉得不能和动物园老虎咬死人那个相提并论，这个地方本来以前有移动信号，顾客也是因为你有信号才用你的服务，试想你的网络在这个区域一直没信号哪个客户会买你的服务？运营商升级设施可以理解，但几个月都弄不好是不是太拖沓了？当然这个事不可能要求运营商承担全部责任，应该在合理的范围内要求进行一定赔偿 养了一个没良心的儿子，导致死亡，最后却和怪罪手机网络运营商？搞不清谁是罪魁祸首，白活了一辈子？ 有苦说不出 可悲 她有心就不会放下年迈的父母和精神病的哥哥啦[大笑][大笑][大笑] 不知道打110吗？ 为什么让建？又不是先建基站后卖电话卡模式。我先买的电话卡为什么还要为你建基站提供方便？业主买的房子，公共地方是也是业主个体出的钱。我用电信卡，凭什么让联通在自己花钱卖的地方建个基站？ ",
        "Total": 17313,
        "Reply": 1065
    },
    "Title": "夫妇被儿打伤5小时打不出电话 救护车抵达1人已死_网易新闻",
    "Article": "（原标题：巴中老两口被儿打伤5小时打不出求救电话救护车抵达1人已去世）老两口被儿子打伤，母亲拨打电话求救，连续5小时打了40多个电话才通知到女儿，救护车赶到时，老头儿已不幸去世。死者家属认为，老人家中手机事发前几个月经常处于无信号状态，老人抢救不及时后身亡，手机运营商应该承担相应的责任。2017年12月28日，老两口的幺儿子秦霜（化名）告诉成都商报记者，自己在未出事之前就曾多次向通信运营公司提出过信号问题，但一直并未得到解决。对此，该通信运营公司南江分公司负责人认为，事情系死者儿子精神方面有问题，把父母打了，伤得严重导致父亲去世，公司没有责任。虽然客户用了该公司的信号，但是公司不一定每个地方都能够覆盖到，也没有谁规定该公司的信号要覆盖完所有片区。律师认为，通信公司的信号不好与死者的死亡没有直接关系；要证明通信公司有责任，需要满足多个前提，就目前的情况来看举证难度很大，建议双方协商处理。危急老两口被儿子打伤呼救电话5小时才打通10月7日早晨8点左右，家住巴中市南江县柳湾乡二村的秦国术（化名）在教育患有精神问题的大儿子秦盛文（化名）过程中被打伤。“因为（儿子）碰了别人家的东西，两父子在扯皮”秦国术妻子罗琴（化名）说，不知道什么原因，儿子秦盛文突然拿起小板凳砸向夫妻二人，随后两人因伤势严重双双倒地。罗琴向成都商报记者回忆，自己是如何被打的已经记不清了，只知道自己昏迷了一段时间，醒来时间大概在早晨9点半左右，随后第一反应是用手机拨打三女儿秦学慧（化名）的电话求救，“但是手机并没有信号”。“家里没有信号，我只有爬出门外寻找信号打电话，但电话就是打不出去”罗琴说。此后，直到当天下午2点半左右，罗琴才打通三女儿秦学慧的电话，电话中她告诉女儿“爸爸被打严重了”，让对方赶紧求救和报警。成都商报记者了解到，120救护车最后达到现场，已经是下午4点左右。秦国术的二女儿秦学佳介绍，当天上午10点过，自己一度接到过母亲罗琴打来的电话，“但一接就断线了，打过去又打不通”。也是直到下午2点左右，才接到母亲罗琴的电话说“家里出事了”。秦学佳赶到现场时，急救的120医生当场宣布父亲秦国术已经死亡。秦学佳将母亲罗琴送南江县中医院治疗，随后的事情交由警方处理。当晚，罗琴被南江县中医院下病危通知书。事后罗琴介绍，自己苏醒后急着打电话，由于腿脚不方便，被打之后已无法行走，只能爬出家门寻找手机信号。成都商报记者了解到，秦国术一家住在柳湾乡二村的湾里，隔壁是秦国术弟弟的房屋，但家里没有人，全在外地打工；此外离他家最近的住户有50多米远，是位70多岁的老人；另外一户约100米左右，住着两位80岁的老人，一人髋关节有问题基本不下地走动，另一老人听力不好。南江县公安局的一份《鉴定意见通知书》显示，秦盛文患有精神分裂症，秦国术系钝力致颅脑损伤死亡，罗琴为轻伤一级。事后，秦国术的幺儿子秦霜回到老家发现，从10月7日的早晨9点半左右，母亲开始拨打求救电话。随后的5个小时内，罗琴的通话记录显示，她给自己的三个女儿总共拨打了42次电话。秦霜说：“在生命危急的时刻，一分一秒都很珍贵，直到5个小时后才拨通电话喊救护车，想救已经来不及了。”秦国术和罗琴的《鉴定意见通知书》背景运营商称升级网络数月前开始信号就变弱据秦霜介绍，母亲的手机信号一直非常稳定，“我们也图一个高质量的通话信号”。母亲家里曾经是室内室外全覆盖，信号任何地方都是满格。正因为如此，一家人选择使用该运营商的手机号至今已有六七年时间，“父母也算是该运营公司的老用户了”。不过，这种情况持续到2016年12月份就结束了。2017年过年期间，秦霜给老家的父母打电话，发现信号变弱了，有时甚至直接是无信号的状态，“本来以为父母手机出问题了，后来才知道整个片区都出现信号不好的情况”。秦学佳则表示，自己家离父母距离较远，坐车需要一个小时左右，有事也是电话联系；三妹秦学慧离父母家车程约10分钟，“平时有什么事，都是和三妹联系，她再跟父母说。”柳湾乡二村三社社长石贤德1日向成都商报记者证实，确实存在信号不好的问题。“已经有好几个月了”，石贤德说，三社有48户人，自己所住的院子有7户人，除了他自己的院子信号好一些之外，其他41户人的手机信号都不好。“有时打得通，有时打不通，不止一户两户人家信号差。”罗琴住院期间的病危通知书投诉事发前多次投诉无果事发后安装信号增强器秦霜告诉成都商报记者，针对父母老家信号不好，电话打不出、接不了的情况，他先后3次通过运营商的官方客服热线反映。根据秦霜的说法，他第一次反映是2017年2月春节期间，对方表示在升级3G/4G网络；2017年5月（五一节后）他再次反映，对方还是说正在升级中；2017年9月中旬，秦霜再次通过官方客服热线反映老家一带室内手机信号偏弱或无信号问题，客服人员再次说在升级中。“当时就冒火了，我本人都回来3次了，几个月都还没有弄好。”秦霜说。秦霜介绍，后来该运营商巴中分公司的工作人员联系了自己。他提出希望尽快升级成功，甚至称“如果因为通讯家里出事，会找麻烦”。持续反映投诉3次，但问题一直没有得到解决，直到10月7日。2017年10月13日中午，秦霜在父亲下葬之后，再次向运营商投诉。10月14号上午，公司安排工作人员前往老家临时安装了一个家庭信号增大设备，现在室内任何一个地方均有满格手机信号。柳湾乡二村村书记兼村长石文德介绍，全村村民大部分都在用该运营商的手机号，大概在半年之前出现的问题，“一会儿有信号，一会儿没有信号”。他表示，村上干部也找过该运营公司，说解决情况，到现在还是没有解决。大儿子秦盛文的《鉴定意见通知书》回应不一定能保证全覆盖死者系打伤死亡，“不该怪我们头上”“信号不好，5小时后才打通求救电话，耽搁了父亲的抢救时间。”秦霜认为，通信问题是导致父亲没有得到及时救治、最后死亡的原因之一，该运营公司应承担相应的责任。秦霜表示，父母家里出现信号不好的时候，已和该运营公司的客服联系，希望尽快解决通信问题，确保自家村上能够及时通讯。“没有打招呼，出事情了不怪你”，但自己3次跟该运营商的客服打招呼都没有解决问题。对于父亲没有得到及时救治后死亡，“该通信公司应该承担一部分责任”秦霜说。对此，该运营商通信南江分公司表示并无责任。该运营商通信南江分公司一位张姓负责人介绍，南江处于山区，信号比较弱，（公司）没有义务每个地方都全部覆盖。秦国术居住在山上，基站（和住址）直线距离3公里，较远的基站6公里左右。张姓负责人称，对于信号问题也做过解释工作，“虽然用了我们的信号，但是我们不一定每个地方都能够覆盖到，也没有谁规定我们的信号覆盖完所有片区”。张姓负责人还称，“（用户）其实也可以选择其他运营商的手机号，哪家强就用哪一家，不强迫要用我们的。”关于秦国术的死亡，该负责人表示也派人走访过，是因为秦盛文精神方面有问题，把父母打了，伤得严重导致父亲去世。他表示，秦国术的死亡“不应该怪在我们头上”，如果因为信号不好，就说我们有责任，那没有信号覆盖到的面积很多。最后该负责人以咨询巴中市公司的法律顾问为由拒绝采访，同时表示不知道巴中市通讯公司电话，也无法提供法律顾问电话。律师要证明公司有责需三大前提举证难度很大建议协商针对此事，蓝鹏（成都）律师事务所律师陈小虎表示，死者亲属的心情值得理解，但从法律的角度上讲不通。陈小虎表示，手机号码的使用者在使用手机的时候，只要按时缴费，运营公司必须保持通信畅通，这是使用者和营运公司之间存在的用户协议，但是从案例看，通信运营公司的信号不好与秦国术的死亡没有直接关系。四川卓安律师事务所蒋健律师认为，就目前的情况来看，举证难度很大，建议双方协商处理。蒋健认为，要证明通信公司有责任，需要有如下几个前提：首先是要从医学角度有相关建议和意见，证明秦国术所受伤提前几个小时抢救有生还可能性存在；其次通信公司的通讯和死者死亡之间要有因果关系，这个需要进一步确认；最后，即便以上两点确认，举证难度依然很大，在书面上，法律上要有证据支撑。如果能证明同村多个村民之前的手机通信信号效果很好，突然之间所以人的信号又变不好。通信公司对这个问题是否做出合理性解释，是否是设备维护不到位等造成。不过蒋健认为，这些都不是主要的原因。本文来源：成都商报作者：张杨责任编辑：王征_NN7526",
    "Source": "Netease",
    "URL": "http://news.163.com/18/0102/08/D74OQIGF0001899N.html"
}