{
    "Article": "（原标题：罪加一等？朴槿惠新添犯罪嫌疑韩检方将进行追加起诉）韩国KBS电视台报道截图【环球网综合报道】据韩国KBS电视台2日报道，韩国检方将对前总统朴槿惠新犯罪嫌疑进行追加起诉，其涉嫌收受国家情报院(以下简称国情院)特别经费。目前，首尔中央地方检察厅着手进行起诉准备工作。韩国检方上月22日和26日原定于对朴槿惠进行传唤调查和上门调查，但因为后者拒绝而落空。不过报道称，即使没有朴槿惠的陈述，其犯罪嫌疑也能够被证实。目前，韩国检方已经明确了3位前国情院院长向朴槿惠“上供”的事实。此外，两名前青瓦台秘书官也表明在朴槿惠指示下收钱。据报道，朴槿惠涉嫌在执政的2013年5月至2016年7月间，每月定期从国家情报院“提款”5千万到1亿韩元，共计38亿(约合2313万元人民币)。本文来源：环球时报-环球网。更多精彩，请登录环球网http://www.huanqiu.com责任编辑：程钢_NN7377",
    "Title": "罪加一等？朴槿惠新添犯罪嫌疑 韩检方将追加起诉_网易新闻",
    "PublishTime": "01/02/201812:57:03",
    "Source": "Netease",
    "Comment": {
        "Content": "搞了这么久一个罪都没坐实，想一出是一出慢慢查。 韩检真是一群废物，前边18项罪名，没有有力证据，怎么都感觉新的证据只是屈打成招的证人，前总统得有多冤啊 文在寅不得好死 现在才知道，为什么前总统自杀了 环球时报 一直有此怀疑 可以了吧？ 朴姐宁死不屈！！！ 民主 文同志已激活 😭 其从年轻时的“民盟”身份转变为后来的民主政党的经历和心路，一直未见可信的清晰报道。 朴槿惠当总统沒有经验，自己收什么钱？不会也让亲属做买卖？什么儿子，女儿，妹妹等七大姑八大姨，都去做买卖谁不给面子，送定单？违多大规，发多大财都不追究。 一定是这样的结果！ 环球时报 😭 先将人关起来，然后再找证据，无时限，这也是法治国家? 文同志已激活 文在寅不得好死 其从年轻时的“民盟”身份转变为后来的民主政党的经历和心路，一直未见可信的清晰报道。 一直有此怀疑 总统提钱都不行啊？ 而且不计一切的抹黑打击的手法非常眼熟。 朴姐宁死不屈！！！ 可以了吧？ 都下大狱了就放一马，文在寅后面会怎么样？ 其从年轻时的“民盟”身份转变为独立的民主政党的经历和心路，一直未见可信的清晰报道。 其从年轻时的“民盟”身份转变为独立的民主政党的经历和心路，一直未见可信的清晰报道。 搞了这么久一个罪都没坐实，想一出是一出慢慢查。 韩检真是一群废物，前边18项罪名，没有有力证据，怎么都感觉新的证据只是屈打成招的证人，前总统得有多冤啊 现在才知道，为什么前总统自杀了 呵呵 一直有此怀疑 再定不了罪，就成了zz迫害了。。司法独立就成了笑话。。 而且不计一切的抹黑打击的手法非常眼熟。 文没有好下场 民主 ",
        "Reply": 26,
        "Link": "http://comment.news.163.com/news_guoji2_bbs/D758256T0001875O.html",
        "Total": 197
    },
    "KeyWords": "朴槿惠,犯罪,韩国",
    "URL": "http://news.163.com/18/0102/12/D758256T0001875O.html"
}