{
    "Article": "文／温泉12月29日，据金融时报报道，近日人民银行下发文件，2018年起支付机构客户备付金集中交存比例将由现行20%左右提高至50%左右。为什么下发这个文件？这对支付机构和普通消费者有什么影响？防范备付金风险支付机构的备付金，指的是购买商品或服务时，在收到货并且做出确认之前，短暂停留在支付机构账户上的资金。这部分资金给支付机构带来的收益不小。因为第三方支付的特殊性，在整个交易过程中会产生时间差，而这小小的时间差会形成巨大的资金沉淀，这部分资金在银行账户里产生的利息收入，形成了支付机构的重要收入来源。央行数据显示，截至2016年三季度末，支付机构备付金规模达4600亿，截至2016年底保守估计有5000亿规模。可是，与此同时，资金风险隐患和问题也逐渐暴露。2014年下半年以来，陆续出现多家支付机构挪用客户备付金、造成资金链断裂的重大风险事件。2015年年初，上海畅购事发后，媒体报道，第三方支付机构挪用备付金来理财或者做其他经营项目已成为业界的“明规则”。大幅提升交存比例加强备付金管理早已是大势所趋。早在2016年4月14日，国务院组织14个部委召开电视会议，在全国范围内启动有关互联网金融领域的专项整治，这次行动中已经开始了对支付机构客户备付金风险进行整治。2017年1月，央行发布《中国人民银行办公厅关于实施支付机构客户备付金集中存管有关事项的通知》，规定自4月17日起，支付机构应将客户备付金按照一定比例交存至指定机构专用存款账户，该账户资金暂不计付利息，首次交存的平均比例从10%至24%不等，最终将实现全部客户备付金集中存管。经营不善的支付机构面临生存危机中国社科院金融所支付清算研究中心特约研究员赵鹞认为，此次大幅度调整备付金比例，影响主要体现在两个方面：第一，对于那些对备付金利息收入依赖度较高的机构，影响较大，因为这将使其失去一半的利息收入，这可能会影响到一些支付机构的生存。这个导向是必须的，要让第三方支付机构把更多的精力放在支付业务的创新上，而不是打备付金的主意。第二，对于规范发展、规模较大的机构也有一定的影响。之前第三方支付机构在与银行的谈判当中，因为有较大的业务量而处于优势地位，由此可以向银行争取手续费和利率上的优惠。现在备付金交存比例调整为50%左右，第三方支付机构在银行的存款将大幅减少，其对银行的话语权将减弱。赵鹞认为，在双寡头竞争市场中，这对普通消费者应该不会造成太大的影响。本文来源：网易科技报道责任编辑：姚立伟_NT6056",
    "URL": "http://tech.163.com/17/1229/22/D6RTIC9000097U7R.html",
    "Source": "Netease",
    "KeyWords": "交存",
    "Comment": {
        "Reply": 44,
        "Link": "http://comment.tech.163.com/tech_bbs/D6RTIC9000097U7R.html",
        "Total": 488,
        "Content": "我喜欢支付宝 提高可以银行不付利息什么意思？白用人家钱啊？这可是不小笔钱啊吃相不要太难看！ 真的不要脸到极致了，就知道从民众身上扣油水。 让比特币解决你们的烦恼！ 一张100元的“假”币的成本有多少钱呢？6元、3元？这是一个毛利达到19倍的制造企业，无形资产的价值更可以说是一个天文数字。银行账册应该详细认真的检查，否则就和印刷假币类似。人为操纵的秘籍：1元电子货币等于1元人民币吗?!若1元电子货币等于1千元人民币，那么一百七十元电子货币的银行账户里就应该拥有十七万元人民币。银行账都不让查，假账水平较低。 关键是备付金存银行不给利息的话，<br>1.银行少给钱<br>2.支付机构为生存可能需要提高商家手续费，由此转嫁给消费者 “规定自4月17日起，支付机构应将客户备付金按照一定比例交存至指定机构专用存款账户，该账户资金暂不计付利息”。来来来，存我这，叫我吃利息。 你知道银行的存款准备金是多少吗！ 现在备付金交存比例调整为50%左右，第三方支付机构在银行的存款将大幅减少，其对银行的话语权将减弱。<br>最后一句是重点 应该百分之80％-100％的备付金，客户资金安全是第一位的。 这帮马操的熊日的马猎子孙。。。 不然呢？商业银行借央行钱一样付利息这一下央行又多了几百上千亿免费资金 唉，无奈 反正自己不创新，只想现成分蛋糕 呵呵 现在终于明白阿里为啥大规模降低花呗额度了，钱让央行抽走了，他垫不起这么多钱了 金融问题在于土地的欺骗。计算土地所有权价值很有必要，企业大股东不能侵吞全体人民所有的土地价值。首先要理解什么是资产，股票成交价不能认为全部是资产，面值才一块；人民币也按面值计价的。可以自己新开几家公司，这也是按面值计价的。不能因为少部分人垄断报价，胡乱报价，就拿国家人民的资产去买呢。 央行用吃利息？ 这他妈就是保护费啊 我们家杀两头年🐷 让比特币解决你们的烦恼！ 比赛开始 呵呵 一张100元的“假”币的成本有多少钱呢？6元、3元？这是一个毛利达到19倍的制造企业，无形资产的价值更可以说是一个天文数字。银行账册应该详细认真的检查，否则就和印刷假币类似。人为操纵的秘籍：1元电子货币等于1元人民币吗?!若1元电子货币等于1千元人民币，那么一百七十元电子货币的银行账户里就应该拥有十七万元人民币。银行账都不让查，假账水平较低。 真他妈的无耻，要指定账户，还不给利息 不然呢？商业银行借央行钱一样付利息这一下央行又多了几百上千亿免费资金 666 央行用吃利息？ 不顾吃相了。 绿色健康了 应该百分之80％-100％的备付金，客户资金安全是第一位的。 你知道银行的存款准备金是多少吗！ 那样就没有第三方支付了，你就会回到银行骑在你脖子上肆意妄为的旧时光了 反正自己不创新，只想现成分蛋糕 不超过5% 现在终于明白阿里为啥大规模降低花呗额度了，钱让央行抽走了，他垫不起这么多钱了 支付宝一年选择一次备付金存款银行,说白了是用来要挟银行的砝码之一. 唉，无奈 我喜欢支付宝 真的不要脸到极致了，就知道从民众身上扣油水。 什么意思 都是无奈之举。 现在备付金交存比例调整为50%左右，第三方支付机构在银行的存款将大幅减少，其对银行的话语权将减弱。<br>最后一句是重点 简直不要脸。 关键是备付金存银行不给利息的话，<br>1.银行少给钱<br>2.支付机构为生存可能需要提高商家手续费，由此转嫁给消费者 金融问题在于土地的欺骗。计算土地所有权价值很有必要，企业大股东不能侵吞全体人民所有的土地价值。首先要理解什么是资产，股票成交价不能认为全部是资产，面值才一块；人民币也按面值计价的。可以自己新开几家公司，这也是按面值计价的。不能因为少部分人垄断报价，胡乱报价，就拿国家人民的资产去买呢。 郭哈哈哈哈哈 第三方的成本激增 但是银行其实是想要那少了的30%的，所以并不有利于银行 那也没有办法。 提高可以银行不付利息什么意思？白用人家钱啊？这可是不小笔钱啊吃相不要太难看！ 为啥 最典型的就是房价一年翻番 “规定自4月17日起，支付机构应将客户备付金按照一定比例交存至指定机构专用存款账户，该账户资金暂不计付利息”。来来来，存我这，叫我吃利息。 他们的管理方式就是收钱。实际风险并没有变低，因为国家信用也很低。 那么多 还在使用易宝支付的话是不能退回来的,如果是合同到期的话那就是可以退回来的.我用的翼海支付都是不需要备付金的! 这帮马操的熊日的马猎子孙。。。 真的假的？ A4纸是一张接一张 25 不就是按照金融机构的监管执行了么，有什么大惊小怪。国外没支付宝这种中间容纳资金的模式还不是因为法规监管严格。 这他妈就是保护费啊 我们家杀两头年🐷 "
    },
    "Title": "备付金交存比例大幅提高:部分支付机构面临生存危机_网易科技",
    "PublishTime": "12/29/201722:00:30"
}