{
    "KeyWords": "芭蕾舞团,中心,法官,法院",
    "PublishTime": "01/02/201815:30:05",
    "Comment": {
        "Link": "http://comment.news.163.com/news_shehui7_bbs/D75GQBUJ0001875P.html",
        "Content": "相信法官正确的判决。 法制社会 法治社会 走法律程序 依法治国 等待最高院的判决书！ 相信法律的审判 依法断案 法治国家首先要尊重法律 我们是法治社会 支持 捍卫我国文化尊严！！！ 如果说不服判决，可以上诉，如果判案法官在审判过程中有违法行为，也可以举报，不用通过媒体攻击判案法官吧 看不懂，但我相信法律。 法治社会 期待结果 法治国家 嗯，期待对版权的对待 没说的。支持远征 相信法律 支持 我看到了中国的进步 法律面前人人平等 我喜欢中芭的演出，但不代表中芭没有法律章法的辩解，说明中动不动就上纲上线，颇有以前的味道，没想到中芭的思维方式还是乱乱的。不代表我支持冯远征夫妇，因为中芭的申明一堆抱怨，前因后果没讲清楚。 依法治国，法不容情 法治国家！相信法律！ 依法断案 看到了愤怒，但是政治语言用的太多了吧？在没有法律的判决下直接这样评论法官和中芭 法治 我相信法律是公正的👏👏👏 尊重知识产权，严格按法律程序办事 这个声明有点那个年代的味道 尊重事实，敬畏法律！不清楚他们之间的恩怨事非，但不能无端指责。 法律是公正的。 有理往上告呀，法制社会 法律是公正的 难道三级法院都被冯远征夫妻买通了吗？难道三级法院都要陷害你吗？ 法制社会 难以想象中央芭蕾舞团能发出这样泼妇口吻的声明，依法维权不行么，这样的内心能跳出什么高雅的舞蹈出来？ 有法可依，有法必依。 依法治国 这个冯远征告的对a 法治国家 法治社会 依法 依法治国 支持法律 法制社会 看不懂，但我相信法律。 尊重事实，敬畏法律！不清楚他们之间的恩怨事非，但不能无端指责。 期待最终结果 法制社会 如果说不服判决，可以上诉，如果判案法官在审判过程中有违法行为，也可以举报，不用通过媒体攻击判案法官吧 相信法律 如果说不服判决，可以上诉，如果判案法官在审判过程中有违法行为，也可以举报，不用通过媒体攻击判案法官吧 依法制国 中国法治！ 法治社会 法制社会！ 支持中央 法治社会！！！！！ 我们是法治社会 依法！！！！！！！ 法律面前人人平等 依法断案 没说的。支持远征 协议书》，诈取不义之财引发的本不该发生的诉讼案，原本法院对毁约背信的行为是不难断案的，但劣质法官孙敬在得知冯远征夫妻提出要求中央芭蕾舞团给予150万元补偿及今后（五十年）每年要30万元的调解要求<br><br>这文章？？？ 看到了愤怒，但是政治语言用的太多了吧？在没有法律的判决下直接这样评论法官和中芭 法治 有法可依，有法必依。 如果说不服判决，可以上诉，如果判案法官在审判过程中有违法行为，也可以举报，不用通过媒体攻击判案法官吧 👦👦👦 这个声明有点那个年代的味道 法律是公正的。 法治国家！相信法律！ 难道三级法院都被冯远征夫妻买通了吗？难道三级法院都要陷害你吗？ 支持冯远征夫妇的正义呐喊 相信法律 法制社会 支持司法公正！ 相信法官正确的判决。 老赖！ 我就想知道当时的法官怎么样了。 深植于广大人民群众心中的芭蕾舞剧，不要随便捆绑人民，还有娘子军和芭蕾舞结合是什么怪胎 呵呵 还不让发帖啊？至于吗？呵呵😊 我支持法律 如果是法院判错法院可以纠正如果法院判决正确一个小小的剧团敢公开叫板法律这个问题将一一一一一一 哦哦哦 呵呵 红色娘子军怎么成国家利益了 瞎扯！梁信起诉才55万元。中芭却说调解金额150+30*50。哄鬼呢？ 皮厚吧……芭蕾舞团也会成老赖？ 请不要把老百姓捆绑进你们这个声明，你们只代表你们自己。 作为一个国家艺术团体，尊重司法的素质是应该有的。公告通篇对法官冠以劣质名头，过分了。有理就上诉申诉申请重申，国家给你们的经费是用在骂大街水平提高的吗？ 依法论事！！！ 制法用法一肩扛，<br>前卅后卅对麦芒，<br>喜看闹剧浪迭浪，<br>撰写判决哪家强？ 就是不执行，你能咋滴 法治社会 解散了呗，花国家的钱， 法！ 什么咬什么？ 要在我们这，写这个拘留. 有种继续对簿公堂 一头雾水 我喜欢中芭的演出，但不代表中芭没有法律章法的辩解，说明中动不动就上纲上线，颇有以前的味道，没想到中芭的思维方式还是乱乱的。不代表我支持冯远征夫妇，因为中芭的申明一堆抱怨，前因后果没讲清楚。 俺是善良但是不会与你为伍 一上来就是几顶大帽子压过来 法律怎么判就是怎么执行，哪怕判错了！这就是法制社会！作为一个有影响的团体公然发表针对法官个人的侮辱性言论，就知道他们不是什么好鸟 相信法律是会有点公正的 我相信法律是公正的👏👏👏 啥情况 难以想象中央芭蕾舞团能发出这样泼妇口吻的声明，依法维权不行么，这样的内心能跳出什么高雅的舞蹈出来？ 舞团博取同情罢了，著作权是别人的 上来先扣帽子，呵呵 一面之词，不予理睬 就这样。老百姓碰见也是有苦难言。自己造的房子最后都要和别人分享，法院，呵呵 你往上告就是了，为啥出这么个大字报，这不温格作风吗 芭蕾舞团有那么大号召力? 什么情况 既称法院错误判决渎职法官<br>为何不上诉? 我们支持中央芭蕾舞团 首先任何谴责不要捆绑广大人民群众，然后不要把国家大政方针什么的也给裹进去，你们的私事不要搞得跟中央跟人民的事一样！ 你方唱罢我登场 有理往上告呀，法制社会 ✌😁 百姓在这种情况下通常会被告知：1）必须执行法院的判决。2）有不服可以上诉或者另案反诉。<br>在被告拒绝这些建议时，会被强制执行，与是否冤案无关。<br>中国芭蕾舞团是因为身份特殊，所以可以对抗法律吗？他们指当事法院法官的判案是“枉法”，其实应该出现在上诉书或者另案起诉书中，而不是在媒体上。所以“利用媒体”这四个字，用在冯氏夫妇身上还不如用在他们自己身上更为贴切。 法院判了，不执行。只有集团，没有个人。屠呦呦周围的人也是这样想的。 我呸尼玛 我从头到尾都没听懂在说啥。。。 判的时候不管，给钱的气候又不愿意 写了这么多，不如直接把合同版本发出来，让大家评判，谁对谁错，一目了然。 说的来中芭好像很冤枉似的，那年你们有给过人家版权费没呢。 这个芭蕾舞团完全是一个无赖，通篇文革式的扣帽子， 你觉得冤枉就上诉。如果还是维持原判，再大的不满和委屈，那也得执行。 一看就是法制社会，没毛病， 有点乱哪 我就问一句，演出是免费的吗？ 哈哈哈哈 我们是法治社会 怎么回事？我才知道这回事 老是拿领导的话给自己撑腰，这是法治精神？ 请不要拉上老百姓！不要代表我 不是很明白这件事的来龙去脉，舞蹈学院说，红娘是共同创作的作品，利益不归个人所有？冯说，红娘本是岳父所创，为已经打赢的官司争取利益？有没有小编客观的整理一下？ 有点意思 你们玩就好，不要带上善良的人民好吗 法制社会 没明白怎么回事，原谅我的低智商 依法治国 你凭什么断定判案法官徇私枉法？凭啥说人家渎职？上来先扣帽子才是你们的本能吧！你们在质疑法官公正与否的同时也在侮辱法律。如果法律有智慧，面对一个一边向他身上抹屎一边指着鼻子要“公正”的“法人”，回作何回应？ 文章满嘴大帽子，列明事实，尊重法律，法官判你输，人家就是腐败分子？这是什么素质？你中央芭蕾舞团把自己当中央了？ 为啥每一句主语都要带个老百姓呢。分钱时候也带着么？ 感觉这个舞蹈团是法盲。 你挂着中央二字就可以明目张胆侵权？“正义”侵权？ 天下攘攘皆为利往 著作权是梁信先生的吗？他的后人是不是继承该著作权？ 这么弱智的回应到底是谁写的？不仅公然否定法院的判决还直接对法官进行人身攻击。一个小小的国家芭蕾舞团都这么有底气的咯，你们还以为自己是首长选妃团有特权的吗？ 法律是给有钱有势有人的人使用的，不是给每一个人准备的，也不是每一个人都能得到公正的待遇，祝你不要打官司 请将这个事情的全部过程公布于众，让人民来判决！ 法治社会不听法官的吗？还以中央开头呢 那边已经到顶了，再上就是天堂了 你有理你怕啥继续…… 这么大单位没律师 样板戏的编剧不是一个人的功劳吧，要尊重历史事实，多少人的心血才成为名剧，不要太不要脸了。冯还是好好演戏，好好做人吧。 哈哈哈哈哈哈哈哈哈哈哈哈哈哈哈哈哈哈哈哈哈哈哈哈哈哈哈哈哈哈哈哈哈哈哈哈哈哈哈哈哈哈哈 依法判案，无可厚非<br>依法上诉，公民权利<br>据判执行，法之必然<br>法治社会，无法不通 发生了什么事情？ 要相信法律 好好打官司，不要带上所有人民群众 我相信法律判决，其余的一切都是和公正耍流氓。 不要把老百姓捆在一起，老百姓就是看节目，版权问题由当事双方解决。 既然尊重法律，对结果不满可以上诉，也不应用舆论给法官施加压力 不能用前三十年否定后三十年，同样，不能用后三十年否定前三十年！ 法律有错误了，应该怎么办呢😳 法治国家首先要尊重法律 事实就是的讲，对于文革期间文艺作品要有理性认识，大多数文艺作品并不是个人的成就。当然主创劳动所得也必须给予体现，至于主创家属是否有全部或部分的继承权要看法律对（共同文化创作）知识产权上的具体说明 呵呵（｡ӧ◡ӧ｡） 支持冯远征 凭什么说法官枉法裁判三级法院都枉法裁判？诬陷诽谤这是 我们是法治社会 原来当老赖也是支持法制社会 不要和陌生人说话 通篇假大空，拉大旗扯虎皮，有理你上訴去呀，一幫目無法紀的畜生 有希望了 这文笔真心牛，处处把老百姓跟他们捆绑到一起，还处处给别人扣帽子！ 依法治国，法不容情 不执行法院判决也是真的。觉得判决有问题去申请再审去。 看这纸声明，怎么感觉像在看大字报～再说了，你凭什么代表“广大善良百姓”？ 公道自在人心 是怎么个意思哪位专业及知情人士来解读一下一方面我相信中芭是国家级团体不会信口雌黄另一面又相信都北京高院复审了也不可能枉法不顾这什么情况？ 上诉啊 支持上诉！ 记得西城法院有个钟法官，呵呵。 这是什么情况，对判决不服就上访，是法律不行，还是判决不行，其实是对法治的不信任， 这发出来又有什么意思，都不能评论 那个时候的创造应该是职务行为吧……给一点儿补偿说得过去，漫天要价就不对了……而且即使是专有权，也是有保护期限的……法官判决让人生疑…… 什么情况，又是为钱闹的 这说有什么用，有理你往上告啊 捍卫我国文化尊严！！！ 狗咬狗，到法庭上 他们两口子不可能无缘无故的跟中央芭蕾舞团对着干的，那可是中央芭蕾舞团，不是普通的 芭蕾你妈妈 谁能把前因后果给捋一捋，没看明白 芳草～ 肯定里面有啥猫腻。 公正？公正，好的好的 走法律程序 只看题目就知道结果了 支持北京高院判决 握草！猛料啊！看看结局如何？ 创作人是有享受到体制待遇下创作的、这样的劳动成果要归个人可能不太好 我们是法治社会 呵呵看热闹 我不相信这种团体。我信冯生。 “中央芭蕾舞团已沦为司法冤民，将被逼步入上访大军！”😏😏😏 太多了，懒得看，那个大佬来总结下？ 既然谈法，判决了不服可以上诉，别带个中央的名头就拒不执行 作为一个中字头的艺术团，搞文化的应该水平很高，居然用出“劣质法官”、“司法枉民”之类的词汇，到底应该裸晒谁的素养？ 中央芭蕾舞团你有证据有理可以上法院解决，为什么发生声明而不上法院呢？？？？难道老赖名字带有“中央”二字就可以高人一等吗？？？？？无耻之极！！！！ 厉害了 坐等看戏 通篇就是喊口号，打官司你就直接拿证据出来啊 南京法官出来走两圈 法制社会 人家主张版权有啥错？还想和以前都收回国有？ 哈哈哈哈 有中央两个字，你还想执行？ 判决后，可上诉，如是最终判决，请执行！如有异议，可通过法律手段去解决！判了不办才是真正违法！其次我作为人民不想被你带上，请自重！ 红色娘子军是国家的产权！ 法院判你败诉了，就不承认了？ 支持法院判决，你们使用别人的著作权何时支付过报酬？<br>此一时彼一时！当年还不是法治社会，现在别人争取又有何错？<br>土匪一直就改不了抢的本性！ 请不要代表我们。 不演了，反正也不会有人看了 社团用人家的著作为什么不给钱 ！！！！ 北京西城区法院摊上事了 这都不是普通人啊，都来网上哔哔哔，就是不相信法律相信法院。依法治国啊。任重道远。 这是历史！芭蕾舞团再创作便光大。 有理往上告呀，法制社会 坐看风起云涌 用了别人的东西，久了就成自己的了？ 哈哈 我支持冯远征 中央芭蕾舞团你有证据有理可以上法院解决，为什么发生声明而不上法院呢？？？？难道老赖名字带有“中央”二字就可以高人一等吗？？？？？无耻之极！！！！ 期待法制践于行 如此人身攻击办案法官？ ",
        "Total": 20910,
        "Reply": 644
    },
    "Title": "中央芭蕾舞团：冯远征夫妻利用媒体颠倒黑白_网易新闻",
    "Article": "（原标题：中央芭蕾舞团的严正声明）由于北京西城区法院错误地强制执行渎职法官的枉法判决，已对深植于广大人民群众心中的芭蕾舞剧《红色娘子军》造成严重伤害，进而使《红色娘子军》将遭遇被迫停演的命运！为捍卫无数先烈用生命和热血染红的《红色娘子军》不被司法腐败玷污，为捍卫六代艺术家用心血浇灌的《红色娘子军》舞剧能继续屹立于舞台，为捍卫国家院团献身人民艺术近六十年所建立的声誉，中央芭蕾舞团强烈谴责北京市西城区人民法院枉法判案法官孙敬肆意践踏国家法律、破坏社会法治的恶劣行径！芭蕾舞剧《红色娘子军》是在周恩来总理的亲自关心、指导下，在中宣部、文化部直接领导组织下，在无数老艺术家、人民解放军以及全社会各行各业精英的共同努力奉献支持下创作诞生的。她是中华文化智慧的结晶，是东西方文化艺术融合创新的成果，是所有为其付出心血的艺术家们的集体创作，她不应是任何标榜个人利益唯上的盗名欺世者的工具，更不应是图谋将集体智慧窃为己有的拜金小丑的摇钱树！因此，中央芭蕾舞团严正声明：第一，不能用前三十年否定后三十年，同样，不能用后三十年否定前三十年！对法院中劣质法官违背中央大政方针，违背国家法律，罔顾案件事实的自相矛盾的荒唐枉法判决，我们全社会善良百姓和所有参与《红色娘子军》芭蕾舞剧各项工作的艺术家们，都将予以坚决反对和严厉谴责！在历时五年的维权诉讼中，中央芭蕾舞团和善良的中国老百姓一样，相信法院会依法判案、公正判案，因此当冯远征夫妻利用媒体颠倒黑白欺骗舆论大演悲情戏时，我们为避免干扰司法审判而采取克制态度，但办案的劣质法官敢如此明目张胆枉法判案却是我们中央芭蕾舞团和善良百姓怎么也不会想到的！我们不但要坚决追究这些盗用和滥用国家司法权力的劣质法官对中央芭蕾舞团造成的伤害，并要将此案作为切入点，会同社会各方正义力量对百姓反映强烈、十八大以来仍不收手的司法腐败进行严厉声讨和揭露！积极推动我们社会的法治建设，让习总书记所说的要＂努力让人民群众在每一个司法案件中都能感受到公平正义＂的庄严承诺真正得以实现！第二，《红色娘子军》著作权纠纷案，是一起因梁信及女儿梁丹妮、女婿冯远征背信撕毁1993年双方签订的《协议书》，诈取不义之财引发的本不该发生的诉讼案，原本法院对毁约背信的行为是不难断案的，但劣质法官孙敬在得知冯远征夫妻提出要求中央芭蕾舞团给予150万元补偿及今后（五十年）每年要30万元的调解要求后，即开始不断向中央芭蕾舞团施压，企图迫使中央芭蕾舞团接受这种无理的调解要求，在拉锯几年后，西城法院见中央芭蕾舞团拒不接受这种出卖中央芭蕾舞团和国家利益的调解，法院最终就作出了这份自相矛盾的违法判决书！左手判中央芭蕾舞团没有侵权，右手却判中央芭蕾舞团要支付侵权赔偿！这份出自北京市西城区人民法院白纸黑字的所谓正式判决书，分明是在掌掴中国法律和中国司法！我们不知道，这是哪个法学院教出来如此滥竽充数的法官！北京市西城区人民法院违背事实，判称中央芭蕾舞团与梁信所签的一次性转让合同仅是“十年之约”合同、不是永久合约，据此做出不符合事实真相的枉法裁判，司法公正何在！？北京知识产权法院的二审判决，前言1993年所签协议不是“许可合同”，后语一次性支付的合同费用是“许可费用”，同一纸判决书上存在如此前后矛盾自打嘴巴的判词，司法公信力安在！？北京市高级人民法院的四页判决书仅重复了二审判决内容，完全回避中央芭蕾舞团的再审请求。党和人民交给法院的庄严审判权，却被这些劣质法官如此随意辗压，如此荒唐玩弄，司法权的合法性、公正性、公信性何存！？司法公正被肆意践踏！君不见法院竟然将这种荒唐判例列为2015年度北京法院知识产权十大典型案例，不以为耻，反以为荣！这种违背法律常识的判决，不仅玷污了中国法律，还直接扒光了法官的法袍，裸晒了法官的素养！不知这对法官群体是怎样一种无情伤害？！第三，历史不容篡改，面对三级法院对《红色娘子军》案罔顾事实，违背法律的判决，中央芭蕾舞团已沦为司法冤民，将被逼步入上访大军！中央芭蕾舞团将继续同《红色娘子军》剧主创人员、法律专家和社会各界一道，以事实为依据、以法律为准绳，以确凿的证据和明确的法规来证明此枉法判决的错误。正义也许会迟到，但绝不会缺席！在此，让我们共同重温习总书记在《关于〈中共中央关于全面推进依法治国若干重大问题的决定〉的说明》中告诫全国人民的掷地有声的讲话：“我曾经引用过英国哲学家培根的一段话，他说：‘一次不公正的审判，其恶果甚至超过十次犯罪。因为犯罪虽是无视法律——好比污染了水流，而不公正的审判则毁坏法律——好比污染了水源。’”中央芭蕾舞团将与我们善良的百姓一起，坚决维护司法的公平正义！坚决不向枉法裁判和司法不公屈服！坚决与危害我们社会的司法腐败作斗争！中央芭蕾舞团将以严正声明的方式坚持发声，捍卫我们国家文化的尊严！捍卫国家院团和艺术家的声誉！捍卫我们社会的公平正义！中央芭蕾舞团2018年1月2日网易娱乐1月2日报道今天中央芭蕾舞团就侵权案判决发表声明，称舞剧《红色娘子军》将被迫停演，质疑法院判决。冯远征转发该声明，并称：今天2018年的第二天中央芭蕾舞团的“声明”。用了大篇幅质疑中国的法律，质疑西城法院的判决，谩骂和诋毁我和丹妮。中央芭蕾舞团如此无视中国法律，把自己凌驾于法律之上，这样的法盲团领导实在可笑。冯远征回应中央芭蕾舞团声明：法盲团领导可笑网易娱乐1月2日报道今天中央芭蕾舞团就侵权案判决发表声明，称舞剧《红色娘子军》将被迫停演，质疑法院判决。冯远征转发该声明，并称：今天2018年的第二天中央芭蕾舞团的“声明”。用了大篇幅质疑中国的法律，质疑西城法院的判决，谩骂和诋毁我和丹妮。中央芭蕾舞团如此无视中国法律，把自己凌驾于法律之上，这样的法盲团领导实在可笑。冯远征控诉中央芭蕾舞团侵权拖延获网友力挺著名剧作家、《红色娘子军》编剧梁信曾于15年起诉中央芭蕾舞团著作权侵权，当年5月18日，北京市西城区人民法院一审判决中央芭蕾舞团赔偿梁信经济损失人民币12万元，但两年多过去了，梁信本人也已去世，中央芭蕾舞团却仍未履行法院生效判决。本文来源：中央芭蕾舞团责任编辑：范姜国一_NN9138",
    "Source": "Netease",
    "URL": "http://news.163.com/18/0102/15/D75GQBUJ0001875P.html"
}