{
    "Title": "台民进党资深党员联名:开除市长参选人黄伟哲党籍_网易新闻",
    "PublishTime": "12/31/201711:01:04",
    "URL": "http://news.163.com/17/1231/11/D6VSKB4T0001875N.html",
    "Source": "Netease",
    "KeyWords": "民进党,台湾,国民党,党员,选举",
    "Comment": {
        "Reply": 91,
        "Content": "唐慧贤 黄伟哲算是民进里比较温和的。他妹妹是蓝营中国派，他是绿营台独派。俩兄妹对立得厉害。还是转蓝吧，有出息些。 是的，是唯一看着还算顺眼的绿绿 斯文人 台湾的政论节目比较有水平和中肯的只有赵少康，沈大佬，唐湘龙和郑丽文 趙天麟委員也是溫和理性的民進黨人 应该把台湾省政论节目在大陆可以直接观看，看绿台的节目就知道，为什么我们名声不好了，为抹黑真是睁眼说瞎话；看蓝台的节目就知道祖国多牛逼了…哈哈哈😂绿营比较喜欢黄伟哲，上比较多蓝台的节目，至少不会颠倒是非，偶尔在一群蓝派里拗一下，觉得好可怜啊！哈哈哈哈 黄伟哲是民进党里为数不多的不硬拗的 还有赖岳谦 台独党自作死，早退早好 能代表黾尽党参选的人能有良知，就如同相信美国侵略别国是为了那个国家的民主一样，没有脑子！ 黄伟哲受他妹妹的影响很大，说话做事算是民进党里少有的比较理智的！ 黄智贤要说了，黄伟哲不是这种人。夜问打权估计要洗白，深喉咙只怕是众人推墙，倒是如果沈大佬在的话挺想听听他怎么说 不骂人了？ 夜问打权里他的言辞表现感觉他是中间派的，有时也批评自己党内的政策。 兄妹俩都在各自为战，最终走向共和 你再到绿媒的节目去看看？面对不同的受众展现不同观点和风格，这是每个绿营人的必修课，其中的鼻祖就是蔡英文。黄在这方面也可以，不过，他确实有点太靠近蓝了，估计早晚会被绿处分 配图都配不好，这个哪是黄伟哲？还有陈婷妃呢？台湾还得找专业人士解读才可以 楼上这位还年轻啊，判断力容易受别人影响。 听听民进党的沈大佬怎么说 不硬坳个jb，人云亦云。他是最会硬坳的一个，最会比烂这叫不会硬坳？黄伟哲揣着明白装糊涂，演技巨差，他不会像其他人一样直接“硬坳”只不过是想蓝绿逢源罢了，说不定早就被兔子渗透了。 一般啦，也拿计算器砸过人，相比我觉得郭正亮不错绿营唯一不让我讨厌的人！ 妹妹脑残黄智贤 黄伟哲算是民进里比较温和的。他妹妹是蓝营中国派，他是绿营台独派。俩兄妹对立得厉害。还是转蓝吧，有出息些。 是的，是唯一看着还算顺眼的绿绿 郑运鹏也还可以 斯文人 看深喉咙，一堆人喷他，他也不生气，控制语速，换其他绿吊早尼玛泼妇骂街了 搞得人好像你不受别人影响似的 不骂人了？ 趙天麟委員也是溫和理性的民進黨人 还是高雄的老正太赵天麟喜欢 哈哈，非常的残 还有赖岳谦 应该把台湾省政论节目在大陆可以直接观看，看绿台的节目就知道，为什么我们名声不好了，为抹黑真是睁眼说瞎话；看蓝台的节目就知道祖国多牛逼了…哈哈哈😂绿营比较喜欢黄伟哲，上比较多蓝台的节目，至少不会颠倒是非，偶尔在一群蓝派里拗一下，觉得好可怜啊！哈哈哈哈 旗米拉 妹妹脑残黄智贤 真有狗出来吠 狗咬狗 黄伟哲还是比较客观的，人还蛮有趣的，😊 谢谢 政治斗争套路多。 夜问打权里他的言辞表现感觉他是中间派的，有时也批评自己党内的政策。 不骂他了？ 胡扯，在新闻深喉咙里硬拗的也很多 听听民进党的沈大佬怎么说 叶问应该没去过，他妹妹主持节目，两人意见相反 民进党都不是好东西！ 脑残的人看谁都是脑残。喷子就喜欢喷粪。 為的是爭取淺藍的票！ 唐慧贤 民进党狗咬狗以后会激烈！ 说到喷，比得了那些绿营节目吗？ 叶问是他妹，他敢去吗 顺眼？你去看看他在年代和民事的表现 台湾的政论节目比较有水平和中肯的只有赵少康，沈大佬，唐湘龙和郑丽文 陈婷妃这么绿你们还要批评她，过分了 黄伟哲是民进党里为数不多的不硬拗的 黄还不硬拗？经常把赖月谦搞到哭笑不得好吗 你去看看28还是29号的新闻深喉咙，不是不硬拗，只是相对于王定宇等其它民进党来说少拗。 郭阴阳怪气的…说话的时候老一抖一抖的…感觉很怪 摇扇子的是陈亭妃，哲宝宝嘛，被蓝莹女嘉宾怼的不要不要的，你可以关注旗米拉网站，里面有台湾的政治评论节目，我个人喜欢看新闻深喉咙，有多深挖多深。 一般啦，也拿计算器砸过人，相比我觉得郭正亮不错绿营唯一不让我讨厌的人！ 黄智贤要说了，黄伟哲不是这种人。夜问打权估计要洗白，深喉咙只怕是众人推墙，倒是如果沈大佬在的话挺想听听他怎么说 新闻深喉咙里这么说他的😶 呵呵那是你没看到高甲鱼是怎么坳的。。。 他有时候拗的也挺硬，不过比徐佳青，高嘉瑜这类恬不知耻的强。坐等他妹妹黄智贤来评理。 还有郭正亮 黄伟哲和陈婷芬民意都比颜纯左高，尤其是黄伟哲一直维持在最高位，开了他们俩，自己才好上位啊 台湾政客不管蓝绿，都是为了个人名利，在名利面前没有什么坚定的政治理念，蓝变橘，橘变绿，绿变蓝，都是看那条道有上升空间。一旦上升通道受阻马上变色 配图都配不好，这个哪是黄伟哲？还有陈婷妃呢？台湾还得找专业人士解读才可以 深喉咙上得多，夜问打权也有去过 黄是民进党的温和派，陈是激进派，现在都不受基本教意急独日本龟儿子派的待见了？ 楼上这位还年轻啊，判断力容易受别人影响。 黄伟哲受他妹妹的影响很大，说话做事算是民进党里少有的比较理智的！ 不硬坳个jb，人云亦云。他是最会硬坳的一个，最会比烂这叫不会硬坳？黄伟哲揣着明白装糊涂，演技巨差，他不会像其他人一样直接“硬坳”只不过是想蓝绿逢源罢了，说不定早就被兔子渗透了。 他在立院開打，斯文個屁，陸陸他天真了 不是夜問那就是深喉嚨了，反正是中天的，不過應該佩服他的膽識，老是參加被一群藍營或中間派包圍的節目，辯論時不溫不火，有時看到他被一群牙尖嘴利的酸，臉上大不悅又不能發作，忍俊不禁之餘也琢磨為什麼他要上這類論調一面倒的節目被開涮？為了出場費？ 此言差矣，两头押宝多好？ 黄伟哲上深喉咙也不过是为了赚点浅蓝票，毕竟选市长，在党内没什么派系支持。绿里面其实郭光头还算明白人，但不敢多讲。 平论已关！ 黄伟哲为民进党尽心尽力，没想到是这样的下场。 解放台湾就靠台湾民进党了！ 伟哲宝宝心里苦 伟哲宝宝心里苦啊 现蓝工资都发不出了，绿的只要会拍马屁，有人脉，都有位子蹲。 楼上这位还年轻啊，判断力容易受别人影响。 台湾人真的很喜欢内斗 夜问是黄智贤的地盘，黄伟哲只会上深喉咙和少康战情室。黄伟哲和黄智贤是兄妹，但是因为立场不同，互不待见。 黄伟哲算是民进里比较温和的。他妹妹是蓝营中国派，他是绿营台独派。俩兄妹对立得厉害。还是转蓝吧，有出息些。 民进党也有底线的吗🤔 天涯台版一大推 有故事 黄伟哲是民进党里为数不多的不硬拗的 挽尊 台独党自作死，早退早好 黄智贤哥哥，他们一个独一个统，妹妹是统的，曾经闹过矛盾现在和好了 狗咬狗了 你看少他的政論節目了，當年立院他二句不說就打人打到頭破血流了，你還年青不懂事，總被表象欺騙 台湾的政客们也只自娱自乐。 看到台民进党我就想起日民进党，这两者有什么关联吗 回顾当年和陈婷妃啪啪的感觉，😳😳😳 能代表黾尽党参选的人能有良知，就如同相信美国侵略别国是为了那个国家的民主一样，没有脑子！ 天天硬拗好不好，只是他还有一点点做人的良知时而发作而已 配的是颜纯左 黄伟哲从来没上过他妹妹的叶问大全，上的是深喉咙 夜问打权里他的言辞表现感觉他是中间派的，有时也批评自己党内的政策。 兄妹俩都在各自为战，最终走向共和 你再到绿媒的节目去看看？面对不同的受众展现不同观点和风格，这是每个绿营人的必修课，其中的鼻祖就是蔡英文。黄在这方面也可以，不过，他确实有点太靠近蓝了，估计早晚会被绿处分 配图都配不好，这个哪是黄伟哲？还有陈婷妃呢？台湾还得找专业人士解读才可以 斗吧 不是夜問那就是深喉嚨了，反正是中天的，不過應該佩服他的膽識，老是參加被一群藍營或中間派包圍的節目，辯論時不溫不火，有時看到他被一群牙尖嘴利的酸，臉上大不悅又不能發作，忍俊不禁之餘也琢磨為什麼他要上這類論調一面倒的節目被開涮？為了出場費？ 黄伟哲不是硬拗，是软拗 民进党的经费是个问题，没人出来喊 他还会引经据典，熟读中国历史。只不过立场不同而已。 陈亭妃就是那个公鸭嗓吧？ ",
        "Total": 330,
        "Link": "http://comment.news.163.com/news_guonei8_bbs/D6VSKB4T0001875N.html"
    },
    "Article": "（原标题：民进党资深党员联名要求处分台南市长参选人黄伟哲陈亭妃）民进党资深党员联名要求处分台南市长参选人黄伟哲陈亭妃。（图片来源：台湾《中时电子报》）中国台湾网12月31日讯据台湾《中时电子报》报道，数十名民进党资深党员29日前往民进党台南市党部陈情，指控台南市长民进党内初选参选人黄伟哲及陈亭妃为求胜选失去党魂，与违反党纪被开除民进党党籍的市议员合作，要求开除黄伟哲民进党党籍，并处分陈亭妃。同样表态参选的台南市民进党部主委顏纯左接下陈情书说，将转给民进党中央并要求依党纪处理。对此，黄伟哲团队发言人郭国文说，他无法分辨这起事件是陈情还是造势活动；顏纯左也是参选人，陈情活动恐将造成民进党内更多争议，增加民进党的负担，多数民进党员应不乐见。陈亭妃也说，参选目标是担任市长，照顾每位市民，建设每个角落；后援会成立时，站台的不分党派议员都由各后援会邀请。顏纯左指出，日前已有市代表因看不过黄陈等人的行径退党，这是创党以来第一次有市代表退党，还有20多年党龄的律师退党；陈情的资深党员们也说，如果民进党中央不处理黄伟哲、陈亭妃，他们将不惜退党，代表目前市长初选的状况，已让党员对民进党的信心瓦解。本文来源：中国台湾网作者：高旭责任编辑：张宪超_NN9310"
}