{
    "URL": "http://tech.163.com/18/0102/08/D74OERUP00097U81.html",
    "Title": "NASA：今年1月再现\"超级月亮\"，将遭遇月全食_网易科技",
    "KeyWords": "超级月亮,血月,月球,月全食",
    "Article": "（原标题：“超级月亮”将遭遇月全食）新华社北京1月1日电（记者张莹）天文观测“发烧友”可以设置日历提醒了！美国航天局近日在官网上说，2018年1月是难得的赏月佳期，会有两轮“超级月亮”现身天际。后一轮“超级月亮”还将伴有“血月”和“蓝月”，罕见集齐三大看点，因而格外具有观赏价值。此次备受关注的“超级月亮”出现时，在地球上可以看到比一般满月面积大14％、亮度高30％的月亮。也有专家表示，并不是所有又大又圆的月亮就是“超级月亮”，严格来说，下一次“超级月亮”将在2019年2月19日出现。但无论本月是否有严格意义上的“超级月亮”现身，都无法阻挡公众的观月热情。美国航天局的公报说，这两轮所谓的“超级月亮”将分别出现在1月第一天和最后一天。对于东亚地区的“发烧友”，天文学家说，只要天气足够好，公众可以在1月1日晚到2日凌晨间欣赏到一轮比平时更大、更亮的满月。可能肉眼很难看出其中的变化，但是公报说，“你感觉像是伸出手来就可以抓住这个发光的球体，把它扔进你的咖啡杯里”。这轮月球活动的最高潮将发生在1月31日，当天的“超级月亮”还将伴随月全食。届时，从北美西部到亚洲东部的大面积地区，公众都可以观赏到一轮“血月”高悬空中。“血月”一般在月全食发生时出现。当地球位于月球和太阳之间的直线上时，会遮住直射的太阳光。不过仍有一些太阳光绕过地球边缘，经地球大气层过滤后，紫、蓝、绿、黄光都被吸收掉了，因而在月球上投射出一种奇异的红光，就形成了“血月”。天文学家介绍，在东亚地区，月全食将在1月31日晚如约而至，当晚19时48分迎来初亏，20时52分迎来食既。相比之下，美国东部地区的公众可能没这么好的眼福了。“1月31日这次月食将在（北美）月落时分发生。美东地区只能看到偏食，而且公众只能在早上起床后观测。”美国航天局戈达德航天中心科学家诺亚·彼得罗介绍说。“超级月亮”和月全食叠加出现的情况极其罕见。据报道，20世纪的百年中仅出现过5次。进入21世纪后，也仅在2015年中秋节上演过一次。1月31日的“超级血月”又被称为“蓝月”，是因为这是一个月内出现的第二次满月，和月亮颜色并无关系，平均2.7年发生一次，进一步增加了这场月球大戏的神秘性和观赏性。本文来源：科技日报责任编辑：侯维铖_NT4124",
    "Source": "Netease",
    "PublishTime": "01/02/201808:24:22",
    "Comment": {
        "Link": "http://comment.tech.163.com/tech_bbs/D74OERUP00097U81.html",
        "Reply": 13,
        "Content": "蓝月亮可以抓住机会做广告了 月亮是不是越来越近了？ 月亮是不是越来越近了？ 有些地方看到的是偏食 看见 是不是有夜晚的地方的月亮都能看到月全食 小学，好像是93年左右 1月31日还有一个，不过估计会忘 小时候见过一次日食，特么的感觉世界末日了 过时间了。 看见 蓝月亮可以抓住机会做广告了 血月再次升起 经常有呢，还罕见？ 09d年把 ",
        "Total": 32
    }
}