{
    "PublishTime": "12/31/201713:36:27",
    "Comment": {
        "Total": 12,
        "Reply": 7,
        "Link": "http://comment.news.163.com/news_shehui7_bbs/D705GSB90001875P.html",
        "Content": "打他 真是厉害 牛掰🐮 严管！ aa 打他 快过年了，都在昏天黑地忙着找过年钱。<br>做的和该做的和食品安全没有半点关系！ 可怕 "
    },
    "Title": "北京食药部门夜查:1千多斤牛副产品未检疫涉违法_网易新闻",
    "Source": "Netease",
    "KeyWords": "违法,食品安全,副产品,健康食品",
    "URL": "http://news.163.com/17/1231/13/D705GSB90001875P.html",
    "Article": "（原标题：北京食药部门夜查：1000多斤牛副产品涉违法）记者12月30日从北京丰台食药监局了解到，为了进一步巩固猪、牛、羊肉等食品质量安全水平，确保节日期间市场秩序和消费安全，丰台区食药监局以五大农副产品批发市场为重点，通过开展“暗夜行动”，夜查食品市场。在岳各庄市场周边查扣涉嫌未经检疫牛副产品1000多斤、未标注生产日期豆制品600余斤。现场图。北京丰台食药监局在12月29日凌晨的“暗夜行动”中，会同五大批发市场主办方，在岳各庄市场周边查扣涉嫌未经检疫牛副产品1000多斤、未标注生产日期豆制品600余斤，有力打击了违法违规行为。目前，丰台区食药监局已对上述产品抽样送检，待检测结果出具，将依法对涉事人进行严厉处罚。现场图。记者了解到，此次检查围绕猪、牛、羊肉以及熟食、豆制品、水产品等高风险产品，重点从四个方面开展：重点检查供应渠道目录制管理、“场厂挂钩”协议准入制度落实情况，严格禁止非法渠道产品进入市场；重点检查批发市场开办者自检制度落实情况，产品进场票据及质量证明文件是否齐全、产品质量追溯措施落实情况等；重点检查零售市场环节“批零挂钩”协议准入制度落实情况；重点检查销售环节经营者“五率”规范化管理落实情况，确保“供应资质备案率”、“进货查验登记率”、“经营信息公示率”、“销售凭证使用率”、“检测合格率”规范达标，提升食用农产品追溯体系建设。现场图。丰台区食药监局通过集中对食品生产经营环节存在的违法违规行为进行严厉打击，推进肉品在食品行业“批零挂钩”协议准入制度全面落实，进一步巩固肉品质量安全水平，提高肉品质量安全保障能力和追溯能力。下一步，丰台区食药监局将在元旦至春节期间，继续开展为期一个月的食品安全“暗夜行动”，通过“白加黑”的全覆盖，无死角监管方式，强化对食品安全违法行为的打击力度。加大对食品交易市场环节重点食品“场厂挂钩”、“批零挂钩”协议准入制度落实的监督执法力度，推动五大农副产品批发市场在食品供给服务上实现内涵式升级，为市民提供高品质的食品安全保障，让公众放心过节。本文来源：壹现场责任编辑：张宪超_NN9310"
}