{
    "Title": "男子抢劫杀人后畏罪潜逃 17年后被捕已身价上亿_网易新闻",
    "URL": "http://news.163.com/17/1229/15/D6R84DG30001875P.html",
    "Source": "Netease",
    "Article": "（原标题：男子抢劫杀人后畏罪潜逃17年后被捕已身价上亿）正义网绍兴12月28日电抢劫杀人畏罪潜逃,17年后改名换姓成了身价数亿上海某金融公司老板。12月27日,犯罪嫌疑人郏某被浙江省诸暨市检察院批准逮捕。2000年,19岁的郏某与老乡尹某、李某从安徽老家出来,到诸暨市大唐镇的一个袜厂打工。由于工资不是按天结算,三个人十多天之后就没什么钱了。随后,尹某提议三人去偷钱或抢钱回老家,大家同意了。之后的几天三人就寻找下手目标,最后他们决定去抢“黑车”司机的钱。因担心手里没家伙不好动手,李某把身上的传呼机换了一把水果刀和一把螺丝刀,并在路上捡了一根绿色塑料带揉搓成绳。在大唐镇的一个路口,三人以搭车进城为由拦下了被害人杨某的桑塔纳私车。途中要求杨某转往一条偏僻小路,当车行至山下赵路段时,郏某、李某用塑料绳勒住了杨某的脖子,尹某捂住了杨某的嘴巴,杨某当场窒息死亡。之后,三人将杨某抛尸于下蔚村杭金公路边,抢走了其身上的2只手机和400多块现金,并驾驶着被害人的桑塔纳逃往安徽。此后三人再无联系。2001年,尹某以抢劫罪被判死刑,2010年李某以抢劫罪被判无期徒刑,剥夺政治权利终身,没收个人全部财产。而郏某,却一直逃亡在外。据郏某交代,他用10年的时间存下了一些钱,买了一个全新的身份,试图忘记过去的事情。之后,他便在上海闯荡,开始接触网络金融。2013年,郏某与生意伙伴一起开了一家互联网金融公司,公司发展的很快,金融产品涉及线上线下,各种资金加起来将近数十亿。2017年11月22日下午,潜逃十七年的郏某在上海市杨浦区被抓获。12月25日,该案移送至诸暨市检察院提请逮捕,该院经审查案卷、讯问犯罪嫌疑人,于3个工作日内作出批准逮捕决定。等待郏某的将是法律的制裁。本文来源：正义网责任编辑：张宪超_NN9310",
    "PublishTime": "12/29/201715:45:52",
    "Comment": {
        "Total": 1783,
        "Content": "呵呵 资产上亿，逃犯的标配！ 没有亿万都不好意思说是个逃犯、 吉林安徽河南三大逃犯发源地 哥今年27岁，我现在杀个人的话还能不能赶上千万身价的级别啊？在线等，现在右手还拿着刀，挺急的！ 又要骗我去杀人潜逃？ 互联网金融公司，就直接说新式高利贷不行？ 我操，杀了人，跑后没几个亿，都不意思说自己是逃犯。 这才是网易逃犯，资产必须上亿 这个社会就是！马无夜草不肥！人无外财不富！ 这个社会就是！马无夜草不肥！人无外财不富！ 不杀个人都不好意思说自己是亿万富翁！ 看样子能赚到钱的人都是有原因的心不狠成不了大事 兄弟，冷静下来，不要这样切下你弟弟，不然你家就要绝后了 不试试怎么知道？？？ 隔三差五来一个励志故事！大写的服！ 把二位马哥也查一次，不一定哦 你在找死吗公安会找你的你在网上这么说也不可以你就等公安找你好了 左手给你点赞<br>右手拿着手雷站你后面 放高利贷的吧？ 等着呐、阿拉上海人就是能比比 心动不如行动。 心狠手辣才能成功！ 现在的逃犯最低的都是百万富翁，我都不好意思犯罪了，怕丢人 又是安徽人？<br>！ 抢劫杀人17年，居然还一路打拼到身价上亿，你敢信这是个法治国家? 现在的多年逃犯身家没有个一千几百万就速速去自杀，免得丢逃犯这两个高贵的职业！ 又骗我们杀人[微笑][微笑][微笑]杀人后不是身家上亿，就是上千万 呵呵，又骗我杀人 应该把富豪都查一次，保证还有大鱼…… 这个社会就是！马无夜草不肥！人无外财不富！ 现在，抓个罪犯动不动就是亿万富温 这个社会就是！马无夜草不肥！人无外财不富！ 这个社会就是！马无夜草不肥！人无外财不富！ 依然死刑才公平 那把全国的上亿的过一遍，说不定还找到漏网的！ 现在没有上亿的身价你好意思说你杀过人？ 金融公司的老总？呵呵，其实大多数都是高利贷的吧？也只有那么狠的人才能再这一行走出门道了。 我有个朋友,跟这作者差不多,也是爱编故事去年走的,走的时候并不安详,尸体在太平间抽搐了三天,火化的时候烧得滋滋响,嘴里还在嚎叫,烧了几个钟头才烧完,烧完以后上了灵车,出门就翻车了,骨灰洒了一地,还被风吹走了不少,刚想把剩下的扫起来,迎面来了一辆洒水车,唉…… 这个社会心狠手辣能发财！ 三人抢劫杀人，最先被抓的死刑，后抓的无期，最后抓的是什么？ 狗血剧情 呵呵 32的也有这个想法，不过我真下不去手，无冤无仇的 吉林安徽河南三大逃犯发源地 貌似是发薪贷 😂 哥跟你的想法一样，只是有一样不同，哥正在拉屎，在线等，挺急的！ 先杀头猪，肯定有100块。 刀放脖子上由左向右拉 不杀个人都不好意思说自己是亿万富翁！ 多杀几个，最主要是能逃跑，杀的越多，赚钱机会越多加油 兄弟，冷静下来，不要这样切下你弟弟，不然你家就要绝后了 不试试怎么知道？？？ 要不你先试试呗 三人抢劫杀人，最先被抓的死刑，后抓的无期，最后抓的是什么？ 一般都是杀人后身价才上亿。。。 这上亿归国家了！ 🤣 为什么杀人逃跑的身家都上亿 没有上亿，敢称自己是逃犯吗 直播往下切点击率能过亿 百度(姚漫奴），就明白大幂幂为什么会火，不知道被多少个名导给潜了，那里真的是黑，去瞧瞧 那些穷的被抓报道了没呢 充分说明只有心狠手辣才能挣大钱[可怜] 现在不杀个人你都不好意思做个金融放高利贷的，混不下去啊 确实 组员+1 这。。。。 资产上亿，逃犯的标配！ 哥今年27岁，我现在杀个人的话还能不能赶上千万身价的级别啊？在线等，现在右手还拿着刀，挺急的！ 。。。。。 买不起房买不起车买不起干净的食物不敢生孩子！ 你还真天真，要是女的我就上了 呵呵，这篇是年收入上亿啊 真上海佬？又来地域黑？ 这种情节太多 🤣 真是励志。我在杀人逃犯面前真的无地自容。 别听他扯，放下屠刀立地成佛。 亲，想要资产上亿吗？想要腰缠万贯吗？现在只要杀个人就可以噢 放高利贷 小便，你想对我们说:这是人材的必经之路吗？ 原来金融公司的老板那么心狠手辣，难怪有钱 放下屠刀立地成佛！ 人才都在高墙里 我现在很想成为亿万富翁的冲动 一样的年纪，一样的苦逼，哈哈 先剁个屌练练手 这该如何是好 现在没有上亿的身价你好意思说你杀过人？ 现在的类似新闻是想要说明，杀人后创业有Buff吗 是不是应该查一查这些上亿资产的老总了？ 32的也有这个想法，不过我真下不去手，无冤无仇的 Whatthehell 要想变土豪，都得先杀人。 这个社会就是！马无夜草不肥！人无外财不富！ 到底是这些人胆子大才去杀的人，还是杀人以后胆子才变大，值得思考 互联网金融公司，就直接说新式高利贷不行？ 这才是网易逃犯，资产必须上亿 这个社会就是！马无夜草不肥！人无外财不富！ 看样子能赚到钱的人都是有原因的心不狠成不了大事 这是要那么多钱干嘛啊？ 这是让我去杀人 这就是逼自己能成功，还不如早干点什么了 一看新闻标题就知道第一桶金的重要性，又搞了建筑房地产和金融产品其中一样， 这人绝对死不了 这个社会就是！马无夜草不肥！人无外财不富！ 为什么杀人逃跑了之后都会这么有钱？万花筒写轮眼定律？ 在网易的逃犯都会发家致富身家过亿 又骗我们杀人[微笑][微笑][微笑]杀人后不是身家上亿，就是上千万 罪犯成富翁系的 这个社会就是！马无夜草不肥！人无外财不富！ 其实好多富豪的过去都有命案！ 这个社会心狠手辣能发财！ 早知道自己会有今天这样的成就，那些人还会杀人吗 哥笑了 资产上亿，逃犯的标配！ 每次TMD杀人犯好多年被抓后几乎都是身价不菲的人，这是为什么呢？ 哥今年27岁，我现在杀个人的话还能不能赶上千万身价的级别啊？在线等，现在右手还拿着刀，挺急的！ 总算有个正常的新闻，这才对吗，逃犯都是抓到后身价上亿的。 天网恢恢疏而不漏 哥，现在已经流行自宫就上亿了，赶快下手啊！ 这是个坏人当道的年代 我可不上当 其实现在的金融公司老板哪个没有案底？ 把二位马哥也查一次，不一定哦 没收财产吗？ 跟破釜沉舟一个道理，做啥事都无牵无挂，成功率自然高 一刀致富，至于你信不信，我反正信了 哈哈，我终于懂得我为什么那么穷了[可怜] 这个社会就是！马无夜草不肥！人无外财不富！ 现在，抓个罪犯动不动就是亿万富温 又骗我去坐牢 朋友，办精神病证吗？有了证件才能更安心的潜逃啊。现在临近元旦打折有优惠 金融公司的老总？呵呵，其实大多数都是高利贷的吧？也只有那么狠的人才能再这一行走出门道了。 我有个朋友,跟这作者差不多,也是爱编故事去年走的,走的时候并不安详,尸体在太平间抽搐了三天,火化的时候烧得滋滋响,嘴里还在嚎叫,烧了几个钟头才烧完,烧完以后上了灵车,出门就翻车了,骨灰洒了一地,还被风吹走了不少,刚想把剩下的扫起来,迎面来了一辆洒水车,唉…… 真是的，不杀个人不行了 分钱 隔三差五来一个励志故事！大写的服！ 人才 资产上亿，逃犯的标配！ 资产上亿的都要查查是不是逃犯 哥今年27岁，我现在杀个人的话还能不能赶上千万身价的级别啊？在线等，现在右手还拿着刀，挺急的！ 看来我没发财是因为我没杀人潜逃😂😂 励志故事从杀人开始 我操，杀了人，跑后没几个亿，都不意思说自己是逃犯。 同意同意。 互联网金融，说这么文雅，不就是各种网络小贷平台么。 当我翻开中文版《亿万富翁宝典》第一页时，赫然写着“欲成富翁，必先自宫”，当翻到最后一页时又着“不必自宫，杀人亦可”。 你就在那等着，我打电话给网易小编问问 标配 把小编杀了吧，让他成为文章的主角。 不试试怎么知道？？？ 弄得我都想出去杀人然后潜逃了 中赢金融(发薪贷)老总，放高利贷的[大笑] 现在的多年逃犯身家没有个一千几百万就速速去自杀，免得丢逃犯这两个高贵的职业！ 左手给你点赞<br>右手拿着手雷站你后面 畜生一个。 心动不如行动。 心狠手辣才能成功！ 快去查查富豪们，说不定有收获[狗][狗] 666 抢劫杀人17年，居然还一路打拼到身价上亿，你敢信这是个法治国家? 就是钱宝网这种金融 依然死刑才公平 搞个灵刀，小目标马上实现😂 应该把富豪都查一次，保证还有大鱼…… 啊呸，还杀人。你有这心，会不会去偷个贪官家？？ 那把全国的上亿的过一遍，说不定还找到漏网的！ 身家上亿，不是身价，除非他是运动员歌手演员，小编小学几年级了？ 抢劫就抢劫，还杀人，社会的败类。 不杀个人都不好意思说自己是老板 不能发财上亿的都不好意思说杀过人了 又想骗我畏罪潜逃 财产会不会被充公啊 现在杀人犯一不小心，就亿万身价了，你小心的就行。 达标了 现在杀人犯一不小心，就亿万身价了，你小心的就行。 看来要想成为亿万富翁，还得对自己狠一点，对别人更狠一点才能成功。 达标了，明天赶紧杀人去 杀人潜逃后亿万富豪系列 千万资产的都没脸来了，要来就的上亿了[大笑] 没有亿万都不好意思说是个逃犯、 现在的逃犯最低的都是百万富翁，我都不好意思犯罪了，怕丢人 互联网金融公司!!! 大多都是杀人后成老板……<br>呃…… 进来网易小编的报道，似乎逃犯都成了大款！ 又要骗我去杀人潜逃？ 按小编的意思，追查一下现在的大款，是不是里面有不少逃犯[窃笑] 又是安徽人？<br>！ 这是骗我抢劫杀人呢？还是骗我做互联网金融呢？！ 等着呐、阿拉上海人就是能比比 资产上亿，逃犯的标配！ 呵呵，又骗我杀人 你在找死吗公安会找你的你在网上这么说也不可以你就等公安找你好了 发薪贷老板 因为他觉得自己有可能随时被抓，干什么都不考虑后果了，反而更容易成功 放高利贷的吧？ 金融公司的老总？呵呵，其实大多数都是高利贷的吧？ 妈的，天天逃犯都资产上亿[挨揍] ",
        "Reply": 153,
        "Link": "http://comment.news.163.com/news_shehui7_bbs/D6R84DG30001875P.html"
    },
    "KeyWords": "抢劫,杀人,逮捕,违法"
}