{
    "Article": "（原标题：深交所：对贾跃亭、贾跃芳给予公开谴责处分）深交所12月29日消息，对乐视网股东贾跃亭、贾跃芳给予公开谴责处分。深交所指出，经查明，贾跃亭、贾跃芳违反了2014年12月6日做出的借款承诺。对于贾跃亭、贾跃芳上述违规行为及深交所给予的处分，深交所将记入上市公司诚信档案，并向社会公开。本文来源：第一财经责任编辑：姚立伟_NT6056",
    "URL": "http://tech.163.com/17/1229/20/D6RON8M3000998CU.html",
    "Source": "Netease",
    "KeyWords": "深交所,贾跃亭,贾跃芳,上市",
    "Comment": {
        "Reply": 720,
        "Link": "http://comment.tech.163.com/tech_bbs/D6RON8M3000998CU.html",
        "Total": 12728,
        "Content": "谴责有用，要法律作甚? 人在美国，怕你个🐦子！ 人家都去美国，不陪你们玩了 给我100亿，我愿意给你谴责。[疲惫] 一谴责我就觉得你是真的拿他没办法！ 就是一笑话，谴责处分！也有脸说出口！ 对于徐翔，科龙老总这样的怪才往死里整，对假药停这样的真骗子只是谴责一下！悲哀 我对着我家的乐视电视吐了一口酽痰 冻结他们资金才是正确的选择，这群骗子都是骗股民的钱 冻结个屁，早变相合法转移出去了除非指正ipo造假，追捕！但是这样会把自己搭进去，说白了，一丘之貉，说的太多了，要被处分了！ 谴责、处罚，板子高高举起，却没有一下打在做错事的人身上。干脆这样吧，做个布娃娃，上面写着贾跃亭，然后派个熟练工用电动缝纫机不停的扎，扎烂了就扔在旁边的一个篮子里，也算曝尸示众了...... 还不如别说，真他妈丢人，就像泼妇骂街一样！ 哈哈哈，无能啊 贾药停在美国知道了，陷入深深的自责，下周就回国说清楚 记大过一次？😏😏😏😏😏 我十亿就够了，我愿意被谴责 是谁让他套现100多亿的？谁制定的游戏规则？股民怎么办？当有一天回顾历史，你会发现有些人在位只顾自己捞，哪管死后洪水滔天。 怎么感觉就是一个笑话，一出闹剧呢？ 我们一致谴责深交所，谁让它上市的？ 国家很丢人。 公开谴责也算处分？？我读书少，不要骗我 正奸冠猿出来走一走 假药停都携款出国了，你们在这里演给谁看 对美国人公开谴责，又不是外交部 一看墙裂谴责，假药停彻底把心放下了。 贼去关门 这是明显的欺诈行为！仔细阅读了假氏的减持声明，目的是借现金于公司，途径是减持股份。这份坚持声明欺骗了投资者，否则大股东大幅减持股份，肯定会诱发市场恐慌，假氏也就不会以好价格顺利脱手股票。现在因假氏的不诚信行为，可以说乐视XX已死，那些持有股票的投资者将会遭受严重损失！ 是谁批准上市的，你把名单发出来啊 还不如罚酒三杯呢 这这这这罚的也太狠了吧.... 拿这种外交辞令对付一个骗子我也是醉了 除了公开谴责，他们现在也是无能为力，实则反应法律对某些拥有强大势力背景、超级富豪尴尬局面，悲哀的现实。 你他妈要求太高了，给我100块，我让他使劲谴责 中国五大国粹：中医、书法、烹饪、京剧、谴责…… 脱裤子放屁 搞笑，严重的搞笑[微笑] 对贾跃亭、贾跃芳表示强烈不抗议 山西人以投机倒把为第一职责 好怕怕哦[色色] 好怕怕哦~ 公开谴责处分是个什么处分，有效力吗 大姐姐想看你 呵呵公开谴责=脱裤放屁，估计假药蒸痣菊里有人才会这么潇洒！ 哟！祭出了谴责这大杀伤性武器啊！……[微笑] 原来还有公开谴责这种处分啊… 誰讓樂視欺詐上市，這事就這麼算了？衣法自摑？ 公开谴责，罚这么重? 汪汪汪，叫完了，大家散了吧 评论这麽激烈，那谁肯定不是好人 严重谴责！ 给我100亿，我愿意给你滴蜡。[疲惫] 你他妈要求太高了，给我100块，我让他使劲谴责 这个管用吗 给我一个亿就行，我愿意被公开谴责！ …… 有什么用？人家这辈子都不会回来啦。 给我100亿，我愿意给你谴责。[疲惫] 1块，一整天！包月包年有优惠！ 都是一家人 谴责是一把利器[大笑] 去了亿都没问题 还需要诚信档案吗 给我100块我就谴了 国之利器，公开谴责 没用的处分，还不如什么都不说，这样无用的言论只会让人民笑话他们的智商 屁用没有！ 25，来吧 有用？ 谴责就是保护所谓的中小股民的利益？ 谴责有用，我还磨刀干嘛 打脸了吧。有本事全球通缉啊 哈哈哈哈 书包一扔万佛朝宗 人都跑了，才说这些 明天会回来的 一个字一百，请把我遣责得体无完肤 书包一扔万佛朝宗 谴责？对恐怖分子用的词汇 准备好新的PPT了吗？ 值了，太值了！ 嗯来真的好怕呀。 傻逼吗？谴责有鸡毛用 路过 给我100亿，我愿意给你谴责。[疲惫] 对于徐翔，科龙老总这样的怪才往死里整，对假药停这样的真骗子只是谴责一下！悲哀 谴责有用要法律干嘛 给我一千万，我愿意去美帝捉拿他归案。 哎呦，好PIAPIA[微笑] 傻逼。你让我上市。我给你跳脱衣舞 我也谴责 哇，公开谴责啊，好可怕 哈哈哈哈哈哈哈哈 隔靴搔痒 有卵用？ 有毛的用 没用。 来来来，明天来我外交部报道 谴责有屁用 哈哈，这是我见过的最厉害的处罚了，厉害了我的国 跟外交部一个招数谴责 谴责能追回钱？ 谴责个毛？<br>对美国不也如此吗？ 我愿意潜规则！！ 我五毛就行，快，打钱 经常听说某某跑路了带着小姨跑了 你才知道啊，这么多年白活了？法律有用它还谴责干嘛？不就是打架打不到，就骂街呗[喷水][狗] 你把麻将放哪？ 下周就2018了 有毛用！纪委不介入调查一下此事件中的贪官？ 中国有法制吗?法律是笑话吗！！！ 有屌用，苦了广大股民 这时候老婆能出去，可见后台厉害 这种处理意味着没有法律条文适合处理此类问题，也可以理解为留下了专用通道。 对骗子谴责，你他妈是怎么想的？ 哈哈哈，无能 心照不宣 你太贪心了，给我一千万我就愿意被谴责[窃笑] 你是猴子请来的么？ 只要1亿，随便谴责[微笑] 我还以为只有外交部会谴责呢 强烈谴责……谴责的他不敢回国…… 怕死啦。 给我100亿我愿意他们天天谴责我 给我100万。你谴责死我都行 这个处罚似乎太严厉了！ 中国五大国粹：中医、书法、烹饪、京剧、谴责…… 进来主要看评论！哈哈 给我100亿，我愿意给你谴责。[疲惫] 没用 钱都骗走了，你跟我来这个！ 可笑不 细水长流啊，兄弟，统一价188一天，每天谴责一次，谴责个3年5年的，还能让他们显得权威倍有面。 公开谴责处分？哈哈哈 不给他办中国红卡，让他来不了中国，憋死他。 然并卵。 罚酒三杯 丢人显眼 这个只是做给世人看看的！防你们的悠悠之口。 就是这种垃圾证券所，圈老百姓的钱 对美国人公开谴责，又不是外交部 如果谴责有作用，就不会有坏人有敌人有战争了 吓死了 呵呵 深交所:这可能是我们应该做的吧？ 谴责处分是什么处分？ 这活包给我一亿就行 哈哈哈，谴责的含义就是我也拿你没办法 谴责有用的话，要法律干吗？ 一丘之貉 对空气说话呢？ 我88一天吧，亏本大甩卖 哈哈哈哈，给点面子，人家说不定就吓尿了呢[窃笑][窃笑] 我就佩服贾老板 下周回国吗？😄 证监会和贾布斯唱双簧 你知不知道这样显得你很无能且傻？ 希望有机会受到证监会谴责或罚款60万，这样意味着我至少多了6000万资产。 我日，深交所也学会了外交部那一套了 他家人前脚走你后脚谴责，蒙傻逼呢？ 中国功夫表示不服 公开谴责？我的天！你直接开除他国籍更好！ 没错，人家前脚走后脚就开始谴责[喷水] 谴责和懦弱的憎恨有什么区别，好怕怕啊？？？ 乐视是不是要退市？ 早干什么了一个考融资活着的企业能上市还成了创业版的蓝筹股 这🈶️用吗？ 错了，是城管，男足，谴责，自杀，法官。 贾药停在美国知道了，陷入深深的自责，下周就回国说清楚 强烈谴责，严正抗议，深表遗憾！ 当初注册如猛虎，如今讨债抱大腿 哎，谴责游泳。还养你们干啥！ 处罚个毛啊。人家在米国滋润着呢。就会嘴上bb早干嘛去了😂😂😂😂😂😂😂😂😂 从标题就可以知道:中国证监会有多么无能！同时也是外国人眼中的一个超级笑料！ 来点正能量，有用的 下周八一定回来接受谴责 中国五大国粹：中医、书法、烹饪、京剧、谴责…… 这tm算个屁处罚，真把自己当回事 哈哈哈，让我大笑三声 给我100亿，我愿意给你谴责。[疲惫] 一谴责我就觉得你是真的拿他没办法！ 给我100亿我愿让他谴责一年 哇！好狠的处罚，你这样要把他吓死了！这样的处罚太狠了，强烈建议批评一下就好了，谴责太狠了 你他妈要求太高了，给我100块，我让他使劲谴责 妈的，给我9000万让你谴责一辈子好吗。 演的一出好戏 我想问下买了乐视股票的怎么办？ 强列！ 笑死我了😂 中式谴责是世界上最严历的惩罚 公开谴责……[石化] 拿这种外交辞令对付一个骗子我也是醉了 这个要唱双簧啊 这也算处分？ 谴责也特么是一种处分，，， 公开谴责……<br>哈哈哈╮（﹀＿﹀）╭ 放走了证人当然可以开审了！ 早干啥去，拿好处去了，都跑出去了才谴责 哈哈哈，还有这个罪，和叉腰肌有的一拼了 过去这么多天了才来处罚？！ 谴责相当东风81 口头警告一次啊，以后不能这样做事了 推卸责任都是这样 然并卵 给我100，我就让你谴责 好严重的处分！这是开股以来头一次么 我们一致谴责深交所，谁让它上市的？ 有用吗不如来的实际行动 给我50随便你骂娘 现在除了磨磨嘴皮子，你们还能干什么？ 谴责是我国的大规模杀伤性战略武器，厉害 有必要咩？ 少了个孝顺 这遣责是给散户看的吗？ 给我一亿，你爱怎么谴责都行 给我1亿，我愿意给你谴责。[疲惫] 我1亿就可以，让你随便谴责 自从贾的老婆成功到美国和丈夫相聚后，国内的相关部门相继大胆地站出来对贾进行谴责了！ 钱你嘛 好吧，还有人违反的承诺更严重，也请谴责一下。<br><br><br>——只生一个好，政府来养老。 凭本事骗的钱还受谴责，强烈抗议！ 深交所助力美国梦 100块让你谴责一次，欢迎批量谴责，无限制次数，时间，地点 中国五大国粹：中医、书法、烹饪、京剧、谴责…… 给我100亿，我愿意给你谴责。[疲惫] 666 给我点钱天天谴责我 给我100亿，我愿意给你谴责。[疲惫] 谴责就是违反道德了，不违法？ 这是通报批评哪是记大过啊 给我10个亿，随便你谴责，随便你骂 楼上的都梦遗了吧。 公开谴责，哈哈，好好笑哦。 证监会是个天大的笑话。 记大过一次？😏😏😏😏😏 谴责有点外交辞令的意思 严厉谴责顶格处分 去掉一个0我都愿意 这也算处分？ 有什么用？ 谴责，都学会用这词了 画个圈圈诅咒你们[大笑][大笑][大笑] 很骨感 水有点深 这处分，我服 搞笑，严重的搞笑[微笑] 本来就是个骗子，还怕你谴责？有个卵用！每次都是股民买单，可怜的中国股民！ 钱都套现走了，谴责有屁用！ 我对着我家的乐视电视吐了一口酽痰 来搞笑的 赢国法院文书米国都不认，你隔空谴责有屁用 😂😂😂😂😂 比罚酒三杯要环保哦 [被黑] 太幽默了吧😄 我每天在谴责自己 假手上掌握的东西能扳倒的人应该还在任 这算是，亡羊补牢？亦或是，隔靴搔痒？ 谴责一下我，给我几个亿就行！ 低于一个亿的，它们才懒得谴责呢 然后短路了吧。 外交部风格 哈哈哈……！罚他超一百遍生字吧！ 放你妈屁！谴责有用还要法律干什么？再说人家是美国人，你有什么权利谴责？ 谁让他们减持股票的，减持后钱怎么监管的……？人跑了钱没了，你们特么的想起来自己的监管职责了？蛇鼠一窝！ 屠龙记 怎么你也学会谴责了 给我100亿，我愿意给你谴责。[疲惫] 好怕怕的处罚 "
    },
    "Title": "深交所：对贾跃亭、贾跃芳给予公开谴责处分_网易科技",
    "PublishTime": "12/29/201720:35:47"
}