{
    "Comment": {
        "Link": "http://comment.sports.163.com/sports2_bbs/D6KMUNNU00058781.html",
        "Reply": 13,
        "Content": "2:1，2:2，2:3，3:3！！尼玛，我想起来就笑的肚子疼，还能再假一点吗！！ 我月薪五千，可是我每个月都会拿出两千出去做慈善，虽然不多是我的一点心意，朋友们都劝趁着年轻多存点钱，将来娶媳妇，可是我实在不忍心看着那些柔弱的女子站在昏暗的霓虹灯瑟瑟发抖！￼ 对纽卡也这样放水吧,真想秃子留在英超 克劳奇带球盘过门将............... 第四个球最可乐，伯恩矛斯门将开禁区大脚滑倒，西汉姆联射空门笑纳大礼 伯恩茅茨那场绝对假球！！ 我月薪五千，可是我每个月都会拿出两千出去做慈善，虽然不多是我的一点心意，朋友们都劝趁着年轻多存点钱，将来娶媳妇，可是我实在不忍心看着那些柔弱的女子站在昏暗的霓虹灯瑟瑟发抖！￼ 你的心情我能理解[窃笑][窃笑][窃笑] 赌狗输了吧 😁😁 2:1，2:2，2:3，3:3！！尼玛，我想起来就笑的肚子疼，还能再假一点吗！！ 总决赛李娜遭小威逆转无缘冠军 👍 怕度是刚上岗教练里最差的 莱斯特城不降级。 ",
        "Total": 93
    },
    "Article": "网易体育12月27日报道：北京时间12月26日晚，2017-18赛季英超联赛第20轮打响。伯恩茅斯和西汉姆联队的比赛一波三折最后双方3-3握手言和。哈德斯菲尔德1-1平斯托克城，西布朗和埃弗顿0-0互交白卷。莱斯特城客场1-2遭沃特福德逆转。伯恩茅斯3-3西汉姆联第7分钟，西汉姆右侧角球，克雷斯威尔开出角球，柯林斯前点甩头攻门得分，0-1。第29分钟，伯恩茅斯前场中路任意球机会，约书亚-金接队友开出的任意球后横敲中路，格斯林左脚推射破门扳平，1-1。第57分钟，格斯林接队友直塞球禁区左侧把球拨到中间，阿克禁区中路跟进左脚推射破门，2-1。第81分钟，主队门将贝戈维奇低级失误，接队友回传球准备大脚将球开出，却意外滑倒。身旁的阿瑙托维奇禁区外左脚推射空门得分，2-2。第89分钟，埃尔南德斯射门被贝戈维奇扑出但脱手，阿瑙托维奇补射破门，2-3。伤停补时第3分钟，主队右路定位球开出，阿克禁区左侧摆渡到门前，威尔逊门前近距离施射破门扳平，3-3。西汉姆终止了各项赛事的3连败。哈德斯菲尔德1-1斯托克城第10分钟，夸亚纳尔右路把球捅回禁区中路，托马斯-因斯跟上左脚推射破门，1-0。第60分钟，乔阿伦左路传中，后门柱旁索比希包抄到位右脚推射破门扳平，1-1。沃特福德2-1莱斯特城第37分钟，奥尔布莱顿禁区外左侧传中，马赫雷斯右门柱前跟进头球冲顶破门，0-1。第45分钟，主队左侧角球开出，蓝狐后卫禁区里解围不远，埋伏在右门柱旁的瓦格乱军中右脚捅射破门，1-1。第65分钟，克莱维利右前场任意球把球吊到禁区里，左门柱旁卡巴塞尔凌空拨到中间，封堵近角的舒梅切尔扑救时把球蹭进自家球门，2-1。西布朗维奇0-0埃弗顿本文来源：网易体育作者：轰炸机责任编辑：马鑫_NS4811",
    "PublishTime": "12/27/201702:50:14",
    "URL": "http://sports.163.com/17/1227/02/D6KMUNNU00058781.html",
    "Title": "英超-小舒乌龙莱斯特1-2遭逆转 伯恩茅斯3-3西汉姆_网易体育",
    "KeyWords": "伯恩茅斯,西汉姆,莱斯特",
    "Source": "Netease"
}