{
    "PublishTime": "12/31/201710:46:31",
    "Source": "Netease",
    "Comment": {
        "Content": "小米🐶真是个2⃣️货 自己买和装差不多也得150上下了 淘宝买电池送工具，100多，自己换 我看不懂傻狗的狗语 说得好 我以前在电子城修手机，后来应聘了苹果售后，我一下成了专业人士了。 原来以前这么黑 没这么贵吧 换电池能有什么技术？iPhone8可能有点麻烦，前面机型都很简单 你用过苹果？ 果狗又来自欺欺人了，放心，美国赔钱一分钱也没有你的，参考英伟达970显存门 换个电池只要你没有帕金森就可以自行更换。哦，还有，至少上学到三年级的识字能力。 不要相信苹果的鬼话，苹果还在继续撒谎。真正的原因是电池过小CPU功耗过大。电池无法满足CPU的供电需求导致频繁死机，新电池只能勉强维持几个月就不得不降低主频。苹果用电池背锅掩盖硬件设计缺陷以避免大规模的的召回，赤裸裸的欺骗消费者。苹果面临上亿台iphone设备的召回，还有天价的罚款 问题是用着好好的，就因为升级系统，要让消费者买单换电池？苹果果然是神机，升个级电池就吃不消了。218苹果应该还能赚个百吧块。美国公司果然流氓。哈哈 看不懂是因为你智商有限 脑残粉快来洗， 218怎么不值？有质量保证，有售后，还是专业人士拆机！ 218元还是不错的，但是以前600+真的很黑 连CPU供电需求需要的是电池的容量电压电流都搞不清楚就别来唧唧歪歪了 所有硬件都外包，充值毛线信仰 反正要换，电池拆坏就坏了呗。 操碎了❤️。 2楼你是来洗地的？ 你个2⃣️货又BB什么？根本不需要换的，就像作者老婆被人搞怀了胎，责任人关系单位减去坠胎费，作者认为责任人很够意思 恢复频率会导致频繁死机，库克实际上已经承认了这一点，只不过说得比较委婉。<br>电池过小CPU耗电太高，新电池只能勉强维持几个月就不得不降频，否则就会因为供电不足频繁死机。<br>苹果用电池背锅掩盖硬件设计上的缺陷，避免大规模的召回。 你用了？ 一路傻狗复制了一段它自己都看不懂的话又高潮了 苹果公司享受着全世界果粉奉献的巨额财富，每天坐私人飞机去世界各地享受果粉们的膜拜。却舍不得收回他们的残次品 我的6好像用了快3年才开始卡 你烦不烦傻逼 一楼说得好，就是漏了一句话，不完美：大概8点20发 你因果关系搞错，苹果这样做目的只有一个就想让大家换手机跟电池有屁关系啊 好好的电池还要花钱买[疑问] 听说换贴膜都要研究生才能换了，没那学历不够专业啊。 我的6好像用了快3年才开始卡 国产的一颗电池就几十块，苹果的电池容量还小，电池性能还弱。 我以前在电子城修手机，后来应聘了苹果售后，我一下成了专业人士了。 你用过苹果？ 不要相信苹果的鬼话，苹果还在继续撒谎。真正的原因是电池过小CPU功耗过大。电池无法满足CPU的供电需求导致频繁死机，新电池只能勉强维持几个月就不得不降低主频。苹果用电池背锅掩盖硬件设计缺陷以避免大规模的的召回，赤裸裸的欺骗消费者。苹果面临上亿台iphone设备的召回，还有天价的罚款 你用了？ 218怎么不值？有质量保证，有售后，还是专业人士拆机！ 不要把你觉得简单的东西认为所有人都简单。比如化妆你会？更简单挤手上往脸上一抹就好了这是涂大包[大笑] 至少官方拆机换电池出现任何问题有保障 连CPU供电需求需要的是电池的容量电压电流都搞不清楚就别来唧唧歪歪了 就是，我自己24小时供电怎么的了，不行么。 淘宝100块，用完正好就淘汰 吹牛逼不打草稿，无知 换电池能有什么技术？iPhone8可能有点麻烦，前面机型都很简单 2楼你是来洗地的？ 恢复频率会导致频繁死机，库克实际上已经承认了这一点，只不过说得比较委婉。<br>电池过小CPU耗电太高，新电池只能勉强维持几个月就不得不降频，否则就会因为供电不足频繁死机。<br>苹果用电池背锅掩盖硬件设计上的缺陷，避免大规模的召回。 我淘汰的6p就是放在车上作导航用的，不担心电量。设置个导航都能卡半分钟，我只要性能不要续航。<br>你100给我换个电池我都没兴趣，我只要回到以前不卡就行。 4s以后换还是有点技术的，另外关键是电池质量，小厂货和原厂正品不一个概念。 不是拆坏电池 一个是电池不是原装，是否换电池能否解决掉频的问题还是个问题，另外防水可能真无法保证了. 我淘宝50块买来就自己换了 换电池的技术含量是不高。但是第三方有可能会暴力拆解，有可能会偷换某些零件。 我上个月刚换了一块6p，一百二十块钱商务版，算贵的，用着很好，6的更便宜。 感觉去售后换电池没那么容易 小米🐶真是个2⃣️货 自己买和装差不多也得150上下了 我看大饭店炒菜也很简单，你也去做个 淘宝买电池送工具，100多，自己换 差不多，6s以上要店家送防水胶 没这么贵吧 换个电池只要你没有帕金森就可以自行更换。哦，还有，至少上学到三年级的识字能力。 不要相信苹果的鬼话，苹果还在继续撒谎。真正的原因是电池过小CPU功耗过大。电池无法满足CPU的供电需求导致频繁死机，新电池只能勉强维持几个月就不得不降低主频。苹果用电池背锅掩盖硬件设计缺陷以避免大规模的的召回，赤裸裸的欺骗消费者。苹果面临上亿台iphone设备的召回，还有天价的罚款 为啥不能降级 不是把电池拆坏了，好像是把主板拆坏了 脑残粉快来洗， 人云亦云没脑子。如果你手中的苹果手机变得卡顿，不好用，你下次还会买苹果手机吗？<br>他们把手机变得卡顿只会把用户逼到安卓阵营。 第三方明明几十块，详见某宝。 218元还是不错的，但是以前600+真的很黑 所有硬件都外包，充值毛线信仰 那我218换块电池是血赚咯？ 换电池不要技术，电池质量要有啊，第三方的用不到一年又掉几十怎么办？我也不想舔苹果屁股，只是黑心商家太多了 第三方多少钱，还是贵 反正要换，电池拆坏就坏了呗。 值个屁 你个2⃣️货又BB什么？根本不需要换的，就像作者老婆被人搞怀了胎，责任人关系单位减去坠胎费，作者认为责任人很够意思 操碎了❤️。 额，是手机呀，我妈的iphone6P去换电池，人家就是把原来的电池给敲弯了才弄出来，不是原装的，花了138元。 挺好的 一路傻狗复制了一段它自己都看不懂的话又高潮了 苹果公司享受着全世界果粉奉献的巨额财富，每天坐私人飞机去世界各地享受果粉们的膜拜。却舍不得收回他们的残次品 7以上还是挺好的。。因为有防水胶圈 有点动手能力的可以自己换很简单还有乐趣和成就感 你烦不烦傻逼 以前换电池都是40 说得好 也就是说降频的活该是吧 感觉挺值的啊 原来以前这么黑 换电池能有什么技术？iPhone8可能有点麻烦，前面机型都很简单 根本不需要换的，就像作者老婆被人搞怀了胎，责任人关系单位减去坠胎费，Sb作者认为责任人很够意思 果狗又来自欺欺人了，放心，美国赔钱一分钱也没有你的，参考英伟达970显存门 Boom7的电池都不止卖40吧………… 不要相信苹果的鬼话，苹果还在继续撒谎。真正的原因是电池过小CPU功耗过大。电池无法满足CPU的供电需求导致频繁死机，新电池只能勉强维持几个月就不得不降低主频。苹果用电池背锅掩盖硬件设计缺陷以避免大规模的的召回，赤裸裸的欺骗消费者。苹果面临上亿台iphone设备的召回，还有天价的罚款 218怎么不值？有质量保证，有售后，还是专业人士拆机！ se能换不 ",
        "Link": "http://comment.tech.163.com/tech_bbs/D6VRPNFI00097U7S.html",
        "Total": 305,
        "Reply": 70
    },
    "Article": "（原标题：不要998!只要218!iPhone换块电池218元人民币值不值?）【天极网手机频道】苹果对旧iPhone降频事件终于有了结果。苹果官方道歉还附加了一份看起来相当有诚意的福利，那就是：旧款iPhone用户过了保修期的电池价格下降到29美元，差不多合218块人民币。不要998，只要218，那么问题来了，218块钱换一块苹果手机的电池到底值不值呢？没有对比就没有伤害，首先我们了解下苹果手机以前换电池要多少钱。从去年苹果在官网公示的信息来看，之前iPhone6用户换一块电池的价格要588元，而相比现在的218元，足足降了两倍还多，可以看出苹果这次确实是带着诚意来的，不过另一方面也让我们看到苹果售后的利润到底有多大!!!而第三方维修平台的价格呢？我问了下熟悉的手机维修工程师朋友，iPhone6换一块电池的价格一般在二百多元，搞活动的时候一百多也有。所以，苹果官方售后、原装电池的价格已经跟第三方的持平，你要问值不值，那当然是很值的。如果iPhone的电池已经老化了，建议还是换一下，一是更安全续航更好，二是避免了iPhone的降频问题，手机速度上可能会好一些。虽然苹果一贯比较“黑心”，但没办法，有时候该充值信仰还得充值，谁让苹果的毒难戒呢!而且这次已经算是苹果相当有良心的一回了。本文来源：天极网责任编辑：王凤枝_NT2541",
    "URL": "http://tech.163.com/17/1231/10/D6VRPNFI00097U7S.html",
    "Title": "iPhone换块电池218元值不值？与第三方价格接近_网易科技",
    "KeyWords": "iphone,电池,苹果,手机"
}