{
    "URL": "http://news.163.com/17/1226/22/D6K6U6NP0001899N.html",
    "Comment": {
        "Total": 978,
        "Reply": 44,
        "Link": "http://comment.news.163.com/news2_bbs/D6K6U6NP0001899N.html",
        "Content": "持枪？无期徒刑啊！赶紧自首吧！<br>什么，没事？真是万恶的XXXX 在一个持枪合法的国家，竟然拿刀去抢劫，逗比 黑人，奇怪吗？ 好尴尬 肉枪啊？哈哈哈， 在美国这不是常事么？ 一个十年，一个无期…… 在美国敢吃到抢劫这要有多大的勇气和脑残！ 尴尬了 你是说大陆网友吗？ 持枪的妥妥的判的比拿刀的重。 有污点的人，审核通不过，当然没有抢。 有枪的好处，力量对等 都有枪，社主义优越性就没了。 角度不同兴奋点也不同 星条旗永不落🇺🇸 有个视频三人抢劫，被打伤一个其他两个跪地上举起双手，笑死 这是要反了 肯定不是中国！<br>中国那枪掏出来，也就放点水！ 在中国，不朝天开两枪证明是真枪，这哥们绝对被抢… 东北虎！？ 中国，抢不到钱了。都是线上支付 这是真正贫穷的劫犯，连枪都没有，唉可怜! 科尔特使人平等。 以暴制暴才是正道，看看我们有些地方的人在三亚像螃蟹一样横着走，如果大家有武器的话他们还敢这么嚣张 Y的看谁更牛[暴怒][暴怒][暴怒] 背景音乐是什么？？挺好听啊 持枪？无期徒刑啊！赶紧自首吧！<br>什么，没事？真是万恶的XXXX 肉枪啊？哈哈哈， 在美国敢吃到抢劫这要有多大的勇气和脑残！ 可能吃鸡吃多了有点错乱。 有个视频三人抢劫，被打伤一个其他两个跪地上举起双手，笑死 你是说大陆网友吗？ 持枪的妥妥的判的比拿刀的重。 美帝人民活在水深火热之中，既然有人抢劫[鄙视] 出息.......这点钱也值得抢啊 因为在天朝不是一般人能拿的到真枪，假枪都坐牢去了 好尴尬 角度不同兴奋点也不同 我去，酷酷的 星条旗永不落🇺🇸 如果学会了小李飞刀，就不会那么尴尬了[大笑][大笑][大笑][大笑] 东北虎！？ 科尔特使人平等。 打你小鸡鸡 很多元老级的名字，你想哪个？ 以暴制暴才是正道，看看我们有些地方的人在三亚像螃蟹一样横着走，如果大家有武器的话他们还敢这么嚣张 机构是大资金，是主力甚至庄家，小闪是小资金，机构采取原地踏步的策略，进来一个小闪，踏死一个小闪，逼小闪割肉出局，小闪割肉就是赌输了，机构赢钱了。小闪怎么办？一、战术上小闪选取拐点采取闪电战，利用机构尾大难掉头，小闪紧跟在机构后面，快进快出，在刀口上舔血。二、战略上小闪做好打持久战的心理准备，考虑微分后再积分，即分散资金，买更多只股票，而不是买某一只的更多手股票，这样，小闪以逸待劳，等着成熟一只，收割一只，记住，机构资金大，资金成本也大，机构理应耗不起小闪。题外话，当年塔利班就是这样赶走苏军的，现在塔利班的战术、战略应该还没有变。 你在群里是哪个名字？ 在一个持枪合法的国家，竟然拿刀去抢劫，逗比 黑人，奇怪吗？ 有枪的好处，力量对等 在美国这不是常事么？ 朝天开枪？还记得上次一个警察朝天鸣枪示警，结果把楼上五楼看热闹的人给打死了。 美帝主义！ 尴尬了 那群里都是元老。 本想拿个扫把摔过去结果还是个塑料的飞在半空中拿枪的劫匪看傻了。。。。 有污点的人，审核通不过，当然没有抢。 都有枪，社主义优越性就没了。 咪一会 中国，抢不到钱了。都是线上支付 拿着个高压锅盖想去干赤手空拳的，结果人家切换武器拿了把枪 …… 这是要反了 肯定不是中国！<br>中国那枪掏出来，也就放点水！ 在中国，不朝天开两枪证明是真枪，这哥们绝对被抢… 一个十年，一个无期…… 这是真正贫穷的劫犯，连枪都没有，唉可怜! Y的看谁更牛[暴怒][暴怒][暴怒] "
    },
    "Article": "（原标题：以为自己能赢却发现对面其实是大佬）#endText.video-infoa{text-decoration:none;color:#000;}#endText.video-infoa:hover{color:#d34747;}#endText.video-listli{overflow:hidden;float:left;list-style:none;width:132px;height:118px;position:relative;margin:8px3px0px0px;}#entText.video-lista,#endText.video-lista:visited{text-decoration:none;color:#fff;}#endText.video-list.overlay{text-align:left;padding:0px6px;background-color:#313131;font-size:12px;width:120px;position:absolute;bottom:0px;left:0px;height:26px;line-height:26px;overflow:hidden;color:#fff;}#endText.video-list.on{border-bottom:8pxsolid#c4282b;}#endText.video-list.play{width:20px;height:20px;background:url(http://img1.cache.netease.com/video/img14/zhuzhan/play.png);position:absolute;right:12px;top:62px;opacity:0.7;color:#fff;filter:alpha(opacity=70);_background:none;_filter:progid:DXImageTransform.Microsoft.AlphaImageLoader(src=\"http://img1.cache.netease.com/video/img14/zhuzhan/play.png\");}#endText.video-lista:hover.play{opacity:1;filter:alpha(opacity=100);_filter:progid:DXImageTransform.Microsoft.AlphaImageLoader(src=\"http://img1.cache.netease.com/video/img14/zhuzhan/play.png\");}if(/(iPhone|iPad|iPod|Android|NETEASEBOBO|blackberry|bb\\d+)/ig.test(navigator.userAgent)||/safari|chrome|firefox/i.test(navigator.userAgent)&&navigator.plugins&&!navigator.plugins[\"ShockwaveFlash\"]){varstr1='<videocontrols=\"controls\"preload=\"auto\"width=\"100%\"poster=\"http://vimg3.ws.126.net/image/snapshot/2017/12/8/A/VD5MF888A.jpg\"style=\"max-height:100%\">';varstr2='<sourcetype=\"video/mp4\"src=\"http://flv.bn.netease.com/videolib3/1712/26/EdRNF7581/SD/EdRNF7581-mobile.mp4\">您的浏览器暂时无法播放此视频.</video>';document.getElementById(\"FPlayer1404863609673\").parentNode.innerHTML=str1+str2;}打游戏以为自己能赢时发现对面其实是大佬（来源：~）window.NTES&&function(d){varf=function(c){varb=c.getAttribute(\"flashvars\"),a=c.getAttribute(\"repovideourl\").replace(\".flv\",\"-mobile.mp4\");h=d(c.parentNode.parentNode.parentNode),g='<embedsrc=\"http://v.163.com/swf/video/NetEaseFlvPlayerV3.swf\"flashvars=\"'+b+'\"allowfullscreen=\"true\"allowscriptaccess=\"always\"quality=\"high\"wmode=\"opaque\"width=\"100%\"height=\"100%\"type=\"application/x-shockwave-flash\"/>';if(/(iPhone|iPad|iPod|Android|NETEASEBOBO|blackberry|bb\\d+)/ig.test(navigator.userAgent)){g='<videocontrols=\"controls\"preload=\"auto\"width=\"100%\"height=\"100%\"><sourcetype=\"video/mp4\"src=\"'+a+'\">您的浏览器暂时无法播放此视频.</video>';}h.$(\".video\")[0].innerHTML=g;},e=function(b){vara=d(b.parentNode.parentNode.parentNode);a.$(\"li\").removeCss(\"on\"),b.addCss(\"on\"),a.$(\".video-title\")[0].innerHTML=\"string\"==typeofb.textContent?b.textContent:b.innerText,a.$(\".video-title\")[0].setAttribute(\"href\",b.getAttribute(\"url\")),a.$(\".video-from\")[0].innerHTML=\"（来源：\"+b.getAttribute(\"source\")+\"）\",f(b);};window.continuePlay=function(){vara,b=d(d(\".video-list.on\")[0].nextSibling);3==b.nodeType&&(b=d(b.nextSibling));if(b&&d(\".video-innerinput\")[0].checked){e(b);}},function(){vara={init:function(){if(d(\".video-listli\")[0]){d(d(\".video-listli\")[0]).addCss(\"on\"),this.eventBind();}},eventBind:function(){d(\".video-listli\").addEvent(\"click\",function(b){e(d(this)),b.preventDefault();});}};a.init();}();}(NTES);美国密歇根州纽波特市一座加油站内，一名男子蒙面走到柜台前，持刀威胁店员交出钱款，还拿出一个袋子放到柜台上。然而...店员先是起身假装去拿钱，随后突然从柜台下拿出了一把枪，男子当时就被吓退，仓惶逃跑。本文来源：环球时报责任编辑：李杭_BJS4645",
    "KeyWords": "加油站,柜台,枪",
    "Source": "Netease",
    "Title": "男子持刀打劫加油站 店员假装拿钱却突然抽出枪_网易新闻",
    "PublishTime": "12/26/201722:10:19"
}