{
    "Title": "五月天阿信再提拿金曲奖 被呛：天啊 这要讲几年_网易娱乐",
    "PublishTime": "01/01/201812:02:42",
    "URL": "http://ent.163.com/18/0101/12/D72IHTQB00038FO9.html",
    "Source": "Netease",
    "KeyWords": "五月天,阿信,金曲奖,彩带",
    "Comment": {
        "Reply": 13,
        "Content": "信有男朋友了吗？ 台独🐶 呵呵，自娱自乐 好喜欢的乐团，专心做音乐，看过演唱会视频，中国无人能出其右 哈哈，好胖 五只台独🐶。 居然还有说五月天台独的。。。真是造谣动动嘴，辟谣跑断腿 用心做音乐 台独🐶 还好老婆喜欢的歌手是阿信。看了他的身材。我好放心。点赞！ 信有男朋友了吗？ 哈哈，好胖 呵呵 居然还有说五月天台独的。。。真是造谣动动嘴，辟谣跑断腿 呵呵，自娱自乐 伪摇滚 一群快50的青春摇滚乐团 不喜欢 好喜欢的乐团，专心做音乐，看过演唱会视频，中国无人能出其右 五只台独🐶。 用心做音乐 ",
        "Total": 63,
        "Link": "http://comment.ent.163.com/ent2_bbs/D72IHTQB00038FO9.html"
    },
    "Article": "五月天在台开唱阿信网易娱乐1月1日报道据台湾媒体报道，昨是2017年最后一天，五月天在台湾举办“人生无限公司”演唱会，陪2.4万歌迷迎接2018年的到来，他们唱完《干杯》后，在倒数声中，看台区歌迷齐抛出手上的彩带，现场一片蓝色瀑布，重现棒球赛封王场景，场面相当壮观，不过在正是倒数前，阿信在台上不小心手滑丢出彩带，他当场调皮将彩带缠到怪兽和冠佑身上，两人顺势紧抱，打趣说是“多元成家”。倒数前，阿信回顾2017年发生的事情，像是五月天庆祝成军20周年，3月回到大安森林公园开唱，以及他拿下金曲奖最佳作词人奖，他没明说此事，暗示说：“像我5月的时候。。。”（但实际上金曲奖是6月），怪兽受不了大喊：“天啊，这要讲几年！”其他团员也亏他为了这个奖等了20年，怪兽又补刀：“是40年！”恰好场外有人放烟火，阿信笑说：“场外的不要帮我放烟火庆祝好不好。”全场笑翻。本文来源：网易娱乐责任编辑：陈少杰_b6952"
}