{
    "Source": "Netease",
    "KeyWords": "利比里亚,选举,最高法院",
    "Title": "利比里亚总统选举决胜轮明投票 前足球先生胜算大_网易新闻",
    "PublishTime": "12/25/201709:18:30",
    "URL": "http://news.163.com/17/1225/09/D6G8C7P90001875O.html",
    "Article": "（原标题：利比里亚总统选举“决胜轮”明天投票前世界足球先生维阿胜算大）26日，也就是明天，西非国家利比里亚将举行总统选举的第二轮、也就是“决胜轮”投票。前世界足球先生、民主变革大会候选人乔治·维阿和团结党候选人、现任副总统约瑟夫·博阿凯将一决高下。当地时间23日晚，乔治·维阿在首都蒙罗维亚的一座体育场举行竞选集会，他承诺，如果能当选利比里亚总统，他将大力投资农业生产、创造更多的就业岗位，并全力改善利比里亚人民的医疗、教育环境。?在今年10月10日举行的大选首轮投票中，维阿和副总统博阿凯分别获得38.4%和28.8%的选票，列所有候选人的前两位。由于没有人得票过半，依照程序，维阿和博阿凯进入第二轮“决战”。而“决胜轮”的投票原定11月7日举行，不过，由于得票第三的自由党候选人指认首轮选举有违规现象，向利比里亚最高法院提起诉讼。最高法院随即宣布“无限期暂停决胜轮投票”，要求选举委员会调查舞弊指控。本月初，最高法院裁定，没有足够证据支持舞弊指控，决胜轮投票继续。但随后，博阿凯所在的团结党又提出“暂停投票”的申请。不过，最高法院21日驳回了这一申请，为“决胜轮”在26日进行投票“开绿灯”。从目前的选情来看，维阿获胜、当选利比里亚新总统的可能性很大。利比里亚曾经历长达14年的内战，饱尝战争之苦，现在它依然是世界上最贫困的国家之一。不少维阿的支持者都表示，希望这位前世界足球先生能让人们过上好日子。维阿的支持者劳拉·布莱辛：我要投票给乔治·维阿，因为乔治·维阿爱我们，在乎我们，而博阿凯不爱我们，因为（现总统）瑟利夫的执政，我才知道谁是博阿凯，可我从小时候起就知道乔治·维阿。本文来源：央视责任编辑：邵小波_NN2479",
    "Comment": {
        "Content": "明白了，中华民族根本不是什么文明摇篮，是垃圾民族，素质不如黑人，黑人都能适应新闻开放，直接投票，但是，一旦中国人行使这些权利，就会走形了 前世界足球先生、民主变革大会候选人乔治·维阿和团结党候选人、现任副总统约瑟夫·博阿凯将一决高下 球技最好的國家領導人 投票的地方越来越多了 我家还在吃非典那年抢的盐呢 朕已阅 看看南非吧 继续干下去 明白了，中华民族根本不是什么文明摇篮，是垃圾民族，素质不如黑人，黑人都能适应新闻开放，直接投票，但是，一旦中国人行使这些权利，就会走形了 前世界足球先生、民主变革大会候选人乔治·维阿和团结党候选人、现任副总统约瑟夫·博阿凯将一决高下 继续干下去 ：我要宣布一件事情，大家还记得2011年的抢盐的事情吗？我家里的盐在今天，就是今天，终于吃完了，吃完了呀！我的个亲娘啊！终于给吃完了。​​​ 球技最好的國家領導人 投票的地方越来越多了 ",
        "Reply": 10,
        "Link": "http://comment.news.163.com/news_guoji2_bbs/D6G8C7P90001875O.html",
        "Total": 119
    }
}