{
    "URL": "http://news.163.com/17/1231/17/D70IRPJO0001899N.html",
    "Article": "（原标题：业主收房大修基金可以代收？物业提供神秘账户）西部网讯最近，西安市南郊东长安街聚福苑小区的业主们在收房时，遇到了问题。物业不仅可以代收大修基金，而且还给业主提供了一个神秘的账户，不交钱，这房子甭想收。业主：“前两天物业通知我们收房，本来高高兴兴的一件事，结果到这以后，物业的一些做法让我们不能理解。”要收房的是西安市东长安街上煜星福聚苑小区11号楼的业主们，可当他们看到自己的新房，心先凉了一截。业主：“一堆黄土不说了，单元门还没修好，里面的消防设施也不完善，这让我们咋收房。”尽管早已超出了合同约定的收房时间一年之久，但直到现在，这样的环境让业主们认为，依然无法达到收房标准。记者：“消防还没验收吗？”物业：“没有没有，你收你的房，那些陆陆续续都会验收。”记者：“整个小区消防都没有验收？”物业：“没有验收。”记者：“你们就不应该交房。”物业：“那其他楼也是那样交房。”目前的情况已然这样，业主们没得选。业主：“即使这种条件我们也可以忍，但是物业还是有个条件，要到他们那把大修基金交了。如果不在他们那交，我们连钥匙都拿不到。”收房交大修基金，这没啥说的，不过要交到物业那儿，恐怕不合适吧。业主：“关于大修基金，物业代收是不合理的，物业还拿这个卡我们收房。”业主们说，凡是对代收大修基金提出异议的业主，物业还提供了另一种方法，给业主们了一个银行账号，需要将钱打到这个指定的账户里，才能收房。而账户的户名，就是开发商自家账户，西安煜星置业有限公司皇子坡项目部。《都市热线》全媒体记者跟着业主们来到了小区的物业办。记者：“大修基金要交到物业吗？”物业办工作人员：“你也可以交到银行，我们有公管账户。”记者：“我们自己交到房管局不行吗？”物业办工作人员：“五证不全啊，房管局的收费账户下不来，所以就给煜星置业这边说，建立了一个三方监管的账户，你就得往上面交。”物业坦言这个聚福苑小区，直到现在为止，依然五证不全。当初的违规销售，造成了现在根本没办法向房管局缴纳大修基金的局面。可物业又解释，交到银行不算代收，而且相当安全。物业办工作人员：“户主是煜星置业，但是是由税务和房管局监管的，就像当时我们没有预售证就把房子给卖了，这是一个情况。我们虽然是没有完全按规矩来，但是情有可原嘛。前期买房业主也知道，说不好听的话，一开始这就是集资建房的项目。”物业解释起来，还蛮有理的样子。可这所谓的三方监管账户，真的确有此事吗？《都市热线》全媒体记者电话咨询了西安市房管局。西安市房管局工作人员：“无证不全的话就没办法交维修资金，我们没有跟哪个开发商合作过，从来没有，我们的账户都是维修资金专户，业主自行到银行去交，不是物业给一个账号，这个小区以前也有过这种情况，但维修资金肯定是不能交给他们的，交给他们，业主的资金没有保障。”很显然，这物业所谓的监管账户着实不靠谱，却依然要以此为理由，强制收费。目前，业主们也打算继续向房管部门投诉，维护自己的合法权益。本文来源：西部网作者：王毅责任编辑：李杭_BJS4645",
    "KeyWords": "物业,收房,基金,房管局",
    "Source": "Netease",
    "Comment": {
        "Reply": 27,
        "Content": "是不是维修基金啊,维修基金是交给物业的,买一手房交房都要交的 哪个小区？我帮你们砸了物业 这房子证件都不齐，还敢买 物业太垃圾 既然以前就知道有这种情况，为啥睁眼瞎？狼狈为奸 赶走物业 说好的法治社会呢 收保护费啊，标题看得我云里雾里的 变着花样腐败而已 俺们小区七八个保安动不动就说是代表业主，不满意他还叫我滚去其他小区 以大欺小，倚强凌弱[暴怒] 业委会这玩意说实话也就南方几个城市才有，其他的地方形同虚设，方方面面勾结起来还会在乎你业委会？ 小区给你们吃喝，小区养活你们，儿不嫌母丑，狗不嫌家贫，不爱“祖区母亲”滚出去，一看你们都是别的小区派来的“X狗X杂” 物业是大爷 看门狗的权利越来越大了 杀了！ 业主委员会是干嘛吃的？<br>对物业不满的业主占多少比例？ 没说你是区奸？ 是因为法制不健全还是不想健全？房子的问题不是一年两年了，一出问题受伤的都是百姓还无法解决或短期无法解决，所以有时候别怪网友会说：如果在国外，估计这些房地产商要破产。 收保护费啊，标题看得我云里雾里的 这房子证件都不齐，还敢买 物业太垃圾 说好的法治社会呢 这新闻编的吧，都不知道说了啥[不屑] 变着花样腐败而已 其实小区物业真的要管管他们，都很猪的。 俺们小区七八个保安动不动就说是代表业主，不满意他还叫我滚去其他小区 以大欺小，倚强凌弱[暴怒] 既然以前就知道有这种情况，为啥睁眼瞎？狼狈为奸 物业是大爷 看门狗的权利越来越大了 杀了！ 业主委员会是干嘛吃的？<br>对物业不满的业主占多少比例？ 业委会这玩意说实话也就南方几个城市才有，其他的地方形同虚设，方方面面勾结起来还会在乎你业委会？ 是因为法制不健全还是不想健全？房子的问题不是一年两年了，一出问题受伤的都是百姓还无法解决或短期无法解决，所以有时候别怪网友会说：如果在国外，估计这些房地产商要破产。 是不是维修基金啊,维修基金是交给物业的,买一手房交房都要交的 哪个小区？我帮你们砸了物业 物业是小区领导力量 无良地产商 需要,如果没有拿钥匙物业应该是通知过的 业主委员会呢 没说你是区奸？ 物业真牛逼 西安房地产太乱，百欣花园就是例子 赶走物业 ",
        "Total": 435,
        "Link": "http://comment.news.163.com/news2_bbs/D70IRPJO0001899N.html"
    },
    "PublishTime": "12/31/201717:29:36",
    "Title": "业主收房时门口一堆黄土 物业:交大修基金再拿钥匙_网易新闻"
}