{
    "Comment": {
        "Link": "http://comment.news.163.com/news_shehui7_bbs/D6L071FT0001875P.html",
        "Reply": 488,
        "Content": "临死找一个垫背的 我一朋友前天算命的说他今年命犯桃花，会被一个突然出现的女人伤的很深。结果昨天他在拐角处被一大妈骑电动车撞了，现在还在医院里躺着！🤔 你想在空中跳舞？ 我也看着像，下来就像个死人，一点都没动 没有先后，咱们这个等级的不分先后，命好的多活个3/5年。 只要睡，不要谈福利。又有很多评论被删除屏蔽了，连点赞都顶不上 这逻辑不对。应该是：在你路过的时候跳，那肯定跟你有关系。死者为什么不在别人路过的时候跳呢？ 一个人突然从天而降摔死在眼前，甚至血和脑浆都会溅一脸，这女的如果不及时进行心理疏导，后果不堪设想 如果明知下面可能有人经过，还以这种方式自杀的，以危害公共安全罪论处！ 医保健全，就死不了！ 我们这跟一楼差不多，主要是现在食品、环境问题，很多癌症，老人大部分都是查出来就在家等死，年轻的想活命基本倾家荡产，然后等死，没人服侍的更惨。哥觉得也该认真考虑移民的事了，在这里没准哪天中奖。 生命在病魔面前没了尊严。 这个行人要承担责任的，因为你应当用手接住，你能接住而不接住，应当预见有人掉下来，而没有预见，造成被害人死亡，后果严重，应当赔偿。——烂精法棺 难道穷人就只能是这样的命运吗？ 跟贴被火星网友带走啦~ 对生活绝望了的人 路人：你妈了隔壁吓死老娘了！ ... 差点就一块上路了，回家杀鸡还神. 烂尾了又 是我就直接尿了，瘫了，昏过去了。 这个没给砸死也给吓死了，这一辈子的阴影啊！ 这是一个信号吗？怎么最近各种坠楼？ 半米距离定生死 随然有医保，但仍然水胀船高治不起，得了大病平民很无奈， 你以为摔伤只有擦擦皮，最重是骨折？ 什么叫排除了案件的可能性 跟贴被火星网友带走啦~ 别看不起10楼，人家广西的是真牛逼，每次大事哪里少的了两广？ 既然活不了几年，不如调转枪头让他们也活不了。 跳楼自杀可以，但不要再伤及无辜了，那样可真是作孽啊！👈️👈️ 如果在熬几年据说大伙都进入了小.糠了。 这社会，唉，贪官跳，失恋的跳，生活绝望的跳 你是弱智？你这样的观点，就是你预设的，然后说成民主人士的。你个低等狗，不知道为自己的利益争取权利，反而助纣为虐，讽刺别人。你说你有多蠢。 楼上快牵头，别说大话，我们随后就到。 凌空一跳，你解脱了，家人断魂，仇人窃喜，人世繁华，过眼云烟，哎哎哎！ 房子烂尾了可以推倒重建，民族烂尾了又当如何。 主要是环境问题比较多。你去医院儿科看看不管是白天还是晚上都是小孩咳嗦的！支气管炎转肺炎的大把的是！我家小孩每次去都花个三四百。关键是还治不好。。。两个多月就一直跑医院。。那桌子上的药都成堆的放。。医生也没办法就是熬。 排除案件可能性？这叫排除案件他杀可能性 过路女子有种劫后余生的感觉吧... 现在空中杀手越来越多 摔伤都求治无果？ 食品难道没问题，市场蔬菜各种催熟剂、膨大剂，哦，尼玛，都是合法添加 自杀还想害别的人你不知道害羞嘛？ 穷人看不起病，就别进医院，会穷三代的。在里面和富人一对比，还容易造成心理失衡。<br>像我们村的人，得了大病，我看绝大部分是躺在床上等死的。认命吧，社会等级低，就只能这样子了。 今天的冷漠，便是明天的自己！救死扶伤的地方，变成坑人的地狱！鸣呼！ 求路人的心里阴影面积 移民印度完完全全够用了民主人士不是经常高喊印度是仅次于美国的民主国家吗第一去不上去第二的印度啊 估计以后都不敢从楼下过了 国内防火知识教的太少了，真的着火时，有多少人知道如何逃生。 很正常的，小区一个人工地脚手架掉下来，小腿粉碎性骨折，手术痊愈后一到阴雨天疼得满床打滚。没办法，骨折后遗症都是这样，只是疼痛轻重的问题。 人好像是死过后，掉下来的，楼层并不高。跳楼一般都要强调从多少楼层跳下的，这个提也不提，很蹊跷。 这个没给砸死也给吓死了，这一辈子的阴影啊！ 看准了再跳啊，晕 四川人感情为什么这么脆弱？动不动就自杀！ 过路女子有种劫后余生的感觉吧... 消防车的梯子只能达到13楼，所以从这个角度倒13楼为止还是可以的，我在网上查的日本是这样的。 有时侯也是一种无奈！ 主要是医生冷漠 是的，如果在中国实施安乐死，会有大批的人被合法的谋杀 串火（不知道是不是这个词）就很快，马上整个楼都能着起来。有消防门就能多争取一点时间 一路走好 还是那句话，坚持过去了就好了。柳暗花明又一村。人生的路很长也很短，看你怎么选择。 喷点不对 前一阵，国内高空极限的人摔死的新闻。看那些图片，我就很紧张，他们要是一不小心摔下来，下面的人怎么办。 现在进医院没钱只能一跳解脱了 有碰瓷的嫌疑 一路走好 据了解，坠楼女子50多岁，事发前数月曾经摔伤，多方求治未果。<br><br><br>肯定是钱没到位，没法治。 国外是限制医疗，中国是医疗过度，国外感冒都不开药的，不像国内，都往医院跑，那还不人满为患 可能肿瘤病人 希望中国能有安乐死让无法忍受疾病痛苦的人免受折磨 如果发生火灾怎么办？ 穷人看不起病，就别进医院，会穷三代的。在里面和富人一对比，还容易造成心理失衡。<br>像我们村的人，得了大病，我看绝大部分是躺在床上等死的。认命吧，社会等级低，就只能这样子了。 摔伤都求治无果？ 感冒不开药？怪不得SAS那么猖獗 为什么？悲惨！ 个没给砸死也给吓死了，这一辈子的阴影啊 体制不行人性缺失任何口子都不能放！ 流行的，我们老家的镇医院里都满了，现在有点钱的都去县医院什么事市医院了，不明白小孩的抵抗力怎么那么差 自杀原因呢？因为没有治疗好？ 过路女子有种劫后余生的感觉吧 有外人跑到我们楼的25层跳楼自杀，但不是我们单位的人，也不是我们楼洞的人，这些想自杀的人都是平时都把地点看好，然后跑到高楼层跳楼自杀。但愿自杀者本人不要给其他人带来伤害。 一辈子都会有阴影滴。。。 如果在熬几年据说非洲都进入了小.糠了。 那年我随中铁在江苏与安徽交界施工，那天夜间有急事我要连夜开车赶去南京，我从安徽天长开车出来夜行金江公路，过了金牛湖就没有路灯了，道路也开始变窄了，但那段公路是新修的，还比较平坦，公路两边都是稻田，沟渠，已是大半夜了，路上见不到一个人，车辆也很少，那天好在月亮挺大，我夹着小心开车，把车速减慢，车灯也调成了远光灯，这时前方公路要穿过一段密林，刚经过密林这时我就听到了一个女子的哭声，但听着这哭声好像就在我附近，就好像有个人坐在我车里在哭泣，我回头看了一眼后座，哭声没有了，但也没人哪，一会又听到我脚下的车轱辘传来嘎吱嘎吱的声音，就感觉好像是路面在啃咬着四个车轱辘，这声音搅的人心里那个难受，我心说，这路是刚修完不久的，不应该有这声音啊？就在我还没醒过闷儿来的时候，突然在我的驾驶门的车窗玻璃上啪的一声出现了一个大手印，我借着月光一看竟是一个还在渗着血的血手印，我精神一下子就变得高度紧张起来，我又不敢停车，这时我右手上戴的那串佛珠竟有些发热，我突然想起了观世音的六字真言，于是大声不断的反复念了起来，这样感觉我心静多了，但只要我一不念，女子的哭声就会自车厢内传来，我赶忙又大声的继续念，这样大约走了有半个多小时前方终于见到路灯了，这时我一侧头见车窗上的血手印没有了，我才刚刚松了口气，一会前方出现了拦截障碍物，有两个警察站在路中央，用手电向我的车子晃了两下，示意我停车接受检查，来到近前我停下车子走了出来，警察让我掏出驾驶本，行驶本，身份证看完后对我说；随车人员都要接受检查，让你车里的人都下来，我说；我这车里就我一个人啊，警察说不对，刚才我们俩都看见了，坐你车后座的还有一个长头发的女人，我说根本没有，两个警察跟我来到车前，将车门都打开了，连后备箱的门都打开了，确实一个人都没有，两个警察嘴里还念叨着，刚才确实看到了后座有人，真是活见鬼了。 摔伤都求治无果？ 运气真是好 凌空一跳，你解脱了，家人断魂，仇人窃喜，人世繁华，过眼云烟，哎哎哎！ 我的天，什么人都能上网啊。2楼的话里，那句看出来怨天怨地了。真服了。只是说给私人判刑很无稽，这是事实吧。中国就没有给死人判刑的。 医院又得赔钱了。 应该是得了不治之症吧？要不然怎能有勇气自杀 过路女子有种劫后余生的感觉吧 监控蛮清楚啊 这尼玛要是我，真的要吓懵逼！！！ 键盘侠，请你给死人判个刑呗，让他们来找你！死都不怕了，还怕会砸到人？你脑子有病吧！ 如果在熬几年据说大伙都进入了小.糠了。 卧槽，吓得这女的。杰克逊的太空步都搞出来了！！！ 摔伤就自杀？ 一生平安是福 现在的县级医院连个感冒病都治不好，你信不？？ 四川就是落后，在这边绝对不可能发生因为所有医院的窗户最多只能开十分之一，连小孩都钻不出去 真心希望那些想自杀的，最好自己找个河流跳下去，哪怕池塘也行啊，跳楼很容易误伤他人，会下十八层地狱滴 没钱的练练健身气功：五禽戏，八段锦。 那是病房才封窗子，哪个楼道封窗子！ 有点怪，这下落像麻袋，没什么反应 如果明知下面可能有人经过，还以这种方式自杀的，以危害公共安全罪论处！ 这下是不是算杀富济贫了 或许是劳动能力部分丧失，生存压力，伤痛不治的痛苦 誰負責背這隻鑊？ 小孩长期咳嗽的，把空调拆了换成风扇试试，不要总怪医院。以前赤脚医生都能看好的病，现在本硕都看不好了？ 马蛋大白天居然把我吓到了 死者长已矣生者常戚戚 傻逼 我一朋友前天算命的说他今年命犯桃花，会被一个突然出现的女人伤的很深。结果昨天他在拐角处被一大妈骑电动车撞了，现在还在医院里躺着！🤔 绝对有！我大概十几年前遇到过一次，在家附近去开会路上忽然听见上面有声闷响，自然而然停步，掉我前面一米不到，还好是二楼的晾衣架给了他一个缓冲，四分管都扭曲了，万幸如果没这个晾衣架可能就直接砸我了，不死也残，说实话当初没有害怕，只是莫名的脑子一片空白，还是边上等车的路人报了警，不久跳楼的母亲从棋牌室赶来说的第一句话是：戆棺材，怎么又跳楼了。见鬼事后从小区里知道他原来是个精神病患者，最后得知他不久就出院了，感谢这个晾衣架救了他，或许也救了我。我这一生到现在为止遇上过数不胜数的惊心动魄的事情，飞机迫降、化工厂大型煤气塔爆炸，被持刀劫匪拦路抢劫等等，一直在反思到底是老天爷在暗示我什么？总结出一点只要不做亏心事，一切的灾难或危险会在你面前逢凶化吉，经历过这么多风风雨雨，看事看人都淡了坦然了，老天要收你的时候是随时随地，正直坦荡的做人才对得起自己一生。 大白天在热闹的地方跳楼，涉以危险方法危害公共安全罪 这个没给砸死也给吓死了，这一辈子的阴影啊！ 什么原因跳楼呢 蒋介石就是摔伤（车祸，车内摔跤），然后求治无果。<br>建议1楼就算不懂医学，也要知道历史大事啊。<br>现在医学其实才200年，感冒都治不好，还指望治疗摔伤？<br>唉，这都是电视广告害人啊，搞的大家以为医学很先进了。<br>实际现代医学无法治愈现在已发现的90%以上的病患。<br>能在一定时间内控制病情，不在短时间内急剧恶化就不错了。 蒋介石就是摔伤（车祸，车内摔跤），然后求治无果。<br>建议你就算不懂医学，也要知道历史大事啊。<br>现在医学其实才200年，感冒都治不好，你还指望治疗摔伤？<br>唉，这都是电视广告害人啊，搞的大家以为医学很先进了。<br>实际现代医学无法治愈现在已发现的90%以上的病患。<br>能在一定时间内控制病情，不在短时间内急剧恶化就不错了。 去你mlgbd，废物一个！废物也就只会怨天怨地怨社会！ 过路女子有种劫后余生的感觉吧... 四川就是落后，在这边绝对不可能发生因为所有医院的窗户最多只能开十分之一，连小孩都钻不出去 如果明知下面可能有人经过，还以这种方式自杀的，以危害公共安全罪论处！ 这个路过的心理阴影面积得有多大？ 最近跳楼的人越来越多了，到底社会出了什么问题，才能导致那么深的绝望，再这样下去，难免又会有绝望极端的人，烧公交，烧楼，死一堆了…… 自杀不但是一种不负责任的懦夫行为，死后也只有下地狱（基督教事这么说的哈），佛教也反对自杀，就是要自杀也请选一个不会伤害他人的时间、地点。 穿了红衣服。 楼主是要找公基， 所有自杀都是他杀。应该算算压死骆驼的草多少？ 我是外地的，刚来苏州，不小心被蜈蚣虫咬了口，不久伤口开始肿胀。吃药打针都没得用，看到没办法了，正好遇到个道士。道士说：我遇到的乃是百年蜈蚣精，要治好的话还得要去寻找它的天敌。所以问大家，苏州木渎附近哪里有鸡？ 一楼娘娘腔死远点 四川宜宾个别民营医院夸大病情牟利遭诟病-中新网 要死死远点别害人 霉鬼二崽坑爹坑死的<br><br>比如霉鬼二崽的肉不达标激素泛滥<br><br>参考巴马老人100岁爬树 跟帖800以上的几十层楼的删了几十贴了，和谐🦀社会正和谐🦀！ 鸡：mmp 一路走好 为什么不给家属看监控录像? 老人摔伤很难治愈，如果子女没时间照料，死亡率很高 你还想吃鸡不成？ 养老基金出现大缺口。 2楼纯煞笔，怨天怨地怨社会的废物！ 好像是死过后，掉下的。 没砸死的这个。等以后走鸿运的时候想起就会害怕，以后走霉运时想起就高兴。就这么回事！ 就是因为没砸死，所以才高兴，如果砸死你还高兴个屁啊 穿了红衣服。 让你们去健身，一个二个又要抽烟喝酒吃宵夜，每个人的身体好坏最终还是靠自己，靠医院？得了癌症就算是乔不死还不是只有等死。 现在的人体质太差，食品都有添加剂，水污染严重，土地重金属污染严重，父母的身体素质就不好，自然子女也好不到哪里去，父母经常上夜班或者干劳累的活的肯定身体都被耗干了所以他们的子女身体素质也差，人家俄罗斯小孩直接用冰桶浇也没生病，这就是身体素质差距。 有什么阴影，应该高兴才对 为什么要跳楼，方法很多，这样还要砸到别人。真的不理解。 穿了红衣服。 JC真神探也。。。马上就排除了‘案件的可能性’~~~ 目的不是内容是为了让你们看我的名字 先上立头功，等着啥都是免费的还高档。 老人摔伤或骨折必须静养，伤筋动骨一百天，一静养就容易引发血栓中风之类的，都是并发症死，骨折本身并不会死。 六楼…… 现在的人体质太差，食品都有添加剂，水污染严重，土地重金属污染严重，父母的身体素质就不好，自然子女也好不到哪里去，父母经常上夜班或者干劳累的活的肯定身体都被耗干了所以他们的子女身体素质也差，人家俄罗斯小孩直接用冰桶浇也没生病，这就是身体素质差距。 楼下退休老人摔断腿，看病后在家养，一个多月，就走了，我也是惊的下巴掉了，活蹦乱跳的一个人，精神很好，就这样走了，原因不明！ JC真神探也。。。马上就排除了‘案件的可能性’~~~ 键盘侠，请你给死人判个刑呗，让他们来找你！死都不怕了，还怕会砸到人？你脑子有病吧！ 如果在熬几年据说大伙都进入了小.糠了。 摔伤都求治无果？ 国人已经没有血性了，只剩戾气 一生平安是福 医院逼得，一个烧伤都治不好。医生都他妈一群废物 差点就一块上路了，回家杀鸡还神. 穷人看不起病，就别进医院，会穷三代的。在里面和富人一对比，还容易造成心理失衡。<br>像我们村的人，得了大病，我看绝大部分是躺在床上等死的。认命吧，社会等级低，就只能这样子了。 地图炮滚远点 请自杀的都找个偏僻的地方，谢谢 应该向死者家属索要精神赔偿[微笑] 现在的人体质太差，食品都有添加剂，水污染严重，土地重金属污染严重，父母的身体素质就不好，自然子女也好不到哪里去，父母经常上夜班或者干劳累的活的肯定身体都被耗干了所以他们的子女身体素质也差，人家俄罗斯小孩直接用冰桶浇也没生病，这就是身体素质差距。 JC真神探也。。。马上就排除了‘案件的可能性’~~~ 你以为摔伤只有擦擦皮，最重是骨折？ 都给自己执行死刑了，还判个毛线的公共安全罪 过路女人，当时估计也随死者灵魂出窍了。尼玛这一通好吓，应该找谁赔偿精神损害？ 关键是小康和物价不成正比啊大兄弟 ... 没有先后，咱们这个等级的不分先后，命好的多活个3/5年。 你以为是跳水运动员还空中控制姿态？ 这逻辑不对。应该是：在你路过的时候跳，那肯定跟你有关系。死者为什么不在别人路过的时候跳呢？ 坠楼，查清楚事情，是自杀还是他杀。 电视剧里的医院，医生可不是这样的 “瞎子，计算错误，少走了一步，你不会怪我吧？”“我这人瞎了一辈子，但最有眼光的就是跟着帮主你了” 可怜的过路大姐，心里伤害极大！ 有人查出肺癌,居然去跳河自杀了,没办法呀,没有钱,最怕治到最后倾家荡产,人财两空,我那天得癌症,可能也会自杀了事,只怕没那自杀的勇气了 只有出国或当高官吃特供，或有钱吃进口食品！ 房子烂尾了可以推倒重建，民族烂尾了又当如何。 上辈子拯救了银河系 这个行人要承担责任的，因为你应当用手接住，你能接住而不接住，应当预见有人掉下来，而没有预见，造成被害人死亡，后果严重，应当赔偿。——烂精法棺 难道穷人就只能是这样的命运吗？ 跟贴被火星网友带走啦~ 摔伤，怎么会求治无果 差点又要死个无辜的 与死神擦肩而过的人，据说福致将来。🤔 死也得找个地方，不然死了也挨骂！ 求此人心理阴影面积 是我就直接尿了，瘫了，昏过去了。 这就是高楼大厦的好处，着火了死一堆，没事隔三差五的扔下几个酒瓶子花盆啥的，运气好点还能被跳楼的砸死！ 到时候疼的你就有了 死的好，死都要害人活着有害！ 有点吓人哦， 糖尿病之类的疾病患者摔伤后伤口无法愈合，加上患者心理脆弱看见怎么一直不好就自杀了。 摔伤怎么会治不好呢？ 死之前找个陪葬咦就是你了哎呀....没 过路女子有种劫后余生的感觉吧... 跟贴被火星网友带走啦~ 路人吓哭 那看你摔的怎样了，轻的当然可以治好，重的留下残疾很有可能，你看这次再跳楼能治好？ 无钱医治，一走了之 人家又没算你，那点物价在糠里根本不叫事，人家的钞票论吨算，七大姑八大姨早就糠了。 不对啊那你这条为什么没被删呢这条可比那些负能量多多了怎么没有被删掉呢？？？？？ 你是弱智？你这样的观点，就是你预设的，然后说成民主人士的。你个低等狗，不知道为自己的利益争取权利，反而助纣为虐，讽刺别人。你说你有多蠢。 穷人看不起病，就别进医院，会穷三代的。在里面和富人一对比，还容易造成心理失衡。<br>像我们村的人，得了大病，我看绝大部分是躺在床上等死的。认命吧，社会等级低，就只能这样子了。 凌空一跳，你解脱了，家人断魂，仇人窃喜，人世繁华，过眼云烟，哎哎哎！ 医院这回要赔钱了啊！ 感觉往下掉的时候就已经不像是大活人了的举个手 抵抗力的问题，别说旧社会没那么多病痛，因为体质弱的早已经倒下了。而现在抗生素的滥用导致病难治了。其实别说农村人，一般城里的小康家庭得了大病一样没戏，你看香港多少千万身家的明星一样五六十死了。现在医学还没发达到能医百病的地步，认命吧。 主要是环境问题比较多。你去医院儿科看看不管是白天还是晚上都是小孩咳嗦的！支气管炎转肺炎的大把的是！我家小孩每次去都花个三四百。关键是还治不好。。。两个多月就一直跑医院。。那桌子上的药都成堆的放。。医生也没办法就是熬。 又要告医院不管好，安全措施不到位。也要告市政做水泥路太硬，干吗不用充气垫做路面。 过路女子有种劫后余生的感觉吧... 如果在熬几年据说大伙都进入了小.糠了。 摔伤都求治无果？ 自杀不能找个僻静地？ 唉！人性啊...... 这女的命大啊，，砸身上说不定又多了一条人命啊。。 自杀还想害别的人你不知道害羞嘛？ 要死也死远点啊，这种人真的就是个累赘。跳下去还有可能拖累2家人。 快了，赶紧移民 什么情况啊？ 求路人的心理阴影面积 哪有什么繁华 移民印度完完全全够用了民主人士不是经常高喊印度是仅次于美国的民主国家吗第一去不上去第二的印度啊 穷啊 求路人心理阴影面积 不要侮辱thelastofus原创音乐 所以我每次走在楼底下就抬头看看。 吓得行人手机都掉落了 这社会怎么了？ 开讹 很正常 惨剧 抑郁了 中国人的死法越来越国际化 大家都在谴责自杀，却忽略了死者生前摔伤了但多次求治无果！求治无果啊…… 浑身每个细胞面积的总和 必须会，这个医院肯定该背锅了 跳楼自杀的要大喊一下，别伤了无辜，毁人家一个家啊！走前积点德吧 差点儿垫背了 穿红衣跳楼这是主动成为厉鬼的节奏啊 让人痛不欲生的病痛，高额的医疗费，一了百了，死了比活着更舒坦，愿天堂没有屠刀。 她会噩梦吧 幸好走得慢 你知道上了年纪的人摔伤了很容易伤到神经吗？一旦伤了有很大的几率瘫 院方有些紧张，会不会被起诉窗户没有安装防护拉杆，对死亡负有连带责任；院方有没有张贴警示标志呀，对死亡有没有起到告知义务？ 新闻联播播放完毕，再见 没办入院的病人😖😖😖 世事无常[可怜] 路过的女人比死了更惨。。。。。 🙃🙃🙃🙃🙃🙃🙃 我都被吓一跳，别说那个路人了 排除案件可能性？那啥因？<br>真省事 求心里阴影面积。。。 脚碰到路人了路人估计要吓死 死哪讹哪！不信你们看 估计是癌症等绝症吧！摔伤怎么可能求治无果，现在记者也是瞎掰的多。 嘴积德吧，搞不好怕拖累儿女，就算砸到是赔钱又讹不到钱 凌空一跳，你解脱了，家人断魂，仇人窃喜，人世繁华，过眼云烟，哎哎哎！ 死你就好好死，别祸害人啊 以前卫生差，低着头走路，怕踩到什么，现在卫生好了，得仰着头走路了[疲惫] 过路女子有种劫后余生的感觉吧... 现在空中杀手越来越多 摔伤都求治无果？ 乐观点猜测，也可能其家人也解脱了。 砸不死你算你命大。 又能讹钱了，以后大家学聪明点 自杀还想害别的人你不知道害羞嘛？ 这路人要吓撂了 过路的女人命大！ 这社会怎么了？ 求路人的心里阴影面积 你敢进医院吗？随便做几个检查化验就两三千块钱进去了，普通老百姓承担得起吗？ 还有余温，趁热…… 把这样的监控视频放出来真的合法合规吗？ 可怜了 心里阴影巨大 干嘛在医院跳？ 会不会被讹 求过路女子的心理阴影面积，不带这么吓人的 发的 那人吓得不轻吧！ 连自杀都这么没公德心。。 过路女子有种劫后余生的感觉吧... 压力大，养老金还没得领呢 摔伤都求治无果？ 都是苦命人，早点投胎转世吧 真勇敢，男的都不敢跳 把这样的监控视频放出来真的合法合规吗？ 新闻看多了，想给家人留点遗产 据了解，坠楼女子50多岁，事发前数月曾经摔伤，多方求治未果 大红衣服好吓人 从她反应看，挺淡定的。才蹦了两下。 没被砸死也被吓个半死咯，又是穿的红衣服！！！！！！ 怕是会患上“应激障碍” 新闻看多了，感觉能活着真幸运 现在空中杀手越来越多 求楼下那个人的心理阴影面积 要珍惜生命呀 哎呀我的妈呀！谁在乱扔东西了？ 求路过那名女子的心里阴影。 接下来要禁止造高楼不 没拉到垫背的。 易燃者 gffg 怎么回事啊 像是假人摔下，落地后一动也不动 精神压力dai多大！一篇简单的报道还当成危险事故 没被砸死也被吓个半死咯，又是穿的红衣服！ 这是一个信号吗？怎么最近各种坠楼？ 求路过那名女子的心里阴影。 不幸 应该是玻璃心，医生不看的原因也许是过几天就能好。 上帝啊，你怎么才能拯救百姓呢？ 走路女子受得惊吓谁来赔偿？ ",
        "Total": 8580
    },
    "Article": "（原标题：宜宾一女子在医院坠楼身亡，差点砸中行人）#endText.video-infoa{text-decoration:none;color:#000;}#endText.video-infoa:hover{color:#d34747;}#endText.video-listli{overflow:hidden;float:left;list-style:none;width:132px;height:118px;position:relative;margin:8px3px0px0px;}#entText.video-lista,#endText.video-lista:visited{text-decoration:none;color:#fff;}#endText.video-list.overlay{text-align:left;padding:0px6px;background-color:#313131;font-size:12px;width:120px;position:absolute;bottom:0px;left:0px;height:26px;line-height:26px;overflow:hidden;color:#fff;}#endText.video-list.on{border-bottom:8pxsolid#c4282b;}#endText.video-list.play{width:20px;height:20px;background:url(http://img1.cache.netease.com/video/img14/zhuzhan/play.png);position:absolute;right:12px;top:62px;opacity:0.7;color:#fff;filter:alpha(opacity=70);_background:none;_filter:progid:DXImageTransform.Microsoft.AlphaImageLoader(src=\"http://img1.cache.netease.com/video/img14/zhuzhan/play.png\");}#endText.video-lista:hover.play{opacity:1;filter:alpha(opacity=100);_filter:progid:DXImageTransform.Microsoft.AlphaImageLoader(src=\"http://img1.cache.netease.com/video/img14/zhuzhan/play.png\");}if(/(iPhone|iPad|iPod|Android|NETEASEBOBO|blackberry|bbd+)/ig.test(navigator.userAgent)||/safari|chrome|firefox/i.test(navigator.userAgent)&&navigator.plugins&&!navigator.plugins[\"ShockwaveFlash\"]){varstr1='<videocontrols=\"controls\"preload=\"auto\"width=\"100%\"poster=\"http://vimg3.ws.126.net/image/snapshot/2017/12/1/H/VD5N6BQ1H.jpg\"style=\"max-height:100%\">';varstr2='<sourcetype=\"video/mp4\"src=\"http://flv.bn.netease.com/videolib3/1712/27/EOaZD3683/SD/EOaZD3683-mobile.mp4\">您的浏览器暂时无法播放此视频.</video>';document.getElementById(\"FPlayer1404863609673\").parentNode.innerHTML=str1+str2;}四川女子在医院坠楼身亡差点砸中行人（来源：网友）window.NTES&&function(d){varf=function(c){varb=c.getAttribute(\"flashvars\"),a=c.getAttribute(\"repovideourl\").replace(\".flv\",\"-mobile.mp4\");h=d(c.parentNode.parentNode.parentNode),g='<embedsrc=\"http://v.163.com/swf/video/NetEaseFlvPlayerV3.swf\"flashvars=\"'+b+'\"allowfullscreen=\"true\"allowscriptaccess=\"always\"quality=\"high\"wmode=\"opaque\"width=\"100%\"height=\"100%\"type=\"application/x-shockwave-flash\"/>';if(/(iPhone|iPad|iPod|Android|NETEASEBOBO|blackberry|bbd+)/ig.test(navigator.userAgent)){g='<videocontrols=\"controls\"preload=\"auto\"width=\"100%\"height=\"100%\"><sourcetype=\"video/mp4\"src=\"'+a+'\">您的浏览器暂时无法播放此视频.</video>';}h.$(\".video\")[0].innerHTML=g;},e=function(b){vara=d(b.parentNode.parentNode.parentNode);a.$(\"li\").removeCss(\"on\"),b.addCss(\"on\"),a.$(\".video-title\")[0].innerHTML=\"string\"==typeofb.textContent?b.textContent:b.innerText,a.$(\".video-title\")[0].setAttribute(\"href\",b.getAttribute(\"url\")),a.$(\".video-from\")[0].innerHTML=\"（来源：\"+b.getAttribute(\"source\")+\"）\",f(b);};window.continuePlay=function(){vara,b=d(d(\".video-list.on\")[0].nextSibling);3==b.nodeType&&(b=d(b.nextSibling));if(b&&d(\".video-innerinput\")[0].checked){e(b);}},function(){vara={init:function(){if(d(\".video-listli\")[0]){d(d(\".video-listli\")[0]).addCss(\"on\"),this.eventBind();}},eventBind:function(){d(\".video-listli\").addEvent(\"click\",function(b){e(d(this)),b.preventDefault();});}};a.init();}();}(NTES);12月26日早上，一名女子从南溪区中医医院楼上坠落，不幸当场死亡。警方调查后排除了案件可能性，死者落地瞬间被监控视频记录下来。26日上午开始，一段时长为25秒的监控视频在微信群转发，视频记录了一个人突然从高空坠落的瞬间，落地瞬间差点砸中路过的一名女子。目击者称，坠楼的是一名女子，经医务人员检查，确认其当场死亡。有目击者告诉成都商报客户端记者，事情发生在26日早上8点多，事发现场位于南溪区中医医院。由于事发突然，没有人看到坠楼者从哪个楼层坠落。事发后，当地警方介入调查，排除了案件的可能性。成都商报客户端记者从南溪区中医医院了解到，死者曾于今年8月左右在南溪中医医院住过院。事发前，医院没有发现异常情况，坠楼者也不是该医院的在院病人。据了解，坠楼女子50多岁，事发前数月曾经摔伤，多方求治未果。目前，坠楼者遗体已被送往殡仪馆，其家属已从外地赶回料理后事。本文来源：成都商报作者：罗敏责任编辑：李天奕_NN7528",
    "PublishTime": "12/27/201705:32:03",
    "URL": "http://news.163.com/17/1227/05/D6L071FT0001875P.html",
    "Title": "女子在医院坠亡差点砸中行人 落地瞬间被监控拍到_网易新闻",
    "KeyWords": "四川,医院,监控",
    "Source": "Netease"
}