{
    "Title": "悲剧!新年第一天江苏一辆载10人面包车落水7人遇难_网易新闻",
    "PublishTime": "01/01/201813:15:58",
    "URL": "http://news.163.com/18/0101/13/D72MO2N40001875P.html",
    "Source": "Netease",
    "KeyWords": "面包车,江苏,启东市,启东市公安局",
    "Comment": {
        "Reply": 363,
        "Content": "咋不提提如何自救呢？？卧槽 平安是福 你这是个笑活但现实中我真遇到过有次去医院正好来辆120安徽拉来的现在120多小啊而且超员是要按人头加钱的护士问病人呢一个一个一个下来9个.....加最后下来的抱着个小孩在这在这发烧我眼睛都看直了十人！ 新的一年希望大家健健康康，万事如意 管管农村赶集的吧经常坐十几人 跟你一机会重新组织下语言🔫 不知道都别瞎说事发港口没有护栏而且清晨起雾外地人不熟悉路况真的很有可能直行开到海里去 车祸百分之九十九是因为超速疲劳驾驶引起的！ 以前上小学坐的接送车，小面包车能装20多个，我坐了6年 我能装25人！ 3楼，说说看，7人座怎么才能装40人？ 快过年了，祝大家平平安安，万事如意，财源广进。 大众帕萨特还装过11人 哎，不希望有这样的新闻发生 十一个充气娃娃吧 新的一年希望大家健康 二楼的家人全归西了我刚从他小区路过但二楼这傻逼还在乐呢。 刚才发两个大笑表情，不分场合，罪过 07年，公司去崇明岛玩，经理开走一部车有事情，我们12个人挤在一部东南福利卡里，男男女女很是开心 面包车10人？ 以前学生那会。。。我们旅游为了省钱。。。坐过一次面包车12人的。。。每人20块钱。。。除司机一共220。。。 新年第一天祝大家平安 sb，通报都挂了七个了，还咋滴？知道新短大啥意思不？那是隐瞒不发！ 唉～新年第一天～希望大家都健康平安 面包车能不开就不开，能别坐就别坐，那底盘，大一点的风都能吹翻。 愿逝者安息吧！！ 新的一年了，希望大家健健康康，平平安安。其他的能有最好，没有也不必强求。 可怜的家人！这个年怎么过呀！ 都是雾霾惹的祸，地下文物都是国家的，雾霾这么大，造成如此惨烈的事故，能否向国家索赔？七条人命啊！ 在新的一年，祝大家节日快乐身体健康。万事如意，工作顺利。 惋惜！ 挤怀孕几个？ 今天三阳镇刚刚发生的特大交通事故：阳南村驾驶员施健开小面的装了10个汉兴村村民（小面的只能坐连驾驶员6个人，超载80%，），去吕四港帮出海捕鱼归来的渔船捡小鱼，就是鱼大小分开，结果因迷雾天气把车开进海里，当场死亡6个，其余抢救送医院后又死一人，驾驶员经抢救后生还。 大学的时候几个班坐同学的7座你面包车旅行，91个人愣是全塞进去了。副驾驶都挤了9个，主驾驶挤了7个，司机一只手开车，一只脚踩油门刹车。。。。。 你家里的顶梁柱死了，就要独自生存。 超载超速 没有 迎着新年第一天的阳光，这么多家庭从此破碎，惋惜 还是那句话，不要去惹面包车，你永远不知道会下来几个人…… 面包车....除市内道路稍微收敛少许别的地区有老实的吗 离年越来越近了，愿大家出行平安🙏️🙏️🙏️ 由于火车到站早上四点半，正规客车七点才有车，所以聊城火车站坐过7座面包塞14个人的，超员还超速，拉不够人不走，后来转到五点半了还在车站附近绕圈子，果断下车去了客运站 新短大 跑毒吧？ 面包车就是作死，超载的面包车害人害己。 2个没生命危险的，是从车上甩出来的吧 又是面包车10人 是两个男的，死的全是女的，妇女 贾乃亮老婆李小璐与PGone偷情啪啪完整版不需要费用看：（三65aj点cn）把三和点改成3. 回想一下以前也做过不少现在都提示危险的事，能活着真是命大 一声叹息 就没其它因素？比如道路情况，天气等原因？你不要一下就判定了原因只能显得你不懂装懂就像一个跳梁小丑！！ 跟你一机会重新组织下语言🔫 醉驾呢？ 车祸百分之九十九是因为超速疲劳驾驶引起的！ 我能装25人！ 我只相信自己的驾驶技术。 一路走好，南无阿弥陀佛 是不是超载了，面包车能坐十个人么？我是真不懂，别喷！ 贾乃亮老婆李小璐与PGone偷情啪啪完整版不需要费用看：（三65aj点cn）把三和点改成3. 真是不错 R.I.P 新的一年希望大家健康 2个没生命危险的，是从车上甩出来的吧 小心第一啊 面包车10人？ 以前学生那会。。。我们旅游为了省钱。。。坐过一次面包车12人的。。。每人20块钱。。。除司机一共220。。。 黄蓉向在事故中遇难的沙地同胞们表示哀悼。i 今天元旦，都放假了，自什么首，信不信我告你恐吓，威胁罪？ 难道想来个开门红噶 超速超载，不安全的起点 面包车能不开就不开，能别坐就别坐，那底盘，大一点的风都能吹翻。 [喷水][喷水][狗] 祭天 以前不懂事普桑拉了11个人，现在想想后怕 要是发生在美国，这新闻各大媒体活动播放一个星期，还带着跟踪报道，分析原因，提出解决办法呢🤔 （多做好事，必有好报）美攻朝中收台战略对冲平衡（加快发展繁重工作替代性智能机器，不用延迟退休）公司上市后业绩异常下降，依法赔偿遏制骗钱（当务之急大小限减持和再融资要挂钩分红或回购，违则重罚，促进长期良好经营，缓解套现压力）尽快开征股指期货的印花税，才能降低杠杆及高频风险，限制其乱影响股市（基金只有盈利才收管理费，真正为投资者服务）连续2天涨跌停就限仓交易，共同受益，利国利民！ 老是看到发一楼这种贴的，可靠吗 都是雾霾惹的祸，地下文物都是国家的，雾霾这么大，造成如此惨烈的事故，能否向国家索赔？七条人命啊！ 曾经在新疆亲自载过十七人，连我十八个，老款长安， 以前上大学我们几个班坐同学面包车去旅行，3个班91个人硬是都挤进去了，塞的满满的，其中副驾驶挤了9个人，主驾驶挤了7个人。。 和超载没多少关系 明天就上班💼了，明天你去自首[狗][狗] 新的一年了，希望大家健健康康，平平安安。其他的能有最好，没有也不必强求。 今天三阳镇刚刚发生的特大交通事故：阳南村驾驶员施健开小面的装了10个汉兴村村民（小面的只能坐连驾驶员6个人，超载80%，），去吕四港帮出海捕鱼归来的渔船捡小鱼，就是鱼大小分开，结果因迷雾天气把车开进海里，当场死亡6个，其余抢救送医院后又死一人，驾驶员经抢救后生还。 新的一年，大家都平安健康 醉驾？ 我最大的梦想就是能有一辆自己的面包车 安全第一 有个垃圾蛋自我感觉是很好的，其实就快灰灰了。 贾乃亮老婆李小璐与PGone偷情啪啪完整版不需要费用看：（三65aj点cn）把三和点改成3. 注意安全 没有 都是去挑小鱼的，死的都是三阳镇阳南村人[狗][狗] 贾乃亮老婆李小璐与PGone偷情啪啪完整版不需要费用看：（三65aj点cn）把三和点改成3. 这里是大雾 老家的。新年伊始，平安是福。 那年冬天高二，晚上，还在下雪，为了去同学家吃刨锅汤（杀猪饭），十几个人挤一个面包车。想想也是活到现在真不容易。 贾乃亮老婆李小璐与PGone偷情啪啪完整版不需要费用看：（三65aj点cn）把三和点改成3. 荷载7人超员违法！ 对！希望身体健康！平平安安😊 开局良好，继续保持 我看见过迷你库珀装25人[被黑][被黑][被黑] 车主估计会破产1命100万自己算破产咯！！！！！！！ 看来只有面包车才能匹配阿三 超载是肯定的了，一般核载人数7-8人 车主估计会破产1命100万自己算破产咯！！！！！！！ 路不熟大雾还开那么快？ 不知道都别瞎说事发港口没有护栏而且清晨起雾外地人不熟悉路况真的很有可能直行开到海里去 悲哀啊，新的一年开始总会有人……。奉告广大群众在旅行中要注意安全。 新闻好短 坐过驾校去考试的面包，面包是学员的,司机也是考试的学员，一车10人，每人给了80那学员.过收费站(县级的）有一个冲卡没给钱.10年的事. 安全第一。出了事，什么车都歇菜。内地有些地方，还有大把的三轮车载客的呢 [羞羞] 买保险多重要啊。谁能知道自己怎么走啊。 富士康北门的艺剪坊（清湖形象店）<br>坑爹五步曲————————————坑爹的理发店<br>第一步，装热情——刚一走到门口，几个人围着你上来，那叫一个热情啊。只要你说了一句“洗剪吹”，全部人都散了……（钱少啊）<br>第二步，套关系——那个理发师（我们暂且叫他SB）会主动问你是哪里的人，但不管你说自己是哪里的人，SB都会说“哦，老乡啊”，然后会编出一个跟你同省的城市（最有可能的就是省府），让你放松警惕，开始下手宰你……<br>第三步，故意下套，让你钻——洗完头发，他会问你：“你头发有点弯，要不要梳直？”刚洗完头发，这么乱，当然要梳直啦。你中了，不是中奖，而是中了他的套套。里面的人马上又“热情”起来，两三个人会迫不及待的拿药水给你涂上，这就是钱啊……<br>第四步，“教导”你——等你发现后，店长（暂且就叫GRD吧）说这是你无知，不懂理发店的潜规则（靠，听起来怎么像圈圈里面的事），然后还教师口气的对你说，这次他“好心”告诉你，下次你就不会上当了（来他那里就是买教训的？），FUCK，强盗还讲起理来了！！！<br>第五，威逼胁迫——几个人“围着”你，然后绞尽脑汁给你“想办法、出主意”，押厂牌啊，押手机啊，“陪”你去取钱啊，真感觉自己处在Hongkong电影里<br>同仁们，希望大家记住富士康北门这个店——艺剪坊（清湖形象店）。现在我们被无数的无良商家残害，毒害、欺诈，我们这些“上帝”再也伤不起了，我们不能严惩他们，但至少可以抵制他们。 安息吧！ 看新闻好像死9个一个在抢救！！！祝大家平安 2018，阎王打仗拉壮丁了？ 注意安全 公路边一定不要有水沟水坑这样案例出现多少还不吸取教训 我能装25人！ 07年，公司去崇明岛玩，经理开走一部车有事情，我们12个人挤在一部东南福利卡里，男男女女很是开心 面包车10人？ 以前学生那会。。。我们旅游为了省钱。。。坐过一次面包车12人的。。。每人20块钱。。。除司机一共220。。。 我的交警车能把楼上的吹牛逼的货全部塞进去还不犯法！你服不服 sb，通报都挂了七个了，还咋滴？知道新短大啥意思不？那是隐瞒不发！ 新的一年开始了 愿逝者安息吧！！ 这个年是过不踏实了。 以前上小学坐的接送车，小面包车能装20多个，我坐了6年 要是那种江淮瑞风商务车，可以坐十人，五菱之光准乘七人 楼上的杂技表演要赶上阿三了。 何不食肉糜的提问。。。这种新闻难道已经少到让人们开始遗忘了么？ 越短的新闻事故就越大，哎。希望新的一年都平平安安 荒野行动中该型面包车可以坐20人 大雾不熟路最爱出事 高高兴兴出门，新年第一天在江苏至7人遇难。深表遗憾。望出门的人注意安全。驾驶人员要有高度责任心。 好好，在医院养着。 希望人没事。 看过交警查车，拦下来的七人座装了41个的视频 老板不是已经关门道歉了吗？ 我坐过驾校送考的面包，7座硬是座了13人，还每人40车费 南京才抓到一个，6人的小面包装了20个人，还有一堆工具 司机位置可以坐三个人见过没我们那赶集都这样 面包车……移动的棺材 像一楼说的这样，已经是敲诈勒索了，不能以一个关门道歉来了结了，应该是法院审理，够判刑的了。 迎着新年第一天的阳光，这么多家庭从此破碎，惋惜 管管农村赶集的吧经常坐十几人 生命可贵，大家在天气不好的时候要慢点开。面包车比三轮车要安全多了。 由于火车到站早上四点半，正规客车七点才有车，所以聊城火车站坐过7座面包塞14个人的，超员还超速，拉不够人不走，后来转到五点半了还在车站附近绕圈子，果断下车去了客运站 新短大 最怕开面包车的，当成跑车开 面包车就是作死，超载的面包车害人害己。 悲！惨！ 唉，。。 宇宙的探索是离不开我的话的，只有把围绕地球公转的一切物质包括气体计算在地球体积之内才能找到地球真正的边和角，那是反引力汇聚地，是真正的真空隧道，宇宙高速路，太阳系内的动脉!把围绕太阳公转的一切物质包括气体计算在太阳体积之内才能找到恒星与恒星的边和角，那是恒星与恒星之间的真空高速隧道，找到真空隧道以近光速超光速飞行那不是个事!宇宙飞行器也不能按照飞机的二维结构原理制造，飞机是不能高速自转的，但只有高速自转才能产生真空电磁场，以近光速飞行，未来的宇宙飞行器必须按地球原理制造，八层以上结构，你看地球高速自转着前进，我们人坐在地球上有啥不适感觉吗？ 平安是福 [被黑][被黑][被黑] 新年第一天就心情不好，或者惹别人生气的都觉得这一年都要倒霉… 走亲访友没错，超载太不应该了！害人害已 新的一年希望大家健健康康，万事如意 跟你一机会重新组织下语言🔫 新年的第一天，翻开要闻，战争，偷情，凶杀，诈骗，事故。我还是看新闻联播吧。 主要是车上没有喷字，喷了字就不会出事 出行需多注意安全 2018年截止目前其他省零死亡江苏省8例死亡 这七个人的家人，伟大的新时代的第一个春节要以泪洗面了，应该去海采这些不幸逝去的人的家人，他们2018年的心愿是什么? 超载！！！没别的！！ 五菱神🚗 哎，不希望有这样的新闻发生 离年越来越近了，愿大家出行平安🙏️🙏️🙏️ 时风，20人轻轻松松。 奇怪，我们以前读初中，三轮车两排每边四个，中间空的地方还蹲两个，现在想想都觉得自己流弊 我能装25人！ 新短大 面包车10人？ 新年第一天祝大家平安 我的阿尔法大面包装过23人。 逝者安息。 雾太大了吧 小心为上。 乐极生悲 是霾好伐 都是雾霾惹的祸，地下文物都是国家的，雾霾这么大，造成如此惨烈的事故，能否向国家索赔？七条人命啊！ 哈哈！ 熬过了2017，没躲过2018 大家都平安过年逝者安息 40人吹牛逼，那是金杯。金杯的确能。。。 雾的究极进化 在新的一年，祝大家节日快乐身体健康。万事如意，工作顺利。 惋惜！ 不喜欢用新年这个字眼，真正的春节年味被冲淡了 这个什么字？[疑问] 你啥意思？我们老长粗吱声了么？ 逝者已去生者如斯 你可以的 起亚K2，八个成年男人 我的笨笨笨蹦蹦蹦蹦蹦蹦蹦蹦。 少了 我两个蛋能装几亿人 哎， 这两天江苏雾很大！ 怎么坐这么多人……逝者安息 你永远不会知道一辆面包车上会下来多少人。 新年第一天就出现这种事故很惨烈。 揪心 恭喜 超载。司机为赚钱黑了心，乘客图便宜不要命，都是活该，死不足惜。虽然这话说的很难听，但相比起7条人命的惨剧，再难听的话也显得微不足道。 跨年夜喝大了！ 前面两个跳车了 你这是个笑活但现实中我真遇到过有次去医院正好来辆120安徽拉来的现在120多小啊而且超员是要按人头加钱的护士问病人呢一个一个一个下来9个.....加最后下来的抱着个小孩在这在这发烧我眼睛都看直了十人！ 仔细想想，今天和昨天有什么区别？无非一个人为的规定。一个计算周期。没必要多开心，也没必要多不开心。 难道不是罚款后继续上路吗？ 元旦献礼，总是给网易喷子惊奇！ 自古二楼，积点口德吧。二楼 新的一年祝大家都平安健康快乐的！ 阿弥陀佛 二楼说的什么话 坑爹啊 你妈的去死吧！一天不骂人你的全家都要死吗？你这个杂种怎么这么会骂人呀？ 。。。 然而查超载，交警会被骂想钱想疯了 你家里的顶梁柱死了，就要独自生存。 不是每次超载超速都会有事故，<br>但每次事故之后，后悔都来不及。<br>安全第一，平安一生。 少啦 新的一年希望大家健康 二楼的家人全归西了我刚从他小区路过但二楼这傻逼还在乐呢。 要独自生存，才不受制于人。 你会被骂的 头发有一股处女味道？ oh，yeah 面包车10人？ 新年的第一天一个大礼物！！！[被黑][被黑][被黑] 你家里的顶梁柱死了，全家就收敛了。 阿弥陀佛 你的家人和朋友亲戚都全部归西了！你还在乐吗？畜生！ 超载的三人没事，准载的七人去世？ 我的眼不行，灯火之下坐在车里能把一滩水认为是超级公路。 新的一年，希望大家平平安安！ 车上一共10人死亡7人2人无生命特征1人在抢救 可怜的家人！这个年怎么过呀！ 面包车塞20多人也不稀奇，我就坐过。现在打死我也不坐了 这元旦节过的，祝大家安好！ 面包车不止是城市的毒瘤，农村也是 悲剧。 应该是醉驾了 是不是又严重超载还开出了投胎的速度？ 是不是准备回家吃团圆饭？ 他女儿 在水边的小路开车最好把窗户打开，万一不小心落水了可以第一时间逃出来 跟贴被火星网友带走啦~ 平安无事 还是那句话，不要去惹面包车，你永远不知道会下来几个人…… 你的家人也都要全部死光就好！ 面包车....除市内道路稍微收敛少许别的地区有老实的吗 车速与交通事故成正比……！切记切记！安全第一！ 严重超载 拼黑车的应该 群死群伤。孤独的人，笑而不语。 2个没生命危险的，是从车上甩出来的吧 平安过一生是多么不易！ 11座的金杯也叫面包，，，，，但文中这个绝逼是五菱那种小面包，为什呢要治理超载，，这种小面包限制载客六人、七人，，如果正常载客的话就能少死几个，少几个家庭痛苦了 你这货，都那样了，还拿地域吐槽，你我不想过完18年了吧 上初中那会大休回家，为省钱，做的摩托三轮，带棚子那种，硬塞了9个人[骷髅][骷髅]我腿上还做了个妹子。。。 我十年以前广州面包车坐别人大腿上到佛山[大笑][大笑] 后驱车果然劲大！ 这…新年第一天…这这这 咋不小心一点呢，安全第一啊 这次不是女司机～不是油门当刹车吧 超载，车险没得赔了，阿弥陀佛 我是抱了个在我腿上。。。 平安健康是福 我开面包车上海市区八万公里未被扣一分。 以前学生那会。。。我们旅游为了省钱。。。坐过一次面包车12人的。。。每人20块钱。。。除司机一共220。。。 淫才 阎王路上没老少，死者为大，祝各位易友新的一年远离危险，1切平安吧 [被黑] 阿弥陀佛 安全锤没有，可以把头枕金属拉出来砸开玻璃脱险。 乡下人，走亲戚去了…… 跑毒吧？ 车辆掉入水中应该怎么脱险？求科普 唉，注意安全啊，大新年的 安息 刚才发两个大笑表情，不分场合，罪过 面包车10人？ 以前学生那会。。。我们旅游为了省钱。。。坐过一次面包车12人的。。。每人20块钱。。。除司机一共220。。。 初一十五不上路。 过年了，大家注意安全！ --- 面包车？又是五菱吧 有可能是酒驾加超员 五菱宏光？？ 以前学生那会。。。我们旅游为了省钱。。。坐过一次面包车12人的。。。每人20块钱。。。除司机一共220。。。 五菱宏光没有不可能，几年前看过装10多个 面包车十个人？[喷水][喷水][喷水] 估计是做工的…… 车辆经过撞击掉入水中后电动门窗肯定失效了！车门一般也都打不开了！这时候手动车床有很大的走势！迅速摇下车床玻璃沉稳有序的从小孩然后老年人优先出逃！ 开这种车的10个里有6个无安全意识。 开车注意 有钱没钱平安第一 好，我国人多不怕死 这两位命大福大造化大，检到一条命进入18年！ 怎么都坐不满的五菱神车 易友们祝你们在新的一年里多多发财，远离邪恶，一生平安 初中时一辆自行车还装五六个人呢！ 珍惜生命，新年平安 新的一年大家安全健康第一，挣钱为辅，祝大家狗年快乐 那边很多汽油弹面包车 有你这样的山西老乡真脸红 阿弥陀佛 好吧，面包车所占比例不大 江苏人的驾驶证是假的吧？ 命是自己的 面包车就是啊 ",
        "Total": 3347,
        "Link": "http://comment.news.163.com/news_shehui7_bbs/D72MO2N40001875P.html"
    },
    "Article": "（原标题：江苏启东一面包车落水致7人死亡）新华社南京1月1日电（记者朱旭东）记者1日中午从江苏省启东市政府获悉，启东当日发生一起载人面包车落水致7人死亡事故。1日6时24分，启东市公安局接报警称，一辆面包车坠入启东市大洋港水域。接报后，启东市迅速组织力量全力搜救。目前，失事车已被打捞上岸，车内共载有10人，其中2人无生命危险，1人正在医院抢救，另有7人死亡。事故原因正在调查中。本文来源：新华社责任编辑：黄家第_NNB6466"
}