{
    "Article": "网易体育1月3日报道：英超第22轮的一场比赛中，主场作战的升班马布莱顿与伯恩茅斯2-2握手言和，克诺凯尔和穆雷先后两次帮助布莱顿取得领先，但史蒂夫-库克和威尔逊的两个进球让客队两次扳平比分。威尔逊在第79分钟打入的这粒进球，堪称足球史上过程最复杂、最意外、最不可思议的进球之一。比赛刚刚开场5分钟时，布莱顿左侧传中，克诺凯尔后点垫射得手，主队1-0领先。33分钟，伯恩茅斯中卫库克接右侧角球头球吊射扳平比分，1-1。易边再战，布莱顿前场直塞打穿伯恩茅斯防线，穆雷接到伊兹基尔多的横穿轻松打空门得手，2-1。比赛的真正高潮在第79分钟时到来，伯恩茅斯左侧开出角球，禁区内双方19名球员发生了大混战。布莱顿防守球员挣到了第一落点，伯恩茅斯前锋威尔逊胸部停球后直接倒勾打门再次被封堵，外围丹尼尔斯再次尝试射门，皮球打在布莱顿队长邓克身上高高弹起，荷兰国脚普罗珀得到第二点后试图大脚破坏，却踢在客队边卫亚当-史密斯身上再次弹向球门，封在球路上的布莱顿中卫达菲不得不原地摆腿尝试解围，但他的非常规动作并没能将球踢远，皮球第二次弹在亚当-史密斯身上之后，又飞向了布莱顿队的大门。埋伏在人小禁区附近的威尔逊这次没有浪费机会，他伸出的的左脚仅仅是勉强够到球，但足以改变皮球运行轨迹，打了布莱顿门神瑞恩一个措手不及，球缓缓的滚入球网，伯恩茅斯利用这个奇迹般的进球扳平了比分。英超22轮战罢，布莱顿积23分位列联赛第12位，伯恩茅斯则以21分位居15名。在曼城一骑绝尘的情况下，英超下半区的球队竞争显得更加激烈，从第10名到降级区仅有5分的差距。本文来源：网易体育作者：托宝责任编辑：马鑫_NS4811",
    "URL": "http://sports.163.com/18/0103/09/D77DTHU700058781.html",
    "KeyWords": "英超,乒乓球,搞笑",
    "PublishTime": "01/03/201809:17:52",
    "Title": "史上最长前戏进球！19人各种姿势大混战，最后一射猝不及防_网易体育",
    "Comment": {
        "Content": "为啥看起来各种业余，逗得很 英糙联赛，英炒球员。球队各种绝杀，球员各种一战成名。足球界里的娱乐圈，赌徒们的伊甸园 英糙联赛、中钞联赛 让我回忆起了初中时候班与班之间的友谊赛！ 没人关心一下躺着的大哥么？应当还能抢救一下吧[晕] 守门员：MMP 最后停球没停稳，停进了。停射！ 这标题。。。不涉黄？？？ 真tm菜鸡互啄… 有种看甲A的感觉 小学生放假了。。。 菜鸡互啄 跟初中生踢球似的，一顿乱抡 我们班就是这么踢的 以前初中提着提着抱起来就跑，那才好玩啊 名不虚传的英糙 菜鸡互啄 以前初中时，一个标准足球场挤满人踢一个球，是什么概念 像小区里踢野球 球往哪飞人就往哪挤。。。 好熟悉的场面 我中学时间，班级之间，30个人就是这么踢球的 这怎么解说 你真牛逼！ 运气是足球重要的一部分 天下足球播过一次最复杂进球，比这个强多了，94赛季左右诺维奇跟谢联，俩队也是角球禁区内互相踢，比这个牛的是还有三门柱和一个横梁，俩队20人打上橄榄了 托儿所的小朋友就是这种踢法 像我这边地区联赛 因为不是正规的 不要侮辱甲A 大家好，我是解说员王涛，这里正在为您转播的是英超联赛<br>现在伯恩茅斯左侧开出角球，防守球员挣到了第一落点，球弹了出去！有球员倒在地上，裁判示意比赛继续！威尔倒勾打门，球被挡了回来！丹尼尔斯再次尝试射门！皮球打在防守队员身上高高弹起，罗珀抢到皮球大脚破坏，没解围出去！打在进攻球员身上弹向球门，达菲解围，奥！没踢正，皮球又弹向球门。威尔逊停球，奥不！是打门！球进了！！他似停似射的一脚改写了比分！天呐！这个进球简直堪称史上最长前戏啊！这样的场面真是难以置信啊！连我儿子上的小学联赛都不会有这样的混乱场面啊！哈哈哈哈，这居然是第一联赛英超啊！ 看标题<br>有种看A片的感觉 禁区内一片混战…… 这也值得说，我们校队这种球天天见，因为水平菜啊！ 而且根本不分队，就是各自抢球 那是XJBT 英超英糙嘛，要不为啥瓜迪奥拉一整技术流，别人都不爱跟他玩了。 完美诠释了菜鸡互啄，这就是世界第一联赛？ 简单点说，门前站着5-6个门将，大家通过不同的球来区分，守门。 。。。 一群小学生的踢球的直视感，太激烈了 有种初中生瞎几把踢看球不看人的即视感！ 标题满分 跟贴被火星网友带走啦~ 努力一下，也许运气就会眷顾你 感觉好业余… 小学联赛的感觉。 一共触球16次 真tm菜鸡互啄… 初中的时候几十号人一起踢球就是这种赶脚~~~笑疯了已经 吊打日韩不敢说，至少吊打现在这些货。 三楼牛人！别的不说这么多人都记得住 让我回忆起了初中时候班与班之间的友谊赛！ 守门员：MMP 这文章应该是借风月版的编者写的 有个哥们一直躺地上没起来……球都进了，还在那撅着呢！哈哈哈哈哈 现在叫中超 有种看甲A的感觉 t.哻cn/RHlCRuf（国内国外都有，删掉“哻”字 ……… 为啥看起来各种业余，逗得很 别说，当年甲A大部分球都是这样进的。 像荷兰的全攻全守足球。 以前初中提着提着抱起来就跑，那才好玩啊 西假和意假也有很多这样的 守门员彻底懵逼了 名不虚传的英糙 那时候根本没有什么位置，就狼群，那有球往哪跑 英糙联赛，英炒球员。球队各种绝杀，球员各种一战成名。足球界里的娱乐圈，赌徒们的伊甸园 像小学时候大家乱踢乱抢一样[微笑] 以前初中时，一个标准足球场挤满人踢一个球，是什么概念 当年足球之夜都是这种集锦啊。 吊打现在中日韩，前提是里皮带队 t.鑐cn/RHlCRuf（国内国外都有，删掉“鑐”字 我中学时间，班级之间，30个人就是这么踢球的 这怎么解说 实况足球的解说 看标题<br>有种看A片的感觉 守门员：MMP 这就是足球！😄 英糙联赛、中钞联赛 天下足球播过一次最复杂进球，比这个强多了，94赛季左右诺维奇跟谢联，俩队也是角球禁区内互相踢，比这个牛的是还有三门柱和一个横梁，俩队20人打上橄榄了 我就蹭蹭不进去 照样完爆国足 被闷了两脚的亚当史密斯才是这个球的功臣 因为不是正规的 世界第一联赛也就这样而已 小时候跟小朋友在院里踢球就这么踢 不要侮辱甲A 难看 t.鬜cn/RHlCEb1（国内国外都有，删掉“鬜”字 禁区内一片混战…… 这也值得说，我们校队这种球天天见，因为水平菜啊！ 后两句涉黄 老球迷果然一针见血 糙哥互怼菜鸡互啄 疯狂足球 就佩服小编，还能把这乱哄哄的一幕用文字给描述出来…… 停球没停好，结果进了。[晕] 简单点说，门前站着5-6个门将，大家通过不同的球来区分，守门。 就是，要什么战术，要什么站位，光傻等着，球就永远到不了自己脚下 甲A也没这样吧，大学里的校联赛到时看过 英超英糙嘛，要不为啥瓜迪奥拉一整技术流，别人都不爱跟他玩了。 小编是标题党，这标题容易让人产生误解，哈哈哈 原来还看过一段类似的视频，那球禁区内也是一片乱战，狂打了N次门（具体记不住了），结果还没进球，这也出现在英超中，讲真，英超的足球更强调力量，爆发力，对纯粹的技术重视不够，英超一直就是英糙，没啥改变 这标题66666 我也这样停进过球 让我回忆起了初中时候班与班之间的友谊赛！ 这球进的太有喜感 从角球开始算第一次触球，经过14次碰撞后进入球门。 球到脚下的时候，感觉大腿不听使唤，不知道怎么才能射门，是不是，哈哈 最后停球没停稳，停进了。停射！ 这标题。。。不涉黄？？？ 小学生放假了。。。 有种看甲A的感觉 我记得历史上还有一个联连续抽射被各种挡出来的未进球 这就是英超啊？我记得还有一张GIF，貌似是曼城和哪队，看着更业余 这就是当年我们中小学生普遍流行的XJB踢法？ 第一联赛，英超！ 猴子抢绣球！ 冲你的名字顶你一下 菜鸡互啄 垃圾英超 乱战，看那个有狗屎运。 厉害 没有时间摆腿，没有空间摆腿，传球来不及，带球不敢带，只能凭着本能往球门里或者外面胡踢一脚，这就造就了混战 太帅了 小编的文字解说看的我都累，能把人看准了也是不容易 看此标题和易友评论是人生一大乐事。 小编，这个标题我已经举报涉黄了，你看着办 哈哈这乱七八糟的球员直接愣了 2018年第一个爆笑足球题材诞生[窃笑][大笑] 足球变成橄榄球和冰球 我踢野球有时候也会这样，感觉怎么踢球都出不了禁区 威尔逊：这球我咋进的？ 有点像我小时候踢球一窝疯的去抢一个球 教练：眼睛都闭上使劲抡腿 所以这种极端情况下职业球员和小学生是一样的😄 看标题就在想，如果是发生在5大联赛的话，那基本应该是英糙联赛 真乱，这是英超的水平么？ 可以入选天下足球之《疯狂的足球》 。。。 哈哈菜鸡互啄[喷水][喷水][喷水] 躺在地上的弟弟亮了 有种初中生瞎几把踢看球不看人的即视感！ 菜鸡互啄 完美诠释了菜鸡互啄，这就是世界第一联赛？ 标题满分 有点 对的 运气来了挡也挡不住 。。。那个后卫停球那下其实挺出色的，只是解围方向没选好 挤成一团失误连连,这球值得大书特书? 我们班就是这么踢的 我能说这标题很污吗 有种野球的即视感！ 运气是足球重要的一部分 混战 标题我服！！！！这才是网易 托儿所的小朋友就是这种踢法 网易标题。。。。。。。。。。。。 仿佛在看当年的菲利普大超联赛 没人注意到边上一直躺着的哥们吗，哈哈哈 跟初中生踢球似的，一顿乱抡 昨天日本国脚打战300小学生小学生就这么踢的 有种看甲A的感觉 前戏太长，差点不射～ 真·菜鸡互啄 运气是所有事物的一部分 这才是xjbt。。。 Asdasd 最后一脚明显不是射门，停球停大了。 尼玛，球呢？球在哪？哦，进了 这有啥，小学时我就有这球技了！ 笑尿了！哈哈哈哈 让我想到了当年上学的时候………… 有种初中时班级队xjbt的感觉，谁能进球全靠运气[喷水] 球:哪里是出口？ 门将会不会哭死？ 进攻方后场队员已经都插到禁区了，如果被打反击后果很严重，所以必须得抢，抢出界也得抢。防守方更不必说，碰到球就得往外踢。 我是谁？球在哪？我该往哪踢？ 踢的啥啊还没我们校队厉害 解说累死在79分钟 😂 停大了[狗] 一群小学生的踢球的直视感，太激烈了 守门员:MMP 哎呀停大了 这个乱的 野球乱踢，弹人数次进网。。。简直就是当年小学既视感。 确实全靠蒙 1-0和2-1的时候各追了客队500，成功收米。 蓝色有个队员躺在草地上装逼 看乐了 xjbt最高境界 这年头都是段子手 这标题看硬了。。。 这评论个这标题在一起，太有含义了 没人关心一下躺着的大哥么？应当还能抢救一下吧[晕] 这是啥水平啊 解围不力，射门不精的结果。。。 大力出奇迹 看的笑死了。[大笑][大笑][大笑] 这就是业务比赛中的混战[惊讶][喷水][狗] 努力一下，也许运气就会眷顾你 有种看甲A的感觉 😅 菜鸡互啄 蹴鞠 菜鸟互啄 胡说，明明是中超[窃笑] 高中时熟悉的味道 这只球表示很无辜，谁TMD都能踢一下 像小区里踢野球 刘国梁？？？？ 好熟悉的场面 哎，球呢？ 感觉和我小学踢足球时一样，只要能碰到球就要蒙一脚 菜鸡互啄 门将：麻痹1:20，让我什么防 感觉回到了高中时期 停了个球，进了，我很意外。 射门乱来，接球失误，解围业余，判断失误……尼玛原来这是英超啊！ 校队比赛！ 英超菜鸡互啄 笑死我了 很tm中超 这禁区真挤得慌 混乱中最容易出错 这是英糙？？？？ 接球没接好进了 这评论个这标题在一起，太有含义了 高中时也进过这样的球 菜鸡互啄 像我这边地区联赛 有种看苍老师和坏老头们的即视感 心痛守门员。。。已经懵了。。 ",
        "Link": "http://comment.sports.163.com/sports2_bbs/D77DTHU700058781.html",
        "Total": 5084,
        "Reply": 195
    },
    "Source": "Netease"
}