{
    "Source": "Netease",
    "Title": "湖南取消任命年龄造假90后县团委副书记 多人受处_网易新闻",
    "Comment": {
        "Link": "http://comment.news.163.com/news2_bbs/D6JOEUMA0001899N.html",
        "Content": "坐下坐下，常规操作！没必要大惊小怪。 钱白花了 湖南这个地方反腐不深入！现在还敢明目张胆告假，说明官员腐败何等猖獗！这不仅仅是一个县的风气，从上到下风气没有改变。仅仅处理基层几个人是没有用的，必须从更高层换血！ 明眼人一看就知道怎么回事了，县委书记和组织部长查下去绝对有问题 眼神不好，看不清字 钱白花了 湖南这个地方反腐不深入！现在还敢明目张胆告假，说明官员腐败何等猖獗！这不仅仅是一个县的风气，从上到下风气没有改变。仅仅处理基层几个人是没有用的，必须从更高层换血！ 坐下坐下，常规操作！没必要大惊小怪。 明眼人一看就知道怎么回事了，县委书记和组织部长查下去绝对有问题 眼神不好，看不清字 敢抢皇孙的位置～ 坐下坐下，常规操作！没必要大惊小怪。 ",
        "Reply": 7,
        "Total": 81
    },
    "URL": "http://news.163.com/17/1226/17/D6JOEUMA0001899N.html",
    "PublishTime": "12/26/201717:57:19",
    "Article": "（原标题：湖南取消任命年龄造假90后县团委副书记多人受处）“任前公示后取消任命”的情况又出现了！昨天下午，湖南永州市委组织部公布了一则信息：责成东安县委取消周建明拟任东安县人民法院副院长和宋雨翼拟任共青团东安县委副书记、党组成员的决定。质疑：干部任前公示被指带病提拔、火箭提拔12月10日，东安县委组织部发布的一份“干部简历公示”通告引发广泛质疑。网民质疑主要集中在两名拟提拔干部身上。一名是1992年出生、拟由乡镇科员提拔为共青团东安县委副书记、党组成员的宋雨翼。东安官方称其为1992年4月出生，2012年大学毕业后考取湖南省委组织部选调生，分配在东安县白牙市镇工作，其年龄受到网民质疑。（注：按照正常学制推算，宋雨翼最早要2014年才能毕业并参加工作。）另一名是拟由县法院助理审判员提拔为县法院副院长的周建明。一方面，由助理审判员直接提升为副院长遭质疑。另一方面，2015年4月东安县法院办公室主任唐庆元违规操办女儿婚宴，周建明因为赠送礼金受过处分，网民质疑其涉嫌“带病提拔”。反转：县委组织部否认有问题，市委组织部复查11日，东安县委组织部发布回应，认为经过核查，东安县委严格执行了《党政领导干部选拔任用工作条例》，两人均符合任职条件。不过，此回应仍受到广泛质疑。随后，永州市委组织部启动了调查复核程序。永州市委组织部25日回应称——经查，东安县委在周建明、宋雨翼的选拔任用过程中，未严格执行干部选拔任用工作程序，未按照干部双重管理的规定征求协管方意见。宋雨翼早期学籍材料有两个出生年月，根据干部档案有关政策进行核实，其出生年月应为1991年4月。针对上述问题，永州市委组织部作出如下处理：责成东安县委取消周建明拟任东安县人民法院副院长和宋雨翼拟任共青团东安县委副书记、党组成员的决定。同时，对东安县委书记冯德校进行批评教育；对东安县委常委、县委组织部部长彭俊卿给予诫勉；责成东安县委对其他相关责任人进行问责。就宋雨翼年龄问题，移交有关部门继续调查处理。本文来源：新华社责任编辑：张海桐_NN9053",
    "KeyWords": "县委,永州市委,火箭提拔"
}