{
    "URL": "http://news.163.com/17/1228/10/D6O3BC550001899N.html",
    "Article": "（原标题：维卡币特大网络传销案二审宣判）本报株洲讯12月27日,记者了解到，株洲中院近日对段某等35人组织、领导传销活动一案二审公开开庭宣判。据悉，这是一起涉及全国多省市的网络传销案件，涉案金额16亿余元。据介绍，维卡币传销组织系境外向中国境内推广虚拟货币的组织，传销网站及营销模式由保加利亚人鲁某组织建立，服务器设在丹麦的哥本哈根境内，对外宣称是继“比特币”之后的第二代加密电子货币。这一组织声称维卡币升值空间大，诱骗他人投入巨额资金到其设立的网站，并设立门槛，会员注册后不能退会、退款。该案被告人发展下线会员从中非法获利1万余元至2000万元不等。法院二审审理认为，上诉人段某、李某等10人及原审被告人宋某等25人，扰乱社会经济秩序，其行为均已构成组织、领导传销活动罪。在组织、领导传销活动的共同犯罪中，上诉人及原审被告人等35人均起次要作用，系从犯，依法可以从轻或减轻处罚。据此，二审法院依照相关法律规定及各上诉人在犯罪过程中所起的作用，准许上诉人丁某撤回上诉，驳回上诉人张某、刘某的上诉，依法维持对宋某、杨某等26人的定罪量刑部分，依法维持对易某、李某等5人的定罪部分，依法撤销易某、李某等5人的量刑部分，判处上诉人段某等7人有期徒刑4年至10个月不等，并处罚金人民币150万元至5万元不等，并同时判令对扣押在案的赃款赃物予以追缴、上缴国库。本文来源：潇湘晨报作者：周凌如责任编辑：黄哲程_B9302",
    "Source": "Netease",
    "PublishTime": "12/28/201710:24:34",
    "KeyWords": "二审,传销案,维卡币",
    "Comment": {
        "Content": "[窃笑][窃笑][窃笑]不做最后一个，你们不是打2交所的耳光吗。 真尼玛会玩 骗十几亿，判4年到10个月不等，犯罪成本这么低，难怪满世界的骗子 人民的贪欲是无穷的 换一批人罢了 你泄露了国家机密，小心抄水表的和送快递的 诱骗？到底赚了没，看看现在比特币的价格吧 因为无产阶级无产化。 顶你上500 你以为没干过？ 受害人还想要回来？想多了 人贪心是没错，贪心还弱智怪谁？ 贪心无罪，诈骗有罪。因贪心受骗，情有可原，但上当受骗总得花钱买教训。至于骗子，交给警察吧，他们又可以捞一笔。 年底开始杀猪 金额不到一定数量不能入邢。量小了，几天又放出来。 传销害人，国家狠狠打击，绝不姑息 大清迟早要完蛋， 三观问题。我觉得存在，人贪心没有错；骗人才有错！ 主要是牵涉境外，资金外流。在国内搞没人理你。 是的，赞一个。我搞不明白为什么不还给受害人，而是上缴国库 这样的骗局怎么能少的了湖南的傻逼啊，套路太喽了。 维卡币是非法传销。 一楼哥们赶紧收拾细软跑吧[惊讶][惊讶] 什么时候查比特币啊 传销为什么这么多年都屡禁不绝 不参加传销可以不？不参加有谁罚你钱？ 不可怜这些人，只怪自己当时贪心、贪高额回报。<br><br>别跟我说什么被骗、什么不懂。。。。。<br><br>废话！活该！ 8样说对，这些人无非就想不劳动，通过高额回报，一朝暴富！<br>其实世上本来没有骗子，贪心的人多了，自然就会有骗子！ 哈哈哈，小伙天真啊，传销是骗子和骗子的较量 大家都懂 养肥了好收网 一楼牛逼，现在还有个叫中资盛世的，从上海辗转到珠海现在到贵阳，其中，在湖南永州发展很猛，估计再过年把可以收网了，现在很多人在里面出不来了 他们也是为了钱 就不应该禁，挡住了好多人倾家荡产，有的教训就是要用倾家荡产才能得到。要是放开，现在就都明白了 别代表人民可以不？ 人民渴望不劳而获，人民渴望一朝暴富 MFC传销什么时候就地正法 社会实业不挣钱社会风气浮躁好吃懒做想发财的人太多！ 对扣押在案的赃款赃物予以追缴、上缴国库[窃笑][窃笑][窃笑][窃笑][窃笑] 从有人开始就有好人和坏人，选择做坏人的理由绝不可能是因为别人的欲望导致的；只能是自己的欲望引起的！望你有个正确的三观，不要是非不分！ 传销案件一般不存在受害人一说。 不管，你说他不作为，管吧，你说他从中渔利，民心难测，难啊 国家放长线钓大鱼，早就知道有人搞网络传销就是不管，任其壮大，壮大之后再拿下，然后就涉案资金收归国库，真好啊，这捞钱的办法还真是绝，其实我觉得根本没必要那么麻烦，直接派军队挨家挨户抄家就完了的事。 话不可乱说，你们老大在监狱里 养肥了，杀 就刚刚在拥挤的公交车上，一小伙子给一老人让座。老人不肯，说，现在年轻人上班不容易。小伙子一笑，我马上下车了。边说边往后门走。结果十几站过去了，他还站在这里。对于这样的欺骗行为，我只想祝福他一生平安。 还会有。 让传销大佬一统江湖，省得这些弱智们无事生非，也是一件好事了。 骗十几亿，判4年到10个月不等，犯罪成本这么低，难怪满世界的骗子 人民的贪欲是无穷的 换一批人罢了 你泄露了国家机密，小心抄水表的和送快递的 就刚刚在拥挤的公交车上，一小伙子给一老人让座。老人不肯，说，现在年轻人上班不容易。小伙子一笑，我马上下车了。边说边往后门走。结果十几站过去了，他还站在这里。对于这样的欺骗行为，我只想祝福他一生平安。 [窃笑][窃笑] 不可怜这些人，只怪自己当时贪心、贪高额回报。<br><br>别跟我说什么被骗、什么不懂。。。。。<br><br>废话！活该！ 好！ 你这种情形一般是15天并处罚金～ 受害人还想要回来？想多了 人贪心是没错，贪心还弱智怪谁？ 不养熟了就摘果可能么？<br><br>老总有想法了就直接下手出锅了 他们也是为了钱 年底开始杀猪 金额不到一定数量不能入邢。量小了，几天又放出来。 这个作者犯了几个最基本的常识错误。真正的数字货币是去中心化的~不受制于某一机构、国家政府。维卡币的运营总部在迪拜。会员注册成功是投入的资金已进入迪拜，怎么会在迪拜被收缴！？创始人鲁雅是法学和金融双博士，欧洲杰出女企业家，知名度相当于中国的马云。那几十个人是打着维卡币的旗号干的非维卡币的勾当罢，感谢警方为维卡币清理门户！明年十月八日维卡币和它的商城及外汇平台将同时上市~让时间来见证！ 传销害人，国家狠狠打击，绝不姑息 大清迟早要完蛋， 主要是牵涉境外，资金外流。在国内搞没人理你。 是的，赞一个。我搞不明白为什么不还给受害人，而是上缴国库 这样的骗局怎么能少的了湖南的傻逼啊，套路太喽了。 都是给领导挣得——养肥了再杀 服。 什么时候查比特币啊 传销为什么这么多年都屡禁不绝 你说吧，管还是不管 雪崩时没有一片雪花是无辜的 不好意思。打扰一下了大姐，你知道维卡币吗？ 不参加传销可以不？不参加有谁罚你钱？ 把中老年的钱收回国库 顶你上500 8样说对，这些人无非就想不劳动，通过高额回报，一朝暴富！<br>其实世上本来没有骗子，贪心的人多了，自然就会有骗子！ 早干嘛去了 你是真敢说[狗] 当时有个大姐还向我推荐，说各种好，带亲戚各种加入，我还加了他们的群。看着群信息感觉好像靠谱，但是见到有些人说提不出钱我就知道有问题了。骂了几句我退群了，还好没投啊[大笑] 养肥了好收网 他们也是为了钱 别代表人民可以不？ 人民渴望不劳而获，人民渴望一朝暴富 他们也是为了钱 我们工厂有个搞蒂克币传销的，买了辆凯迪拉克骗了不少煞笔 从有人开始就有好人和坏人，选择做坏人的理由绝不可能是因为别人的欲望导致的；只能是自己的欲望引起的！望你有个正确的三观，不要是非不分！ 对扣押在案的赃款赃物予以追缴、上缴国库[窃笑][窃笑][窃笑][窃笑][窃笑] 这其实是国家征收智商税：与其终究是要給骗纸，还不如我国家收了 你知道的太多了 [窃笑][窃笑][窃笑]不做最后一个，你们不是打2交所的耳光吗。 传销案件一般不存在受害人一说。 有人举报警察就抓还会有吗？？ 不管，你说他不作为，管吧，你说他从中渔利，民心难测，难啊 庞氏骗局越来越多 那钱返还不？ 国家放长线钓大鱼，早就知道有人搞网络传销就是不管，任其壮大，壮大之后再拿下，然后就涉案资金收归国库，真好啊，这捞钱的办法还真是绝，其实我觉得根本没必要那么麻烦，直接派军队挨家挨户抄家就完了的事。 话不可乱说，你们老大在监狱里 你以为没干过？ 真是害人不浅啊。 MFC传销什么时候就地正法 挽尊 现在骗子这么容易就能得手啦？？<br>唉！怎一个贪字了得！！！ 社会实业不挣钱社会风气浮躁好吃懒做想发财的人太多！ 人民的贪欲是无穷的 真尼玛会玩 诱骗？到底赚了没，看看现在比特币的价格吧 维卡币是非法传销。 你这个太粗鲁了 荣升长老[大笑][大笑] 大家都懂 发帖注意分寸，当心被查水表。 养肥了，杀 因为无产阶级无产化。 传销为什么这么多年都屡禁不绝 想赚钱想疯的太多了，当然存在社会因素，（现实） 国家放长线钓大鱼，早就知道有人搞网络传销就是不管，任其壮大，壮大之后再拿下，然后就涉案资金收归国库，真好啊，这捞钱的办法还真是绝，其实我觉得根本没必要那么麻烦，直接派军队挨家挨户抄家就完了的事。 怎么不改名叫傻特币呢 就不应该禁，挡住了好多人倾家荡产，有的教训就是要用倾家荡产才能得到。要是放开，现在就都明白了 ",
        "Total": 1149,
        "Link": "http://comment.news.163.com/news2_bbs/D6O3BC550001899N.html",
        "Reply": 87
    },
    "Title": "湖南维卡币特大网络传销案二审宣判 涉案金额16亿_网易新闻"
}