{
    "Source": "Netease",
    "KeyWords": "前总统,藤森,秘鲁,弹劾",
    "Title": "秘鲁前总统获特赦 曾因贪腐与违反人权被判25年_网易新闻",
    "PublishTime": "12/25/201709:42:54",
    "URL": "http://news.163.com/17/1225/09/D6G9OU060001875O.html",
    "Article": "（原标题：快讯：秘鲁前总统藤森获特赦）当地时间24号晚，秘鲁总统库琴斯基批准了对前总统阿尔贝托·藤森人道主义特赦的申请，称考虑到其健康情况已有严重的生命危险。23号晚，在狱中服刑的藤森因血压严重下降且心律异常，已转往地方医院治疗。今年79岁的藤森1990年当选秘鲁总统，曾两次成功连任，2000年11月，因国内政治危机藤森出走日本寻求政治庇护，并辞去总统职务。2005年11月，他在智利被捕，并于2007年9月被引渡回秘鲁。在2007年至2009年，藤森四次获判有罪，依据秘鲁刑法，罪犯的刑期根据最重的一次判刑执行，因此，藤森因贪腐与违反人权判刑25年。阿尔贝托·藤森是目前秘鲁最大反对党人民力量党领导人藤森庆子的父亲。藤森庆子曾在2016年秘鲁总统大选中，以0.24%差距败选给现总统库琴斯基，但在国会选举中赢得大多数席位，这也为库琴斯基执政带来了许多挑战。库琴斯基特赦前总统藤森，被视为向反对党派释放善意。就在上周四21号，秘鲁国会因库琴斯基涉嫌巴西最大建筑商奥德布莱切特贪腐案，发起了对总统的弹劾投票，但反对党人民力量党另一位领导人，藤森庆子的弟弟藤森健治，因希望政府特赦其父亲，与藤森庆子产生严重分歧，导致反对党人民力量党有十人投出了弃权票，最终79票赞成，未达到弹劾所需的87票，库琴斯基免于被弹劾。本文来源：央视作者：宋晓明责任编辑：邵小波_NN2479",
    "Comment": {
        "Content": "倭寇在哪里都是祸国殃民 大清敢向十八国宣战~它反对一个老头算什么…… 这个大胡子圣诞老人没有德国的那个吃得开 听说这人是日本移民？也是厉害啊 倒车，请注意，那个背包戴帽子的老头，再不让路就撞死你 一个日本人能在秘鲁当总统，秘鲁真够包容的，我们连一个🎅老人都怕的要死。 倭寇在哪里都是祸国殃民 挽尊 这个大胡子圣诞老人没有德国的那个吃得开 藤森当年自投罗网 倒车，请注意，那个背包戴帽子的老头，再不让路就撞死你 听说这人是日本移民？也是厉害啊 藤森，海外日本人在政界的知名人物。姐姐在政治上更狠，想弹劾掉总统后，己方势力取而代之，然后呢？估计老爹继续坐监狱，但是相当于高干病房。弟弟呢，没有得到他爹真传，只想快速救他爹，结果害得姐姐主导的弹劾案通不过，总统呢，乘机分裂姐弟，顺势赦免蹲监狱的前总统。 秘鲁，日本人的半壁以上的江山，日本人出头了，秘鲁可以考虑改名字叫秘日。 大清敢向十八国宣战~它反对一个老头算什么…… 听说这人是日本移民？也是厉害啊 一个日本人能在秘鲁当总统，秘鲁真够包容的，我们连一个🎅老人都怕的要死。 ",
        "Reply": 11,
        "Link": "http://comment.news.163.com/news_guoji2_bbs/D6G9OU060001875O.html",
        "Total": 98
    }
}