{
    "Title": "沙特王子花天价赎身 沙特\"反腐大戏\"唱的哪一出？_网易新闻",
    "URL": "http://news.163.com/17/1225/21/D6HJ2I870001899N.html",
    "Source": "Netease",
    "Comment": {
        "Total": 402,
        "Reply": 26,
        "Content": "清宫剧 吃了我的给我吐出来 反腐大戏也是你能说的？ 这个方法有。简单粗暴效果好 [微笑]和珅跌倒嘉庆吃饱，嘉庆吃饱，嘉庆吃饱。。。。不是老百姓吃饱 不同国度，同样精彩。 能用钱买命？！？！？！ 沙特反腐很创新，老虎只要吐点食就可归山了。哈哈哈 议罪银？ 金钱在正文木又面前就是粪土！ 跟贴被火星网友带走啦~ 跟贴被火星网友带走啦~ 没学到精髓，哪能这么直白呢 政写错了 在抄家面前，赎身太低级了。 缴了可以用就不要想了。。^_^ 这个可以学，官商不正当收入全部缴了免罪，用于教育医疗住房养老 萨勒曼自己得坐黄金电梯。还舔着脸说别人腐败。 无厘头的畸形国家你是没法理解的 吃了我的给我吐出来 不同国度，同样精彩。 反腐大戏也是你能说的？ 议罪银？ 金钱在正文木又面前就是粪土！ 必分裂沙特美狗吃猪肉。 能用钱买命？！？！？！ 但沙特反腐明显是缴钱准备科技创新产业转型，不想坐吃油空了 [微笑]和珅跌倒嘉庆吃饱，嘉庆吃饱，嘉庆吃饱。。。。不是老百姓吃饱 这个方法有。简单粗暴效果好 政写错了 这个可以学，官商不正当收入全部缴了免罪，用于教育医疗住房养老 清宫剧 嘿嘿！和珅跌倒，嘉庆吃饱！<br>嘿嘿！和珅跌倒，嘉庆吃饱！<br>嘿嘿！和珅跌倒，嘉庆吃饱！<br>嘿嘿！和珅跌倒，嘉庆吃饱！<br>嘿嘿！和珅跌倒，嘉庆吃饱！<br>嘿嘿！和珅跌倒，嘉庆吃饱！<br>嘿嘿！和珅跌倒，嘉庆吃饱！<br>嘿嘿！和珅跌倒，嘉庆吃饱！<br>嘿嘿！和珅跌倒，嘉庆吃饱！<br>嘿嘿！和珅跌倒，嘉庆吃饱！<br>嘿嘿！和珅跌倒，嘉庆吃饱！<br>嘿嘿！和珅跌倒，嘉庆吃饱！ 养肥了就宰 国和家不分，现在国需要钱，从有些家里拿回来一部分而已 赎身？？？… 沙特反腐很创新，老虎只要吐点食就可归山了。哈哈哈 沙特国王特别喜欢看清宫戏，并且对议罪银制度运用自如啊 酎金夺爵进而削藩 没学到精髓，哪能这么直白呢 在抄家面前，赎身太低级了。 缴了可以用就不要想了。。^_^ 萨勒曼自己得坐黄金电梯。还舔着脸说别人腐败。 便宜他们了 ",
        "Link": "http://comment.news.163.com/news2_bbs/D6HJ2I870001899N.html"
    },
    "Article": "（原标题：100000000000美元！花钱赎身，沙特阿拉伯“反腐大戏”唱的哪一出？）随着年关的到来，沙特阿拉伯的“反腐大戏”，又有新进展。据《华尔街日报》12月24日报道，沙特政府近日已释放了至少24名在反腐风暴中被捕的高级嫌疑人。随着当局加快调查进程，越来越多人正同意与政府达成和解，上缴资产以换取自由。11月10日，“海运仓内参”曾在《迷雾重重！200多人被拘禁，涉案金额达1000亿美元…》一文中，详细关注过这场席卷沙特阿拉伯王国上下的反腐风波。在此，我们不妨先回顾一下这场风波的既往发展。当11月4日，“反腐风暴”倏然爆发之时，全世界都被这个石油大国的突然举措震惊了。当天，就在“胡塞”武装组织的导弹掠过沙特首都利雅得上空的紧张局势下，沙特国王萨勒曼突然进行了一连串闪电般的人事动作，他先是解除了米塔布·本·阿卜杜拉王子的国民警卫队队长职务，并任命了两位新部长。之后，国王宣布成立以王储穆罕默德·本·萨勒曼为主席的最高反腐委员会。11月4日当晚，有11名王子、4名大臣和11名前大臣因涉嫌贪腐被捕，其中包括有“沙特首富”之称的瓦利德王子、前财政大臣易卜拉欣·阿萨夫，以及经济和计划大臣、沙特航空公司前总裁、沙特电信公司前总裁和利雅得省前省长等人。之后的短短几天里，有数百人被逮捕、拘禁或调查。仅在一周之内，反腐委员会没收的财产就高达30000亿沙特里亚尔（约8000亿美元），与这个数字相比，沙特阿拉伯2017年的年度财政收入仅为6920亿里亚尔，足见这轮反腐力度之大。然而，这些被抓的王公贵族、贪官污吏、企业大亨们，却并不需要太为自己的自由而担心，在如何对待这些腐败嫌疑人的问题上，萨勒曼国王和他的反腐委员会“自有一套”。这套颇具“创意”的做法，就是允许这些贪腐嫌疑人“交钱赎身”，即通过上缴部分资产的方式，换取自己的自由。英国《金融时报》11月报道，沙特当局正与因涉嫌腐败被羁押的王子和商人谈判和解，向在押人员提出“交钱换自由”的交易。两名听取了简报的人士称，在某些情况下，沙特政府寻求收缴嫌疑人多达70%的财富，以求向枯竭的国库输送数千亿美元。11月初，那些王子、大臣、企业家们被捕之后，并没有被立刻投入冰冷的监狱，而是暂时被安置在了沙特首都的丽思卡尔顿酒店之中。这家五星级酒店的宣传语是“您想要享受国王般的待遇吗？”，而这些贪腐嫌疑人，则得到了一种独特的“国王待遇”。在酒店中，他们的基本生活需求都得到了良好的满足，但个人自由则被严格限制。反腐委员会的成员和检查机构，力图在酒店里与这些被扣押的嫌疑人达成交易，让他们以金钱为代价换取自由，以免遭真正的牢狱之灾。他们得到的承诺是：只要交出足够的钱，就不必经受司法审判。在这样的“交易条件”面前，不少贪腐嫌疑人都选择了“花钱赎身”。12月初，被扣押了一个月的前任国民警卫队总指挥官米塔布首先用这种方式换回了自由，为此，他支付了10亿美元的巨款。此后，诸多在押人员纷纷“依样画葫芦”，其中不乏被控罪行相当严重者。据知情人士称，过去一周被释放的嫌疑人包括沙特前财政大臣、国有石油巨头沙特阿美董事会成员易卜拉欣-阿萨夫。他被控在麦加大清真寺扩建工程中涉嫌贪污，并利用自己的职位和内部消息从土地交易中获益等。其他获释人员包括前助理财政大臣，沙特电信公司前首席执行官，王子哈立德·本·法尔汉等。而最为引人注目的嫌犯，沙特阿拉伯前首富，有“中东股神”之称的沙特王子瓦立德想要重获自由则没有这么容易。他同样被允许用金钱赎买自由，但是，沙特阿拉伯政府为他开出的账单金额高达60亿美元。因此，他暂时还没能走出酒店。据悉，他正与当局商讨，考虑把市值近90亿美元的沙特阿拉伯王国控股公司其所持有的股份放出，用来支付保释金。据《纽约时报》报道，沙特阿拉伯有关人士透露，目前有将近95%的嫌疑人都有意用赎金换取自由，在与政府磋商条件，而坚持要在法庭上自证清白的嫌疑人，只占了5%左右。沙特阿拉伯这种做法究竟是利大于弊，还是弊大于利？一时半会恐怕谁也说不清。从正面的角度来看，这种做法可以充实国库，并节省司法成本。但是，也有人认为，这种做法让腐败分子太轻易地逃过了法律的制裁，只会助长腐败分子的嚣张气焰，损害这次反腐风暴的效果，使政府无法从根本上祛除腐败风气对沙特政坛的影响。不过，我们虽然无法预测沙特阿拉伯局势的下一步走势，中国历史上倒是发生过类似的事，可供我们参考。清朝的乾隆年间，在皇帝心腹、史上有名的大贪官和珅的建议下，朝廷设立了一种名为“议罪银”的罚金。这种罚金，允许有罪的臣子通过向皇帝交钱的方式减轻惩罚，逃避罪责。这项制度出台之后，大受贪官污吏的欢迎，不少贪官都通过将一部分民脂民膏上缴朝廷而逃避了惩罚。虽然也有一些直臣对这项制度进行了批评，但是，由于乾隆皇帝需要用这笔钱供给自己巡游江南，这项政策一直未被废止。最终，这项制度逐渐成了贪官污吏的护身符，而朝廷由于依赖这项收入，也深陷其中无法自拔，最终加剧了清王朝的衰落。以史为鉴，可以知兴替。对沙特阿拉伯的局势变化，“海运仓内参”也将继续关注。本文来源：海运仓内参责任编辑：李杭_BJS4645",
    "PublishTime": "12/25/201721:44:42",
    "KeyWords": "沙特,王子,反腐"
}