{
    "Article": "网易体育12月29日报道：曼城和曼联这两家同城死敌本赛季已经多次在场外擦出火花。根据英媒体《曼彻斯特晚报》的消息，曼城球迷在昨日的比赛中集体高歌讽刺曼联的低迷，这让红魔球迷很是尴尬。另外，《太阳报》还透露瓜帅已经对没事就受伤的孔帕尼失去耐心。曼市双雄历来看彼此不对眼。本赛季首次曼市德比中，曼城在客场击败曼联。赛后，曼城在客队更衣室疯狂庆祝，引起穆帅不满，随后双方发生冲突。紧接着，曼城球员在击败热刺后高唱：“曼联摆大巴，曼联摆大巴。”另外，曼城官推还曾嘲讽费莱尼不能算一个球员。出色的战绩让曼城球迷兴奋不已，而他们最开心的事情就是趁机怼一怼曼联球迷和穆里尼奥。昨日，曼城1-0击败纽卡斯尔，豪取18连胜，继续刷新英超的连胜纪录。比赛中，曼城球迷再一次对曼联进行了一番嘲讽。“正视差距吧，正视差距吧，曼联。正视差距吧，正视差距吧，我说，正视差距吧，正视差距吧，曼联。分差越来越大，你们的每一天都很X蛋。”曼城球迷在看台上一起高歌这样的歌词。曼城球迷看不起曼联的大巴战术，他们享受蓝月亮眼下的美丽足球。连战连捷的战绩让瓜迪奥拉很开心，但他也有烦心的事情。昨日比赛中，球队队长孔帕尼再次受伤，他在比赛仅开始11分钟后就被换下。值得一提的是，孔帕尼在前一场比赛中刚刚复出，没想到才踢了2场就又倒下了。这也是孔帕尼本赛季第3次受伤，更是他曼城生涯的第39次受伤。如今的孔帕尼宛如一个药罐子，吃饭、睡觉、养伤是他的主要节奏。《太阳报》称瓜帅已经对他失去信心，有可能将其出售。有记者问孔帕尼的伤势，瓜帅一脸生无可恋：“我也不知道啊。很不辛，他又受伤了，最近三年都是如此。再等等看吧，我要看看他这次要休息多久。”本文来源：网易体育作者：风过乡责任编辑：马鑫_NS4811",
    "URL": "http://sports.163.com/17/1229/08/D6QE674000058781.html",
    "Source": "Netease",
    "KeyWords": "曼城,曼联,瓜帅,红魔",
    "Comment": {
        "Reply": 416,
        "Link": "http://comment.sports.163.com/sports2_bbs/D6QE674000058781.html",
        "Total": 4617,
        "Content": "你说了算？你哪根葱？欧冠被踢了手抖的废物 十年巴萨？呵呵 最讨厌的两种狗：曼狗+穆养犬 说了，弗格森爵士说：吵闹的邻居！[狗][狗][狗]咋了咋了 仅次于皇马，你再列一个西甲球队比巴萨荣誉多的。不知道“仅次于”是什么意思？你这个不读书的文盲蠢货。 现在大巴可要外挂装甲了！可惜挂了装甲的还是大巴 不准你们庆祝！ 总会衰落的，客观规律。<br>强如苏联也不过活到69 最讨厌的两支球队：表妹+巴傻 如果瓜秃子继续这样，不说年年拿冠军。待上个20年，一样可以做曼城的弗爵爷 曼联眼里看的是全世界，曼城眼里只有曼联，哈哈 其实曼联就缺个好教练，阵容毕竟还是一流的 为什么德比后两队关系这么紧张你心里没点B数？你们的当家球星博格巴、主教练是怎么谈论曼城的？ 新曼城球迷脱下伪装吧，我看到你的尾“巴”了，哈哈😄 曼联被曼城压制了好几年了为啥今年口水仗打起来鸟粪心里没点逼数？<br>还不是因为穆鸟那张贱嘴 还他妈全世界呢！真会装B！你家爷爷迪斯蒂法诺，还是抢人家巴萨的，而且还是利用政治手段！真🐔巴恶心的一个法西斯俱乐部！那人家嘉泰独立，你皇家亲爹赶紧同意吧！别死皮赖脸的！ 实在受不鸟摆大巴的球队，再烂也要对攻啊，否则踢什么球 三十年河东三十年河西没毛病<br>正视差距吧你们弱爆了 曼联眼里没有全世界，只有巴士，哈哈 你破连胜拿的不也是一个联赛冠军？难道给你两个？ 乡里逼滚出武汉，武汉没你这种废物 败人品吧继续，谁还不吃顿饺子，可以理解 还没说什么，“吵闹的邻居”这话是谁说的？ 滚尼玛个小懒子，穷逼 被踢了手抖的废物…<br>原来是说弗格森是废物？<br>😄 仅次于皇马？<br>我笑了<br>2000年前后曾经有一个笑话：皇马球迷：我们有九个欧冠，接下来巴塞罗那有两个：第一个，最后一个。<br>😄 成王败寇知道吗 历史有什么卵用？你靠历史赢美国了？活在yy里的废物 鸟粪和曼狗，又脏又臭！ 曼联强了几十年没说什么？应该是没少说什么，说得还少么 90年代的利物浦也是这么想你们的！ 你是说曼城将会得到巴萨一样的成就吗？ 萨村确实不比梦三时期了，但是现在也没衰落好么？ 穆里尼奥在哪里，哪里就会这样，看看现在的皇马和巴萨哪有以前那么紧张，穆里尼奥在的时候天天全是事，每次德比和打架没区别。 巴萨眼中只有皇马，皇马眼中是全世界…这是弗洛论迪诺说的…你居然不知道？😄 鸟粪抱阿森纳大腿了？我的天啊…… 现在曼联确实比不上曼城，曼城是冠军！ 打人不打脸。。。 十年前的巴萨都不知道在哪里<br>这十年才冒头<br>所以才是十年豪门啊😄<br>有意见？ 对啊，那就嘴巴不要老，继续努力嘛 我觉得作为曼联球迷，最扬眉吐气的一刻就是打出那条横幅的时候“youtoldustocomebackwhenwevewon18…weareback！”。没错，成王败寇不假，但是麻烦曼城球迷也别太嚣张，毕竟也才几年嘛，毕竟陈列室的荣誉屈指可数嘛… 破纪录的连胜叫一顿饺子？ 应该说100年曼联，十年巴萨曼城<br>😄 曼城球迷越发像巴萨是球迷靠拢了 比黄杂强 一楼说反了吧，从鸟还有鸟粪最近的表现看曼联眼里只有曼城 也就这几年比曼联好吧，无语 想想之前怎么嘲讽利物浦的吧！ 新曼联球迷:有种别坐大巴！😂 十年巴萨的欧冠，好像也比百年曼联多吧 呵呵，十年前的巴萨不知道在哪里？西甲历史上巴萨的荣耀仅次于皇马，到你这儿就变成了“不知道在哪里”。不看西甲是你的权利，但是不看你还要喷就是不要脸了。 为什么你的眼中什么都是黑？<br>阳光一点，快乐一点，要不然怎么做阿森纳球迷？<br>哈哈哈哈 实事求是的说现在确实比我魔强！不过没必要这么激动！曼联比你强了几十年也没说什么[微笑] 欧冠还没巴萨多呢，连续被溜了两年。好意思嘲笑巴萨，知道曼联建队多少年，巴萨建队多少年吗？就TM会吹牛逼，还百年。 阿森纳：我40场加赛季不败夺冠，我有炫耀十多年吗？<br>哈哈哈 你别以为评论区鸟粪很多，整天瞎喷也就那几个，绝对数量比起真球迷还是少之又少。 三十年河东三十年河西 其实曼联就缺个好教练，阵容毕竟还是一流的 哈哈 说了，弗格森爵士说：吵闹的邻居！[狗][狗][狗]咋了咋了 禁足就一定是因为巴萨？查查为什么禁足吧。就像你脑残就一定是你爹的错？不给是你妈的错？可能是你妈天天去偷人才生你那么脑残呢。 继续加油 祝鸟粪跟巴沟全家看不到2018年的阳光[喷水][喷水][喷水] 曼联眼里看的是全世界，曼城眼里只有曼联，哈哈 巴萨和皇马球迷互怼… 为什么德比后两队关系这么紧张你心里没点B数？你们的当家球星博格巴、主教练是怎么谈论曼城的？ 新曼城球迷脱下伪装吧，我看到你的尾“巴”了，哈哈😄 曼彻斯特联足球俱乐部位于英国英格兰西北区曼彻斯特郡曼彻斯特市，英文名ManchesterUnitedFootballClub，简称ManUtd或MUFC，中文简称曼联，其前身“牛顿·希斯”于1878年由兰开夏郡和约克郡铁路公司的工人在牛顿希斯工地上成立。1902年球队改组并改名曼联，现为英格兰足球超级联赛俱乐部，曼联的球队主场为“梦剧场”老特拉福德球场，1910年启用至今。 有一个奇怪的现象，网易里面好像大部分都是曼城的球迷，但现实中在看球的酒吧或球迷聚会基本都是穿曼联球衣的球迷，其实到底哪家的球迷人口基数大？ 也就今年打不过吧？一年谈不上底蕴什么的 三十年河东三十年河西没毛病<br>正视差距吧你们弱爆了 其实貌似本地球迷支持曼城的多,曼联国外的球迷多而已. 土豪怎么了，就喜欢看石油大佬挥舞着钞票打你们的脸 这么说你是承认曼城没历史悠久，只是土豪鸡一枚了吧[狗][狗][狗][大笑][大笑] 我逛的网易不多，算是见识到了，那样的猥琐男还大言不惭谈人品和风度，真贻笑大方，谢谢提醒了 巴萨最强，往巴萨靠也很好。 打不过就比底蕴的节奏？ 两队最近一个13年夺冠，一个14年夺冠，搞得曼城拿了3连冠似的？英超除了曼联还有拿3连冠的吗？ 唉，无话可说。你们尽情庆祝吧。 承认球队表现和主教练表现如今都比不上你们，但真正的曼联球迷表现确实比你城强得不是一点半点，在攒人品和风度上，你们弱爆了。 吵闹的邻居——土豪而已 所以说巴萨眼中只有皇马，皇马眼中是全世界<br>😄 三楼不要跟那货理论了，那货没皮没脸的！前两天才被我挖贴打他🐶脸。 我刚好相反，就和你这脑残说话 曼城球迷有素质，巴萨球迷最有素质，满意没有 鸟粪和曼狗，又脏又臭！ 说话客气客观点，免得中了鸟粪圈套，曼城在中后卫和前锋上还要看看有没好的，曼联只是没有就没有伤害对上了强势的曼城~ 先拿了三个欧冠再来嘲笑吧，队对了，还要等拿满20个顶级联赛冠军，不然就闭嘴 只要是西甲拿了欧冠都有争议，其他就都干净了？ 去年也在主场输了 曼联眼里没有全世界，只有巴士，哈哈 曼联1878，曼城1894，巴萨1899 拿个欧冠或啥奖杯来润润喉再说话 哈哈<br>中国没有5000年…<br>然后，马云家里是厅长父亲…本来就甩你… 鸟粪当新曼联球迷已经时日无多了，哈哈哈 历史就是王八蛋？你那是有奶就是娘 5000年中国，300年美国。中国人：我们比你们有底蕴。美国人：我们有苹果。中国人：我们历史比你长。美国人：我们有微软。中国人：我们的文化比你们长远深厚。美国人：但我们拿诺贝尔的人比你多了去。中国人：我们发明四大发明的时候你们还是液体。美国人微微一笑：我们使用你们发明的火药把你们揍得象个孙子一样。。。。那些所谓黄马球迷、曼联球迷，别再自欺欺人了，历史就是个王八蛋。80年代本叔家里比当老师的马云还土豪呢，但现在呢？马云土豪摔本叔几亿条街。 没办法，教练是最弱一环，没法和人家比，认命吧曼联。 瓜:孔队长生病，我能在怎么办，我也很无奈啊[微笑][微笑][微笑] 嗯？你是曼联死忠？那请问怎么看待鸟粪们说曼联是烂摊子，曼城是冠军阵容[微笑] 那你说说为什么普拉蒂尼禁足了，巴萨就拿不到欧冠了？当年和普狗勾结背叛G14，裁判一路保架护航才有了巴萨所谓的十年四欧冠。想想之前一百年就拿了一次最没含金量的。诺坎普次次遇上强队，面临淘汰就至少一红一点。 90年代的利物浦也是这么想你们的！ 不要和脑残讨论中国美国的对比。叔发现一些黄马球迷和曼联一些球迷挺脑残的，理解力确实低下。 曼联强了几十年没说什么？应该是没少说什么，说得还少么 parkingabus(･᷄ὢ･᷅)怪我咯 所以说十年豪门巴萨，没错啊 应该说100年曼联，十年巴萨曼城<br>😄 没什么说的啊！以前不是一个级别的……曼城一直在10名到17之间徘徊！以前只跟温格打嘴仗！不过不讨厌曼城！那个时候孙继海在那踢球！还是有点喜欢曼城…… 突然之间冒出这么多曼城球迷，呵呵 曼联1902年 曼联算什么百年豪门？真正豪门只有皇马巴萨米兰利物浦，在这里说曼联底蕴比巴萨深的都是鸟粪，联赛冠军欧战什么都比不过拿什么比底蕴？当然，不是瞧不起曼联，底蕴这个东西不比冠军数比什么？比球迷数量吗？ 放眼全世界丙级队？ 管你20个奖杯还是12个欧冠摆在哪里，这个赛季就干你，一个字”爽” 差不差没什么好说的，只看结果，连个位数差距都保不住，在哪都是菜 曼城球迷越发像巴萨是球迷靠拢了 你心理素质还真是不好，激动得语句都不通了。我表达我自己的观点不喷人不捧人正常评论新闻，需要谁来认定我能否站住脚？你有资格认定这就是装圣人和双标？你还说到我的痛处了？哪儿的痛处？你匿名评论开口质问藏头露尾了，还成了我恼羞成怒？你的逻辑有问题啊，离精神分裂不远了吧？还你一句:丢人的东西。<br>早就不想再回复你，浪费流量，只是不愿意便宜你这种人，来网上说两句话就以为高人一等还不要逼脸指责别人装圣人。你问我的那几句废话，倒是可以完全用在你自己身上。就此打住吧，啥时候敢不藏头露尾了，敢让人看看你以前都发表过那些妙语圣经了，再来讨论。 谁在提人品素质？？我带的节奏？你自己说的一大堆，现在被别人说到痛处然后说别人有本事自己做到，其一别人有没有做到你没资格评论，所以我也没有首先说曼联或者曼城球迷怎么怎么样，其二，你装出一副圣人的样子指点江山自己的理论又站不住脚，只能恼羞成怒说别人匿名，你自己理站不住脚却说别人做不到？这就是你说的人品？双标倒是玩的溜，还真正曼联球迷？丢人的东西 皇马8年16郎吧 莫名其妙多了这么多表妹球迷，巴狗转世？ 其实就是不喜欢看巴士车踢法 第一名在盯着第二名，第二名却顶着全世界，看来第二名已经投降认输了 也就这几年比曼联好吧，无语 哈哈！笑死人了！第一次听说连欧冠都没的球队才是最强的，看来巴萨也得仰望曼城 实事求是的说现在确实比我魔强！不过没必要这么激动！曼联比你强了几十年也没说什么[微笑] 好汉不提当年勇 是时候和孔队说再见了，哎 我是曼联球迷,对于现在的曼城我觉得他们缺乏是豪门的底气! 最讨厌的两种狗：曼狗+穆养犬 鸟粪还不是鸟去哪儿就伪装成哪儿的球迷，还得加上一条，谁击败巴萨就是谁的球迷，这些年鸟粪是切尔西国米皇马曼联巴黎尤文拜仁的球迷 傻逼鸟婊子 感谢你打那么多字，最起码我还不用匿名评论，我还可以代表我自己！还可以大方让人看看我的发言记录，是不是动不动就跟人“讲道理”？其实是在掩盖自己心虚，本质上就是个喷子的事实。仅此一次，以后这类火星人藏头露尾的评论，你就是打一万字也只能证明自己才是最心虚的那一个。别再跟我提什么人品和素质！谢谢。 爵爷上任时，曼联眼里看的只有利物浦“我来这儿就是要把他妈的利物浦拉下王座”，瓜屌上任时，曼城眼里则是全英超“我来这儿是为了证明传控可以在英超生存” 现在大巴可要外挂装甲了！可惜挂了装甲的还是大巴 你个狗逼怎么还没死，最近又当了哪家的狗 最讨厌的两支球队：表妹+巴傻 孙继海 曼联的全世界是联赛第二么？ 差距没有我想象中那么大，只要曼联继续进步，不折腾，作为球迷也可以接受。平心而论，已经十年没有欧冠冠军，快五年没有联赛冠军了，作为一支豪门球队，应该充满了饥饿感，已经没有第二个佛格森给我们不可战胜的气质，也没有第二个瓜迪奥拉给我们传控足球的飞跃提升，那就好好珍惜现在的穆里尼奥，至少第一年就带我们回了欧冠，有了一个欧联冠军，这个赛季还没结束，还没到四大皆空的悲观时刻，继续加油就好！ 为什么德比后两队关系这么紧张你心里没点B数？你们的当家球星博格巴、主教练是怎么谈论曼城的？ 新曼城球迷脱下伪装吧，我看到你的尾“巴”了，哈哈😄 不准你们庆祝！ 不关注足球本身，净尼玛拿孔子的道德论事。话说德比曼联运气太差，曼城也没什么绝对机会，主要是卢卡库助攻能力太强 就曼城这人员配置，实力，薪金待遇，拴条狗在教练席，都能得冠军，带曼城在英超夺冠军不叫本事，有本事敢换个地方带队吗！比如说来 新曼联球迷还是赶紧找找内鬼，为主子找找下家比较合适 庆祝是违法的，违反了加泰法<br>不对，是违反了曼联法<br>也不对，应该是违反了木鸟法 三十年河东三十年河西没毛病<br>正视差距吧你们弱爆了 曼联眼里没有全世界，只有巴士，哈哈 乡里逼滚出武汉，武汉没你这种废物 真没遇到过 鸟粪本质 真是无语了，真是武汉的人渣，真不该跟这种人渣对喷 承认球队表现和主教练表现如今都比不上你们，但真正的曼联球迷表现确实比你城强得不是一点半点，在攒人品和风度上，你们弱爆了。 新曼联球迷:有种别坐大巴！😂 曼联传奇丹尼斯劳代表曼城一脚把曼联踢入乙级的时候也没说什么 巴萨曼城……队史都比曼联长 哦，一楼说现在曼联眼里只有宇通了，悲哀啊，奔驰也不敢看了。 说起大巴，曼联不是鄙视谁 曼联这战绩还看全世界呢，先击败曼城再看 曼联开大巴游览全世界 是地铁 你是旧曼联球迷，不对，应该是旧慢切斯特犬，对不对啊。公交斯威夫特？😂 曼联过来的.没办法鸟把曼联祸害成什么样了，大巴加长传冲吊，这打法正是费格森上任前的打法 90年代的利物浦也是这么想你们的！ 成王败寇 法甲.执教巴黎以外的球队 两次击败所谓的红魔夺欧冠 不准庆祝 垃圾muliniao 垃圾废物曼联穆鸟🐦🐦🐦🐦都是垃圾废物曼联 吵闹的邻居 突然感觉曼城球迷好多哦。现实中你们遇到过吗？感觉真的好神秘[惊讶] 实事求是的说现在确实比我魔强！不过没必要这么激动！曼联比你强了几十年也没说什么[微笑] 曼城：我的后视镜里看不到曼联了，我要不要停下来等等大巴车[微笑] 只求乡里逼滚出武汉，不要来武汉讨生活就好 5，6年前皇马球迷也说巴萨是十年豪门，这么快曼联球迷也嘲笑巴萨是十年豪门，所以真正在嘲讽的是哪部分球迷呢？那部分球迷恰恰是最没底气的，因为他们支持的某某才是最没底蕴的 巴萨曼城比曼联队史长？不知道的事就别信口开河，傻屌！ 穆二年都磨不出成绩，你能指望捉鬼的穆三年出? 风起云涌 我靠，当年可是利物浦牛逼的时候，嘲讽曼联暴发户。现在暴发户主动挑衅的真是不多见。 应该说100年曼联，十年巴萨曼城<br>😄 跟生活一样，不如意事常八九，你总不能说喷了人家就能一帆风顺长生不老？ 去年还是一无所有，今年一爆发就沉不住气，曼联可是几年了昏昏欲睡，去年不好意思拿了两个冠军，包括欧联杯，今年接着睡，明年再说 没说什么？老特拉福德挂着横幅羞辱曼城球迷，羞辱了多少年？曼城夺冠才撤下去。 没落豪门 曼联眼里看的是全世界，曼城眼里只有曼联，哈哈 巴萨曼城比曼联队史长？不知道的事就别信口开河，傻屌！ 我一个米兰球迷就不掺合了，唉 曼城球迷越发像巴萨是球迷靠拢了 一副小人得志的样，去年四大皆空的时候可不是这么叫唤的 最讨厌皇马球迷 也就这几年比曼联好吧，无语 是是是，曼城都没资格打欧联，只能打欧冠被淘汰，联赛杯庆祝是鸟粪的传统 我觉得还是:曼联摆大巴这首歌好听。 你攒不攒人品都不可能什么都一帆风顺长生不老的啊，再说球员低调点攒人品还可以理解，球迷攒人品有个屁用啊？九十年代曼联各方面的冠军也一样落后利物浦，当时也一样骂利物浦马桶啊，最后还不是一样超过对方 还是先看看切尔西吧，只差一分了。 曼城这表现历史第一了前无古人后无来者。宇宙队曼城雄起！ 提以前的都是傻B……以前可以当饭吃？[微笑] 另外别再回复我，说服别人的同时请先参考自己，不然自己就是个笑料，再见 曼联的阵容已经磨合很久了,实力定会强于曼城. 新曼城球迷“反正巴萨和曼城我们总能抱一个大腿” 都磨合到52脚了再磨合磨合打破81脚的记录 他们明显怂了，他们心里也清楚，就是嘴硬而已，希望他们的jb像嘴一样硬就好了。😄 曼联眼里没有全世界，只有巴士，哈哈 讲个笑话，皇马眼里只有巴萨，曼联眼里是全世界 我没说过我是球迷啊<br>哈哈哈哈 利物浦也是这么想曼联的 改变英超风格的是瓜[大笑]把大堆球队都打的在半场不出来，也就切尔西，阿森纳，利物浦，热刺除外。改变英超风格关穆什么事？对阵绝大多数的英超球队都摆大巴。 当年92那批红小鬼风行一时的时候就喜欢曼联了，算是曼联的老球迷了<br>但曼城也不反感，原因是孙继海去了曼城，所以也看曼城的比赛<br>作为曼联球迷，有时候也怼别人的，可后来想想，没有成绩，怼什么怼呢<br>只是在心里喜欢就行了，没有必要要让别人也喜欢的 可以去查查，笑只会让你无知而已 正视差距吧，全世界的球队 百年豪门的标准你定的？还是有黑白欧冠相片就算，估计诺丁汉森林、本菲卡都觉得你脑子有点贵恙。 我知道……<br>据说巨头毕尔巴鄂曾经11比1巨头巴萨…… 哈哈哈哈<br>您是怎么统计的？<br>哈哈哈哈 曼联眼里看的是全世界，曼城眼里只有曼联，哈哈 都这样了还嘴硬 其实表妹始终是表妹，暴发户始终是暴发户，你看车子这么多年洗白了没？球迷就是这样，嘴上可不服软，想想也是一种乐趣。曼联？任重而道远，慢慢来吧。着急也没用 巴士挡住了曼联看世界的视线 穆里尼奥来之前的曼联球迷 有鸟粪在，曼联永远都是垃圾 成绩被巴萨甩，论钱又被曼城甩，什么垃圾到底 还有，这样的新闻，关人家巴萨什么事呢，穆里尼奥迷还把巴萨也扯进来，他们到哪，哪里就乌烟瘴气，我想你们曼联球迷也不愿与他们为伍吧 三十年河东三十年河西没毛病<br>正视差距吧你们弱爆了 难道不是这二位改变了英超风格 说的没错，一定也是普拉蒂尼把弗格森摇了手抖 你破连胜拿的不也是一个联赛冠军？难道给你两个？ 曼城我不了解，不轻易下结论。不像你，不了解巴萨和曼城的历史还要大放阙词。看不出来你是个球迷。 败人品吧继续，谁还不吃顿饺子，可以理解 这么说吧，没有5个欧冠以上的不是欧洲豪门，所以某联可以让让了。 作为曼联球迷，我只能说隔壁球迷说的对。[挨揍][大哭][疲惫] 我就是护瓜宝，我就是鸟黑，怎么样？哈哈哈 承认球队表现和主教练表现如今都比不上你们，但真正的曼联球迷表现确实比你城强得不是一点半点，在攒人品和风度上，你们弱爆了。 弗爵爷的曼联，瓜帅的曼城我都爱 成王败寇知道吗 曼联眼里是有几座欧冠！曼城眼里欧冠是0⃣️！[大笑][大笑] 我都不想回了。我在和他们讲道理，他们不听，还一直强词夺理，这种讨论毫无意义。巴萨是不是豪门也不是他们说了算。五次欧冠都不算豪门的话，除了皇马米兰，没有豪门了。 巴萨所谓十年欧冠，不正是和普拉蒂尼合作，背叛G14后，在普拉蒂尼期间，通过无数瞎眼裁判拿到的？ 那是，你看我膜多有底蕴，多有豪门气质！对手受伤不停止比赛也不归还球权。对手赢球了就闹更衣室不许庆祝。也不可以在场边鼓动球迷庆祝，对我膜不尊重。自己踢得💩一样还各种藐视、数落对手，几亿阵容对个残阵的保级队还半场被灌两球。我膜不愧是真豪门，高素质。[窃笑] 你是说曼城将会得到巴萨一样的成就吗？ 虽然很气但现在只能接受隔壁邻居的嘲讽！冠军数量只能代表底蕴和以往的荣光！希望下赛季曼联能真正和曼城掰掰手腕！让吵闹的邻居闭嘴 666，你曼联的主教楼这么欠，还不许球迷喷他咯？ 鸟粪抱阿森纳大腿了？我的天啊…… 后来前一个裁缝去米兰给模特做衣服了，而后一个裁缝依然在那个街上给大家做衣服。 实事求是的说现在确实比我魔强！不过没必要这么激动！曼联比你强了几十年也没说什么[微笑] 承认差距吧，你们弱爆了！ 瓜穆让英超不再是英超 阿森纳：我赛季不败夺冠，我有炫耀十几年吗？<br>哈哈哈 那是，你看我膜多有底蕴，多有豪门气质！对手受伤不停止比赛也不归还球权。对手赢球了就闹更衣室不许庆祝。也不可以在场边鼓动球迷庆祝，对我膜不尊重。自己踢得💩一样还各种藐视、数落对手，几亿阵容对个残阵的保级队还半场被灌两球。我膜不愧是真豪门，高素质。[窃笑] 应该说穆里尼奥后面不再有曼联球迷，只有人迷。 破纪录的连胜叫一顿饺子？ 应该说100年曼联，十年巴萨曼城<br>😄 现在的新曼联球迷和当年利记颇有几分相似，不过当时曼联是被嘲笑的那个。<br>爵爷终于帮助红魔在顶级联赛冠军方面超越红军，但愿站在功劳簿上的曼联人不都是这个德行，那至少能在耗光家底前实现复兴。 20世纪最佳俱乐部评选时，国际足联是投票排名，曼联第二，巴萨第三；<br>国际足球统计与历史协会是按欧战积分排名，巴萨第三，曼联第十一；<br>到了这里，成了一个百年一个十年？真是受教了。。。 这么说吧巴萨在2008年之前只能说是西甲豪门谈不上欧洲豪门 得瑟 八十年代的利物浦 嗯，诚实的人，这没话说 为了暴露他的是一个鸟粪 曼城球迷越发像巴萨是球迷靠拢了 我其实是在统计多少鸟粪转会到曼联的。。。哈哈哈哈 为什么要强行带上穆？ 大部分是新曼城球迷，你懂得，成绩不好自然就没了[窃笑] 一条大街上有两个裁缝，一个招牌写的我是世界上最好的裁缝，另一个写的是我是本街最好的裁缝 第一名眼里当然有第二名了，这有什么奇怪的？<br>不过呢，说不定曼联马上就不是第二名了，到时就不用看了 恭喜楼上，成功把矛盾引到巴萨和皇马身上。 同城嘛，理解理解 无数次？除了斯坦福桥你们还有什么能拿出来吹的。连续两年半场攻防演练溜得曼联像狗一样，2015年MSN大杀四方。这些应该都是普拉蒂尼上去叫裁判踢的吧。黄狗干爹签可不少，16年人家马竞踢的都是拜仁，巴萨，黄狗踢的都是踢狼堡，罗马，曼城之流。谁更有干爹一目了然。 也就这几年比曼联好吧，无语 为什么你的眼中什么都是黑？<br>阳光一点，快乐一点，要不然怎么做阿森纳球迷？<br>哈哈哈哈 技不如人，被嘲讽认了，哎…… 如果下半个赛季可以复苏到赛季初的水准，那么下个赛季还可以预期<br>需要阵容补强和减少伤停，还有伊布可能不行了 说明了普拉蒂尼真球王的厉害。百年巴萨只有一冠，而十年普拉蒂尼巴萨四冠。 看出来了，您不是球迷，只是纯喷子而已。呵呵 去看一看得到欧冠的年份再说话<br>没有黑白欧冠相片的十年豪门在这里嘲笑百年豪门？😄 曼联眼里没有全世界，只有巴士，哈哈 当年利物浦难道就一直王座？ 大凡夺冠的队伍都有1:0的气运加身，今年属于曼城！下赛季再见！ 行行行，你智商最高，全宇宙最高，地球已经不适合你了。 呵呵，弗洛伦蒂诺皇马主席说这句话没毛病，难道他会站在巴萨角度说？巴尔达诺还说过：现在皇马过度关注巴萨了。。。你听谁的？所以说你是无脑喷子就是无脑喷子。 现代足球发源地是哪里？ 如果瓜秃子继续这样，不说年年拿冠军。待上个20年，一样可以做曼城的弗爵爷 曼联眼里看的是全世界，曼城眼里只有曼联，哈哈 巴萨能不能跟皇马比轮得到三个欧冠的废物曼联来bb？ 看不起大巴的不只是曼城球迷，以前谁敢看不起曼联？ 别浪，败人品的，还有欧冠呢 表妹这个词儿是谁发明的？ 三十年河东三十年河西没毛病<br>正视差距吧你们弱爆了 应该说100年曼联，十年巴萨曼城<br>😄 他既不知道曼联空难的时间，也不知道曼联首夺欧冠的时间。你还认为他是曼联球迷？他顶多就是鸟粪而已！ 曼联自从被鸟接手后，越来越狂妄自大，没有爵士那会的沉稳， 他既不知道曼联空难的时间，也不知道曼联首夺欧冠的时间。你还认为他是曼联球迷？他顶多就是鸟粪而已！ 我是你眼中的“护瓜宝”，也是你眼中的“鸟黑”，这样可以来评论了吗？哈哈 我是友军！ 可以的。四千万拿来 没毛病 今季的曼城确实强 盛极必衰，还是低调点 利物浦 都tm是泪。苦不苦。看看红军利物浦 一个不如一个，你这样说很容易被曼联新球迷喷的 仅次于皇马？<br>我笑了<br>2000年前后曾经有一个笑话：皇马球迷：我们有九个欧冠，接下来巴塞罗那有两个：第一个，最后一个。<br>😄 成王败寇知道吗 穆鸟：请你们尊重点！不然我下次新闻发布会继续喷你们[暴怒] 英超所有球队记住，表妹就只有两招：挑传和直塞。只要防住挑和塞就赢了。 发源地是英国不是曼联，但发源地无什么了不起的，英雄莫问出处，乒乓球发源地也是英国，他能跟天朝比？你百度一下，无论欧战成绩还是国内成绩和最新排名曼联都不如巴萨。 小人得志的嘴脸一览无遗 90年代的利物浦也是这么想你们的！ 还是莫耶斯最好，虽然弗格森不喜欢 曼狗就这样，习惯就好 巴萨球迷看不看得起皇马，用不着你这个鸟粪BB。别忘了当年你们怎么骂皇马的，现在又开始抱皇马大腿了？ 好好做你的垃圾曼狗 英超所有球队记住，表妹就只有两招：挑传和直塞。只要防住挑和塞就赢了。 穆里尼奥在哪里，哪里就会这样，看看现在的皇马和巴萨哪有以前那么紧张，穆里尼奥在的时候天天全是事，每次德比和打架没区别。 巴萨眼中只有皇马，皇马眼中是全世界…这是弗洛论迪诺说的…你居然不知道？😄 英超所有球队记住，表妹就只有两招：挑传和直塞。只要防住挑和塞就赢了。 哦，你活在2000年？厉害厉害，原来垃圾曼狗还会穿越啊 ？如果你们是曼城球迷，我说巴萨和你们有什么关系呢？<br>哈哈哈哈 曼城英超第一，请把达尼洛还给我皇。 有些硬撑了[微笑] 对啊，那就嘴巴不要老，继续努力嘛 我悄悄告诉你一个秘密：皇马前面几个欧冠，巴萨球迷都是很鄙视的…认为没有含金量…<br>然后，迪斯蒂法诺退役后执教过很多球队…但是没有巴萨…却有西班牙人…<br>😄 同城死敌啊 是啊。你以为大家都不知道，其实是你不知道。 新曼城球迷，老六冠王球迷真的是父母私的早…说话很没有教养啊 大破城是昨天的你魔，你魔是现在的马桶 莫耶斯没那个命花3个亿罢了，花3个亿就为了欧联杯？ 诺丁汉森林、利兹联球迷有话说：你们这些新球迷都是垃圾，都是父母私得早的蠢货，一点教养都没有。 这都看出因果关系…<br>巴萨球迷智商果然低… 曼城球迷越发像巴萨是球迷靠拢了 一楼说反了吧，从鸟还有鸟粪最近的表现看曼联眼里只有曼城 也就这几年比曼联好吧，无语 对不起…这不能够证明巴萨不是十年豪门<br>😄 楼上说的确实有道理<br>明明大家都是看资料知道的…偏偏有人认为别人不知道…<br>而且是在人家发帖讨论之后，才受到启发说人家不知道…<br>😄<br>巴萨球迷智商低啊 给你联盟杯资格，你居然想拿冠军杯冠军？<br>😄 为什么德比后两队关系这么紧张你心里没点B数？你们的当家球星博格巴、主教练是怎么谈论曼城的？ 呵呵，十年前的巴萨不知道在哪里？西甲历史上巴萨的荣耀仅次于皇马，到你这儿就变成了“不知道在哪里”。不看西甲是你的权利，但是不看你还要喷就是不要脸了。 说的好像现在英超的王座是曼联一样的。 实事求是的说现在确实比我魔强！不过没必要这么激动！曼联比你强了几十年也没说什么[微笑] 曼联算豪门吗？摆大巴也算豪门？来，跟我说说，曼联算豪门吗？ 曼联球迷越来越像鸟粪了。 说的空难在欧冠以后一样，傻子 这个真的是，以后且不管是不是穆鸟球迷，曼联球迷先跟巴萨树敌了 曼联眼里没有全世界，只有巴士，哈哈 暴发户拿了几个冠军了！曼联拿冠军拿到手软时好像他们还在英冠混吧 只有车门 三十年河东三十年河西没毛病<br>正视差距吧你们弱爆了 以前满脸球迷没少嘲笑过曼城，吵闹的邻居 总会衰落的，客观规律。<br>强如苏联也不过活到69 这逼吹得可以，但不能骄傲啊 相当喜欢土豪，多买几个特维斯 曼联眼里看的是全世界，曼城眼里只有曼联，哈哈 为什么德比后两队关系这么紧张你心里没点B数？你们的当家球星博格巴、主教练是怎么谈论曼城的？ 2楼才是真正的鸟粪 曼联被曼城压制了好几年了为啥今年口水仗打起来鸟粪心里没点逼数？<br>还不是因为穆鸟那张贱嘴 给我魔力鸟10年，必追上利物浦欧冠数量。<br>给我魔力鸟20年，必追上米兰欧冠数量。<br>给我魔力鸟30年，必追上皇马欧冠数量。<br>不过恐怕10年后曼联已降级。 请问楼上哪里看到鸟粪？😄 被压了几十年，现在翻身了，庆祝吧！ 曼联现在给穆婊带的眼里只有大巴和各种抱怨，对手赢了还不许庆祝也是世界足坛的笑话 现在鸟粪都成为百年豪门的老球迷啦，惹不起惹不起 孔帕尼是球队吸伤神人，如维尔马伦对巴萨[色色] 你看看所有豪门那个不是土豪，这个土豪不玩了交给下一个土豪，所以别想长不长了，品牌起来了就长久了 还没说什么，“吵闹的邻居”这话是谁说的？ 被踢了手抖的废物…<br>原来是说弗格森是废物？<br>😄 这位仁兄是曼城的老球迷，这段时间开心了 成王败寇知道吗 只是走了当年曼联球迷嘲笑利物浦球迷的老路。成王败寇，出来混迟早要还的。 マンチェスターユナイテッドは弱すぎる❢ 90年代的利物浦也是这么想你们的！ 孔帕尼搞不懂瓜为啥还给他留位置？去年就应该送走的人，真心没法用啊，白菜价处理掉吧，为了霸业有时候需要残忍些 呵呵 上赛季曼城排在曼联后面？还是踢得欧联？ 没事的，习惯就好了，我破厂几十年没冠还不是每周都看啊😄 因为以前根本没把曼城放在眼里，更多的是嘲讽利物浦，阿四纳 没有办法，走了老爵爷，来这几个，一个不如一个 你前十年是富豪现在破产了一屁股债还吹富豪那时候的经历？ 本来就都是巴狗，中国本来有多少曼城球迷？就算孙继海在的时候也没多少看的 应该说也是全世界，可惜都被🚌挡住了 那是爵爷的曼联，很精彩！但是大巴曼联很搞笑 看不起土豪，有种穆鸟别买人啊 应该说100年曼联，十年巴萨曼城<br>😄 99年之前巴萨没欧冠？手不抖了再来bb，残废 曼城球迷越发像巴萨是球迷靠拢了 你都落后人家十六分了都看不到别人了，只好美名其曰“眼里没有曼城，只有全世界”哈哈哈哈哈哈 有毛病了，三十年河东，三个月河西， 1999年的欧冠…豪门巴萨记得自己在哪里吗？😄 可惜了，孙继海没赶上这样的好时候。 比黄杂强 你来搞笑的？ 也就这几年比曼联好吧，无语 小人得志 落后十几分还全世界呢，傻子 想想之前怎么嘲讽利物浦的吧！ 气的你满地打滚😂 现在这支曼城，他去了能不能看饮水机都是个问题！ 曼联辉煌了几十年，也没见他们这么狂。曼城才当了几年的暴发户就开始飘了。还是给自己留点台阶下吧 这几年？这段时间吧。上赛季四大皆空就不说了。 没毛病，打强队摆大巴也就算了，打弱队还踢的跟翔一样 更准确的说，是残废，跟你一样，废的地方不同 实事求是的说现在确实比我魔强！不过没必要这么激动！曼联比你强了几十年也没说什么[微笑] 当年欧冠靠着黑哨淘汰曼联，在切尔西靠着金元把能买的都买走，碰上曼联老弱病残，最后还让老爵爷给打跑了的货色，最后被接回来塑造成救世主，真恶心 土豪春天会长吗 使劲吹吧似乎忘记了上赛季有个球队四大皆空 这心态挺阿Q 一巴障目说的就是一楼 "
    },
    "Title": "曼城球迷高歌嘲讽曼联:正视差距吧 你们弱爆了_网易体育",
    "PublishTime": "12/29/201708:12:28"
}