{
    "PublishTime": "12/30/201707:15:28",
    "KeyWords": "橙色,大雾,河北",
    "Source": "Netease",
    "URL": "http://news.163.com/17/1230/07/D6STAHHE0001899N.html",
    "Comment": {
        "Link": "http://comment.news.163.com/news2_bbs/D6STAHHE0001899N.html",
        "Total": 44,
        "Content": "是雾是雾是雾不是霾不是霾不是霾，这样说满意吧。 是什么雾是水珠吗？还是灰尘 确定这是雾？ 走了月亮来了太阳还是晚上 前天环保部刚对媒体说，入冬以来北方大气质量持续良好，是大力推动煤改气取得的成就。 我信 前天环保部刚对媒体说，入冬以来北方大气质量持续良好，是大力推动煤改气取得的成就。 是雾是雾是雾不是霾不是霾不是霾，这样说满意吧。 是什么雾是水珠吗？还是灰尘 前天环保部刚对媒体说，入冬以来北方大气质量持续良好，是大力推动煤改气取得的成就。 前天环保部刚对媒体说，入冬以来北方大气质量持续良好，是大力推动煤改气取得的成就。 确定这是雾？ 前天环保部刚对媒体说，入冬以来北方大气质量持续良好，是大力推动煤改气取得的成就。 都怪风儿轻轻吹…… 走了月亮来了太阳还是晚上 前天环保部刚对媒体说，入冬以来北方大气质量持续良好，是大力推动煤改气取得的成就。 我信 ",
        "Reply": 11
    },
    "Article": "（原标题：大雾橙色预警:京津冀等7省市有雾能见度不足50米）中国天气网讯中央气象台12月30日06时继续发布大雾橙色预警：预计，30日早晨至上午，北京南部、天津、河北中南部、山东西部、江苏中西部、安徽中东部、浙江西北部等地有大雾，其中，河北中部、安徽东北部、江苏西部等地有能见度低于500米的浓雾，部分地区有能见度低于200米的强浓雾，局地能见度不足50米。防御指南：1、有关部门和单位按照职责做好防雾工作；2、机场、高速公路、轮渡码头等单位加强调度指挥；3、驾驶人员必须严格控制车、船的行进速度；4、减少户外活动。本文来源：中国天气网责任编辑：王征_NN7526",
    "Title": "大雾橙色预警:京津冀等7省市有雾 能见度不足50米_网易新闻"
}