{
    "PublishTime": "12/29/201719:27:30",
    "KeyWords": "尤文,c罗,曼联,意甲",
    "Source": "Netease",
    "URL": "http://sports.163.com/17/1229/19/D6RKQ74I00058781.html",
    "Comment": {
        "Link": "http://comment.sports.163.com/sports2_bbs/D6RKQ74I00058781.html",
        "Total": 851,
        "Content": "对对对，你妈宇宙第一鸡 那时候的C罗确实强，身体条件爆炸，甩梅西几条街，去皇马后勤奋的练了一身腱子肉，却沦为射门员，现在的C罗跟梅西比就是一个笑话 傻逼 体系球员的球迷居然讽刺C罗，笑死人，哈哈 从12年到目前为止，梅西是进球最多的球员，助攻最多的球员，关键传球最多的球员，过人最多的球员，并且是MVP次数最多的球员，这样的球员竟然被说不够C罗全面，真正的全能是集射术、传球、大局观、视野、组织、突破分球、盘带过人、任意球、直塞等等方面这才叫全能，而当今足坛集这些特点于一身的球员只有一个，那就是梅西 记住一件事，喷的时候也要有点知识，不然会被笑的。03年的时候斯科尔斯，基恩，范尼，费迪南德这些人都还在的，还只有吉格斯是当打之年，不知道他们都是一起的吗？ 现在去尤文也还来得及，放过我渣团吧，现在C罗状态这么差还占着主力位置，压缩新人上升空间，是时候卖掉了，资深皇马球迷留！ 砍通呐退役的时候C罗还是小学生 没有双娇时代，只有托蒂说的‘C罗在梅西时代’。 别跟一楼傻逼较真 二楼还一本正经在那里回复，真够闲的。你跟他们讲道理，他们跟你扯皮。 对对对我骡宇宙第一球神！ 1楼三楼皆是巴沟 看来梅西差暴力鸟两个等级 弗格森看好C罗和董方卓，可惜后者不争气 拉影影迷说了算 那时候的曼联，是青黄不接，小贝远走伯纳乌，坎通纳都是老国王了，谢林汉姆也只是一般球星级别，只有吉格斯还在当打之年，哪来的巨星云集一说？？？那时候尤文在意甲至少前二都还没国米那不勒斯什么事情，罗马最多算个搅局者，只有a米跟尤文在联赛可以争一下，而且尤文那时候有皮耶罗布冯特雷泽盖，c罗过去真没在曼联发展潜力大！ 尤文不要刺头 你资深你妈的嗨霸王 你特么才是傻屌吧不踢球搬出来说什么青黄不接？那我搬出博比查尔顿丹尼斯劳乔治贝斯特好不好？因为这三人退役四十年了导致曼联在2003年青黄不接？？哈哈哈笑死人了 坎通纳97年退役了， 唯一一位在两家俱乐部拿遍(所有)个人以及团队奖项的球员，没有之一👍 你是傻屌吧，他说国王还在踢球吗 C罗03年来的曼联。坎通纳？？人特么都退役n年了好吗还有谢林汉姆03年早就去热刺了不懂曼联历史就别出来现眼了好么真特么丢人 30年资深拉影球迷建议巴萨赶紧铲除梅毒，还我萨巅峰 这评论区没法看了 其实梅西就会踢个足球而已，有什么了不起的，你们整天吹吹吹的，有什么好吹的？c罗才是真正的天才，天赋一饼。啊不对，是天赋异禀，人家，肌肉发达，力量十足，天生就会跳水，你梅西会吗？人家刚正不阿，举报队友越位，梅西不会吧？人家有拳王好基友教授武功，绿荫场上显身手，梅西能打得过吗？人家会哭鼻子要点球，天生会哭的孩子有奶吃，梅西你哭一个看看？人家天生的浪，号称天下第一第二第三，呃，浪射之王，梅西你浪一个试试，也只能往球网里踢了。o型嘴儿，o型腿儿，o型的屁嘴儿献拳王。任凭你梅西埋头把球踢，我骡昂首显风姿 不吹不黑，如果c罗没加盟皇马的话，皇马可能现在还在被巴萨全面压制着，那还有卫冕欧冠这一回事。 保利尼奥本来就比C罗厉害 很明显当时曼联在英超的统治力要远强于意甲的尤文，巨星云集，关键时刻我罗可以放心隐身 [被黑]老妇人情何以堪 二楼还一本正经在那里回复，真够闲的。你跟他们讲道理，他们跟你扯皮。 在大罗面前都是垃圾 体系球员的球迷居然讽刺C罗，笑死人，哈哈 只有6楼他爹才配得上叫巨星 c罗也不一定要离开皇马，只是需要从新定位不能像以前那样以他为中心，连奔马都为他做嫁衣，从而使自己门前嗅觉能力差得一塌糊涂！ 砍通呐退役的时候C罗还是小学生 对对对我骡宇宙第一球神！ 当时尤文和其他意甲球队并不太重视甚至没有边锋战术，C罗如果去了尤文可能也就和亨利的境遇差不多，曼联则正相反 球迷的节日 鲁尼都还没来，其他几位只是球星，不是一楼所谓的巨星，那时候皇马的大罗齐达内菲戈劳尔才是巨星 说的是技术特点与位置相对单一（强调的是相对），讨论的是史上最佳阵容。C罗成熟与巅峰期是在皇马无容置疑，而在皇马基本上是左边锋，特点与位置确实相对单一。人无完人，梅西是缺乏一点领袖气质，但改变不了他可以骄傲地跻身史上最佳阵容，事实上，确实很难找到一个比大罗贝利梅西更好的锋线组合 拉影影迷说了算 我文是讲究团队的，任何影响团结的人都是站不住脚，这么多年后防支柱之一且最年轻的博努奇就是例子，C罗这种性格不适合我文……而且我文也没这么多创造型中场 原来是只巴🐶，恩，对对对，他们都是垃圾，只有09年的巴萨全是巨星，我错了 弗格森怎么可能真的看好董卓呢？那纯粹是客套话罢了。 看了你的评论，巴畜这个词形容你都觉得恶心了[微笑] 渣子一辈子只会躲在巴萨 谢林汉姆？？？开玩笑？？？ 不想喷你，只是就事论事，你说的这几位都是所谓的巨星？？？那按你说的意思09巴萨是不是每个位置都是巨星？？？ 华为定律 马拉🐴多纳横行世界 很明显当时曼联在英超的统治力要远强于意甲的尤文，巨星云集，关键时刻我罗可以放心隐身 弗格森看好C罗和董方卓，可惜后者不争气 别在这丢人显眼了，那个时候能称为巨星云集的球队只有皇马才是， 马🐴拉多纳虽然才165，但他有1986世界杯🏅🏆，1990世界杯银牌。2个美洲杯冠军。是世界⚽️👑。梅西三个亚军，还不是球王！14年世界杯决赛，进球被吹，心态崩了，被格策绝杀！美洲杯决赛踢飞冠军。现在阿根廷很弱，有些球队，虽然有所谓的球王，凝聚力差。所以取得不了好成绩！ 你这叫实事求是么？从曼联的右边前卫，到前场自由人，皇马时期打过边锋、中锋、影锋，在你这叫位置相对单一？刚出道时各种花式过人，只不过被老爵爷练的越来越简单实用，头顶脚踢远射任意球过门将长途奔袭，脚后跟挑球过皮看穿，每年至少接近两位数的助攻，在你这叫技术相对单一？梅西是全面，但我看来，梅西短板至少有两个，其一：身体劣势，梅西散步式踢法包含丰富的足球智慧，但实际上也是因为梅西身体不足以支撑长时间高频率奔跑的无奈之举。其二：缺乏领袖气质，你心目最佳阵容，都是具有精神领袖特质的球员，除了梅西。至于大罗那不是地球人，另算。 尤文不要刺头 对对对，你妈宇宙第一鸡 球星跟巨星是有差别的，那时候也只有皇马称为六大巨星！ 去尤文能比肩曼朱基奇吗？ 没有梅西巴萨怎么玩 那时候的C罗确实强，身体条件爆炸，甩梅西几条街，去皇马后勤奋的练了一身腱子肉，却沦为射门员，现在的C罗跟梅西比就是一个笑话 傻逼 他是03年去的曼联那时候的曼联是除了银河战舰皇马外第二强的队鼎盛时期的斯科尔斯费迪南德吉格斯范尼天才新星鲁尼这叫青黄不接？当年欧冠没轻虐尤文，我记得在尤文主场被干了个三比零，教练还是里皮 梅西梅西梅西。。。 对！ 实话{ 照你的意思如今的曼城什么也不是？ 米兰德比还能排上号 没有双娇时代，只有托蒂说的‘C罗在梅西时代’。 别跟一楼傻逼较真 现在去尤文也还来得及，放过我渣团吧，现在C罗状态这么差还占着主力位置，压缩新人上升空间，是时候卖掉了，资深皇马球迷留！ 1楼三楼皆是巴沟 不吹不黑，如果c罗没加盟皇马的话，皇马可能现在还在被巴萨全面压制着，那还有卫冕欧冠这一回事。 吉格斯斯科尔斯范尼不是巨星？你会看球？ 那时候的曼联，是青黄不接，小贝远走伯纳乌，坎通纳都是老国王了，谢林汉姆也只是一般球星级别，只有吉格斯还在当打之年，哪来的巨星云集一说？？？那时候尤文在意甲至少前二都还没国米那不勒斯什么事情，罗马最多算个搅局者，只有a米跟尤文在联赛可以争一下，而且尤文那时候有皮耶罗布冯特雷泽盖，c罗过去真没在曼联发展潜力大！ 罗最爱是曼联和皇马 爹这两天有点事，你就飘了？等着[窃笑] 你特么才是傻屌吧不踢球搬出来说什么青黄不接？那我搬出博比查尔顿丹尼斯劳乔治贝斯特好不好？因为这三人退役四十年了导致曼联在2003年青黄不接？？哈哈哈笑死人了 坎通纳97年退役了， 去曼联有爵爷培养你，这不是一般教练能做的到的。 唯一一位在两家俱乐部拿遍(所有)个人以及团队奖项的球员，没有之一👍 马拉🐴多纳横行世界 你是傻屌吧，他说国王还在踢球吗 尊重C罗的勤奋与成就，从不黑C罗。但客观讲，能控球能突破、能右边锋能伪九号能后撤打中场、能进球如麻能策动进攻的梅西，注定可以在史上最佳阵容占有一席之地，而技术特点相对单一位置相对单一的C罗，面对史上一干伟大的射手贝利、克鲁伊夫、迪斯蒂法诺、盖德穆勒、尤西比奥、普斯卡什、范巴斯滕、罗马里奥……有多少胜算？个人心目中史上最佳阵容：大罗、贝利、梅西/克鲁伊夫、马拉多纳、齐达内、贝肯鲍尔/马尔蒂尼、卡纳瓦罗、卡福/布冯，庆幸的是，这个阵容里，本人只是没看过贝利、克鲁伊夫、贝肯鲍尔。欢迎拍砖，请勿喷骂 从12年到目前为止，梅西是进球最多的球员，助攻最多的球员，关键传球最多的球员，过人最多的球员，并且是MVP次数最多的球员，这样的球员竟然被说不够C罗全面，真正的全能是集射术、传球、大局观、视野、组织、突破分球、盘带过人、任意球、直塞等等方面这才叫全能，而当今足坛集这些特点于一身的球员只有一个，那就是梅西 30年资深拉影球迷建议巴萨赶紧铲除梅毒，还我萨巅峰 这评论区没法看了 还有一场大战这里没有提那就是中超德比，又叫中国德比明晚天河体育中心恒大VS上港 董方卓的天赋不在郝海东之下 饶了董方卓吧，别人都出来说过了，08年奥运会前后被国家队用坏了！好歹他也是世界级赛事中唯一取得进球的中国球员！ 马拉🐴多纳横行世界 你资深你妈的嗨霸王 傻逼 没有双娇时代，只有托妞说的‘C罗在梅西时代’。 马拉🐴多纳横行世界 你是马拉多纳请的水军？ 很明显当时曼联在英超的统治力要远强于意甲的尤文，巨星云集，关键时刻我罗可以放心隐身 尼玛确实很深[微笑] 现在去尤文也还来得及，放过我渣团吧，现在C罗状态这么差还占着主力位置，压缩新人上升空间，是时候卖掉了，资深皇马球迷留！ 从小贝那时期开始黑曼联到现在觉得曼联蛮好的 没有双娇时代，只有托蒂说的‘C罗在梅西时代’。 但现在，却江河日下，显露平庸 强于尤文？ 只有郑智是凭实力去留洋的。其他都是垃圾 没得过世界杯的运动员都是鸡毛<br>------李永波 其实梅西就会踢个足球而已，有什么了不起的，你们整天吹吹吹的，有什么好吹的？c罗才是真正的天才，天赋一饼。啊不对，是天赋异禀，人家，肌肉发达，力量十足，天生就会跳水，你梅西会吗？人家刚正不阿，举报队友越位，梅西不会吧？人家有拳王好基友教授武功，绿荫场上显身手，梅西能打得过吗？人家会哭鼻子要点球，天生会哭的孩子有奶吃，梅西你哭一个看看？人家天生的浪，号称天下第一第二第三，呃，浪射之王，梅西你浪一个试试，也只能往球网里踢了。o型嘴儿，o型腿儿，o型的屁嘴儿献拳王。任凭你梅西埋头把球踢，我骡昂首显风姿 你是马拉多纳请的水军吧 看来梅西差暴力鸟两个等级 保利尼奥本来就比C罗厉害 其实梅西就会踢个足球而已，有什么了不起的，你们整天吹吹吹的，有什么好吹的？c罗才是真正的天才，天赋一饼。啊不对，是天赋异禀，人家，肌肉发达，力量十足，天生就会跳水，你梅西会吗？人家刚正不阿，举报队友越位，梅西不会吧？人家有拳王好基友教授武功，绿荫场上显身手，梅西能打得过吗？人家会哭鼻子要点球，天生会哭的孩子有奶吃，梅西你哭一个看看？人家天生的浪，号称天下第一第二第三，呃，浪射之王，梅西你浪一个试试，也只能往球网里踢了。o型嘴儿，o型腿儿，o型的屁嘴儿献拳王。任凭你梅西埋头把球踢，我骡昂首显风骚 ",
        "Reply": 84
    },
    "Article": "很少谈及自己“险些前往意甲”的新科金球先生C.罗纳尔多，终于透露了当年未能转会尤文图斯的一些细节。此前，据尤文俱乐部前高层透露，当年本与葡萄牙体育就C罗加盟斑马军一事达成了协议，但因为作为转会一部分的尤文前锋萨拉斯不愿意前往葡萄牙踢球，此桩转会最终未能成行。“当时很多俱乐部对我都很感兴趣。”C罗在接受天空体育嘉宾、尤文名宿皮耶罗的采访中说道。“但关键人物还是门德斯，他给了我一个正确的方向。我记得当年知道在与尤文谈判转会时的开心，因为他们是家出类拔萃的俱乐部。”“但当时我们还在与皇马、曼联及其他几家俱乐部谈判。那时能为我提供最佳成长环境的只有曼联，我从孩童起就梦想踢英超，比起意甲，我更爱英超。”“曼联给了我这个机会，这全亏了弗格森爵士，而且很明显，门德斯使我完成了梦想。”本文来源：肆客足球App责任编辑：冯昊天_NSJS2656",
    "Title": "C罗:当年我差点加盟尤文 但曼联的成长环境更好_网易体育"
}