{
    "Title": "日媒:日本外相将于1月份访华 为两国首脑互访铺路_网易新闻",
    "URL": "http://news.163.com/17/1228/19/D6P4491R0001899N.html",
    "Source": "Netease",
    "Article": "（原标题：日媒：河野太郎将于1月份访华为中日两国首脑互访铺路）【环球网报道】据日本NHK电视台12月8日报道，日本外相河野太郎正在安排下个月的访华行程，为即将于明年春季在日本举行的日中韩领导人会议做准备。报道援引日本外务省的消息称，河野太郎有望最早明年1月下旬访问中国，这也是其就任日本外相以来首次访华之旅。报道还说，河野太郎访华期间将与王毅等中国政府高级官员举行会谈。NHK说，河野一月份访华使命除了为明年的日中韩领导人会议做准备外，为庆祝明年的中日缔结和平条约40周年，河野还将尽力就实现中日两国首脑互访铺路搭桥。本文来源：环球时报-环球网。更多精彩，请登录环球网http://www.huanqiu.com责任编辑：张海桐_NN9053",
    "PublishTime": "12/28/201719:57:25",
    "Comment": {
        "Total": 66,
        "Content": "热烈欢迎 见个屁 来买旧飞机的 热烈欢迎日本友人👍🌸 欢迎，中日友好 热烈欢迎 见个屁 来买旧飞机的 热烈欢迎日本友人👍🌸 欢迎，中日友好 ",
        "Reply": 5,
        "Link": "http://comment.news.163.com/news2_bbs/D6P4491R0001899N.html"
    },
    "KeyWords": "日本,河野,外相,首脑"
}