{
    "Title": "女子带750万现金商场购物 点钞员:至少数到凌晨吧_网易新闻",
    "PublishTime": "01/01/201809:57:22",
    "URL": "http://news.163.com/18/0101/09/D72BCEF10001875P.html",
    "Source": "Netease",
    "KeyWords": "点钞员,购物,现金,商场",
    "Comment": {
        "Reply": 764,
        "Content": "一看就是装B唉，真这样的人都直接黑卡刷，还拉杆箱，也不嫌累 年底了，商场里有销售末尾淘汰的，一般都商家自己买自己的东西，省点手续费是点 不刷卡，提现金来花的恐怕不是自己的钱哦 你听说哪你有这种需求的人把钱放银行的？？？？ 官二代 要么炒作，要么炫富。这么高调，就不怕别人盯上？ 骚年，你太天真了，我房地产行业的，经常遇到这种拿几百万现金来买房的人，我们收银员不懂事还好意跟人家说，其实你不用拿现金的，直接划卡就可以了啊，人家翻了她一个白眼。我让收银员赶紧闭嘴了。其实原因都懂，这些钱不能经过银行的，那是要留下资金印记的。 只因为钱不敢存银行，所以现金消费 花自己的钱，为什么要让别人多赚20？反正不赶时间，就要用现金 消费力不足，只能拿一两个典型来做托 你们都没看原文，人家说了是商家不愿支付刷卡费用，鼓励顾客用现金 有人，就在乎这个0.5% 实体店买了，网上再去卖。还有这种操作？逗我？ 买宝姿的衣服加100在网上卖，一个衬衫都4千，逗逼吗？ 这算不算洗钱？能查不？ 做托真辛苦 取钱不要监控？ 嗯，这些牛逼闪闪的大款们就是靠20块，20块一点一点的攒出来的，不像那些屌丝们，居然连20块都看不起。😖 这是厂商没有完成商场的巨额保底销售任务，自己拖现金来买自己的货。 不会用点钞机？看来又是炒作，演戏而已。 商城炒作，你们如果对商场的运作模式有点点理解就不会觉得奇怪了。 中国人啥都不会，就会装B。一群傻逼 这样的客户会有商家要求现金购买，是不是商家装逼？绝对不是正常客户，也不是正常消费者，说太明白都不好了！750万开不起一个工厂还是开不起一个品牌专卖店，什么品牌的货品不能去总公司购买！难道他们脑袋进水了，为了手续费不怕半路打劫！那是傻逼！ 炒作吧，现在谁还带这么多现金出门，商家承担手续费又不是客户，能买得起750万的现金，还在乎0.5%的手续费 钱来路不明，肯定不是银行取的 只有信用卡千分之六的手续费不封顶。储蓄卡20元封顶，有这么多现金肯定是储蓄卡，哪来的手续费承担问题啊？20元也承担不起啊？ 有洗钱的嫌疑 以前看到拉杆箱以为是民工，现在才知道，原来一直都是错觉，全特么大款啊😥 经常看到查抄贪官用坏点钞机的新闻。 老掉牙的炒作方式还在用 贪官太太 体积一下降了90%，好藏了 钱不敢存银行，来源定有问题！ 这是厂商没有完成商场的巨额保底销售任务，自己拖现金来买自己的货。 没明白啊，难道有钱人的世界这么恐怖 现金洗得更干净 这在国外包括日本肯定要被怀疑涉嫌洗钱，这人的来往账户会被查个底朝天。 所以强烈建议国家发行100W一张的钞票~！，以后购物方便多了！！ 错了，目前对大额金融账户是监控的，最安全还是现金，杭州武林一号有个东北的给他女儿买了套房子，二千多万全部现金， 有750万元不能加盟这个品牌吗？而且还是从零售店进货，这脑子怎么赚到750万元的？ 我就觉得很奇怪，有这么多钱还会在国内买东西？那不是傻逼吗？！这么高的税这么贵！还他妈经常有假货！去香港去东京，去美国，随便买，差价都可以安排两个工人一路拿回来还有余！ 一群酸溜溜的人，人家自己的钱想怎么花就怎么花 大户，有蹊跷的大户 可惜我不懂开锁，否则夜晚就去别墅区盗窃，贪棺被偷也不敢报警！ 这么多的钱，为什么就看不到抢劫犯了呢？ 商场的幕后是快手 不会用点钞机？看来又是炒作，演戏而已。 祝你横财就手💰 自己买自己的货，今年完成不了，商场就会让其它品牌进店，这点套路明人都知道～～ 不错如果不是炒作，SB用750万换镀金的东西而已 借记卡的手续费有封顶，信用卡才不封顶。自己演戏演砸了 洗钱把 这他妈什么操作 手续费省下了，给客户一部分返利。其实这个客户是做网商的，这是进货罢了 咋洗？ 点赞 你以为监察真是傻子，不想升官呀。<br>你以为黑的真是傻子敢闹这么大动静。 呵呵 有钱人赚钱就是任性 昨天八佰伴买500送300，买500万多300万可以在网上处理掉，或者优惠券直接卖给黄牛，也是有可能的。 支付宝不能用吗 买宝姿的衣服加100在网上卖，一个衬衫都4千，逗逼吗？ 还真承担不起，因为以前刷卡手续费有上限，现在好像没有了。 摆明就是炒作，如果仅仅是保底任务，完全可以用银行卡 装B遭雷劈，还有几个煞笔玩意用这么大现金。 有桥不走，摸石头 有必要出1000面额的钞票了，现在100连以前的大团结都比不上了。。。 这算不算洗钱？能查不？ 100万点一个小时，你可以去死了。还是点钞机 你还真以为是买东西啊 骗人[鄙视] 有钱人家啊 这广告做的可以 营业员：“刷卡的话，我们公司要承担刷卡的一部分费用的嘛，我们建议她现金买单。”（营业员提前就知道客户要买750万的东西？所以提前约好了现金支付？） 典型装逼。直接刷卡显不出牛逼开啊 宝姿:产地厦门 钱是天上掉下来的吗？怀疑钱的来路 只有信用卡千分之六的手续费不封顶。储蓄卡20元封顶，有这么多现金肯定是储蓄卡，哪来的手续费承担问题啊？20元也承担不起啊？ 宝姿品牌，怎么没说买哪个品牌了啊 同意你的一切看法 洗黑钱？ SB 其实我认为你真摸错地方了，你只要到女士专柜随便摸几下，效果比你摸蔬菜好很多。 安徽的？？？ 又是商家促销活动[被黑] 又炒作 宝姿的广告吧？！ 猴子请来的逗比吧 恰恰更深刻的说明了实体商铺的衰败 炒作吧，现在谁还带这么多现金出门，商家承担手续费又不是客户，能买得起750万的现金，还在乎0.5%的手续费 洗洗更安全 早晨起来打个飞机，也没擦，全抹手上了，然后我就去了趟超市，把黄瓜，茄子，胡萝卜，莲藕，冬瓜，都摸了一遍，孩子，爹不是没给你留活路，剩下的全看你自己了。 狗屁吧！她拿得动吗？ 可能吗？这么大的买单，求之不得，还在乎手续费？真是瞎说。 自己买自己的， 洗钱都没人管了吗，还登新闻 这是厂商没有完成商场的巨额保底销售任务，自己拖现金来买自己的货。 做人全靠装－－逼，生活都在演－－戏 国内真好，这么大笔钱现金，在国外FBI直接带走了 不会用点钞机？看来又是炒作，演戏而已。 强烈建议发行万元面额车票，方便消费者 总之是演戏而已，不必当真。 请告诉我什么人会有这么多现金？ 涉嫌偷税，这时候，弓按应该出来查查。 借记卡刷卡封顶21，省手续费说不通呀 这就是天朝“富人德性”！！！！ 奇葩！不是估计、我装过的，20英寸的拉杆箱紧紧地能装180万，全部是银行扎好的，超过20英寸的拉杆箱装满了，一般的男人提不动的。 明白人[不屑] 洗钱而已。国家对外汇管控严格了，贪污的钱放国内分分钟被查。洗一票。再用别人贸易公司打钱到国外，也经常发生 都是黑钱吧 有钱真好 买宝姿的衣服加100在网上卖，一个衬衫都4千，逗逼吗？ 洗钱吧！贪官家钱太多了，而且又不能存银行，不就拿现钱买东西么！ 兜里只有750元的人永远看不懂750万的猫腻。 你就是炒骗人家不懂是吗？百元面额一行理箱就二百万，这货能像你一楼扛三箱半出来？别傻了，一箱女的得了跑就是运动员了 这是厂商没有完成商场的巨额保底销售任务，自己拖现金来买自己的货。 看来中国人民站起来了都太有钱了一边高档消费一边骂祖国虐待你们纯属一边吃着娘的奶一边骂娘的畜生 演戏耶，假的耶[大哭][大哭][大哭] 这脑子不知道是怎样赚的钱，人傻钱多。 都这样明目张胆的洗钱了么[微笑][微笑][微笑][微笑] 炒作吧，现在谁还带这么多现金出门，商家承担手续费又不是客户，能买得起750万的现金，还在乎0.5%的手续费 请开始你的表演 。。 为什么是她自己赚的呢 只有信用卡千分之六的手续费不封顶。储蓄卡20元封顶，有这么多现金肯定是储蓄卡，哪来的手续费承担问题啊？20元也承担不起啊？ 呵呵几十年前一起打拼时可没说建立的是贫富差距这么大的家 奶<br>奶<br>的<br>！<br>这还看不懂！<br>不是官太就是二奶或小三！<br>百姓谁有这么多现金！ 750W赚100W，房租水电员工税加盟费每年的任务都不用管，我tm去开店？ 会不会是洗钱？ 官个锤子，就是商城的托而已，可以刷卡不刷从银行提前拿现金拖着来付款，不就是吸引眼球吗？ 这钱终于洗白了， 敢说没问题？ 贪官太太 真的假的？ 大量现金[不屑][不屑]这年头这撒比 这是厂商没有完成商场的巨额保底销售任务，自己拖现金来买自己的货。 这么大个商场没有点钞机！ 小编？记者是怎么知道的？ 为什么不换硬B去买衣服？ 有750万元不能加盟这个品牌吗？而且还是从零售店进货，这脑子怎么赚到750万元的？ 三大行理箱都装不完，女的能扛动。脑残！ 想不明白为什么不用卡买都那么有钱还在乎手续费！ 借记卡手续费20元封顶 🈶️钱人真任性 装逼，鉴定完毕 这种广告软文我看了想骂人 100万要点一个小时，这也太慢了吧！半个小时 近160斤重，不好拉 傻，这钱放家里风险，尽快处理 现在需要带这么多现金吗， 复制此消息到支付宝，即可领取最新支付宝超级红包，(最小金额5元)XfOd8I21nt，， 只因为钱不敢存银行，所以现金消费 商家跟也有协议吧，用现金的话还能再算便宜点 贪官太太 你真厉害，用消费来洗钱？ 4000的衣服增值税就600多，加100块网上买，这表字真是个大傻逼啊 真有钱 买宝姿的衣服加100在网上卖，一个衬衫都4千，逗逼吗？ 请告诉我商场详细在哪里，谢谢！ 有钱人 银行临柜从业人员750万现金我用点钞机估计操作起来要3个小时 央行不让用支付宝微信，找它们去 真没多少，两个行李箱装得下，你自己拿一万一扎的看看就知道了。 查下去，肯定能有新闻。 最烦这种假新闻，超级无聊 未必，有些偏要这么玩 看来又要烧掉几部点钞机了<br>唉<br>拿几百万的硬币去，银行说：滚！<br>拿几百万的100元……商户说：你有多少我数多少，越多越好！我不怕累！<br>这就是区别！<br>我日！ 洗钱 这是厂商没有完成商场的巨额保底销售任务，自己拖现金来买自己的货。 年赚100万，照样在乎1.2万，不是抠门什么的，就是钱该花的花，不该花的就不花[大笑] 内行👏 现金是自己印的？ 这是厂商没有完成商场的巨额保底销售任务，自己拖现金来买自己的货。 这社会就是这样了…………富裕的人更富裕，贫穷的人更贫穷。 4万块钱让你扔掉你扔个试试 😏拿750万买750万现金吗 贪官的钱自己印的？ 只有信用卡千分之六的手续费不封顶。储蓄卡20元封顶，有这么多现金肯定是储蓄卡，哪来的手续费承担问题啊？20元也承担不起啊？ 正道来的钱家里不会放这么多现金 傻逼！故意装傻博眼球？！ 笨蛋拿称称 洗钱的 真有这可能啊，不敢进银行的钱 骚年，你太天真了，我房地产行业的，经常遇到这种拿几百万现金来买房的人，我们收银员不懂事还好意跟人家说，其实你不用拿现金的，直接划卡就可以了啊，人家翻了她一个白眼。我让收银员赶紧闭嘴了。其实原因都懂，这些钱不能经过银行的，那是要留下资金印记的。 用点钞机你以为很快啊？ 我不相信啥衣服需要这么多现金购买，你就吹吧 富士康北门的艺剪坊（清湖形象店）<br>坑爹五步曲————————————坑爹的理发店<br>第一步，装热情——刚一走到门口，几个人围着你上来，那叫一个热情啊。只要你说了一句“洗剪吹”，全部人都散了……（钱少啊）<br>第二步，套关系——那个理发师（我们暂且叫他SB）会主动问你是哪里的人，但不管你说自己是哪里的人，SB都会说“哦，老乡啊”，然后会编出一个跟你同省的城市（最有可能的就是省府），让你放松警惕，开始下手宰你……<br>第三步，故意下套，让你钻——洗完头发，他会问你：“你头发有点弯，要不要梳直？”刚洗完头发，这么乱，当然要梳直啦。你中了，不是中奖，而是中了他的套套。里面的人马上又“热情”起来，两三个人会迫不及待的拿药水给你涂上，这就是钱啊……<br>第四步，“教导”你——等你发现后，店长（暂且就叫GRD吧）说这是你无知，不懂理发店的潜规则（靠，听起来怎么像圈圈里面的事），然后还教师口气的对你说，这次他“好心”告诉你，下次你就不会上当了（来他那里就是买教训的？），FUCK，强盗还讲起理来了！！！<br>第五，威逼胁迫——几个人“围着”你，然后绞尽脑汁给你“想办法、出主意”，押厂牌啊，押手机啊，“陪”你去取钱啊，真感觉自己处在Hongkong电影里<br>同仁们，希望大家记住富士康北门这个店——艺剪坊（清湖形象店）。现在我们被无数的无良商家残害，毒害、欺诈，我们这些“上帝”再也伤不起了，我们不能严惩他们，但至少可以抵制他们。 真有钱啊，美女求包养 贪官太太这么招摇，那它就是瘫痪太太 贪官的亲戚 炒作吧，现在谁还带这么多现金出门，商家承担手续费又不是客户，能买得起750万的现金，还在乎0.5%的手续费 婊子 哎， 尼玛！750万现金有多大体积！吹吧 这他么绝逼是炒作，现在去商场还有那个傻逼带那么多现金去买东西？不嫌累么？ 贪官污吏祸国殃民，狠狠举报，打击！ 有这么多钱！真的不是小三？ 4万块是洗钱的手续费 商场用的一般的点钞机速度一秒不超过5张，点一沓100张的时间在25-30秒，商场收银员又不像银行柜员的速度，1万元整理速度在40秒就不错了，100万元要4000秒=1个多小时。一个700万就是7个工时，如果同时有3个这样的顾客就是20个工时，商场几个收银加班到凌晨不是很正常？ 现金银行就管控不了流水明白？ 明白人啊 代购装逼 炒作 不会用点钞机？看来又是炒作，演戏而已。 那还不如去买房 那也不会这么明目张胆，应该是厂商为完成巨额保底任务，自己买自己的 没完成会怎么样？为什么要定任务啊？不是有进场费的吗？ 不敢放银行 这么听着就感觉土! 假新闻，纯属炒作。储蓄卡刷卡最高25元封顶 带百万现金买东西的，10有9个有问题，还有1个在装逼。我见过一老赖，开着宾利，外面欠债最少半个亿吧，身上没卡只有现金，个人名下所有账户都被冻了，存的进取不出。 明年这天可以守株逮兔。 我去，七百多万也好意思出来炫，当年我去美国买飞机，几十亿现金，不好带啊，只好先花几亿买了条船，专门把钱拉过去，后来买了几十架飞机回来，卖给了一个海南人。 神经病！ 洗钱 进场费，现在很多商场不收租了，直接按营业额百分比抽成。末位淘汰 不会是来洗钱的吧？ 醒醒，你的ViVo搬砖时压坏了，又要半个月工资换新手机了。 忽悠人的。 这是厂商没有完成商场的巨额保底销售任务，自己拖现金来买自己的货。 商场人没反洗钱培训吗 1、这么大的拉杆箱一个最多装200万。2、两小时收款1亿？客单价算5000，一亿约2万单。平均收一单需要20秒，两小时一个款台收360单，你要开约55个收款台才能收的过来。 仇富吗 实体店买的放到网上还能赚1.2百一件？什么衣服 冒掉脑袋的风险买东西，这也太勇敢了 750万的现金得有多少呀？网易新闻就吹吧，哪天把自己吹死了！ 广告 这个比较靠谱 一看就是骗人商场的骗人技法。顾客们，小心点。 刷卡手续费明明是商家承担有封顶的赚你750万还在乎那点手续费 明白人，刷卡厂家承担手续费。因为我就干过 国富民强的体现，40年前是神话。 贫穷限制了我的想象！ 按时交租就是了，还是销售任务?以前我在商场都是少报的，报多了商场会眼红到期会加租的 这个才是正解 商场给自己做广告呢 贪官太太 瞎说什么大实话[微笑] 因为买的人就是商户自己 炒作吧，现在谁还带这么多现金出门，商家承担手续费又不是客户，能买得起750万的现金，还在乎0.5%的手续费 几百万的货物和现金，不可能是这种落后的交易方式。纯属摆拍 贪官太太这么高调，是脑子有屎自己找不自在吗?[鄙视] 有故事啊 为什么不刷卡？炒作！ 点钞机一小时一百万。你好像傻 恶心的炒作！ 拆捆，机验，再打捆，<br>一小时能完成一百万，就是说30多秒完成一捆钱，绝对都是熟手级别的了 应该不会是吧，难道敢这么明目张胆，这就逆天了。 八佰伴日本的品牌，都是做代购的吧 八佰伴广告！ 不会用点钞机？看来又是炒作，演戏而已。 穿得完么？ 批发来商场，一件就赚一百多，大姐你逗我，炒作这个有意思吗？ 带七百万现金的人，不是傻逼能是啥 不刷卡，提现金来花的恐怕不是自己的钱哦 查查呗 贪官太太 炒作也得有个度吧，这样无节操…… 现金洗得更干净 爱步的一双鞋子商场平时2399店庆1350（用1500买2500的卷）然后剩下的二百还能买鞋油保养液！！天猫旗舰店双11卖2199！这生意没毛病，商场同款 买750万同一品牌衣服的贪官太太，好有想象力哦。 750万重一两百斤，这女的就是牛！！ 新年快乐 买宝姿的衣服加100在网上卖，一个衬衫都4千，逗逼吗？ 反复几次，1捆用1分钟都不多。<br>然后1楼该问了，你不会多弄几台机子啊 你的智商跟贪官太太一样的吧 洗钱 不管偷来的也好，抢来的也罢，跟我们有关系？？？ 爱步的鞋子看着确实老气～～上聊效果不一样 一部分人先富起来然后炫富给另一部分人看 有病 现在哪家公司能取出这么多现金来？税务查的严啊 这是厂商没有完成商场的巨额保底销售任务，自己拖现金来买自己的货。 不会用点钞机？看来又是炒作，演戏而已。 难以置信，呵呵。 这么多现金怎么带过去的？ 作秀吧。尼玛不作秀会死啊…… 没看到是拉杆箱 楼上两位弱智，储蓄卡刷一下不好，非要这样的大张旗鼓引人耳目？还拍视频，生怕别人不知道？贪官太太再笨也比两位聪明吧！一楼说炒作倒是有点道理，炒作一定要大家都知道！ 不会用点钞机？看来又是炒作，演戏而已。 正解 你们都没有看到点钞机？ 新年快乐 贫穷限制了你的想象力一捆一万的用验钞机起码要点2到3遍吧保证不错吧去除中间卡顿情况30秒点一万不过分吧自己算100万需要多久！ 炒作而已 呵呵 750w。两个人好像也拿不动吧…… 不会用点钞机？看来又是炒作，演戏而已。 炒作吧，现在谁还带这么多现金出门，商家承担手续费又不是客户，能买得起750万的现金，还在乎0.5%的手续费 谁手上带这么现金？黑钱吗 这都是托，你们也信 二楼反驳一楼没毛病，3楼4楼不要岔开话题！ 100万一小时，36秒一万，没用验钞机你手点试试。 廣告貼 下手目标变成拉杆箱 开门一张图，小便成小便 不会用点钞机？看来又是炒作，演戏而已。 贪官 太假了吧，除了买房子，我感觉哪用得了这么多钱?还现金 一群酸溜溜的人，人家自己的钱想怎么花就怎么花 能查查这么多钱怎么来的吗？ 没看内容吧?就是商家不愿承担刷卡费，让顾客干的……不过，这顾客也够奇葩的 查水表 钱宝网洗钱 不会用点钞机？看来又是炒作，演戏而已。 还真有可能？哪有人买东西管你商家刷卡收不收手续费的？ ",
        "Total": 11602,
        "Link": "http://comment.news.163.com/news_shehui7_bbs/D72BCEF10001875P.html"
    },
    "Article": "（原标题：“宝姿姐”带750万现金商场买买买点钞员累趴：数钱最起码数到凌晨吧）#endText.video-infoa{text-decoration:none;color:#000;}#endText.video-infoa:hover{color:#d34747;}#endText.video-listli{overflow:hidden;float:left;list-style:none;width:132px;height:118px;position:relative;margin:8px3px0px0px;}#entText.video-lista,#endText.video-lista:visited{text-decoration:none;color:#fff;}#endText.video-list.overlay{text-align:left;padding:0px6px;background-color:#313131;font-size:12px;width:120px;position:absolute;bottom:0px;left:0px;height:26px;line-height:26px;overflow:hidden;color:#fff;}#endText.video-list.on{border-bottom:8pxsolid#c4282b;}#endText.video-list.play{width:20px;height:20px;background:url(http://img1.cache.netease.com/video/img14/zhuzhan/play.png);position:absolute;right:12px;top:62px;opacity:0.7;color:#fff;filter:alpha(opacity=70);_background:none;_filter:progid:DXImageTransform.Microsoft.AlphaImageLoader(src=\"http://img1.cache.netease.com/video/img14/zhuzhan/play.png\");}#endText.video-lista:hover.play{opacity:1;filter:alpha(opacity=100);_filter:progid:DXImageTransform.Microsoft.AlphaImageLoader(src=\"http://img1.cache.netease.com/video/img14/zhuzhan/play.png\");}if(/(iPhone|iPad|iPod|Android|NETEASEBOBO|blackberry|bbd+)/ig.test(navigator.userAgent)||/safari|chrome|firefox/i.test(navigator.userAgent)&&navigator.plugins&&!navigator.plugins[\"ShockwaveFlash\"]){varstr1='<videocontrols=\"controls\"preload=\"auto\"width=\"100%\"poster=\"http://vimg3.ws.126.net/image/snapshot/2018/1/6/J/VD64IKR6J.jpg\"style=\"max-height:100%\">';varstr2='<sourcetype=\"video/mp4\"src=\"http://flv.bn.netease.com/videolib3/1801/01/sJwkH2807/SD/sJwkH2807-mobile.mp4\">您的浏览器暂时无法播放此视频.</video>';document.getElementById(\"FPlayer1404863609673\").parentNode.innerHTML=str1+str2;}女子带750万现金商场购物点钞员:至少数到凌晨吧（来源：~）window.NTES&&function(d){varf=function(c){varb=c.getAttribute(\"flashvars\"),a=c.getAttribute(\"repovideourl\").replace(\".flv\",\"-mobile.mp4\");h=d(c.parentNode.parentNode.parentNode),g='<embedsrc=\"http://v.163.com/swf/video/NetEaseFlvPlayerV3.swf\"flashvars=\"'+b+'\"allowfullscreen=\"true\"allowscriptaccess=\"always\"quality=\"high\"wmode=\"opaque\"width=\"100%\"height=\"100%\"type=\"application/x-shockwave-flash\"/>';if(/(iPhone|iPad|iPod|Android|NETEASEBOBO|blackberry|bbd+)/ig.test(navigator.userAgent)){g='<videocontrols=\"controls\"preload=\"auto\"width=\"100%\"height=\"100%\"><sourcetype=\"video/mp4\"src=\"'+a+'\">您的浏览器暂时无法播放此视频.</video>';}h.$(\".video\")[0].innerHTML=g;},e=function(b){vara=d(b.parentNode.parentNode.parentNode);a.$(\"li\").removeCss(\"on\"),b.addCss(\"on\"),a.$(\".video-title\")[0].innerHTML=\"string\"==typeofb.textContent?b.textContent:b.innerText,a.$(\".video-title\")[0].setAttribute(\"href\",b.getAttribute(\"url\")),a.$(\".video-from\")[0].innerHTML=\"（来源：\"+b.getAttribute(\"source\")+\"）\",f(b);};window.continuePlay=function(){vara,b=d(d(\".video-list.on\")[0].nextSibling);3==b.nodeType&&(b=d(b.nextSibling));if(b&&d(\".video-innerinput\")[0].checked){e(b);}},function(){vara={init:function(){if(d(\".video-listli\")[0]){d(d(\".video-listli\")[0]).addCss(\"on\"),this.eventBind();}},eventBind:function(){d(\".video-listli\").addEvent(\"click\",function(b){e(d(this)),b.preventDefault();});}};a.init();}();}(NTES);每逢跨年，商业促销都是一道特别的风景线。去年的12月31号，有一名顾客用拉杆箱装着500万现金到商店买衣服；今天，同样的景象再度出现，而且这样的顾客远不止一个。一大早，胡女士拖着两个拉杆箱来到八佰伴，箱内700多万现金，是她几天前从银行预约提取的。顾客：“带了750万，我们是安徽的，去年也买了。去年那个人是我家人，我和她是妯娌。”和去年一样,她也锁定了同一品牌的女装。营业员：“刷卡的话，我们公司要承担刷卡的一部分费用的嘛，我们建议她现金买单。”顾客：“有一部分都是我们自己穿，有一些也在网上弄一下，销售。一件衣服，我们中间赚的差价，100多，1、200块钱的样子，平均的话”某团购付款处，像胡女士这样拖着拉杆箱来买单的大户还不少。大力度促销让商场变身网店卖家的批发点。顾客：“团购团购。”看看新闻Knews记者：“大概多少呢？”顾客：“没多少，3、400万。”顾客：“买黄金吧，200多万。”超级大单满天飞，忙坏了点钞员。点钞员：“反正100万1个小时吧，起码要点到凌晨两点，不停的。”黄金柜台、化妆品、奢侈品柜台，人气满满。据八佰伴统计，两个小时的时间对外的销售达到了1个亿。而南京路上的新世界城，今天也到处可见顾客拖着拉杆箱来买东西。顾客：“从浙江舟山空的过来，满载而归。”由于销售火爆，不少柜台的营业员还来不及为顾客包装。营业员：“这个是我们一个顾客买的，因为货品比较多嘛我们就帮他封箱，一箱大概能装10双鞋，60双鞋左右。”本文来源：看看新闻Knews责任编辑：张宪超_NN9310"
}