{
    "URL": "http://sports.163.com/17/1231/03/D6V2NRHJ00058781.html",
    "Article": "网易体育12月31日报道：北京时间12月31日（周日）凌晨01点30分（英格兰当地时间12月30日17点30分），2017-18赛季英格兰超级联赛进行了第21轮的一场焦点战，曼联在老特拉福德球场迎战南安普敦，两队0-0打平，卢卡库第8分钟就受伤，上半场南安普敦逃过点球的处罚，下半场博格巴打入一球但越位。本场后，曼联44分被切尔西（45分）超越，现在排在第3名。",
    "KeyWords": "卢卡库,曼联,南安普顿",
    "Source": "Netease",
    "Comment": {
        "Reply": 1041,
        "Content": "木鸟；切尔西怎么能进5个，应该出来解释下！ 不要贬我破车的前球员好不好？卢卡库可是标王啊，马蒂奇的拦截能力排第二（坎特第一）强于费尔南蒂奥。曼联英超工资第一被鸟粪说得这么不堪，哪伯恩里的球员是不是应该回家种地了？ 感觉本季曼联应该是争四的料，切尔西利物浦热刺，还有阿四娜 哦，上赛季队内mvp埃雷拉不用，花4000w磅买别人淘汰品？眼光太毒了！ 曼联现在的问题不是阵容不强，是打弱队都丢分。而且曼联的转折点就在于打利物浦把大巴，本来球队状态挺好，被穆那么一搞球员都没节奏了。 扯，只有巴萨对马竞那一场，收费了 马蒂奇来的时候稳了几场不是还要联名感谢切尔西的么，现在倒变成切尔西弃将了？我鸟花4000w买个弃将这事，到底我鸟的眼光还毒不毒啊？哦，现在丢球数啊联赛排名让出第二了就怪后防废材了？ 五星级的酒店，那么多高端的食材，你就只会道小葱拌豆腐。穆帅大厨师，你自己收拾包袱体面离开吧。 两个零鸭蛋也是穆帅送给弗爵爷的生日礼物，这样才显得特殊。[窃笑] 别TMD装B了，你瓜爹那么牛B为何夏窗花2亿重组后防线？跑曼联版块喷你🐴个B! 第一，埃雷拉的作用确实没马蒂奇大，第二，马蒂奇是切尔西弃将有错，如果马蒂奇强为何不卖坎特？第三，你们这些喷子领工资吗？ 马蒂奇这么强居然甩锅他头上了，还说前4他最差，鸟粪能要点b脸吗？ 想想鸟粪赛季初一副小人得志的鸟样，天天咒孔蒂下课。这下好了，孔蒂追了大半赛季，终于捅爆了木🐦和鸟粪的菊花😄 马蒂奇能力非常强，拦截能力也强，开始几场很不错，后来是因为鸟的战术有问题，强行要马蒂奇背锅？ 他们风光的时候，各种嘲讽打击，现在不顺的时候开始呼吁理性客观，讨论细节，唉 想说三句话：<br>希望卢卡库没有大碍；<br>老爵爷生日快乐🎂；<br>3场平局丢了6分，曼联到底怎么了？ 鸟粪智障 烂货曼联<br>慢慢滑向666 斯特林就是个例子，在你看来也是很普通的球员，在利物浦给黑成什么样子了，现在人家在曼城进球如麻。 博格巴1e欧元就是个笑话，脚法再好智商是硬伤，和卢卡库在超级杯打皇马一样弱智 马蒂奇在曼联，马蒂奇是切尔西弃将，穆里尼奥瞎了他的钛合金狗眼；<br>马蒂奇离开曼联表现好了，马蒂奇就是内鬼……<br>木鸟说啥就是啥。 鸟吃了回扣[大笑] 打强队，一开始就摆大巴，打弱队一领先就开始打防反，以前也是鸟粪，现在真是没兴趣看下去了，踢得越来越怂了！ 和只会传中起高球的教练粉丝讨论技术！？你确定不是在搞笑！？ 这就是鸟跟鸟粪让人讨厌的地方，自己风光的时候，无下限各种嘲讽，不顺的时候怪别人都针对他 这时候还有鸟粪来洗花钱，曼联花钱不比切尔西多？花了三亿就打出这效果？估计也就鸟粪满意了，真曼联球员估计看的郁闷了。 你们跟39楼这种鸟粪有啥好争的？整楼看下来，他妈被三个彪形大汉轮他都不敢吭声，看见鸟被人质疑了一下就立马扔了妈去救鸟了～ 有一个奇怪的现象，本赛季，我办的曼联死忠会员，但是pptv收费跟不收费的场次比例大概在2：8，而西甲本赛季比赛也收费，我印象中，至今只有一场比赛没有收费！球迷还是喜欢看漂亮足球的，摆大巴收视率根本就白搭，鸟儿自己不做出改变。在国米就是他教练生涯最高光的时刻 2楼鸟粪，丁丁也是切尔龟弃将，在队内地位还不如马蒂奇，现在是18连胜冠军队绝对核心，这个又怎么解释？ 你脑子有屎还是理解能力有问题？我告诉你的是现在曼联铁打的主力后腰就是切尔西淘汰的这有问题？ 曼联是收破烂的嚒[喷水][喷水][喷水][微笑] 竞争不过就成弃将了，我还第一次听说，每人都有每人的特点。 曼联拿够保级分数，争前四又无望了，<br>所以几场平局可以了解！ 2楼的脑子有问题啊，扯的什么，毫无逻辑，就是喷。鸟粪护主，难为你了 那个辽宁的鸟粉，一口一个切尔西弃将马蒂奇，人家问你，穆为什么花钱去买一个切尔西弃将你怎不回？是穆眼瞎还是穆是内鬼？？？ 坎特来了马蒂奇竞争不了才走的，既然不强，为何还高价买入？昏庸？一点质疑鸟粪就认为是开喷？看清楚这楼是谁先暴走的吧 恭喜传中球队三连平，利物浦球迷留。[不屑] 曼联的比赛越来越没看头，pptv还要收费，还只有720p左右的分辨率，又让我起床下楼去客厅开了电视看，广电网络，4k分辨率，结合夏普70寸4k电视，舒服，但，比赛，太沉闷，看睡着了，醒来3点半。。。 6楼的朋友，你居然试图和鸟粪讲道理，不知道鸟粪的强词夺理，不要碧莲的出了名的嘛 鸟粪们的冬天不好过 作为21年曼联球迷看完比赛真心没资格说赢球，鸟叔的战术进攻简直靠蒙，防守最简单的定位球也没有布置，球员无球跑动属于罕见。鸟叔在不改变就是固步自封，等着掉出前四的节奏。 求科普，瓜的曼城有奖杯吗？纸糊的也成 三年定律恐怕又要来了 鸟粪：都喷个毛啊，现在曼联第三了，只有前两名可以喷，曼城上赛季四大皆空，只有切尔西能喷，有鸟才有切尔西，所以所有人都没资格喷哈哈。我鸟万岁万万岁。 你脑袋有屎是确定的了！既然你说马蒂奇在切尔西竞争不过坎特，而来曼联确成了铁打主力，你告诉我，我举马蒂奇例子说曼联阵容不如切尔西有错？你们不喜欢曼联还来曼联新闻下面喷你🐴个B？跟穆鸟有仇你就去骂或者去弄他或者去各方面去超过他。你说你哪样行？ 屎一样的曼联，屎一样的穆里尼奥！[窃笑] 马蒂奇的拦截能力仅次于坎特，但是护球出球能力要强于坎特 鸟粪就是好的时候叫小甜甜，不爽了就叫牛夫人 恭喜博格巴解围必进球！ 博格巴尤文弃将，马塔切尔西弃将，德赫亚马竞弃将。伊布大巴黎弃将。曼联全队都是别队不要的垃圾弃将 后腰以上的位置你告诉我前四哪个不比曼联强？就马蒂奇都是切尔西淘汰的现在成曼联铁打的主力，就现在这破比阵容，前四都烧高香了。 围观鸟迷怎么洗！[窃笑] 各位少说几句，鸟粉脸上挂不住了，已经快气疯了。 这位同学，c罗也是曼联弃将！你到底懂不懂球？[疑问] 范加尔的催眠倒脚足球也有人喜欢？ 2017英超终极之战再收一波曼城客战水晶宫剑指19连胜低调前行阿森纳有望凯旋 连胜被终结就要还了 我只知道博格巴1.2亿，卢卡库7500万，马夏尔5000万，马蒂奇4000万，姆希塔良4200万，马塔3700万。哪个身价算低的？这还没算德赫亚，现在至少1个亿身价。 就问一句话曼联净投入有没有超过3800！没有的话打成这样是可以接受的！因为孔团长球队这赛季净投入就没超过4000w所以切尔西打成这样蓝军球迷我觉得是可以接受的！ 你要搞清楚一个问题，曼城买了13个球员，曼联买了7个球员。曼城比曼联多花8000万。但是请你平均一下再看看每个球员花了多少钱？再看看买来的人评论年龄和现在的身价！最后还请你搞清楚两个问题，第一，曼城是花了不少但也卖了不少净投入并不算多，曼联只进不出！第二，工资，不得不说的问题。看看博格巴伊布卢卡库的工资。作为土豪球队切尔西曼城都只能选择低头 说不过就开始说别人是巴狗，你们根本不是曼联球迷只是穆里尼奥的狗，到处咬人 五星级的酒店，那么多高端的食材，你就只会道小葱拌豆腐。穆帅大厨师，你自己收拾包袱体面离开吧。 纵观网易英超；穆犬犹如过街老鼠，人人喊打！哈哈...大快人心！老曼联球迷的忍耐力惊人....连生姜头都看不下去了 我了个去曼城加油啊 不可否认木鸟曾经牛逼过，但是足球在进步，从瓜的打法流行于世开始木鸟的打法就淘汰了，十年前的战术用在如此曼联能成功才是对足球进步文明的侮辱！ 冬季快买人吧！ 那范二厨师呢 兵熊熊一个；将熊熊一窝！ 能把免费把博格巴送我文么？反正能力不行的球员 2017英超终极之战再收一波曼城客战水晶宫剑指19连胜低调前行阿森纳有望凯旋 木鸟怎么了 穆尼尼奥一到球员商店，所有球队的人便都看着他笑，有的叫道，“穆尼尼奥，你今天又没赢球了！”他不回答，对柜里说：“还要两个后卫，还要一个门将。”他们又故意的高声嚷道，“你一定又摆大巴了！”穆尼尼奥眼睛说，“你怎么这样凭空污人清白……”“什么清白？我亲眼看到你又被南安普顿逼平，前些日子去欺负伯恩利，被吊着打。”穆尼尼奥便涨红了脸，额上的青筋条条绽出，争辩道，“在英超打比赛不输就行了…豪门！！豪门就需要最强的大巴，就应该被吊打！”接连便是难懂的话，什么“三亿引援还不够”，什么“卢卡库还不是顶级后卫”，什么“更好的球队没赢球”，引得众人都哄笑起来，球员商店内外充满了快活的空气！ 你说的太对了，上上场比赛，菲尔琼斯带球刚过中线，马上交给另一个人，往回跑，我当时的感觉是“恶心”，如果你足球这么踢，我十五年的鸟儿的死忠也没法再看他的球了 抱怨球员呗 这傻逼裁判真的是和曼联有仇，禁区那么明显的手球居然看不见，梗傻逼的是曼联进攻到禁区内了，这傻逼居然吹哨结束，哎…… 我觉得很多人不应该带着私仇来喷，问题，每个教练都会碰到，你所支持的球队，以往现在未来，都会碰到问题！我们的问题是，为什么鸟儿现在无法重复国米时候的辉煌，为什么无法重现那时候黄金一般的大巴和犀利的反击，是球员不行？战术不行？教练不行？还是其它？ 前面鸟屎说打龟缩是因为博格巴伤了 千古奇冤范厨师 曼联这个赛季以六强最低的200次射门，最低的101次射正，打入第三多的43粒进球，效率英超第一，前场球员把握机会的能力没的说。但是进攻场面却完全没眼看，进攻跑位一塌糊涂，各种失误，难道进攻战术没有问题？责任不在鸟？ 还别说，马蒂奇是在切尔西最早被认定的内鬼！<br>摸你鸟晕了一下头，把内鬼给买过来，现在又遭殃了吧 既然你能找数据，请你去找下曼联中前场球员跑动距离和失误次数。就这几场而言，啦师傅无人防守球传出界外，姆希塔良也是。啦师傅单刀球思考人生这都是主教练教的吗？两个边后卫对方禁区打排球这也是主教练教的？ 本赛季实为英超近十几年来最惨烈的赛季，曼城切尔西利物浦前三，曼联热刺阿森纳争四…目前刚好热刺，无欧战牵挂 曼联又变成和平大使了？ 卧槽…穆养犬居然开始嫌弃曼联牌面弱…赛季初不是这样说的啊[微笑] 屌丝就爱吃小葱拌豆腐，怎么的 前面鸟屎说打龟缩是因为博格巴伤了 涨毛，哦，传球传给对手，传中传出底线，身体有接触就倒地，都是教练教的<br><br>曼城是中场好，传球准球商高，一脚出球，两边快下就行，两个边脚下活拉师傅强多了……<br>马塔在范加尔手下用好了？<br>维迪奇看起来很好是因为有费迪南德给他补位，单防托雷斯还吃了红牌<br>马夏尔在范加尔后期有表现？这个赛季为啥说这两个替补才有进球？<br>早在范加尔时期，这帮人就不行了，这个赛季曼联打的不好的时候都是老穆买的人有伤病的时候<br>你看曼城厉害，是因为都在一个体系中<br>曼联还没有进入老穆的体系，因为人未够<br>老穆的思想是重防守，这个没什么问题，瓜不要防守那买那么多后卫？曼联这个赛季的后防线因为伤病还没有试过稳定的组合<br>看过几场曼联比赛啊，就在这喷<br>佛爵爷也打过不少难看的比赛 哇靠<br>第一个这么理性的穆黑<br>说得确实有道理<br>球员很疲劳而且整体没有章法 后腰以上的位置你告诉我前四哪个不比曼联强？就马蒂奇都是切尔西淘汰的现在成曼联铁打的主力，就现在这破比阵容，前四都烧高香了。 范大厨虽然成绩不好，但至少踢的漂亮，进攻也有章法，穆鸟手里这么多好球员，废的废，坐板凳的坐板凳 想想博阿斯不值！想想博格巴不值！想想木鸟不值！ 欧联都堪忧了! 不是传中大巴队？ 一楼曼狗大蠢逼！ 哪就不说打强队了，为啥弱队也赢不了，如果足球就是单纯的比身价还好教练干啥去，你身价高但是不是我适合的球员买来干啥， 曼联球迷赛季初说我抬是保级球队，一语成谶[被黑][被黑][被黑] 我觉得鸟儿在买人方面的运气，在他国米时期用尽了，米利托，埃托奥，斯内德，卢西奥都是来一个用一个，用的很好，想想国米那年，哪个是傻大个？怎么鸟儿这些年打着打着就成了大巴了 你母那条母🐶高潮了 穆帅：时不待我啊 妈的，评论百分之90的人都是傻逼，完全是为喷而喷，没点技术含量，你们都是垃圾。虽然我也不满穆鸟，但以事论事，前场球员确实能力不行，都浪费多少机会了，速度，带球，传球，射门都差，穆鸟的防守反击很难打出来，而这帮球员脚下技术好的又没几个，配合又打不出，只有身高优势，所以只能打传中了。防守没多大问题，曼联再买一个前锋，一边锋，穆鸟的防反就回来了。 恭喜传中球队三连平，利物浦球迷留。[不屑] 穆帅自己不是职业球员出生，这个障碍他无法逾越。 真是奇葩，球员心态出问题士气低下，这个谁的锅？思路不通逻辑混乱，还一个劲地舌（luan）战（pen）群（yi）儒（tong） 作为21年曼联球迷看完比赛真心没资格说赢球，鸟叔的战术进攻简直靠蒙，防守最简单的定位球也没有布置，球员无球跑动属于罕见。鸟叔在不改变就是固步自封，等着掉出前四的节奏。 一群🐶🐶高潮了[窃笑] 🐶宰子，再叫两声给大家留点念想，怕你鸟跌撑不过明年，你就不知道去哪里找粑粑了 巴狗在这楼全集合了，曼联板块已经被傻逼们占领了。 猜一下穆鸟又要抱怨什么[疑问] 你脑袋有屎是确定的了！既然你说马蒂奇在切尔西竞争不过坎特，而来曼联确成了铁打主力，你告诉我，我举马蒂奇例子说曼联阵容不如切尔西有错？你们不喜欢曼联还来曼联新闻下面喷你🐴个B？跟穆鸟有仇你就去骂或者去弄他或者去各方面去超过他。你说你哪样行？ 穆里尼奥去哪都是乌烟瘴气 跪谢各位其他队球迷移驾曼城板块。曼联留言不要超过1000就好了，还我清净 3800就不少了，够买圣者遗物了。 赢了别庆祝，我鸟伤不起 提防你隔壁家卖火腿的王叔叔，要善于利用你灵敏的鼻子，善意提醒：你俩同一味道 能把保级球队带上冠军领奖台的涅拉利才能真正称得上伟大 又是失去了一次机会，曼联 舅服你！？ 看完全程，我是穆黑。曼联确实被裁判黑了一个点球太明显了，因为手臂上扬并且改变了球的线路，但是，这场比赛看下来感觉两边都在比谁的射门技术垃圾，南安普顿别人球员单个身价才多少，射不进去也就算了（还好今天曼联后场发挥稳定），你大曼联好歹也买了那么多牛逼球员，你有那多个机会，你怎么也浪射不进呢？唉，穆鸟在进攻方面的功力确实不太行，别梦想着还有德罗巴这种坦克式的黑又硬了，实际点多学学怎么进攻吧，好歹也是巴萨出来的人！ 尤文时期金球候选的博格巴到了曼联就成了普通货色，我也真是服气 麻烦看看球在说话，自从美国人做老板，加上C罗走后，曼联就不再是5星级了，只不过爵爷硬撑了，加上后面的引援不力，已经丢失了天赋，基本上就是一个中上游球队，跟埃弗顿这种没神马区别……就这底子，只有德赫亚是顶级的，博格巴小魔兽算高端，其他都是平庸货色。 你就是一個傻逼，鳥的球員需要技術？他需要的是黑，粗，。還技術？傻吊 马蒂奇来的时候稳了几场不是还要联名感谢切尔西的么，现在倒变成切尔西弃将了？我鸟花4000w买个弃将这事，到底我鸟的眼光还毒不毒啊？哦，现在丢球数啊联赛排名让出第二了就怪后防废材了？ 关键，现实问题是，你不可能买到现成的罗本，德罗巴这种队员了，德罗巴成就了穆鸟 传球不好，还爱倒地，楼上不要这么黑木鸟吧？<br>虽然木鸟调教出了禁区外的大象禁区内的稻草人德罗巴，球场水舞者C罗，少林水上漂佩大师，以及新秀埃雷拉和拉什福德，但是也不要黑的这么明显。<br>毕竟看架势两年都够呛了，到时候木鸟再被裁，英超还有谁能接受他？大家少了多少乐趣？ 多看点球，傻逼球盲废物鸟粪，马蒂奇可是你爹废物墓表挖来的，你是打自己的沟脸吗鸟粪 赛季初鸟粪不是把马蒂奇吹上天？穆鸟赶紧滚吧。 这么说吧，都是顶级大厨，材料自己严格挑选的，当初一道好菜惊艳全场，如今开发不出新菜，就老菜乱炖，糊了！ 666 卢卡库终于可以休息下了~不容易啊 越看越失望，已经把新英删除了。 麻烦看看球在说话，自从美国人做老板，加上C罗走后，曼联就不再是5星级了，只不过爵爷硬撑了，加上后面的引援不力，已经丢失了天赋，基本上就是一个中上游球队，跟埃弗顿这种没神马区别……就这底子，只有德赫亚是顶级的，博格巴小魔兽算高端，其他都是平庸货色。 哇我鸟买这么多人都是垃圾他是不是眼睛瞎啊😂 就看下轮鲁胖子怎么扇鸟逼脸了 我是穆里尼奥，前一场比赛平了，是因为博格巴停赛，上一场平了，是因为对手的狗屎运太好了，这场是因为卢卡库伤了。下一场平是因为什么？你脑子是不是有病，卢卡库还不能上场! 五星级的酒店，那么多高端的食材，你就只会道小葱拌豆腐。穆帅大厨师，你自己收拾包袱体面离开吧。 两个零鸭蛋也是穆帅送给弗爵爷的生日礼物，这样才显得特殊。[窃笑] 马蒂奇成切尔西弃将了？真不要脸，刚来时踢了几场好球，还猛夸值，求种像条狗，撸完嫌人丑说得就是二楼。 尼玛币，竟然有人说曼联阵容不如切尔西，卧槽，那他妈鸟这两年花了几个亿难道买了一坨狗屎？别的不说，就曼联这阵容换孔二愣子，能和曼城争到赛季结束； 某些中国人天天谩骂，讽刺…为何不亲自去鸟的推特，非死不可，或者新闻发布会去怼他呢？天天在国内论坛骂，取笑一个年薪上千万欧元的外国人，真是操碎了心…[窃笑] 看了直播，曼联踢的太保守了。进攻时人数太少，第二点基本上都是南安普敦的，又没有球员上去积极反抢，丢掉球权就知道回防，场面一点优势也没有。 马蒂奇这种垃圾球员，鸟粪当宝。 赢球你不说球员厉害了发挥好？却说你爹傻逼废物鸟粪功劳了？球员不是神寻妖教练调教，不然要教练做什么，傻逼球盲鸟粪多看点球。 来啊，快活啊！ 错,屎一样的博格巴,三分变一分. 喜闻乐见坐等鸟表下课看看还有谁要他 还好三连平的比赛都没看，不然要被气死。。 讲个笑话：鸟屎亿建联买弃将[窃笑] 不碰也可能进了…… 拉师傅踢的跟屎一样！！！ 马蒂奇这种垃圾穆鸟都敢买，活该。 一句说，扯这么多，马蒂奇是不是你爹废物墓表挖来的？回答我傻逼球盲鸟粪，现状说马蒂奇不行？哈哈 坎特刚买来，又年轻，防守又好，本来就要留他，他和马蒂奇本来就是共存的，而不是你说的因为有了坎特才卖马蒂奇，我们说的是你的逻辑感人，马蒂奇个人能力还不强吗？你看看你自己开始表达的意思，甩锅逻辑感人，站不住脚，还嘴硬，累吗？ 垃圾废物曼联穆鸟卢卡库都是垃圾废物曼联穆鸟🐦 辽宁那位作为一个合格的鸟粪和大家辩论半天也挺不容易的 你举的是 鸟粪，来来来。瓜秃子来之前你告诉我费尔南迪尼奥是个什么水平？现在是什么水平？关键在于调教 既然你能找数据，请你去找下曼联中前场球员跑动距离和失误次数。就这几场而言，啦师傅无人防守球传出界外，姆希塔良也是。啦师傅单刀球思考人生这都是主教练教的吗？两个边后卫对方禁区打排球这也是主教练教的？ 哈哈哈哈哈哈 用成哪样？你们这些喷子是脑袋都有屎？老子肯定马蒂奇是曼联的大腿，是切尔西留坎特卖马蒂奇有错？坎特的拦截能力就像以前的马克莱莱，马蒂奇还是差些。 二进切尔西成功？皇马成功？我觉得鸟粪对成功的定义很宽泛 单打名将马内萨拉赫季前都不值一个亿，鬼大爷才出一亿买这二个 呵呵鸟粪又赖球员了 你牛B，坎特不值那么多，800万人民币都没人要你满意了吧？ 妈的，评论百分之90的人都是傻逼，完全是为喷而喷，没点技术含量，你们都是垃圾。虽然我也不满穆鸟，但以事论事，前场球员确实能力不行，都浪费多少机会了，速度，带球，传球，射门都差，穆鸟的防守反击很难打出来，而这帮球员脚下技术好的又没几个，配合又打不出，只有身高优势，所以只能打传中了。防守没多大问题，曼联再买一个前锋，一边锋，穆鸟的防反就回来了。 早说过这个赛季曼联就是保欧联争欧冠的命欧冠小组出线就是夺冠了 穆鸟真的不会踢攻势足球吗？？？ 你脑子有屎还是理解能力有问题？我告诉你的是现在曼联铁打的主力后腰就是切尔西淘汰的这有问题？ 阿森纳表示争四有压力了！ 曼联拿够保级分数，争前四又无望了，<br>所以几场平局可以了解！ 博格巴1e欧元就是个笑话，脚法再好智商是硬伤，和卢卡库在超级杯打皇马一样弱智 马蒂奇这个球员拦截能力不如坎特，但是梳理求向前能力要比坎特强，有个外号叫马向前。但当时切尔西有小法组织调动，所以就不马蒂奇位置就有些重叠了。 曼联的比赛越来越没看头，pptv还要收费，还只有720p左右的分辨率，又让我起床下楼去客厅开了电视看，广电网络，4k分辨率，结合夏普70寸4k电视，舒服，但，比赛，太沉闷，看睡着了，醒来3点半。。。 作为21年曼联球迷看完比赛真心没资格说赢球，鸟叔的战术进攻简直靠蒙，防守最简单的定位球也没有布置，球员无球跑动属于罕见。鸟叔在不改变就是固步自封，等着掉出前四的节奏。 好，这朋友按事实讨论问题可以。但是有个事实你别忘记了:爵爷退休时候就想请瓜来职教曼联，被瓜拒绝了，具体什么问题只有当事人知道。但我觉得同是曼彻斯特的球队，他选择曼城是很明智的，当时曼城的底子就比曼联强，还有一个肯烧钱的老板。穆鸟接手的曼联可以说连欧冠资格都没有，那时候更是昏暗。鸟这两年花的钱买个中轴线，后卫百利，林，马蒂奇，博格巴，姆希塔良，卢卡库，而左右边后卫主力还是爵爷时期的球员。前面欠的太多了！其实我觉得曼城的丫丫踢不上主力都可惜，当初在佩工手下，很有实力吧。 你脑袋有屎是确定的了！既然你说马蒂奇在切尔西竞争不过坎特，而来曼联确成了铁打主力，你告诉我，我举马蒂奇例子说曼联阵容不如切尔西有错？你们不喜欢曼联还来曼联新闻下面喷你🐴个B？跟穆鸟有仇你就去骂或者去弄他或者去各方面去超过他。你说你哪样行？ 屎一样的曼联，屎一样的穆里尼奥！[窃笑] 大网易评论区乱七八糟，但喷鸟和鸟粪还是很团结的，只是可惜连带了曼联，和当年皇马何其相似。 活生生从曼联球迷转为曼城球迷！真的需要多欣赏曼城这样的球队踢球，看多了曼联折寿[大哭] 丁丁也是切尔西弃将，更准确的说是穆里尼奥的弃将。 真给一亿肯定卖了，一个加强版维尔贝克值一亿，笑话 赛季初还要感谢我切来着，现在这嘴角，太特么翻脸比翻书还快 你觉得亚亚很可惜？我不是曼城球迷，或许很可惜吧，但是，以图雷的水平，能在曼联踢上球吗？如果说，曼联这几年重建没搞好，欠的太多，好，不要求冠军，打强队就跪着拿分，没问题，十年河东十年河西，红军利物浦都回欧冠了，怕什么！但是。。。这真的是一众红魔球迷想看到的吗？真的是英超投入第二高甚至净投入与曼城不相上下的俱乐部表现吗？这真的还是曾经的红魔曼联吗？我只知道，别的不说，就穆里尼奥那张嘴，不知道比爵爷低了多少维度！ 后腰以上的位置你告诉我前四哪个不比曼联强？就马蒂奇都是切尔西淘汰的现在成曼联铁打的主力，就现在这破比阵容，前四都烧高香了。 本来就是双旦快乐嘛恰如其分 当替补就是弃将，转会过来就是弃将，波霸转过来是尤文弃将，卢卡库转过来是埃弗顿弃将，这逻辑感人 傻逼球盲鸟粪多看别人的评论，沟脸被打肿了还比比 2楼的傻逼球盲鸟粪，沟脸都被打肿了哈哈还意银找借口 仔细看了看这楼，只有我厂老头对穆帅是真爱啊。不给弃将还送三分。 你们都跟一个小米手机争什么！少壮不努力长大抢小米！ 鼓破任人捶，墙倒众人推。世事如此，世人亦如此 如果这球是守门员脱手那就不是越位了！ 后腰以上曼联不行？马蒂奇，波霸，马塔，梅西他娘，拉师傅，卢卡库，伊布。车仔利记就不说了，就说隔壁，丁丁是不是穆鸟弃将？席尔瓦连西班牙主力都不敢保证能比得上波霸这个法国核心？斯特里奇萨内两年前是啥样？阿昆耶苏就一定比卢卡库伊布强？要不对换个教练试试？你说主要责任在谁？ 要不要把欧洲各个球队的头牌排个队任你挑一遍？ ，。。 大哥真不越位人家解说都说了脱手后博格巴触球不越位 鸟粪和鸟一样，不敢面对，只会找一些不和逻辑的sab借口 五星级的酒店，那么多高端的食材，你就只会道小葱拌豆腐。穆帅大厨师，你自己收拾包袱体面离开吧。 卢卡库啊……这下曼联锋线就只剩老弱病残。捉襟见肘了 排名：<br>曼城<br>切尔西<br>利物浦<br>热刺<br>阿森纳<br>曼联 争四竞争对手，教授怎么可能卖给曼联 一手好牌，打的稀烂 买人不是穆鸟定的吗？阵容不是穆鸟排的吗？怎么不进球就张嘴埋怨破比阵容了？不懂，真不懂你们的逻辑。 教练，切尔西弃教练。惊，豪门竟然用别人不要的n手货 除了地域喷，这又开始喷手机了啊！网上喷子真牛。 和鸟粪讨论足球纯属对牛弹琴，它们只是一群傻逼球盲而已 希望振作起来…… 想说三句话：<br>希望卢卡库没有大碍；<br>老爵爷生日快乐🎂；<br>3场平局丢了6分，曼联到底怎么了？ 穆里尼奥原来是曼城的卧底啊，原来以为是切尔西的。让大家都别争冠了，他去争冠。结果他来个三连平，送曼城一程，另外把更大的争冠压力摔给了切尔西。 终于不用听:“排名第二.丢球第二少”的理由了。从鸟进入曼联的时候我就说了从面相看他不符合曼联的气质，他没有让我失望。曼联加油。 我觉得还是冬季把吉鲁卖给曼联吧，在破厂没位置，去曼联有那么多头球好顶，树挪死人挪活 辽宁那位作为一个合格的鸟粪和大家辩论半天也挺不容易的 zz 既然你能找数据，请你去找下曼联中前场球员跑动距离和失误次数。就这几场而言，啦师傅无人防守球传出界外，姆希塔良也是。啦师傅单刀球思考人生这都是主教练教的吗？两个边后卫对方禁区打排球这也是主教练教的？ 拉什福德那个糙逼是内鬼 足球是系统性的，就拿昨天的比赛来说，球到前场就丢，中后场当然吃力。这也是曼联德赫亚显的出色的原因。 关于现在的阵容，互换一下客观说狂人也能夺下英超锦标，但是重点是给你狂人钱你凑不出来曼城这样的阵容，你没有这样的识人本事和调教球员能力 如果没有德赫亚，别说第三，估计第五都够呛！ 用成哪样？你们这些喷子是脑袋都有屎？老子肯定马蒂奇是曼联的大腿，是切尔西留坎特卖马蒂奇有错？坎特的拦截能力就像以前的马克莱莱，马蒂奇还是差些。 怎么没有开始让挑了啊？怎么你们喷子说话都是这个不对了，赶紧转移话题吗？ 德布劳内看到越位球，散步躲球。亿欧先生博格巴，对面门神脱手的球，非得上去补一脚，哈哈哈 弱弱问下鸟粪们:寒冬的滋味怎么样？[色色][色色][色色] 2楼这脑子，马蒂奇还弱？好吧就算马蒂奇比坎特弱点，比利物浦的后腰呢？曼联踢利物浦怂的跟个保级队一样 后腰以上的位置你告诉我前四哪个不比曼联强？就马蒂奇都是切尔西淘汰的现在成曼联铁打的主力，就现在这破比阵容，前四都烧高香了。 我也是这样的想法[微笑] 木鸟；切尔西怎么能进5个，应该出来解释下！ 三场抢了三分没意见了吧？ 然后准备请范厨子还是莫耶斯来？ 同样输给曼城后，看看孔蒂再看看穆鸟，差距明显，鸟真是才尽了？ 古人云：<br>兵强强一个，将🐻熊熊一窝。<br>曼联的比赛现在基本沦为：<br>后场徳赫亚，前场全靠蒙。<br>借用某球迷的话：一堆做山珍海味的材料，到穆怨妇手里，只会弄个乱炖 意甲球迷，作为旁观者，从未觉得穆里尼奥有多牛逼，一流教练姑且能算，但是决不可能达到前五甚至前十的水平，总觉得他就是那种有点水平但是不敢面对现实那种人，只会找借口，这人真不怎么样。 确实，全场除了传中还是传中，这的看不下去看了 席尔瓦进不了西班牙国家队，斯图里奇都搬出来了!🐮!这我还跟你争论个毛线。反正瓜给个球员就能拿冠军，什么？瓜花2亿买后防？ 恭喜传中球队三连平，利物浦球迷留。[不屑] 都是后场顶，你叫他去顶错门啊？ 不要侮辱球盲，他们只是一群傻逼而已，不是球盲! 越不越位得看射门时，补射球员是不处在越位位置，跟守门员脱不脱手没关系，自己射自己补不越位 作为21年曼联球迷看完比赛真心没资格说赢球，鸟叔的战术进攻简直靠蒙，防守最简单的定位球也没有布置，球员无球跑动属于罕见。鸟叔在不改变就是固步自封，等着掉出前四的节奏。 曼联就应该大清洗一波 屎一样的曼联，屎一样的穆里尼奥！[窃笑] 三场怒抢三分，而且拖住了竞争对手的保级步伐，应该看见成功的地方。 鸟粪不只脑袋有屎，全身都是屎。 还丢6分...觉得丢分的应该是对方吧 哈哈哈，说瓜迪奥拉花2个亿重组后防，可花得值啊，而且从别的球队挖来的废柴、小妖，也统统都焕然一新了，这钱花得值啊！<br>穆里尼奥呢？穆里尼奥也没少花钱，现在是啥局面？吃回头草买回来卢卡库，伤了吧？1亿挖来博格巴，啥表现大家也都看到了吧？赶走鲁尼留下超高薪水的伊布、从大黄蜂挖来姆希塔良，一系列的操作，都是啥效果？ 哦！理论不过就都是鸟粪？全世界除了瓜🐶之外都是鸟粪是吧？这也是你们这些瓜🐶跟疯了一样西甲，英超各个版块狂喷的原因吧？瓜迪奥拉没来曼城之前，英超版块真没这些喷子。 曼联这种垃圾俱乐部，球员全是垃圾，其他球队的弃将。别的教练来早降级了。现在木鸟一人之力，力挽狂澜将球队带到前四，你们还能BB，气死我了[报警][报警][报警][报警] 昨晚我食言了，又一次熬夜看了我魔的比赛，下不为例！！ [大笑][大笑][大笑]再熬夜看球是猪！！ 这个赛季。马蒂奇41次拦截排第八，坎特32次拦截排第27。排第一的是50次拦截的蒙雷亚尔我没有说马蒂奇强于坎特，数据就是这样。就好比德赫亚73次扑救排第二，库尔图瓦40次扑救排第16，德赫亚不见得比库尔图瓦好这么多，数据体现场上表现和战术安排，大巴车就是这么个打法，自然会有这种数据。 这么看来，曼联这么折腾，还不如当初就把吉格斯扶正，最差效果也和现在差不多 切尔西踢得好是因为木底子打得好，孔捡现成的[窃笑][窃笑][窃笑] 踢的很丑陋 切尔西二队没毛病 一个黑鬼一点商业价值都没有人傻 巴萨是百年豪门气质高贵像什么斯坦福桥惨案逆转大巴黎干爹队G14闹独立套球衣皮看穿哈大嘴布教授倒贴法暴力鸟倒脚队怂恿罢训叛徒内马尔不默哀踩人头拉影球场喷水红点套餐三场五点得点最多被点最少红牌最少对手红牌最多围裁判打滚高素质球迷反力学翻转普拉蒂尼草皮绊倒点球角球没开点球没听见哨红牌门将吹哨咬人假摔点球羞辱门将队友受伤对手停攻抢球打反击客场更衣室成猪窝等都是子虚乌有百度都查不到梅西是真正的球王阳光励志正能量像什么拖鞋发布会四十秒红牌激素助长上帝之手藏门将身后等开球肘击门牙散步不防守领袖气质高薪报答俱乐部踢看台球迷窜广告牌杀机偷税子罪父偿开基金会骗善款一己之力进决赛青梅冰清安东内拉怒退国家队推裁判骂娘等等更是子虚乌有听说都没听说过萨迷梅吹们是一个高素质有教养的群体从来不人身攻击污言秽语晒父母口器官讽地域比手机不同意见会据理反驳用铁的事实证明自己的理念身为皇马C罗的球迷真的羡慕嫉妒好气好气小编您看这样说行吗求您不要派火星网友带走我的帖子了我发不出去的帖子都能出一本书了 现在的曼联中场太没有创造力，没有一点调度和配合~~实力都有，但没有一人能把中场盘活~~遇到死守打反击的队伍就不知道怎么踢了~~~ 运气不好而已<br>这么多传中没一个砸中，主要是爆炸头伤了 不要贬我破车的前球员好不好？卢卡库可是标王啊，马蒂奇的拦截能力排第二（坎特第一）强于费尔南蒂奥。曼联英超工资第一被鸟粪说得这么不堪，哪伯恩里的球员是不是应该回家种地了？ 如果这球是守门员脱手那就不是越位了！ 他们比穆鸟都厉害，只是领的五毛喷钱当误他们的教练生涯了！ 大脚转移做的挺好也不能全怪他 强词夺理也比不上你们逻辑混乱还自娱自乐，实在不行你们喷子上地域攻击。 烧了3亿，居然说。。。。。。。。。。。。哈哈，东北犭 鸟老了。<br>切尔西一手好牌打成了内鬼。<br>曼联一群MVP打成了垃圾。 好像曼联给你工资了一样 曼联肯定出问题了，赛季初不挺好的么，怎么现在一落千丈？ 大哥真不越位人家解说都说了脱手后博格巴触球不越位 五星级的酒店，那么多高端的食材，你就只会道小葱拌豆腐。穆帅大厨师，你自己收拾包袱体面离开吧。 后腰以后这些球员还可以，但是这个肖传中比阿隆索差一个级别，杨教授和瓦伦都年纪大了！中前场更是惨不忍睹，姆希塔良和啦师傅状态太差了，两人各有一次无人防守时候球传出底线。 老四呢渣叔呢…… 风紧扯呼 JJ不是被鸟淘汰的球员？在鸟收下，替补都做不了！现在呢？自己不会调教球员你怨个屌！ 六冠王球迷这么热心评论曼联新闻…… 黑马蒂奇就太不厚道了，车子买了巴卡放马蒂奇走，巴卡黑硬年轻赌未来成长性，但是马蒂奇成熟用球能力搞巴卡一个档次，其实两个都留着最好，而且马蒂奇自己也不想打替补，加上财政要平衡吧。 范大厨虽然成绩不好，但至少踢的漂亮，进攻也有章法，穆鸟手里这么多好球员，废的废，坐板凳的坐板凳 就是因为有二楼这样的煞笔球迷，才造成现在评论区的争骂不断。 拉师傅真的不提了这几场太烂了哎看的我揪心这几天新闻评论又看不下去了😂伤病太多了，不知道是不是医生不给力，整个后防主力就剩杨教授了。。 曼联最后要与抢手争夺第四名，还真不一定能赢！ 这二楼狗屎就会乱喷 马蒂奇在曼联，马蒂奇是切尔西弃将，穆里尼奥瞎了他的钛合金狗眼；<br>马蒂奇离开曼联表现好了，马蒂奇就是内鬼……<br>木鸟说啥就是啥。 曼联：南安普顿你来全面进攻啊……别不好意思 作为21年曼联球迷看完比赛真心没资格说赢球，鸟叔的战术进攻简直靠蒙，防守最简单的定位球也没有布置，球员无球跑动属于罕见。鸟叔在不改变就是固步自封，等着掉出前四的节奏。 鸟真的老了。切尔西一手好牌变成内鬼；红魔一手好牌被打烂。范加尔在时，还能提携几个年轻人，多花点时间，红魔还是强队。如今，红魔变成了烂队，MVP来了都变成垃圾了。 曼联无望[微笑] 漂亮！曼联老板和曼狗始终搞不清楚曼联自己的定位，是弗格森成全了曼联，没有了弗格森曼联就是一个普通的阴糙球队，靠买标王一直把自己当豪门。一群傻逼 打弱队也要不忘初心摆大巴 你们跟39楼这种鸟粪有啥好争的？整楼看下来，他妈被三个彪形大汉轮他都不敢吭声，看见鸟被人质疑了一下就立马扔了妈去救鸟了～ 好鸟粪你说后腰不如切尔西就听你的[微笑]那你告诉我前锋曼联比切尔西也差嘛中场呢？波霸卢卡库上周还是英超转会榜第一第二。哦还有个门神德赫亚[微笑]三亿排第三哈哈哈哈哈哈 一群🐶🐶高潮了[窃笑] 真的是，我就不明白了，这么多看球的，还评论的，居然有这么多不懂规则的，真是迷之自信！ 切尔西真不弱，莫拉塔，扎球王，佩刀， 德布劳内看到越位球，散步躲球。亿欧先生博格巴，对面门神脱手的球，非得上去补一脚，哈哈哈 怎么现在理解我的意思，又开始转移话题了？就你这理解能力我和你有继续对话下去的必要吗？我怕2018年你都理解不了！ 楼上有很多傻逼，虽然我也不满穆鸟，但你们是教练的话，这些球员给你们，你们能排什么阵容出来了？ 一点士气都没有，软绵绵的，感觉球员故意要做掉教练 那你洗地啊，拿出你的看家本领来！😂 二楼的是不是智商有问题，，， 妈的，评论百分之90的人都是傻逼，完全是为喷而喷，没点技术含量，你们都是垃圾。虽然我也不满穆鸟，但以事论事，前场球员确实能力不行，都浪费多少机会了，速度，带球，传球，射门都差，穆鸟的防守反击很难打出来，而这帮球员脚下技术好的又没几个，配合又打不出，只有身高优势，所以只能打传中了。防守没多大问题，曼联再买一个前锋，一边锋，穆鸟的防反就回来了。 唔鸠晒意见 呵呵，我压根就不需要理解你是什么意思，你说后防烂如渣就烂如渣，钱又不是没给你补强，花高价买来别队的“淘汰货”谁的锅？进攻踢不起来谁的锅？过两场该不会也可以说除了后防比不了刷，连中前场比其他球队也是烂如渣吧？ 这句话都说得出来，呵呵，虽然我不是穆粉，但范厨师的踢法比穆更沉闷。 希望卢卡库没有大碍，那一下也不是故意为之，博格巴表现差强人意，没什么可说的，一潭死水，看着揪心！ 地域攻击是网易喷子的看家本领。 曼联这球员配置还不行？？刚开始那些嚷嚷一觉醒来又是一个4:0的鸟粪们呢？ 烧了3亿也没瓜给力啊！不爽就2亿换个后防线。 博格巴1e欧元就是个笑话，脚法再好智商是硬伤，和卢卡库在超级杯打皇马一样弱智 曼联的球员还不行？？？刚开始嚷嚷一觉醒来就是一个4:0的鸟粪呢？ 第一，埃雷拉的作用确实没马蒂奇大，第二，马蒂奇是切尔西弃将有错，如果马蒂奇强为何不卖坎特？第三，你们这些喷子领工资吗？ 他已经给曼联带来了巨变，球员都用废了，精气神都打没了 围观鸟迷怎么洗！[窃笑] 东北犭，花了三四亿，你居然说阵容还比不过其它的？<br>你要知道，你们葡萄牙标纸可是同期花钱最多的辣鸡耶<br>人家瓜子花了很多钱但那都是租借到西甲赫罗纳用的 对穆鸟有点失望，下个伤的估计是马蒂奇了 联妹还是去争四吧 哥们，按你这么说，补射就不存在越位，你看这么多球，补射越位你没见过么？ 不懂球还敢来评论，还这么自信？我真的醉了.谁给你的勇气？梁静茹吗？ 马蒂奇刚来的时候怎么嘲笑切尔西的？鸟叔真厉害，把人家冠军主力都挖过来了，切尔西连马蒂奇都卖，现在马蒂奇成弃将了？？？ 开始抓内鬼喽！ 别TMD装B了，你瓜爹那么牛B为何夏窗花2亿重组后防线？跑曼联版块喷你🐴个B! 舅服你！？ 后腰以上的位置你告诉我前四哪个不比曼联强？就马蒂奇都是切尔西淘汰的现在成曼联铁打的主力，就现在这破比阵容，前四都烧高香了。 还吹至少是第二了不？ 辽宁小米鸟屎狗，冬天难熬啊！满嘴强词夺理的概念！麻烦鸟屎们智商提高点点，行吗？ 那终场前平了伯恩利的某连球员怎么办 别一口一个鸟粪，你前面是讨论球，后面带句鸟粪有意思？按现在球员状态和实力，我觉得切尔西最强!当然曼城信心现在爆棚是从干掉利物浦开始的，赛季初也是踢的便秘一样。单论实力，如果科斯塔还在切尔西，加今年的莫拉塔，和曼城还是有一拼。这就是球队真实实力，现在的曼联拼阿森纳都费劲，之前赢那场绝对是运气好而已。 这栋楼为喷而喷吧，马蒂奇年龄大，再过一年状态下滑就卖不出好价钱，切尔西放手给补腰的曼联，转手买更年轻的巴卡约科（至今发挥很一般），竟然就把马蒂奇说成没用的弃将了，该是怎样的结合才能诞生那般惊天动地的脑瓜，又是多么勇敢才将其献美于世人（我们很喜欢你的表演），心疼马蒂奇。 😯 卢卡库、博格巴被高估 曼聯球迷看完比賽其實也就總結那麼幾點吧：拉屎福德難堪大用。這三場表現實在太差了，馬夏爾應該給首發。曼聯缺邊路爆點和無球跑動的前場，經常站着踢，進攻容易打不動，曼聯需要把阿森納的646組合弄過來才行 马桶排第几？ 其实英超真实的表现就是这样，没有谁稳赢谁，之前切尔西连番被一球未进的水晶宫干掉，被西汉姆联干掉，阿森纳利物浦也各种爆冷，这个赛季曼城太tmdbug了而已，阵容超脱出来了 踢好看一点平还无所谓，关键是踢了跟大便一样臭。 铁血大巴又翻车喜大普奔啊哈哈 还是把曼城全部买过来吧！一定要带上瓜秃 平局，平庸的比赛，赛后又要埋怨不公。真心爱你不容易。五星酒店小饭馆的味道。 自从输给曼城，状态和心气太差了 教授心里一紧：[不屑]又来一个争四的。 深夜踢了场0:0，对得起球迷吗？ 既然你也说了我联，那你跑曼联新闻下面BB你🐴了个B？ 黑鬼只能去跑步、打个拳击这种运动 还是把曼城全部买过来吧！一定要带上瓜秃 木鸟定位球肯定是有布置的。缺点是进攻套路比较单一了点，都是起高球，对手摸透了，就防高球。加上一个高点一个头球还可以的伤退，所以进球更难了。 黑子们全家爆炸 有人给穆里尼奥算过命。四个字，晚节不保。 哈哈哈你联都特么好弱行了吧，用的别人淘汰的不知道是圣徒的多少倍，三联平好优秀 利物浦马上就追上来了。 打强队，一开始就摆大巴，打弱队一领先就开始打防反，以前也是鸟粪，现在真是没兴趣看下去了，踢得越来越怂了！ 你心疼与否，有坎特在马蒂奇就是坐替补席，这就是差距，懂吗？还有我说就的是就算马蒂奇在切尔西当替补的料，来曼联也是大腿级的。这就是两个球队实力的差距。这也是当初巴萨为什么卖小法，佩刀，桑神到其他球队都成觉对主力是一样的。今年皇马实力弱了，但前两年能连得欧冠，也是因为球员实力太强了，J罗，莫拉塔都是替补的球队。 😯 丁丁当年在穆鸟手下千年饮水机人员，后来被清理卖去德甲。穆鸟千年以来用球员就是黑又硬，或是高大硬，他不会用技术型和球商高的球员，执教理念早过时了。不改变注定失败！ 楼上伪装得好啊😄 键盘侠太多了，不喜欢曼联也来留名骂。多评评球本身。不喜欢就滚啊，犯贱 😯 二楼的是不是智商有问题，，， 虽然我不是曼联球迷，但我印象里的曼联是支有豪门气质的球队，现在搞得像个怨妇似的 二楼的是不是智商有问题，，， 😯 打得啥玩意呀……拉师傅最近打得像坨屎，卢克肖横穿就没传出去过，感觉又回到范厨那会了 穆鸟已经江郎才尽了，毕竟不是科班出生，那一招鲜不可能再吃遍天了。 有意思!第一，德甲球员出来不适应其他球队的多的是!不用说德甲，曾经的阿根廷贝隆到曼联也不适应，法尔考，德佩等等，现在去其他联赛踢的风生水起，你能说曾经的爵爷不会用？第二，既然你们觉得鸟是垃圾，想换教练，我请问你这个懂球的。换哪个可以重建？现在曼联的实力和排名比起莫耶斯和范加尔时期差吗？第三，我为什么骂有些瓜迪奥拉球迷，因为他们搞的所有曼联新闻下面都没发看。 妈的，评论百分之90的人都是傻逼，完全是为喷而喷，没点技术含量，你们都是垃圾。虽然我也不满穆鸟，但以事论事，前场球员确实能力不行，都浪费多少机会了，速度，带球，传球，射门都差，穆鸟的防守反击很难打出来，而这帮球员脚下技术好的又没几个，配合又打不出，只有身高优势，所以只能打传中了。防守没多大问题，曼联再买一个前锋，一边锋，穆鸟的防反就回来了。 35楼的兄弟这问法有问题啊，但凡晚有点脸的能当鸟粪！？ 博格巴1e欧元就是个笑话，脚法再好智商是硬伤，和卢卡库在超级杯打皇马一样弱智 恭喜传中球队三连平，利物浦球迷留。[不屑] 草泥马，赢一场这么难？！ 踢什么逼玩意，曼联本赛季的目标很明确了，保住前四。 作为21年曼联球迷看完比赛真心没资格说赢球，鸟叔的战术进攻简直靠蒙，防守最简单的定位球也没有布置，球员无球跑动属于罕见。鸟叔在不改变就是固步自封，等着掉出前四的节奏。 既然你说你是曼联球迷，我问你一句，马蒂奇和坎特同样价你要哪个？还有马蒂奇是在切尔西打不上主力走的，不是弃将是什么？既然评论里这么多牛人，我问你现在除了穆鸟还有谁敢接盘现在的曼联？你说哪个行？ 不把穆里尼奥换掉！曼联永无出头之日！ 来中超！穆大叔，我知道你可以的！来中超，年薪世界第一！ 鸟粪一护主谁都敢喷！ 最主要以前英超版块没这么多喷子!现在怎么这么多喷子，简直没发看。以前阿森纳亨利，皮雷，兵王子，维埃拉这些球员时期踢曼联也很容易。那时候评论区也没这么多喷子。 😯 姆希塔良的信心和状态彻彻底底崩塌了....唉 确实<br>聪明人都做巴🐶 妈的，评论百分之90的人都是傻逼，完全是为喷而喷，没点技术含量，你们都是垃圾。虽然我也不满穆鸟，但以事论事，前场球员确实能力不行，都浪费多少机会了，速度，带球，传球，射门都差，穆鸟的防守反击很难打出来，而这帮球员脚下技术好的又没几个，配合又打不出，只有身高优势，所以只能打传中了。防守没多大问题，曼联再买一个前锋，一边锋，穆鸟的防反就回来了。 前几轮出来洗地的可都不见了哦 后腰以上的位置你告诉我前四哪个不比曼联强？就马蒂奇都是切尔西淘汰的现在成曼联铁打的主力，就现在这破比阵容，前四都烧高香了。 666，鸟粪怎么都有理 对曼联越来越失望了 赶紧滚吧，作为一个鸟迷我也忍无可忍了，真的像一个怨妇 笑死爹费尔南迪尼奥这么多年了没见你喊过强啊曼联后腰可是好评如潮的马蒂奇和博格巴你居然有脸说哈哈哈哈 各位少说几句，鸟粉脸上挂不住了，已经快气疯了。 不是曼联新闻，而是除了巴萨，曼城，煤球王新闻，其他新闻都没法看 ",
        "Total": 14966,
        "Link": "http://comment.sports.163.com/sports2_bbs/D6V2NRHJ00058781.html"
    },
    "PublishTime": "12/31/201703:28:36",
    "Title": "英超-卢卡库伤退曼联0-0南安普敦 3连平跌至第三_网易体育"
}