{
    "Article": "（原标题：快问快答！哈里王子提奇葩问题奥巴马神回复）哈里王子采访奥巴马。（BBC视频截图）海外网12月29日电近日，在英国广播公司（BBC）《今日》栏目中，哈里王子充当主持人采访美国前总统奥巴马，两人相谈甚欢。节目中还安排了快问快答环节，气氛十分愉快，这也是奥巴马卸任后的首次公开专访。那么哈里王子究竟向奥巴马提了哪些问题呢？据BBC中文报道，在快问快答开始前哈里王子说道，“现在请回答以下几个‘严肃’的问题，要非常快地作答。”奥巴马欣然答应。哈里问：“喜欢电影《白宫末日》还是《白宫陷落》？”奥巴马答：“两部我都没有看过，所以没办法选择！”“那就选《白宫末日》吧。”哈里王子说道，奥巴马表示同意。哈里问：“喜欢电影院还是保龄球馆？”奥巴马答：“电影院。”哈里问：“选择平角内裤还是三角内裤？”奥巴马拒绝回答，哈里王子笑笑继续提问。哈里问：“喜欢球星勒布朗·詹姆斯还是迈克尔·乔丹？”奥巴马答：“乔丹。虽然我也很喜欢詹姆斯，但我毕竟来自芝加哥。”哈里问：“喜欢歌手艾瑞莎·富兰克林还是蒂娜·特纳？”奥巴马答：“艾瑞莎最棒！”哈里问：“喜欢（美剧《老友记》中的）瑞秋还是莫妮卡？”奥巴马答：“我喜欢瑞秋。”“好吧，我不会告诉莫妮卡的。”哈里王子补充道。哈里问：“喜欢女星金·卡戴珊还是科勒·卡戴珊？”奥巴马答：“这个问题跳过。”BBC视频截图哈里问：“喜欢哈里还是威廉？”奥巴马答：“现在是威廉！”哈里王子听到答案后笑着继续提问。哈里问：“喜欢电影《泰坦尼克号》还是《保镖》？”奥巴马答：“《泰坦尼克号》。”哈里问：“喜欢美剧《金装律师》还是《傲骨贤妻》？”奥巴马答：“当然是《金装律师》！”哈里问：“喜欢香烟还是口香糖？”奥巴马答：“现在是口香糖了。”哈里问：“喜欢白宫还是白金汉宫？”奥巴马答：“我选白宫，因为白金汉宫应该需要花很长时间来除草，好多地方要保养。”哈里问：“喜欢皇后乐队（QUEEN）还是英女王（THEQUEEN)？”奥巴马答：“英女王。”“这个答案很好。”哈里王子补充道。哈里问：“喜欢男星巨石强森（THEROCK）还是克里斯·洛克（CHRISROCK)？”奥巴马答：“两人我都喜欢。”哈里问：“喜欢玩滑水道还是跳滑步舞？”奥巴马答：“滑步舞，这是我那个年代的。”哈里问：“假如你只剩下5美元，会选择买一个汉堡还是买一张彩票？”奥巴马答：“那要看汉堡好不好吃，我喜欢吃好吃的汉堡。哈里王子和奥巴马的对答在网上引起不小关注，众所周知，哈里王子与奥巴马之间私交良好，而奥巴马是否会参加哈里王子于明年5月举办的婚礼，也成为媒体和民众关注的热点话题。近来有英国媒体报道称，哈里王子有意邀请奥巴马夫妇出席自己的婚礼，但英国政府却担心此举会惹特朗普不高兴，请求哈里王子能够放弃邀请。而哈里王子也回应称，自己和美国女星梅根马克尔的婚礼嘉宾名单尚未确定。本文来源：海外网责任编辑：李天奕_NN7528",
    "PublishTime": "12/29/201716:25:11",
    "URL": "http://news.163.com/17/1229/17/D6RCI5MK00018AOR.html",
    "Comment": {
        "Content": "感觉自己对美国总统的了解比对自己公司领导还要多… 好随和的前总统！ 美国的是透明的，本国的是神秘的 这就尬了 有血有肉的一个人，记住！这个“人”字，不是谁都够格。 奥巴马很有素养，不从政就不炎症，很少露面，就像消失一般，不像别的总统，给个赞 卡戴珊哈哈哈，说哪个都不对，米歇尔正瞪着他呢……😂😂 z客恨不得每家都去光顾一次，做希望你这么想了 这小子脑子很快 这脸打的[狗] 机智而幽默 奥巴驴应该说其实我喜欢母驴 感觉自己对美国总统的了解比对自己公司领导还要多… 好随和的前总统！ 美国的是透明的，本国的是神秘的 王子的后脑勺……秃了，果然 这就尬了 有血有肉的一个人，记住！这个“人”字，不是谁都够格。 奥巴马很有素养，不从政就不炎症，很少露面，就像消失一般，不像别的总统，给个赞 薇薇姐不一定要贴奇葩的标签啊或者说不一定只贴这个还是超感激薇薇姐在节目中带来的新奇观点很多看问题的新鲜角度不一定合心意但耳目一新眼前一亮常常就已足够啦 z客恨不得每家都去光顾一次，做希望你这么想了 黑奥是目前为止白宫里没有丑闻的总统；大嘴的性丑闻多得令英美三观正常的人民都厌恶！ 这小子脑子很快 这脸打的[狗] 卡戴珊哈哈哈，说哪个都不对，米歇尔正瞪着他呢……😂😂 机智而幽默 奥巴驴应该说其实我喜欢母驴 ",
        "Link": "http://comment.news.163.com/news2_bbs/D6RCI5MK00018AOR.html",
        "Total": 218,
        "Reply": 15
    },
    "Source": "Netease",
    "Title": "哈里王子问奥巴马\"喜欢哈里还是威廉\" 奥巴马:威廉_网易新闻",
    "KeyWords": "哈里王子,奥巴马,威廉,哈里"
}