{
    "Article": "（原标题：户籍不在本村，“外嫁女”回村盖房妥否？镇政府：属违建将查处）户口不在本村，“外嫁女”刘某香以祖辈在三角湖村居住为由，要在现已不存在的老宅上建房，挖地基时侵犯到周边住户利益，遭到邻里投诉。日前，惠州市惠阳区平潭镇就此作出调查，该镇党委委员、政法委副书记陶志伟表示，刘某香并非该村村民，不能享用该村的集体土地资源，其行为属于违建行为，将依法查处。陌生人在村里盖房，侵犯村民集体利益三角湖村村民刘浪波反映，刘某香在建房子位于他家老屋旁边，他们多数村民根本就不认识刘某香。直到今年11月底，他才发现有人在他家房后盖房，且挖地基时破坏到了他家房子的地基，引起外墙脱皮、出现细小裂缝等问题。刘某香现建房子的外墙，距离他家的外墙，最近距离还没有成人皮鞋的鞋底长，已经严重侵害了他家利益。另据刘浪波介绍，经打听，他才知道刘某香的祖辈生活在该村，现在其亲属也不在该村了。如此状况，回村盖房还得到了村组干部盖章同意，严重侵犯了村集体利益。在周边几户村民提出异议后，对方还威胁他们，对此他才予以实名举报。85岁的村民刘好介绍，新中国成立之前，刘某香的祖辈确实在该地块有一间房子，还有一间很小的杂货间。目前，刘某香所建地块，已经严重超出了其祖辈房子的地基范围。承建方：当事人祖辈生活在该村，是在老宅基地上建房据悉，该栋房子的承建商叫刘某新，是三角湖村的村代表。刘某新介绍，他是受刘某香委托建设该房子的，刘某香在其祖辈房基上建房子，谁也管不了。记者试图通过刘某新对刘某香进行采访，刘某新称，他没有刘某香的电话，刘某香也很少到工地来，他只管建房子，谁也别想阻止他的建房行为。虽然平潭镇城管执法人员已经责令他停工，他已经决定进行复工。村组干部：按照民俗，已盖章同意其盖房三角湖村是一个村组，属于大村新圩。新圩村委书记、主任钟伦辉介绍，根据当地的习俗，在外赚到钱的本村村民，回村里在老宅基上建房，村委本身是持支持态度。对于刘某香的具体情况，他也不是很清楚，需要三角湖小组的村组干部才能解释清楚。而据三角湖村村组干部介绍，根据他们调查，刘某香是该村小组原居民，在三角湖村小组河边拥有5间旧房，现因需要回乡养老，需在原旧房拆建，并无占用其他人地方。村组两级还就此出具了证明，并有10多位村民签名证明情况属实。据目测，刘某香现建房屋的地基面积约有150平方米。刘浪波认为，即便村组干部出具证明属实，由于以前村居房子占地面积都很小，一间只有10多平方米，刘某香现建房屋地基面积也远远超过了其祖辈5间房的实际地基面积。镇政府：非本村村民，不得享用村集体资源平潭镇党委委员、政法委副书记陶志伟介绍，对于刘某香建房事宜，该镇城管执法人员已经做过调查。根据调查情况，刘某香的户口确实不在三角湖村，在建房屋没有办理报建手续，属于违建；刘某香非该村村民，也不能享用该村的集体土地资源，接下来，将依法查处。目前，该事件仍在进一步处理中。本文来源：南方都市报作者：郭秋成责任编辑：王征_NN7526",
    "PublishTime": "12/30/201708:59:00",
    "URL": "http://news.163.com/17/1230/09/D6T3LAN0000187VE.html",
    "Comment": {
        "Content": "父母资产子女享有继承权，女儿就不能继承么？ 村盖房，村干部还得盖章。北京有违章建筑20多年了，村干部就是没看见。多么奇葩的事情。 我那老家，田地都荒废了，小学剩最后一户人家小孩上完就要撤销了，你TM的人多地少？你是装瞎的还是收钱的？ 不让盖，但是买是让买的 计划生育宣传的时候，口口声声说：生男生女都一样，女儿也上传后人。。。<br>你们TM翻脸比翻书快啊。 按风俗来说，广东女人嫁出去后没权利回娘家分财产，除非家里没男人👸 记着我们保卫的是70年产权 老宅，只有继承权。只能装修，不是本村人，压根就没有资格推倒重建。<br>这个人，盖楼的地，肯定是违法的。你们高潮个啥 女儿有权继承父母所有财产 可以回原籍，但是不能是农村户口 6楼哥哥说的在点子上。给盖章的这位不说有没有拿钱吧，好处肯定是得了 我们村上最豪华的房子他们的主人基本都是仆人 不信天地、鬼神、报应的一群垃圾！ 只是利用愚民罢了，过河拆桥而已…… 你真傻逼，农村喔个建房子不是这样的？ 出嫁就没继承权！这才是宇宙第一国家！ 这是有钱，买通了村干部。全国都一个样。村里稍微有点势力的，什么盖房，迁户口，给村干部点钱都能办。不给钱，在村里再没点势力，村干部各种刁难，不给办。 计划生育的时候不是说生男生女都一样女儿也是传后人吗？怎么现在女儿外嫁就不能回来在老宅盖房子了？ 它们才几年？？ 1、3、4是懂法律的理性人，2楼是不懂法的流氓无产者，这篇文章作者故意起这么个名字，就是想激起2楼这样的流氓无产者的支持。 可以维修，不可重建 回不了的，最多在乡镇搞个什么街道，读大学迁走的，还有什么乱七八糟的，都落那，村里你是想都别想的！ 即使是祖上的地，好歹也留点路给村民走啊，方便自己也便利村民，挖到别人家墙角了，用尽自家的地，到时排水就排到别人家了，确实很不地道 华侨移民外国了…户口也不在，他们是不是没有权利回老家盖房？人家祖辈的房子，你有权利没收？ 这个郭嘉真好[鄙视][鄙视][鄙视] 拜神不专业，从上往下拜，保证没事！ 早晚呵呵呵的事[微笑][微笑] 你说违法就违法 他妈的，计划生育时是否可以说女孩是嫁到外地的，可以多生几个？ 我们去你家土地上建好不好？照你这意思，全部会农村建房，50年前几个人不是农民？ 哈哈。全国现在男女都一样。宅是人家的。人家祖宗也是这村的。这样就不是村的人？出国都不是华人？ 确实没有了，中国不承认双重国籍，你两边好处都想占。说什么祖祖辈辈，往上追溯500年也不是你们家的。想要把户口迁回来。 这就是你们当初打土豪分田的初衷吗？只要有后代，宅基地都应该享有继承权，所谓户口不在村里不让建，纯属扯淡！ 我还土生土长一直居住在此，地基照样被没收了。敢不服？ 柚子公主要出嫁了吗？你看我怎么样？💁 应该能回去，户主还健在的话，只是恢复不了农村户口，你的那一页会清楚的打印上非农。我远嫁到农村，户口迁到我公公户口本上，我的那一页是非农，好奇葩呀！ 世纪大泡沫要完 没计划生育农村早就成人间地狱了。为什么农村盖房起纠纷垄地起纠纷动不动打打杀杀，不就是因为人多地少。 这种产权制度可笑至极，自古未有 那就尴尬了，离了就去城里买房吧，老宅已锅嘎的啦！ 宅基地不算父母遗产，是本村户口福利，有户口就享受，没有就跑哪跑哪，就像北京户口，有就各种福利，没有打一辈子工也得回原籍 关键是，这个女的村里人没人认识，而村干部却落力的帮他想方设法的建房子，即时被下令停建了还敢对抗复工。这才是重点。这干部得收多少好处才会有这么大胆子和热情帮一个不认识的人干这种违规的事！ 外嫁女离婚了，户口能回原籍吗？（婚前农业户口，婚后非农） 傻逼言论！如果房子盖在你家旁边，你就不这么说了！ 肯定不能，我就是这个情况，不仅回不去村里一切福利都不再享受。就算我父母不在了，他们的房子我也只能居住，不能重建。 应该捐钱给村里修路建学校然后下面的事就好办了……村干部 土地所有权是谁的？没搞清楚？ 一群不懂土地法、纯粹对国家不满的傻逼在这里讨论。凡是你自愿放弃本村户籍的，你就随之放弃了作为该村村民的权利，别成天为了喷而喷 华侨国籍还是中国？你搞笑 计划生育宣传的时候，口口声声说：生男生女都一样，女儿也上传后人。。。<br>你们TM翻脸比翻书快啊。 村盖房，村干部还得盖章。北京有违章建筑20多年了，村干部就是没看见。多么奇葩的事情。 老宅，只有继承权。只能装修，不是本村人，压根就没有资格推倒重建。<br>这个人，盖楼的地，肯定是违法的。你们高潮个啥 这都管 使劲争田地，以后没人了 城中村吧，看看西安城里那些城中村，密密麻麻的都盖10来层，隔成小间出租，街道3米宽，街边好多站街女！这么密布的房子，说难听点着火了只能看着烧！ 现在全国又有很多地主了，需不需要打个牌 娘的，政府什么时候在农村规划过房屋建设。 不能 狗屁规定，女的不是子女啊， 咳咳，建国以前，那是蒋委员长的章子，现在嘛…… 土地是国家的，村集体有使用权，个人通过集体批准就可以使用 那就尴尬了，离了就去城里买房吧，老宅已锅嘎的啦！ 官员们…… 这要看那块地基的所有权。如果所有权是那女的的，不管户口在哪里，人家都有权盖房。 按政策是允许签回去的，但是户口性质不能变了 出嫁就没继承权！这才是宇宙第一国家！ 西北风都是国家的 收藏 …… 成本。 那皇帝爱新觉罗一家，是不是能要回皇宫，那是他们祖产了 确实如此。 我们上供都不能，全村几百双眼睛盯着。户口都是冻结的，只能继承翻新，不得建新房。我老家还是🈵️公平的，以至于全村没有任何违建。 是不是中国要看需不需要捐款 就算是本村人，建房也不能想怎么建就怎么建， 户口不清楚，不过我同事妹妹离婚回家后，正好碰到拆迁，也分到了一套房 回不了 本来土地法就规定不能继承的，没什么好洗的。觉得不公平？谁叫你上两辈推小车？ 那请问宅基地指的是地还是房子？ 华侨移民外国了…户口也不在，他们是不是没有权利回老家盖房？人家祖辈的房子，你有权利没收？ 再建不行啊？那些华侨的怎么能建。 你说不建就不建？偏偏要建。拆了再建，是不是礼没有送到哦，我怀疑 这个郭嘉真好[鄙视][鄙视][鄙视] 拜神不专业，从上往下拜，保证没事！ 还不如斗地主那年代 如果当地派出所不接收，你还是迁不回去的。你只能挂户你前夫家。 你说违法就违法 能回原籍，但是不能变为农业户口，户口非农户 请各位易友注意，网易评论区已有一群长期受境外NGO资金资助的轮子盘据在各大门户网站带节奏。它们特别点是任何新闻都采取攻击、嘲讽、影射或各种阴谋论等形式带节奏走极端。请各位易友注意！ 哈哈。全国现在男女都一样。宅是人家的。人家祖宗也是这村的。这样就不是村的人？出国都不是华人？ 确实没有了，中国不承认双重国籍，你两边好处都想占。说什么祖祖辈辈，往上追溯500年也不是你们家的。想要把户口迁回来。 不是有个口号是，生男生女都一样？ 法律上规定的 裂缝不像是新的[疲惫] 没必要讨论中国不承认双重国籍这个事情了，外国人只要取得永久居留权，除了没有选举权，其他权利几乎和中国所有正常公民完全一样了，更何况选举权对于普通人几乎是可有可无的。 只要房子还在，就是你的，不管你到哪，但一旦不存在了，那肯定就没有了，倒不可能没收 [喷水] 这是扯吧 请各位易友注意，网易评论区已有一群长期受境外NGO资金资助的轮子盘据在各大门户网站带节奏。它们特别点是任何新闻都采取攻击、嘲讽、影射或各种阴谋论等形式带节奏走极端。请各位易友注意！ 大家醒醒吧， 你长的帅说啥都是有理的 ctm 这女的估计也不是什么好东西仗着村里有关系就把侵占邻居的利益并且家里都没人户口在这里不准建很正常凭什么要让你占据大家利益如果以后村里拆迁是不是还要赔偿？按照这种理论我是不是也可以到我父辈的村里去要田地？ 外嫁女离婚了，户口能回原籍吗？（婚前农业户口，婚后非农） 这么说来你家原来是地主？ 如果原来的老房子还在，可以继承，改建得获批准。如果老房子已经垮塌，宅基地自然还回村集体，不能再新建 土地是国家的，江山是咱老百姓帮他们打的。其实你啥都沒有，知足吧。 好吧，自己家的地方说没就没了 父母资产子女享有继承权，女儿就不能继承么？ 户口已经迁走不能回村盖宅基地 你想的太多了，真有这么好糊弄，也不会那么多华侨的耕地不能确权了。我就是在晋江做土地确权的，有的村子华侨有几千人，户口转走的一概不能确权。 方方面面的关系不走通就强行建房这后果只有自己承担了！ 现在是农转城可以，城转农想都别想了 华侨移民外国了…户口也不在，他们是不是没有权利回老家盖房？人家祖辈的房子，你有权利没收？ 楼上说的对，集体土地不能买卖的，私下卖给你然后你造房子，或者他集体土地造的房子卖给你。签了合同都没用，因为是无效合同！一般情况下没事，但是涉及到钱了，特别是拆迁等问题上，如果原房东反悔了马上起诉你，合同无效，等着哭吧，赔你原来款项加点利息，对拆迁来说利息才几个钱，而且钱在贬值，以前的钱值钱！所以千万不要买集体土地的房子，房产证办不出来的，土地证也办不出来 有枪🔫才是真理。 可以回原籍，但是不能是农村户口 招商时候怎么对待？领导？人家祖籍在， 很简单中国不承认你双国籍，除非你注销国外的国籍，否则你还真没办法回来盖房子，有时候别说盖房子，你就是回国也不可能。 这村干部得收了多少红包，才会这么力挺一个老家一个亲戚都没有的外嫁女回来占地盖房子。而且还敢跟政府对着干。你们说，现在村干部要不收当事人的好处，哪有这闲情帮你干违规的事！ 要是国民党回来要房子那还得了 目前政策肯定是不能了 太原摄乐村盖的村民安置房都卖给外地人本村村民住不上在外面租房子谁来管 有房子是不能直接没收的，关键是没房子了。原来宅基地是村集体的，你一个不是本村户口的凭啥享受 人家祖辈在村里住，嫁出去了就轰走了吗？还有被政府利用农转非骗走土地和宅基地的人怎么办？你政府不能这么黑吧？让人活吗？ 法盲，移民了都没国籍还想回来建房？ 说得对！国家曾经专门针对这个问题做过处理！ 计划生育的时候不是说生男生女都一样女儿也是传后人吗？怎么现在女儿外嫁就不能回来在老宅盖房子了？ 要自己迁户口的，要不一辈子都是娘家的 宅基地不算父母遗产，是本村户口福利，有户口就享受，没有就跑哪跑哪，就像北京户口，有就各种福利，没有打一辈子工也得回原籍 不能，在在城里找个吧！房子分了你多少钱，可以付个首付在买一套 看仔细，超出地基了。我就是农村的，现在的农村人就爱占便宜，早没了以前的纯朴。盖房子能多占一公分是一公分，恨不得盖到路上，导致现在农村大多数路都比较窄。 呵呵哒，不评论 祖宗粉底都给你刨了哪还有祖宗？什么都是国家的你要记清楚！！！ 回不了的，最多在乡镇搞个什么街道，读大学迁走的，还有什么乱七八糟的，都落那，村里你是想都别想的！ 即使是祖上的地，好歹也留点路给村民走啊，方便自己也便利村民，挖到别人家墙角了，用尽自家的地，到时排水就排到别人家了，确实很不地道 三楼，你在网上搜下卖宅基地的，不受法律保护，无论过多少年，原来卖的户说让你滚直接打官司，都是合同无效，尤其拆迁时候，这种事最多 太不公平耶，外嫁女人也有份耶[大哭][大哭][大哭] 土地公有制，这官司没法打。 上学期间户口迁出去了变成了非农，我还能盖么？ 当年鬼子都没敢这么说 你说违法就违法 没有关系不好回农业户口，，，很难，，， 我们去你家土地上建好不好？照你这意思，全部会农村建房，50年前几个人不是农民？ 可怜啊，居然连脚下一寸土地都没有。 法就是它们订的 一些傻逼就是喜欢天天歪扯，自己又没那个能力。国有国法家有家规。谁坐天下谁说的算，要怪只怪你大爷当初咋不跟着一起闹拿个从龙之功 怎么没有，你户口所在地没有嘛？要是没有那就是在城里买房子了！那可比村里的值钱！ 应该能回去，户主还健在的话，只是恢复不了农村户口，你的那一页会清楚的打印上非农。我远嫁到农村，户口迁到我公公户口本上，我的那一页是非农，好奇葩呀！ 那又怎么样，谁定的规矩谁说的算！实在不行可以为了你改一改！想算你违法还不容易吗！ 中国！你到底怎么了？ 女儿有权继承父母所有财产 这种产权制度可笑至极，自古未有 钱一个字就能解决的问题，乡镇里面可能没送到家。 外嫁女离婚了，户口能回原籍吗？（婚前农业户口，婚后非农） 我祖上还在北京住过呢！ 这就是你们当初打土豪分田的初衷吗？只要有后代，宅基地都应该享有继承权，所谓户口不在村里不让建，纯属扯淡！ 第三国家中转谁查的到你双国籍 肯定不能，我就是这个情况，不仅回不去村里一切福利都不再享受。就算我父母不在了，他们的房子我也只能居住，不能重建。 不能，现在想非农业户口转农业户口太难太难了 不知道当年推车的今天怎么个感想 按风俗来说，广东女人嫁出去后没权利回娘家分财产，除非家里没男人👸 好吧，你赢了[狗] 说的很对，这些个鸟村长迟早会雷劈的[挨揍][挨揍] 权力说了算…… 自己作死！户口不在本村的，起房子还不低调点。 户口不在了，原来的地和住宅都不能继承了吗？ 要拆迁了吗？ 我们这边外嫁女回来住对家里男丁是不好的，一群捞仔懂个毛 辣么邪恶😂😂😂 有常住户口，没有任何国家，文件政策，山东莘县十八里铺镇李大庙村村书记强行把人 当然不是，在农村不是本村人要建房子必须要全村人签名同意！我们村里有个从小给别人带的人户口迁回来盖房都要全村签名，别说户口不在本村的 我们村上最豪华的房子他们的主人基本都是仆人 计划生育，没人接盘了，放开二胎，还有城镇化 有钱就能建，上下都打点了。当官的会管你屁民。 不信天地、鬼神、报应的一群垃圾！ 为什么？ 当年打土豪，斗地主然后自己当，祖宗留下的凭什么不能继承 住宅能继承，地不能继承 家族分裂 你真傻逼，农村喔个建房子不是这样的？ 看清楚。。本村民就不认识这个外嫁女。。。。。这个肯定违建 这是有钱，买通了村干部。全国都一个样。村里稍微有点势力的，什么盖房，迁户口，给村干部点钱都能办。不给钱，在村里再没点势力，村干部各种刁难，不给办。 那时政策就这样，反正是华侨房就得归还人家，没得说，钱也没得给回你 沃艹照这个说法我死去的亲爹留给我的房子还不能去要了啊。我随我妈改嫁的 尼玛，我就是法 河北也一样，女儿没有继承遗产的，受民俗影响 多少城市户口的人都等着承包地和宅基地可以继承的那天呢，这是本地人和外迁人之间的矛盾。 天黑了，走夜路要小心 它们自称是人选的 各地不同，一般要原籍父母有户口，且当地村民同意 谁叫你爷爷跟着去了[窃笑][窃笑][窃笑] 华侨移民外国了…户口也不在，他们是不是没有权利回老家盖房？人家祖辈的房子，你有权利没收？ 傻逼法盲真多 只是利用愚民罢了，过河拆桥而已…… 该没收，没人逼你移民，想两头吃吗？做梦 这样是很有趣的哦，我也是喜欢的 叫他们当初不超生生个儿子，这下傻逼了吧 这是一个神奇的国度。 你说违法就违法 我们岳阳临湘三角平这还猖狂些，有钱的都动用关系把户口迁回来，在村里霸占土地，去镇府告，完全没人管，打12345也没人管，农民真可怜，只能看着别人家霸占自己家的土地，当官真好，可以挂职，不用上班就领工资，还可以收钱，人，真的不需要去外面努力，就好好读书，当贪官就好 他妈的，计划生育时是否可以说女孩是嫁到外地的，可以多生几个？ 卸磨杀驴 外嫁女离婚了，户口能回原籍吗？（婚前农业户口，婚后非农） 把自己老家“建设”得没有立足之地，年年要背井离乡外出谋生了，咱就别说别人傻逼了 啊哟喂，这个问到精髓了。 妈妈的，我老爸当时六几年花八十大元买的，我能记事开始应该是十块左右一个月吧，老听他唠叨说存好几年的了 以前是有双重国藉，以前还有双重户籍呢，你怎么不叫现在的物价回到几毛钱的时代呢 我还土生土长一直居住在此，地基照样被没收了。敢不服？ 那么问题来了，这些土地不能继承，那么是谁的 别傻了，以前是双重国藉，现在已取消双重国藉了 就问你一句：服不服？枪🔫🔫🔫 政法委副书记先生，你家有没有违建？你们村村长有没有违建？本村人的祖屋因无户口就不能建吗？ 大地主收网了 不能 收税可以，但家里长辈传下来的家族里的房子为什么不能拆建保留 户口不在了还说个屁 这就是你们当初打土豪分田的初衷吗？只要有后代，宅基地都应该享有继承权，所谓户口不在村里不让建，纯属扯淡！ 风俗是吃人的，法律才是世界根本 农村包围城市，讲白就是农民好骗 应该捐钱给村里修路建学校然后下面的事就好办了……村干部 首先，请村民吃顿饭，给邻居送米面油 父母资产子女享有继承权，女儿就不能继承么？ 国家的别动 按风俗来说，广东女人嫁出去后没权利回娘家分财产，除非家里没男人👸 可以 不让盖，但是买是让买的 太不合理了，为什么？ 华侨移民外国了…户口也不在，他们是不是没有权利回老家盖房？人家祖辈的房子，你有权利没收？ 干丫的 现在的农村，这种现象，不是一般的乱 外嫁户口没迁出呢，男女不平等吗？ 看到没有，农村农民没有那么单纯的，所以还是私有好点 越来越扯了！ 关键她户口迁出去了，凭啥回来享受村集体福利 都是借口，还不是没做到位…… 男女平等！外嫁女儿就不是本地人了，老古董，老封建！ 所以以后就不要叫华侨中华民族子孙了，人家什么都没有了， 记着我们保卫的是70年产权 不是，看户口的，只要户口没随迁出去，分红分地还是有你一份。 你个傻逼，你祖上可能几百年前在河南山西某个农村，你去盖个试试？ 就是违建，都嫁出去了哪来的老宅，该还回村里，想两头通吃吗？ 重男轻女！妇联去哪里了？ 真洋气[大笑] 别为自己辩了，想两头吃那是做梦 宅基地是只供本村村民使用，父母亲戚都不在，这女的户口也不在，继承什么？ 难道老实人想分财产？[窃笑][窃笑] 为了拆迁 只是利用愚民罢了，过河拆桥而已…… 不是说时代不同了，男女都一样么？有了利益就不一样了？ 早晚呵呵呵的事[微笑][微笑] 你说违法就违法 没有严厉的追责机制，法律是什么？ 看菜吃饭了 刘某如果嫁出去，且户口已外迁，将不再拥有娘家的宅基地使用权。 征服：不能、已没有原籍自己圆寂吧 女儿没有继承权? 村里要拆迁了吧 柚子公主要出嫁了吗？你看我怎么样？💁 世纪大泡沫要完 本来就是违法 宅基地只有使用权，所有权归村集体，房子若还在，你能继承，房子不在了，使用权就没有了 必须不能，有几个村能接收 首先宅基地不是商品房用地，宅基地是属于村集体的，只供本村村民使用，既然当初把户口迁了出去就代表你不再属于这个村了。现在父母亲戚也不在了，你也不属于这个村的，还谈什么继承。 外嫁女离婚了，户口能回原籍吗？（婚前农业户口，婚后非农） 这就是你们当初打土豪分田的初衷吗？只要有后代，宅基地都应该享有继承权，所谓户口不在村里不让建，纯属扯淡！ 别人世世代代传下来的资产你说违法就违法？哪朝哪代搞农民的都没好下场 打土豪，斗地主，然后自己当 凭什么，女儿没有继承权利吗 服部服🔫 ",
        "Link": "http://comment.news.163.com/news2_bbs/D6T3LAN0000187VE.html",
        "Total": 4289,
        "Reply": 240
    },
    "Source": "Netease",
    "Title": "\"外嫁女\"回村在老宅上盖房 镇政府:属违建将查处_网易新闻",
    "KeyWords": "镇政府,违建,建房,外嫁女"
}