{
    "Source": "Netease",
    "KeyWords": "阿富汗,爆炸,情报局,北京",
    "Title": "阿富汗首都情报局附近发生爆炸 有人员伤亡 _网易新闻",
    "PublishTime": "12/25/201712:06:05",
    "URL": "http://news.163.com/17/1225/12/D6GHV3D20001875O.html",
    "Article": "（原标题：阿富汗首都情报局附近发生爆炸有人员伤亡）海外网12月25日电据当地媒体报道，阿富汗首都喀布尔情报局办公室附近发生一起爆炸，有人员伤亡。本文来源：海外网责任编辑：赵亚萍_NN9005",
    "Comment": {
        "Content": "叙利亚、伊拉克、阿富汗、索马里、也门的日常 这他妈也算个新闻？ 叙利亚、伊拉克、阿富汗、索马里、也门的日常 这他妈也算个新闻？ ",
        "Reply": 2,
        "Link": "http://comment.news.163.com/news_guoji2_bbs/D6GHV3D20001875O.html",
        "Total": 4
    }
}