{
    "Title": "哥斯达黎加一架小型飞机坠毁 机上12人全部遇难_网易新闻",
    "PublishTime": "01/01/201804:47:02",
    "URL": "http://news.163.com/18/0101/04/D71PK6HP0001875O.html",
    "Source": "Netease",
    "KeyWords": "哥斯达黎加,遇难,飞机,山区",
    "Comment": {
        "Reply": 19,
        "Content": "外国看上去好乱...... 速度与激情玩脱了[微笑] 新年头一天，真不幸 飞机还是不踏实 我怎么记得俄罗斯已经掉过一架灰机了? 飞机不出事则已，一出事基本都很难保命 一旦出故障就完了 这小飞机你们坐过? 大国崛起 油价上调,摔飞机. 外国看上去好乱...... 速度与激情玩脱了[微笑] 新年头一天，真不幸 [被黑] 飞机还是不踏实 总之没有车安全 飞机不出事则已，一出事基本都很难保命 反正那上面没有姐我就可以耶[微笑][微笑][微笑] 总之没有安全感。 环球屎报说10人！ 小飞机更吃气流 新年。。。 已阅 世界和平 我怎么记得俄罗斯已经掉过一架灰机了? 一旦出故障就完了 ",
        "Total": 105,
        "Link": "http://comment.news.163.com/news_guoji2_bbs/D71PK6HP0001875O.html"
    },
    "Article": "（原标题：一架飞机在哥斯达黎加坠毁机上12人全部遇难）坠机现场。海外网1月1日电据外媒(FoxNews)报道，哥斯达黎加政府于当地时间12月31日发表声明称，一架飞机在该国西北部瓜那卡斯特省坠毁，机上12人全部遇难。另据哥斯达黎加星报报道，这架飞机准备飞往胡安·圣玛丽亚国际机场(JuanSantamariaInternationalAirport)，但飞机起飞后不久就遇到问题，随后坠毁在山区丛林中并立即着火。报道称，哥斯达黎加当地官员表示，飞机上的12人中，有10名外国乘客和2名哥斯达黎加机组人员。由于失事地点位于偏远地区，当地救援队无法迅速抵达现场。该地区官员证实，飞机上没有人幸存下来。(编译/刘亚伟)本文来源：海外网责任编辑：官平_NN4892"
}