{
    "Source": "Netease",
    "KeyWords": "黄圣依,",
    "Title": "黄圣依与杨子贴身同行小鸟依人 露幸福笑容_网易娱乐",
    "PublishTime": "12/25/201707:51:31",
    "URL": "http://ent.163.com/photoview/00AJ0003/646616.html",
    "Article": "黄圣依与杨子贴身同行小鸟依人露幸福笑容日前，黄圣依、杨子夫妇出席活动亲密进场，黄圣依小鸟依人、杨子显霸气，两人露出幸福笑容十分有夫妻相。",
    "Comment": {
        "Content": "小三 蔡国庆黑的最惨的一次 第二张不是蔡国庆吗 杨子一定是被蛇形走步给迷住了，一定是！ 造型土 这男的到底是干嘛的，让黄圣依心甘情愿跟他那么多年 在爱情里，那个不被爱的才是第三者吧? 记得按时吃药。 没牵手，好奇怪 婊子配狗 乡镇企业家和小老婆。 这俩放一块谁是丑逼不好说吧？ 黄圣依所有小三的楷模 幸福 鞋拔子脸哦别告我 上市公司巨力索具是他家的 亿万富翁又年轻他们生了两个儿子黄圣依人生赢家 这小三是最成功的么 没牵手？感情也不是很深呀[狗] 以前功夫时期觉得她挺漂亮的，现在越看越丑 这三观你很有潜质 屁他们家就是出身农村的河北保定徐水在徐水有个厂子貌似效益不好现在该建房圈钱呢 海娃你怎么了 杨子一直有种香港卖西瓜的既视感 一直不明白杨老板为何为这个丑逼放弃家庭，哎。 像蔡国庆 越来越有夫妻相 黄屁股小三 巨力老板你都不知道？红色背景 黄尴尬 她大姐邓文迪、二姐李嘉欣表示不服 很配的一对！我说的是贬义 咯咯咯咯咯 明显女的配他绰绰有余 生了两个儿子也是有福气的 演技那么尴尬各种提供鬼畜素材的好丢人居然还好意思出来 说黄圣依演技不好，我就不服了，那么多年人家演的多好 发自内心的开心，真好 老板，有钱。 这衣服，换造型师吧，求你 也算是转正了 这衣服 亿万富翁又年轻他们生了两个儿子黄圣依人生赢家 第二张不是蔡国庆吗 逼不丑啊，日过，一线天 这男的到底是干嘛的，让黄圣依心甘情愿跟他那么多年 气质呢？ [羞羞][羞羞][羞羞] 这小三是最成功的么 这俩放一块谁是丑逼不好说吧？ 幸福 贱3 没牵手？感情也不是很深呀[狗] 出门右转眼科 屁他们家就是出身农村的河北保定徐水在徐水有个厂子貌似效益不好现在该建房圈钱呢 蔡国庆黑的最惨的一次 杨子一直有种香港卖西瓜的既视感 杨子一定是被蛇形走步给迷住了，一定是！ 黄圣依与杨子贴身同行小鸟依人露幸福笑容 比一般的贵了点罢了 黄尴尬 无语 明显女的配他绰绰有余 这衣服 演技那么尴尬各种提供鬼畜素材的好丢人居然还好意思出来 一直不明白杨老板为何为这个丑逼放弃家庭，哎。 老板，有钱。 确定不是杨白劳？ 记得按时吃药。 没牵手，好奇怪 这俩人的装扮，和他们的性格为人真是匹配 婊子配狗 乡镇企业家和小老婆。 不要整天上头条秀恩爱，既然已经成为夫妻了，那就因该好好回家照顾带小孩儿去哇！黄圣依杨子哈哈 像蔡国庆 宽脸蔡国庆 之前看过黄的一篇关于身高问题的文章，由此可见，杨子的身高。。。。。。。 亿万富翁 以前功夫时期觉得她挺漂亮的，现在越看越丑 挺有夫妻相的 扬子衬衣领子下面那颗天珠估计得不少钱！ 第一眼以为曾志伟长高了呢 杨子的眼睛不看黄圣依嘛。 越来越有夫妻相 巨力老板你都不知道？红色背景 她大姐邓文迪、二姐李嘉欣表示不服 黄圣依所有小三的楷模 生了两个儿子也是有福气的 这衣品太差了 发自内心的开心，真好 这衣服，换造型师吧，求你 也算是转正了 小三 上市公司巨力索具是他家的 造型土 很配的一对！祝福 婊子配狗 黄圣依《红苹果乐园》里的模样，应该没几个男人不动心吧。现在庸脂俗粉了很多 上海女人的典范！ 海娃你怎么了 黄圣依所有小三的楷模 她付出了尊严…… 鞋拔子脸哦别告我 游戏 这三观你很有潜质 还真有夫妻相 在爱情里，那个不被爱的才是第三者吧? 插刀教全冠清夫妇 黄屁股小三 这男的到底是干嘛的，让黄圣依心甘情愿跟他那么多年 打扰了 现在这样也挺好的 咯咯咯咯咯 黄圣衣就是美 说黄圣依演技不好，我就不服了，那么多年人家演的多好 很配的一对！我说的是贬义 天生一对 夏天的照片拿出来就是一篇文章，好赚 打扮的很土啊 ",
        "Reply": 75,
        "Link": "http://comment.ent.163.com/ent2_bbs/PHOTJNEO000300AJ.html",
        "Total": 1345
    }
}