{
    "URL": "http://ent.163.com/18/0101/21/D73IKL9M00038FO9.html",
    "Title": "王栎鑫回忆与俞灏明相识10年 兄弟同台上演回忆杀_网易娱乐",
    "KeyWords": "俞灏明,王栎鑫,国剧盛典",
    "Article": "俞灏明、王栎鑫俞灏明、王栎鑫俞灏明、王栎鑫网易娱乐1月1日报道安徽卫视2017《国剧盛典》中不仅众多剧组再次重聚，就连王栎鑫、俞灏明这对快男兄弟也难得再聚首，两人更是上演了一系列回忆杀表演《花样青春》。与《国剧盛典》举办10周年相似，王栎鑫在舞台上讲述了与俞灏明相识10年的经过，回忆起好友遭遇诸多不顺时，俞灏明在台下眼眶含泪。随后，俞灏明上台难掩激动之情，与王栎鑫紧紧拥抱，浓浓兄弟情感人至深。本文来源：网易娱乐责任编辑：李彤_NK4455",
    "Source": "Netease",
    "PublishTime": "01/01/201821:23:26",
    "Comment": {
        "Link": "http://comment.ent.163.com/ent2_bbs/D73IKL9M00038FO9.html",
        "Reply": 17,
        "Content": "好兄弟一辈子 不容易 杜明礼演的不错希望涅槃重生支持俞灏明 那要烧成灰，才能涅槃重生，难道再烧一次？ 期待有更好的作品，支持你们 钓鱼岛是中国的，苍井空是世界的，同意的点右上角 看了那一年的快男，当年王栎鑫最小，18岁 希望和回忆都同样的美好 戏子别在装了 杜明礼演的不错希望涅槃重生支持俞灏明 杜明礼演的不错希望涅槃重生支持俞灏明 原来都在同一个瞬间,让一切瞬间上演,瞬间消散,瞬间变成了回忆. 杜老板[大笑] 好兄弟一辈子 钓鱼岛是中国的，苍井空是世界的，同意的点右上角 期待有更好的作品，支持你们 这才是真正的兄弟，你受伤后真的变更帅了 杜明礼演的不错希望涅槃重生支持俞灏明 那要烧成灰，才能涅槃重生，难道再烧一次？ 戏子别在装了 不容易 看了那一年的快男，当年王栎鑫最小，18岁 希望和回忆都同样的美好 杜明礼演的不错希望涅槃重生支持俞灏明 杜明礼演的不错希望涅槃重生支持俞灏明 ，那那部电视不错，好像叫破晓，演叶律齐大律师 谁知道邵氏演员董力现在在干嘛，曾经用过艺名康华，演过黑店，鹰王，游侠儿等等一些电影。 杜明礼演的不错希望涅槃重生支持俞灏明 原来都在同一个瞬间,让一切瞬间上演,瞬间消散,瞬间变成了回忆. 杜老板[大笑] ",
        "Total": 268
    }
}