{
    "Title": "冯小刚吴京跨年对话:中国电影精彩热闹有得瞧_网易娱乐",
    "PublishTime": "01/01/201815:05:56",
    "URL": "http://ent.163.com/18/0101/15/D72T1EN800038FO9.html",
    "Source": "Netease",
    "KeyWords": "冯小刚,吴京",
    "Comment": {
        "Reply": 3,
        "Content": "就一部战狗就跟冯小刚平起平坐咯啧啧 战狗🐶yeah！ 就一部战狗就跟冯小刚平起平坐咯啧啧 芳华不错 战狗🐶yeah！ ",
        "Total": 34,
        "Link": "http://comment.ent.163.com/ent2_bbs/D72T1EN800038FO9.html"
    },
    "Article": "《芳华》导演冯小刚与《战狼2》导演吴京截图网易娱乐1月1日报道12月31日，冯小刚、吴京出席电影频道跨年晚会，共同上台发布2017年中国电影年度核心数据。吴京作为新晋导演希望自己去学习如何拍出世界级的电影，而冯小刚则向那些十几年不经常进电影院却观看了《芳华》和《战狼2》的观众鞠躬感谢。冯导用一句话总结刚刚过去的一年：2017年，中国电影够精彩、够热闹、有得瞧！本文来源：网易娱乐责任编辑：李彤_NK4455"
}