{
    "Source": "Netease",
    "PublishTime": "12/26/201708:41:44",
    "KeyWords": "斯旺西,利物浦,节礼日",
    "Title": "利物浦VS斯旺西前瞻:节礼日不败 菲鸟连场爆发?_网易体育",
    "Comment": {
        "Link": "http://comment.sports.163.com/sports2_bbs/D6IOLKK900058781.html",
        "Total": 18,
        "Content": "啊啊，ks三三九！！利物浦VS斯旺西前瞻:节礼日不败菲鸟连场爆发?凯时！！ 詹不是受伤了 库鸟确实厉害 库鸟快走了利物浦下赛季靠谁？ 在于他在这场上一 马大腿不上？ 呀没 啊啊，ks三三九！！利物浦VS斯旺西前瞻:节礼日不败菲鸟连场爆发?凯时！！ 嗯嗯 詹不是受伤了 库鸟确实厉害 哈好 库鸟快走了利物浦下赛季靠谁？ 呀没 在于他在这场上一 马大腿不上？ 大腿又替补？ ",
        "Reply": 10
    },
    "Article": "网易体育12月26日报道：北京时间12月27日凌晨1:00，2017-2018赛季的英超联赛第20轮将会进行一场焦点大战，英超豪门利物浦在主场迎战斯旺西。历史战绩：两支球队在英超的历史上有过12次的交手，利物浦6胜3平3负，打入22球丢14球占据优势。两支球队最后一次交手是在2017年的1月21日的英超联赛中，利物浦在主场以2-3的比分输给了斯旺西。比赛看点：看点一：利物浦主场争三分在本赛季的英超赛场，利物浦在主场的成绩不错，过去的9个主场比赛，红军4胜5平保持不败。此战迎来斯旺西，红军实力占优，因此渣叔渴望利用主场之利取得三分。同时在节礼日的比赛中，红军的主场战绩一直不错，在过去的10次节礼日主场比赛中，红军取得了7胜3平的成绩。看点二：菲尔米诺爆发？菲尔米诺可谓是斯旺西的克星，在过去三次代表红军对战斯旺西的比赛中，菲尔米诺打入了三个进球，场均进球数达到1个。而在最近两轮的比赛中，菲尔米诺的竞技状态也十分高光，两轮比赛打入2球助攻1次。本场对战斯旺西的比赛，菲尔米诺能否连续爆发值得期待。预测首发：利物浦(433)：1-卡里乌斯/66-阿诺德、17-克拉万、32-马蒂普、26-罗伯逊/7-米尔纳、23-埃姆雷-詹、10-库蒂尼奥/21-张伯伦、9-菲尔米诺、11-萨拉赫斯旺西(433)：1-法比安斯基/22-兰吉尔、33-费尔南德斯、6-莫森、16-马丁-奥尔森/17-克鲁卡斯、56-富尔顿、14-汤姆-卡罗尔/18-乔丹-阿尤、10-亚伯拉罕、12-代尔本文来源：网易体育作者：塞尔吉责任编辑：姚成浩_NS4810",
    "URL": "http://sports.163.com/17/1226/08/D6IOLKK900058781.html"
}