{
    "Article": "（原标题：张小雷被采取刑事强制措施警方吁请钱宝网用户配合调查取证）新华社南京12月29日电（记者朱国亮、潘晔）29日，记者从南京市公安局获悉，钱宝网实际控制人张小雷因涉嫌非法集资犯罪被采取刑事强制措施，警方吁请各地钱宝网用户到本人户籍地或实际居住地公安机关经侦部门或派出所报案，配合调查取证。2017年12月26日，钱宝网实际控制人张小雷因涉嫌犯罪向南京市公安机关投案自首。南京市公安机关依法对张小雷等人涉嫌非法集资犯罪活动立案侦查。目前，张小雷等主要犯罪嫌疑人已被南京市公安局江北新区分局依法采取刑事强制措施。南京警方介绍，据张小雷本人供述并经初步调查，张小雷等犯罪嫌疑人以钱宝网为平台，以完成广告任务获取高额收益为诱饵，收取用户保证金，采用吸收新用户资金、用于兑付老用户本金及收益等方式，向社会不特定公众吸收巨额资金，涉嫌非法集资犯罪活动。为便于公安机关查明案情，南京警方吁请各地钱宝网用户到本人户籍地或实际居住地公安机关经侦部门或派出所报案，登记填写真实信息，主动配合公安机关开展调查取证工作。各地钱宝网用户也可登录《“钱宝系”非法集资案件集资参与人受理报案登记平台》（www.njga.gov.cn），按照提示要求登记填写真实信息。公安机关将依法侦办案件，最大限度追赃挽损，并及时公布案件侦办进展情况。请钱宝网用户不信谣、不传谣。本文来源：新华社责任编辑：姚立伟_NT6056",
    "URL": "http://tech.163.com/17/1229/17/D6RFBENK00097U7R.html",
    "Source": "Netease",
    "KeyWords": "钱宝网,张小雷,犯罪,集资",
    "Comment": {
        "Reply": 33,
        "Link": "http://comment.tech.163.com/tech_bbs/D6RFBENK00097U7R.html",
        "Total": 168,
        "Content": "宝粉们，一定要团结！ 额其实资金方面没出事是国家发现了苗头不对才抓起来的不像有的盘因为挤兑崩盘钱宝没有发生挤兑所以大多数人才觉得不敢相信当然我也愿赌服输钱没了还可以挣希望那些仍旧抱有幻想的宝粉们看清现实不要在纠结了好好把钱挣回来才是真的我已经释怀了只是还有点心痛毕竟好几十万就这么没了 在中国，所有高回报的投资金融理财都是诈骗！除了……股票！ 宝粉们，一定要团结！非得逼得家破人亡，妻离子散！国家才肯罢休，为什么不为受害者想想 为什么等出事了才来调查？之前上市没人监管吗？ 没出事之前早就再三声明钱宝网有问题，关键你去跟别人说，还被别人劈头盖脸的骂一顿说你妨碍他赚钱。有什么办法呢百分之90的都知道有问题，都以为自己不是那最后接盘侠。 钱没了才跑去自首的，估计把张小雷和钱宝持有的房子卖卖还能凑一两个亿，然后报案的每人返还个0.5%。这个事情真不能怪政府，就是智商税，损失的人应该反省反省为什么做梦想屁吃。 MBI投资分为动态静态，静态坐着收钱，动态拉人投资有高额回报，稳赚不赔，欢迎你的加入。 主动投案自首的，为啥还采取强制措施？请懂法律的解释一下 不可能，新华社被黑客控制了，假消息！ 因为怕被人杀 🙈宝粉团结起来，一起跳楼 没出事之前早就再三声明钱宝网有问题，关键你去跟别人说，还被别人劈头盖脸的骂一顿说你妨碍他赚钱。有什么办法呢百分之90的都知道有问题，都以为自己不是那最后接盘侠。 任何公司只要掏钱都可以在卫视做广告。 这是砸钱吧 宝粉们，一定要团结！非得逼得家破人亡，妻离子散！国家才肯罢休，为什么不为受害者想想 哈哈哈，不敢相信是不是 都掉坑了 天台见[微笑] 层出不穷，就是不作为， 因为怕被人杀 为什么等出事了才来调查？之前上市没人监管吗？ 很多人傻子还在说南京政府眼红雷老板的房子。因为有个房子在规划城区内，未来价值二千亿。 🙈宝粉团结起来，一起跳楼 宝粉们，一定要团结！ 骗子要定期收割傻子的，这是规律。如果你的智商欠费，那么难免要缴纳“智商税”来弥补的。傻子们看中了骗子的“利息”，而骗子们看中傻子的“本金”。<br>这些“傻子”们并不是真傻，而是恰恰是利令智昏的贪婪之徒。他们或多或少是知道这是个骗局的，但就想着这个是难得发财的机会，会怪亲朋好友苦口婆心的相劝，好像挡了他的财路一般，甚至怪有关部门去查处这些骗子公司，让他们失去了发财的机会。 额其实资金方面没出事是国家发现了苗头不对才抓起来的不像有的盘因为挤兑崩盘钱宝没有发生挤兑所以大多数人才觉得不敢相信当然我也愿赌服输钱没了还可以挣希望那些仍旧抱有幻想的宝粉们看清现实不要在纠结了好好把钱挣回来才是真的我已经释怀了只是还有点心痛毕竟好几十万就这么没了 为什么 为什么敏感文字还发不出去！ 主动投案自首的，为啥还采取强制措施？请懂法律的解释一下 博傻而已，往往人们都会高估自己的能力，都认为自己不会接最后一棒。明知山有虎偏向虎山行。人性的弱点。 发不了帖吗 在中国，所有高回报的投资金融理财都是诈骗！除了……股票！ 去看看平安南京的官方微博吧，都把非法集资字眼删除了，很明显，政府在里面混水摸鱼。 出来的笑看坑里面的哭出来吧 钱没了才跑去自首的，估计把张小雷和钱宝持有的房子卖卖还能凑一两个亿，然后报案的每人返还个0.5%。这个事情真不能怪政府，就是智商税，损失的人应该反省反省为什么做梦想屁吃。 7年了我们的监管部门出来走两步 刑拘?真的话要赞一个,但是不是真的? MBI投资分为动态静态，静态坐着收钱，动态拉人投资有高额回报，稳赚不赔，欢迎你的加入。 不可能，新华社被黑客控制了，假消息！ 一定要团结！ 不交钱卖无可卖 可能还会有些人执迷不悟 经过调查取证工作，在大量证据面前，这个大量是指同种类个体数量吧 厉害了 "
    },
    "Title": "张小雷被刑拘　警方吁请钱宝网用户配合调查取证_网易科技",
    "PublishTime": "12/29/201717:52:03"
}