{
    "PublishTime": "12/28/201701:31:04",
    "Source": "Netease",
    "Comment": {
        "Link": "http://comment.news.163.com/news2_bbs/D6N4QJNQ00018AOP.html",
        "Total": 637,
        "Reply": 45,
        "Content": "牛B，不到三月又有男友 看了几遍也没看懂 该死 陈某太傻逼了 标题好晦涩，编辑学历高 本来是想杀前妻的 这位男友真下车的话，被杀的就是这个女人和孩子了。 三个月就有男友了，这女的也不是啥好东西吧 有感情基础？去见前妻和孩子还带着刀？人渣死全家！ 哎，这人平时也不是什么好东西，失去了才知道珍惜！你看看自己妻子和一个老男人在一起受不了啦吧？ 见妻女带刀？应该是前妻觉察到危险不让男友离开，男友不走也是想保护母女，不然真的只是聊聊女方会想办法支开被害人的，被害人也一定会听女方话，看这情形女的也不想让被害人走，那就是她也害怕了，结果果不其然，前夫就是个疯子[石化][石化][石化] 一命抵一命。 符合中国国情，人家女儿三岁了，有一定的感情基础.....你以为是看电视剧吗？该死。 激情杀人 咋滴？还得为你守孝三年？ 这位男友真下车的话，被杀的就是这个女人和孩子了。 杀得好！ 也是看了几遍。[喷水] 杀之后快！ 你不去写小说可惜了！ 不就缺一个顿号吗，看不懂的多看看书 应该任命你当法官——不是讥讽。 还真是，谁去见女儿会是身上带着刀去的 见女儿带刀？明显故意杀人，男的走了估计小女孩都被杀了，性质特别恶劣，直接死刑！ 标题取得好深奥！女儿前妻是什么东东？ 前夫34，男友45，老牛吃嫩草啊这个男盆友 本来就是想杀前妻的，除非前妻答应他的要求，结果杀男的了 赵某就是SB 哎，现在这人啊 应该就是打定主意威胁前妻就范啥事的，没有目的谁见孩子会带刀呀！离婚都逃不开这种人渣，女孩找对象真是要擦亮眼睛！ 协议离婚，肯定是长期感情不合，估计早都相处了 这位男友真下车的话，被杀的就是这个女人和孩子了。 明明是你自己的老婆，硬是让你老婆成为了别人的老婆！他应该反思 牛B，不到三月又有男友 看了几遍也没看懂 标题好晦涩，编辑学历高 这位男友真下车的话，被杀的就是这个女人和孩子了。 呵呵找个大点的都挨骂不是好东西那老牛吃嫩草的男的是什么？ 见妻女带刀？应该是前妻觉察到危险不让男友离开，男友不走也是想保护母女，不然真的只是聊聊女方会想办法支开被害人的，被害人也一定会听女方话，看这情形女的也不想让被害人走，那就是她也害怕了，结果果不其然，前夫就是个疯子[石化][石化][石化] 符合中国国情，人家女儿三岁了，有一定的感情基础.....你以为是看电视剧吗？该死。 咋滴？还得为你守孝三年？ 见女儿带刀？明显故意杀人，男的走了估计小女孩都被杀了，性质特别恶劣，直接死刑！ 还真是，谁去见女儿会是身上带着刀去的 也是看了几遍。[喷水] 你不去写小说可惜了！ 男的45岁，估计年龄最少差10岁，女的也不是什么好玩意 不就缺一个顿号吗，看不懂的多看看书 尼玛，标题的标点呢？ 哎，这人平时也不是什么好东西，失去了才知道珍惜！你看看自己妻子和一个老男人在一起受不了啦吧？ 前夫34，男友45，老牛吃嫩草啊这个男盆友 标题取得好深奥！女儿前妻是什么东东？ 哎，现在这人啊 协议离婚，肯定是长期感情不合，估计早都相处了 这位男友真下车的话，被杀的就是这个女人和孩子了。 不是深奥，而是措辞欠考虑。 该死 三个月就有男友了，这女的也不是啥好东西吧 赵某就是SB 有感情基础？去见前妻和孩子还带着刀？人渣死全家！ 这女的离婚还带孩子，能找个45的也算可以了，年龄相当的男的哪个不想找二十来岁的？ 一命抵一命。 陈某太傻逼了 激情杀人 这位男友真下车的话，被杀的就是这个女人和孩子了。 杀得好！ 关系排序得琢磨会儿 这标题我看了半天愣是没看明白，小便个傻❌ 应该任命你当法官——不是讥讽。 为什么不两个一起解决？三个月就有男朋友，淫妇！你亏了 流星月亮地球太阳系有发动机么？没有!他们却高速在宇宙中运行!为什么？因为他们的运行轨道本身就是太空高速时空隧道!他们的运行路线一半为去路一半为来路，周而复始地运行着!地球自转公转着，本就没有东西南北上下左右等方位!谁定的？我们的天父啊!目的只有一个，告诉人类我们天父的星座方位!所以九曲桥的方向始终对着东北方!在宇宙一切物质中，永远是子体围绕母体运动，这是恒定的!所以地球自转并围绕太阳公转!因地球是自转公转的，所以根据地球的东西南北是找不到星外文明的星座方位的!只有找到太阳的上下前后东西南北才能准确地给天父星座方位定位!我们天父星座方位在太阳系东北上方第九颗恒星那里!那里以双伴恒星为中心带动周围108颗恒星运动着! 本来就是想杀前妻的，除非前妻答应他的要求，结果杀男的了 明明是你自己的老婆，硬是让你老婆成为了别人的老婆！他应该反思 45岁老男人抢了34岁男人的老婆，老牛吃嫩草还吃得那么霸道，估计说的话还难听，活该被捅死。 本来是想杀前妻的 有很强很缜密的推理能力？ 杀之后快！ 应该就是打定主意威胁前妻就范啥事的，没有目的谁见孩子会带刀呀！离婚都逃不开这种人渣，女孩找对象真是要擦亮眼睛！ 一命抵一命。 "
    },
    "Article": "（原标题：当着3岁女儿面他捅死前妻男友）华商报讯男子离婚3个月后前去探望前妻和女儿，因想单独与妻女说话，前妻现任男友拒绝回避，盛怒之下当着3岁女儿面持刀将对方捅伤致死。12月11日晚8时许，丹凤县红卫路发生一起血案，一男子被人当街持刀捅伤，行凶者行凶后逃跑。警方调查得知，受害人陈某（男，45岁，福建省龙海市人）与赵某系恋爱关系，行凶者系赵某的前夫王某某（男，34岁，延安市洛川县人）。办案民警介绍，行凶者王某某今年9月与赵某协议离婚。12月11日，王某某来丹凤看望赵某及两个子女，赵某同3岁的女儿在现男友陈某的陪同下与王某某见面，后一同乘坐由王某某驾驶的车辆，在车上王某某提出单独与前妻和女儿说话，要求陈某回避被拒绝，王某某遂持刀将后排的陈某捅伤胸部，伤及心脏，后经抢救无效死亡。案发后，丹凤县公安局成立专案组全力侦破此案，两天后锁定犯罪嫌疑人王某某行踪，在当地警方配合下，专案组民警在延安市宝塔区将畏罪潜逃的犯罪嫌疑人王某某抓获。目前，犯罪嫌疑人王某某已被丹凤警方刑事拘留，案件正在进一步办理中。本文来源：华商网-华商报责任编辑：荀建国_NN7379",
    "Title": "男子欲与女儿前妻单独说话 前妻男友拒回避被捅死_网易新闻",
    "URL": "http://news.163.com/17/1228/01/D6N4QJNQ00018AOP.html",
    "KeyWords": "女儿,行凶者,前妻男友"
}